,WD,WS,AIL_1,AIL_2,ELEV_1,ELEV_2,RUDD,ALT,GS,TH,PTCH,ROLL,PLA_1,AIL,ELEV
5267,-0.7898560784729003,0.239062557220459,84.57539367675781,83.94119262695312,-6.548576354980469,87.15309143066406,-0.113677978515625,0.5763333333333334,0.5435714285714286,-0.014983685811360677,1.4611380100250244,0.36253800988197327,46.66958999633789,0.007046678331163195,-0.09668519761827257
5268,-0.7898560784729003,0.239062557220459,84.554931640625,83.4501953125,-6.712242126464844,87.45996856689453,-0.1104956309000651,0.576,0.5407142857142857,-0.014922650655110677,1.494096040725708,0.05493000149726868,48.075828552246094,0.012274848090277778,-0.1019134521484375
5269,-0.7898560784729003,0.219140682220459,83.73661041259766,83.5115737915039,-7.44873046875,87.97142028808594,-0.11345066494411893,0.576,0.5389285714285714,-0.01458696789211697,1.4281799793243408,0.032958000898361206,49.5699577331543,0.0025004069010416668,-0.11577945285373265
5270,-0.8054810784729003,0.219140682220459,84.24806213378906,83.63432312011719,-8.082927703857422,88.58515930175781,-0.11345066494411893,0.5773333333333334,0.5357142857142857,-0.013640954759385851,1.1315580606460571,0.2856360077857971,52.118770599365234,0.006819322374131944,-0.12964541117350262
5271,-0.8093873284729003,0.219140682220459,84.92317199707031,84.12531280517578,-8.880790710449219,89.13752746582031,-0.11322335137261284,0.579,0.5339285714285714,-0.012786483764648438,0.5932440161705017,0.6371880173683167,54.403907775878906,0.008865102132161459,-0.14464797973632812
5272,-0.8171998284729003,0.219140682220459,85.18913269042969,84.22760009765625,-9.74002456665039,89.66943359375,-0.113677978515625,0.581,0.5317857142857143,-0.012206670973036024,0.010986000299453735,0.8569080233573914,56.952720642089844,0.010683695475260416,-0.16010509067111545
5273,-0.7976685784729003,0.219140682220459,84.73905181884766,84.26852416992188,-9.678653717041016,89.85355377197266,-0.1104956309000651,0.583,0.5310714285714285,-0.012908554077148438,-0.6152159147949234,0.8349360227584839,59.501529693603516,0.005228084988064236,-0.1614689721001519
5274,-0.7937623284729003,0.219140682220459,84.39126586914062,83.75706481933594,-9.555904388427734,89.75126647949219,-0.11208680470784506,0.585,0.5310714285714285,-0.012969583935207791,-1.131558077880861,0.5053560137748718,61.25933074951172,0.007046678331163195,-0.15896856519911023
5275,-0.7976685784729003,0.219140682220459,41.900001525878906,83.69569396972656,-9.433155059814453,89.66943359375,-0.11345066494411893,0.5856666666666667,0.5314285714285715,-0.012023570802476671,-1.3402925902099625,0.5273280143737793,62.05033874511719,-0.4643965827094184,-0.1566954294840495
5276,-0.8015748284729003,0.219140682220459,85.74149322509766,84.88226318359375,-9.39223861694336,89.66943359375,-0.11004100375705295,0.5863333333333334,0.5317857142857143,-0.011687888039482964,-1.4721247130126969,0.7580339908599854,62.31401062011719,0.009547000461154514,-0.15624080234103732
5277,-0.7898560784729003,0.219140682220459,41.900001525878906,84.69813537597656,-9.310409545898438,89.50576782226562,-0.11140486399332682,0.5863333333333334,0.5325,-0.012481318579779731,-1.5819841795654312,0.17577600479125977,62.31401062011719,-0.47553482055664065,-0.15351308186848958
5278,-0.7898560784729003,0.239062557220459,84.0025634765625,83.69569396972656,-9.249034881591797,89.52622985839844,-0.11299603780110677,0.586,0.5332142857142858,-0.013030619091457791,-1.6039568358154312,-0.9118391447753922,62.31401062011719,0.003409661187065972,-0.1530584971110026
5279,-0.8015748284729003,0.219140682220459,41.900001525878906,83.40928649902344,-9.249034881591797,89.44439697265625,-0.1148145251803928,0.586,0.5335714285714286,-0.012633901172214084,-1.6588865690917984,-1.2633902006835953,62.31401062011719,-0.4612142774793837,-0.1521492428249783
5280,-0.8054810784729003,0.219140682220459,83.85935974121094,83.20470428466797,-9.249034881591797,89.50576782226562,-0.10822249518500435,0.5853333333333334,0.5335714285714286,-0.013366301854451498,-1.7028299742431656,-0.8678938322753922,60.81987762451172,0.0072739495171440975,-0.15283114115397137
5281,-0.8171998284729003,0.219140682220459,84.41172790527344,83.57295227050781,-9.187660217285156,89.567138671875,-0.11322335137261284,0.5853333333333334,0.5339285714285714,-0.012939071655273438,-1.7357889586181656,-0.16478981311035312,60.380428314208984,0.009319729275173612,-0.1528310987684462
5282,-0.8132935784729003,0.219140682220459,41.900001525878906,84.16622924804688,-9.187660217285156,89.48530578613281,-0.10754059685601128,0.5846666666666667,0.5339285714285714,-0.013091654247707791,-1.7467752867431656,0.5712720155715942,60.380428314208984,-0.46962475246853297,-0.15192184448242188
5283,-0.7937623284729003,0.219140682220459,84.57539367675781,84.02302551269531,-9.208118438720703,89.54668426513672,-0.10776786804199219,0.584,0.5342857142857143,-0.013732502195570205,-1.7467752867431656,0.7140899896621704,60.292537689208984,0.006137424045138889,-0.15283114115397137
5284,-0.7976685784729003,0.219140682220459,84.90271759033203,84.0025634765625,-9.187660217285156,89.50576782226562,-0.11185949113633897,0.5833333333333334,0.5346428571428572,-0.013244236840142145,-1.7357889586181656,0.7140899896621704,60.292537689208984,0.010001712375217013,-0.15214920043945312
5285,-0.7937623284729003,0.219140682220459,84.80043029785156,84.06393432617188,-9.22857666015625,89.48530578613281,-0.11026831732855903,0.583,0.535,-0.013244236840142145,-1.7687460356445328,0.6481740474700928,60.292537689208984,0.00818328857421875,-0.15237647162543402
5286,-0.7976685784729003,0.219140682220459,84.554931640625,83.73661041259766,-9.187660217285156,89.46485137939453,-0.11345066494411893,0.5823333333333334,0.535,-0.012786483764648438,-1.7687460356445328,0.3405660092830658,60.292537689208984,0.009092458089192708,-0.15169457329644098
5287,-0.8015748284729003,0.219140682220459,84.47309875488281,83.40928649902344,-9.146743774414062,89.50576782226562,-0.11140486399332682,0.582,0.5353571428571429,-0.012328735987345378,-1.7797323637695328,0.3185940086841583,60.292537689208984,0.011820136176215277,-0.15169457329644098
5288,-0.7976685784729003,0.219140682220459,84.22760009765625,83.79798889160156,-9.16720199584961,89.42393493652344,-0.10708596971299914,0.5813333333333334,0.5353571428571429,-0.012725453906589084,-1.7687460356445328,0.4943700134754181,60.11676025390625,0.004773457845052083,-0.15101263258192274
5289,-0.7937623284729003,0.219140682220459,85.14820861816406,84.08439636230469,-9.146743774414062,89.52622985839844,-0.11231411827935113,0.5806666666666667,0.5353571428571429,-0.012511836157904731,-1.7357889586181656,0.4284540116786957,60.11676025390625,0.011820136176215277,-0.15192192925347223
5290,-0.7976685784729003,0.239062557220459,85.1072998046875,84.30943298339844,-9.16720199584961,89.44439697265625,-0.10890443589952258,0.58,0.5357142857142857,-0.012328735987345378,-1.7138163023681656,0.3405660092830658,60.11676025390625,0.008865186903211806,-0.15123998853895398
5291,-0.8015748284729003,0.219140682220459,84.82088470458984,84.35034942626953,-9.16720199584961,89.46485137939453,-0.11435991923014323,0.5796666666666667,0.5357142857142857,-0.01153530544704861,-1.6918455534667984,-0.04394401843261875,60.11676025390625,0.005228169759114583,-0.15146725972493488
5292,-0.8132935784729003,0.219140682220459,84.35034942626953,83.71615600585938,-9.146743774414062,89.54668426513672,-0.11322335137261284,0.579,0.5360714285714285,-0.011169105105929904,-1.6588865690917984,-0.3515516691894547,60.11676025390625,0.007046593560112847,-0.15214920043945312
5293,-0.8093873284729003,0.219140682220459,84.5140151977539,83.92073059082031,-9.146743774414062,89.44439697265625,-0.10663134256998698,0.579,0.5360714285714285,-0.011718400319417318,-1.6698728972167984,-0.13183273608398594,60.11676025390625,0.0065920511881510414,-0.1510126749674479
5294,-0.7976685784729003,0.219140682220459,84.39126586914062,83.85935974121094,-9.146743774414062,89.46485137939453,-0.10776786804199219,0.578,0.5360714285714285,-0.012725453906589084,-1.6149431639404312,-0.09887375170898594,60.11676025390625,0.0059100680881076385,-0.1512399461534288
5295,-0.8093873284729003,0.219140682220459,84.6572265625,83.85935974121094,-9.187660217285156,89.54668426513672,-0.11504183875189887,0.5776666666666667,0.5360714285714285,-0.011779435475667318,-1.549027102539064,-0.16478981311035312,60.11676025390625,0.008865186903211806,-0.15260382758246527
5296,-0.8132935784729003,0.219140682220459,84.73905181884766,83.85935974121094,-9.187660217285156,89.48530578613281,-0.10844980875651042,0.5773333333333334,0.5360714285714285,-0.011748917897542318,-1.5709978514404312,0.0,60.11676025390625,0.009774356418185763,-0.15192184448242188
5297,-0.8093873284729003,0.219140682220459,84.69813537597656,83.94119262695312,-9.146743774414062,89.52622985839844,-0.11026831732855903,0.5766666666666667,0.5360714285714285,-0.012237188551161024,-1.5819841795654312,0.02197200059890747,60.11676025390625,0.008410474989149305,-0.15192192925347223
5298,-0.8054810784729003,0.219140682220459,84.86180114746094,83.85935974121094,-9.187660217285156,89.48530578613281,-0.10981369018554688,0.5766666666666667,0.5364285714285715,-0.012481318579779731,-1.549027102539064,-0.07690300280761875,60.11676025390625,0.011138237847222222,-0.15192184448242188
5299,-0.8054810784729003,0.219140682220459,84.88226318359375,84.12531280517578,-9.16720199584961,89.54668426513672,-0.1095863766140408,0.576,0.5364285714285715,-0.012115118238661024,-1.538040774414064,-0.09887375170898594,60.556209564208984,0.008410559760199653,-0.1523765140109592
5300,-0.8054810784729003,0.219140682220459,85.27096557617188,84.20714569091797,-9.22857666015625,89.48530578613281,-0.1104956309000651,0.576,0.5364285714285715,-0.012359253565470378,-1.527054446289064,-0.2966219359130875,60.556209564208984,0.011820220947265625,-0.15237647162543402
5301,-0.8054810784729003,0.219140682220459,85.35279846191406,84.6572265625,-9.187660217285156,89.54668426513672,-0.11254141065809461,0.576,0.5364285714285715,-0.012328735987345378,-1.516068118164064,-0.6152159147949234,60.556209564208984,0.00772857666015625,-0.15260382758246527
5302,-0.8093873284729003,0.219140682220459,84.96409606933594,84.41172790527344,-9.187660217285156,89.50576782226562,-0.11140486399332682,0.5756666666666667,0.5364285714285715,-0.013000101513332791,-1.516068118164064,-1.2963491850585953,60.556209564208984,0.006137424045138889,-0.15214920043945312
5303,-0.8093873284729003,0.219140682220459,84.554931640625,83.67523193359375,-9.187660217285156,89.567138671875,-0.1095863766140408,0.5753333333333334,0.5364285714285715,-0.013885084788004558,-1.4940973692626969,-1.7907186918945328,60.556209564208984,0.009774441189236111,-0.1528310987684462
5304,-0.8132935784729003,0.219140682220459,83.77752685546875,83.14332580566406,-9.146743774414062,89.54668426513672,-0.11026831732855903,0.5753333333333334,0.5360714285714285,-0.01464800304836697,-1.4940973692626969,-1.9005781584472672,60.556209564208984,0.007046678331163195,-0.15214920043945312
5305,-0.8171998284729003,0.219140682220459,84.5140151977539,83.26608276367188,-9.249034881591797,89.567138671875,-0.10594940185546875,0.5753333333333334,0.5364285714285715,-0.015380403730604383,-1.4831110411376969,-1.4171949797363297,60.380428314208984,0.013865915934244792,-0.1535130394829644
5306,-0.8250123284729003,0.19921878814697266,85.39370727539062,84.45263671875,-9.208118438720703,89.52622985839844,-0.11117755042182074,0.575,0.5364285714285715,-0.015380403730604383,-1.516068118164064,-0.7690206938476578,60.292537689208984,0.010456339518229166,-0.15260386996799044
5307,-0.8132935784729003,0.219140682220459,84.554931640625,84.06393432617188,-9.433155059814453,89.66943359375,-0.10981369018554688,0.575,0.5364285714285715,-0.016906234953138564,-1.505081790039064,-0.7580343657226578,60.292537689208984,0.005455525716145834,-0.1566954294840495
5308,-0.8054810784729003,0.219140682220459,84.53446960449219,83.85935974121094,-9.596820831298828,89.85355377197266,-0.10754059685601128,0.5746666666666667,0.5360714285714285,-0.01782173580593533,-1.6698728972167984,-0.8678938322753922,60.292537689208984,0.007501220703125,-0.16055971781412762
5309,-0.8054810784729003,0.219140682220459,83.96165466308594,83.552490234375,-9.658195495605469,89.87400817871094,-0.10822249518500435,0.5746666666666667,0.5353571428571429,-0.018584654066297744,-2.197201388427736,-0.801977770874025,58.27106857299805,0.004546271430121528,-0.16146892971462673
5310,-0.8132935784729003,0.219140682220459,84.41172790527344,83.53202819824219,-9.596820831298828,89.85355377197266,-0.11185949113633897,0.574,0.5346428571428572,-0.018767754236857098,-2.6366411619873062,-0.5492998533935562,56.689048767089844,0.009774441189236111,-0.16055971781412762
5311,-0.8054810784729003,0.219140682220459,83.57295227050781,83.22515869140625,-9.535446166992188,89.79217529296875,-0.10754059685601128,0.5723333333333334,0.5339285714285714,-0.01950015491909451,-2.9881922178955094,-0.16478981311035312,56.24959945678711,0.0038643731011284723,-0.15919579399956596
5312,-0.8015748284729003,0.239062557220459,83.0410385131836,82.61141967773438,-9.474071502685547,89.77172088623047,-0.10276705423990885,0.57,0.5335714285714286,-0.02004945543077257,-3.2957998686523453,0.36253800988197327,55.810150146484375,0.004773542616102431,-0.15828658209906685
5313,-0.7976685784729003,0.239062557220459,84.32989501953125,82.67279052734375,-9.371780395507812,89.73080444335938,-0.10754059685601128,0.5676666666666667,0.5335714285714286,-0.019835837682088218,-3.504534380981447,1.1425440311431885,55.722259521484375,0.018412272135416668,-0.15669538709852432
5314,-0.8054810784729003,0.239062557220459,84.77996826171875,84.1048583984375,-9.351322174072266,89.62850952148438,-0.10504014756944445,0.5643333333333334,0.5339285714285714,-0.018706719080607098,-3.7132688933105484,1.9884660243988037,55.37070083618164,0.007501220703125,-0.15533146328396266
5315,-0.7898560784729003,0.219140682220459,84.73905181884766,83.38882446289062,-9.269493103027344,89.567138671875,-0.10799518161349826,0.5606666666666666,0.5342857142857143,-0.018218453725179037,-3.943974154541017,1.9335360527038574,54.579689025878906,0.015002526177300347,-0.15374035305447048
5316,-0.7937623284729003,0.219140682220459,85.0459213256836,84.0025634765625,-9.208118438720703,89.54668426513672,-0.11185949113633897,0.5566666666666666,0.5346428571428572,-0.01681468751695421,-4.042849200317384,1.7907180786132812,54.22813034057617,0.011592864990234375,-0.15283114115397137
5317,-0.7937623284729003,0.219140682220459,84.71859741210938,84.30943298339844,-9.249034881591797,89.567138671875,-0.11026831732855903,0.5523333333333333,0.5342857142857143,-0.015532986323038737,-4.130736010620119,1.4281799793243408,53.0855598449707,0.004546271430121528,-0.1535130394829644
5318,-0.8015748284729003,0.219140682220459,83.92073059082031,83.5934066772461,-9.208118438720703,89.62850952148438,-0.10867712232801649,0.548,0.5342857142857143,-0.014312320285373263,-4.218624728271486,1.0876140594482422,52.38243865966797,0.003636932373046875,-0.1537403106689453
5319,-0.8132935784729003,0.19921878814697266,84.0434799194336,83.08195495605469,-9.187660217285156,89.54668426513672,-0.10754059685601128,0.544,0.5342857142857143,-0.012969583935207791,-4.37242950732422,1.3622640371322632,51.4156494140625,0.01068361070421007,-0.15260382758246527
5320,-0.7976685784729003,0.219140682220459,83.96165466308594,83.30699157714844,-9.064910888671875,89.28073120117188,-0.1014031728108724,0.5386666666666666,0.5339285714285714,-0.013122171825832791,-4.471302645751955,1.9335360527038574,50.712528228759766,0.007274034288194444,-0.148284912109375
5321,-0.7937623284729003,0.19921878814697266,84.94363403320312,84.20714569091797,-9.044452667236328,89.26026916503906,-0.10867712232801649,0.5336666666666666,0.5339285714285714,-0.011626852883232964,-4.185667651245119,2.1532559394836426,50.62464141845703,0.008183203803168403,-0.14783024258083768
5322,-0.7976685784729003,0.19921878814697266,85.57783508300781,84.20714569091797,-9.28995132446289,89.66943359375,-0.11117755042182074,0.5293333333333333,0.5335714285714286,-0.009795851177639432,-4.009890215942384,2.065368175506592,50.0094108581543,0.015229882134331598,-0.1551042768690321
5323,-0.7859498284729003,0.19921878814697266,85.5164566040039,84.75950622558594,-9.126285552978516,89.54668426513672,-0.10890443589952258,0.5243333333333333,0.5328571428571428,-0.009643268585205079,-4.4383455687255875,1.5160679817199707,47.54848861694336,0.008410559760199653,-0.15192188686794705
5324,-0.7820435784729003,0.19921878814697266,84.18669128417969,84.20714569091797,-9.064910888671875,89.36256408691406,-0.10754059685601128,0.5193333333333333,0.5310714285714285,-0.010070504082573786,-4.691023486206056,0.26366400718688965,42.362979888916016,-0.00022727118598090277,-0.1491941663953993
5325,-0.7976685784729003,0.19921878814697266,84.6572265625,83.63432312011719,-9.044452667236328,89.34210205078125,-0.113677978515625,0.514,0.5289285714285714,-0.008483637703789605,-4.680037158081056,-0.6921183043212906,37.17747116088867,0.011365593804253473,-0.14873949686686197
5326,-0.8132935784729003,0.17929691314697266,84.90271759033203,84.24806213378906,-8.94216537475586,89.28073120117188,-0.10935906304253472,0.5093333333333333,0.525,-0.007629172007242838,-4.691023486206056,-0.8678938322753922,32.4314079284668,0.0072739495171440975,-0.14692107306586372
5327,-0.8015748284729003,0.17929691314697266,84.0434799194336,83.53202819824219,-8.921707153320312,89.17843627929688,-0.10617671542697482,0.5036666666666667,0.5225,-0.008758285310533312,-4.625107424804689,-1.2524038725585953,32.25563049316406,0.0056827969021267365,-0.1455571492513021
5328,-0.8054810784729003,0.15937503814697265,84.69813537597656,84.12531280517578,-8.880790710449219,89.09660339355469,-0.11117755042182074,0.49866666666666665,0.5182142857142857,-0.008758285310533312,-4.515246050903322,-1.4940973692626969,32.07984924316406,0.006364695231119792,-0.14419326782226563
5329,-0.8171998284729003,0.15937503814697265,84.35034942626953,83.71615600585938,-8.860332489013672,89.0761489868164,-0.11072292327880859,0.493,0.5153571428571428,-0.008941385481092665,-4.3834139281005875,-1.6918455534667984,32.07984924316406,0.007046593560112847,-0.14373868306477863
5330,-0.8132935784729003,0.13945316314697265,84.18669128417969,83.26608276367188,-8.860332489013672,89.0761489868164,-0.10867712232801649,0.488,0.5110714285714286,-0.009551721149020725,-4.306513445922853,-1.6918455534667984,32.07984924316406,0.010228983561197917,-0.14373868306477863
5331,-0.8211060784729003,0.13945316314697265,84.53446960449219,83.81844329833984,-8.696666717529297,88.99431610107422,-0.10776786804199219,0.483,0.5082142857142857,-0.010070504082573786,-4.33947052294922,-1.4062086516113297,32.07984924316406,0.007955847846137152,-0.14101092020670572
5332,-0.8132935784729003,0.13945316314697265,84.45263671875,83.69569396972656,-8.553462982177734,88.83065795898438,-0.10844980875651042,0.478,0.5039285714285714,-0.010772387186686197,-4.262568133422853,-1.2524038725585953,31.991960525512695,0.008410474989149305,-0.1376013437906901
5333,-0.8015748284729003,0.13945316314697265,82.97966003417969,82.83645629882812,-8.51254653930664,88.74882507324219,-0.1054947747124566,0.4726666666666667,0.5010714285714286,-0.011962535646226671,-4.053835528442384,-1.2304331236572281,31.991960525512695,0.001591152615017361,-0.13623746236165366
5334,-0.8132935784729003,0.1195312786102295,83.28652954101562,82.5091323852539,-8.410255432128906,88.6669921875,-0.10594940185546875,0.4676666666666667,0.49714285714285716,-0.011932018068101671,-3.87805809313965,-0.7250772886962906,31.991960525512695,0.008637746175130209,-0.13419164021809896
5335,-0.8367310784729003,0.1195312786102295,85.02546691894531,83.61386108398438,-8.410255432128906,88.64653015136719,-0.10844980875651042,0.463,0.4942857142857143,-0.010772387186686197,-3.6473528319091812,0.38451001048088074,31.991960525512695,0.01568450927734375,-0.1339642842610677
5336,-0.8250123284729003,0.1195312786102295,85.0459213256836,84.43218231201172,-8.369338989257812,88.64653015136719,-0.10435820685492622,0.458,0.48964285714285716,-0.01083341704474555,-3.526507037231447,0.9667680263519287,31.991960525512695,0.006819322374131944,-0.13350965711805557
5337,-0.7976685784729003,0.1195312786102295,83.79798889160156,83.69569396972656,-8.22613525390625,88.564697265625,-0.10594940185546875,0.4533333333333333,0.48678571428571427,-0.011291170120239257,-3.4496046477050797,0.5822579860687256,31.991960525512695,0.0011366102430555556,-0.1310092502170139
5338,-0.8093873284729003,0.1195312786102295,84.16622924804688,83.38882446289062,-7.9806365966796875,88.33966064453125,-0.10799518161349826,0.449,0.4825,-0.010223086675008137,-3.2957998686523453,0.3405660092830658,31.991960525512695,0.008637830946180555,-0.12578108045789932
5339,-0.8211060784729003,0.09960939407348633,84.96409606933594,83.83889770507812,-7.857891082763672,88.13508605957031,-0.10935906304253472,0.44466666666666665,0.47964285714285715,-0.009093968073527019,-2.966221468994142,0.5602860450744629,31.991960525512695,0.012502204047309028,-0.1221441904703776
5340,-0.8171998284729003,0.1195312786102295,85.0050048828125,84.37080383300781,-7.632850646972656,87.97142028808594,-0.10594940185546875,0.44033333333333335,0.47535714285714287,-0.008941385481092665,-2.581711428710939,0.5273280143737793,31.991960525512695,0.007046678331163195,-0.11782523261176216
5341,-0.8054810784729003,0.09960939407348633,84.02302551269531,84.0434799194336,-7.612392425537109,87.80775451660156,-0.10776786804199219,0.43666666666666665,0.4725,-0.008880350324842665,-2.197201388427736,-0.04394401843261875,31.991960525512695,-0.00022727118598090277,-0.11577941046820747
5342,-0.8171998284729003,0.09960939407348633,84.20714569091797,83.67523193359375,-7.857891082763672,88.09416198730469,-0.10935906304253472,0.433,0.46785714285714286,-0.008453120125664605,-1.9005781584472672,-0.4064833098144547,31.991960525512695,0.005910152859157986,-0.12168947855631511
5343,-0.8250123284729003,0.09960939407348633,83.34790802001953,83.34790802001953,-7.898807525634766,88.19645690917969,-0.10663134256998698,0.42933333333333334,0.4642857142857143,-0.008453120125664605,-2.0104395323486344,-0.3845106535644547,31.991960525512695,0.0,-0.12328071594238281
5344,-0.8328248284729003,0.09960939407348633,82.75462341308594,81.9976806640625,-7.898807525634766,88.21691131591797,-0.10367630852593315,0.426,0.45964285714285713,-0.008300537533230252,-2.3070608549804703,-0.05493034655761875,31.991960525512695,0.008410474989149305,-0.12350798712836372
5345,-0.8445435784729003,0.07968751907348633,84.53446960449219,82.91828918457031,-7.67376708984375,88.03279113769531,-0.10390357971191407,0.42233333333333334,0.4567857142857143,-0.0071103837754991316,-2.581711428710939,1.1205720901489258,31.991960525512695,0.017957560221354165,-0.11896175808376735
5346,-0.8211060784729003,0.07968751907348633,85.33233642578125,84.49356079101562,-7.285064697265625,87.70545959472656,-0.10413089328342014,0.418,0.45285714285714285,-0.006164370642768012,-2.7574869566650406,1.9884660243988037,31.991960525512695,0.009319729275173612,-0.11100582546657986
5347,-0.7781373284729003,0.05976563930511475,86.19157409667969,85.23004150390625,-7.080486297607422,87.25538635253906,-0.10935906304253472,0.4136666666666667,0.45071428571428573,-0.005309904946221245,-2.6256548338623062,1.7138160467147827,31.991960525512695,0.010683695475260416,-0.10373191833496094
5348,-0.7429810784729003,0.05976563930511475,85.02546691894531,84.94363403320312,-7.3668975830078125,87.37813568115234,-0.11004100375705295,0.409,0.4471428571428571,-0.005004734463161893,-2.3729769163818375,0.516342043876648,31.991960525512695,0.0009092542860243056,-0.1082781473795573
5349,-0.7703248284729003,0.05976563930511475,83.69569396972656,83.40928649902344,-7.7555999755859375,88.13508605957031,-0.10799518161349826,0.405,0.4442857142857143,-0.004150268766615126,-2.3949495726318375,-0.7031046324462906,31.991960525512695,0.003182305230034722,-0.12100762261284723
5350,-0.8562623284729003,0.05976563930511475,84.37080383300781,83.28652954101562,-8.410255432128906,89.05569458007812,-0.10799518161349826,0.4013333333333333,0.4392857142857143,-0.003143220477634006,-3.0101648741455094,-0.812964098999025,31.991960525512695,0.012047492133246528,-0.13851055569118922
5351,-0.9070435784729003,0.05976563930511475,85.57783508300781,84.67768096923828,-8.778499603271484,89.36256408691406,-0.10799518161349826,0.3983333333333333,0.43535714285714283,-0.0025634023878309464,-4.053835528442384,-0.3954969816894547,31.991960525512695,0.010001712375217013,-0.1460118187798394
5352,-0.8562623284729003,0.07968751907348633,84.26852416992188,84.1048583984375,-8.962623596191406,89.567138671875,-0.10163048638237847,0.39566666666666667,0.43,-0.004730086856418186,-5.086517947265627,-0.5053564482421891,31.991960525512695,0.001818508572048611,-0.15033069186740453
5353,-0.8406373284729003,0.09960939407348633,82.77508544921875,82.32501220703125,-8.758041381835938,89.6080551147461,-0.10435820685492622,0.39266666666666666,0.42642857142857143,-0.006469535827636719,-5.987370150634767,-1.0546575957031266,31.991960525512695,0.0050008138020833336,-0.1485121832953559
5354,-0.8523560784729003,0.09960939407348633,83.92073059082031,83.1024169921875,-8.348880767822266,89.0761489868164,-0.1073132832845052,0.389,0.42142857142857143,-0.007049353917439779,-6.536671298095705,-0.9118391447753922,31.991960525512695,0.00909237331814236,-0.1380558861626519
5355,-0.8523560784729003,0.09960939407348633,83.4501953125,83.20470428466797,-7.878349304199219,88.44195556640625,-0.10708596971299914,0.384,0.41892857142857143,-0.007964854770236545,-6.39385284716797,-0.7470480375976578,31.991960525512695,0.0027276780870225696,-0.12578116522894967
5356,-0.8328248284729003,0.09960939407348633,82.38638305664062,82.07951354980469,-7.551021575927734,87.95095825195312,-0.10685865614149305,0.37866666666666665,0.41535714285714287,-0.009368620978461372,-5.712721484252931,-0.7690206938476578,31.991960525512695,0.003409661187065972,-0.11668866475423177
5357,-0.8445435784729003,0.09960939407348633,82.73416900634766,82.22271728515625,-7.019111633300781,87.50088500976562,-0.02616318596733941,0.37366666666666665,0.41285714285714287,-0.009277068244086372,-5.009617465087892,-0.4174677305908219,31.991960525512695,0.0056827969021267365,-0.10577774047851562
5358,-0.8640748284729003,0.09960939407348633,84.14576721191406,83.42974090576172,-6.794075012207031,87.25538635253906,-0.02525397406684028,0.369,0.4089285714285714,-0.008758285310533312,-4.35045685107422,0.2746500074863434,31.991960525512695,0.007955847846137152,-0.10054957071940104
5359,-0.8484498284729003,0.09960939407348633,84.96409606933594,84.39126586914062,-6.7531585693359375,87.13264465332031,-0.03457370334201389,0.36466666666666664,0.4064285714285714,-0.009277068244086372,-3.7242552214355484,0.5493000149726868,31.991960525512695,0.006364780002170139,-0.09873114691840278
5360,-0.8289185784729003,0.1195312786102295,83.38882446289062,83.57295227050781,-6.7531585693359375,87.13264465332031,-0.03457370334201389,0.3606666666666667,0.4017857142857143,-0.010131533940633137,-3.240870135375978,-0.05493034655761875,31.991960525512695,-0.002045864529079861,-0.09873114691840278
5361,-0.8640748284729003,0.09960939407348633,82.97966003417969,82.59095764160156,-6.7531585693359375,87.17355346679688,-0.03661952548556858,0.35733333333333334,0.3989285714285714,-0.008483637703789605,-2.933262484619142,-0.5932451658935562,31.991960525512695,0.0043189154730902775,-0.09918568929036459
5362,-0.9382935784729003,0.09960939407348633,84.77996826171875,83.53202819824219,-6.712242126464844,87.09172058105469,-0.037301423814561634,0.35433333333333333,0.3942857142857143,-0.006103335486518012,-2.790444033691408,-0.08788933093261875,31.991960525512695,0.013866000705295138,-0.09782180786132813
5363,-0.9226685784729003,0.09960939407348633,85.65966796875,85.0050048828125,-6.5894927978515625,86.92805480957031,-0.035028330485026044,0.35133333333333333,0.3917857142857143,-0.006835736168755426,-2.6695982390136734,0.41746801137924194,36.56224060058594,0.007274034288194444,-0.09463941786024306
5364,-0.8796998284729003,0.09960939407348633,84.77996826171875,84.92317199707031,-6.548576354980469,86.74394226074219,-0.03571027119954427,0.348,0.38857142857142857,-0.008239502376980252,-2.482836382934572,-0.12084640795898594,39.11104965209961,-0.001591152615017361,-0.09213909573025174
5365,-0.8757935784729003,0.09960939407348633,83.75706481933594,83.36836242675781,-6.67132568359375,86.86668395996094,-0.03707415262858073,0.345,0.3875,-0.008666737874348959,-2.241144793579103,-1.0436712675781266,41.22040939331055,0.0043189154730902775,-0.0948667738172743
5366,-0.8992310784729003,0.09960939407348633,82.79554748535156,82.81600189208984,-6.732700347900391,87.05081176757812,-0.03798336452907986,0.3416666666666667,0.38571428571428573,-0.008758285310533312,-2.175228732177736,-1.3842359953613297,42.71453857421875,-0.00022727118598090277,-0.09759457906087239
5367,-0.9148560784729003,0.09960939407348633,81.97721862792969,81.52714538574219,-6.5894927978515625,86.92805480957031,-0.10663134256998698,0.3383333333333333,0.385,-0.009673786163330079,-2.2960745268554703,-1.0986010008544937,44.03289031982422,0.0050008138020833336,-0.09463941786024306
5368,-0.8914185784729003,0.09960939407348633,82.93875122070312,82.550048828125,-6.548576354980469,86.76439666748047,-0.09049224853515625,0.33466666666666667,0.3846428571428571,-0.01153530544704861,-2.3619905882568375,-0.05493034655761875,44.99967956542969,0.0043189154730902775,-0.09236636691623264
5369,-0.8523560784729003,0.1195312786102295,83.5934066772461,82.87738037109375,-6.487205505371094,86.74394226074219,-0.029118262396918403,0.331,0.3846428571428571,-0.013701984617445205,-2.2741018706054703,0.5932440161705017,45.70280075073242,0.007955847846137152,-0.09145719740125868
5370,-0.8289185784729003,0.1195312786102295,82.42729949951172,82.61141967773438,-6.384914398193359,86.62118530273438,-0.029572847154405384,0.327,0.3842857142857143,-0.014983685811360677,-2.197201388427736,0.5493000149726868,45.79069137573242,-0.002045779758029514,-0.0889566633436415
5371,-0.8562623284729003,0.1195312786102295,82.93875122070312,82.0385971069336,-6.303081512451172,86.58027648925781,-0.032527923583984375,0.3233333333333333,0.38392857142857145,-0.013640954759385851,-2.1202989989013687,0.3954960107803345,45.966468811035156,0.010001712375217013,-0.08759286668565539
5372,-0.8992310784729003,0.1195312786102295,84.53446960449219,83.87982177734375,-6.1394195556640625,86.49844360351562,-0.11117755042182074,0.32,0.38392857142857145,-0.011077552371554904,-1.9774805479736344,0.7360620498657227,46.054359436035156,0.00727386474609375,-0.08486514621310765
5373,-0.9187623284729003,0.1195312786102295,85.12775421142578,84.73905181884766,-6.118961334228516,86.31431579589844,-0.1073132832845052,0.31633333333333336,0.38392857142857145,-0.009826368755764432,-1.7907186918945328,0.7580339908599854,46.054359436035156,0.0043189154730902775,-0.0825919681125217
5374,-0.9148560784729003,0.1195312786102295,83.36836242675781,83.20470428466797,-6.159877777099609,86.33477783203125,-0.10685865614149305,0.31266666666666665,0.38321428571428573,-0.009734821319580079,-1.549027102539064,0.19774800539016724,46.054359436035156,0.0018184238009982638,-0.0832739512125651
5375,-0.9187623284729003,0.1195312786102295,82.5091323852539,82.07951354980469,-6.282623291015625,86.49844360351562,-0.029572847154405384,0.30933333333333335,0.38285714285714284,-0.009917921490139432,-1.3732515745849625,0.010986000299453735,46.142250061035156,0.004773542616102431,-0.086456298828125
5376,-0.9187623284729003,0.1195312786102295,82.42729949951172,81.56806182861328,-6.384914398193359,86.662109375,-0.02980016072591146,0.306,0.3825,-0.009795851177639432,-1.3622652464599625,0.48338401317596436,46.84537124633789,0.009547085232204862,-0.089411375257704
5377,-0.9187623284729003,0.1195312786102295,84.5140151977539,82.97966003417969,-6.3644561767578125,86.6007308959961,-0.02980016072591146,0.30266666666666664,0.3825,-0.009551721149020725,-1.505081790039064,1.3732500076293945,46.933258056640625,0.017048390706380208,-0.08850207858615451
5378,-0.8992310784729003,0.13945316314697265,84.53446960449219,84.554931640625,-6.405372619628906,86.62118530273438,-0.029572847154405384,0.299,0.3825,-0.009734821319580079,-1.6039568358154312,1.6698720455169678,47.196929931640625,-0.00022735595703125,-0.08918397691514757
5379,-0.8914185784729003,0.13945316314697265,82.89783477783203,82.79554748535156,-6.4462890625,86.662109375,-0.026617813110351562,0.29533333333333334,0.3825,-0.009460168414645725,-1.6588865690917984,1.032684087753296,47.46059799194336,0.0011365254720052083,-0.09009331597222223
5380,-0.9148560784729003,0.13945316314697265,82.91828918457031,82.28408813476562,-6.323539733886719,86.70301818847656,-0.02616318596733941,0.29233333333333333,0.3825,-0.007629172007242838,-1.7357889586181656,0.8898659944534302,47.54848861694336,0.007046678331163195,-0.08918397691514757
5381,-0.9343873284729003,0.13945316314697265,84.20714569091797,83.34790802001953,-6.303081512451172,86.5188980102539,-0.02548124525282118,0.2886666666666667,0.3825,-0.005920235315958659,-1.8017050200195328,1.4281799793243408,47.54848861694336,0.009547085232204862,-0.08691088358561198
5382,-0.9226685784729003,0.13945316314697265,84.98455047607422,84.18669128417969,-6.241706848144531,86.41661071777344,-0.024799346923828125,0.285,0.38285714285714284,-0.005462487538655599,-1.7907186918945328,1.7907180786132812,47.54848861694336,0.008865102132161459,-0.08509241739908854
5383,-0.9109498284729003,0.13945316314697265,84.94363403320312,84.554931640625,-6.303081512451172,86.41661071777344,-0.0250266604953342,0.281,0.38321428571428573,-0.005218352211846245,-1.6918455534667984,1.450152039527893,47.54848861694336,0.0043189154730902775,-0.08577435811360677
5384,-0.9031373284729003,0.13945316314697265,82.89783477783203,83.0001220703125,-6.384914398193359,86.6007308959961,-0.024799346923828125,0.2773333333333333,0.38357142857142856,-0.004699569278293186,-1.6369139128417984,0.6591600179672241,47.54848861694336,-0.0011365254720052083,-0.0887293921576606
5385,-0.9304810784729003,0.13945316314697265,83.16378784179688,82.63188171386719,-6.3644561767578125,86.68256378173828,-0.0250266604953342,0.27366666666666667,0.38357142857142856,-0.0029296027289496527,-1.7357889586181656,0.5053560137748718,47.54848861694336,0.0059100680881076385,-0.08941133287217883
5386,-0.9500123284729003,0.13945316314697265,85.14820861816406,83.57295227050781,-6.323539733886719,86.559814453125,-0.02434471978081597,0.27,0.38392857142857145,-0.0014342837863498264,-1.8566347532959,1.0766279697418213,47.109039306640625,0.017502848307291666,-0.08759282430013021
5387,-0.9304810784729003,0.13945316314697265,84.96409606933594,84.6572265625,-6.282623291015625,86.39614868164062,-0.023435465494791665,0.2663333333333333,0.3842857142857143,-0.0017089366912841797,-1.8786074095459,1.3293060064315796,46.84537124633789,0.003409661187065972,-0.08531968858506944
5388,-0.9070435784729003,0.15937503814697265,84.06393432617188,83.83889770507812,-6.262165069580078,86.39614868164062,-0.023435465494791665,0.2623333333333333,0.3842857142857143,-0.0026854674021402993,-1.7797323637695328,0.8239500522613525,46.66958999633789,0.0025004069010416668,-0.08509237501356337
5389,-0.9070435784729003,0.15937503814697265,83.90027618408203,83.5115737915039,-6.282623291015625,86.41661071777344,-0.02457203335232205,0.25866666666666666,0.3842857142857143,-0.0022887547810872396,-1.7028299742431656,0.2526780068874359,46.66958999633789,0.0043189154730902775,-0.0855470445421007
5390,-0.9187623284729003,0.15937503814697265,84.82088470458984,83.96165466308594,-6.221248626708984,86.39614868164062,-0.02457203335232205,0.25466666666666665,0.3846428571428571,-0.0015258365207248264,-1.6808592253417984,-0.01098694140625156,46.66958999633789,0.009547000461154514,-0.08463774787055121
5391,-0.9226685784729003,0.15937503814697265,84.75950622558594,84.26852416992188,-6.2007904052734375,86.35523986816406,-0.02457203335232205,0.251,0.3846428571428571,-0.0017089366912841797,-1.6588865690917984,-0.3295809202880875,46.66958999633789,0.005455356174045139,-0.08395589192708333
5392,-0.9148560784729003,0.15937503814697265,84.24806213378906,83.96165466308594,-6.343997955322266,86.37569427490234,-0.022753524780273437,0.247,0.3846428571428571,-0.0029906378851996527,-1.6039568358154312,-0.9338098936767594,46.66958999633789,0.003182305230034722,-0.08577435811360677
5393,-0.9148560784729003,0.15937503814697265,83.75706481933594,83.1024169921875,-6.384914398193359,86.6007308959961,-0.022980838351779515,0.24333333333333335,0.385,-0.004119751188490126,-1.6369139128417984,-1.549027102539064,46.66958999633789,0.00727386474609375,-0.0887293921576606
5394,-0.9265748284729003,0.17929691314697266,83.90027618408203,83.47065734863281,-6.323539733886719,86.62118530273438,-0.023435465494791665,0.23966666666666667,0.385,-0.004730086856418186,-1.8017050200195328,-1.7577597075195328,46.66958999633789,0.004773542616102431,-0.08827472262912327
5395,-0.9382935784729003,0.17929691314697266,85.0050048828125,84.14576721191406,-6.221248626708984,86.37569427490234,-0.022526211208767362,0.236,0.385,-0.005676099989149305,-1.9445234709472672,-1.6698728972167984,47.109039306640625,0.009547085232204862,-0.08441047668457032
5396,-0.9226685784729003,0.17929691314697266,84.18669128417969,84.32989501953125,-6.118961334228516,86.31431579589844,-0.019343863593207465,0.232,0.38535714285714284,-0.008575185139973959,-1.9115644865722672,-1.9664942198486344,47.196929931640625,-0.001591152615017361,-0.0825919681125217
5397,-0.9187623284729003,0.19921878814697266,81.64989471435547,82.05905151367188,-5.955295562744141,86.23248291015625,-0.021389685736762153,0.228,0.38571428571428573,-0.011138587527804904,-1.7687460356445328,-2.6476274901123062,47.284820556640625,-0.00454618665907118,-0.07986420525444879
5398,-0.9343873284729003,0.17929691314697266,81.91584777832031,80.77020263671875,-5.9757537841796875,86.21202850341797,-0.022753524780273437,0.22433333333333333,0.3867857142857143,-0.012176153394911024,-1.538040774414064,-2.252131121704103,47.196929931640625,0.012729390462239584,-0.07986424763997396
5399,-0.9421998284729003,0.19921878814697266,83.24562072753906,82.32501220703125,-6.221248626708984,86.39614868164062,-0.022298897637261283,0.22066666666666668,0.3867857142857143,-0.013244236840142145,-1.3622652464599625,-0.6811319761962906,47.196929931640625,0.010228983561197917,-0.08463774787055121
5400,-0.9226685784729003,0.19921878814697266,83.40928649902344,83.08195495605469,-6.405372619628906,86.62118530273438,-0.021616956922743055,0.21666666666666667,0.3871428571428571,-0.015441438886854383,-1.4062086516113297,0.3076080083847046,47.196929931640625,0.003637017144097222,-0.08918397691514757
5401,-0.9109498284729003,0.19921878814697266,82.46821594238281,82.61141967773438,-6.405372619628906,86.68256378173828,-0.022526211208767362,0.21266666666666667,0.3871428571428571,-0.016509517033894857,-1.6479002409667984,0.4723980128765106,47.284820556640625,-0.001591152615017361,-0.08986596001519097
5402,-0.9148560784729003,0.19921878814697266,81.87493133544922,81.46577453613281,-6.180332183837891,86.39614868164062,-0.023435465494791665,0.209,0.38785714285714284,-0.016051769256591797,-1.8895918303222672,0.6152160167694092,47.54848861694336,0.00454618665907118,-0.08418312072753906
5403,-0.9265748284729003,0.19921878814697266,83.38882446289062,82.38638305664062,-6.016670227050781,86.25294494628906,-0.0250266604953342,0.20533333333333334,0.38821428571428573,-0.014525938034057616,-1.8566347532959,1.3842360973358154,47.987937927246094,0.011138237847222222,-0.08077350192599826
5404,-0.9226685784729003,0.19921878814697266,84.554931640625,83.77752685546875,-5.955295562744141,86.15065002441406,-0.02320815192328559,0.20133333333333334,0.3889285714285714,-0.013793537351820205,-1.6369139128417984,2.054382085800171,47.987937927246094,0.008637830946180555,-0.07895495096842448
5405,-0.9109498284729003,0.219140682220459,83.30699157714844,83.73661041259766,-6.159877777099609,86.31431579589844,-0.022980838351779515,0.19766666666666666,0.3892857142857143,-0.013549402025010851,-1.3732515745849625,1.8676199913024902,47.987937927246094,-0.004773542616102431,-0.08304659525553386
5406,-0.9148560784729003,0.219140682220459,81.91584777832031,81.69081115722656,-6.303081512451172,86.559814453125,-0.0250266604953342,0.194,0.3892857142857143,-0.012237188551161024,-1.3402925902099625,1.4391660690307617,47.284820556640625,0.0025004069010416668,-0.08736551072862413
5407,-0.9304810784729003,0.219140682220459,83.02058410644531,81.69081115722656,-6.303081512451172,86.47798156738281,-0.10844980875651042,0.19033333333333333,0.3892857142857143,-0.009856886333889432,-1.516068118164064,1.8786060810089111,46.933258056640625,0.014775254991319445,-0.08645625644259983
5408,-0.9343873284729003,0.219140682220459,85.20958709716797,84.1048583984375,-6.343997955322266,86.5188980102539,-0.10526746114095052,0.18666666666666668,0.3896428571428571,-0.008270019955105252,-1.6808592253417984,2.7025561332702637,46.933258056640625,0.01227476331922743,-0.08736551072862413
5409,-0.9187623284729003,0.219140682220459,84.88226318359375,84.57539367675781,-6.323539733886719,86.37569427490234,-0.10572208828396268,0.183,0.3896428571428571,-0.007598654429117838,-1.8126913481445328,2.4718501567840576,46.933258056640625,0.003409661187065972,-0.0855470445421007
5410,-0.9187623284729003,0.219140682220459,83.96165466308594,83.90027618408203,-6.425830841064453,86.6007308959961,-0.10572208828396268,0.17933333333333334,0.39035714285714285,-0.006408500671386719,-1.9005781584472672,1.4611380100250244,46.933258056640625,0.0006819831000434028,-0.08918401930067274
5411,-0.9382935784729003,0.219140682220459,83.42974090576172,83.12287139892578,-6.118961334228516,86.27340698242188,-0.10685865614149305,0.17566666666666667,0.39035714285714285,-0.0040282037523057725,-2.0763555937500016,0.6371880173683167,47.196929931640625,0.003409661187065972,-0.08213742574055989
5412,-0.9578248284729003,0.219140682220459,85.20958709716797,83.87982177734375,-5.853004455566406,86.13019561767578,-0.1054947747124566,0.172,0.39107142857142857,-0.0019225544399685329,-2.0324102812500016,0.5273280143737793,47.196929931640625,0.014775170220269097,-0.07759111192491319
5413,-0.9578248284729003,0.19921878814697266,85.57783508300781,85.0459213256836,-6.221248626708984,86.31431579589844,-0.10435820685492622,0.168,0.3914285714285714,-0.0017089366912841797,-1.7467752867431656,0.38451001048088074,47.284820556640625,0.005910152859157986,-0.08372849358452691
5414,-0.9382935784729003,0.19921878814697266,85.5164566040039,85.0050048828125,-6.262165069580078,86.41661071777344,-0.10185779995388455,0.164,0.3914285714285714,-0.003387350506252713,-1.7028299742431656,-0.6371885710449234,46.84537124633789,0.0056827969021267365,-0.08531973097059461
5415,-0.9343873284729003,0.17929691314697266,85.53691101074219,84.82088470458984,-6.282623291015625,86.37569427490234,-0.10072123209635417,0.161,0.39107142857142857,-0.003784068425496419,-1.9005781584472672,-1.9005781584472672,46.66958999633789,0.007955847846137152,-0.08509241739908854
5416,-0.9734498284729003,0.15937503814697265,83.40928649902344,83.92073059082031,-6.528118133544922,86.76439666748047,-0.10253974066840278,0.15633333333333332,0.39035714285714285,-0.0027770201365152993,-1.9774805479736344,-2.241144793579103,45.966468811035156,-0.005682712131076389,-0.09213905334472657
5417,0.9953001993048775,0.15937503814697265,83.28652954101562,84.18669128417969,-6.569034576416016,86.96897888183594,-0.10299436781141492,0.153,0.3896428571428571,-0.0026244375440809464,-2.175228732177736,-1.7138163023681656,44.91178894042969,-0.01000179714626736,-0.09486681620279948
5418,-0.9851685784729003,0.1195312786102295,83.49111938476562,82.81600189208984,-6.487205505371094,86.662109375,-0.10003929138183594,0.14933333333333335,0.38785714285714284,-0.004669051700168186,-2.6695982390136734,-0.8678938322753922,43.505550384521484,0.007501305474175347,-0.09054794311523437
5419,-0.9539185784729003,0.15937503814697265,82.48867797851562,82.550048828125,-6.4462890625,86.5188980102539,-0.09981197781032985,0.14533333333333334,0.3871428571428571,-0.007507101694742838,-2.7574869566650406,0.32958000898361206,42.62664794921875,-0.0006818983289930556,-0.08850207858615451
5420,-0.9265748284729003,0.15937503814697265,84.6572265625,83.47065734863281,-6.159877777099609,86.29386138916016,-0.10390357971191407,0.14166666666666666,0.38535714285714284,-0.008758285310533312,-2.823403018066408,1.252403974533081,41.74774932861328,0.013184102376302083,-0.08281932406955295
5421,-0.9070435784729003,0.1195312786102295,85.31187438964844,84.5140151977539,-6.303081512451172,86.43707275390625,-0.018889236450195312,0.13766666666666666,0.3846428571428571,-0.007781754599677192,-2.6256548338623062,1.9005780220031738,41.39619064331055,0.008865102132161459,-0.08600171407063802
5422,-0.9187623284729003,0.1195312786102295,84.16622924804688,84.69813537597656,-6.323539733886719,86.5188980102539,-0.02093505859375,0.13366666666666666,0.3825,-0.005645587709214952,-2.4388929777832047,1.5600121021270752,41.22040939331055,-0.0059100680881076385,-0.08713819715711806
5423,-0.9500123284729003,0.1195312786102295,83.90027618408203,83.77752685546875,-6.098503112792969,86.27340698242188,-0.020253117879231772,0.13,0.3817857142857143,-0.003173738055759006,-2.537766116210939,0.9228240251541138,41.13251876831055,0.0013638814290364584,-0.08191011216905382
5424,-0.9812623284729003,0.09960939407348633,83.79798889160156,83.32745361328125,-6.098503112792969,86.33477783203125,-0.018207295735677084,0.126,0.38,-0.0010986010233561198,-2.4059339934082047,0.7031040191650391,40.34151077270508,0.005228169759114583,-0.08259201049804688
5425,-0.9968873284729003,0.07968751907348633,86.02790832519531,85.37325286865234,-6.2007904052734375,86.25294494628906,-0.01775266859266493,0.12233333333333334,0.37857142857142856,0.0002136124504937066,-2.263117449829103,0.8898659944534302,40.25362014770508,0.0072739495171440975,-0.08281928168402777
5426,-0.9851685784729003,0.09960939407348633,85.53691101074219,85.06637573242188,-5.996212005615234,86.21202850341797,-0.01661614312065972,0.11833333333333333,0.37642857142857145,0.0001525825924343533,-2.153256075927736,-0.10986007983398594,40.25362014770508,0.005228169759114583,-0.08009156121148003
5427,-0.9812623284729003,0.07968751907348633,83.22515869140625,83.96165466308594,-5.914379119873047,86.04837036132812,-0.01661614312065972,0.11466666666666667,0.375,-0.0007018884023030599,-2.1093126707763687,-1.4721247130126969,40.25362014770508,-0.00818328857421875,-0.07736388312445747
5428,0.9992064493048775,0.07968751907348633,81.83401489257812,81.4453125,-5.66888427734375,85.88470458984375,-0.016388829549153647,0.111,0.37285714285714283,-0.0017394542694091797,-1.9664942198486344,-2.2850881987304703,40.25362014770508,0.0043189154730902775,-0.07281765407986111
5429,0.9874876993048775,0.07968751907348633,81.11798858642578,80.29966735839844,-5.791633605957031,85.88470458984375,-0.022298897637261283,0.10733333333333334,0.37142857142857144,-0.003509420818752713,-1.7138163023681656,-1.7797323637695328,40.34151077270508,0.009092458089192708,-0.07418153550889757
5430,0.9718626993048775,0.07968751907348633,85.63920593261719,81.40440368652344,-5.546134948730469,85.94607543945312,-0.02570855882432726,0.10366666666666667,0.36964285714285716,-0.004302851359049479,-1.4940973692626969,-0.3405672484130875,40.95674133300781,0.047053358289930555,-0.07213567097981771
5431,0.9874876993048775,0.05976563930511475,85.0050048828125,84.57539367675781,-5.546134948730469,85.74149322509766,-0.049803543090820315,0.09966666666666667,0.36857142857142855,-0.004852151870727539,-1.2524038725585953,0.06591600179672241,41.13251876831055,0.004773457845052083,-0.06986253526475694
5432,0.9484251993048775,0.07968751907348633,82.05905151367188,82.20226287841797,-5.996212005615234,86.17111206054688,-0.025935872395833334,0.09666666666666666,0.36678571428571427,-0.0039366510179307725,-0.9667688780517594,-0.6591612272949234,41.39619064331055,-0.0015912373860677083,-0.07963693406846788
5433,0.8781126993048775,0.05976563930511475,83.26608276367188,82.83645629882812,-6.098503112792969,86.6007308959961,-0.022980838351779515,0.093,0.3653571428571429,-0.0028685675726996527,-1.164517062255861,-0.3076082640380875,42.62664794921875,0.004773627387152778,-0.0855470445421007
5434,0.8429564493048775,0.05976563930511475,84.80043029785156,84.37080383300781,-5.505218505859375,86.33477783203125,-0.020025804307725693,0.08966666666666667,0.36392857142857143,-0.0021361668904622396,-1.7357889586181656,0.3405660092830658,42.62664794921875,0.004773627387152778,-0.07599995930989584
5435,0.8351439493048775,0.05976563930511475,85.5164566040039,84.37080383300781,-5.280181884765625,85.41416931152344,-0.019343863593207465,0.08633333333333333,0.3628571428571429,-0.0012817011939154732,-1.6808592253417984,0.6921180486679077,42.62664794921875,0.012729475233289931,-0.06327056884765625
5436,0.8429564493048775,0.05976563930511475,85.557373046875,85.23004150390625,-5.5870513916015625,85.88470458984375,-0.015706888834635415,0.083,0.36214285714285716,-0.0011901537577311198,-1.0876146727294937,0.9997260570526123,42.71453857421875,0.003637017144097222,-0.0719083997938368
5437,0.8937376993048775,0.05976563930511475,84.77996826171875,84.47309875488281,-5.689342498779297,86.25294494628906,-0.011160659790039062,0.08,0.36142857142857143,-0.0015258365207248264,-0.9447962218017594,0.32958000898361206,44.99967956542969,0.003409661187065972,-0.07713652716742622
5438,0.8507689493048775,0.03984375953674316,83.81844329833984,83.5115737915039,-5.771175384521484,86.84622192382812,-0.020025804307725693,0.076,0.3603571428571429,-0.0011596361796061198,-1.3622652464599625,-0.2856375151367203,44.99967956542969,0.003409661187065972,-0.08463774787055121
5439,0.8742064493048775,0.05976563930511475,79.74729919433594,80.50424194335938,-5.423389434814453,85.94607543945312,-0.0168434566921658,0.072,0.36,-0.0010986010233561198,-1.8236757689209,-0.5383154326171891,44.99967956542969,-0.008410474989149305,-0.07077183193630643
5440,0.8351439493048775,0.05976563930511475,84.37080383300781,83.75706481933594,-5.689342498779297,86.27340698242188,-0.011387973361545138,0.06866666666666667,0.3603571428571429,-0.0007018884023030599,-1.527054446289064,0.9008520245552063,44.99967956542969,0.006819322374131944,-0.07736388312445747
5441,0.8507689493048775,0.07968751907348633,84.6572265625,84.02302551269531,-5.689342498779297,86.39614868164062,-0.009342193603515625,0.06466666666666666,0.3603571428571429,0.0005187829335530599,-1.560013430664064,1.6588860750198364,44.99967956542969,0.007046678331163195,-0.07872767978244358
5442,0.7999876993048775,0.05976563930511475,84.84133911132812,83.83889770507812,-5.259723663330078,85.74149322509766,-0.01547957526312934,0.060333333333333336,0.3603571428571429,0.0028075324164496527,-1.7687460356445328,1.6808580160140991,44.99967956542969,0.011138237847222222,-0.06668018764919705
5443,0.7609251993048775,0.05976563930511475,80.0950927734375,81.01570129394531,-5.484760284423828,85.84378051757812,-0.01797998216417101,0.05633333333333333,0.3607142857142857,0.004669049430084233,-1.3622652464599625,1.1864880323410034,44.99967956542969,-0.010228983561197917,-0.07031712002224393
5444,0.8078001993048775,0.05976563930511475,86.76439666748047,85.31187438964844,-5.648426055908203,86.45751953125,-0.0022955152723524307,0.05266666666666667,0.3607142857142857,0.004730082599512741,-1.131558077880861,2.2301580905914307,44.99967956542969,0.0161391364203559,-0.07895495096842448
5445,0.7921751993048775,0.03984375953674316,80.21783447265625,86.29386138916016,-5.5870513916015625,85.82332611083984,-0.008660252888997395,0.04833333333333333,0.3603571428571429,0.005126799359777243,-1.4281813078613297,1.6039559841156006,44.99967956542969,-0.06751141018337674,-0.0712264166937934
5446,0.8429564493048775,0.05976563930511475,84.35034942626953,82.32501220703125,-5.096061706542969,85.25050354003906,-0.020253117879231772,0.04466666666666667,0.3603571428571429,0.0063779828099992586,-1.4721247130126969,0.6701459884643555,44.99967956542969,0.02250374688042535,-0.059406280517578125
5447,0.7648314493048775,0.03984375953674316,84.02302551269531,82.52958679199219,-5.464302062988281,85.84378051757812,-0.01957117716471354,0.041666666666666664,0.36,0.0072019329152425175,-1.0876146727294937,0.032958000898361206,44.99967956542969,0.016593763563368055,-0.07008980645073784
5448,0.8429564493048775,0.05976563930511475,84.02302551269531,83.40928649902344,-5.607509613037109,86.559814453125,-0.018207295735677084,0.03866666666666667,0.35964285714285715,0.0072019329152425175,-0.845923083374025,-0.3954969816894547,44.99967956542969,0.006819322374131944,-0.07963693406846788
5449,0.8507689493048775,0.05976563930511475,84.35034942626953,83.87982177734375,-5.280181884765625,86.31431579589844,-0.014343007405598959,0.035333333333333335,0.35892857142857143,0.006927282659403487,-0.9997259550781266,-0.5163427763671891,44.99967956542969,0.005228084988064236,-0.07327219645182291
5450,0.8390501993048775,0.05976563930511475,85.33233642578125,85.74149322509766,-5.11651611328125,85.0050048828125,-0.018889236450195312,0.032,0.3585714285714286,0.006469532895278935,-0.9887415343017594,-0.7250772886962906,44.99967956542969,-0.00454618665907118,-0.05690578884548611
5451,0.8429564493048775,0.05976563930511475,82.38638305664062,81.40440368652344,-5.873462677001953,86.6007308959961,-0.014343007405598959,0.028666666666666667,0.3578571428571429,0.004638532679801521,-0.02197326953125156,-1.4831110411376969,44.99967956542969,0.010910881890190972,-0.08304659525553386
5452,0.7960814493048775,0.05976563930511475,83.87982177734375,83.552490234375,-6.405372619628906,87.5213394165039,-0.022298897637261283,0.02666666666666667,0.3560714285714286,0.00460801592951881,0.4614120125770569,-1.1974741392822281,44.99967956542969,0.003637017144097222,-0.09918568929036459
5453,0.8390501993048775,0.05976563930511475,83.02058410644531,83.28652954101562,-6.159877777099609,87.19401550292969,-0.01320648193359375,0.023666666666666666,0.3539285714285714,0.0030821800231933595,0.1538040041923523,-1.120571749755861,44.99967956542969,-0.0029549492730034724,-0.09282103644476997
5454,0.8781126993048775,0.05976563930511475,82.22271728515625,81.15890502929688,-6.037128448486328,86.47798156738281,-0.01957117716471354,0.02033333333333333,0.3517857142857143,0.0005187829335530599,-0.3515516691894547,-0.834936755249025,44.99967956542969,0.011820136176215277,-0.083501222398546
5455,0.8898314493048775,0.05976563930511475,82.75462341308594,81.79310607910156,-5.709800720214844,86.62118530273438,-0.01775266859266493,0.017666666666666667,0.3507142857142857,-0.0002136177486843533,-0.20873512561035312,-0.5822588377685562,44.91178894042969,0.010683525933159722,-0.08145540025499132
5456,0.8468626993048775,0.07968751907348633,86.33477783203125,84.84133911132812,-4.543693542480469,86.08927917480469,-0.01797998216417101,0.014666666666666666,0.3485714285714286,0.0016784138149685329,0.24169200658798218,1.2414180040359497,44.56023025512695,0.016593763563368055,-0.06258858574761285
5457,0.8663939493048775,0.07968751907348633,82.0999755859375,89.26026916503906,-4.052700042724609,83.36836242675781,-0.02320815192328559,0.011666666666666667,0.34714285714285714,0.002258231904771593,0.7580339908599854,1.3512780666351318,44.29655838012695,-0.07955881754557291,-0.026900694105360244
5458,0.8937376993048775,0.07968751907348633,83.87982177734375,81.52714538574219,-1.6386566162109375,83.16378784179688,-0.029345575968424478,0.008333333333333333,0.34464285714285714,0.0020446141560872396,1.5160679817199707,0.0,32.07984924316406,0.026140848795572918,0.002195061577690972
5459,0.8742064493048775,0.05976563930511475,86.559814453125,86.58027648925781,-1.3113288879394531,80.64745330810547,-0.02752706739637587,0.005333333333333333,0.34214285714285714,0.0021361668904622396,2.5377659797668457,0.7690200209617615,27.158010482788086,-0.00022735595703125,0.033791308932834205
5460,0.9562376993048775,0.05976563930511475,82.97966003417969,84.06393432617188,-1.0862922668457031,82.24317932128906,-0.010478719075520834,0.0033333333333333335,0.3375,-3.0517578125e-05,3.3507301807403564,-0.17577614123535312,26.982229232788086,-0.012047492133246528,0.018561426798502603
5461,0.9406126993048775,0.09960939407348633,83.28652954101562,82.67279052734375,0.3457679748535156,80.19737243652344,-0.02525397406684028,0.0023333333333333335,0.33321428571428574,0.0003661950429280599,2.900304079055786,-1.3073355131835953,26.982229232788086,0.006819322374131944,0.0572043948703342
5462,0.8976439493048775,0.1195312786102295,83.40928649902344,83.61386108398438,2.3301925659179688,79.46089172363281,-0.02980016072591146,0.002,0.32821428571428574,0.0018920315636528863,3.394674062728882,-1.3183199339599625,26.982229232788086,-0.0022730509440104167,0.08743667602539062
5463,0.8820189493048775,0.1195312786102295,81.9567642211914,81.07707214355469,2.821186065673828,77.70149993896484,-0.015024948120117187,0.0013333333333333333,0.3246428571428571,0.0014342784881591797,4.251582145690918,-0.7470480375976578,26.982229232788086,0.009774356418185763,0.11244095696343316
5464,0.8585814493048775,0.09960939407348633,83.77752685546875,82.79554748535156,4.9283599853515625,77.14913940429688,0.0049784342447916664,0.0013333333333333333,0.31892857142857145,0.0016784138149685329,4.031862258911133,0.05493000149726868,26.982229232788086,0.010910881890190972,0.14199133978949652
5465,0.9015501993048775,0.09960939407348633,85.20958709716797,84.86180114746094,5.869426727294922,74.69417572021484,-0.018661922878689237,-0.0006666666666666666,0.31357142857142856,0.0013122134738498264,0.790992021560669,-1.0656420164794937,26.982229232788086,0.003864288330078125,0.17972501118977866
5466,0.9328001993048775,0.07968751907348633,84.47309875488281,84.28897857666016,4.7033233642578125,75.67616271972656,-0.010933346218532987,0.0,0.3067857142857143,-0.0,0.45042601227760315,-0.19774879748535312,26.982229232788086,0.002045779758029514,0.15585734049479166
