,WD,WS,AIL_1,AIL_2,ELEV_1,ELEV_2,RUDD,ALT,GS,TH,PTCH,ROLL,PLA_1,AIL,ELEV
3357,0.19958400067816848,0.15937503814697265,85.78240966796875,85.49600219726562,-6.7531585693359375,87.09172058105469,-0.04139302571614583,0.742,0.49857142857142855,0.013029223963758656,-1.3842359953613297,0.6811320185661316,35.7712287902832,0.003182305230034722,-0.09827643500434027
3358,0.19177150067816848,0.15937503814697265,85.92561340332031,85.37325286865234,-6.732700347900391,87.0712661743164,-0.03275523715549045,0.7373333333333333,0.4982142857142857,0.012479907557508656,-1.4501520567626969,-0.3185945921630875,35.7712287902832,0.006137339274088541,-0.0978218502468533
3359,0.19177150067816848,0.15937503814697265,83.75706481933594,84.02302551269531,-6.732700347900391,87.1121826171875,-0.03139135572645399,0.732,0.49785714285714283,0.012022228656684003,-1.4940973692626969,-1.164517062255861,35.41967010498047,-0.0029551188151041665,-0.09827647738986545
3360,0.21130275067816848,0.17929691314697266,83.14332580566406,82.14088439941406,-6.732700347900391,87.1121826171875,-0.029118262396918403,0.7273333333333334,0.49785714285714283,0.012357922016059003,-1.538040774414064,-0.2307058745117203,35.15599822998047,0.011138237847222222,-0.09827647738986545
3361,0.21520900067816848,0.17929691314697266,85.90515899658203,84.6572265625,-6.7531585693359375,87.1121826171875,-0.029572847154405384,0.722,0.4975,0.012785083338758656,-1.5929705076904312,1.0766279697418213,34.980220794677734,0.013865915934244792,-0.09850379096137153
3362,0.19958400067816848,0.17929691314697266,85.39370727539062,85.29141998291016,-6.7531585693359375,87.09172058105469,-0.030027474297417533,0.7166666666666667,0.4975,0.012418957172309003,-1.6918455534667984,0.8459219932556152,34.980220794677734,0.0011365254720052083,-0.09827643500434027
3363,0.19567775067816848,0.17929691314697266,85.53691101074219,84.6572265625,-6.7531585693359375,87.09172058105469,-0.03275523715549045,0.7113333333333334,0.49714285714285716,0.012266369281684003,-1.7687460356445328,0.3185940086841583,34.980220794677734,0.009774271647135417,-0.09827643500434027
3364,0.18786525067816848,0.17929691314697266,84.71859741210938,84.41172790527344,-6.712242126464844,87.09172058105469,-0.0323006100124783,0.7056666666666667,0.49714285714285716,0.012174816547309003,-1.8017050200195328,-0.14281906420898594,34.980220794677734,0.003409661187065972,-0.09782180786132813
3365,0.20349025067816848,0.17929691314697266,83.98210144042969,83.32745361328125,-6.732700347900391,87.0712661743164,-0.030709415011935765,0.7,0.49714285714285716,0.012327404437934003,-1.7907186918945328,0.17577600479125977,34.980220794677734,0.00727386474609375,-0.0978218502468533
3366,0.19958400067816848,0.17929691314697266,85.5982894897461,84.75950622558594,-6.732700347900391,87.03034973144531,-0.03093672858344184,0.6946666666666667,0.49714285714285716,0.012418957172309003,-1.7907186918945328,0.7250760197639465,34.980220794677734,0.009319814046223958,-0.09736722310384115
3367,0.18005275067816848,0.17929691314697266,86.02790832519531,85.25050354003906,-6.732700347900391,86.98943328857422,-0.03593758477105035,0.6886666666666666,0.4967857142857143,0.011930675922309003,-1.7357889586181656,0.3076080083847046,34.980220794677734,0.008637830946180555,-0.09691259596082899
3368,0.17224025067816848,0.17929691314697266,85.61874389648438,85.08683776855469,-6.712242126464844,86.98943328857422,-0.035255644056532115,0.683,0.4967857142857143,0.011320324359809003,-1.6698728972167984,-0.6152159147949234,34.980220794677734,0.0059100680881076385,-0.09668528238932292
3369,0.17224025067816848,0.17929691314697266,84.75950622558594,84.6572265625,-6.712242126464844,86.98943328857422,-0.17096038394504123,0.6776666666666666,0.49642857142857144,0.010740490375434003,-1.6039568358154312,-1.2084604674072281,34.980220794677734,0.001136440700954861,-0.09668528238932292
3370,0.18005275067816848,0.17929691314697266,83.81844329833984,83.30699157714844,-6.732700347900391,87.0098876953125,-0.16982381608751085,0.6726666666666666,0.4967857142857143,0.010465832172309003,-1.5819841795654312,-0.9118391447753922,34.980220794677734,0.0056827969021267365,-0.0971398671468099
3371,0.17614650067816848,0.17929691314697266,85.47554016113281,84.61630249023438,-6.7531585693359375,86.98943328857422,-0.1682326422797309,0.6673333333333333,0.49642857142857144,0.010008068500434003,-1.5709978514404312,-0.02197326953125156,34.980220794677734,0.009547085232204862,-0.09713990953233508
3372,0.16052150067816848,0.17929691314697266,85.29141998291016,84.73905181884766,-6.732700347900391,86.98943328857422,-0.168459955851237,0.6616666666666666,0.49607142857142855,0.009031590771484351,-1.516068118164064,-0.02197326953125156,34.980220794677734,0.006137424045138889,-0.09691259596082899
3373,0.15270900067816848,0.17929691314697266,84.37080383300781,84.61630249023438,-6.732700347900391,86.98943328857422,-0.16891458299424914,0.6563333333333333,0.4953571428571429,0.008451756787109351,-1.4611383848876969,-0.3185945921630875,34.980220794677734,-0.002727762858072917,-0.09691259596082899
3374,0.15661525067816848,0.17929691314697266,84.45263671875,83.81844329833984,-6.7531585693359375,86.98943328857422,-0.16891458299424914,0.6513333333333333,0.495,0.008329686474609351,-1.3952223234863297,-0.08788933093261875,34.980220794677734,0.007046593560112847,-0.09713990953233508
3375,0.15661525067816848,0.17929691314697266,85.61874389648438,84.30943298339844,-6.712242126464844,86.94851684570312,-0.1691418965657552,0.646,0.4942857142857143,0.008268651318359351,-1.3183199339599625,0.3405660092830658,34.892330169677734,0.014547899034288195,-0.09623065524631076
3376,0.14489650067816848,0.17929691314697266,85.23004150390625,85.0459213256836,-6.712242126464844,86.88714599609375,-0.1691418965657552,0.6413333333333333,0.49357142857142855,0.0077206929524739586,-1.164517062255861,0.05493000149726868,34.892330169677734,0.002045779758029514,-0.0955487569173177
3377,0.14099025067816848,0.17929691314697266,84.82088470458984,84.14576721191406,-6.712242126464844,86.90760040283203,-0.1691418965657552,0.6363333333333333,0.4932142857142857,0.0073239644368489586,-1.0326849394531266,-0.13183273608398594,34.892330169677734,0.007501305474175347,-0.0957760281032986
3378,0.14489650067816848,0.17929691314697266,84.02302551269531,83.38882446289062,-6.732700347900391,86.88714599609375,-0.16755070156521268,0.632,0.4925,0.0072629292805989586,-0.9447962218017594,0.2746500074863434,34.892330169677734,0.007046678331163195,-0.09577607048882378
3379,0.14099025067816848,0.17929691314697266,84.88226318359375,83.94119262695312,-6.732700347900391,86.88714599609375,-0.16777801513671875,0.6276666666666667,0.49178571428571427,0.0074765523274739586,-0.8788801604003922,0.9887400269508362,34.892330169677734,0.010456339518229166,-0.09577607048882378
3380,0.13708400067816848,0.17929691314697266,84.80043029785156,84.14576721191406,-6.732700347900391,86.90760040283203,-0.1673233879937066,0.623,0.4907142857142857,0.0076596577962239586,-0.7800070219726578,1.3952220678329468,34.892330169677734,0.007274034288194444,-0.09600334167480469
3381,0.12536525067816848,0.17929691314697266,85.72103881835938,85.14820861816406,-6.732700347900391,86.90760040283203,-0.16891458299424914,0.619,0.4903571428571429,0.007873280843098959,-0.7360617094726578,1.2743760347366333,34.892330169677734,0.006364780002170139,-0.09600334167480469
3382,0.12145900067816848,0.17929691314697266,85.47554016113281,84.88226318359375,-6.732700347900391,86.98943328857422,-0.16982381608751085,0.6143333333333333,0.48928571428571427,0.007903798421223959,-0.7580343657226578,0.5932440161705017,34.892330169677734,0.006591966417100695,-0.09691259596082899
3383,0.11755275067816848,0.17929691314697266,86.6007308959961,85.57783508300781,-6.732700347900391,87.03034973144531,-0.17164230346679688,0.6103333333333333,0.48857142857142855,0.0077512105305989586,-0.834936755249025,-0.3076082640380875,35.15599822998047,0.011365509033203125,-0.09736722310384115
3384,0.11364650067816848,0.17929691314697266,84.0434799194336,84.35034942626953,-6.732700347900391,87.0098876953125,-0.170278443230523,0.606,0.4878571428571429,0.0069577534993489586,-0.834936755249025,-1.4940973692626969,36.65013122558594,-0.003409661187065972,-0.0971398671468099
3385,0.13708400067816848,0.17929691314697266,82.75462341308594,82.0385971069336,-6.732700347900391,87.03034973144531,-0.1670960956149631,0.602,0.4875,0.0070493062337239586,-0.845923083374025,-0.6921183043212906,36.82590866088867,0.007955847846137152,-0.09736722310384115
3386,0.14489650067816848,0.19921878814697266,84.77996826171875,83.4501953125,-6.732700347900391,87.0712661743164,-0.16550490061442058,0.5976666666666667,0.48714285714285716,0.0074155171712239586,-0.9118391447753922,1.1974740028381348,36.91379928588867,0.014775254991319445,-0.0978218502468533
3387,0.12536525067816848,0.17929691314697266,85.35279846191406,84.71859741210938,-6.732700347900391,87.0098876953125,-0.16573221418592665,0.5926666666666667,0.48678571428571427,0.0073239644368489586,-0.9447962218017594,1.8786060810089111,36.91379928588867,0.007046678331163195,-0.0971398671468099
3388,0.11364650067816848,0.19921878814697266,84.84133911132812,84.57539367675781,-6.712242126464844,87.0098876953125,-0.16755070156521268,0.5883333333333334,0.48642857142857143,0.0076596577962239586,-0.9667688780517594,1.6698720455169678,37.265357971191406,0.0029549492730034724,-0.09691255357530382
3389,0.11755275067816848,0.19921878814697266,84.554931640625,84.12531280517578,-6.732700347900391,87.03034973144531,-0.1682326422797309,0.5836666666666667,0.48642857142857143,0.008756932568359351,-0.9777552061767594,1.5709980726242065,37.529029846191406,0.004773542616102431,-0.09736722310384115
3390,0.12145900067816848,0.19921878814697266,85.78240966796875,84.45263671875,-6.7531585693359375,87.09172058105469,-0.16891458299424914,0.579,0.4857142857142857,0.009763927875434003,-1.0436712675781266,1.7467740774154663,37.529029846191406,0.014775254991319445,-0.09827643500434027
3391,0.10974025067816848,0.19921878814697266,85.557373046875,85.41416931152344,-6.7531585693359375,87.13264465332031,-0.16868726942274306,0.574,0.4857142857142857,0.009916515766059003,-1.175503390380861,1.1864880323410034,37.529029846191406,0.001591152615017361,-0.09873114691840278
3392,0.10974025067816848,0.19921878814697266,84.80043029785156,84.24806213378906,-6.732700347900391,87.1121826171875,-0.16891458299424914,0.569,0.4853571428571429,0.010191173969184003,-1.3073355131835953,0.6811320185661316,37.529029846191406,0.006137424045138889,-0.09827647738986545
3393,0.10974025067816848,0.19921878814697266,85.0050048828125,84.49356079101562,-6.732700347900391,87.05081176757812,-0.16868726942274306,0.564,0.4853571428571429,0.010496349750434003,-1.3293062620849625,0.5383139848709106,37.17747116088867,0.005682712131076389,-0.09759457906087239
3394,0.10583400067816848,0.19921878814697266,85.25050354003906,84.61630249023438,-6.732700347900391,87.03034973144531,-0.16868726942274306,0.5586666666666666,0.4853571428571429,0.010587902484809003,-1.3073355131835953,0.4394400119781494,36.1227912902832,0.007046678331163195,-0.09736722310384115
3395,0.10192775067816848,0.19921878814697266,85.33233642578125,84.5958480834961,-6.7531585693359375,87.03034973144531,-0.168459955851237,0.5533333333333333,0.485,0.010374279437934003,-1.2963491850585953,0.24169200658798218,36.1227912902832,0.008183203803168403,-0.09759453667534722
3396,0.09411525067816848,0.19921878814697266,84.92317199707031,84.94363403320312,-6.732700347900391,87.03034973144531,-0.16755070156521268,0.5476666666666666,0.485,0.009885998187934003,-1.3073355131835953,-0.14281906420898594,35.8591194152832,-0.00022735595703125,-0.09736722310384115
3397,0.09411525067816848,0.19921878814697266,84.32989501953125,83.81844329833984,-6.712242126464844,86.98943328857422,-0.1673233879937066,0.5426666666666666,0.48464285714285715,0.009611424755859351,-1.3293062620849625,-0.19774879748535312,35.24388885498047,0.0056827969021267365,-0.09668528238932292
3398,0.09802150067816848,0.19921878814697266,85.5164566040039,84.06393432617188,-6.732700347900391,87.0098876953125,-0.1682326422797309,0.5373333333333333,0.48428571428571426,0.009641857562934003,-1.3402925902099625,0.1867620050907135,34.892330169677734,0.0161391364203559,-0.0971398671468099
3399,0.09020900067816848,0.19921878814697266,84.5958480834961,84.90271759033203,-6.732700347900391,86.94851684570312,-0.16777801513671875,0.532,0.48392857142857143,0.009214696240234351,-1.3073355131835953,-0.04394401843261875,34.892330169677734,-0.003409661187065972,-0.09645796881781685
3400,0.09020900067816848,0.219140682220459,85.455078125,84.20714569091797,-6.712242126464844,86.92805480957031,-0.16891458299424914,0.527,0.4835714285714286,0.009123143505859351,-1.2194467955322281,0.0,34.716548919677734,0.013865915934244792,-0.09600329928927952
3401,0.08630275067816848,0.219140682220459,83.85935974121094,84.20714569091797,-6.712242126464844,86.90760040283203,-0.16664146847195097,0.5216666666666666,0.4828571428571429,0.008665379833984351,-1.131558077880861,-0.15380539233398594,34.716548919677734,-0.003864288330078125,-0.0957760281032986
3402,0.08630275067816848,0.219140682220459,85.72103881835938,84.82088470458984,-6.732700347900391,86.88714599609375,-0.16777801513671875,0.5166666666666667,0.48178571428571426,0.008604344677734351,-1.0656420164794937,0.13183200359344482,34.716548919677734,0.010001712375217013,-0.09577607048882378
3403,0.08239650067816848,0.219140682220459,84.80043029785156,84.18669128417969,-6.732700347900391,86.88714599609375,-0.16800532870822482,0.512,0.48142857142857143,0.008299168896484351,-1.0216986113281266,-0.01098694140625156,34.716548919677734,0.006819322374131944,-0.09577607048882378
3404,0.08239650067816848,0.219140682220459,85.84378051757812,84.57539367675781,-6.732700347900391,86.86668395996094,-0.1691418965657552,0.5066666666666667,0.48035714285714287,0.008086903889973959,-0.9447962218017594,-0.08788933093261875,34.716548919677734,0.014093187120225694,-0.09554871453179253
3405,0.07849025067816848,0.219140682220459,84.0025634765625,84.77996826171875,-6.67132568359375,86.84622192382812,-0.16755070156521268,0.5023333333333333,0.47964285714285715,0.0075375874837239586,-0.8678938322753922,-0.6481748991699234,34.716548919677734,-0.008637830946180555,-0.09463941786024306
3406,0.08630275067816848,0.219140682220459,85.14820861816406,83.65477752685547,-6.650867462158203,86.78485107421875,-0.16800532870822482,0.49766666666666665,0.4782142857142857,0.0075375874837239586,-0.7360617094726578,-0.2856375151367203,34.716548919677734,0.01659367879231771,-0.09373020595974392
3407,0.08630275067816848,0.219140682220459,84.63676452636719,84.49356079101562,-6.691783905029297,86.78485107421875,-0.16664146847195097,0.493,0.47785714285714287,0.0072018941243489586,-0.6152159147949234,-0.09887375170898594,34.716548919677734,0.001591152615017361,-0.09418483310275608
3408,0.08239650067816848,0.219140682220459,84.86180114746094,84.0434799194336,-6.67132568359375,86.80531311035156,-0.16755070156521268,0.489,0.4764285714285714,0.0070798238118489586,-0.5602861815185562,0.1538040041923523,34.716548919677734,0.009092458089192708,-0.09418487548828125
3409,0.08239650067816848,0.219140682220459,85.88470458984375,85.23004150390625,-6.712242126464844,86.84622192382812,-0.16868726942274306,0.4846666666666667,0.4757142857142857,0.0069577534993489586,-0.5602861815185562,0.06591600179672241,34.716548919677734,0.007274034288194444,-0.0950940450032552
3410,0.07458400067816848,0.219140682220459,85.94607543945312,85.33233642578125,-6.712242126464844,86.86668395996094,-0.1693691889444987,0.48033333333333333,0.4742857142857143,0.006378004286024305,-0.6152159147949234,-0.5932451658935562,34.716548919677734,0.006819322374131944,-0.09532140096028646
3411,0.07458400067816848,0.219140682220459,85.41416931152344,84.71859741210938,-6.712242126464844,86.86668395996094,-0.16959650251600478,0.47633333333333333,0.4732142857142857,0.005676099989149305,-0.6591612272949234,-1.2414194517822281,34.716548919677734,0.00772857666015625,-0.09532140096028646
3412,0.07458400067816848,0.219140682220459,83.94119262695312,83.98210144042969,-6.67132568359375,86.82576751708984,-0.16755070156521268,0.4723333333333333,0.4717857142857143,0.004821607801649305,-0.6481748991699234,-1.4501520567626969,34.716548919677734,-0.00045454237196180554,-0.09441214667426215
3413,0.08239650067816848,0.219140682220459,85.14820861816406,83.85935974121094,-6.67132568359375,86.82576751708984,-0.16686878204345704,0.468,0.4710714285714286,0.004333326551649305,-0.6591612272949234,-0.7470480375976578,34.716548919677734,0.014320543077256944,-0.09441214667426215
3414,0.07458400067816848,0.219140682220459,84.6572265625,84.5958480834961,-6.712242126464844,86.80531311035156,-0.16595952775743272,0.4633333333333333,0.46964285714285714,0.0034789191351996527,-0.7031046324462906,-0.48338379199218906,34.716548919677734,0.0006819831000434028,-0.0946395026312934
3415,0.07067775067816848,0.239062557220459,83.16378784179688,83.38882446289062,-6.712242126464844,86.82576751708984,-0.165050294664171,0.459,0.4689285714285714,0.0031737433539496527,-0.7800070219726578,-0.01098694140625156,34.716548919677734,-0.0025004069010416668,-0.0948667738172743
3416,0.07849025067816848,0.239062557220459,84.02302551269531,82.65233612060547,-6.691783905029297,86.86668395996094,-0.16436835394965277,0.4543333333333333,0.46785714285714286,0.0038756476508246527,-0.9008528166503922,1.5490260124206543,34.716548919677734,0.015229882134331598,-0.09509408738878038
3417,0.07458400067816848,0.239062557220459,85.70057678222656,84.47309875488281,-6.712242126464844,86.94851684570312,-0.16550490061442058,0.44966666666666666,0.46714285714285714,0.004760572645399305,-1.0656420164794937,2.7794580459594727,34.716548919677734,0.013638644748263888,-0.09623065524631076
3418,0.05895900067816847,0.239062557220459,85.20958709716797,84.71859741210938,-6.691783905029297,86.88714599609375,-0.16573221418592665,0.44433333333333336,0.4664285714285714,0.005309889051649305,-1.2524038725585953,2.8783321380615234,34.716548919677734,0.005455440945095486,-0.09532144334581164
3419,0.05114650067816847,0.239062557220459,85.96653747558594,85.12775421142578,-6.548576354980469,86.72348022460938,-0.16891458299424914,0.44,0.46535714285714286,0.006408521864149305,-1.2194467955322281,2.4938220977783203,34.716548919677734,0.009319814046223958,-0.09191173977322048
3420,0.04333400067816847,0.25898443222045897,86.62118530273438,85.68012237548828,-6.67132568359375,86.70301818847656,-0.17118767632378473,0.43566666666666665,0.4635714285714286,0.0073849995930989586,-0.9118391447753922,1.6039559841156006,34.716548919677734,0.010456254747178819,-0.09304826524522569
3421,0.03161525067816847,0.239062557220459,86.0688247680664,85.80287170410156,-7.264606475830078,87.66455078125,-0.1693691889444987,0.43066666666666664,0.4614285714285714,0.0070798238118489586,-0.8788801604003922,0.32958000898361206,34.716548919677734,0.0029550340440538192,-0.11032396952311198
3422,0.03161525067816847,0.239062557220459,85.20958709716797,84.71859741210938,-8.123844146728516,88.38057708740234,-0.16868726942274306,0.42633333333333334,0.4567857142857143,0.006561109754774305,-1.5709978514404312,-0.5492998533935562,34.716548919677734,0.005455440945095486,-0.127826902601454
3423,0.019896500678168474,0.239062557220459,84.6572265625,84.1048583984375,-9.044452667236328,89.1579818725586,-0.16527760823567708,0.42333333333333334,0.45357142857142857,0.005004713270399305,-2.4279066496582047,-0.9777552061767594,34.716548919677734,0.006137424045138889,-0.14669371710883247
3424,0.03552150067816847,0.239062557220459,84.39126586914062,83.81844329833984,-9.699108123779297,89.66943359375,-0.16777801513671875,0.421,0.44785714285714284,0.005065748426649305,-3.4496046477050797,-0.9228254729003922,34.716548919677734,0.006364695231119792,-0.1596504635281033
3425,0.04333400067816847,0.219140682220459,84.90271759033203,83.98210144042969,-9.74002456665039,90.09904479980469,-0.1691418965657552,0.4186666666666667,0.44392857142857145,0.005096266004774305,-4.3944002562255875,-0.3845106535644547,34.716548919677734,0.010229068332248265,-0.16487854851616754
3426,0.03552150067816847,0.219140682220459,84.71859741210938,84.53446960449219,-9.330867767333984,89.44439697265625,-0.16527760823567708,0.41433333333333333,0.43964285714285717,0.004363844129774305,-4.756939547607423,-0.02197326953125156,34.716548919677734,0.002045864529079861,-0.1530584971110026
3427,0.03942775067816847,0.239062557220459,84.41172790527344,83.61386108398438,-9.22857666015625,89.19889831542969,-0.1641410403781467,0.4096666666666667,0.43714285714285717,0.004730055067274305,-4.449329989501955,0.48338401317596436,34.716548919677734,0.008865186903211806,-0.1491941663953993
3428,0.04333400067816847,0.239062557220459,85.33233642578125,84.57539367675781,-8.983078002929688,88.97386169433594,-0.1682326422797309,0.4043333333333333,0.4328571428571429,0.005584547254774305,-4.097778933593752,1.0986000299453735,34.716548919677734,0.008410474989149305,-0.14396599663628473
3429,0.05114650067816847,0.239062557220459,85.41416931152344,84.67768096923828,-8.94216537475586,88.85111236572266,-0.1673233879937066,0.3993333333333333,0.4307142857142857,0.0068051656087239586,-3.7022825651855484,1.3952220678329468,34.716548919677734,0.008183203803168403,-0.14214753044976128
3430,0.05114650067816847,0.239062557220459,87.33721923828125,85.98699188232422,-8.921707153320312,88.89202880859375,-0.17096038394504123,0.39466666666666667,0.42714285714285716,0.0077817281087239586,-3.4825636320800797,1.2963480949401855,34.716548919677734,0.015002526177300347,-0.14237484402126735
3431,0.03942775067816847,0.239062557220459,86.58027648925781,86.82576751708984,-8.839874267578125,88.89202880859375,-0.1714149898952908,0.39,0.42428571428571427,0.0074155171712239586,-3.4056612425537125,0.0,34.716548919677734,-0.0027276780870225696,-0.14146558973524306
3432,0.03942775067816847,0.25898443222045897,84.96409606933594,83.98210144042969,-8.73758316040039,88.83065795898438,-0.1693691889444987,0.386,0.4203571428571429,0.0073239644368489586,-3.3177725249023453,-0.7031046324462906,34.716548919677734,0.010911051432291667,-0.1396471235487196
3433,0.03942775067816847,0.25898443222045897,85.39370727539062,84.98455047607422,-8.696666717529297,88.76927947998047,-0.1661868413289388,0.38166666666666665,0.41785714285714287,0.0071103413899739586,-3.1529833250732437,-0.5053564482421891,34.716548919677734,0.00454618665907118,-0.13851051330566405
3434,0.04333400067816847,0.25898443222045897,85.02546691894531,84.39126586914062,-8.67620849609375,88.74882507324219,-0.1670960956149631,0.378,0.4142857142857143,0.0070798238118489586,-2.9991785460205094,-0.18676246936035312,34.716548919677734,0.007046678331163195,-0.13805592854817708
3435,0.04724025067816847,0.25898443222045897,86.62118530273438,85.455078125,-8.51254653930664,88.64653015136719,-0.16777801513671875,0.374,0.4114285714285714,0.0077206929524739586,-2.933262484619142,0.04394400119781494,34.716548919677734,0.012956746419270833,-0.1351008521185981
3436,0.05114650067816847,0.25898443222045897,87.17355346679688,86.04837036132812,-8.38979721069336,88.50332641601562,-0.16777801513671875,0.37,0.4075,0.007964833577473959,-2.7794596129150406,-0.3076082640380875,34.716548919677734,0.012502034505208334,-0.13214581807454426
3437,0.04724025067816847,0.2789063262939453,86.35523986816406,86.559814453125,-8.369338989257812,88.50332641601562,-0.02434471978081597,0.366,0.40535714285714286,0.0074765523274739586,-2.581711428710939,-1.3293062620849625,34.716548919677734,-0.0022730509440104167,-0.1319185045030382
3438,0.05114650067816847,0.2789063262939453,84.39126586914062,84.53446960449219,-8.287506103515625,88.44195556640625,-0.02457203335232205,0.36233333333333334,0.4014285714285714,0.0068662007649739586,-2.4608656340332047,-1.8017050200195328,34.716548919677734,-0.001591152615017361,-0.13032735188802083
3439,0.05505275067816847,0.2789063262939453,84.39126586914062,83.71615600585938,-8.205677032470703,88.38057708740234,-0.02434471978081597,0.35833333333333334,0.3992857142857143,0.006225416395399305,-2.3619905882568375,-0.9228254729003922,34.716548919677734,0.007501220703125,-0.1287361568874783
3440,0.04333400067816847,0.2789063262939453,85.76194763183594,84.14576721191406,-8.144302368164062,88.31919860839844,-0.02457203335232205,0.3546666666666667,0.395,0.004943678114149305,-2.3290335112304703,0.1538040041923523,34.716548919677734,0.017957560221354165,-0.12737223307291667
3441,0.027709000678168474,0.2789063262939453,85.98699188232422,85.27096557617188,-8.492088317871094,88.64653015136719,-0.02434471978081597,0.351,0.3925,0.0036620246039496527,-2.3839632445068375,0.19774800539016724,34.716548919677734,0.007955847846137152,-0.13487353854709203
3442,0.023802750678168474,0.2789063262939453,84.26852416992188,84.98455047607422,-9.126285552978516,89.44439697265625,-0.024799346923828125,0.3476666666666667,0.3875,0.0032958136664496527,-3.0650946074218766,-0.3515516691894547,34.716548919677734,-0.007955847846137152,-0.15078536139594184
3443,0.04724025067816847,0.2789063262939453,83.5115737915039,82.52958679199219,-9.474071502685547,89.99675750732422,-0.031164042154947915,0.345,0.38357142857142856,0.005218336317274305,-4.130736010620119,0.3405660092830658,34.716548919677734,0.01091096666124132,-0.16078698900010852
3444,0.04333400067816847,0.2789063262939453,85.14820861816406,84.0025634765625,-9.678653717041016,90.26271057128906,-0.024117406209309897,0.3426666666666667,0.37857142857142856,0.005401441786024305,-5.119476931640627,1.8676199913024902,34.716548919677734,0.012729390462239584,-0.1660151587592231
3445,0.019896500678168474,0.25898443222045897,86.90760040283203,86.27340698242188,-9.576362609863281,90.30363464355469,-0.023662779066297743,0.3393333333333333,0.37464285714285717,0.004241773817274305,-5.877510684082033,2.2191720008850098,34.716548919677734,0.007046593560112847,-0.1653333028157552
3446,-0.01916597154405382,0.25898443222045897,86.68256378173828,86.559814453125,-9.330867767333984,90.03767395019531,-0.023662779066297743,0.336,0.36964285714285716,0.0022582160101996527,-6.273007052490236,0.8678940534591675,34.716548919677734,0.0013638814290364584,-0.1596504635281033
3447,-0.00744722154405382,0.2789063262939453,84.71859741210938,84.554931640625,-9.064910888671875,89.73080444335938,-0.031164042154947915,0.33166666666666667,0.36642857142857144,0.0030821906195746527,-6.185118334838869,-0.9008528166503922,34.716548919677734,0.001818508572048611,-0.15328572591145834
3448,0.015990250678168474,0.2789063262939453,84.53446960449219,83.96165466308594,-8.921707153320312,89.28073120117188,-0.02866363525390625,0.32766666666666666,0.36214285714285716,0.004180738661024305,-5.591875689575197,-1.3622652464599625,34.716548919677734,0.006364610460069444,-0.14669375949435765
3449,0.023802750678168474,0.29882820129394533,83.85935974121094,83.69569396972656,-8.880790710449219,89.19889831542969,-0.0250266604953342,0.3233333333333333,0.3585714285714286,0.0037840949164496527,-4.976658480712892,-1.0326849394531266,34.716548919677734,0.001818508572048611,-0.1453298780653212
3450,0.023802750678168474,0.29882820129394533,84.75950622558594,83.26608276367188,-8.655750274658203,89.05569458007812,-0.02570855882432726,0.31966666666666665,0.35464285714285715,0.0033568488226996527,-4.559191363403322,-0.17577614123535312,34.716548919677734,0.016593594021267363,-0.141238276163737
3451,0.015990250678168474,0.29882820129394533,85.78240966796875,84.86180114746094,-8.798957824707031,89.0147705078125,-0.024799346923828125,0.31633333333333336,0.3514285714285714,0.0025633917914496527,-4.207638400146486,0.38451001048088074,34.716548919677734,0.010228983561197917,-0.142374759250217
3452,0.00427152845594618,0.29882820129394533,85.33233642578125,85.02546691894531,-8.778499603271484,89.2193603515625,-0.024799346923828125,0.313,0.3460714285714286,0.0015868292914496527,-4.141722338745119,0.26366400718688965,34.716548919677734,0.003409661187065972,-0.14442066616482205
3453,0.00427152845594618,0.29882820129394533,84.90271759033203,84.24806213378906,-8.696666717529297,89.03523254394531,-0.02729975382486979,0.31,0.3432142857142857,0.0015563117133246527,-4.306513445922853,0.07690200209617615,34.716548919677734,0.0072739495171440975,-0.1414655473497179
3454,0.012084000678168474,0.29882820129394533,85.02546691894531,84.41172790527344,-8.205677032470703,88.70790100097656,-0.02866363525390625,0.307,0.3385714285714286,0.0022887335883246527,-4.218624728271486,0.1867620050907135,34.716548919677734,0.006819322374131944,-0.13237308926052518
3455,0.008177750678168474,0.29882820129394533,85.5164566040039,84.53446960449219,-7.796516418457031,88.23736572265625,-0.026617813110351562,0.30333333333333334,0.3357142857142857,0.0020751105414496527,-3.7681986265869156,0.4943700134754181,34.716548919677734,0.01091096666124132,-0.12259869045681424
3456,-0.0035409715440538193,0.3187500762939453,85.37325286865234,85.35279846191406,-7.3668975830078125,87.84866333007812,-0.02570855882432726,0.30033333333333334,0.33107142857142857,0.0010985480414496527,-3.1090380125732437,0.516342043876648,34.716548919677734,0.00022727118598090277,-0.11350623236762153
3457,-0.01525972154405382,0.3187500762939453,85.35279846191406,84.84133911132812,-7.305522918701172,87.70545959472656,-0.027072440253363715,0.297,0.32785714285714285,0.000213623046875,-2.4388929777832047,0.3405660092830658,34.716548919677734,0.005682881673177083,-0.11123313903808593
3458,-0.01135347154405382,0.29882820129394533,84.92317199707031,84.77996826171875,-7.407814025878906,87.70545959472656,-0.030709415011935765,0.29433333333333334,0.32285714285714284,0.000518798828125,-2.0543829375000016,0.12084600329399109,34.716548919677734,0.001591152615017361,-0.11236970689561632
3459,-0.0035409715440538193,0.29882820129394533,84.86180114746094,84.49356079101562,-7.325981140136719,87.70545959472656,-0.03184598286946615,0.29133333333333333,0.3196428571428571,0.0014342414008246527,-1.9335371428222672,0.17577600479125977,34.716548919677734,0.004091559516059028,-0.11146045260959202
3460,0.00036527845594618057,0.3187500762939453,85.0050048828125,84.57539367675781,-7.100944519042969,87.66455078125,-0.032073296440972225,0.289,0.315,0.0022276984320746527,-1.8786074095459,0.4284540116786957,34.716548919677734,0.004773457845052083,-0.10850550333658854
3461,0.00036527845594618057,0.3187500762939453,85.74149322509766,84.61630249023438,-6.875904083251953,87.23492431640625,-0.03184598286946615,0.2866666666666667,0.3125,0.0023192511664496527,-1.6149431639404312,0.7360620498657227,36.29856872558594,0.01250211927625868,-0.10123142666286893
3462,-0.00744722154405382,0.33867195129394534,87.91004180908203,86.6007308959961,-7.019111633300781,87.25538635253906,-0.0323006100124783,0.284,0.30964285714285716,0.0020140753851996527,-1.2304331236572281,0.4943700134754181,39.98994827270508,0.014547899034288195,-0.10304997762044271
3463,-0.01525972154405382,0.33867195129394534,86.43707275390625,86.33477783203125,-7.060028076171875,87.35768127441406,-0.034346389770507815,0.281,0.3078571428571429,0.00091552734375,-1.1095873289794937,-0.7800070219726578,40.95674133300781,0.0011366102430555556,-0.10464121500651041
3464,-0.01916597154405382,0.33867195129394534,85.16867065429688,84.88226318359375,-7.346439361572266,87.74638366699219,-0.03389176262749566,0.2776666666666667,0.305,-0.000518798828125,-1.3952223234863297,-1.6698728972167984,47.987937927246094,0.003182305230034722,-0.11214247809516059
3465,-0.02307222154405382,0.33867195129394534,84.90271759033203,84.61630249023438,-7.346439361572266,87.72592163085938,-0.030027474297417533,0.27466666666666667,0.30428571428571427,-0.0028990851508246527,-1.9884668760986344,-1.7907186918945328,48.339500427246094,0.0031823900010850693,-0.11191512213812935
3466,-0.03088472154405382,0.33867195129394534,84.82088470458984,84.47309875488281,-7.3668975830078125,87.6031723022461,-0.02980016072591146,0.271,0.305,-0.005279371473524305,-2.2960745268554703,-1.6039568358154312,48.339500427246094,0.003864288330078125,-0.11077855428059896
3467,-0.03869722154405382,0.33867195129394534,83.49111938476562,84.32989501953125,-7.223690032958984,87.37813568115234,-0.05253130594889323,0.26666666666666666,0.30607142857142855,-0.007934315999348959,-2.3619905882568375,-1.3622652464599625,48.339500427246094,-0.009319729275173612,-0.10668695237901475
3468,-0.04650972154405382,0.33867195129394534,84.5140151977539,80.46333312988281,-6.425830841064453,86.47798156738281,-0.024117406209309897,0.26266666666666666,0.3078571428571429,-0.009978993733723959,-2.0324102812500016,0.5822579860687256,48.427391052246094,0.045007578531901044,-0.08782013787163628
3469,-0.05822847154405382,0.33867195129394534,84.94363403320312,84.43218231201172,-6.323539733886719,86.1097412109375,-0.02093505859375,0.259,0.30857142857142855,-0.01065029568142361,-1.0216986113281266,1.5709980726242065,48.427391052246094,0.0056827969021267365,-0.08259201049804688
3470,-0.05822847154405382,0.33867195129394534,84.14576721191406,83.73661041259766,-7.182777404785156,86.88714599609375,-0.02616318596733941,0.256,0.3092857142857143,-0.009399159749348959,-0.2416922026367203,1.812690019607544,48.427391052246094,0.00454618665907118,-0.10077692667643229
3471,-0.05432222154405382,0.3585938262939453,86.5188980102539,86.21202850341797,-7.039569854736328,87.74638366699219,-0.027072440253363715,0.253,0.30892857142857144,-0.0078122456868489586,-0.6042314940185562,1.8566340208053589,48.427391052246094,0.003409661187065972,-0.10873281690809462
3472,-0.05432222154405382,0.33867195129394534,85.41416931152344,85.08683776855469,-6.957736968994141,87.15309143066406,-0.029572847154405384,0.25033333333333335,0.30857142857142855,-0.006378004286024305,-0.823950427124025,1.2414180040359497,48.427391052246094,0.003637017144097222,-0.10123142666286893
3473,-0.04650972154405382,0.3585938262939453,85.08683776855469,84.69813537597656,-6.957736968994141,87.19401550292969,-0.03093672858344184,0.248,0.30857142857142855,-0.004699537489149305,-0.5822588377685562,1.032684087753296,48.427391052246094,0.0043189154730902775,-0.10168613857693143
3474,-0.05041597154405382,0.3585938262939453,85.12775421142578,84.71859741210938,-7.019111633300781,87.15309143066406,-0.021616956922743055,0.24566666666666667,0.3078571428571429,-0.004791090223524305,-0.18676246936035312,1.2304320335388184,48.427391052246094,0.00454618665907118,-0.10191336737738715
3475,-0.05822847154405382,0.3585938262939453,85.84378051757812,85.0050048828125,-7.080486297607422,87.74638366699219,-0.021844270494249134,0.24333333333333335,0.3075,-0.004821607801649305,-0.2856375151367203,1.2963480949401855,48.427391052246094,0.009319729275173612,-0.10918744405110677
3476,-0.06213472154405382,0.3585938262939453,84.84133911132812,85.41416931152344,-7.121402740478516,87.86912536621094,-0.027754380967881943,0.241,0.3067857142857143,-0.004302893744574653,-0.7360617094726578,0.9667680263519287,48.427391052246094,-0.006364780002170139,-0.11100586785210503
3477,-0.05822847154405382,0.3585938262939453,86.41661071777344,84.67768096923828,-7.060028076171875,87.562255859375,-0.02980016072591146,0.23866666666666667,0.30642857142857144,-0.0031127081976996527,-1.0656420164794937,0.9777539968490601,48.427391052246094,0.019321441650390625,-0.10691426595052084
3478,-0.05822847154405382,0.3585938262939453,85.94607543945312,85.68012237548828,-7.060028076171875,87.50088500976562,-0.027981694539388022,0.23633333333333334,0.30642857142857144,-0.0029906378851996527,-1.1095873289794937,0.7360620498657227,48.427391052246094,0.0029550340440538192,-0.10623236762152778
3479,-0.06213472154405382,0.3585938262939453,85.31187438964844,84.94363403320312,-7.060028076171875,87.54179382324219,-0.02616318596733941,0.23366666666666666,0.30642857142857144,-0.0032652960883246527,-1.0326849394531266,0.2856360077857971,48.427391052246094,0.004091559516059028,-0.10668690999348958
3480,-0.06604097154405382,0.3585938262939453,84.86180114746094,84.39126586914062,-7.080486297607422,87.72592163085938,-0.03457370334201389,0.231,0.30607142857142855,-0.0034789191351996527,-1.0546575957031266,0.07690200209617615,48.427391052246094,0.005228169759114583,-0.10896008809407552
3481,-0.06604097154405382,0.3585938262939453,85.1072998046875,84.63676452636719,-7.080486297607422,87.78729248046875,-0.02616318596733941,0.22833333333333333,0.30607142857142855,-0.0037535773383246527,-1.2084604674072281,0.29662200808525085,48.427391052246094,0.005228169759114583,-0.10964198642306858
3482,-0.06994722154405382,0.3585938262939453,85.61874389648438,85.20958709716797,-7.080486297607422,87.62362670898438,-0.024799346923828125,0.225,0.30607142857142855,-0.003997717963324653,-1.3073355131835953,0.6042300462722778,48.427391052246094,0.00454618665907118,-0.10782347785101996
3483,-0.06994722154405382,0.3585938262939453,85.61874389648438,85.18913269042969,-7.080486297607422,87.68500518798828,-0.03275523715549045,0.22233333333333333,0.30607142857142855,-0.0038451300726996527,-1.3512789183349625,0.06591600179672241,48.427391052246094,0.004773457845052083,-0.10850546095106336
3484,-0.06994722154405382,0.33867195129394534,85.57783508300781,85.20958709716797,-7.060028076171875,87.78729248046875,-0.031164042154947915,0.219,0.30642857142857144,-0.0034178839789496527,-1.4171949797363297,-0.13183273608398594,48.427391052246094,0.004091644287109375,-0.1094146728515625
3485,-0.07385347154405382,0.33867195129394534,88.0123291015625,85.14820861816406,-7.060028076171875,87.74638366699219,-0.020025804307725693,0.216,0.30642857142857144,-0.0038146124945746527,-1.4721247130126969,0.4614120125770569,48.427391052246094,0.03182356092664931,-0.1089601304796007
3486,-0.07385347154405382,0.3585938262939453,81.19981384277344,81.9976806640625,-7.080486297607422,87.78729248046875,-0.03616489834255642,0.21266666666666667,0.30642857142857144,-0.004241858588324653,-1.6698728972167984,-0.20873512561035312,48.427391052246094,-0.008865186903211806,-0.10964198642306858
3487,-0.08166597154405382,0.33867195129394534,85.5164566040039,85.84378051757812,-7.080486297607422,87.50088500976562,-0.02616318596733941,0.20933333333333334,0.3067857142857143,-0.005615064832899305,-1.7357889586181656,0.3185940086841583,48.427391052246094,-0.003636932373046875,-0.10645968119303385
3488,-0.08557222154405382,0.3585938262939453,85.02546691894531,84.63676452636719,-7.080486297607422,87.6031723022461,-0.04093844095865885,0.20566666666666666,0.30714285714285716,-0.006286451551649305,-1.7577597075195328,0.0,48.427391052246094,0.0043189154730902775,-0.10759620666503907
3489,-0.08947847154405382,0.33867195129394534,85.12775421142578,84.63676452636719,-7.060028076171875,87.562255859375,-0.04002918667263455,0.20233333333333334,0.30714285714285716,-0.006713697645399305,-1.6918455534667984,-0.3185945921630875,48.427391052246094,0.005455440945095486,-0.10691426595052084
3490,-0.09338472154405382,0.33867195129394534,85.0459213256836,84.61630249023438,-7.060028076171875,87.50088500976562,-0.04230228000217014,0.19933333333333333,0.3075,-0.006957838270399305,-1.5819841795654312,-0.823950427124025,48.427391052246094,0.004773542616102431,-0.10623236762152778
3491,-0.08947847154405382,0.33867195129394534,84.98455047607422,84.71859741210938,-7.060028076171875,87.562255859375,-0.03934724595811632,0.196,0.3075,-0.008056386311848959,-1.549027102539064,-0.801977770874025,48.427391052246094,0.0029550340440538192,-0.10691426595052084
3492,-0.09338472154405382,0.33867195129394534,82.22271728515625,81.52714538574219,-6.650867462158203,86.78485107421875,-0.0404838138156467,0.19233333333333333,0.3078571428571429,-0.009246571858723959,-1.7138163023681656,-0.17577614123535312,48.427391052246094,0.00772857666015625,-0.09373020595974392
3493,-0.09729097154405382,0.33867195129394534,88.33966064453125,87.05081176757812,-6.998653411865234,87.41905212402344,-0.030482101440429687,0.18966666666666668,0.3082142857142857,-0.009246571858723959,-1.3952223234863297,1.219446063041687,48.427391052246094,0.014320543077256944,-0.10464117262098524
3494,-0.10510347154405382,0.3187500762939453,87.05081176757812,87.93049621582031,-6.998653411865234,87.64408874511719,-0.03821067810058594,0.186,0.30857142857142855,-0.008453114827473959,-1.560013430664064,0.35155200958251953,48.427391052246094,-0.009774271647135417,-0.10714157952202691
3495,-0.10119722154405382,0.29882820129394533,85.08683776855469,84.6572265625,-6.834991455078125,86.78485107421875,-0.0445754157172309,0.183,0.30857142857142855,-0.0074765523274739586,-1.4062086516113297,-0.6371885710449234,48.427391052246094,0.004773457845052083,-0.0957760281032986
3496,-0.08947847154405382,0.3187500762939453,85.12775421142578,84.71859741210938,-7.121402740478516,88.05325317382812,-0.037301423814561634,0.17966666666666667,0.3092857142857143,-0.0075681050618489586,-1.4171949797363297,-0.5932451658935562,48.427391052246094,0.00454618665907118,-0.11305173238118489
3497,-0.08947847154405382,0.29882820129394533,85.08683776855469,84.69813537597656,-7.100944519042969,87.62362670898438,-0.040711127387152775,0.176,0.30964285714285716,-0.007934315999348959,-1.9115644865722672,-0.4504267149658219,48.427391052246094,0.0043189154730902775,-0.10805079142252604
3498,-0.09729097154405382,0.29882820129394533,85.1072998046875,84.67768096923828,-6.814533233642578,87.39859008789062,-0.0363922119140625,0.17233333333333334,0.31035714285714283,-0.009185536702473959,-2.0873400145263687,-0.3076082640380875,48.427391052246094,0.004773542616102431,-0.10236803690592448
3499,-0.09338472154405382,0.3187500762939453,85.5982894897461,85.14820861816406,-6.998653411865234,87.41905212402344,-0.03798336452907986,0.169,0.31107142857142855,-0.009917958577473959,-1.9774805479736344,-0.7250772886962906,48.427391052246094,0.00500089857313368,-0.10464117262098524
3500,-0.08947847154405382,0.3187500762939453,85.455078125,85.02546691894531,-6.957736968994141,87.25538635253906,-0.04184765285915799,0.16566666666666666,0.31214285714285717,-0.010253651936848959,-1.7577597075195328,-0.9228254729003922,48.427391052246094,0.004773457845052083,-0.10236803690592448
3501,-0.08557222154405382,0.29882820129394533,85.37325286865234,84.96409606933594,-6.957736968994141,87.25538635253906,-0.0404838138156467,0.16333333333333333,0.31285714285714283,-0.010314687093098959,-1.4501520567626969,-0.9777552061767594,48.427391052246094,0.00454618665907118,-0.10236803690592448
3502,-0.08166597154405382,0.29882820129394533,84.22760009765625,84.30943298339844,-6.916820526123047,87.0712661743164,-0.03843799167209201,0.16033333333333333,0.31357142857142856,-0.01101650661892361,-1.1095873289794937,-0.7690206938476578,48.427391052246094,-0.0009092542860243056,-0.09986763000488282
3503,-0.08947847154405382,0.29882820129394533,85.63920593261719,83.36836242675781,-6.875904083251953,87.03034973144531,-0.03821067810058594,0.15766666666666668,0.31357142857142856,-0.01190151638454861,-0.7470480375976578,0.09887400269508362,48.427391052246094,0.02523159450954861,-0.0989583757188585
3504,-0.09338472154405382,0.29882820129394533,85.25050354003906,84.86180114746094,-6.937278747558594,87.05081176757812,-0.03093672858344184,0.15533333333333332,0.31392857142857145,-0.01281704372829861,-0.4614130430908219,0.8239500522613525,48.427391052246094,0.0043189154730902775,-0.09986767239040799
3505,-0.10119722154405382,0.29882820129394533,85.08683776855469,84.80043029785156,-7.816974639892578,87.41905212402344,-0.03661952548556858,0.153,0.31357142857142856,-0.01266445583767361,-0.4284540587158219,0.8788800239562988,48.427391052246094,0.003182305230034722,-0.11373363071017795
3506,-0.08947847154405382,0.29882820129394533,86.35523986816406,86.17111206054688,-7.305522918701172,87.58271789550781,-0.04412078857421875,0.15133333333333332,0.31285714285714283,-0.01138271755642361,-0.8898664885253922,0.23070600628852844,48.427391052246094,0.002045864529079861,-0.10986934238009982
3507,-0.08557222154405382,0.2789063262939453,85.12775421142578,84.73905181884766,-7.285064697265625,87.68500518798828,-0.042074966430664065,0.15,0.31285714285714283,-0.01065029568142361,-1.0326849394531266,-0.16478981311035312,48.427391052246094,0.0043189154730902775,-0.11077855428059896
3508,-0.08947847154405382,0.2789063262939453,85.06637573242188,84.6572265625,-7.44873046875,87.78729248046875,-0.03934724595811632,0.148,0.3125,-0.01068081325954861,-0.9338098936767594,0.2856360077857971,48.427391052246094,0.004546101888020833,-0.11373358832465277
3509,-0.12463472154405382,0.239062557220459,85.53691101074219,84.88226318359375,-7.694225311279297,88.46240997314453,-0.03457370334201389,0.14533333333333334,0.3125,-0.01211513943142361,-1.2304331236572281,1.3842360973358154,48.427391052246094,0.00727386474609375,-0.12396261427137586
3510,-0.1793222215440538,0.219140682220459,85.78240966796875,87.80775451660156,-8.778499603271484,89.19889831542969,-0.01661614312065972,0.14133333333333334,0.31357142857142856,-0.015227847629123263,-2.142269747802736,1.724802017211914,48.427391052246094,-0.022503831651475695,-0.1441933102077908
3511,-0.1324472215440538,0.239062557220459,85.43462371826172,85.08683776855469,-7.632850646972656,87.95095825195312,-0.05866868760850694,0.139,0.31392857142857145,-0.01107754177517361,-3.88904442126465,0.8349360227584839,48.427391052246094,0.003864288330078125,-0.1175978766547309
3512,-0.08947847154405382,0.25898443222045897,85.96653747558594,85.61874389648438,-6.241706848144531,86.41661071777344,-0.047530449761284725,0.13233333333333333,0.31642857142857145,-0.0076901753743489586,-3.7791849547119156,0.9338099956512451,48.427391052246094,0.0038643731011284723,-0.08509241739908854
3513,-0.12072847154405382,0.13945316314697265,86.29386138916016,85.88470458984375,-6.262165069580078,86.35523986816406,-0.04412078857421875,0.13133333333333333,0.31857142857142856,-0.005401441786024305,-1.3732515745849625,-0.4723993712158219,48.427391052246094,0.00454618665907118,-0.08463783264160156
3514,-0.02697847154405382,0.19921878814697266,84.92317199707031,85.65966796875,-6.855449676513672,87.5213394165039,-0.05889600118001302,0.127,0.32107142857142856,-0.001678466796875,-0.6701475554199234,-0.9008528166503922,48.427391052246094,-0.00818328857421875,-0.1041865454779731
3515,-0.05432222154405382,0.239062557220459,86.0074462890625,85.43462371826172,-8.082927703857422,89.13752746582031,-0.01729808383517795,0.12066666666666667,0.32142857142857145,-0.005645582411024305,-2.3070608549804703,-0.06591667468261875,48.427391052246094,0.006364695231119792,-0.13578283521864148
3516,-0.07775972154405382,0.13945316314697265,85.29141998291016,85.43462371826172,-6.528118133544922,87.21446990966797,-0.04139302571614583,0.118,0.32357142857142857,-0.004974195692274305,-2.834389346191408,-0.10986007983398594,48.427391052246094,-0.001591152615017361,-0.0971398671468099
3517,-0.01135347154405382,0.15937503814697265,88.74882507324219,87.25538635253906,-6.569034576416016,41.900001525878906,-0.060714467366536455,0.11333333333333333,0.325,-0.001220703125,-2.504809039184572,0.06591600179672241,48.427391052246094,0.016593763563368055,0.4058995988633898
3518,-0.07385347154405382,0.13945316314697265,86.84622192382812,86.70301818847656,-6.650867462158203,86.0688247680664,-0.020025804307725693,0.11033333333333334,0.3271428571428571,-0.004943678114149305,-1.6918455534667984,0.032958000898361206,48.427391052246094,0.001591152615017361,-0.08577435811360677
3519,-0.1285409715440538,0.17929691314697266,88.46240997314453,88.50332641601562,-7.100944519042969,86.86668395996094,-0.022980838351779515,0.10566666666666667,0.32785714285714285,-0.009246571858723959,-1.3732515745849625,-0.3076082640380875,48.427391052246094,-0.0004546271430121528,-0.09964031643337673
3520,-0.1402597215440538,0.15937503814697265,85.14820861816406,79.41996765136719,-6.507663726806641,87.13264465332031,-0.04730313618977865,0.102,0.3289285714285714,-0.009978993733723959,-1.549027102539064,-0.19774879748535312,48.427391052246094,0.06364712185329861,-0.09600342644585504
3521,-0.08557222154405382,0.239062557220459,86.72348022460938,86.35523986816406,-6.794075012207031,87.64408874511719,-0.048439704047309025,0.09933333333333333,0.3296428571428571,-0.008971913655598959,-1.175503390380861,0.7140899896621704,48.427391052246094,0.004091559516059028,-0.10486848619249133
3522,-0.1715097215440538,0.13945316314697265,92.14485168457031,87.80775451660156,-7.121402740478516,87.80775451660156,-0.03616489834255642,0.097,0.3296428571428571,-0.009887440999348959,-0.6481748991699234,0.4284540116786957,48.427391052246094,0.04818996853298611,-0.11032396952311198
3523,-0.1324472215440538,0.19921878814697266,83.12287139892578,82.44775390625,-7.244148254394531,41.900001525878906,-0.05434977213541667,0.093,0.3296428571428571,-0.01040615505642361,-0.823950427124025,-1.3073355131835953,48.427391052246094,0.007501305474175347,0.3983983357747396
3524,-0.12463472154405382,0.15937503814697265,82.93875122070312,82.44775390625,-6.67132568359375,86.78485107421875,-0.04662119547526042,0.091,0.3292857142857143,-0.010101064046223959,-1.4831110411376969,-0.9997259550781266,50.09729766845703,0.005455525716145834,-0.09395751953125
3525,-0.11682222154405382,0.17929691314697266,84.71859741210938,83.02058410644531,-6.712242126464844,88.17599487304688,-0.037301423814561634,0.08933333333333333,0.3296428571428571,-0.01138271755642361,-0.8788801604003922,0.9887400269508362,50.27307891845703,0.01886681450737847,-0.10986929999457465
3526,-0.2261972215440538,0.13945316314697265,86.6007308959961,86.21202850341797,-7.428272247314453,87.95095825195312,-0.0250266604953342,0.086,0.33035714285714285,-0.01296963161892361,-0.5492998533935562,1.8566340208053589,50.27307891845703,0.0043189154730902775,-0.11532478332519532
3527,-0.1441659715440538,0.17929691314697266,86.39614868164062,86.0688247680664,-7.407814025878906,87.70545959472656,-0.03821067810058594,0.08266666666666667,0.33107142857142857,-0.009795888264973959,-1.120571749755861,1.0876140594482422,50.27307891845703,0.003636932373046875,-0.11236970689561632
3528,-0.09729097154405382,0.15937503814697265,86.13019561767578,85.82332611083984,-7.162319183349609,86.96897888183594,-0.052985890706380205,0.08,0.3317857142857143,-0.005828687879774305,-1.8895918303222672,0.9447960257530212,50.27307891845703,0.003409661187065972,-0.10145886739095052
3529,-0.1597909715440538,0.1195312786102295,86.29386138916016,86.0074462890625,-6.9781951904296875,87.13264465332031,-0.030709415011935765,0.07766666666666666,0.33214285714285713,-0.007049391004774305,-1.4611383848876969,0.17577600479125977,50.27307891845703,0.0031823900010850693,-0.10123155381944444
3530,-0.1949472215440538,0.13945316314697265,84.47309875488281,85.33233642578125,-7.203235626220703,41.900001525878906,-0.029345575968424478,0.075,0.33321428571428574,-0.009460194905598959,-0.6701475554199234,-0.9777552061767594,50.27307891845703,-0.009547085232204862,0.39885292053222654
3531,-0.09729097154405382,0.17929691314697266,80.9543228149414,80.9952392578125,-7.285064697265625,88.03279113769531,-0.0559409671359592,0.071,0.3335714285714286,-0.0076291402180989586,-1.2194467955322281,-0.3954969816894547,50.27307891845703,-0.0004546271430121528,-0.11464284261067709
3532,-0.09729097154405382,0.19921878814697266,85.14820861816406,84.86180114746094,-7.387355804443359,88.46240997314453,-0.02729975382486979,0.06866666666666667,0.3335714285714286,-0.008514149983723959,-1.6259294920654312,0.9447960257530212,50.27307891845703,0.003182305230034722,-0.1205529530843099
3533,-0.11291597154405382,0.15937503814697265,85.33233642578125,41.900001525878906,-8.082927703857422,89.26026916503906,-0.042984220716688365,0.06633333333333333,0.3335714285714286,-0.006805250379774305,-1.7357889586181656,1.4062080383300781,50.27307891845703,0.48258149888780383,-0.1371466318766276
3534,-0.1285409715440538,0.1195312786102295,87.23492431640625,90.03767395019531,-7.960178375244141,87.562255859375,-0.03661952548556858,0.06333333333333334,0.33285714285714285,-0.005187818739149305,-2.6805845671386734,2.7794580459594727,50.27307891845703,-0.03114166259765625,-0.11691593594021267
3535,-0.1519784715440538,0.1195312786102295,89.0147705078125,41.900001525878906,-7.67376708984375,87.58271789550781,-0.037756050957573783,0.060333333333333336,0.33285714285714285,-0.0035704718695746527,-3.0101648741455094,1.0986000299453735,50.27307891845703,0.5234974331325954,-0.11396094428168403
3536,-0.06604097154405382,0.17929691314697266,86.72348022460938,84.71859741210938,-7.407814025878906,87.33721923828125,-0.04934891594780816,0.05466666666666667,0.3335714285714286,-0.001251220703125,-2.9881922178955094,-0.6921183043212906,50.27307891845703,0.022276475694444443,-0.1082781473795573
3537,-0.08557222154405382,0.15937503814697265,83.61386108398438,41.900001525878906,-7.305522918701172,87.62362670898438,-0.03707415262858073,0.051666666666666666,0.3339285714285714,-0.0033263312445746527,-2.515795367309572,-1.6039568358154312,50.27307891845703,0.4634873284233941,-0.11032388475206163
3538,-0.08166597154405382,0.1195312786102295,82.30455017089844,83.98210144042969,-7.285064697265625,88.13508605957031,-0.05730480617947049,0.04733333333333333,0.335,-0.0037535773383246527,-1.9664942198486344,-1.5709978514404312,50.27307891845703,-0.018639458550347224,-0.11577945285373265
3539,-0.12463472154405382,0.09960939407348633,85.76194763183594,41.900001525878906,-7.67376708984375,87.23492431640625,-0.03093672858344184,0.043333333333333335,0.335,-0.005523512098524305,-1.9445234709472672,0.3076080083847046,50.27307891845703,0.4873549567328559,-0.11009657118055556
3540,-0.1558847215440538,0.07968751907348633,85.41416931152344,84.1048583984375,-6.507663726806641,86.21202850341797,-0.03821067810058594,0.04,0.33535714285714285,-0.005492994520399305,-2.263117449829103,0.747048020362854,50.27307891845703,0.014547899034288195,-0.08577435811360677
3541,-0.11291597154405382,0.09960939407348633,84.18669128417969,84.80043029785156,-6.118961334228516,86.31431579589844,-0.0445754157172309,0.036333333333333336,0.3360714285714286,-0.004302893744574653,-1.3293062620849625,1.1205720901489258,50.27307891845703,-0.006819322374131944,-0.0825919681125217
3542,-0.1363534715440538,0.1195312786102295,85.25050354003906,84.77996826171875,-6.528118133544922,87.33721923828125,-0.02434471978081597,0.033,0.3360714285714286,-0.005523512098524305,-0.2416922026367203,1.5709980726242065,50.27307891845703,0.005228169759114583,-0.09850374857584636
3543,-0.12072847154405382,0.1195312786102295,87.29630279541016,90.44683837890625,-6.691783905029297,87.66455078125,-0.04230228000217014,0.029666666666666668,0.3357142857142857,-0.0029601203070746527,-0.3076082640380875,2.0873401165008545,50.27307891845703,-0.035005950927734376,-0.10395927429199218
3544,-0.12463472154405382,0.07968751907348633,85.06637573242188,83.42974090576172,-6.834991455078125,87.76683807373047,-0.045030000474717884,0.027333333333333334,0.33464285714285713,-9.1552734375e-05,-0.845923083374025,0.41746801137924194,50.27307891845703,0.01818483140733507,-0.10668699476453992
3545,-0.04260347154405382,0.13945316314697265,83.22515869140625,82.40684509277344,-7.5919342041015625,88.58515930175781,-0.047530449761284725,0.024333333333333332,0.3342857142857143,0.0016783820258246527,-1.4171949797363297,-0.823950427124025,50.27307891845703,0.00909237331814236,-0.12418992784288195
3546,-0.04260347154405382,0.1195312786102295,82.85691833496094,84.0434799194336,-7.7555999755859375,87.39859008789062,-0.03343713548448351,0.022,0.33321428571428574,0.001007080078125,-2.4608656340332047,-0.49437012011718906,50.27307891845703,-0.013184017605251737,-0.11282433403862847
3547,-0.04650972154405382,0.1195312786102295,87.5213394165039,87.25538635253906,-7.387355804443359,87.562255859375,-0.032982550726996525,0.018333333333333333,0.33321428571428574,0.000946044921875,-1.9005781584472672,1.2743760347366333,50.27307891845703,0.0029550340440538192,-0.11055124070909288
3548,-0.02697847154405382,0.15937503814697265,87.70545959472656,86.80531311035156,-7.407814025878906,88.50332641601562,-0.03457370334201389,0.015333333333333332,0.3317857142857143,0.0024108039008246527,-0.48338379199218906,0.7031040191650391,50.27307891845703,0.010001627604166667,-0.12123489379882812
3549,0.015990250678168474,0.1195312786102295,87.17355346679688,87.41905212402344,-7.5305633544921875,88.0737075805664,-0.03866530524359809,0.012666666666666666,0.33,0.005126783582899305,0.02197200059890747,0.04394400119781494,50.0094108581543,-0.002727762858072917,-0.11782523261176216
3550,0.008177750678168474,0.1195312786102295,87.5213394165039,85.82332611083984,-7.5305633544921875,86.58027648925781,-0.0332098642985026,0.009333333333333334,0.3275,0.004211256239149305,0.04394400119781494,-0.7140909605712906,48.95473098754883,0.01886681450737847,-0.10123155381944444
3551,-0.02307222154405382,0.05976563930511475,85.94607543945312,83.63432312011719,-6.487205505371094,85.68012237548828,-0.045030000474717884,0.007,0.32607142857142857,0.0022276984320746527,0.32958000898361206,-1.5819841795654312,48.60316848754883,0.025686136881510415,-0.07963697645399305
3552,-0.02307222154405382,0.09960939407348633,84.08439636230469,85.37325286865234,-5.66888427734375,85.53691101074219,-0.042756907145182294,0.004666666666666667,0.32357142857142857,0.000274658203125,1.4721240997314453,-1.3622652464599625,28.036909103393555,-0.014320627848307291,-0.06895328097873264
3553,-0.05822847154405382,0.05976563930511475,87.76683807373047,81.73172760009766,-4.032245635986328,84.06393432617188,-0.02548124525282118,0.002,0.32107142857142856,-0.00152587890625,1.768746018409729,-0.7800070219726578,27.861129760742188,0.06705678304036458,-0.03440199957953559
3554,-0.05041597154405382,0.05976563930511475,77.49691772460938,88.29874420166016,-3.0298004150390625,82.73416900634766,-0.03707415262858073,0.001,0.31607142857142856,-0.0022276984320746527,2.04339599609375,-0.20873512561035312,27.861129760742188,-0.12002029418945312,-0.008488549126519097
3555,-0.06213472154405382,0.05976563930511475,88.09416198730469,82.81600189208984,-2.497894287109375,81.19981384277344,-0.014115693834092882,0.0,0.3125,-0.0019225226508246527,2.900304079055786,0.45042601227760315,27.861129760742188,0.05864622328016493,0.01446990966796875
3556,-0.0035409715440538193,0.05976563930511475,83.73661041259766,84.77996826171875,-0.943084716796875,81.07707214355469,-0.04730313618977865,0.0,0.3067857142857143,-0.0,3.0980520248413086,0.02197200059890747,27.861129760742188,-0.011592864990234375,0.03310936821831597
