,WD,WS,AIL_1,AIL_2,ELEV_1,ELEV_2,RUDD,ALT,GS,TH,PTCH,ROLL,PLA_1,AIL,ELEV
6288,0.4123737057427301,0.33867195129394534,84.43218231201172,84.08439636230469,-7.9192657470703125,88.87156677246094,-0.010933346218532987,0.846,0.4657142857142857,0.19420806037055122,-0.834936755249025,-6.679489749023439,25.488100051879883,0.003864288330078125,-0.1310092502170139
6289,0.4358112057427301,0.3785157012939453,84.08439636230469,83.14332580566406,-8.614837646484375,88.99431610107422,-0.018661922878689237,0.841,0.4607142857142857,0.19368926154242622,-1.120571749755861,-6.042299883911134,25.488100051879883,0.010456339518229166,-0.1401017083062066
6290,0.4240924557427301,0.3785157012939453,84.92317199707031,84.0434799194336,-9.28995132446289,89.99675750732422,-0.0075236850314670135,0.835,0.4542857142857143,0.1900578392876519,-2.2850881987304703,-4.702007906982423,25.488100051879883,0.009774356418185763,-0.158741209242079
6291,0.4006549557427301,0.3585938262939453,85.18913269042969,84.49356079101562,-10.005979537963867,90.671875,-0.002750142415364583,0.829,0.4492857142857143,0.18511407640245225,-3.6143938475341812,-4.570175784179689,25.488100051879883,0.00772857666015625,-0.1741983837551541
6292,0.4006549557427301,0.3785157012939453,84.57539367675781,84.0434799194336,-9.637737274169922,90.93782806396484,-0.011615286933051215,0.8226666666666667,0.4432142857142857,0.1829779307047526,-4.702007906982423,-5.086517947265627,25.488100051879883,0.005910152859157986,-0.17306183709038628
6293,0.4397174557427301,0.3785157012939453,83.36836242675781,82.67279052734375,-9.105827331542969,89.71034240722656,-0.013661109076605903,0.8173333333333334,0.43964285714285717,0.1828863779703776,-5.009617465087892,-4.460316317626955,25.488100051879883,0.00772857666015625,-0.15351299709743924
6294,0.4475299557427301,0.39843757629394533,83.75706481933594,83.06149291992188,-9.044452667236328,89.77172088623047,-0.015252261691623263,0.8093333333333333,0.43642857142857144,0.1830389658610026,-4.712994235107423,-3.6253801756591812,25.488100051879883,0.00772857666015625,-0.1535130394829644
6295,0.4592487057427301,0.39843757629394533,84.67768096923828,83.22515869140625,-8.921707153320312,89.567138671875,-0.010478719075520834,0.801,0.43464285714285716,0.18181834750705295,-4.943701403686525,-2.197201388427736,25.488100051879883,0.0161391364203559,-0.14987606472439235
6296,0.4358112057427301,0.39843757629394533,85.86424255371094,84.5958480834961,-8.614837646484375,89.23981475830078,0.0002048916286892361,0.7926666666666666,0.43214285714285716,0.17922435336642795,-4.976658480712892,-0.9777552061767594,25.488100051879883,0.014093271891276042,-0.14282947116427952
6297,0.4358112057427301,0.3785157012939453,85.82332611083984,85.39370727539062,-8.635292053222656,89.34210205078125,-0.008887566460503472,0.7846666666666666,0.4303571428571429,0.1779732174343533,-4.921728747436525,-0.9887415343017594,25.488100051879883,0.004773542616102431,-0.14419326782226563
6298,0.4475299557427301,0.33867195129394534,85.84378051757812,85.20958709716797,-8.51254653930664,89.23981475830078,-0.007978312174479167,0.7766666666666666,0.4282142857142857,0.1764778561062283,-4.932715075561525,-0.4723993712158219,25.488100051879883,0.007046593560112847,-0.14169290330674914
6299,0.4358112057427301,0.33867195129394534,86.17111206054688,85.20958709716797,-8.082927703857422,88.40103149414062,-0.009569507175021702,0.7686666666666667,0.42642857142857143,0.17574551900227864,-4.636091845581056,-0.48338379199218906,25.488100051879883,0.01068361070421007,-0.12759954664442275
6300,0.4592487057427301,0.33867195129394534,86.19157409667969,85.53691101074219,-7.837432861328125,88.31919860839844,-0.01797998216417101,0.76,0.42428571428571427,0.1766304439968533,-4.141722338745119,-1.142544406005861,25.488100051879883,0.007274034288194444,-0.12396257188585069
6301,0.4553424557427301,0.33867195129394534,85.94607543945312,85.18913269042969,-8.144302368164062,89.03523254394531,-0.01320648193359375,0.752,0.4235714285714286,0.17537930806477864,-4.306513445922853,-1.0216986113281266,25.488100051879883,0.008410474989149305,-0.13532816569010417
6302,0.4240924557427301,0.3187500762939453,85.86424255371094,85.23004150390625,-8.082927703857422,88.89202880859375,0.0036145528157552082,0.7436666666666667,0.4210714285714286,0.17110693189832898,-5.119476931640627,-1.175503390380861,25.488100051879883,0.007046678331163195,-0.13305507236056857
6303,0.4397174557427301,0.3187500762939453,85.96653747558594,85.23004150390625,-8.042011260986328,88.564697265625,-0.014797634548611112,0.736,0.42,0.17132055494520398,-5.086517947265627,-2.219172137329103,25.488100051879883,0.00818328857421875,-0.1289634280734592
6304,0.4279987057427301,0.3585938262939453,84.69813537597656,83.49111938476562,-7.632850646972656,88.27828979492188,-0.019343863593207465,0.727,0.41892857142857143,0.17226659986707898,-4.767923968383791,-2.2960745268554703,25.488100051879883,0.013411288791232639,-0.12123489379882812
6305,0.4240924557427301,0.33867195129394534,85.0459213256836,84.20714569091797,-7.3668975830078125,87.72592163085938,-0.011842600504557292,0.7183333333333334,0.41785714285714287,0.16985579596625433,-3.987919467041017,-1.4062086516113297,25.488100051879883,0.009319729275173612,-0.11214243570963542
6306,0.3850299557427301,0.33867195129394534,84.39126586914062,84.14576721191406,-7.551021575927734,88.0737075805664,0.001341459486219618,0.711,0.4164285714285714,0.16555290222167968,-3.3067861967773453,-1.8786074095459,25.488100051879883,0.002727762858072917,-0.11805254618326823
6307,0.4006549557427301,0.33867195129394534,84.73905181884766,83.90027618408203,-7.551021575927734,88.29874420166016,-0.015252261691623263,0.703,0.41535714285714287,0.16530876159667968,-3.6363665037841812,-2.7794596129150406,25.488100051879883,0.009319729275173612,-0.1205529530843099
6308,0.4006549557427301,0.3585938262939453,84.35034942626953,83.87982177734375,-7.612392425537109,88.36012268066406,-0.015252261691623263,0.6963333333333334,0.4132142857142857,0.16396607293023002,-3.6143938475341812,-2.944248812744142,25.488100051879883,0.005228084988064236,-0.12191683451334635
6309,0.3811237057427301,0.3585938262939453,84.41172790527344,83.79798889160156,-7.612392425537109,88.0737075805664,-0.01002409193250868,0.69,0.41035714285714286,0.16057870652940537,-3.3946749144287125,-2.911289828369142,25.488100051879883,0.006819322374131944,-0.11873444451226128
6310,0.4084674557427301,0.33867195129394534,83.85935974121094,82.97966003417969,-7.571479797363281,88.0737075805664,-0.012979168362087673,0.684,0.4089285714285714,0.15990731981065537,-3.251856463500978,-3.1310106688232437,26.71855926513672,0.009774441189236111,-0.1182798597547743
6311,0.4123737057427301,0.39843757629394533,84.0025634765625,83.22515869140625,-7.44873046875,87.72592163085938,-0.02729975382486979,0.679,0.40714285714285714,0.16198251512315537,-2.911289828369142,-3.0211512022705094,28.388469696044922,0.008637830946180555,-0.11305168999565972
6312,0.4475299557427301,0.3785157012939453,84.71859741210938,83.67523193359375,-7.5919342041015625,88.31919860839844,-0.0168434566921658,0.6723333333333333,0.405,0.16118905809190537,-2.900305407592775,-2.0214239531250016,29.53104019165039,0.011592949761284723,-0.12123480902777778
6313,0.4358112057427301,0.3585938262939453,84.94363403320312,84.26852416992188,-7.612392425537109,88.17599487304688,0.003387239244249132,0.6676666666666666,0.4017857142857143,0.15828997294108074,-2.867346423217775,-0.9667688780517594,31.28883934020996,0.007501220703125,-0.1198709699842665
6314,0.4240924557427301,0.3585938262939453,86.98943328857422,86.13019561767578,-8.042011260986328,88.48286437988281,-0.009796820746527778,0.663,0.39964285714285713,0.15694719950358074,-2.9881922178955094,-0.5383154326171891,32.95874786376953,0.009547085232204862,-0.1280541737874349
6315,0.4201862057427301,0.3187500762939453,86.76439666748047,86.23248291015625,-8.717124938964844,89.68988800048828,-0.008205625745985243,0.6576666666666666,0.395,0.15340732998318143,-3.954960482666017,-1.3293062620849625,33.749759674072266,0.005910152859157986,-0.14896681043836807
6316,0.3420612057427301,0.33867195129394534,85.65966796875,84.96409606933594,-8.451171875,89.44439697265625,0.004296493530273437,0.6556666666666666,0.3925,0.14797528584798178,-4.855812686035158,-1.6918455534667984,35.50756072998047,0.00772857666015625,-0.14328409830729166
6317,0.3537799557427301,0.29882820129394533,82.65233612060547,84.22760009765625,-9.310409545898438,90.52867126464844,-0.00843293931749132,0.653,0.38785714285714284,0.14498464796278213,-5.064547198364259,-3.1090380125732437,35.8591194152832,-0.017502933078342015,-0.16487867567274306
6318,0.3459674557427301,0.33867195129394534,84.14576721191406,83.1024169921875,-9.126285552978516,90.0785903930664,-0.018661922878689237,0.6503333333333333,0.385,0.14489317999945747,-5.4490572386474625,-3.4056612425537125,36.82590866088867,0.011592780219184027,-0.15783195495605468
6319,0.4006549557427301,0.2789063262939453,83.96165466308594,83.38882446289062,-9.269493103027344,90.671875,-0.008660252888997395,0.6483333333333333,0.3807142857142857,0.14187202453613282,-6.020329135009767,-2.7465006285400406,37.79269790649414,0.006364780002170139,-0.16601520114474827
6320,0.3147174835205078,0.33867195129394534,85.72103881835938,85.06637573242188,-8.94216537475586,89.6080551147461,-0.0002497355143229167,0.6436666666666667,0.37857142857142856,0.13738602532280816,-6.174132006713869,-1.538040774414064,39.550498962402344,0.007274034288194444,-0.1505580054389106
6321,0.3029987335205078,0.29882820129394533,85.88470458984375,85.25050354003906,-8.860332489013672,89.2193603515625,-0.002068201700846354,0.641,0.3767857142857143,0.13332735697428386,-5.646805422851564,-1.175503390380861,40.42940139770508,0.007046678331163195,-0.14532992045084636
6322,0.2990924835205078,0.2789063262939453,84.92317199707031,85.20958709716797,-8.717124938964844,89.05569458007812,-0.012069914076063368,0.638,0.375,0.13161837259928386,-4.987644808837892,-2.515795367309572,41.57196807861328,-0.0031823900010850693,-0.1419202168782552
6323,0.2834674835205078,0.3187500762939453,83.1024169921875,82.65233612060547,-8.819416046142578,89.58760070800781,-0.012751854790581597,0.634,0.3725,0.1293601565890842,-4.669050829956056,-3.954960482666017,43.76921844482422,0.00500089857313368,-0.14896685282389324
6324,0.3303424557427301,0.29882820129394533,83.42974090576172,81.34302520751953,-8.410255432128906,89.38301849365234,-0.032073296440972225,0.6313333333333333,0.3707142857142857,0.1300010257297092,-4.603134768554689,-4.976658480712892,44.82389831542969,0.02318572998046875,-0.1421474880642361
6325,0.3537799557427301,0.2789063262939453,84.1048583984375,83.40928649902344,-8.38979721069336,88.91248321533203,-0.005250591701931423,0.628,0.3703571428571429,0.12627796596950955,-3.954960482666017,-2.3839632445068375,44.82389831542969,0.00772857666015625,-0.13669200473361545
6326,0.3733112057427301,0.25898443222045897,86.25294494628906,86.82576751708984,-8.471630096435547,89.03523254394531,-0.015024948120117187,0.6243333333333333,0.36964285714285716,0.12566761440700955,-3.4386183195800797,-1.4171949797363297,44.82389831542969,-0.006364695231119792,-0.13896514044867622
6327,0.3850299557427301,0.2789063262939453,84.94363403320312,85.0459213256836,-8.492088317871094,89.2193603515625,-0.013433795505099827,0.6216666666666667,0.3682142857142857,0.12609486050075955,-3.7462259703369156,-2.1202989989013687,47.46059799194336,-0.0011365254720052083,-0.14123831854926217
6328,0.3694049557427301,0.33867195129394534,83.4501953125,84.24806213378906,-8.73758316040039,89.34210205078125,-0.01797998216417101,0.619,0.3675,0.1282615237765842,-3.8011576109619156,-3.174954073974611,48.86684036254883,-0.008865186903211806,-0.14532983567979602
6329,0.3850299557427301,0.3785157012939453,84.28897857666016,83.81844329833984,-8.573921203613281,89.68988800048828,-0.022526211208767362,0.6166666666666667,0.3678571428571429,0.1294517093234592,-4.273554461547853,-3.7242552214355484,48.95473098754883,0.005228169759114583,-0.1473756578233507
6330,0.3694049557427301,0.39843757629394533,85.43462371826172,84.14576721191406,-8.594379425048828,89.23981475830078,-0.01002409193250868,0.6116666666666667,0.3682142857142857,0.12643055386013455,-4.31749786669922,-3.218899386474611,48.95473098754883,0.014320627848307291,-0.14260215759277345
6331,0.3303424557427301,0.3785157012939453,85.65966796875,85.14820861816406,-8.573921203613281,89.28073120117188,0.011570443047417535,0.6103333333333333,0.3675,0.11989996168348524,-4.4053865843505875,-2.0214239531250016,48.95473098754883,0.005682881673177083,-0.14282947116427952
6332,0.2873737335205078,0.3585938262939453,85.78240966796875,85.14820861816406,-8.594379425048828,89.40347290039062,0.011343129475911458,0.608,0.36642857142857144,0.11315583123101128,-4.075806277343752,-1.8236757689209,48.95473098754883,0.007046678331163195,-0.1444205813937717
6333,0.3342487057427301,0.33867195129394534,85.47554016113281,83.4501953125,-9.22857666015625,90.09904479980469,-0.025935872395833334,0.6063333333333333,0.365,0.11520042419433593,-3.976933138916017,-2.7794596129150406,48.95473098754883,0.022503831651475695,-0.15919579399956596
6334,0.3850299557427301,0.3785157012939453,85.96653747558594,85.43462371826172,-8.983078002929688,90.13996887207031,-0.032073296440972225,0.6026666666666667,0.36464285714285716,0.12109014723036024,-4.723980563232423,-2.933262484619142,48.95473098754883,0.005910152859157986,-0.15692274305555556
6335,0.3967487057427301,0.3187500762939453,85.88470458984375,85.76194763183594,-9.044452667236328,89.93538665771484,0.010433875189887153,0.6006666666666667,0.365,0.11489524841308593,-5.328211443969728,-3.0541082792968766,48.95473098754883,0.0013639662000868055,-0.155331548055013
6336,0.3147174835205078,0.3585938262939453,85.80287170410156,85.23004150390625,-8.798957824707031,89.26026916503906,0.0006595187717013889,0.597,0.3653571428571429,0.10793749491373698,-5.888497012207033,-4.910742419311525,48.95473098754883,0.006364780002170139,-0.14510252210828994
6337,0.3576862057427301,0.3187500762939453,85.68012237548828,82.30455017089844,-8.717124938964844,89.32164001464844,-0.02434471978081597,0.5936666666666667,0.36678571428571427,0.10546557108561198,-5.800608294555666,-6.108215945312502,48.95473098754883,0.037506357828776045,-0.14487516615125867
6338,0.3615924557427301,0.3585938262939453,81.81356048583984,82.34546661376953,-8.594379425048828,89.0761489868164,-0.01979849073621962,0.589,0.3678571428571429,0.10308528476291233,-5.668776171752931,-6.273007052490236,48.95473098754883,-0.0059100680881076385,-0.14078364902072482
6339,0.3459674557427301,0.3585938262939453,84.43218231201172,83.57295227050781,-7.796516418457031,88.68744659423828,-0.01752539740668403,0.584,0.36857142857142855,0.09902661641438802,-4.833840029785158,-5.273281710693361,48.95473098754883,0.009547000461154514,-0.12759958902994792
6340,0.3342487057427301,0.3585938262939453,84.67768096923828,84.08439636230469,-7.714683532714844,88.17599487304688,-0.008887566460503472,0.5796666666666667,0.36892857142857144,0.09298430548773871,-3.7462259703369156,-5.097504275390627,48.95473098754883,0.0065920511881510414,-0.12100753784179688
6341,0.3186237335205078,0.3585938262939453,82.65233612060547,84.08439636230469,-8.533004760742188,89.44439697265625,-0.009569507175021702,0.5753333333333334,0.36892857142857144,0.0879490746392144,-2.9881922178955094,-5.723705905029298,48.95473098754883,-0.015911780463324653,-0.14419335259331598
6342,0.3381549557427301,0.3585938262939453,84.06393432617188,83.552490234375,-8.614837646484375,89.48530578613281,-0.018207295735677084,0.5726666666666667,0.3682142857142857,0.08504998948838975,-3.559464114257814,-5.47102798754883,48.95473098754883,0.005682712131076389,-0.1455571492513021
6343,0.3654987057427301,0.33867195129394534,82.59095764160156,83.18424987792969,-8.553462982177734,89.50576782226562,-0.014115693834092882,0.57,0.3678571428571429,0.08251703050401475,-4.482288973876955,-3.91101707751465,48.95473098754883,-0.006592135959201389,-0.14510256449381512
6344,0.3459674557427301,0.33867195129394534,84.28897857666016,83.53202819824219,-8.594379425048828,89.50576782226562,-0.0034320831298828127,0.5676666666666667,0.3678571428571429,0.07885509067111546,-4.921728747436525,-2.3070608549804703,48.95473098754883,0.008410559760199653,-0.14555719163682726
6345,0.3381549557427301,0.3585938262939453,85.12775421142578,84.43218231201172,-8.655750274658203,89.58760070800781,-0.006159803602430555,0.5646666666666667,0.3675,0.07720714145236546,-4.987644808837892,-2.219172137329103,48.95473098754883,0.00772857666015625,-0.14714834425184461
6346,0.3576862057427301,0.3585938262939453,83.79798889160156,83.0410385131836,-8.67620849609375,89.62850952148438,-0.018207295735677084,0.5616666666666666,0.3675,0.07821422153049046,-5.174406664916994,-2.867346423217775,50.36096954345703,0.008410559760199653,-0.1478302001953125
6347,0.3654987057427301,0.3785157012939453,84.08439636230469,83.1024169921875,-8.430713653564453,89.19889831542969,-0.014797634548611112,0.5573333333333333,0.36857142857142855,0.07806163363986546,-5.174406664916994,-2.1093126707763687,50.976200103759766,0.010910881890190972,-0.14032902187771268
6348,0.3654987057427301,0.3785157012939453,84.57539367675781,83.96165466308594,-8.38979721069336,89.1170654296875,-0.015024948120117187,0.5523333333333333,0.36964285714285716,0.07745128207736546,-4.614121096679689,-0.9228254729003922,51.151981353759766,0.006819322374131944,-0.13896514044867622
6349,0.3654987057427301,0.39843757629394533,86.39614868164062,85.16867065429688,-8.451171875,89.46485137939453,-0.01252454121907552,0.547,0.3703571428571429,0.07754283481174046,-3.7901712828369156,0.17577600479125977,51.151981353759766,0.013638644748263888,-0.14351136949327256
6350,0.3694049557427301,0.3585938262939453,86.39614868164062,85.86424255371094,-9.023994445800781,89.99675750732422,-0.0043413374159071184,0.543,0.3703571428571429,0.0764442867702908,-4.163694994995119,0.2526780068874359,51.151981353759766,0.0059100680881076385,-0.1557861328125
6351,0.3537799557427301,0.3585938262939453,86.17111206054688,85.63920593261719,-8.614837646484375,89.32164001464844,-0.007978312174479167,0.5383333333333333,0.37107142857142855,0.0747963375515408,-4.636091845581056,-0.5492998533935562,51.151981353759766,0.0059100680881076385,-0.14373864067925346
6352,0.3459674557427301,0.33867195129394534,85.14820861816406,84.24806213378906,-9.146743774414062,90.03767395019531,-0.006841744316948784,0.534,0.3717857142857143,0.07201932271321615,-4.669050829956056,-1.8566347532959,51.151981353759766,0.010001627604166667,-0.1576046413845486
6353,0.3381549557427301,0.33867195129394534,84.22760009765625,84.18669128417969,-9.208118438720703,41.900001525878906,-0.009796820746527778,0.53,0.37285714285714283,0.0694559309217665,-5.152434008666994,-2.3400179320068375,51.151981353759766,0.00045454237196180554,0.37657644483778213
6354,0.3615924557427301,0.3187500762939453,85.78240966796875,85.16867065429688,-8.880790710449219,89.52622985839844,-0.011387973361545138,0.5256666666666666,0.37357142857142855,0.06799117194281684,-5.569903033325197,-2.6036821776123062,50.27307891845703,0.006819322374131944,-0.14896689520941842
6355,0.3537799557427301,0.33867195129394534,85.82332611083984,85.27096557617188,-8.67620849609375,89.23981475830078,-0.0168434566921658,0.52,0.375,0.06701460944281684,-5.822580950805666,-3.3946749144287125,50.27307891845703,0.006137339274088541,-0.14351136949327256
6356,0.3576862057427301,0.33867195129394534,85.33233642578125,85.27096557617188,-8.635292053222656,89.48530578613281,-0.00843293931749132,0.5153333333333333,0.37642857142857145,0.06506156921386719,-5.591875689575197,-3.7791849547119156,50.27307891845703,0.0006818983289930556,-0.14578442043728299
6357,0.3459674557427301,0.3585938262939453,84.92317199707031,84.28897857666016,-8.655750274658203,89.46485137939453,-0.013433795505099827,0.5103333333333333,0.37714285714285717,0.06359672546386719,-5.152434008666994,-2.790444033691408,50.09729766845703,0.007046593560112847,-0.14578446282280816
6358,0.3420612057427301,0.3785157012939453,83.98210144042969,82.57050323486328,-8.717124938964844,89.42393493652344,-0.013661109076605903,0.505,0.3775,0.06286430358886719,-5.163420336791994,-1.9335371428222672,50.09729766845703,0.015684424506293402,-0.14601177639431423
6359,0.3420612057427301,0.3785157012939453,85.41416931152344,83.92073059082031,-8.635292053222656,89.46485137939453,-0.0066144307454427086,0.5006666666666667,0.37785714285714284,0.062009896172417533,-5.130463259765627,-0.3405672484130875,50.09729766845703,0.016593763563368055,-0.1455571492513021
6360,0.3342487057427301,0.3785157012939453,87.15309143066406,86.5188980102539,-8.696666717529297,89.77172088623047,-0.008887566460503472,0.49633333333333335,0.37785714285714284,0.060728157891167533,-4.734966891357423,-0.04394401843261875,50.09729766845703,0.007046593560112847,-0.14964875115288628
6361,0.3342487057427301,0.3585938262939453,87.5213394165039,86.62118530273438,-8.839874267578125,89.83309936523438,-0.0054779052734375,0.493,0.3775,0.05904977586534288,-4.734966891357423,-0.4284540587158219,50.09729766845703,0.010001712375217013,-0.15192192925347223
6362,0.3381549557427301,0.3585938262939453,87.0098876953125,86.39614868164062,-8.819416046142578,89.71034240722656,-0.016388829549153647,0.4886666666666667,0.37714285714285717,0.05895822313096788,-4.888771670410158,-1.3512789183349625,50.09729766845703,0.006819322374131944,-0.15033064948187935
6363,0.3615924557427301,0.33867195129394534,87.0098876953125,87.41905212402344,-8.717124938964844,41.900001525878906,-0.010933346218532987,0.48533333333333334,0.37714285714285717,0.05734079149034288,-5.064547198364259,-2.537766116210939,50.09729766845703,-0.004546271430121528,0.38203192816840276
6364,0.3615924557427301,0.3187500762939453,86.49844360351562,86.02790832519531,-8.635292053222656,88.87156677246094,-0.007296371459960938,0.48133333333333334,0.37714285714285717,0.05392299228244358,-4.888771670410158,-3.4496046477050797,50.09729766845703,0.005228169759114583,-0.13896509806315105
6365,0.3381549557427301,0.33867195129394534,83.63432312011719,84.6572265625,-8.533004760742188,89.48530578613281,-0.011387973361545138,0.4756666666666667,0.3782142857142857,0.05123744540744358,-4.482288973876955,-5.4051119261474625,50.09729766845703,-0.011365593804253473,-0.14464789496527777
6366,0.3576862057427301,0.39843757629394533,83.85935974121094,83.36836242675781,-8.614837646484375,41.900001525878906,-0.02525397406684028,0.4723333333333333,0.37857142857142856,0.05251918368869358,-4.196652072021486,-5.273281710693361,50.09729766845703,0.005455525716145834,0.38316845364040797
6367,0.3928424557427301,0.39843757629394533,83.94119262695312,83.75706481933594,-8.655750274658203,89.95584106445312,-0.01957117716471354,0.4686666666666667,0.37857142857142856,0.05154262118869358,-4.009890215942384,-4.734966891357423,50.09729766845703,0.002045864529079861,-0.15123990376790364
6368,0.4045612057427301,0.39843757629394533,82.12042999267578,84.57539367675781,-9.064910888671875,89.0761489868164,0.001341459486219618,0.464,0.37857142857142856,0.048582500881618924,-4.240597384521486,-3.273829119750978,50.09729766845703,-0.027277374267578126,-0.14601177639431423
6369,0.4162799557427301,0.41835948944091794,84.53446960449219,83.73661041259766,-8.614837646484375,89.17843627929688,-0.014570320977105035,0.46066666666666667,0.37857142857142856,0.049131817287868924,-4.4053865843505875,-2.0104395323486344,50.09729766845703,0.008865102132161459,-0.1421474880642361
6370,0.4162799557427301,0.39843757629394533,88.76927947998047,87.13264465332031,-8.635292053222656,89.1579818725586,-0.010478719075520834,0.4553333333333333,0.37857142857142856,0.04745343526204427,-4.229611056396486,-1.2304331236572281,50.09729766845703,0.01818483140733507,-0.1421474880642361
6371,0.3889362057427301,0.39843757629394533,86.78485107421875,41.900001525878906,-8.492088317871094,88.81019592285156,0.0015687730577256945,0.45066666666666666,0.3782142857142857,0.044340727064344616,-4.064819949218752,-1.7797323637695328,51.5035400390625,0.4987205505371094,-0.13669204711914062
6372,0.3615924557427301,0.3785157012939453,86.6007308959961,85.98699188232422,-8.533004760742188,89.83309936523438,-0.0013863033718532986,0.44633333333333336,0.37892857142857145,0.04037352667914496,-3.4496046477050797,-2.3180471831054703,51.6793212890625,0.006819322374131944,-0.14851226806640624
6373,0.3694049557427301,0.3785157012939453,84.06393432617188,85.74149322509766,-8.635292053222656,88.81019592285156,-0.009342193603515625,0.44266666666666665,0.3792857142857143,0.038328933715820315,-3.7681986265869156,-3.4715773039550797,51.6793212890625,-0.01863954332139757,-0.13828319973415798
6374,0.3694049557427301,0.39843757629394533,86.08927917480469,86.23248291015625,-8.471630096435547,89.48530578613281,-0.018661922878689237,0.438,0.3796428571428571,0.037901687622070315,-3.515520709106447,-1.8676210814209,51.6793212890625,-0.001591152615017361,-0.14396595425075956
6375,0.3654987057427301,0.3785157012939453,86.92805480957031,41.900001525878906,-8.67620849609375,89.73080444335938,-0.0018409305148654514,0.43466666666666665,0.3796428571428571,0.03402612474229601,-3.3507315092773453,-1.0436712675781266,51.6793212890625,0.5003117031521267,-0.14896681043836807
6376,0.3733112057427301,0.33867195129394534,86.74394226074219,82.550048828125,-9.351322174072266,90.0172119140625,-0.009114880032009548,0.431,0.3796428571428571,0.03121854994032118,-3.6253801756591812,-1.9555078917236344,51.6793212890625,0.04659881591796875,-0.15965037875705296
6377,0.3576862057427301,0.33867195129394534,83.02058410644531,83.79798889160156,-9.044452667236328,89.77172088623047,-0.009342193603515625,0.42766666666666664,0.38,0.028624640570746526,-4.691023486206056,-2.241144793579103,51.6793212890625,-0.008637830946180555,-0.1535130394829644
6378,0.3615924557427301,0.33867195129394534,84.41172790527344,83.0001220703125,-9.023994445800781,90.1195068359375,-0.009114880032009548,0.42433333333333334,0.38035714285714284,0.026885181003146703,-4.899756091186525,-2.1202989989013687,53.43711853027344,0.01568450927734375,-0.15715001424153646
6379,0.3537799557427301,0.3585938262939453,79.76776123046875,83.61386108398438,-8.962623596191406,89.99675750732422,-0.014115693834092882,0.41933333333333334,0.3817857142857143,0.026152801513671876,-4.976658480712892,-1.2743765288085953,53.52500915527344,-0.04273444281684028,-0.15510423448350694
6380,0.3537799557427301,0.3585938262939453,85.557373046875,41.900001525878906,-9.105827331542969,89.97630310058594,-0.007296371459960938,0.4156666666666667,0.38285714285714284,0.026213836669921876,-5.075533526489259,0.7690200209617615,53.70079040527344,0.48508190578884547,-0.1564681159125434
6381,0.3694049557427301,0.3585938262939453,86.04837036132812,85.33233642578125,-9.003536224365234,89.54668426513672,-0.012069914076063368,0.4116666666666667,0.38392857142857145,0.027861701117621526,-5.4490572386474625,1.0107120275497437,53.78868103027344,0.0079559326171875,-0.1505580054389106
6382,0.3615924557427301,0.3585938262939453,85.65966796875,83.65477752685547,-8.880790710449219,89.77172088623047,-0.007978312174479167,0.406,0.38535714285714284,0.027800665961371526,-5.207365649291994,0.6371880173683167,53.78868103027344,0.022276560465494793,-0.15169457329644098
6383,0.3733112057427301,0.33867195129394534,83.63432312011719,81.17935943603516,-8.94216537475586,89.89447021484375,-0.007978312174479167,0.4013333333333333,0.3867857142857143,0.027617602878146703,-4.767923968383791,0.48338401317596436,53.78868103027344,0.027277374267578126,-0.15374039543999565
6384,0.3772174557427301,0.33867195129394534,84.88226318359375,84.75950622558594,-9.085369110107422,89.58760070800781,-0.011387973361545138,0.39666666666666667,0.38785714285714284,0.029082404242621526,-4.844826357910158,1.8786060810089111,53.78868103027344,0.0013639662000868055,-0.15192188686794705
6385,0.3928424557427301,0.33867195129394534,85.31187438964844,85.23004150390625,-8.94216537475586,89.567138671875,-0.008887566460503472,0.391,0.3889285714285714,0.03103544447157118,-4.866799014160158,2.8783321380615234,53.78868103027344,0.0009092542860243056,-0.15010337829589843
6386,0.3928424557427301,0.33867195129394534,90.44683837890625,87.74638366699219,-8.962623596191406,89.32164001464844,-0.0059324900309244795,0.3863333333333333,0.3896428571428571,0.033537801106770834,-4.756939547607423,4.0867919921875,53.78868103027344,0.030005052354600693,-0.14760292900933158
6387,0.3850299557427301,0.3585938262939453,86.90760040283203,85.94607543945312,-8.451171875,89.0147705078125,-0.015252261691623263,0.38066666666666665,0.39035714285714285,0.03649796379937066,-4.745953219482423,1.5600121021270752,53.78868103027344,0.01068361070421007,-0.13851047092013888
6388,0.4045612057427301,0.3785157012939453,87.05081176757812,41.900001525878906,-8.51254653930664,89.85355377197266,-0.020253117879231772,0.37666666666666665,0.39107142857142857,0.03994628058539496,-3.88904442126465,-0.02197326953125156,53.78868103027344,0.5016756693522135,-0.14851222568088107
6389,0.4162799557427301,0.3785157012939453,86.92805480957031,86.29386138916016,-9.16720199584961,90.26271057128906,-0.018661922878689237,0.37266666666666665,0.3917857142857143,0.04174681769476996,-3.4496046477050797,-0.6591612272949234,53.78868103027344,0.007046593560112847,-0.16033236185709634
6390,0.4123737057427301,0.39843757629394533,86.98943328857422,86.27340698242188,-9.187660217285156,90.28317260742188,-0.011160659790039062,0.369,0.3921428571428571,0.04144164191351996,-4.141722338745119,-1.0986010008544937,53.78868103027344,0.007955847846137152,-0.1607870313856337
6391,0.4240924557427301,0.3785157012939453,84.75950622558594,83.96165466308594,-9.269493103027344,90.34454345703125,-0.00843293931749132,0.366,0.39285714285714285,0.039763259887695315,-4.723980563232423,-2.1202989989013687,53.78868103027344,0.00886501736111111,-0.16237818400065104
6392,0.4358112057427301,0.3785157012939453,83.20470428466797,82.16134643554688,-9.023994445800781,90.24225616455078,-0.010933346218532987,0.36233333333333334,0.39357142857142857,0.037871170043945315,-5.064547198364259,-2.3619905882568375,53.78868103027344,0.011592864990234375,-0.15851389567057292
6393,0.4201862057427301,0.3585938262939453,83.40928649902344,83.552490234375,-9.105827331542969,90.20133972167969,-0.0059324900309244795,0.3576666666666667,0.395,0.03542984856499566,-5.042574542114259,-1.0326849394531266,53.78868103027344,-0.001591152615017361,-0.15896852281358506
6394,0.4006549557427301,0.3585938262939453,84.53446960449219,85.18913269042969,-9.044452667236328,89.91493225097656,-0.003659396701388889,0.3526666666666667,0.39535714285714285,0.03365991380479601,-5.262295382568361,0.2526780068874359,53.78868103027344,-0.007274034288194444,-0.1551042768690321
6395,0.4123737057427301,0.33867195129394534,85.72103881835938,84.73905181884766,-8.901248931884766,90.09904479980469,-0.004795964558919271,0.3486666666666667,0.3967857142857143,0.03320215013292101,-5.207365649291994,0.5383139848709106,53.78868103027344,0.01091096666124132,-0.15555881924099393
6396,0.4084674557427301,0.3585938262939453,85.31187438964844,84.77996826171875,-9.146743774414062,90.05813598632812,-0.01616151597764757,0.3436666666666667,0.3975,0.03442276848687066,-4.954685824462892,0.19774800539016724,53.78868103027344,0.0059100680881076385,-0.15783199734157985
6397,0.4084674557427301,0.33867195129394534,85.37325286865234,85.39370727539062,-8.73758316040039,89.23981475830078,-0.007069057888454861,0.33866666666666667,0.3982142857142857,0.03323266771104601,-5.196379321166994,0.6042300462722778,53.78868103027344,-0.00022727118598090277,-0.1441933102077908
6398,0.4162799557427301,0.3187500762939453,85.5982894897461,85.65966796875,-8.901248931884766,90.03767395019531,-0.0018409305148654514,0.3353333333333333,0.3989285714285714,0.03228662278917101,-4.35045685107422,1.0876140594482422,53.78868103027344,-0.0006819831000434028,-0.15487692091200086
6399,0.4240924557427301,0.3187500762939453,86.35523986816406,85.33233642578125,-9.187660217285156,90.40591430664062,-0.011160659790039062,0.3313333333333333,0.3989285714285714,0.03265283372667101,-4.097778933593752,0.747048020362854,53.78868103027344,0.011365593804253473,-0.1621508280436198
6400,0.4553424557427301,0.29882820129394533,84.88226318359375,83.18424987792969,-9.637737274169922,90.0785903930664,-0.009569507175021702,0.3273333333333333,0.3989285714285714,0.03341577317979601,-4.603134768554689,-0.5932451658935562,53.78868103027344,0.01886681450737847,-0.16351475185818143
6401,0.4514362057427301,0.33867195129394534,83.94119262695312,82.59095764160156,-9.044452667236328,89.95584106445312,-0.021844270494249134,0.324,0.39964285714285713,0.03597916497124566,-5.207365649291994,-1.516068118164064,53.78868103027344,0.015002610948350694,-0.15555881924099393
6402,0.4631549557427301,0.3785157012939453,83.53202819824219,84.41172790527344,-9.085369110107422,90.09904479980469,-0.02207158406575521,0.31966666666666665,0.4007142857142857,0.038023757934570315,-5.086517947265627,-1.1095873289794937,53.78868103027344,-0.009774441189236111,-0.15760459899902343
6403,0.4670612057427301,0.3585938262939453,85.94607543945312,87.43951416015625,-9.105827331542969,89.42393493652344,-0.0054779052734375,0.31633333333333336,0.4017857142857143,0.037291336059570315,-5.635819094726564,1.0546560287475586,53.78868103027344,-0.016593763563368055,-0.15033069186740453
6404,0.4670612057427301,0.33867195129394534,87.68500518798828,86.41661071777344,-8.962623596191406,89.87400817871094,0.0024779849582248262,0.312,0.40285714285714286,0.03454483879937066,-5.361168520996095,1.263390064239502,53.2613410949707,0.014093271891276042,-0.15374035305447048
6405,0.4631549557427301,0.29882820129394533,86.90760040283203,85.68012237548828,-9.28995132446289,90.69232940673828,-0.00297745598687066,0.308,0.4039285714285714,0.033476765950520834,-5.097504275390627,0.5053560137748718,53.2613410949707,0.013638644748263888,-0.16646978590223524
6406,0.4865924557427301,0.3187500762939453,85.16867065429688,84.61630249023438,-9.801399230957031,89.79217529296875,-0.011842600504557292,0.304,0.4039285714285714,0.03405664232042101,-5.4490572386474625,-0.9667688780517594,53.1734504699707,0.006137424045138889,-0.1621508280436198
6407,0.5178424557427301,0.3585938262939453,85.16867065429688,84.73905181884766,-8.758041381835938,89.73080444335938,-0.02752706739637587,0.30033333333333334,0.4057142857142857,0.037657546997070315,-5.899483340332033,-1.7467752867431656,53.1734504699707,0.004773542616102431,-0.14987606472439235
6408,0.5139362057427301,0.3585938262939453,84.57539367675781,82.40684509277344,-8.839874267578125,90.26271057128906,-0.010478719075520834,0.29533333333333334,0.4067857142857143,0.037016677856445315,-5.295252459594728,-2.4279066496582047,53.1734504699707,0.024094984266493057,-0.15669538709852432
6409,0.5139362057427301,0.3785157012939453,83.53202819824219,84.47309875488281,-9.678653717041016,90.03767395019531,-0.020480431450737847,0.2906666666666667,0.4085714285714286,0.037535476684570315,-5.328211443969728,-2.0433966093750016,53.1734504699707,-0.010456339518229166,-0.16351475185818143
6410,0.5334674557427301,0.3585938262939453,84.96409606933594,83.65477752685547,-9.023994445800781,89.62850952148438,-0.00775099860297309,0.287,0.41,0.03445328606499566,-6.514698641845705,-0.8678938322753922,52.55821990966797,0.014547983805338541,-0.15169448852539064
6411,0.4358112057427301,0.33867195129394534,84.5140151977539,84.16622924804688,-9.494529724121094,90.6309585571289,-0.0007043626573350694,0.2823333333333333,0.41214285714285714,0.029967371622721353,-6.635544436523439,0.4394400119781494,52.38243865966797,0.003864288330078125,-0.16806098090277777
6412,0.4319049557427301,0.29882820129394533,85.39370727539062,82.57050323486328,-9.74002456665039,90.03767395019531,-0.0009316762288411458,0.2803333333333333,0.41285714285714287,0.026671557956271703,-7.4485079222412125,0.9008520245552063,51.855098724365234,0.03136893378363715,-0.16419665018717447
6413,0.4553424557427301,0.29882820129394533,83.53202819824219,82.79554748535156,-9.126285552978516,90.03767395019531,-0.013888380262586805,0.27666666666666667,0.4135714285714286,0.028563605414496526,-7.54738296801758,0.6152160167694092,51.767208099365234,0.008183119032118056,-0.15737732781304253
6414,0.4514362057427301,0.33867195129394534,86.33477783203125,86.25294494628906,-9.126285552978516,90.0172119140625,-0.014343007405598959,0.2723333333333333,0.41464285714285715,0.03188993665907118,-6.4487825804443375,1.7577600479125977,51.767208099365234,0.0009092542860243056,-0.1571499718560113
6415,0.4514362057427301,0.33867195129394534,87.45996856689453,87.37813568115234,-9.187660217285156,90.38545989990234,-0.014343007405598959,0.2653333333333333,0.41535714285714287,0.033537801106770834,-5.756664889404298,2.6915700435638428,51.767208099365234,0.0009092542860243056,-0.1619235568576389
6416,0.3694049557427301,0.2789063262939453,87.91004180908203,86.84622192382812,-9.535446166992188,89.99675750732422,0.0072515275743272566,0.26366666666666666,0.415,0.026427417331271703,-6.152161257812502,2.7904441356658936,51.767208099365234,0.011820220947265625,-0.16146892971462673
6417,0.3615924557427301,0.239062557220459,87.35768127441406,86.5188980102539,-9.16720199584961,90.20133972167969,-0.0022955152723524307,0.26166666666666666,0.4142857142857143,0.02410816616482205,-6.207090991088869,0.0,51.6793212890625,0.009319814046223958,-0.1596504635281033
6418,0.4123737057427301,0.239062557220459,86.25294494628906,85.78240966796875,-9.22857666015625,90.71278381347656,-0.026390499538845487,0.25766666666666665,0.4139285714285714,0.025786590576171876,-4.921728747436525,-0.5932451658935562,50.976200103759766,0.005228169759114583,-0.16601511637369792
6419,0.4162799557427301,0.25898443222045897,81.87493133544922,81.38394165039062,-9.719566345214844,90.85599517822266,-0.01252454121907552,0.25333333333333335,0.41214285714285714,0.026732593112521703,-4.4053865843505875,-1.7138163023681656,50.712528228759766,0.005455440945095486,-0.1730617947048611
6420,0.4553424557427301,0.29882820129394533,82.71371459960938,83.36836242675781,-9.862773895263672,90.6309585571289,-0.0250266604953342,0.24733333333333332,0.4107142857142857,0.030089441935221353,-5.031588213989259,-1.1864878111572281,50.712528228759766,-0.00727386474609375,-0.172152582804362
6421,0.4358112057427301,0.33867195129394534,80.52470397949219,82.46821594238281,-9.330867767333984,89.62850952148438,-0.01661614312065972,0.24666666666666667,0.40964285714285714,0.03219507005479601,-6.305964129516603,-1.6588865690917984,50.712528228759766,-0.021594577365451388,-0.15510419209798176
6422,0.5100299557427301,0.3585938262939453,86.13019561767578,79.17447662353516,-9.003536224365234,89.73080444335938,-0.02457203335232205,0.24333333333333335,0.40964285714285714,0.03390405442979601,-5.833567278930666,-1.2853628569335953,50.712528228759766,0.0772857666015625,-0.1526037851969401
6423,0.5178424557427301,0.3187500762939453,77.435546875,81.42485809326172,-8.962623596191406,89.68988800048828,0.009751976860894098,0.23866666666666667,0.4089285714285714,0.028960333930121526,-5.306238787719728,-2.7684732847900406,50.712528228759766,-0.04432568020290799,-0.15169457329644098
6424,0.5373737057427301,0.33867195129394534,82.0999755859375,83.69569396972656,-8.983078002929688,89.46485137939453,-0.012297227647569445,0.23433333333333334,0.4092857142857143,0.028716193305121526,-4.877785342285158,0.26366400718688965,50.712528228759766,-0.017730204264322917,-0.1494214375813802
6425,0.4240924557427301,0.33867195129394534,85.0459213256836,85.06637573242188,-8.962623596191406,90.1604232788086,-0.0013863033718532986,0.22966666666666666,0.4082142857142857,0.028441535101996526,-4.734966891357423,2.4938220977783203,50.712528228759766,-0.00022727118598090277,-0.15692274305555556
6426,0.4201862057427301,0.3187500762939453,85.455078125,83.34790802001953,-9.45361328125,90.99920654296875,0.002932612101236979,0.226,0.4075,0.029021369086371526,-4.745953219482423,2.438892126083374,50.62464141845703,0.023413001166449652,-0.171697998046875
6427,0.4319049557427301,0.33867195129394534,83.57295227050781,83.0410385131836,-9.94460678100586,90.93782806396484,-0.01320648193359375,0.223,0.40535714285714286,0.03167631361219618,-5.086517947265627,1.2084600925445557,50.62464141845703,0.005910152859157986,-0.17647149827745226
6428,0.4670612057427301,0.33867195129394534,84.98455047607422,84.5958480834961,-9.45361328125,89.77172088623047,-0.021389685736762153,0.21933333333333332,0.40464285714285714,0.03427018059624566,-5.844553607055666,1.581984043121338,50.62464141845703,0.0043189154730902775,-0.15805926852756078
6429,0.4514362057427301,0.3187500762939453,86.62118530273438,88.95339965820312,-9.187660217285156,89.71034240722656,0.0024779849582248262,0.21366666666666667,0.4035714285714286,0.03268335130479601,-5.789621966430666,3.306786060333252,50.62464141845703,-0.025913492838541666,-0.15442225138346355
6430,0.4631549557427301,0.2789063262939453,87.99187469482422,85.72103881835938,-9.126285552978516,89.44439697265625,0.005205747816297743,0.20966666666666667,0.4032142857142857,0.03237817552354601,-5.646805422851564,2.658612012863159,50.62464141845703,0.025231509738498265,-0.15078536139594184
6431,0.4748737057427301,0.3187500762939453,85.16867065429688,86.23248291015625,-8.921707153320312,89.77172088623047,-0.027981694539388022,0.20433333333333334,0.4032142857142857,0.037047195434570315,-4.899756091186525,0.5053560137748718,50.62464141845703,-0.011820136176215277,-0.15214920043945312
6432,0.4748737057427301,0.33867195129394534,86.98943328857422,88.93293762207031,-9.494529724121094,90.26271057128906,-0.01070603264702691,0.19933333333333333,0.4035714285714286,0.037932205200195315,-5.086517947265627,0.36253800988197327,50.62464141845703,-0.021594492594401042,-0.1639693366156684
6433,0.5451862057427301,0.33867195129394534,88.54424285888672,87.33721923828125,-9.187660217285156,89.19889831542969,-0.01729808383517795,0.196,0.4039285714285714,0.039671707153320315,-6.294979708740236,-0.856909411499025,50.36096954345703,0.013411373562282987,-0.14873953925238714
6434,0.5295612057427301,0.29882820129394533,87.27584838867188,92.10392761230469,-8.451171875,90.0172119140625,-0.005705218844943577,0.19233333333333333,0.4042857142857143,0.03509415520562066,-6.503712313720705,-0.9228254729003922,50.36096954345703,-0.05364532470703125,-0.1496487087673611
6435,0.5178424557427301,0.239062557220459,90.69232940673828,85.557373046875,-8.962623596191406,88.81019592285156,0.010888502332899305,0.19066666666666668,0.4057142857142857,0.028868781195746526,-7.031040804931642,-0.9887415343017594,50.27307891845703,0.05705507066514757,-0.1419202168782552
6436,0.3303424557427301,0.3187500762939453,83.92073059082031,82.65233612060547,-8.94216537475586,90.93782806396484,-0.0075236850314670135,0.18566666666666667,0.4064285714285714,0.028624640570746526,-6.998083727905275,-4.295527117797853,50.27307891845703,0.014093271891276042,-0.16533326043023003
6437,0.4045612057427301,0.33867195129394534,82.32501220703125,79.01081848144531,-9.351322174072266,90.65141296386719,-0.030254787868923612,0.18333333333333332,0.4067857142857143,0.030180994669596353,-6.767376559326173,-4.745953219482423,48.251609802246094,0.03682437472873264,-0.16669705708821614
6438,0.5100299557427301,0.33867195129394534,80.23829650878906,84.43218231201172,-9.596820831298828,90.44683837890625,0.0036145528157552082,0.17866666666666667,0.4064285714285714,0.028441535101996526,-6.547657626220705,-3.0211512022705094,46.142250061035156,-0.046598731146918405,-0.16715176900227866
6439,0.5647174557427301,0.39843757629394533,86.02790832519531,86.45751953125,-9.105827331542969,89.62850952148438,-0.032073296440972225,0.171,0.4060714285714286,0.03454483879937066,-6.273007052490236,-0.2746511870117203,46.054359436035156,-0.004773457845052083,-0.15260374281141492
6440,0.5842487057427301,0.29882820129394533,86.86668395996094,86.0074462890625,-8.983078002929688,88.64653015136719,0.010888502332899305,0.17,0.4064285714285714,0.025511932373046876,-6.690474169799806,2.274101972579956,46.054359436035156,0.009547085232204862,-0.1403289794921875
6441,0.2912799835205078,0.2789063262939453,85.455078125,83.34790802001953,-8.348880767822266,90.2218017578125,0.011343129475911458,0.16433333333333333,0.405,0.016478983561197917,-6.503712313720705,1.3842360973358154,46.054359436035156,0.023413001166449652,-0.15078536139594184
6442,0.2873737335205078,0.3187500762939453,83.77752685546875,83.18424987792969,-9.903690338134766,90.95828247070312,-0.030482101440429687,0.159,0.4035714285714286,0.01928651597764757,-5.822580950805666,-0.21972145373535312,46.054359436035156,0.006591966417100695,-0.17624414232042102
6443,0.3381549557427301,0.2789063262939453,86.08927917480469,85.0459213256836,-9.208118438720703,90.71278381347656,-0.022526211208767362,0.15633333333333332,0.4014285714285714,0.01995790269639757,-6.613573687622072,1.175502061843872,45.26335144042969,0.011592864990234375,-0.16578780280219185
6444,0.3147174835205078,0.2789063262939453,85.72103881835938,85.08683776855469,-10.210559844970703,90.52867126464844,-0.002750142415364583,0.153,0.39964285714285713,0.018737241956922744,-6.778362887451173,1.3732500076293945,45.26335144042969,0.007046678331163195,-0.1748803456624349
6445,0.2795612335205078,0.2789063262939453,85.61874389648438,79.50180053710938,-9.576362609863281,89.97630310058594,-0.014115693834092882,0.14733333333333334,0.3964285714285714,0.018554136488172744,-7.173859255859377,0.8129640221595764,44.38444900512695,0.0679660373263889,-0.16169628567165797
6446,0.3147174835205078,0.29882820129394533,84.0025634765625,83.18424987792969,-9.16720199584961,90.40591430664062,-0.014797634548611112,0.14466666666666667,0.39535714285714285,0.021666844685872395,-6.899208682128908,0.20873400568962097,43.68132781982422,0.00909237331814236,-0.16192351447211373
6447,0.3069049835205078,0.33867195129394534,87.64408874511719,86.76439666748047,-9.617279052734375,90.83554077148438,-0.02434471978081597,0.13966666666666666,0.39321428571428574,0.025450897216796876,-6.240048068115236,1.8346620798110962,43.505550384521484,0.009774356418185763,-0.171697998046875
6448,0.2990924835205078,0.3187500762939453,87.03034973144531,85.39370727539062,-9.330867767333984,89.64897155761719,0.00225067138671875,0.13533333333333333,0.39107142857142857,0.02398609585232205,-6.701460497924806,1.7028300762176514,43.505550384521484,0.018184916178385416,-0.155331548055013
6449,0.3342487057427301,0.29882820129394533,85.65966796875,81.30210876464844,-9.003536224365234,90.1604232788086,-0.0066144307454427086,0.13166666666666665,0.38857142857142857,0.025084686279296876,-6.042299883911134,0.9008520245552063,42.275089263916016,0.04841732449001736,-0.15737732781304253
6450,0.3967487057427301,0.2789063262939453,86.35523986816406,86.78485107421875,-9.51498794555664,89.36256408691406,-0.022980838351779515,0.12633333333333333,0.38642857142857145,0.027831183539496526,-5.9653994017334,1.5050820112228394,40.42940139770508,-0.004773457845052083,-0.15419502258300782
6451,0.2795612335205078,0.2789063262939453,86.88714599609375,81.13844299316406,-8.921707153320312,89.87400817871094,0.004523807101779514,0.123,0.38392857142857145,0.02227715386284722,-6.866251605102541,1.2304320335388184,37.96847915649414,0.06387447781032986,-0.15328572591145834
6452,0.3225299557427301,0.219140682220459,84.39126586914062,83.77752685546875,-8.962623596191406,89.0147705078125,0.006114959716796875,0.12133333333333333,0.3825,0.02007997300889757,-6.943152087280275,0.8349360227584839,37.79269790649414,0.006819322374131944,-0.14419326782226563
6453,0.3186237335205078,0.2789063262939453,81.73172760009766,84.49356079101562,-8.614837646484375,89.54668426513672,-0.02457203335232205,0.11333333333333333,0.37892857142857145,0.026702075534396703,-5.668776171752931,0.02197200059890747,39.28683090209961,-0.030687035454644098,-0.14623913235134547
6454,0.3342487057427301,0.33867195129394534,85.27096557617188,84.92317199707031,-8.67620849609375,89.28073120117188,-0.03139135572645399,0.10866666666666666,0.3767857142857143,0.03277490403917101,-5.031588213989259,0.7140899896621704,39.550498962402344,0.0038643731011284723,-0.14396599663628473
6455,0.2912799835205078,0.3585938262939453,84.73905181884766,79.62455749511719,-8.94216537475586,89.48530578613281,0.009524663289388021,0.10533333333333333,0.3732142857142857,0.030364100138346353,-5.273281710693361,0.7031040191650391,39.550498962402344,0.05682771470811632,-0.14919412400987414
6456,0.2990924835205078,0.3585938262939453,81.11798858642578,85.65966796875,-9.310409545898438,90.0785903930664,-0.01843460930718316,0.10066666666666667,0.37107142857142855,0.03256128099229601,-5.262295382568361,0.2526780068874359,39.726280212402344,-0.050463104248046876,-0.15987777709960938
6457,0.3381549557427301,0.3585938262939453,85.70057678222656,78.82669067382812,-9.16720199584961,89.28073120117188,-0.02320815192328559,0.09766666666666667,0.3682142857142857,0.03485001458062066,-6.020329135009767,-1.2524038725585953,39.726280212402344,0.0763765123155382,-0.14942147996690539
6458,0.3303424557427301,0.33867195129394534,82.14088439941406,84.57539367675781,-8.819416046142578,88.93293762207031,-0.006159803602430555,0.093,0.36678571428571427,0.03198148939344618,-5.9214540892334,0.0,39.726280212402344,-0.02705010308159722,-0.1416928185356988
6459,0.3225299557427301,0.3187500762939453,85.18913269042969,84.28897857666016,-8.246593475341797,88.76927947998047,-0.002522828843858507,0.08866666666666667,0.365,0.029295984903971353,-5.910469668457033,0.6591600179672241,39.726280212402344,0.010001712375217013,-0.13350969950358074
6460,0.2990924835205078,0.3187500762939453,85.5164566040039,85.98699188232422,-8.103385925292969,88.76927947998047,-0.006387117173936632,0.083,0.36357142857142855,0.028807746039496526,-5.163420336791994,-0.07690300280761875,39.726280212402344,-0.005228169759114583,-0.1319185045030382
6461,0.3264362057427301,0.29882820129394533,86.13019561767578,85.14820861816406,-8.123844146728516,88.78973388671875,-0.022980838351779515,0.07933333333333334,0.3610714285714286,0.028288947211371526,-4.636091845581056,-0.7690206938476578,39.726280212402344,0.01091096666124132,-0.13237308926052518
6462,0.2912799835205078,0.33867195129394534,83.08195495605469,86.02790832519531,-8.16476058959961,88.0737075805664,-0.01775266859266493,0.074,0.35964285714285715,0.027922736273871526,-4.702007906982423,-1.3952223234863297,39.726280212402344,-0.03273281521267361,-0.12487186855740018
6463,0.3225299557427301,0.33867195129394534,86.02790832519531,88.52378845214844,-7.653308868408203,88.52378845214844,-0.01252454121907552,0.07033333333333333,0.3575,0.03094389173719618,-4.3944002562255875,1.1535300016403198,39.726280212402344,-0.027732001410590276,-0.12418997022840712
6464,0.3108112335205078,0.3585938262939453,89.73080444335938,85.33233642578125,-7.9192657470703125,89.2193603515625,-0.010933346218532987,0.066,0.3557142857142857,0.03179838392469618,-3.834114687988283,0.9777539968490601,39.726280212402344,0.04887186686197917,-0.13487362331814237
6465,0.3264362057427301,0.3187500762939453,87.43951416015625,81.64989471435547,-8.042011260986328,88.87156677246094,-0.01979849073621962,0.06266666666666666,0.35214285714285715,0.03115751478407118,-4.053835528442384,0.26366400718688965,39.814170837402344,0.06432910495334201,-0.13237308926052518
6466,0.3147174835205078,0.33867195129394534,82.93875122070312,80.4837875366211,-7.1418609619140625,87.13264465332031,-0.01843460930718316,0.05733333333333333,0.3510714285714286,0.03124906751844618,-4.33947052294922,-1.153530734130861,39.814170837402344,0.027277374267578126,-0.10305006239149306
6467,0.3537799557427301,0.33867195129394534,87.33721923828125,86.37569427490234,-6.650867462158203,87.97142028808594,-0.01616151597764757,0.05366666666666667,0.3489285714285714,0.033507283528645834,-3.2957998686523453,0.26366400718688965,42.538761138916016,0.01068361070421007,-0.10691430833604601
6468,0.3654987057427301,0.33867195129394534,85.31187438964844,84.75950622558594,-7.325981140136719,88.09416198730469,-0.012297227647569445,0.050666666666666665,0.34714285714285714,0.03463639153374566,-2.252131121704103,0.29662200808525085,42.62664794921875,0.006137424045138889,-0.11577936808268229
6469,0.3694049557427301,0.33867195129394534,84.28897857666016,87.0098876953125,-7.264606475830078,87.39859008789062,-0.012751854790581597,0.046,0.3457142857142857,0.03539933098687066,-2.3510042601318375,0.23070600628852844,44.82389831542969,-0.0302323235405816,-0.10736885070800781
6470,0.3381549557427301,0.3187500762939453,87.41905212402344,88.42149353027344,-6.855449676513672,86.80531311035156,-0.0011589898003472221,0.042333333333333334,0.345,0.03164579603407118,-2.6805845671386734,1.3293060064315796,44.99967956542969,-0.011138237847222222,-0.09623069763183593
6471,0.3029987335205078,0.3187500762939453,84.75950622558594,82.57050323486328,-6.609951019287109,88.50332641601562,0.0004322052001953125,0.03833333333333333,0.3439285714285714,0.029418055216471353,-2.922276156494142,-0.7690206938476578,44.99967956542969,0.02432225545247396,-0.11236974928114149
6472,0.3654987057427301,0.33867195129394534,88.46240997314453,88.83065795898438,-8.103385925292969,89.19889831542969,-0.029118262396918403,0.037,0.3439285714285714,0.03518570793999566,-1.9774805479736344,0.9008520245552063,45.17546081542969,-0.004091644287109375,-0.13669204711914062
6473,0.4045612057427301,0.33867195129394534,80.17691802978516,87.62362670898438,-8.082927703857422,89.0761489868164,-0.022980838351779515,0.03233333333333333,0.3417857142857143,0.037993240356445315,-2.263117449829103,0.07690200209617615,46.58169937133789,-0.08274120754665798,-0.1351008521185981
6474,0.4240924557427301,0.33867195129394534,88.0123291015625,85.74149322509766,-7.694225311279297,89.52622985839844,-0.0054779052734375,0.029333333333333333,0.34035714285714286,0.037840652465820315,-2.164242404052736,0.6042300462722778,48.075828552246094,0.025231509738498265,-0.13578283521864148
6475,0.4279987057427301,0.3187500762939453,85.57783508300781,82.52958679199219,-8.533004760742188,87.58271789550781,-0.02684512668185764,0.025,0.34,0.037627029418945315,-1.8346620970459,0.3405660092830658,48.69105911254883,0.033869425455729164,-0.1235080295138889
6476,0.4201862057427301,0.2789063262939453,83.96165466308594,79.19493103027344,-6.916820526123047,88.54424285888672,-0.010251405504014757,0.020666666666666667,0.33964285714285714,0.03308007982042101,-1.4501520567626969,0.6811320185661316,48.69105911254883,0.05296359592013889,-0.11623403761121961
6477,0.5256549557427301,0.2789063262939453,86.1097412109375,89.71034240722656,-7.223690032958984,86.98943328857422,-0.04616656833224826,0.016666666666666666,0.3392857142857143,0.03411767747667101,-0.6481748991699234,1.494096040725708,48.69105911254883,-0.04000667995876736,-0.10236803690592448
6478,0.3733112057427301,0.25898443222045897,88.89202880859375,78.29478454589844,-7.9192657470703125,86.53935241699219,-0.06503338283962673,0.010333333333333333,0.3389285714285714,0.028807746039496526,-0.3515516691894547,1.8676199913024902,41.83563995361328,0.11774715847439236,-0.10509575737847222
6479,0.3967487057427301,0.17929691314697266,79.64501190185547,91.79705810546875,-3.8072052001953125,84.92317199707031,-0.023662779066297743,0.006333333333333333,0.3367857142857143,0.021483739217122395,-0.5492998533935562,1.1315580606460571,24.169750213623047,-0.13502273559570313,-0.04144863552517361
6480,0.4201862057427301,0.15937503814697265,85.23004150390625,83.12287139892578,-4.4209442138671875,85.80287170410156,-0.082763671875,0.0036666666666666666,0.335,0.01953065660264757,1.6039559841156006,0.9008520245552063,24.169750213623047,0.023413001166449652,-0.05804239908854167
6481,0.3498737057427301,0.17929691314697266,77.12867736816406,77.78333282470703,-2.088733673095703,82.91828918457031,-0.0918561299641927,0.0006666666666666666,0.3296428571428571,0.017425028483072917,2.13128399848938,0.5932440161705017,24.169750213623047,-0.0072739495171440975,-7.803175184461806e-05
6482,0.4436237057427301,0.13945316314697265,76.31035614013672,81.11798858642578,-1.4340782165527344,81.83401489257812,-0.0754897223578559,-0.0023333333333333335,0.32571428571428573,0.014617496066623263,1.6039559841156006,2.065368175506592,24.345529556274414,-0.053418138292100695,0.019243409898546008
6483,0.5334674557427301,0.1195312786102295,81.75218200683594,72.64837646484375,-2.8865966796875,76.86272430419922,-0.0754897223578559,-0.0013333333333333333,0.32107142857142856,0.013366317749023438,1.9115641117095947,1.4391660690307617,24.345529556274414,0.1011533949110243,0.05834087795681424
6484,0.4904987057427301,0.05976563930511475,71.74822235107422,73.81448364257812,8.385761260986328,72.9143295288086,-0.14913851420084637,-0.001,0.3157142857142857,0.0071409013536241316,1.1315580606460571,-1.2853628569335953,24.345529556274414,-0.022958458794487848,0.2274603525797526
6485,0.5061237057427301,0.01992187976837158,76.84226989746094,75.9830322265625,6.851413726806641,69.25234985351562,0.01316163804796007,0.0003333333333333333,0.30857142857142855,-0.0014648013644748264,1.0986000299453735,-0.3185945921630875,24.433420181274414,0.009547085232204862,0.2511007097032335
6486,0.3147174835205078,0.03984375953674316,75.9216537475586,80.0337142944336,11.781791687011719,70.25479125976562,-0.0436661614312066,-0.0003333333333333333,0.3028571428571429,-0.000335693359375,1.3732500076293945,-0.07690300280761875,24.433420181274414,-0.045689561631944445,0.29474444919162324
6487,0.5764362057427301,0.03984375953674316,79.58363342285156,82.79554748535156,9.551868438720703,79.72684478759766,-0.05003085666232639,0.0,0.2935714285714286,-0.0,1.0876140594482422,-0.834936755249025,24.433420181274414,-0.03568793402777778,0.1647224850124783
