,WD,WS,AIL_1,AIL_2,ELEV_1,ELEV_2,RUDD,ALT,GS,TH,PTCH,ROLL,PLA_1,AIL,ELEV
7737,-0.1625679064927843,0.19921878814697266,86.08927917480469,78.58119201660156,-2.743389129638672,88.58515930175781,0.32230470445421006,0.7996666666666666,0.4714285714285714,0.09640215408291287,-2.197201388427736,-8.00879539782715,31.28883934020996,0.0834231906467014,-0.07031720479329427
7738,-0.1195991564927843,0.239062557220459,86.08927917480469,77.92654418945312,-2.7638473510742188,88.50332641601562,0.32253206041124133,0.793,0.4710714285714286,0.0919467254296197,-1.9225508146972672,-7.4485079222412125,32.34352111816406,0.09069705539279514,-0.06963526407877604
7739,-0.1039741564927843,0.239062557220459,86.1097412109375,78.13111877441406,-2.7638473510742188,88.70790100097656,0.3227593315972222,0.7866666666666666,0.4707142857142857,0.08810162184787326,-1.5709978514404312,-6.745403903076173,32.95874786376953,0.08865136040581598,-0.07190831502278645
7740,-0.1039741564927843,0.239062557220459,85.82332611083984,78.09020233154297,-2.722930908203125,88.87156677246094,0.32298668755425347,0.781,0.47035714285714286,0.08447014131300185,-1.7687460356445328,-6.229063647338869,33.13452911376953,0.08592359754774305,-0.07327219645182291
7741,-0.0883491564927843,0.25898443222045897,85.92561340332031,77.9879150390625,-2.7638473510742188,88.85111236572266,0.32230470445421006,0.775,0.4692857142857143,0.08123537339918349,-1.8566347532959,-5.086517947265627,30.322050094604492,0.08819664849175347,-0.07349955240885417
7742,-0.1274116564927843,0.239062557220459,85.94607543945312,79.91096496582031,-2.702472686767578,88.81019592285156,0.32230470445421006,0.7696666666666667,0.4689285714285714,0.07751234012993707,-1.8456484251709,-3.87805809313965,30.146268844604492,0.06705678304036458,-0.07236298455132378
7743,-0.1391304064927843,0.219140682220459,85.90515899658203,77.9879150390625,-2.641101837158203,88.68744659423828,0.32230470445421006,0.7646666666666667,0.4682142857142857,0.07452170754292807,-1.8566347532959,-3.526507037231447,30.058380126953125,0.08796937730577258,-0.07031720479329427
7744,-0.1547554064927843,0.239062557220459,86.0074462890625,80.27920532226562,-2.6206436157226562,88.6056137084961,0.3227593315972222,0.7586666666666667,0.4675,0.0712869396291097,-1.6698728972167984,-3.823128359863283,30.058380126953125,0.06364712185329861,-0.06918063693576389
7745,-0.1664741564927843,0.219140682220459,85.96653747558594,78.25386810302734,-2.5797271728515625,88.6669921875,0.32230470445421006,0.7546666666666667,0.4664285714285714,0.06915077273864746,-1.4831110411376969,-3.943974154541017,30.058380126953125,0.08569632636176215,-0.06940799289279515
7746,-0.1274116564927843,0.239062557220459,85.98699188232422,78.41752624511719,-2.5592689514160156,89.03523254394531,0.3227593315972222,0.748,0.4660714285714286,0.06780803903757732,-2.0324102812500016,-3.2957998686523453,30.146268844604492,0.0841051737467448,-0.0732722388373481
7747,-0.1430366564927843,0.219140682220459,85.98699188232422,80.17691802978516,-4.339115142822266,88.93293762207031,0.32230470445421006,0.7436666666666667,0.46535714285714286,0.06576342223239476,-2.3949495726318375,-2.5926958494873062,32.25563049316406,0.06455637613932291,-0.09191169738769531
7748,-0.18600540649278427,0.219140682220459,85.98699188232422,78.29478454589844,-4.298198699951172,88.6056137084961,0.3227593315972222,0.739,0.46535714285714286,0.06277278964538574,-1.9445234709472672,-2.7025572233886734,32.6071891784668,0.0854689704047309,-0.08782013787163628
7749,-0.18209915649278427,0.219140682220459,85.88470458984375,78.04928588867188,-4.277740478515625,88.6669921875,0.32298668755425347,0.7333333333333333,0.465,0.06112488811035156,-1.7138163023681656,-2.4498793059082047,32.6071891784668,0.08706020779079861,-0.08827480740017361
7750,-0.20553665649278427,0.19921878814697266,85.76194763183594,77.70149993896484,-4.298198699951172,88.62606811523438,0.32253206041124133,0.7273333333333334,0.465,0.060148354750400125,-1.6479002409667984,-2.230158465454103,33.22241973876953,0.08956052992078993,-0.08804740905761718
7751,-0.20163040649278427,0.19921878814697266,85.86424255371094,78.74485778808594,-4.339115142822266,88.52378845214844,0.32253206041124133,0.7216666666666667,0.465,0.05901923879801433,-1.5819841795654312,-1.7138163023681656,33.837650299072266,0.07910427517361111,-0.08736559549967447
7752,-0.1508491564927843,0.219140682220459,85.84378051757812,78.29478454589844,-4.298198699951172,88.46240997314453,0.32230470445421006,0.7156666666666667,0.465,0.05883613862745497,-1.2524038725585953,-1.3402925902099625,34.892330169677734,0.08387773301866319,-0.08622898525661893
7753,-0.1117866564927843,0.219140682220459,85.76194763183594,77.8856201171875,-4.318656921386719,88.83065795898438,0.32230470445421006,0.711,0.46535714285714286,0.05938543913913304,-1.3293062620849625,-1.5709978514404312,34.892330169677734,0.08751475016276042,-0.09054794311523437
7754,-0.1000679064927843,0.219140682220459,85.84378051757812,77.9879150390625,-4.441402435302734,88.93293762207031,0.32253206041124133,0.707,0.46535714285714286,0.05966008939497206,-1.6588865690917984,-1.4501520567626969,34.980220794677734,0.08728739420572916,-0.09304822285970052
7755,-0.1039741564927843,0.19921878814697266,85.86424255371094,78.60165405273438,-4.4209442138671875,88.95339965820312,0.3218500773111979,0.7016666666666667,0.46464285714285714,0.059568539309692387,-1.9225508146972672,-1.0216986113281266,32.95874786376953,0.08069542778862847,-0.09304826524522569
7756,-0.1000679064927843,0.219140682220459,85.84378051757812,77.92654418945312,-4.298198699951172,88.52378845214844,0.32253206041124133,0.6966666666666667,0.46464285714285714,0.058256323186747234,-1.8236757689209,-1.3073355131835953,32.4314079284668,0.08796929253472222,-0.08691096835666233
7757,-0.0961616564927843,0.19921878814697266,86.02790832519531,80.64745330810547,-4.298198699951172,88.42149353027344,0.3218500773111979,0.6903333333333334,0.4639285714285714,0.05795115535278321,-1.2084604674072281,-1.6918455534667984,32.4314079284668,0.05978283352322049,-0.08577435811360677
7758,-0.0844429064927843,0.19921878814697266,85.96653747558594,78.74485778808594,-4.3595733642578125,88.64653015136719,0.32253206041124133,0.685,0.4632142857142857,0.05688307190755209,-0.856909411499025,-2.3400179320068375,32.4314079284668,0.08024088541666667,-0.08895670572916667
7759,-0.0766304064927843,0.19921878814697266,85.94607543945312,78.76531982421875,-4.3595733642578125,88.78973388671875,0.32253206041124133,0.679,0.4625,0.055906538547600644,-0.8898664885253922,-2.7794596129150406,32.6071891784668,0.07978617350260417,-0.09054785834418402
7760,-0.029755406492784284,0.19921878814697266,85.88470458984375,78.19248962402344,-4.400489807128906,88.93293762207031,0.321622806125217,0.6753333333333333,0.46214285714285713,0.05648635663740371,-1.2633902006835953,-2.4608656340332047,32.6071891784668,0.08546905517578125,-0.09259363810221354
7761,-0.041474156492784284,0.19921878814697266,85.86424255371094,79.542724609375,-4.3595733642578125,88.81019592285156,0.3227593315972222,0.6696666666666666,0.4610714285714286,0.05453328991750082,-1.2963491850585953,-2.3180471831054703,32.6071891784668,0.0702390882703993,-0.09077521430121528
7762,-0.057099156492784284,0.15937503814697265,85.86424255371094,77.96745300292969,-4.380031585693359,89.05569458007812,0.32253206041124133,0.6656666666666666,0.4607142857142857,0.05337365638699002,-1.4940973692626969,-2.922276156494142,32.8708610534668,0.08774210611979166,-0.09373029073079427
7763,-0.041474156492784284,0.19921878814697266,85.90515899658203,79.82913208007812,-4.400489807128906,88.70790100097656,0.3218500773111979,0.6596666666666666,0.46,0.05123748949652778,-1.7577597075195328,-2.955235140869142,32.8708610534668,0.06751141018337674,-0.09009323120117188
7764,-0.0766304064927843,0.17929691314697266,85.88470458984375,79.64501190185547,-4.380031585693359,88.62606811523438,0.32253206041124133,0.6543333333333333,0.46,0.04781962141215007,-1.6479002409667984,-3.1090380125732437,33.573978424072266,0.06932991875542535,-0.0889566633436415
7765,-0.061005406492784284,0.19921878814697266,85.49600219726562,77.16959381103516,-4.339115142822266,88.70790100097656,0.3227593315972222,0.6486666666666666,0.46,0.04626327128694323,-1.7907186918945328,-3.4276319914550797,33.749759674072266,0.0925156487358941,-0.08941129048665365
7766,-0.0649116564927843,0.219140682220459,85.88470458984375,80.56562042236328,-4.380031585693359,88.70790100097656,0.3220774332682292,0.6433333333333333,0.45964285714285713,0.043882971718766955,-1.9774805479736344,-2.559738772460939,33.749759674072266,0.05910093519422743,-0.0898659176296658
7767,-0.1078804064927843,0.17929691314697266,85.63920593261719,77.435546875,-4.3595733642578125,88.76927947998047,0.32253206041124133,0.6373333333333333,0.45964285714285713,0.04110595555589464,-2.142269747802736,-2.7574869566650406,32.95874786376953,0.09115176730685765,-0.09032058715820312
7768,-0.0805366564927843,0.219140682220459,85.68012237548828,78.35615539550781,-4.339115142822266,88.54424285888672,0.3220774332682292,0.6326666666666667,0.45964285714285713,0.04000735453253852,-1.9774805479736344,-1.8346620970459,31.991960525512695,0.08137741088867187,-0.08759286668565539
7769,-0.0922554064927843,0.219140682220459,85.70057678222656,79.4404296875,-4.380031585693359,88.40103149414062,0.3218500773111979,0.6263333333333333,0.45964285714285713,0.03826790556131999,-1.6039568358154312,-0.9777552061767594,29.53104019165039,0.06955718994140625,-0.08645625644259983
7770,-0.1117866564927843,0.19921878814697266,85.65966796875,79.31768798828125,-4.380031585693359,88.95339965820312,0.32253206041124133,0.6216666666666667,0.45964285714285713,0.0374439547938029,-1.9335371428222672,-0.9777552061767594,29.003700256347656,0.07046644422743055,-0.09259368048773872
7771,-0.1313179064927843,0.19921878814697266,85.68012237548828,79.17447662353516,-4.380031585693359,88.97386169433594,0.32253206041124133,0.6163333333333333,0.4592857142857143,0.036497937687428796,-2.482836382934572,-0.6921183043212906,28.915809631347656,0.07228495279947916,-0.09282103644476997
7772,-0.1391304064927843,0.19921878814697266,85.65966796875,79.09264373779297,-4.339115142822266,88.64653015136719,0.32298668755425347,0.6103333333333333,0.4592857142857143,0.03552140498975118,-2.7684732847900406,-0.4723993712158219,28.915809631347656,0.07296693589952256,-0.0887293921576606
7773,-0.1352241564927843,0.19921878814697266,85.70057678222656,78.56073760986328,-4.3595733642578125,88.54424285888672,0.3220774332682292,0.605,0.45964285714285713,0.0347890049697876,-2.581711428710939,-0.14281906420898594,28.827919006347656,0.07933154635959201,-0.08782018025716146
7774,-0.1469429064927843,0.19921878814697266,85.65966796875,78.96989440917969,-4.339115142822266,88.44195556640625,0.32230470445421006,0.6,0.45964285714285713,0.03469745488450793,-2.0543829375000016,-0.05493034655761875,28.827919006347656,0.07433081732855903,-0.08645634121365017
7775,-0.1547554064927843,0.17929691314697266,85.65966796875,79.41996765136719,-4.298198699951172,88.48286437988281,0.32230470445421006,0.5936666666666667,0.45964285714285713,0.035063655225626635,-1.6369139128417984,0.05493000149726868,28.827919006347656,0.0693300035264757,-0.08645625644259983
7776,-0.1352241564927843,0.17929691314697266,85.65966796875,78.49935913085938,-4.318656921386719,88.6056137084961,0.32298668755425347,0.5893333333333334,0.4592857142857143,0.036101221092732755,-1.6918455534667984,-0.3185945921630875,28.827919006347656,0.07955898708767362,-0.08804745144314235
7777,-0.1156929064927843,0.19921878814697266,87.15309143066406,80.23829650878906,-4.318656921386719,88.46240997314453,0.32230470445421006,0.5846666666666667,0.4575,0.0359486385002984,-1.3183199339599625,0.6811320185661316,28.827919006347656,0.0768310546875,-0.086456298828125
7778,-0.1586616564927843,0.219140682220459,86.62118530273438,78.58119201660156,-4.625526428222656,88.97386169433594,0.3241232130262587,0.5793333333333334,0.45607142857142857,0.033324204929860435,-1.120571749755861,0.3185940086841583,28.827919006347656,0.08933325873480903,-0.0955487569173177
7779,-0.18209915649278427,0.239062557220459,86.662109375,79.19493103027344,-5.239265441894531,89.6080551147461,0.32435056898328996,0.574,0.4521428571428571,0.031035454784690015,-1.4501520567626969,0.36253800988197327,28.827919006347656,0.08296864827473958,-0.1094146728515625
7780,-0.18991165649278427,0.219140682220459,86.08927917480469,77.9469985961914,-6.159877777099609,90.83554077148438,0.3241232130262587,0.5713333333333334,0.44892857142857145,0.0317678548046536,-2.175228732177736,0.373524010181427,28.827919006347656,0.09046978420681423,-0.13328242831759982
7781,-0.18209915649278427,0.219140682220459,86.0688247680664,79.07218933105469,-6.609951019287109,90.61050415039062,0.32435056898328996,0.569,0.44392857142857145,0.03192043805936178,-3.218899386474611,0.5053560137748718,28.827919006347656,0.07774039374457466,-0.13578283521864148
7782,-0.1430366564927843,0.17929691314697266,85.65966796875,77.27188110351562,-7.346439361572266,91.6333999633789,0.32435056898328996,0.5666666666666667,0.44,0.036101221092732755,-3.8011576109619156,0.02197200059890747,28.827919006347656,0.0931976318359375,-0.155331548055013
7783,-0.1313179064927843,0.15937503814697265,86.29386138916016,78.68348693847656,-7.182777404785156,91.83798217773438,0.32366858588324654,0.564,0.4342857142857143,0.03726085462324355,-4.734966891357423,0.23070600628852844,28.827919006347656,0.0845597161187066,-0.15578621758355035
7784,-0.0805366564927843,0.15937503814697265,85.27096557617188,77.10821533203125,-7.100944519042969,91.26515197753906,0.3241232130262587,0.5596666666666666,0.43107142857142855,0.03939702151370579,-4.570175784179689,-0.4614130430908219,28.827919006347656,0.09069722493489583,-0.1485121832953559
7785,-0.045380406492784284,0.219140682220459,85.90515899658203,80.11553955078125,-7.100944519042969,91.65385437011719,0.32435056898328996,0.5543333333333333,0.42714285714285716,0.039061338750712084,-5.130463259765627,-0.4174677305908219,28.827919006347656,0.06432910495334201,-0.1528310987684462
7786,-0.0922554064927843,0.239062557220459,87.86912536621094,82.07951354980469,-7.080486297607422,91.1219482421875,0.32389594184027776,0.5513333333333333,0.42392857142857143,0.03491107130864462,-5.273281710693361,0.4723980128765106,28.827919006347656,0.06432902018229167,-0.14669371710883247
7787,-0.1195991564927843,0.239062557220459,85.06637573242188,76.57630920410156,-6.998653411865234,91.44927978515625,0.3245778401692708,0.5446666666666666,0.41964285714285715,0.03405660494982402,-4.712994235107423,-0.5273291044921891,28.827919006347656,0.09433407253689235,-0.14942147996690539
7788,-0.049286656492784284,0.219140682220459,85.12775421142578,77.74241638183594,-6.9781951904296875,91.30607604980469,0.32435056898328996,0.54,0.4175,0.03835945564659967,-5.020601885864259,-0.9228254729003922,28.827919006347656,0.08205930921766492,-0.14760301378038193
7789,-0.045380406492784284,0.239062557220459,85.88470458984375,80.29966735839844,-6.9781951904296875,90.97874450683594,0.32366858588324654,0.5353333333333333,0.4135714285714286,0.03781015513492161,-4.811869280883791,-0.49437012011718906,28.827919006347656,0.06205596923828125,-0.14396599663628473
7790,-0.0805366564927843,0.219140682220459,85.84378051757812,78.29478454589844,-6.957736968994141,91.18331909179688,0.32503246731228297,0.5293333333333333,0.4114285714285714,0.035368821735043,-4.636091845581056,-0.9228254729003922,28.827919006347656,0.08387773301866319,-0.14601173400878906
7791,-0.1078804064927843,0.19921878814697266,85.84378051757812,79.05172729492188,-6.916820526123047,91.1628646850586,0.3241232130262587,0.5246666666666666,0.4075,0.03390402169511583,-4.811869280883791,-0.7690206938476578,28.827919006347656,0.07546725802951389,-0.14532983567979602
7792,-0.1469429064927843,0.19921878814697266,85.80287170410156,78.82669067382812,-6.732700347900391,90.77416229248047,0.32435056898328996,0.5196666666666667,0.4057142857142857,0.031279588124677876,-4.888771670410158,-1.131558077880861,28.827919006347656,0.07751312255859374,-0.13896514044867622
7793,-0.18209915649278427,0.19921878814697266,85.82332611083984,79.56317901611328,-6.5894927978515625,90.52867126464844,0.32366858588324654,0.5136666666666667,0.40285714285714286,0.02923497131949531,-4.218624728271486,-1.1095873289794937,28.827919006347656,0.06955718994140625,-0.1346462673611111
7794,-0.20944290649278427,0.19921878814697266,86.662109375,80.36103820800781,-6.4462890625,90.40591430664062,0.32389594184027776,0.508,0.4010714285714286,0.026274854654926728,-3.91101707751465,-0.8678938322753922,28.827919006347656,0.07001190185546875,-0.13169114854600694
7795,-0.18991165649278427,0.19921878814697266,85.06637573242188,77.86516571044922,-6.221248626708984,90.28317260742188,0.32435056898328996,0.5016666666666667,0.3989285714285714,0.026946221339893345,-4.185667651245119,-2.142269747802736,28.827919006347656,0.08001344468858507,-0.127826902601454
7796,-0.0805366564927843,0.17929691314697266,85.20958709716797,78.86760711669922,-6.098503112792969,90.1195068359375,0.32389594184027776,0.49766666666666665,0.39714285714285713,0.03167630471937392,-4.097778933593752,-2.4608656340332047,28.827919006347656,0.07046644422743055,-0.1246445549858941
7797,-0.018036656492784284,0.15937503814697265,85.61874389648438,80.15646362304688,-6.1394195556640625,90.13996887207031,0.32389594184027776,0.49233333333333335,0.3942857142857143,0.03393453794869317,-3.581436770507814,-2.142269747802736,28.65213966369629,0.06069200303819444,-0.1253265380859375
7798,-0.018036656492784284,0.17929691314697266,86.25294494628906,80.8929443359375,-6.118961334228516,90.44683837890625,0.32435056898328996,0.4866666666666667,0.3925,0.03231715465405782,-3.3617159300537125,-1.8456484251709,28.915809631347656,0.05955556233723958,-0.1285088857014974
7799,-0.033661656492784284,0.219140682220459,83.32745361328125,78.02882385253906,-6.2007904052734375,90.2218017578125,0.32435056898328996,0.4826666666666667,0.39,0.029082388064787128,-3.4825636320800797,-3.537493365356447,32.6071891784668,0.05887366400824653,-0.12691769070095485
7800,-0.014130406492784282,0.17929691314697266,87.1121826171875,81.93630981445312,-6.180332183837891,90.75370788574219,0.3241232130262587,0.478,0.38857142857142857,0.02862463796952566,-3.7572122984619156,-2.933262484619142,32.6071891784668,0.057509697808159725,-0.13260044521755643
7801,-0.057099156492784284,0.17929691314697266,87.0712661743164,79.29722595214844,-5.873462677001953,90.0172119140625,0.32389594184027776,0.4736666666666667,0.38571428571428573,0.023955588870578342,-3.856087344238283,-2.9881922178955094,32.6071891784668,0.0863782246907552,-0.12100749545627171
7802,-0.0961616564927843,0.17929691314697266,85.557373046875,79.46089172363281,-5.8939208984375,89.83309936523438,0.3245778401692708,0.4693333333333333,0.3846428571428571,0.019744284947713218,-3.240870135375978,-3.4825636320800797,32.6071891784668,0.06773868136935764,-0.11918911404079861
7803,-0.0805366564927843,0.19921878814697266,86.47798156738281,80.50424194335938,-5.955295562744141,89.83309936523438,0.3241232130262587,0.465,0.38321428571428573,0.017638635635375977,-2.823403018066408,-2.955235140869142,35.41967010498047,0.06637488471137153,-0.11987105475531684
7804,-0.0883491564927843,0.19921878814697266,86.43707275390625,81.07707214355469,-5.996212005615234,90.28317260742188,0.32435056898328996,0.4583333333333333,0.3825,0.014739550484551323,-2.944248812744142,-2.6695982390136734,36.56224060058594,0.05955556233723958,-0.12532649570041232
7805,-0.1000679064927843,0.239062557220459,86.27340698242188,81.22027587890625,-5.9757537841796875,90.46729278564453,0.32435056898328996,0.4563333333333333,0.3817857142857143,0.011169105105929904,-3.515520709106447,-2.867346423217775,36.91379928588867,0.05614590115017361,-0.12714496188693578
7806,-0.0922554064927843,0.25898443222045897,85.84378051757812,77.59921264648438,-5.996212005615234,90.0172119140625,0.32435056898328996,0.45166666666666666,0.3807142857142857,0.008910867902967665,-3.515520709106447,-3.6693254881591812,36.91379928588867,0.09160630967881944,-0.12237137688530816
7807,-0.061005406492784284,0.239062557220459,85.90515899658203,79.27676391601562,-5.996212005615234,90.09904479980469,0.32435056898328996,0.44733333333333336,0.3796428571428571,0.009185520807902019,-2.7355143004150406,-3.207913058349611,36.91379928588867,0.07364883422851562,-0.12328063117133246
7808,-0.033661656492784284,0.239062557220459,85.92561340332031,79.3995132446289,-6.016670227050781,90.36500549316406,0.3245778401692708,0.44233333333333336,0.3782142857142857,0.009338103400336372,-2.570725100585939,-2.6805845671386734,35.7712287902832,0.07251222398546008,-0.1264630635579427
7809,-0.025849156492784284,0.25898443222045897,85.94607543945312,79.8905029296875,-5.914379119873047,89.93538665771484,0.32389594184027776,0.438,0.37607142857142856,0.008178467220730252,-2.559738772460939,-2.153256075927736,35.7712287902832,0.06728413899739584,-0.1205529530843099
7810,-0.037567906492784284,0.25898443222045897,86.96897888183594,81.77264404296875,-5.914379119873047,89.79217529296875,0.32389594184027776,0.43333333333333335,0.3742857142857143,0.0062864356570773655,-1.9884668760986344,-1.3952223234863297,36.38645935058594,0.05773705376519097,-0.11896171569824218
7811,-0.0805366564927843,0.239062557220459,86.82576751708984,80.05416870117188,-5.934837341308594,90.13996887207031,0.3241232130262587,0.42966666666666664,0.3725,0.0019225544399685329,-1.5709978514404312,-1.7467752867431656,37.17747116088867,0.07523998684353299,-0.12305340237087674
7812,-0.0961616564927843,0.219140682220459,86.80531311035156,79.21539306640625,-5.791633605957031,89.89447021484375,0.3241232130262587,0.4256666666666667,0.3703571428571429,-3.0512279934353298e-05,-1.516068118164064,-2.0763555937500016,37.529029846191406,0.0843324449327257,-0.11873448689778646
7813,-0.0805366564927843,0.219140682220459,86.78485107421875,80.0950927734375,-5.689342498779297,89.64897155761719,0.32389594184027776,0.422,0.36964285714285716,-0.0007018831041124132,-1.3293062620849625,-1.8566347532959,39.726280212402344,0.07433064778645833,-0.11487015618218316
7814,-0.0649116564927843,0.219140682220459,86.17111206054688,79.25630950927734,-5.771175384521484,90.03767395019531,0.32435056898328996,0.4176666666666667,0.36964285714285716,-0.0008849832746717664,-1.120571749755861,-2.142269747802736,41.39619064331055,0.07683113945855034,-0.12009832594129774
7815,-0.025849156492784284,0.219140682220459,86.1097412109375,78.49935913085938,-5.791633605957031,90.32408142089844,0.3245778401692708,0.4146666666666667,0.3692857142857143,0.0003356880611843533,-1.3842359953613297,-2.3839632445068375,42.275089263916016,0.08455980088975694,-0.12350794474283854
7816,-0.018036656492784284,0.219140682220459,86.23248291015625,79.21539306640625,-5.8120880126953125,90.20133972167969,0.3241232130262587,0.41133333333333333,0.37,-0.0006713655259874132,-1.7248026304931656,-1.8236757689209,42.97821044921875,0.07796766493055556,-0.12237141927083334
7817,-0.029755406492784284,0.239062557220459,86.27340698242188,79.23585510253906,-5.771175384521484,90.20133972167969,0.32435056898328996,0.407,0.36964285714285716,-0.0027464972601996527,-1.9115644865722672,-1.6039568358154312,39.726280212402344,0.0781950208875868,-0.12191683451334635
7818,-0.037567906492784284,0.19921878814697266,86.27340698242188,79.17447662353516,-5.8120880126953125,90.26271057128906,0.3241232130262587,0.4036666666666667,0.36892857142857144,-0.004272333780924479,-1.8895918303222672,-1.549027102539064,34.980220794677734,0.07887700398763021,-0.12305331759982639
7819,-0.037567906492784284,0.17929691314697266,86.25294494628906,79.23585510253906,-5.832546234130859,89.97630310058594,0.32389594184027776,0.4,0.36714285714285716,-0.005126794179280599,-1.9664942198486344,-1.1864878111572281,30.58572006225586,0.07796766493055556,-0.12009832594129774
7820,-0.025849156492784284,0.19921878814697266,86.27340698242188,79.35859680175781,-5.464302062988281,89.77172088623047,0.3245778401692708,0.3953333333333333,0.36428571428571427,-0.005065769619411893,-2.208185809204103,-0.9008528166503922,29.179479598999023,0.07683122422960069,-0.11373358832465277
7821,-0.037567906492784284,0.19921878814697266,86.23248291015625,79.91096496582031,-5.259723663330078,89.44439697265625,0.3245778401692708,0.39166666666666666,0.3625,-0.006713665856255426,-1.9005781584472672,-0.7031046324462906,29.179479598999023,0.0702390882703993,-0.10782356262207031
7822,-0.0649116564927843,0.19921878814697266,86.27340698242188,79.41996765136719,-5.259723663330078,89.32164001464844,0.32503246731228297,0.3873333333333333,0.35892857142857143,-0.008697244856092665,-1.3842359953613297,-0.6811319761962906,29.003700256347656,0.07614932590060763,-0.10645959642198351
7823,-0.053192906492784284,0.219140682220459,86.27340698242188,79.25630950927734,-5.341556549072266,89.38301849365234,0.3245778401692708,0.38233333333333336,0.35714285714285715,-0.008666727277967665,-1.3842359953613297,-0.7580343657226578,29.003700256347656,0.0779677497016059,-0.10805083380805122
7824,-0.049286656492784284,0.19921878814697266,86.13019561767578,78.17203521728516,-5.382472991943359,89.48530578613281,0.3252597384982639,0.37766666666666665,0.3535714285714286,-0.008849832746717665,-1.4281813078613297,-0.9887415343017594,29.003700256347656,0.08842400444878472,-0.10964198642306858
7825,-0.0688179064927843,0.19921878814697266,86.37569427490234,79.93142700195312,-5.44384765625,89.91493225097656,0.32389594184027776,0.37533333333333335,0.35035714285714287,-0.01113857693142361,-1.2743765288085953,-0.14281906420898594,29.003700256347656,0.07160296969943576,-0.11509755452473959
7826,-0.1156929064927843,0.19921878814697266,86.33477783203125,80.36103820800781,-6.4462890625,91.24469757080078,0.32389594184027776,0.37066666666666664,0.34535714285714286,-0.014037662082248263,-1.9115644865722672,0.5383139848709106,29.003700256347656,0.06637488471137153,-0.1410109625922309
7827,-0.1156929064927843,0.219140682220459,86.72348022460938,79.21539306640625,-6.1394195556640625,91.28561401367188,0.32389594184027776,0.369,0.3417857142857143,-0.01440386242336697,-3.548477786132814,0.05493000149726868,29.003700256347656,0.0834231906467014,-0.13805592854817708
7828,-0.1117866564927843,0.219140682220459,86.74394226074219,80.05416870117188,-6.057586669921875,90.20133972167969,0.32389594184027776,0.366,0.3382142857142857,-0.013824049631754558,-3.284815447875978,-0.2746511870117203,29.003700256347656,0.07433081732855903,-0.12509918212890625
7829,-0.0961616564927843,0.219140682220459,86.70301818847656,80.0337142944336,-6.262165069580078,90.99920654296875,0.32389594184027776,0.3616666666666667,0.33321428571428574,-0.013305261400010851,-2.944248812744142,-0.09887375170898594,33.749759674072266,0.07410337660047743,-0.13623746236165366
7830,-0.1195991564927843,0.219140682220459,86.70301818847656,80.0950927734375,-6.650867462158203,91.53111267089844,0.32389594184027776,0.35933333333333334,0.3292857142857143,-0.014739545186360677,-3.592423098632814,0.0,36.91379928588867,0.07342139350043403,-0.14646644592285157
7831,-0.1117866564927843,0.19921878814697266,86.70301818847656,79.23585510253906,-5.934837341308594,90.59004211425781,0.32435056898328996,0.356,0.32785714285714285,-0.013946119944254558,-4.020876544067384,-0.4064833098144547,38.671600341796875,0.08296847873263889,-0.12805421617296006
7832,-0.1000679064927843,0.19921878814697266,86.64164733886719,79.01081848144531,-5.771175384521484,89.89447021484375,0.3245778401692708,0.3516666666666667,0.3264285714285714,-0.013366296556260851,-3.1090380125732437,-0.6701475554199234,40.07783889770508,0.0847869873046875,-0.11850717332628039
7833,-0.0805366564927843,0.17929691314697266,86.68256378173828,78.76531982421875,-5.8939208984375,90.38545989990234,0.3245778401692708,0.348,0.32535714285714284,-0.011809953053792318,-2.0873400145263687,-0.18676246936035312,41.48408126831055,0.08796937730577258,-0.12532645331488715
7834,-0.0688179064927843,0.19921878814697266,86.662109375,78.86760711669922,-5.914379119873047,90.95828247070312,0.32435056898328996,0.3436666666666667,0.3242857142857143,-0.01113857693142361,-2.164242404052736,0.3405660092830658,42.62664794921875,0.08660558064778646,-0.131918462117513
7835,-0.0805366564927843,0.17929691314697266,86.68256378173828,80.25875091552734,-5.914379119873047,90.38545989990234,0.32366858588324654,0.34,0.32392857142857145,-0.01119961208767361,-2.493822711059572,1.032684087753296,43.68132781982422,0.07137569851345486,-0.12555376688639322
7836,-0.1039741564927843,0.19921878814697266,86.662109375,80.58607482910156,-5.914379119873047,90.44683837890625,0.32389594184027776,0.3363333333333333,0.3242857142857143,-0.011870977613661024,-2.3949495726318375,1.1315580606460571,44.38444900512695,0.06751149495442708,-0.12623574998643664
7837,-0.1156929064927843,0.17929691314697266,86.72348022460938,80.79066467285156,-6.078044891357422,90.97874450683594,0.32435056898328996,0.3333333333333333,0.32392857142857145,-0.01126064724392361,-2.537766116210939,1.0546560287475586,44.82389831542969,0.06592017279730902,-0.13396432664659289
7838,-0.1156929064927843,0.17929691314697266,86.64164733886719,80.25875091552734,-5.9757537841796875,90.75370788574219,0.32389594184027776,0.32966666666666666,0.3242857142857143,-0.010772376590304904,-2.9772058897705094,0.4723980128765106,44.82389831542969,0.0709210713704427,-0.13032735188802083
7839,-0.1195991564927843,0.17929691314697266,86.662109375,80.9952392578125,-5.8120880126953125,90.09904479980469,0.3252597384982639,0.326,0.325,-0.010558764139811197,-2.900305407592775,0.032958000898361206,45.52701950073242,0.06296522352430556,-0.12123480902777778
7840,-0.1195991564927843,0.17929691314697266,86.21202850341797,79.62455749511719,-5.955295562744141,90.77416229248047,0.32435056898328996,0.32233333333333336,0.32607142857142857,-0.01022308137681749,-2.3839632445068375,-0.2746511870117203,45.70280075073242,0.07319412231445313,-0.13032730950249566
7841,-0.1156929064927843,0.219140682220459,86.23248291015625,80.0337142944336,-6.405372619628906,91.38790130615234,0.32389594184027776,0.319,0.3264285714285714,-0.011474259694417318,-2.933262484619142,0.3185940086841583,45.70280075073242,0.06887520684136285,-0.1421474880642361
7842,-0.1547554064927843,0.17929691314697266,87.17355346679688,82.67279052734375,-6.425830841064453,90.99920654296875,0.32435056898328996,0.31566666666666665,0.3271428571428571,-0.012450801001654731,-3.6583391600341812,0.6371880173683167,45.43912887573242,0.05000847710503472,-0.13805597093370225
7843,-0.1313179064927843,0.15937503814697265,86.21202850341797,79.01081848144531,-6.057586669921875,90.71278381347656,0.32435056898328996,0.31133333333333335,0.3275,-0.009887398613823786,-4.306513445922853,-0.12084640795898594,44.56023025512695,0.08001344468858507,-0.13078189425998263
7844,-0.0883491564927843,0.17929691314697266,86.82576751708984,79.84959411621094,-5.791633605957031,90.30363464355469,0.32389594184027776,0.30833333333333335,0.32857142857142857,-0.007262961069742838,-4.075806277343752,0.9228240251541138,44.03289031982422,0.0775130377875434,-0.12328075832790798
7845,-0.1586616564927843,0.17929691314697266,87.91004180908203,82.87738037109375,-5.955295562744141,90.34454345703125,0.32366858588324654,0.30366666666666664,0.3292857142857143,-0.010558764139811197,-3.207913058349611,1.307334065437317,44.03289031982422,0.05591846042209202,-0.12555376688639322
7846,-0.1742866564927843,0.15937503814697265,86.37569427490234,80.07463073730469,-5.914379119873047,90.40591430664062,0.3245778401692708,0.2996666666666667,0.3296428571428571,-0.010924964480929904,-2.7135435515136734,-0.04394401843261875,44.03289031982422,0.0700118170844184,-0.12578103807237412
7847,-0.0883491564927843,0.17929691314697266,85.20958709716797,76.90364074707031,-5.873462677001953,90.40591430664062,0.3245778401692708,0.2956666666666667,0.3296428571428571,-0.006561077965630426,-2.504809039184572,-0.4174677305908219,44.38444900512695,0.09228829277886284,-0.12532641092936198
7848,-0.049286656492784284,0.19921878814697266,85.31187438964844,78.78577423095703,-6.118961334228516,90.93782806396484,0.3245778401692708,0.2926666666666667,0.3296428571428571,-0.004302851359049479,-2.493822711059572,0.36253800988197327,44.99967956542969,0.07251222398546008,-0.13396432664659289
7849,-0.053192906492784284,0.219140682220459,87.1121826171875,80.58607482910156,-6.1394195556640625,91.0196533203125,0.32389594184027776,0.29,0.3289285714285714,-0.0038450982835557725,-2.9772058897705094,1.2084600925445557,44.99967956542969,0.07251230875651042,-0.13510080973307292
7850,-0.0727241564927843,0.239062557220459,86.70301818847656,79.91096496582031,-6.241706848144531,90.61050415039062,0.3245778401692708,0.2866666666666667,0.3275,-0.005492994520399305,-2.3839632445068375,0.5493000149726868,43.417659759521484,0.07546725802951389,-0.1316912333170573
7851,-0.061005406492784284,0.239062557220459,88.68744659423828,82.32501220703125,-6.937278747558594,92.30851745605469,0.3241232130262587,0.2836666666666667,0.32607142857142857,-0.0033873452080620658,-2.559738772460939,1.2414180040359497,42.71453857421875,0.07069371541341146,-0.15828662448459202
7852,-0.0688179064927843,0.219140682220459,90.91737365722656,85.78240966796875,-6.425830841064453,90.6309585571289,0.32389594184027776,0.2806666666666667,0.325,-0.0025023672315809464,-3.3177725249023453,1.4391660690307617,42.538761138916016,0.057055155436197914,-0.13396432664659289
7853,-0.0805366564927843,0.219140682220459,88.05325317382812,81.30210876464844,-6.834991455078125,91.49018859863281,0.32389594184027776,0.27666666666666667,0.3242857142857143,-0.0028990851508246527,-3.4386183195800797,-0.04394401843261875,42.538761138916016,0.07501271565755209,-0.14805755615234376
7854,-0.033661656492784284,0.239062557220459,87.78729248046875,79.70639038085938,-6.67132568359375,91.87889099121094,0.32435056898328996,0.274,0.3242857142857143,0.0007934358384874132,-4.691023486206056,-0.6811319761962906,42.538761138916016,0.08978780110677083,-0.15055796305338542
7855,-0.014130406492784282,0.25898443222045897,88.23736572265625,81.81356048583984,-6.528118133544922,90.79461669921875,0.32389594184027776,0.2703333333333333,0.32357142857142857,0.002349784639146593,-5.580889361450197,-0.3954969816894547,42.538761138916016,0.07137561374240452,-0.13691927591959635
7856,-0.049286656492784284,0.239062557220459,86.21202850341797,79.76776123046875,-6.548576354980469,90.95828247070312,0.3245778401692708,0.26666666666666666,0.32357142857142857,-0.0016478962368435329,-5.075533526489259,-1.6588865690917984,39.550498962402344,0.07160296969943576,-0.13896509806315105
7857,-0.049286656492784284,0.239062557220459,83.5934066772461,76.82180786132812,-6.507663726806641,91.06057739257812,0.32480511135525175,0.2623333333333333,0.3225,-0.0031126976013183595,-4.899756091186525,-2.4388929777832047,39.11104965209961,0.07523998684353299,-0.1396471235487196
7858,-0.037567906492784284,0.219140682220459,84.08439636230469,77.29234313964844,-6.323539733886719,90.61050415039062,0.3245778401692708,0.258,0.32142857142857145,-0.0034788979424370658,-4.614121096679689,-0.823950427124025,38.583709716796875,0.07546725802951389,-0.1326004876030816
7859,-0.0844429064927843,0.219140682220459,87.70545959472656,80.74974060058594,-6.159877777099609,90.44683837890625,0.32389594184027776,0.25333333333333335,0.32107142857142856,-0.0068662431504991316,-4.262568133422853,0.8129640221595764,38.583709716796875,0.0772857666015625,-0.12896351284450955
7860,-0.1195991564927843,0.25898443222045897,87.15309143066406,80.93386840820312,-5.300640106201172,89.09660339355469,0.3241232130262587,0.24966666666666668,0.32,-0.010924964480929904,-3.284815447875978,0.4614120125770569,38.84737777709961,0.06910247802734375,-0.104413816663954
7861,-0.1117866564927843,0.25898443222045897,87.1121826171875,80.32012939453125,-5.423389434814453,90.26271057128906,0.32435056898328996,0.24566666666666667,0.3196428571428571,-0.010802894168429904,-2.3619905882568375,-0.03295769030761875,41.48408126831055,0.07546725802951389,-0.11873444451226128
7862,-0.0844429064927843,0.25898443222045897,87.03034973144531,79.09264373779297,-5.934837341308594,91.0196533203125,0.3245778401692708,0.24233333333333335,0.31785714285714284,-0.008025879330105252,-2.3180471831054703,0.04394400119781494,41.83563995361328,0.08819673326280382,-0.13282767401801215
7863,-0.0883491564927843,0.239062557220459,87.05081176757812,80.77020263671875,-5.873462677001953,90.99920654296875,0.32389594184027776,0.23966666666666667,0.3167857142857143,-0.007629161410861545,-2.7135435515136734,0.6591600179672241,42.362979888916016,0.0697845458984375,-0.13191854688856336
7864,-0.1117866564927843,0.219140682220459,87.21446990966797,82.28408813476562,-5.689342498779297,90.0785903930664,0.3241232130262587,0.23633333333333334,0.31607142857142856,-0.008666727277967665,-2.6805845671386734,0.516342043876648,42.97821044921875,0.05478201972113715,-0.1196436987982856
7865,-0.1039741564927843,0.239062557220459,87.05081176757812,80.07463073730469,-5.709800720214844,89.79217529296875,0.32435056898328996,0.23366666666666666,0.31607142857142856,-0.008361562093098959,-1.7907186918945328,-0.5163427763671891,43.85710906982422,0.07751312255859374,-0.1166886223687066
7866,-0.0883491564927843,0.19921878814697266,87.05081176757812,79.15402221679688,-5.771175384521484,90.71278381347656,0.32389594184027776,0.22966666666666666,0.31535714285714284,-0.006042300330268012,-1.3293062620849625,0.17577600479125977,44.91178894042969,0.08774210611979166,-0.12759954664442275
7867,-0.0883491564927843,0.219140682220459,87.93049621582031,81.13844299316406,-5.7507171630859375,90.79461669921875,0.32389594184027776,0.22633333333333333,0.31535714285714284,-0.005920230017768012,-1.6588865690917984,0.8898659944534302,45.52701950073242,0.07546725802951389,-0.12828148735894096
7868,-0.1195991564927843,0.17929691314697266,87.35768127441406,81.40440368652344,-5.730258941650391,90.36500549316406,0.32389594184027776,0.224,0.31642857142857145,-0.006347465515136719,-1.8895918303222672,-0.2416922026367203,46.58169937133789,0.06614752875434028,-0.12328071594238281
7869,-0.0805366564927843,0.219140682220459,86.47798156738281,79.07218933105469,-5.7507171630859375,90.1604232788086,0.3245778401692708,0.22033333333333333,0.3175,-0.005065769619411893,-1.5709978514404312,-1.2633902006835953,47.72426986694336,0.08228658040364584,-0.12123489379882812
7870,-0.049286656492784284,0.219140682220459,85.82332611083984,77.84471130371094,-6.425830841064453,91.30607604980469,0.3245778401692708,0.21666666666666667,0.3192857142857143,-0.0034178627861870658,-1.7797323637695328,-0.6701475554199234,48.427391052246094,0.08865127563476563,-0.14146563212076824
7871,-0.0688179064927843,0.19921878814697266,85.92561340332031,79.62455749511719,-6.159877777099609,90.93782806396484,0.32389594184027776,0.21366666666666667,0.32,-0.005126794179280599,-2.515795367309572,0.20873400568962097,48.427391052246094,0.07001173231336806,-0.13441895378960503
7872,-0.1000679064927843,0.219140682220459,84.53446960449219,77.74241638183594,-6.159877777099609,90.6309585571289,0.32435056898328996,0.21033333333333334,0.32107142857142856,-0.008514149983723959,-2.5926958494873062,-1.120571749755861,47.46059799194336,0.07546725802951389,-0.13100929260253907
7873,-0.053192906492784284,0.239062557220459,84.41172790527344,77.29234313964844,-6.2007904052734375,91.06057739257812,0.3245778401692708,0.20733333333333334,0.3221428571428571,-0.005676099989149305,-2.900305407592775,-0.7470480375976578,46.318031311035156,0.07910427517361111,-0.13623741997612848
7874,-0.010224156492784282,0.219140682220459,84.63676452636719,77.92654418945312,-6.159877777099609,91.0196533203125,0.3245778401692708,0.203,0.3221428571428571,-0.0016478962368435329,-3.3397451811523453,0.5932440161705017,45.26335144042969,0.07455800374348959,-0.135328123304579
7875,-0.021942906492784284,0.19921878814697266,84.69813537597656,79.23585510253906,-6.016670227050781,90.13996887207031,0.32480511135525175,0.20033333333333334,0.3225,-0.0023192617628309464,-2.6366411619873062,0.6701459884643555,44.91178894042969,0.06069200303819444,-0.12396265665690104
7876,-0.049286656492784284,0.219140682220459,86.35523986816406,80.15646362304688,-6.057586669921875,90.83554077148438,0.3245778401692708,0.196,0.3217857142857143,-0.004241816202799479,-2.241144793579103,0.3185940086841583,44.29655838012695,0.0688752916124132,-0.13214586046006943
7877,-0.0844429064927843,0.15937503814697265,86.37569427490234,80.21783447265625,-6.405372619628906,91.10148620605469,0.32389594184027776,0.19133333333333333,0.3217857142857143,-0.004608016543918186,-2.0653692656250016,0.4614120125770569,44.29655838012695,0.06842066446940104,-0.13896509806315105
7878,-0.1117866564927843,0.17929691314697266,86.559814453125,81.38394165039062,-5.730258941650391,89.95584106445312,0.3245778401692708,0.18833333333333332,0.3225,-0.0069272783067491316,-2.911289828369142,0.19774800539016724,46.318031311035156,0.057509697808159725,-0.11873444451226128
7879,-0.1703804064927843,0.17929691314697266,85.0050048828125,78.27432250976562,-6.487205505371094,91.46973419189453,0.3252597384982639,0.18566666666666667,0.3242857142857143,-0.010406176249186197,-3.0321375303955094,-0.9228254729003922,46.84537124633789,0.07478535970052083,-0.14396599663628473
7880,-0.1547554064927843,0.17929691314697266,85.18913269042969,77.19004821777344,-6.282623291015625,90.6309585571289,0.3245778401692708,0.182,0.32571428571428573,-0.01013152864244249,-3.4715773039550797,-0.6152159147949234,46.84537124633789,0.08887871636284722,-0.13237313164605036
7881,-0.1156929064927843,0.17929691314697266,85.29141998291016,79.62455749511719,-6.323539733886719,90.65141296386719,0.3241232130262587,0.178,0.3271428571428571,-0.008392079671223959,-3.3397451811523453,0.7140899896621704,46.84537124633789,0.06296513875325521,-0.1330550299750434
7882,-0.1235054064927843,0.17929691314697266,87.562255859375,82.69325256347656,-6.323539733886719,91.0810317993164,0.3241232130262587,0.17433333333333334,0.32857142857142857,-0.007720714145236545,-3.7572122984619156,1.1535300016403198,45.43912887573242,0.05410003662109375,-0.13782857259114584
7883,-0.1469429064927843,0.19921878814697266,86.15065002441406,79.64501190185547,-5.873462677001953,90.61050415039062,0.3254870944552951,0.17066666666666666,0.3292857142857143,-0.009826363457573786,-4.020876544067384,-0.5273291044921891,44.82389831542969,0.07228486802842882,-0.1275996314154731
7884,-0.1039741564927843,0.17929691314697266,85.47554016113281,78.02882385253906,-6.282623291015625,90.40591430664062,0.3245778401692708,0.16666666666666666,0.3296428571428571,-0.0070188310411241316,-3.3727022581787125,-0.3515516691894547,44.38444900512695,0.08274129231770834,-0.12987263997395834
7885,-0.1078804064927843,0.17929691314697266,88.42149353027344,80.50424194335938,-6.303081512451172,90.77416229248047,0.3241232130262587,0.164,0.33,-0.006652630700005426,-3.7022825651855484,1.340291976928711,44.03289031982422,0.08796946207682292,-0.13419159783257378
7886,-0.18209915649278427,0.19921878814697266,88.13508605957031,81.42485809326172,-6.548576354980469,91.49018859863281,0.32389594184027776,0.15966666666666668,0.33071428571428574,-0.011596330006917318,-4.723980563232423,0.5493000149726868,43.68132781982422,0.07455808851453993,-0.14487516615125867
7887,-0.1742866564927843,0.219140682220459,85.47554016113281,77.8856201171875,-6.098503112792969,90.1604232788086,0.32503246731228297,0.157,0.3314285714285714,-0.012237177954779731,-4.932715075561525,-0.9118391447753922,43.417659759521484,0.0843324449327257,-0.12509918212890625
7888,-0.1352241564927843,0.19921878814697266,85.90515899658203,77.72195434570312,-6.384914398193359,91.1628646850586,0.32435056898328996,0.15333333333333332,0.3314285714285714,-0.009002410040961372,-4.833840029785158,-0.15380539233398594,41.83563995361328,0.09092449612087673,-0.13941976759168836
7889,-0.1274116564927843,0.25898443222045897,86.70301818847656,80.32012939453125,-6.180332183837891,90.6309585571289,0.32389594184027776,0.14966666666666667,0.33107142857142857,-0.010436693827311197,-4.866799014160158,0.747048020362854,41.39619064331055,0.07092098659939236,-0.13123656378851997
7890,-0.19381790649278427,0.219140682220459,87.6031723022461,81.8953857421875,-8.042011260986328,90.97874450683594,0.3241232130262587,0.146,0.33107142857142857,-0.013579919603135851,-4.614121096679689,0.8129640221595764,40.34151077270508,0.06341985066731771,-0.15578617519802518
7891,-0.22897415649278427,0.219140682220459,85.37325286865234,78.74485778808594,-6.016670227050781,90.73324584960938,0.3245778401692708,0.14233333333333334,0.33,-0.015838146209716797,-5.734692233154298,-1.120571749755861,38.671600341796875,0.07364883422851562,-0.13055462307400173
7892,-0.1625679064927843,0.219140682220459,85.20958709716797,76.86272430419922,-5.832546234130859,89.62850952148438,0.3252597384982639,0.13833333333333334,0.3292857142857143,-0.012145635816786024,-5.020601885864259,-1.1095873289794937,38.407928466796875,0.092742919921875,-0.11623395284016927
7893,-0.1586616564927843,0.219140682220459,84.92317199707031,76.35127258300781,-6.1394195556640625,90.97874450683594,0.32480511135525175,0.134,0.32857142857142857,-0.012084600660536024,-4.4383455687255875,-0.15380539233398594,38.671600341796875,0.09524332682291667,-0.1346462673611111
7894,-0.1391304064927843,0.219140682220459,85.29141998291016,77.06730651855469,-6.037128448486328,90.46729278564453,0.32389594184027776,0.13033333333333333,0.3275,-0.01119961208767361,-4.712994235107423,0.5602860450744629,39.726280212402344,0.09137903849283854,-0.127826902601454
7895,-0.1352241564927843,0.219140682220459,86.90760040283203,80.29966735839844,-5.996212005615234,89.79217529296875,0.32435056898328996,0.12633333333333333,0.3271428571428571,-0.01028411653306749,-4.174681323120119,0.9667680263519287,39.814170837402344,0.07342147827148438,-0.1198709699842665
7896,-0.1586616564927843,0.219140682220459,85.08683776855469,81.38394165039062,-6.078044891357422,90.38545989990234,0.32503246731228297,0.123,0.32607142857142857,-0.011870977613661024,-3.7572122984619156,0.4284540116786957,39.98994827270508,0.04114329020182292,-0.12737227545844185
7897,-0.1430366564927843,0.19921878814697266,84.35034942626953,76.80134582519531,-6.078044891357422,90.73324584960938,0.3245778401692708,0.12033333333333333,0.325,-0.009795845879448786,-3.8011576109619156,0.8788800239562988,39.98994827270508,0.08387781778971354,-0.13123656378851997
7898,-0.1469429064927843,0.15937503814697265,88.0737075805664,81.60897827148438,-6.180332183837891,90.83554077148438,0.3241232130262587,0.11666666666666667,0.3246428571428571,-0.006103335486518012,-3.8011576109619156,1.4721240997314453,41.39619064331055,0.07183032565646702,-0.13350969950358074
7899,-0.1078804064927843,0.17929691314697266,89.50576782226562,83.81844329833984,-4.830104827880859,90.30363464355469,0.32435056898328996,0.11333333333333333,0.325,-0.0036619928148057725,-4.669050829956056,0.2526780068874359,42.538761138916016,0.06319249471028646,-0.11259710523817275
7900,-0.0883491564927843,0.17929691314697266,87.84866333007812,80.21783447265625,-5.7507171630859375,89.85355377197266,0.3245778401692708,0.11,0.3264285714285714,-0.0028990851508246527,-3.559464114257814,-1.1864878111572281,43.241878509521484,0.0847869873046875,-0.11782523261176216
7901,-0.0727241564927843,0.17929691314697266,87.78729248046875,80.32012939453125,-6.773616790771484,91.79705810546875,0.32435056898328996,0.106,0.32607142857142857,-0.0023192617628309464,-3.7572122984619156,-0.7140909605712906,43.505550384521484,0.08296847873263889,-0.1507852766248915
7902,-0.1274116564927843,0.13945316314697265,86.78485107421875,80.38150024414062,-6.282623291015625,90.13996887207031,0.32503246731228297,0.104,0.3264285714285714,-0.004546981387668186,-3.987919467041017,-0.812964098999025,43.68132781982422,0.0711483425564236,-0.12691769070095485
7903,-0.1274116564927843,0.13945316314697265,86.84622192382812,78.540283203125,-6.262165069580078,90.48774719238281,0.3245778401692708,0.1,0.3267857142857143,-0.005645582411024305,-3.932987826416017,-0.4723993712158219,42.62664794921875,0.0922882080078125,-0.13055458068847656
7904,-0.1313179064927843,0.17929691314697266,86.92805480957031,80.97477722167969,-6.098503112792969,89.97630310058594,0.3241232130262587,0.09633333333333334,0.3275,-0.007781749301486545,-4.097778933593752,0.09887400269508362,42.97821044921875,0.06614752875434028,-0.12305340237087674
7905,-0.19381790649278427,0.13945316314697265,84.57539367675781,78.21295166015625,-6.528118133544922,90.87644958496094,0.3252597384982639,0.09266666666666666,0.32857142857142857,-0.01034515168931749,-4.273554461547853,-0.9887415343017594,44.29655838012695,0.07069380018446181,-0.13782853020562066
7906,-0.1078804064927843,0.19921878814697266,83.83889770507812,76.71951293945312,-5.955295562744141,90.59004211425781,0.32503246731228297,0.08866666666666667,0.3296428571428571,-0.008788797590467665,-4.954685824462892,-1.2963491850585953,44.64812088012695,0.07910427517361111,-0.12828152974446613
7907,-0.037567906492784284,0.219140682220459,84.63676452636719,78.92898559570312,-6.098503112792969,90.569580078125,0.32480511135525175,0.08566666666666667,0.33,-0.004302851359049479,-5.196379321166994,0.48338401317596436,44.64812088012695,0.06341976589626735,-0.12964536878797744
7908,-0.025849156492784284,0.17929691314697266,88.0737075805664,82.9592056274414,-6.118961334228516,90.79461669921875,0.32435056898328996,0.083,0.3296428571428571,-0.0018615192837185329,-5.273281710693361,1.6149420738220215,42.71453857421875,0.05682779947916667,-0.13237308926052518
7909,-0.021942906492784284,0.219140682220459,87.97142028808594,80.52470397949219,-6.118961334228516,90.569580078125,0.3241232130262587,0.07866666666666666,0.3292857142857143,-0.0009765307108561198,-4.844826357910158,0.2856360077857971,41.57196807861328,0.08274129231770834,-0.12987268235948352
7910,0.009307093507215718,0.19921878814697266,87.25538635253906,80.79066467285156,-6.098503112792969,90.54912567138672,0.3241232130262587,0.07366666666666667,0.32821428571428574,0.0018004841274685329,-4.273554461547853,0.41746801137924194,40.95674133300781,0.07183024088541666,-0.12941809760199652
7911,-0.049286656492784284,0.17929691314697266,87.45996856689453,81.26119232177734,-5.239265441894531,90.65141296386719,0.3245778401692708,0.07066666666666667,0.3275,-0.0028075324164496527,-3.559464114257814,0.8459219932556152,40.86885070800781,0.0688752916124132,-0.12100753784179688
7912,-0.0961616564927843,0.13945316314697265,85.74149322509766,79.33814239501953,-6.016670227050781,90.44683837890625,0.32480511135525175,0.06633333333333333,0.3264285714285714,-0.0033873452080620658,-3.4166475706787125,-0.04394401843261875,40.86885070800781,0.0711483425564236,-0.12737231784396702
7913,-0.029755406492784284,0.09960939407348633,84.28897857666016,76.65814208984375,-5.955295562744141,91.1219482421875,0.32480511135525175,0.063,0.32535714285714284,-0.0001525825924343533,-4.163694994995119,0.7800060510635376,38.93526840209961,0.08478707207573785,-0.13419159783257378
7914,-0.025849156492784284,0.17929691314697266,85.27096557617188,79.78821563720703,-5.627967834472656,89.95584106445312,0.32503246731228297,0.059333333333333335,0.3246428571428571,0.0002441353268093533,-4.537218707153322,1.812690019607544,37.529029846191406,0.06091944376627604,-0.1175978766547309
7915,-0.041474156492784284,0.17929691314697266,85.70057678222656,80.0337142944336,-5.7507171630859375,89.81263732910156,0.32503246731228297,0.05533333333333333,0.32357142857142857,0.0006103356679280599,-4.240597384521486,1.6039559841156006,37.17747116088867,0.06296513875325521,-0.11737060546875
7916,-0.0688179064927843,0.19921878814697266,88.19645690917969,80.60653686523438,-5.525676727294922,89.567138671875,0.3241232130262587,0.052,0.32107142857142856,-0.0008544656965467664,-3.91101707751465,0.9008520245552063,34.716548919677734,0.0843324449327257,-0.11214239332411025
7917,-0.1156929064927843,0.17929691314697266,82.81600189208984,77.68104553222656,-6.916820526123047,91.91981506347656,0.32480511135525175,0.04766666666666667,0.31892857142857145,-0.0039671685960557725,-3.262842791625978,-0.7250772886962906,34.628658294677734,0.05705507066514757,-0.15374039543999565
7918,-0.0922554064927843,0.17929691314697266,84.86180114746094,76.71951293945312,-4.277740478515625,88.50332641601562,0.32480511135525175,0.044,0.315,-0.0027770148383246527,-2.7794596129150406,0.13183200359344482,34.540771484375,0.09046986897786459,-0.086456298828125
7919,-0.1274116564927843,0.15937503814697265,84.43218231201172,78.84715270996094,-6.037128448486328,90.54912567138672,0.3254870944552951,0.041,0.31285714285714283,-0.004333368937174479,-1.9335371428222672,-0.5053564482421891,34.540771484375,0.062055884467230905,-0.1287361568874783
7920,-0.1430366564927843,0.17929691314697266,85.33233642578125,77.21051025390625,-4.993770599365234,89.36256408691406,0.3252597384982639,0.03766666666666667,0.3092857142857143,-0.007598643832736545,-2.581711428710939,0.4394400119781494,34.540771484375,0.09024251302083333,-0.10395927429199218
7921,-0.1586616564927843,0.219140682220459,86.19157409667969,80.58607482910156,-5.627967834472656,89.66943359375,0.32435056898328996,0.034333333333333334,0.3067857142857143,-0.009490680694580079,-2.559738772460939,-0.09887375170898594,34.540771484375,0.0622833251953125,-0.11441557142469617
7922,-0.1703804064927843,0.19921878814697266,85.57783508300781,79.35859680175781,-4.952854156494141,90.28317260742188,0.32503246731228297,0.031,0.3032142857142857,-0.009551715850830079,-3.1310106688232437,-0.9667688780517594,34.540771484375,0.06910264756944444,-0.11373363071017795
7923,-0.1313179064927843,0.17929691314697266,85.39370727539062,77.72195434570312,-5.075603485107422,89.42393493652344,0.32480511135525175,0.027,0.3007142857142857,-0.0069883134629991316,-2.175228732177736,-0.8678938322753922,34.540771484375,0.08524169921875,-0.10555042690700955
7924,-0.1235054064927843,0.15937503814697265,87.76683807373047,82.52958679199219,-5.259723663330078,88.36012268066406,0.32480511135525175,0.023666666666666666,0.29642857142857143,-0.006316947937011719,-1.0436712675781266,-0.7031046324462906,37.79269790649414,0.058191680908203126,-0.09577607048882378
7925,-0.1195991564927843,0.17929691314697266,84.1048583984375,76.78089141845703,-4.830104827880859,41.900001525878906,0.32480511135525175,0.02033333333333333,0.29428571428571426,-0.007476584116617838,0.20873400568962097,-0.19774879748535312,38.93526840209961,0.08137741088867187,0.4252210405137804
7926,-0.1547554064927843,0.15937503814697265,86.98943328857422,78.9903564453125,-4.543693542480469,88.95339965820312,0.32480511135525175,0.016666666666666666,0.2910714285714286,-0.008971903059217665,0.6371880173683167,-0.2636648588867203,39.726280212402344,0.08887863159179688,-0.09441214667426215
7927,-0.1703804064927843,0.15937503814697265,87.21446990966797,81.547607421875,-3.684459686279297,41.900001525878906,0.3270782470703125,0.013333333333333334,0.2889285714285714,-0.009948433770073786,1.6259280443191528,-0.3185945921630875,40.07783889770508,0.06296513875325521,0.43795043097602
7928,-0.1469429064927843,0.17929691314697266,85.74149322509766,78.78577423095703,-3.66400146484375,88.72836303710938,0.3279875013563368,0.009666666666666667,0.2857142857142857,-0.01132168240017361,1.5929700136184692,-1.5929705076904312,40.25362014770508,0.0772857666015625,-0.08213738335503472
7929,-0.1039741564927843,0.19921878814697266,84.47309875488281,78.29478454589844,-3.254840850830078,87.86912536621094,0.3279875013563368,0.006333333333333333,0.2832142857142857,-0.01013152864244249,1.06564199924469,-1.6588865690917984,37.704811096191406,0.06864793565538195,-0.0680440690782335
7930,-0.0727241564927843,0.19921878814697266,83.12287139892578,78.02882385253906,-1.4545364379882812,83.5115737915039,0.3279875013563368,0.0023333333333333335,0.28,-0.007659678988986545,0.9228240251541138,-0.6811319761962906,27.245899200439453,0.056600528293185765,0.0003765530056423611
7931,-0.0649116564927843,0.15937503814697265,91.28561401367188,84.80043029785156,0.40714263916015625,84.80043029785156,0.3277602301703559,0.001,0.2775,-0.004974216885036893,2.6366400718688965,0.35155200958251953,26.015439987182617,0.07205759684244792,0.0067412482367621525
7932,-0.0844429064927843,0.09960939407348633,85.1072998046875,78.09020233154297,-0.12476730346679688,84.12531280517578,0.3286693996853299,0.0003333333333333333,0.27285714285714285,-0.0036619928148057725,4.009890079498291,-0.09887375170898594,26.015439987182617,0.0779677497016059,0.008332443237304688
7933,-0.033661656492784284,0.19921878814697266,88.21691131591797,81.69081115722656,1.0004234313964844,79.46089172363281,0.32730560302734374,-0.0006666666666666666,0.2692857142857143,-0.0015868610805935329,3.537492036819458,-0.823950427124025,26.015439987182617,0.07251222398546008,0.07266146341959635
7934,-0.002411656492784283,0.15937503814697265,87.97142028808594,81.48623657226562,9.265457153320312,75.36929321289062,0.32730560302734374,-0.0006666666666666666,0.26142857142857145,0.0012511836157904732,2.197200059890747,-0.7580343657226578,26.015439987182617,0.07205759684244792,0.2099573771158854
7935,-0.014130406492784282,0.219140682220459,87.54179382324219,80.50424194335938,12.3546142578125,80.27920532226562,0.3279875013563368,-0.001,0.25642857142857145,0.0007018831041124132,1.3183200359344482,-0.5163427763671891,26.015439987182617,0.0781950208875868,0.18972676595052082
7936,-0.014130406492784282,0.2789063262939453,87.6031723022461,82.42729949951172,4.5396575927734375,41.900001525878906,0.32753287421332467,0.0,0.24642857142857144,-0.0,1.5270540714263916,-0.6591612272949234,26.015439987182617,0.057509697808159725,0.5293295118543837
