,WD,WS,AIL_1,AIL_2,ELEV_1,ELEV_2,RUDD,ALT,GS,TH,PTCH,ROLL,PLA_1,AIL,ELEV
6008,-0.04590733846028646,0.17929691314697266,84.73905181884766,77.49691772460938,-1.5772857666015625,88.03279113769531,-0.006159803602430555,0.698,0.4689285714285714,0.0013121710883246527,1.3512780666351318,1.4062080383300781,45.26335144042969,0.08046815660264757,-0.051223076714409725
6009,-0.04981358846028646,0.17929691314697266,85.29141998291016,79.35859680175781,-1.7614059448242188,88.29874420166016,-0.006159803602430555,0.6983333333333334,0.4685714285714286,0.0020751105414496527,1.219446063041687,2.2301580905914307,44.56023025512695,0.06592025756835937,-0.056223890516493055
6010,-0.06543858846028645,0.17929691314697266,85.20958709716797,78.11065673828125,-1.7614059448242188,88.40103149414062,-0.006159803602430555,0.697,0.46785714285714286,0.0023192511664496527,0.7250760197639465,1.9335360527038574,36.65013122558594,0.07887700398763021,-0.05736041598849827
6011,-0.05762608846028646,0.17929691314697266,85.14820861816406,77.45600891113281,-1.7000312805175781,88.42149353027344,-0.006159803602430555,0.6963333333333334,0.4660714285714286,0.0036009046766493054,0.1867620050907135,2.296074151992798,30.058380126953125,0.08546888563368056,-0.056905831231011283
6012,-0.05371983846028646,0.15937503814697265,85.25050354003906,78.25386810302734,-1.8432388305664062,88.44195556640625,-0.006159803602430555,0.6946666666666667,0.46464285714285714,0.005004713270399305,-0.4284540587158219,2.9442481994628906,29.970489501953125,0.07774039374457466,-0.05872438218858507
6013,-0.06153233846028646,0.17929691314697266,85.20958709716797,79.0312728881836,-1.7000312805175781,88.25782775878906,-0.006159803602430555,0.6923333333333334,0.4632142857142857,0.0060727437337239586,-1.0107122832031266,3.0321359634399414,29.794710159301758,0.06864793565538195,-0.05508732265896267
6014,-0.06934483846028645,0.17929691314697266,86.82576751708984,79.93142700195312,-1.8227806091308594,87.95095825195312,-0.0059324900309244795,0.6883333333333334,0.4625,0.0072018941243489586,-1.153530734130861,2.4608640670776367,29.706819534301758,0.0766037835015191,-0.05304154290093316
6015,-0.08496983846028645,0.17929691314697266,86.37569427490234,80.25875091552734,-1.7409477233886719,87.93049621582031,-0.006159803602430555,0.684,0.4617857142857143,0.0069272359212239586,-1.175503390380861,0.4614120125770569,29.794710159301758,0.0679660373263889,-0.05190493265787761
6016,-0.09278233846028645,0.17929691314697266,86.08927917480469,78.80622863769531,-1.4340782165527344,87.74638366699219,-0.006159803602430555,0.6796666666666666,0.4617857142857143,0.0062253316243489586,-1.2524038725585953,-1.2304331236572281,29.706819534301758,0.08092278374565973,-0.046449576483832467
6017,-0.07325108846028645,0.17929691314697266,83.92073059082031,76.55585479736328,-1.0862922668457031,87.562255859375,-0.006159803602430555,0.675,0.4614285714285714,0.0059201558430989586,-1.0876146727294937,-1.0986010008544937,29.706819534301758,0.08183195326063368,-0.04053942362467448
6018,-0.05762608846028646,0.17929691314697266,84.26852416992188,76.04440307617188,-0.7794227600097656,87.33721923828125,-0.006159803602430555,0.6706666666666666,0.4614285714285714,0.0064389546712239586,-0.7690206938476578,1.307334065437317,29.706819534301758,0.09137912326388889,-0.03462935553656684
6019,-0.07325108846028645,0.17929691314697266,85.88470458984375,78.86760711669922,-1.1272087097167969,87.23492431640625,-0.0059324900309244795,0.6663333333333333,0.4610714285714286,0.0070187886555989586,-0.4504267149658219,3.152981996536255,29.706819534301758,0.0779677497016059,-0.03735703362358941
6020,-0.10059483846028645,0.19921878814697266,86.90760040283203,81.07707214355469,-1.3522453308105469,87.64408874511719,-0.0059324900309244795,0.6633333333333333,0.46,0.0071103413899739586,-0.3735243254394547,2.372976064682007,29.794710159301758,0.06478364732530383,-0.0444037119547526
6021,-0.12012608846028645,0.19921878814697266,86.98943328857422,81.34302520751953,-1.2704124450683594,87.80775451660156,-0.006159803602430555,0.6593333333333333,0.45785714285714285,0.0066830952962239586,-0.5053564482421891,-0.18676246936035312,29.794710159301758,0.0627378675672743,-0.04531296624077691
6022,-0.13575108846028647,0.19921878814697266,84.86180114746094,78.06974792480469,-1.5568275451660156,88.21691131591797,-0.0059324900309244795,0.655,0.45607142857142857,0.004516432020399305,-0.6481748991699234,-2.4388929777832047,29.706819534301758,0.07546725802951389,-0.05304154290093316
6023,-0.12793858846028647,0.19921878814697266,84.53446960449219,76.57630920410156,-1.9250717163085938,88.6669921875,-0.0066144307454427086,0.652,0.4517857142857143,0.0030821058485243054,-0.7690206938476578,-1.9005781584472672,29.794710159301758,0.08842400444878472,-0.062134043375651045
6024,-0.13575108846028647,0.19921878814697266,84.63676452636719,78.00836944580078,-2.272857666015625,88.93293762207031,-0.006841744316948784,0.6496666666666666,0.44785714285714284,0.0017394171820746527,-1.0766283446044937,-0.845923083374025,29.794710159301758,0.07364883422851562,-0.06895328097873264
6025,-0.13965733846028647,0.19921878814697266,84.67768096923828,77.68104553222656,-2.702472686767578,89.32164001464844,-0.0066144307454427086,0.6486666666666666,0.4425,0.0009154425726996528,-1.3842359953613297,0.13183200359344482,29.794710159301758,0.07774039374457466,-0.07804569668240018
6026,-0.13575108846028647,0.17929691314697266,85.1072998046875,78.35615539550781,-3.643543243408203,89.81263732910156,-0.0066144307454427086,0.6476666666666666,0.43857142857142856,0.0013426886664496527,-1.6918455534667984,0.9338099956512451,29.794710159301758,0.07501271565755209,-0.09395756191677518
6027,-0.13965733846028647,0.17929691314697266,85.23004150390625,79.19493103027344,-3.9708709716796875,90.32408142089844,-0.006387117173936632,0.6476666666666666,0.43214285714285716,0.0017088996039496527,-2.1093126707763687,1.0546560287475586,29.706819534301758,0.06705678304036458,-0.10327724880642361
6028,-0.13965733846028647,0.17929691314697266,85.14820861816406,78.21295166015625,-3.9708709716796875,90.65141296386719,-0.0066144307454427086,0.6463333333333333,0.4278571428571429,0.0021666632758246527,-2.790444033691408,0.9118380546569824,29.794710159301758,0.07705841064453126,-0.10691426595052084
6029,-0.14356358846028647,0.17929691314697266,86.08927917480469,80.23829650878906,-3.3366737365722656,90.0172119140625,-0.0066144307454427086,0.644,0.4228571428571429,0.0025633917914496527,-3.240870135375978,0.7690200209617615,29.706819534301758,0.06501091851128472,-0.09282095167371962
6030,-0.15528233846028647,0.19921878814697266,85.86424255371094,79.13356018066406,-3.4185028076171875,89.73080444335938,-0.0066144307454427086,0.6416666666666667,0.42,0.0017088996039496527,-2.955235140869142,-0.02197326953125156,29.706819534301758,0.07478535970052083,-0.09054785834418402
6031,-0.14746983846028647,0.19921878814697266,85.84378051757812,78.13111877441406,-3.2139244079589844,89.64897155761719,-0.0066144307454427086,0.6386666666666667,0.4157142857142857,0.0017394171820746527,-2.6586119108886734,-0.02197326953125156,29.706819534301758,0.0856962415907118,-0.08736551072862413
6032,-0.13965733846028647,0.17929691314697266,85.5164566040039,77.57875061035156,-3.2343826293945312,89.66943359375,-0.006841744316948784,0.6356666666666667,0.41285714285714287,0.0024718390570746527,-2.6915708952636734,0.7580339908599854,29.794710159301758,0.08819673326280382,-0.08782018025716146
6033,-0.13965733846028647,0.19921878814697266,85.49600219726562,78.45845031738281,-3.254840850830078,89.54668426513672,-0.0066144307454427086,0.6323333333333333,0.4085714285714286,0.0028990851508246527,-2.7355143004150406,1.7907180786132812,29.706819534301758,0.0781950208875868,-0.08668361239963107
6034,-0.15918858846028647,0.17929691314697266,85.90515899658203,78.72439575195312,-3.868579864501953,89.62850952148438,-0.006841744316948784,0.6296666666666667,0.4064285714285714,0.0034788343641493054,-2.790444033691408,2.58171010017395,29.706819534301758,0.07978625827365451,-0.09441210428873698
6035,-0.19825108846028647,0.19921878814697266,86.35523986816406,80.74974060058594,-4.216365814208984,90.0172119140625,-0.0066144307454427086,0.6253333333333333,0.4032142857142857,0.0024108039008246527,-3.240870135375978,2.1642420291900635,29.706819534301758,0.0622833251953125,-0.10259530809190538
6036,-0.20996983846028647,0.19921878814697266,86.21202850341797,79.66546630859375,-3.7662887573242188,90.03767395019531,-0.0066144307454427086,0.6206666666666667,0.4007142857142857,0.0032041761610243054,-4.174681323120119,0.5932440161705017,29.706819534301758,0.07273957994249132,-0.09782180786132813
6037,-0.20606358846028647,0.17929691314697266,86.19157409667969,79.78821563720703,-3.275299072265625,89.91493225097656,-0.006841744316948784,0.6153333333333333,0.39785714285714285,0.0036924574110243054,-4.658064501831056,-0.3076082640380875,29.706819534301758,0.07114842732747396,-0.09100257025824653
6038,-0.20606358846028647,0.17929691314697266,86.13019561767578,79.07218933105469,-2.518352508544922,90.83554077148438,-0.006841744316948784,0.611,0.39571428571428574,0.0027464972601996527,-5.152434008666994,-0.9887415343017594,29.706819534301758,0.07842229207356771,-0.09282103644476997
6039,-0.22559483846028647,0.15937503814697265,86.13019561767578,79.76776123046875,-2.1910247802734375,91.10148620605469,-0.0066144307454427086,0.6063333333333333,0.3925,0.0022582160101996527,-6.251034396240236,-1.505081790039064,29.706819534301758,0.07069371541341146,-0.09213901095920139
6040,-0.22559483846028647,0.15937503814697265,86.1097412109375,79.37905883789062,-0.8817138671875,90.95828247070312,-0.0066144307454427086,0.6013333333333334,0.39,0.0013121710883246527,-7.074984210083009,-1.9225508146972672,29.706819534301758,0.07478535970052083,-0.07599995930989584
6041,-0.26075108846028644,0.15937503814697265,84.39126586914062,77.78333282470703,-3.5617103576660156,90.73324584960938,-0.0066144307454427086,0.596,0.38642857142857145,-0.00164794921875,-7.437523501464845,-2.0983263426513687,29.706819534301758,0.07342147827148438,-0.10327729119194878
6042,-0.24512608846028647,0.15937503814697265,84.37080383300781,76.31035614013672,-3.643543243408203,90.95828247070312,-0.0066144307454427086,0.591,0.3842857142857143,-0.001953125,-7.734144824096681,-0.845923083374025,29.706819534301758,0.08956052992078993,-0.10668695237901475
6043,-0.24903233846028647,0.15937503814697265,84.43218231201172,77.55829620361328,-3.11163330078125,90.03767395019531,-0.006841744316948784,0.585,0.38107142857142856,-0.00250244140625,-7.690201418945314,1.032684087753296,29.706819534301758,0.0763765123155382,-0.09054785834418402
6044,-0.26075108846028644,0.17929691314697266,86.86668395996094,80.05416870117188,-2.8456802368164062,89.81263732910156,-0.0066144307454427086,0.5783333333333334,0.3792857142857143,-0.0029906378851996527,-6.833292620727541,2.285088062286377,29.706819534301758,0.07569461398654515,-0.08509241739908854
6045,-0.29200108846028644,0.17929691314697266,86.92805480957031,81.87493133544922,-3.6026268005371094,89.62850952148438,-0.006841744316948784,0.5726666666666667,0.37642857142857145,-0.0035094367133246527,-6.086245196411134,1.1205720901489258,29.706819534301758,0.05614581637912326,-0.09145707024468316
6046,-0.26856358846028644,0.19921878814697266,86.41661071777344,79.72684478759766,-3.3775863647460938,89.42393493652344,-0.0066144307454427086,0.5676666666666667,0.37392857142857144,-0.0029296027289496527,-5.383141177246095,-0.9777552061767594,29.794710159301758,0.07433073255750867,-0.0866835700141059
6047,-0.24903233846028647,0.17929691314697266,86.27340698242188,79.31768798828125,-2.9275131225585938,89.58760070800781,-0.006841744316948784,0.5636666666666666,0.37,-0.0028685675726996527,-4.669050829956056,-1.7907186918945328,29.794710159301758,0.0772857666015625,-0.08350126478407117
6048,-0.23340733846028647,0.17929691314697266,85.65966796875,77.61967468261719,-3.091175079345703,89.71034240722656,-0.006841744316948784,0.5603333333333333,0.36678571428571427,-0.0030211554633246527,-4.31749786669922,-1.8126913481445328,29.794710159301758,0.08933325873480903,-0.08668352762858073
6049,-0.22559483846028647,0.17929691314697266,85.61874389648438,78.02882385253906,-3.295757293701172,89.71034240722656,-0.006841744316948784,0.5573333333333333,0.36178571428571427,-0.003997717963324653,-4.119751589843752,-0.801977770874025,29.794710159301758,0.0843324449327257,-0.0889566633436415
6050,-0.22950108846028647,0.17929691314697266,85.65966796875,79.41996765136719,-2.2114830017089844,89.75126647949219,-0.006841744316948784,0.5543333333333333,0.3585714285714286,-0.005126868353949653,-4.108765261718752,-0.20873512561035312,29.706819534301758,0.0693300035264757,-0.07736388312445747
6051,-0.23731358846028647,0.17929691314697266,85.61874389648438,78.68348693847656,-2.252399444580078,89.6080551147461,-0.006841744316948784,0.5513333333333333,0.35428571428571426,-0.005676099989149305,-4.130736010620119,0.07690200209617615,29.706819534301758,0.07705841064453126,-0.07622727288140191
6052,-0.22950108846028647,0.17929691314697266,85.65966796875,78.56073760986328,-2.088733673095703,89.73080444335938,-0.0066144307454427086,0.5483333333333333,0.3510714285714286,-0.005371008978949653,-4.240597384521486,0.48338401317596436,29.706819534301758,0.07887700398763021,-0.07577264573838975
6053,-0.23340733846028647,0.17929691314697266,85.61874389648438,79.82913208007812,-1.8023223876953125,89.54668426513672,-0.006841744316948784,0.545,0.3464285714285714,-0.005340491400824653,-4.460316317626955,0.7800060510635376,29.794710159301758,0.06432902018229167,-0.07054451836480034
6054,-0.23731358846028647,0.17929691314697266,85.72103881835938,78.78577423095703,-1.3727035522460938,89.42393493652344,-0.0059324900309244795,0.541,0.3442857142857143,-0.005004798041449653,-4.559191363403322,0.747048020362854,29.794710159301758,0.0770584954155816,-0.06440709431966146
6055,-0.22559483846028647,0.17929691314697266,85.72103881835938,79.21539306640625,-1.0453758239746094,88.99431610107422,-0.0059324900309244795,0.537,0.3414285714285714,-0.0037840949164496527,-4.460316317626955,0.9557820558547974,29.794710159301758,0.07228495279947916,-0.05599657694498698
6056,-0.22950108846028647,0.17929691314697266,87.43951416015625,80.93386840820312,-1.0453758239746094,88.93293762207031,-0.0059324900309244795,0.5326666666666666,0.3392857142857143,-0.0029296027289496527,-4.35045685107422,1.0107120275497437,29.706819534301758,0.07228495279947916,-0.055314593844943576
6057,-0.24903233846028647,0.17929691314697266,86.49844360351562,79.84959411621094,-0.2679710388183594,88.52378845214844,-0.006159803602430555,0.5283333333333333,0.3364285714285714,-0.004089270697699653,-4.31749786669922,0.10986000299453735,29.706819534301758,0.07387610541449653,-0.042130661010742185
6058,-0.24903233846028647,0.19921878814697266,85.96653747558594,79.07218933105469,2.0233230590820312,87.93049621582031,-0.006159803602430555,0.5236666666666666,0.33464285714285713,-0.004669104682074653,-4.053835528442384,-0.6262022429199234,29.706819534301758,0.07660386827256944,-0.010079701741536459
6059,-0.23731358846028647,0.19921878814697266,85.88470458984375,78.43798828125,2.207447052001953,87.5213394165039,-0.006159803602430555,0.5186666666666667,0.3325,-0.004455481635199653,-3.218899386474611,-0.3845106535644547,29.706819534301758,0.08274129231770834,-0.0034876929389105905
6060,-0.24512608846028647,0.19921878814697266,86.0688247680664,80.4837875366211,1.8596611022949219,88.0737075805664,-0.0059324900309244795,0.515,0.33035714285714285,-0.005340491400824653,-2.7025572233886734,-0.03295769030761875,32.34352111816406,0.06205596923828125,-0.013489405314127604
6061,-0.26075108846028644,0.19921878814697266,87.15309143066406,80.79066467285156,2.3711090087890625,88.1146240234375,-0.0059324900309244795,0.511,0.32785714285714285,-0.006713697645399305,-2.790444033691408,-0.4394403868408219,36.0349006652832,0.07069363064236112,-0.008261277940538195
6062,-0.26465733846028644,0.19921878814697266,86.43707275390625,80.19737243652344,1.9210357666015625,87.76683807373047,-0.0059324900309244795,0.507,0.32607142857142857,-0.007507154676649305,-2.922276156494142,-1.4501520567626969,38.583709716796875,0.0693300035264757,-0.009397803412543402
6063,-0.25293858846028644,0.19921878814697266,85.94607543945312,78.21295166015625,-1.0453758239746094,87.68500518798828,-0.006159803602430555,0.503,0.3242857142857143,-0.007873365614149306,-2.7355143004150406,-1.6369139128417984,40.07783889770508,0.08592359754774305,-0.041448677910698783
6064,-0.24512608846028647,0.19921878814697266,85.96653747558594,78.13111877441406,-0.7385063171386719,88.0123291015625,-0.0059324900309244795,0.49866666666666665,0.32357142857142857,-0.008819325764973959,-2.537766116210939,-0.8678938322753922,41.13251876831055,0.08706020779079861,-0.04167594909667969
6065,-0.24903233846028647,0.19921878814697266,85.96653747558594,79.09264373779297,0.5298881530761719,88.13508605957031,-0.0059324900309244795,0.49566666666666664,0.3225,-0.010314687093098959,-2.6146685057373062,0.02197200059890747,41.83563995361328,0.07637659708658855,-0.02894664340549045
6066,-0.27246983846028644,0.219140682220459,86.17111206054688,80.27920532226562,1.4300422668457031,87.91004180908203,-0.006159803602430555,0.49133333333333334,0.3221428571428571,-0.01202358669704861,-2.812416689941408,0.4614120125770569,42.362979888916016,0.06546563042534723,-0.016444439358181424
6067,-0.28418858846028644,0.219140682220459,86.13019561767578,80.34058380126953,1.7164535522460938,87.09172058105469,-0.0059324900309244795,0.48633333333333334,0.3217857142857143,-0.01327480740017361,-2.7355143004150406,-0.16478981311035312,42.362979888916016,0.06432902018229167,-0.00416963365342882
6068,-0.25684483846028644,0.219140682220459,86.39614868164062,80.70883178710938,1.3072929382324219,86.6007308959961,-0.0059324900309244795,0.4826666666666667,0.3217857142857143,-0.01232876247829861,-1.9225508146972672,-1.2304331236572281,42.71453857421875,0.06319240993923611,-0.0032604217529296877
6069,-0.22950108846028647,0.219140682220459,85.90515899658203,78.43798828125,0.8163032531738281,86.98943328857422,-0.006159803602430555,0.4786666666666667,0.32107142857142856,-0.010925038655598959,-0.9338098936767594,-1.527054446289064,42.97821044921875,0.08296856350368924,-0.013034778171115452
6070,-0.22559483846028647,0.219140682220459,85.78240966796875,78.58119201660156,0.6117210388183594,87.35768127441406,-0.0059324900309244795,0.47533333333333333,0.32035714285714284,-0.01229824490017361,-0.5712725096435562,-0.5053564482421891,43.153987884521484,0.08001352945963541,-0.01939955817328559
6071,-0.25293858846028644,0.239062557220459,85.72103881835938,79.07218933105469,-0.4725532531738281,88.25782775878906,-0.0066144307454427086,0.474,0.31785714285714284,-0.015502505832248263,-0.7250772886962906,0.16479000449180603,43.68132781982422,0.07387610541449653,-0.041448677910698783
6072,-0.26465733846028644,0.25898443222045897,85.70057678222656,79.3995132446289,-0.8612556457519531,88.89202880859375,-0.006841744316948784,0.4706666666666667,0.3167857142857143,-0.017791239420572917,-1.7138163023681656,0.23070600628852844,44.12078094482422,0.0700118170844184,-0.05281427171495226
6073,-0.27246983846028644,0.25898443222045897,85.74149322509766,78.84715270996094,-0.4316368103027344,88.40103149414062,-0.006159803602430555,0.4676666666666667,0.3157142857142857,-0.018126932779947917,-2.823403018066408,-0.07690300280761875,44.56023025512695,0.0766037835015191,-0.042585203382703996
6074,-0.26856358846028644,0.239062557220459,84.84133911132812,77.70149993896484,0.9390487670898438,86.78485107421875,-0.0059324900309244795,0.4653333333333333,0.3157142857142857,-0.01660109625922309,-2.7135435515136734,0.2746500074863434,44.64812088012695,0.07933154635959201,-0.009397803412543402
6075,-0.25293858846028644,0.239062557220459,85.18913269042969,77.9469985961914,0.5094337463378906,86.78485107421875,-0.006159803602430555,0.4613333333333333,0.31642857142857145,-0.015288882785373263,-1.4831110411376969,1.494096040725708,44.64812088012695,0.08046815660264757,-0.01417130364312066
6076,-0.26856358846028644,0.25898443222045897,87.29630279541016,80.81111145019531,0.40714263916015625,87.19401550292969,-0.0059324900309244795,0.4593333333333333,0.31607142857142856,-0.015746646457248263,-0.6481748991699234,2.0983259677886963,44.64812088012695,0.07205768161349826,-0.01985414293077257
6077,-0.28809483846028644,0.2789063262939453,86.43707275390625,80.25875091552734,0.12073135375976562,87.5213394165039,-0.006159803602430555,0.4553333333333333,0.31535714285714284,-0.01672316657172309,-0.4504267149658219,1.06564199924469,44.56023025512695,0.0686480204264323,-0.02667342291937934
6078,-0.27637608846028644,0.2789063262939453,85.39370727539062,77.9879150390625,0.24347686767578125,87.13264465332031,-0.006159803602430555,0.453,0.31464285714285717,-0.015441470675998263,-0.5932451658935562,0.24169200658798218,44.38444900512695,0.08228658040364584,-0.020990753173828126
6079,-0.25684483846028644,0.25898443222045897,85.557373046875,77.90608215332031,-0.0224761962890625,87.43951416015625,-0.0059324900309244795,0.45066666666666666,0.31392857142857145,-0.01226772732204861,-0.2746511870117203,0.5493000149726868,45.966468811035156,0.08501434326171875,-0.027355448404947916
6080,-0.26856358846028644,0.239062557220459,86.04837036132812,79.62455749511719,-1.0044593811035156,88.23736572265625,-0.006841744316948784,0.4493333333333333,0.3132142857142857,-0.01144375271267361,-0.12084640795898594,1.2084600925445557,46.318031311035156,0.07137569851345486,-0.047131390041775176
6081,-0.28028233846028644,0.25898443222045897,86.92805480957031,81.62944030761719,-0.9840011596679688,88.0123291015625,-0.006159803602430555,0.44666666666666666,0.31285714285714283,-0.01370205349392361,-0.7031046324462906,0.9667680263519287,47.109039306640625,0.058873494466145836,-0.04440366956922743
6082,-0.29200108846028644,0.2789063262939453,86.41661071777344,80.545166015625,-1.1681251525878906,88.23736572265625,-0.006841744316948784,0.444,0.3132142857142857,-0.015105777316623263,-1.2524038725585953,-0.4723993712158219,47.72426986694336,0.06523827446831597,-0.04894989861382378
6083,-0.28418858846028644,0.25898443222045897,85.76194763183594,78.70394134521484,-1.5772857666015625,88.68744659423828,-0.006841744316948784,0.44066666666666665,0.31357142857142856,-0.01361050075954861,-1.8895918303222672,-1.2084604674072281,47.81216049194336,0.07842229207356771,-0.05849702623155382
6084,-0.26075108846028644,0.25898443222045897,83.81844329833984,76.20806884765625,-1.7000312805175781,88.87156677246094,-0.006841744316948784,0.437,0.3142857142857143,-0.01168789333767361,-2.7355143004150406,-0.3625379973144547,47.81216049194336,0.0845597161187066,-0.06190664503309462
6085,-0.26075108846028644,0.239062557220459,86.64164733886719,79.13356018066406,-1.4749946594238281,88.40103149414062,-0.006159803602430555,0.43366666666666664,0.31535714285714284,-0.010558827718098959,-3.493548052856447,1.3842360973358154,46.054359436035156,0.0834231906467014,-0.05417806837293837
6086,-0.28809483846028644,0.25898443222045897,88.29874420166016,82.79554748535156,-1.1885833740234375,87.78729248046875,-0.0059324900309244795,0.42866666666666664,0.31607142857142856,-0.01165737575954861,-3.526507037231447,1.0986000299453735,44.99967956542969,0.0611466301812066,-0.04417639838324653
6087,-0.29200108846028644,0.25898443222045897,87.74638366699219,80.72928619384766,-0.6362152099609375,87.27584838867188,-0.0059324900309244795,0.42433333333333334,0.31785714285714284,-0.01303066677517361,-3.0321375303955094,-1.3293062620849625,44.56023025512695,0.0779677497016059,-0.03235626220703125
6088,-0.27246983846028644,0.25898443222045897,84.47309875488281,77.37417602539062,-0.6157569885253906,87.0098876953125,-0.006159803602430555,0.4186666666666667,0.31857142857142856,-0.01208462185329861,-2.263117449829103,-2.252131121704103,43.68132781982422,0.07887691921657985,-0.029173829820421007
6089,-0.26856358846028644,0.239062557220459,85.12775421142578,77.21051025390625,-1.0862922668457031,87.27584838867188,-0.0066144307454427086,0.41533333333333333,0.31857142857142856,-0.01269497341579861,-1.4611383848876969,-0.823950427124025,43.241878509521484,0.08796937730577258,-0.03735711839463976
6090,-0.28809483846028644,0.25898443222045897,86.17111206054688,79.80867004394531,-1.4545364379882812,88.17599487304688,-0.006841744316948784,0.411,0.31785714285714284,-0.01611281500922309,-1.6918455534667984,0.373524010181427,43.241878509521484,0.07069380018446181,-0.051450347900390624
6091,-0.31153233846028644,0.2789063262939453,86.23248291015625,80.58607482910156,-1.2704124450683594,87.88958740234375,-0.006387117173936632,0.4073333333333333,0.3171428571428571,-0.018920389811197917,-2.3619905882568375,-0.21972145373535312,43.241878509521484,0.0627378675672743,-0.046222220526801215
6092,-0.30371983846028644,0.2789063262939453,86.21202850341797,78.92898559570312,-1.1681251525878906,87.45996856689453,-0.0059324900309244795,0.4036666666666667,0.3171428571428571,-0.018004862467447917,-2.2850881987304703,-0.9557825499267594,44.38444900512695,0.08092269897460938,-0.04031215243869358
6093,-0.28809483846028644,0.25898443222045897,86.08927917480469,79.17447662353516,-1.7000312805175781,88.1555404663086,-0.006841744316948784,0.4,0.3171428571428571,-0.01678420172797309,-1.8456484251709,-0.6591612272949234,44.99967956542969,0.07683113945855034,-0.053950797186957465
6094,-0.29590733846028644,0.25898443222045897,86.15065002441406,79.23585510253906,-1.5159111022949219,88.09416198730469,-0.006159803602430555,0.396,0.3171428571428571,-0.017699686686197917,-2.3400179320068375,-0.03295769030761875,44.99967956542969,0.0768310546875,-0.051223034328884545
6095,-0.32715733846028644,0.2789063262939453,86.23248291015625,80.36103820800781,-1.4136199951171875,87.58271789550781,-0.0059324900309244795,0.39166666666666666,0.3171428571428571,-0.020263120863172744,-2.6036821776123062,-0.4174677305908219,44.99967956542969,0.06523827446831597,-0.044403754340277775
6096,-0.34278233846028644,0.2789063262939453,86.08927917480469,78.86760711669922,-1.5772857666015625,87.95095825195312,-0.006841744316948784,0.3883333333333333,0.31785714285714284,-0.022063573201497395,-2.3510042601318375,-0.9557825499267594,44.91178894042969,0.08024080064561633,-0.05031382242838542
6097,-0.35840733846028644,0.25898443222045897,84.80043029785156,79.0312728881836,-1.4340782165527344,87.66455078125,-0.006159803602430555,0.38366666666666666,0.31857142857142856,-0.023070653279622395,-2.6256548338623062,-1.2853628569335953,44.99967956542969,0.06410174899631077,-0.04554032219780816
6098,-0.33106358846028644,0.25898443222045897,84.88226318359375,77.10821533203125,-0.718048095703125,87.0098876953125,-0.0059324900309244795,0.379,0.3192857142857143,-0.022979100545247395,-2.2960745268554703,-1.0107122832031266,44.99967956542969,0.08637830946180555,-0.03031039767795139
6099,-0.32325108846028644,0.2789063262939453,84.98455047607422,77.16959381103516,-1.0862922668457031,87.48042297363281,-0.007069057888454861,0.37533333333333335,0.32071428571428573,-0.02368096245659722,-1.6369139128417984,-0.16478981311035312,46.054359436035156,0.08683285183376736,-0.03963016933865017
6100,-0.33496983846028644,0.2789063262939453,85.65966796875,79.4404296875,-0.8407974243164062,87.93049621582031,-0.0059324900309244795,0.37133333333333335,0.32071428571428573,-0.02526783413357205,-1.6039568358154312,0.6152160167694092,46.318031311035156,0.06910264756944444,-0.04190326266818577
6101,-0.34668858846028644,0.2789063262939453,86.78485107421875,81.30210876464844,-1.1272087097167969,87.19401550292969,-0.0059324900309244795,0.36833333333333335,0.32071428571428573,-0.026610565185546876,-1.505081790039064,0.373524010181427,44.38444900512695,0.06091935899522569,-0.0369024912516276
6102,-0.33887608846028644,0.29882820129394533,86.1097412109375,78.84715270996094,-0.9226264953613281,87.72592163085938,-0.0059324900309244795,0.36466666666666664,0.32035714285714284,-0.027281951904296876,-1.2524038725585953,-0.9008528166503922,44.29655838012695,0.08069542778862847,-0.04053942362467448
6103,-0.31934483846028644,0.2789063262939453,85.82332611083984,77.92654418945312,-1.2294998168945312,87.76683807373047,-0.0059324900309244795,0.36233333333333334,0.3196428571428571,-0.02545093960232205,-1.164517062255861,-1.0326849394531266,44.64812088012695,0.08774202134874132,-0.044403754340277775
6104,-0.31543858846028644,0.25898443222045897,85.43462371826172,77.49691772460938,-1.2294998168945312,87.80775451660156,-0.006841744316948784,0.35933333333333334,0.3196428571428571,-0.02386406792534722,-1.0876146727294937,-0.02197326953125156,45.70280075073242,0.08819673326280382,-0.04485838148328993
6105,-0.31934483846028644,0.2789063262939453,85.63920593261719,78.68348693847656,-1.8432388305664062,88.42149353027344,-0.006841744316948784,0.3566666666666667,0.31857142857142856,-0.02490162319607205,-1.4391657286376969,1.0766279697418213,45.79069137573242,0.0772857666015625,-0.05849702623155382
6106,-0.34668858846028644,0.2789063262939453,85.98699188232422,80.21783447265625,-2.10919189453125,88.95339965820312,-0.006841744316948784,0.354,0.31857142857142856,-0.027312469482421876,-2.1312853270263687,1.0876140594482422,45.79069137573242,0.06410174899631077,-0.06736212836371527
6107,-0.36621983846028644,0.2789063262939453,86.04837036132812,79.50180053710938,-1.8432388305664062,88.6056137084961,-0.006159803602430555,0.35,0.31857142857142856,-0.027922778659396703,-3.0650946074218766,0.6481740474700928,45.79069137573242,0.07273966471354167,-0.06054280598958333
6108,-0.36231358846028644,0.2789063262939453,85.96653747558594,78.09020233154297,0.059356689453125,87.0712661743164,-0.0059324900309244795,0.346,0.3196428571428571,-0.02581715053982205,-2.966221468994142,0.4614120125770569,45.79069137573242,0.08751483493381076,-0.022354549831814237
6109,-0.34278233846028644,0.2789063262939453,85.94607543945312,78.51982116699219,-0.22705459594726562,87.13264465332031,-0.006159803602430555,0.3423333333333333,0.32107142857142856,-0.02389458550347222,-1.7797323637695328,1.2414180040359497,45.79069137573242,0.08251393636067708,-0.026218880547417535
6110,-0.34668858846028644,0.2789063262939453,85.92561340332031,79.93142700195312,-0.7385063171386719,87.76683807373047,-0.0066144307454427086,0.3383333333333333,0.32142857142857145,-0.02398613823784722,-1.2084604674072281,1.3732500076293945,45.70280075073242,0.06660207112630208,-0.038948271009657115
6111,-0.37403233846028644,0.2789063262939453,85.98699188232422,80.38150024414062,-0.6157569885253906,88.03279113769531,-0.006159803602430555,0.335,0.32142857142857145,-0.02355889214409722,-1.3402925902099625,0.9777539968490601,44.56023025512695,0.06228324042426215,-0.04053942362467448
6112,-0.35840733846028644,0.2789063262939453,85.88470458984375,78.56073760986328,-0.3498039245605469,87.31675720214844,-0.006159803602430555,0.331,0.32142857142857145,-0.022582372029622395,-1.5819841795654312,0.4614120125770569,44.38444900512695,0.08137741088867187,-0.02962845696343316
6113,-0.36231358846028644,0.25898443222045897,85.86424255371094,77.8856201171875,-0.3907203674316406,87.62362670898438,-0.006159803602430555,0.3283333333333333,0.3221428571428571,-0.02151429918077257,-1.2633902006835953,0.3076080083847046,46.054359436035156,0.08865136040581598,-0.03349274529351128
6114,-0.37793858846028644,0.239062557220459,85.84378051757812,80.01325988769531,-0.5134696960449219,87.88958740234375,-0.006841744316948784,0.326,0.3221428571428571,-0.020049497816297744,-0.9997259550781266,0.9557820558547974,46.40591812133789,0.06478356255425347,-0.03781174553765191
6115,-0.38575108846028644,0.25898443222045897,86.88714599609375,81.5066909790039,-1.2499542236328125,88.33966064453125,-0.0066144307454427086,0.32233333333333336,0.3221428571428571,-0.02090394761827257,-1.3073355131835953,1.263390064239502,46.58169937133789,0.05978283352322049,-0.050995720757378474
6116,-0.39356358846028644,0.2789063262939453,86.80531311035156,80.4837875366211,-1.8023223876953125,88.58515930175781,-0.006841744316948784,0.31866666666666665,0.3225,-0.022795995076497395,-2.153256075927736,0.5602860450744629,46.66958999633789,0.07023917304144965,-0.059860907660590275
6117,-0.40918858846028644,0.2789063262939453,84.90271759033203,77.64012145996094,-0.8612556457519531,87.50088500976562,-0.006159803602430555,0.316,0.3242857142857143,-0.022612889607747395,-2.515795367309572,-0.15380539233398594,47.81216049194336,0.08069551255967881,-0.03735711839463976
6118,-0.39356358846028644,0.25898443222045897,85.455078125,78.13111877441406,-1.2704124450683594,87.78729248046875,-0.0066144307454427086,0.31266666666666665,0.32571428571428573,-0.02117860582139757,-1.8895918303222672,0.41746801137924194,47.81216049194336,0.08137732611762152,-0.04508561028374566
6119,-0.36621983846028644,0.25898443222045897,85.53691101074219,78.90852355957031,-1.3931617736816406,87.88958740234375,-0.0059324900309244795,0.30833333333333335,0.3271428571428571,-0.019835874769422744,-1.8786074095459,0.7031040191650391,46.318031311035156,0.07364874945746527,-0.04758610195583767
6120,-0.35450108846028644,0.2789063262939453,86.29386138916016,80.05416870117188,-1.3727035522460938,87.99187469482422,-0.006841744316948784,0.30433333333333334,0.3275,-0.019286558363172744,-1.9335371428222672,1.0766279697418213,46.142250061035156,0.06932991875542535,-0.048495313856336805
6121,-0.36621983846028644,0.2789063262939453,86.78485107421875,81.15890502929688,-2.088733673095703,88.85111236572266,-0.0066144307454427086,0.301,0.3275,-0.02038514879014757,-2.3949495726318375,0.6481740474700928,45.79069137573242,0.06251051161024306,-0.06599828932020399
6122,-0.36621983846028644,0.2789063262939453,85.20958709716797,78.9494400024414,-1.5363693237304688,88.70790100097656,-0.006841744316948784,0.29733333333333334,0.3271428571428571,-0.020110532972547744,-3.185940402099611,-0.7031046324462906,44.29655838012695,0.06955718994140625,-0.05826967027452257
6123,-0.35450108846028644,0.25898443222045897,85.455078125,77.55829620361328,-1.8023223876953125,88.25782775878906,-0.0066144307454427086,0.293,0.3267857142857143,-0.017730204264322917,-3.3946749144287125,-0.6152159147949234,43.68132781982422,0.08774202134874132,-0.056223890516493055
6124,-0.37403233846028644,0.239062557220459,86.96897888183594,80.07463073730469,-1.2499542236328125,88.0737075805664,-0.0059324900309244795,0.28833333333333333,0.3267857142857143,-0.01739455329047309,-3.262842791625978,0.36253800988197327,42.89031982421875,0.07660386827256944,-0.048040686713324655
6125,-0.39746983846028644,0.25898443222045897,87.41905212402344,82.14088439941406,-0.08385086059570312,87.0098876953125,-0.0059324900309244795,0.2846666666666667,0.3267857142857143,-0.019530698988172744,-2.834389346191408,-0.5273291044921891,42.275089263916016,0.058646308051215276,-0.023263761732313367
6126,-0.37793858846028644,0.2789063262939453,87.13264465332031,80.44287109375,0.10027313232421875,86.6007308959961,-0.0059324900309244795,0.2803333333333333,0.3267857142857143,-0.02053773668077257,-1.6369139128417984,-1.9664942198486344,42.275089263916016,0.07433081732855903,-0.0166717529296875
6127,-0.41309483846028644,0.25898443222045897,85.57783508300781,78.33570098876953,-0.37026214599609375,88.27828979492188,-0.0066144307454427086,0.277,0.32607142857142857,-0.02175843980577257,-1.0216986113281266,-2.3290335112304703,42.538761138916016,0.08046815660264757,-0.04053946601019965
6128,-0.38184483846028644,0.25898443222045897,85.90515899658203,78.60165405273438,0.3866844177246094,87.50088500976562,-0.0059324900309244795,0.27266666666666667,0.32535714285714284,-0.02365044487847222,-1.6698728972167984,-1.2853628569335953,44.82389831542969,0.08115005493164062,-0.02349111768934462
6129,-0.41700108846028644,0.2789063262939453,85.86424255371094,78.62211608886719,0.2025604248046875,87.80775451660156,-0.006841744316948784,0.27,0.32571428571428573,-0.027190399169921876,-1.6259294920654312,-0.5822588377685562,45.79069137573242,0.08046807183159722,-0.02894660101996528
6130,-0.43653233846028644,0.2789063262939453,85.70057678222656,78.72439575195312,0.1411895751953125,87.80775451660156,-0.006841744316948784,0.2663333333333333,0.32607142857142857,-0.029753790961371526,-1.6918455534667984,-0.7909933500976578,46.054359436035156,0.07751312255859374,-0.029628499348958334
6131,-0.39746983846028644,0.2789063262939453,85.61874389648438,77.9469985961914,-0.14522552490234375,87.95095825195312,-0.006841744316948784,0.26266666666666666,0.3264285714285714,-0.028197436862521703,-1.9884668760986344,-0.3954969816894547,46.054359436035156,0.08524161444769965,-0.03440204196506076
6132,-0.40918858846028644,0.25898443222045897,85.557373046875,77.96745300292969,-0.16568374633789062,88.48286437988281,-0.0066144307454427086,0.25933333333333336,0.3267857142857143,-0.026915740966796876,-2.515795367309572,0.5053560137748718,46.054359436035156,0.0843324449327257,-0.04053942362467448
6133,-0.41309483846028644,0.25898443222045897,85.63920593261719,77.96745300292969,-0.14522552490234375,87.64408874511719,-0.006159803602430555,0.256,0.32785714285714285,-0.026183319091796876,-2.504809039184572,1.3842360973358154,46.142250061035156,0.08524169921875,-0.03099238077799479
6134,-0.40528233846028644,0.2789063262939453,85.65966796875,78.56073760986328,-0.16568374633789062,87.78729248046875,-0.0066144307454427086,0.252,0.32821428571428574,-0.026152801513671876,-2.164242404052736,1.8786060810089111,46.142250061035156,0.07887700398763021,-0.03281084696451823
6135,-0.43262608846028644,0.2789063262939453,85.74149322509766,78.82669067382812,-0.042934417724609375,87.72592163085938,-0.0059324900309244795,0.24833333333333332,0.3289285714285714,-0.02560352749294705,-1.9884668760986344,2.285088062286377,44.99967956542969,0.07683113945855034,-0.030765067206488715
6136,-0.43653233846028644,0.2789063262939453,85.74149322509766,78.70394134521484,-0.12476730346679688,87.70545959472656,-0.0059324900309244795,0.24466666666666667,0.3292857142857143,-0.02392510308159722,-1.8895918303222672,1.7028300762176514,44.82389831542969,0.0781950208875868,-0.03144696553548177
6137,-0.45606358846028644,0.25898443222045897,85.63920593261719,77.66058349609375,-0.37026214599609375,87.78729248046875,-0.006841744316948784,0.24066666666666667,0.33,-0.021849950154622395,-1.8346620970459,1.252403974533081,44.64812088012695,0.08865136040581598,-0.03508394029405382
6138,-0.43653233846028644,0.239062557220459,85.5982894897461,78.17203521728516,-0.18613815307617188,87.41905212402344,-0.0059324900309244795,0.23666666666666666,0.33071428571428574,-0.019225523206922744,-1.9884668760986344,1.6149420738220215,45.70280075073242,0.08251393636067708,-0.028946558634440105
6139,-0.45606358846028644,0.239062557220459,85.65966796875,79.50180053710938,-0.3498039245605469,87.72592163085938,-0.0066144307454427086,0.23333333333333334,0.33107142857142857,-0.01748610602484809,-1.8126913481445328,1.9335360527038574,46.318031311035156,0.06842074924045138,-0.03417472839355469
6140,-0.44434483846028644,0.25898443222045897,86.25294494628906,80.50424194335938,-0.28842926025390625,87.74638366699219,-0.0059324900309244795,0.23066666666666666,0.33214285714285713,-0.01687575446234809,-1.6479002409667984,1.6039559841156006,46.318031311035156,0.06387447781032986,-0.033720143636067706
6141,-0.43262608846028644,0.25898443222045897,86.88714599609375,81.22027587890625,-0.28842926025390625,87.50088500976562,-0.005705218844943577,0.227,0.3325,-0.01620436774359809,-1.5819841795654312,0.6371880173683167,46.318031311035156,0.06296522352430556,-0.03099238077799479
6142,-0.45606358846028644,0.239062557220459,87.1121826171875,81.64989471435547,-0.493011474609375,87.84866333007812,-0.0066144307454427086,0.224,0.33285714285714285,-0.015166812472873263,-1.2414194517822281,-0.7909933500976578,46.318031311035156,0.060692087809244795,-0.037129720052083336
6143,-0.44434483846028644,0.239062557220459,87.1121826171875,80.21783447265625,-0.493011474609375,88.03279113769531,-0.006387117173936632,0.222,0.3325,-0.015197330050998263,-1.3512789183349625,-1.7357889586181656,45.966468811035156,0.07660386827256944,-0.03917558458116319
6144,-0.43262608846028644,0.239062557220459,86.98943328857422,80.05416870117188,-0.5748405456542969,87.54179382324219,-0.0066144307454427086,0.21766666666666667,0.33285714285714285,-0.01663161383734809,-1.4391657286376969,-2.537766116210939,45.70280075073242,0.0770584954155816,-0.034629270765516494
6145,-0.42871983846028644,0.219140682220459,86.72348022460938,78.90852355957031,-0.9840011596679688,88.68744659423828,-0.0066144307454427086,0.21533333333333332,0.3325,-0.01666213141547309,-1.6479002409667984,-2.6695982390136734,45.52701950073242,0.08683285183376736,-0.05190497504340278
6146,-0.42090733846028644,0.219140682220459,86.5188980102539,79.15402221679688,-1.331787109375,88.81019592285156,-0.006387117173936632,0.21266666666666667,0.33214285714285713,-0.018432108561197917,-2.4388929777832047,-1.7687460356445328,45.52701950073242,0.08183195326063368,-0.05713314480251736
6147,-0.44825108846028644,0.219140682220459,85.88470458984375,78.68348693847656,-1.4136199951171875,88.97386169433594,-0.006841744316948784,0.21,0.33285714285714285,-0.02069032457139757,-3.273829119750978,-1.131558077880861,45.52701950073242,0.08001352945963541,-0.059860907660590275
6148,-0.41309483846028644,0.239062557220459,85.33233642578125,78.00836944580078,-1.3113288879394531,88.70790100097656,-0.0066144307454427086,0.20566666666666666,0.33321428571428574,-0.023131688435872395,-3.91101707751465,-0.812964098999025,45.52701950073242,0.08137741088867187,-0.05576922098795573
6149,-0.41700108846028644,0.239062557220459,84.57539367675781,76.71951293945312,-1.0658340454101562,88.19645690917969,-0.0066144307454427086,0.20033333333333334,0.3335714285714286,-0.02423027886284722,-3.834114687988283,-0.2526785307617203,45.43912887573242,0.08728756374782987,-0.0473587883843316
6150,-0.44434483846028644,0.239062557220459,85.16867065429688,78.25386810302734,-0.6975898742675781,87.37813568115234,-0.0066144307454427086,0.19666666666666666,0.3342857142857143,-0.02432183159722222,-3.2957998686523453,1.340291976928711,43.153987884521484,0.07683113945855034,-0.03417472839355469
6151,-0.45606358846028644,0.239062557220459,85.31187438964844,78.33570098876953,-0.7589645385742188,87.82821655273438,-0.0066144307454427086,0.192,0.3342857142857143,-0.02377251519097222,-3.0980535917968766,2.3400180339813232,42.97821044921875,0.0775130377875434,-0.039857567681206595
6152,-0.46778233846028644,0.239062557220459,85.35279846191406,77.74241638183594,-0.3907203674316406,87.58271789550781,-0.006159803602430555,0.18666666666666668,0.33464285714285713,-0.022704442342122395,-3.3397451811523453,3.6583380699157715,42.89031982421875,0.08455980088975694,-0.03303820292154948
6153,-0.45996983846028644,0.25898443222045897,90.30363464355469,82.57050323486328,-0.08385086059570312,86.58027648925781,-0.0059324900309244795,0.183,0.335,-0.019591734144422744,-2.6146685057373062,3.4386181831359863,43.153987884521484,0.08592368231879341,-0.018490303887261285
6154,-0.39356358846028644,0.25898443222045897,89.19889831542969,83.49111938476562,-0.22705459594726562,87.05081176757812,-0.0059324900309244795,0.17866666666666667,0.335,-0.01614333258734809,-1.7028299742431656,0.2856360077857971,44.12078094482422,0.06341976589626735,-0.025309626261393228
6155,-0.42871983846028644,0.239062557220459,83.90027618408203,76.76043701171875,-1.10675048828125,88.54424285888672,-0.006841744316948784,0.174,0.3342857142857143,-0.015380435519748263,-1.4391657286376969,-1.1974741392822281,44.12078094482422,0.07933154635959201,-0.051677703857421875
6156,-0.45606358846028644,0.239062557220459,87.35768127441406,74.79646301269531,-0.9635429382324219,88.54424285888672,-0.0066144307454427086,0.171,0.3335714285714286,-0.01739455329047309,-2.0983263426513687,-0.17577614123535312,44.29655838012695,0.139569091796875,-0.05008650885687934
6157,-0.45215733846028644,0.239062557220459,88.38057708740234,82.71371459960938,-0.5952987670898438,87.37813568115234,-0.0059324900309244795,0.168,0.33321428571428574,-0.018737284342447917,-2.559738772460939,-1.2414194517822281,44.29655838012695,0.06296513875325521,-0.033038160536024305
6158,-0.46387608846028644,0.219140682220459,83.53202819824219,78.62211608886719,-0.5952987670898438,87.82821655273438,-0.0066144307454427086,0.16466666666666666,0.33321428571428574,-0.017760721842447917,-2.252131121704103,-2.6036821776123062,44.29655838012695,0.054554578993055554,-0.03803905910915799
6159,-0.46778233846028644,0.19921878814697266,82.42729949951172,74.73509216308594,-0.493011474609375,87.82821655273438,-0.006159803602430555,0.161,0.3335714285714286,-0.018249003092447917,-2.4059339934082047,-0.2526785307617203,44.29655838012695,0.0854689704047309,-0.036902533637152776
6160,-0.48731358846028644,0.219140682220459,89.17843627929688,77.64012145996094,0.07981491088867188,86.94851684570312,-0.0059324900309244795,0.15733333333333333,0.3339285714285714,-0.019957945081922744,-2.3400179320068375,2.3839621543884277,44.29655838012695,0.12820349799262154,-0.020763354831271702
6161,-0.49121983846028644,0.219140682220459,86.84622192382812,79.8905029296875,-0.08385086059570312,87.19401550292969,-0.006159803602430555,0.15366666666666667,0.3342857142857143,-0.018615214029947917,-1.6259294920654312,1.5600121021270752,44.29655838012695,0.0772857666015625,-0.025309626261393228
6162,-0.45215733846028644,0.219140682220459,87.17355346679688,76.4740219116211,-0.08385086059570312,87.19401550292969,-0.0059324900309244795,0.151,0.3342857142857143,-0.015746646457248263,-1.2524038725585953,1.9994521141052246,44.12078094482422,0.11888368394639758,-0.025309626261393228
6163,-0.46387608846028644,0.219140682220459,89.79217529296875,84.39126586914062,-0.45209503173828125,88.13508605957031,-0.006841744316948784,0.14733333333333334,0.3342857142857143,-0.015197330050998263,-1.0546575957031266,0.6152160167694092,44.12078094482422,0.06001010470920139,-0.039857567681206595
6164,-0.45606358846028644,0.219140682220459,85.25050354003906,78.49935913085938,-0.329345703125,88.27828979492188,-0.006387117173936632,0.14433333333333334,0.33321428571428574,-0.015380435519748263,-1.5929705076904312,-1.8346620970459,44.12078094482422,0.07501271565755209,-0.0400848388671875
6165,-0.5029385884602865,0.19921878814697266,83.79798889160156,76.73997497558594,-0.2679710388183594,88.36012268066406,-0.0066144307454427086,0.14166666666666666,0.33285714285714285,-0.015716128879123263,-2.0214239531250016,-1.2304331236572281,44.29655838012695,0.07842237684461806,-0.04031215243869358
6166,-0.48340733846028644,0.19921878814697266,84.22760009765625,75.69661712646484,-0.16568374633789062,87.86912536621094,-0.0059324900309244795,0.13766666666666666,0.33285714285714285,-0.01620436774359809,-2.482836382934572,1.7467740774154663,44.29655838012695,0.09478869967990451,-0.033720101250542533
6167,-0.5068448384602865,0.219140682220459,87.05081176757812,81.87493133544922,-0.20659637451171875,87.54179382324219,-0.0059324900309244795,0.13366666666666666,0.33321428571428574,-0.015716128879123263,-2.570725100585939,3.0211501121520996,44.12078094482422,0.05750978257921007,-0.03053766886393229
6168,-0.5263760884602865,0.219140682220459,88.78973388671875,83.34790802001953,-0.08385086059570312,87.58271789550781,-0.0059324900309244795,0.129,0.3339285714285714,-0.01263393825954861,-2.504809039184572,1.5050820112228394,44.12078094482422,0.060464731852213544,-0.029628541734483507
6169,-0.45996983846028644,0.19921878814697266,86.0074462890625,80.91340637207031,-0.002017974853515625,87.41905212402344,-0.006159803602430555,0.12566666666666668,0.33464285714285713,-0.009277089436848959,-2.493822711059572,-1.5709978514404312,44.12078094482422,0.05660044352213542,-0.02690077887641059
6170,-0.47950108846028644,0.15937503814697265,86.53935241699219,80.83157348632812,0.9390487670898438,86.31431579589844,-0.0059324900309244795,0.12066666666666667,0.33535714285714285,-0.008666737874348959,-2.0104395323486344,-2.4279066496582047,44.38444900512695,0.06341976589626735,-0.00416963365342882
6171,-0.45215733846028644,0.17929691314697266,86.5188980102539,81.13844299316406,0.24347686767578125,87.15309143066406,-0.006841744316948784,0.117,0.3357142857142857,-0.01205410427517361,-0.9667688780517594,-2.922276156494142,44.29655838012695,0.05978283352322049,-0.02121793958875868
6172,-0.46387608846028644,0.19921878814697266,82.91828918457031,75.02149963378906,-0.4111785888671875,89.03523254394531,-0.0066144307454427086,0.114,0.33464285714285713,-0.018493143717447917,-1.516068118164064,-2.7245279722900406,44.29655838012695,0.08774210611979166,-0.04940456814236111
6173,-0.47168858846028644,0.19921878814697266,84.92317199707031,76.37173461914062,0.3662261962890625,87.70545959472656,-0.0059324900309244795,0.11066666666666666,0.3342857142857143,-0.02072084214952257,-2.5926958494873062,-1.2633902006835953,44.29655838012695,0.09501597086588541,-0.02599148220486111
6174,-0.47168858846028644,0.19921878814697266,81.64989471435547,72.70974731445312,-0.08385086059570312,87.62362670898438,-0.0066144307454427086,0.10733333333333334,0.33464285714285713,-0.02123964097764757,-2.208185809204103,0.4064820110797882,44.29655838012695,0.09933497111002604,-0.030083084106445314
6175,-0.5068448384602865,0.219140682220459,90.71278381347656,85.27096557617188,-0.20659637451171875,87.74638366699219,-0.0066144307454427086,0.104,0.335,-0.023162206013997395,-1.8895918303222672,1.4391660690307617,44.29655838012695,0.0604646470811632,-0.0328108893500434
6176,-0.49512608846028644,0.25898443222045897,83.5934066772461,78.13111877441406,-0.3907203674316406,87.74638366699219,-0.006841744316948784,0.10066666666666667,0.335,-0.026152801513671876,-1.8236757689209,-1.142544406005861,44.38444900512695,0.060692087809244795,-0.03485671149359809
6177,-0.47559483846028644,0.219140682220459,87.33721923828125,74.8782958984375,-0.3907203674316406,87.74638366699219,-0.006387117173936632,0.097,0.335,-0.02331475151909722,-1.9884668760986344,-0.9338098936767594,44.29655838012695,0.13843248155381943,-0.03485671149359809
6178,-0.46387608846028644,0.19921878814697266,87.05081176757812,81.60897827148438,-0.3498039245605469,87.41905212402344,-0.006387117173936632,0.09366666666666666,0.33464285714285713,-0.022063573201497395,-1.7797323637695328,-0.5932451658935562,44.29655838012695,0.06046481662326389,-0.030765067206488715
6179,-0.49512608846028644,0.219140682220459,84.02302551269531,78.58119201660156,-0.6566734313964844,88.74882507324219,-0.0066144307454427086,0.09033333333333333,0.3342857142857143,-0.02471851772732205,-1.7138163023681656,-0.7800070219726578,44.29655838012695,0.06046481662326389,-0.048949983384874135
6180,-0.5029385884602865,0.239062557220459,83.20470428466797,75.49203491210938,-0.6157569885253906,88.64653015136719,-0.0066144307454427086,0.08666666666666667,0.3339285714285714,-0.027404022216796876,-2.471850054809572,0.3954960107803345,44.29655838012695,0.08569632636176215,-0.04735874599880642
6181,-0.5029385884602865,0.239062557220459,85.49600219726562,78.04928588867188,-0.042934417724609375,86.94851684570312,-0.0059324900309244795,0.08266666666666667,0.3342857142857143,-0.026763153076171876,-2.6695982390136734,2.6366400718688965,44.29655838012695,0.08274129231770834,-0.02212723626030816
6182,-0.43262608846028644,0.25898443222045897,87.17355346679688,81.77264404296875,-0.5748405456542969,88.40103149414062,-0.0066144307454427086,0.07833333333333334,0.33535714285714285,-0.026244354248046876,-2.4498793059082047,2.2301580905914307,43.417659759521484,0.06001010470920139,-0.04417635599772136
6183,-0.49121983846028644,0.219140682220459,84.77996826171875,78.35615539550781,-0.2679710388183594,88.23736572265625,-0.005705218844943577,0.074,0.335,-0.023040135701497395,-3.0211512022705094,0.16479000449180603,42.71453857421875,0.07137569851345486,-0.03894818623860677
6184,-0.47559483846028644,0.19921878814697266,84.96409606933594,78.62211608886719,-0.06339263916015625,87.27584838867188,-0.006159803602430555,0.06966666666666667,0.335,-0.019805357191297744,-2.801430361816408,0.16479000449180603,42.62664794921875,0.07046644422743055,-0.02599156697591146
6185,-0.5068448384602865,0.19921878814697266,84.98455047607422,78.45845031738281,-0.12476730346679688,88.23736572265625,-0.0066144307454427086,0.066,0.335,-0.020080015394422744,-2.515795367309572,1.3293060064315796,42.538761138916016,0.07251222398546008,-0.03735703362358941
6186,-0.47559483846028644,0.219140682220459,85.23004150390625,78.84715270996094,0.5912628173828125,86.1097412109375,-0.0059324900309244795,0.06233333333333333,0.335,-0.02041566636827257,-2.6036821776123062,2.0763540267944336,42.275089263916016,0.07092098659939236,-0.0057608710394965275
6187,-0.5146573384602865,0.219140682220459,85.70057678222656,81.8953857421875,-0.0224761962890625,86.82576751708984,-0.0066144307454427086,0.058333333333333334,0.33464285714285713,-0.019103452894422744,-1.8017050200195328,1.735788106918335,42.099308013916016,0.04227990044487847,-0.020536041259765624
6188,-0.5693448384602865,0.19921878814697266,85.80287170410156,79.17447662353516,1.2254638671875,87.6031723022461,-0.0059324900309244795,0.055,0.3335714285714286,-0.01617385016547309,-1.8346620970459,0.9777539968490601,42.099308013916016,0.07364883422851562,-0.015307871500651042
6189,-0.49121983846028644,0.17929691314697266,86.58027648925781,81.56806182861328,1.0822563171386719,86.33477783203125,-0.0059324900309244795,0.051666666666666666,0.3335714285714286,-0.01251186794704861,-1.3622652464599625,0.373524010181427,42.275089263916016,0.05569127400716146,-0.002805794609917535
6190,-0.49512608846028644,0.19921878814697266,83.24562072753906,74.8782958984375,0.059356689453125,87.82821655273438,-0.0066144307454427086,0.048,0.33285714285714285,-0.014281802707248263,-0.823950427124025,-0.12084640795898594,42.362979888916016,0.09297027587890624,-0.030765109592013888
6191,-0.48731358846028644,0.17929691314697266,84.32989501953125,77.41508483886719,0.5094337463378906,88.09416198730469,-0.0059324900309244795,0.044333333333333336,0.33214285714285713,-0.01171841091579861,-1.7467752867431656,0.5602860450744629,42.538761138916016,0.07683122422960069,-0.028719202677408854
6192,-0.5185635884602865,0.15937503814697265,84.57539367675781,79.21539306640625,0.6935539245605469,86.58027648925781,-0.0059324900309244795,0.04066666666666666,0.3314285714285714,-0.010528310139973959,-1.5929705076904312,1.1645159721374512,42.362979888916016,0.05955556233723958,-0.00985247294108073
6193,-0.5576260884602865,0.15937503814697265,86.86668395996094,82.42729949951172,0.40714263916015625,87.1121826171875,-0.0059324900309244795,0.037333333333333336,0.3314285714285714,-0.008880360921223959,-1.0107122832031266,0.9118380546569824,42.362979888916016,0.04932649400499132,-0.018944888644748265
6194,-0.5029385884602865,0.1195312786102295,88.27828979492188,82.79554748535156,0.44805908203125,87.41905212402344,-0.0059324900309244795,0.03333333333333333,0.33071428571428574,-0.003936682807074653,-1.2524038725585953,0.2746500074863434,42.362979888916016,0.06091935899522569,-0.021899922688802084
6195,-0.49512608846028644,0.13945316314697265,87.35768127441406,81.64989471435547,0.44805908203125,87.17355346679688,-0.0059324900309244795,0.03,0.33035714285714285,-0.005798170301649305,-1.4831110411376969,-0.2746511870117203,42.362979888916016,0.06341985066731771,-0.019172159830729167
6196,-0.5107510884602865,0.15937503814697265,86.78485107421875,81.22027587890625,0.5094337463378906,87.15309143066406,-0.005705218844943577,0.027,0.33035714285714285,-0.007812330457899305,-1.4391657286376969,-0.9008528166503922,42.362979888916016,0.06182861328125,-0.018262863159179688
6197,-0.5459073384602865,0.13945316314697265,81.79310607910156,76.18760681152344,-0.10430908203125,88.31919860839844,-0.0066144307454427086,0.024,0.3296428571428571,-0.006072828504774305,-1.2963491850585953,-1.4721247130126969,42.362979888916016,0.0622833251953125,-0.03803897433810764
6198,-0.5068448384602865,0.09960939407348633,84.6572265625,78.92898559570312,0.3048515319824219,87.33721923828125,-0.0066144307454427086,0.019666666666666666,0.32821428571428574,-0.0027770148383246527,-1.3293062620849625,0.2197200059890747,42.538761138916016,0.06364712185329861,-0.022581863403320312
6199,-0.5537198384602865,0.09960939407348633,87.09172058105469,81.547607421875,0.5298881530761719,87.64408874511719,-0.006387117173936632,0.014,0.3275,-0.001007080078125,-0.9557825499267594,1.6369140148162842,42.538761138916016,0.06160125732421875,-0.02349111768934462
6200,-0.5771573384602865,0.13945316314697265,88.40103149414062,83.53202819824219,0.9595069885253906,87.27584838867188,-0.006387117173936632,0.012333333333333333,0.32571428571428573,-0.00225830078125,-0.16478981311035312,1.2743760347366333,40.69306945800781,0.05410003662109375,-0.01462601555718316
6201,-0.5654385884602865,0.1195312786102295,87.74638366699219,82.18180847167969,5.173854827880859,85.06637573242188,-0.0059324900309244795,0.009,0.3242857142857143,0.0012816535101996527,0.6591600179672241,-0.04394401843261875,30.058380126953125,0.06182861328125,0.05674976772732205
6202,-0.5771573384602865,0.07968751907348633,90.89691162109375,83.98210144042969,2.2688217163085938,85.96653747558594,-0.0059324900309244795,0.005,0.32,0.0064694722493489586,1.340291976928711,-0.6701475554199234,26.71855926513672,0.07683122422960069,0.014469824896918403
6203,-0.5849698384602865,0.07968751907348633,87.68500518798828,80.19737243652344,3.066680908203125,83.5115737915039,-0.006159803602430555,0.0016666666666666668,0.31642857142857145,0.0066220601399739586,2.2301580905914307,-2.845373766967775,26.71855926513672,0.08319591946072048,0.05061230129665799
6204,-0.7451261162380641,0.09960939407348633,89.48530578613281,83.71615600585938,6.728664398193359,82.26363372802734,-0.0059324900309244795,0.0,0.3107142857142857,0.0059506734212239586,2.120298147201538,-3.88904442126465,26.63067054748535,0.06410166422526041,0.10516700744628907
6205,-0.6670010884602865,0.07968751907348633,86.72348022460938,82.57050323486328,6.339962005615234,80.83157348632812,-0.006159803602430555,-0.0016666666666666668,0.3078571428571429,0.004394361707899305,3.1200242042541504,-4.581162112304689,26.63067054748535,0.046144188774956595,0.11675987243652344
6206,-0.6630948384602865,0.05976563930511475,101.71919250488281,89.66943359375,9.817821502685547,80.50424194335938,-0.0059324900309244795,-0.001,0.30107142857142855,0.004943678114149305,2.3949480056762695,-0.6042314940185562,26.63067054748535,0.13388621012369792,0.15903977288140192
6207,-0.6591885884602865,0.07968751907348633,98.83460998535156,90.59004211425781,12.84560775756836,78.17203521728516,-0.0059324900309244795,0.0,0.2953571428571429,-0.0,1.0546560287475586,-1.142544406005861,26.63067054748535,0.09160630967881944,0.21859525044759115
