,WD,WS,AIL_1,AIL_2,ELEV_1,ELEV_2,RUDD,ALT,GS,TH,PTCH,ROLL,PLA_1,AIL,ELEV
8831,-0.06981654696994358,1.8328129577636718,71.68685150146484,65.52899169921875,20.926517486572266,59.862125396728516,-0.017070770263671875,0.003,0.0,-0.07302638159857856,0.04394400119781494,0.48338401317596436,24.169750213623047,0.06842066446940104,0.5118265787760417
8832,-0.06591029696994358,1.812891082763672,71.52318572998047,65.18120574951172,20.90605926513672,59.862125396728516,-0.01979849073621962,0.0023333333333333335,0.0,-0.06939491695827908,-0.3185945921630875,0.36253800988197327,24.169750213623047,0.07046644422743055,0.5115992652045356
8833,-0.05809779696994358,1.812891082763672,71.93234252929688,65.46762084960938,20.885601043701172,59.862125396728516,-0.028209008110894097,0.001,0.0,-0.059934743245442706,-0.6371885710449234,0.2526780068874359,24.169750213623047,0.07183024088541666,0.5113719516330295
8834,-0.04637904696994358,1.812891082763672,71.80960083007812,65.61082458496094,20.885601043701172,59.862125396728516,-0.029572847154405384,0.002,0.0,-0.04727032979329427,-0.5273291044921891,0.06591600179672241,24.169750213623047,0.0688752916124132,0.5113719516330295
8835,-0.03466029696994358,1.7929692077636719,71.78913879394531,65.54945373535156,20.76285171508789,59.88258361816406,-0.02207158406575521,0.002,0.0,-0.03567398918999566,-0.4064833098144547,0.19774800539016724,24.169750213623047,0.069329833984375,0.509780756632487
8836,-0.026847796969943577,1.7929692077636719,71.95280456542969,65.67219543457031,20.82422637939453,59.862125396728516,-0.01729808383517795,0.0016666666666666668,0.0,-0.028105862935384116,-0.3625379973144547,0.5932440161705017,24.169750213623047,0.0697845458984375,0.5106900109185113
8837,-0.019035296969943577,1.7929692077636719,71.72776794433594,65.67219543457031,20.76285171508789,59.88258361816406,-0.014343007405598959,0.002,0.0,-0.021331151326497395,-0.2307058745117203,0.8019779920578003,24.169750213623047,0.06728413899739584,0.509780756632487
8838,-0.015129046969943577,1.7929692077636719,72.05509185791016,65.77449035644531,20.70147705078125,59.923500061035156,-0.010251405504014757,0.002,0.0,-0.017211405436197917,-0.3954969816894547,0.19774800539016724,24.169750213623047,0.06978446112738715,0.5086441887749567
8839,-0.011222796969943577,1.7929692077636719,72.09600830078125,65.81539916992188,20.681018829345703,59.9439582824707,-0.01002409193250868,0.0006666666666666666,0.0,-0.013457849290635851,-0.4723993712158219,0.36253800988197327,24.169750213623047,0.0697845458984375,0.5081895616319444
8840,-0.007316546969943576,1.7730473327636718,71.78913879394531,65.77449035644531,20.742393493652344,59.96441650390625,-0.009569507175021702,0.0003333333333333333,0.0,-0.009948433770073786,-0.5163427763671891,0.6262019872665405,24.169750213623047,0.06682942708333334,0.5086441887749567
8841,-0.0034102969699435766,1.7730473327636718,72.09600830078125,65.8563232421875,20.721935272216797,59.96441650390625,-0.010251405504014757,0.0006666666666666666,0.0,-0.006469535827636719,-0.7250772886962906,0.8129640221595764,24.169750213623047,0.069329833984375,0.5084168752034505
8842,0.0004959530300564236,1.7929692077636719,72.09600830078125,65.87677764892578,20.721935272216797,59.96441650390625,-0.00775099860297309,0.001,0.0,-0.003967179192437066,-0.834936755249025,0.6591600179672241,24.345529556274414,0.0691025627983941,0.5084168752034505
8843,0.0004959530300564236,1.812891082763672,72.11647033691406,65.77449035644531,20.742393493652344,59.96441650390625,-0.00775099860297309,0.0013333333333333333,0.0,-0.0026854832967122396,-0.8898664885253922,0.6371880173683167,24.169750213623047,0.07046644422743055,0.5086441887749567
8844,0.0004959530300564236,1.812891082763672,72.09600830078125,65.87677764892578,20.742393493652344,59.96441650390625,-0.0059324900309244795,0.0013333333333333333,0.0,-0.0029906378851996527,-0.7360617094726578,0.7140899896621704,24.169750213623047,0.0691025627983941,0.5086441887749567
8845,0.0004959530300564236,1.8328129577636718,72.11647033691406,65.8563232421875,20.70147705078125,59.923500061035156,-0.0059324900309244795,0.0006666666666666666,0.0,-0.004363886515299479,-0.801977770874025,0.6591600179672241,24.169750213623047,0.06955718994140625,0.5086441887749567
8846,-0.0034102969699435766,1.8328129577636718,71.85050964355469,65.91769409179688,20.742393493652344,59.96441650390625,-0.0034320831298828127,0.0006666666666666666,0.0,-0.0076291826036241316,-0.812964098999025,0.6811320185661316,24.169750213623047,0.06592017279730902,0.5086441887749567
8847,-0.007316546969943576,1.8328129577636718,71.78913879394531,65.38578796386719,20.70147705078125,59.9439582824707,-0.007069057888454861,0.0013333333333333333,0.0,-0.009521208869086372,-0.7909933500976578,0.7031040191650391,24.169750213623047,0.0711483425564236,0.5084168752034505
8848,-0.007316546969943576,1.8328129577636718,70.99127960205078,65.61082458496094,20.742393493652344,59.923500061035156,-0.009114880032009548,0.001,0.0,-0.009460173712836372,-0.7580343657226578,0.6152160167694092,24.169750213623047,0.05978283352322049,0.5090988159179688
8849,-0.0034102969699435766,1.852734832763672,71.2776870727539,64.97662353515625,20.742393493652344,59.9439582824707,-0.01070603264702691,0.0023333333333333335,0.0,-0.007995372348361545,-0.7140909605712906,0.9118380546569824,24.169750213623047,0.0700118170844184,0.5088715023464627
8850,-0.0034102969699435766,1.852734832763672,71.17539978027344,65.03800201416016,17.121326446533203,59.9439582824707,-0.00843293931749132,0.0013333333333333333,0.0,-0.008392079671223959,-0.7580343657226578,0.9008520245552063,24.169750213623047,0.0681933085123698,0.46863742404513886
8851,-0.007316546969943576,1.852734832763672,71.2776870727539,64.8538818359375,-3.4185028076171875,59.9439582824707,-0.008205625745985243,0.0013333333333333333,0.0,-0.009124480353461372,-0.6591612272949234,0.9338099956512451,24.169750213623047,0.07137561374240452,0.24041709899902344
8852,-0.007316546969943576,1.8328129577636718,71.4208984375,65.14028930664062,-9.310409545898438,59.923500061035156,-0.008205625745985243,-0.0013333333333333333,0.0,-0.010223091973198786,-0.7800070219726578,0.8239500522613525,24.169750213623047,0.0697845458984375,0.1751787821451823
8853,-0.007316546969943576,1.8328129577636718,71.44135284423828,65.16075134277344,-8.594379425048828,59.923500061035156,-0.007978312174479167,0.0,0.0,-0.01144375271267361,-0.7360617094726578,0.9777539968490601,24.169750213623047,0.06978446112738715,0.1831346723768446
8854,-0.007316546969943576,1.812891082763672,71.44135284423828,65.36532592773438,12.3546142578125,59.923500061035156,-0.011387973361545138,0.001,0.0,-0.010436715020073786,-0.8788801604003922,0.7580339908599854,24.169750213623047,0.06751141018337674,0.4159012688530816
8855,-0.0034102969699435766,1.812891082763672,71.44135284423828,65.48807525634766,20.865142822265625,59.923500061035156,-0.01252454121907552,-0.0003333333333333333,0.0,-0.008025889926486545,-0.7800070219726578,0.7140899896621704,24.169750213623047,0.06614752875434028,0.5104626973470052
8856,-0.0034102969699435766,1.812891082763672,71.48226928710938,65.7540283203125,20.865142822265625,59.96441650390625,-0.01252454121907552,0.0,0.0,-0.005279392666286893,-0.9997259550781266,0.8349360227584839,24.169750213623047,0.06364712185329861,0.5100080702039931
8857,-0.0034102969699435766,1.7929692077636719,71.50273132324219,65.67219543457031,20.946975708007812,59.923500061035156,-0.009114880032009548,-0.0003333333333333333,0.0,-0.004974216885036893,-0.9338098936767594,0.8349360227584839,24.169750213623047,0.06478373209635417,0.5113719516330295
8858,0.0004959530300564236,1.812891082763672,71.50273132324219,65.7540283203125,20.967430114746094,59.923500061035156,-0.011387973361545138,0.0,0.0,-0.0037230385674370658,-0.7580343657226578,0.7580339908599854,24.345529556274414,0.06387447781032986,0.5115992228190104
8859,0.0004959530300564236,1.812891082763672,71.50273132324219,65.7131118774414,20.926517486572266,59.923500061035156,-0.01070603264702691,-0.0003333333333333333,0.0,-0.0028380499945746527,-0.7140909605712906,0.7031040191650391,24.345529556274414,0.06432910495334201,0.5111446380615234
8860,0.0004959530300564236,1.8328129577636718,71.50273132324219,65.7949447631836,20.90605926513672,59.9439582824707,-0.009569507175021702,-0.0003333333333333333,0.0,-0.0027464972601996527,-0.7909933500976578,0.6811320185661316,24.169750213623047,0.06341985066731771,0.5106900109185113
8861,0.0004959530300564236,1.8328129577636718,71.52318572998047,65.87677764892578,20.64010238647461,59.90304183959961,-0.009114880032009548,0.0003333333333333333,0.0,-0.0025939305623372396,-0.7470480375976578,0.9228240251541138,24.169750213623047,0.0627378675672743,0.5081895616319444
8862,0.0004959530300564236,1.852734832763672,71.52318572998047,65.97906494140625,19.801326751708984,59.96441650390625,-0.009114880032009548,0.0003333333333333333,0.0,-0.0032042609320746527,-0.7690206938476578,0.7031040191650391,24.169750213623047,0.061601342095269095,0.4981878916422526
8863,0.0004959530300564236,1.852734832763672,71.52318572998047,66.01998138427734,20.619644165039062,59.923500061035156,-0.008660252888997395,0.0003333333333333333,0.0,-0.004119767083062066,-0.7140909605712906,0.8569080233573914,24.169750213623047,0.061146714952256945,0.5077349344889323
8864,0.0004959530300564236,1.8726567077636718,71.52318572998047,66.01998138427734,20.64010238647461,59.9439582824707,-0.010478719075520834,-0.001,0.0,-0.004333368937174479,-0.6371885710449234,0.7800060510635376,24.169750213623047,0.061146714952256945,0.5077349344889323
8865,0.0004959530300564236,1.8726567077636718,71.52318572998047,65.95861053466797,20.803768157958984,59.923500061035156,-0.01002409193250868,0.0006666666666666666,0.0,-0.004058731926812066,-0.6921183043212906,0.6921180486679077,24.169750213623047,0.06182861328125,0.509780756632487
8866,-0.0034102969699435766,1.8925785827636719,71.52318572998047,65.89723205566406,20.865142822265625,59.923500061035156,-0.00843293931749132,0.0,0.0,-0.005126804775661893,-0.5273291044921891,0.6042300462722778,24.169750213623047,0.0625105963812934,0.5104626973470052
8867,-0.0034102969699435766,1.8925785827636719,71.52318572998047,66.04044342041016,20.90605926513672,59.923500061035156,-0.01070603264702691,0.0003333333333333333,0.0,-0.005706617567274305,-0.5712725096435562,0.790992021560669,24.169750213623047,0.06091935899522569,0.5109173244900174
8868,-0.0034102969699435766,1.912500457763672,71.54364013671875,65.8563232421875,20.967430114746094,59.923500061035156,-0.010933346218532987,0.0003333333333333333,0.0,-0.005676099989149305,-0.5273291044921891,0.8678940534591675,24.169750213623047,0.06319240993923611,0.5115992228190104
8869,-0.0034102969699435766,1.9324223327636718,71.54364013671875,65.93814849853516,20.98788833618164,59.90304183959961,-0.011842600504557292,0.0,0.0,-0.004943699306911893,-0.5053564482421891,0.8129640221595764,24.169750213623047,0.06228324042426215,0.5120538499620225
8870,-0.0034102969699435766,1.952344207763672,71.54364013671875,65.95861053466797,20.967430114746094,59.90304183959961,-0.009796820746527778,-0.0006666666666666666,0.0,-0.005126804775661893,-0.49437012011718906,0.8239500522613525,24.169750213623047,0.062055884467230905,0.5118265363905165
8871,-0.0034102969699435766,1.9722660827636718,71.52318572998047,65.95861053466797,20.946975708007812,59.88258361816406,-0.01002409193250868,-0.0003333333333333333,0.0,-0.005462498135036893,-0.4723993712158219,0.8349360227584839,24.169750213623047,0.06182861328125,0.5118265787760417
8872,-0.0034102969699435766,1.9722660827636718,71.52318572998047,65.83586120605469,20.946975708007812,59.90304183959961,-0.01002409193250868,0.0,0.0,-0.005706617567274305,-0.4614130430908219,0.8129640221595764,24.169750213623047,0.06319249471028646,0.5115992652045356
8873,-0.0034102969699435766,1.9921879577636719,71.54364013671875,65.87677764892578,20.90605926513672,59.88258361816406,-0.010478719075520834,-0.001,0.0,-0.005889723036024305,-0.4504267149658219,0.790992021560669,24.169750213623047,0.06296513875325521,0.5113719516330295
8874,-0.0034102969699435766,1.9921879577636719,71.52318572998047,65.93814849853516,20.98788833618164,59.862125396728516,-0.010251405504014757,-0.0013333333333333333,0.0,-0.006011793348524305,-0.4394403868408219,0.790992021560669,24.169750213623047,0.06205596923828125,0.5125084771050348
8875,-0.0034102969699435766,1.9921879577636719,71.52318572998047,65.8563232421875,20.98788833618164,59.88258361816406,-0.01070603264702691,-0.0013333333333333333,0.0,-0.005981275770399305,-0.4504267149658219,0.7580339908599854,24.169750213623047,0.06296513875325521,0.5122811635335286
8876,-0.0034102969699435766,1.9921879577636719,71.52318572998047,65.7949447631836,21.028804779052734,59.862125396728516,-0.01070603264702691,-0.0013333333333333333,0.0,-0.006011793348524305,-0.4394403868408219,0.7690200209617615,24.169750213623047,0.06364712185329861,0.5129631042480469
8877,-0.0034102969699435766,1.9921879577636719,71.52318572998047,65.81539916992188,21.04926300048828,59.84166717529297,-0.011160659790039062,-0.0013333333333333333,0.0,-0.006011793348524305,-0.4394403868408219,0.7580339908599854,24.169750213623047,0.06341985066731771,0.5134177313910591
8878,-0.0034102969699435766,1.9921879577636719,71.54364013671875,65.95861053466797,21.069721221923828,59.862125396728516,-0.01070603264702691,-0.001,0.0,-0.005981275770399305,-0.4394403868408219,0.7580339908599854,24.169750213623047,0.062055884467230905,0.5134177313910591
8879,-0.0034102969699435766,1.9921879577636719,71.54364013671875,65.95861053466797,21.069721221923828,59.862125396728516,-0.010933346218532987,-0.001,0.0,-0.005950758192274305,-0.4394403868408219,0.7580339908599854,24.169750213623047,0.062055884467230905,0.5134177313910591
8880,-0.0034102969699435766,1.9921879577636719,71.54364013671875,65.99952697753906,21.110637664794922,59.84166717529297,-0.010478719075520834,-0.001,0.0,-0.006011793348524305,-0.4394403868408219,0.7580339908599854,24.169750213623047,0.06160125732421875,0.5140996721055773
8881,-0.0034102969699435766,1.9921879577636719,71.56410217285156,65.99952697753906,21.110637664794922,59.862125396728516,-0.01070603264702691,-0.0006666666666666666,0.0,-0.006011793348524305,-0.4394403868408219,0.7690200209617615,24.169750213623047,0.06182861328125,0.5138723585340712
8882,-0.0034102969699435766,1.9921879577636719,71.52318572998047,65.97906494140625,21.069721221923828,59.862125396728516,-0.01070603264702691,-0.002,0.0,-0.005981275770399305,-0.4284540587158219,0.7690200209617615,24.169750213623047,0.061601342095269095,0.5134177313910591
8883,-0.0034102969699435766,1.9921879577636719,71.54364013671875,65.8563232421875,21.090179443359375,59.88258361816406,-0.010933346218532987,-0.0016666666666666668,0.0,-0.005950758192274305,-0.4284540587158219,0.7580339908599854,24.169750213623047,0.06319240993923611,0.5134177313910591
8884,-0.0034102969699435766,1.9921879577636719,71.54364013671875,65.97906494140625,21.110637664794922,59.88258361816406,-0.011160659790039062,-0.0016666666666666668,0.0,-0.005981275770399305,-0.4284540587158219,0.747048020362854,24.169750213623047,0.06182861328125,0.5136450449625651
8885,-0.0034102969699435766,1.9921879577636719,71.54364013671875,65.95861053466797,21.069721221923828,59.862125396728516,-0.010933346218532987,-0.0016666666666666668,0.0,-0.005981275770399305,-0.4284540587158219,0.7580339908599854,24.169750213623047,0.062055884467230905,0.5134177313910591
8886,-0.0034102969699435766,1.9921879577636719,71.56410217285156,65.93814849853516,21.069721221923828,59.862125396728516,-0.01070603264702691,-0.001,0.0,-0.005981275770399305,-0.4284540587158219,0.7580339908599854,24.169750213623047,0.0625105963812934,0.5134177313910591
8887,-0.0034102969699435766,1.9921879577636719,71.54364013671875,65.95861053466797,21.04926300048828,59.84166717529297,-0.011160659790039062,-0.0016666666666666668,0.0,-0.005981275770399305,-0.4284540587158219,0.7580339908599854,24.169750213623047,0.062055884467230905,0.5134177313910591
8888,-0.0034102969699435766,1.9921879577636719,71.54364013671875,65.93814849853516,21.090179443359375,59.84166717529297,-0.010933346218532987,-0.0006666666666666666,0.0,-0.005950758192274305,-0.4284540587158219,0.747048020362854,24.169750213623047,0.06228324042426215,0.5138723585340712
8889,-0.0034102969699435766,1.9921879577636719,71.52318572998047,65.73357391357422,21.04926300048828,59.84166717529297,-0.011160659790039062,-0.0006666666666666666,0.0,-0.005920240614149305,-0.4284540587158219,0.7250760197639465,24.169750213623047,0.06432902018229167,0.5134177313910591
8890,-0.0034102969699435766,1.9921879577636719,71.52318572998047,65.7131118774414,21.04926300048828,59.84166717529297,-0.010933346218532987,-0.0003333333333333333,0.0,-0.005920240614149305,-0.4284540587158219,0.747048020362854,24.169750213623047,0.06455637613932291,0.5134177313910591
8891,-0.0034102969699435766,1.9921879577636719,71.54364013671875,65.7131118774414,21.028804779052734,59.862125396728516,-0.01070603264702691,0.0,0.0,-0.005950758192274305,-0.4174677305908219,0.747048020362854,24.169750213623047,0.06478364732530383,0.5129631042480469
8892,-0.0034102969699435766,1.9921879577636719,71.54364013671875,65.99952697753906,21.028804779052734,59.90304183959961,-0.010933346218532987,-0.001,0.0,-0.005981275770399305,-0.4174677305908219,0.747048020362854,24.169750213623047,0.06160125732421875,0.5125084771050348
8893,-0.0034102969699435766,1.9921879577636719,71.54364013671875,65.99952697753906,20.98788833618164,59.88258361816406,-0.010933346218532987,-0.001,0.0,-0.005981275770399305,-0.4174677305908219,0.7580339908599854,24.169750213623047,0.06160125732421875,0.5122811635335286
8894,-0.0034102969699435766,1.9921879577636719,71.56410217285156,66.10181427001953,21.028804779052734,59.88258361816406,-0.01070603264702691,-0.0013333333333333333,0.0,-0.006011793348524305,-0.4174677305908219,0.7580339908599854,24.169750213623047,0.060692087809244795,0.5127357906765408
8895,-0.0034102969699435766,1.9921879577636719,71.56410217285156,66.18364715576172,21.028804779052734,59.88258361816406,-0.010933346218532987,-0.0016666666666666668,0.0,-0.005981275770399305,-0.4174677305908219,0.747048020362854,24.169750213623047,0.05978283352322049,0.5127357906765408
8896,-0.0034102969699435766,1.9921879577636719,71.58455657958984,66.28593444824219,21.090179443359375,59.90304183959961,-0.01070603264702691,-0.0006666666666666666,0.0,-0.005981275770399305,-0.4174677305908219,0.7580339908599854,24.169750213623047,0.05887357923719618,0.513190417819553
8897,-0.0034102969699435766,1.9921879577636719,71.56410217285156,66.36776733398438,21.069721221923828,59.90304183959961,-0.011160659790039062,-0.001,0.0,-0.005981275770399305,-0.4174677305908219,0.747048020362854,24.169750213623047,0.05773705376519097,0.5129631042480469
8898,-0.0034102969699435766,1.9921879577636719,71.56410217285156,66.36776733398438,21.069721221923828,59.90304183959961,-0.012069914076063368,-0.0006666666666666666,0.0,-0.005981275770399305,-0.4174677305908219,0.747048020362854,24.169750213623047,0.05773705376519097,0.5129631042480469
8899,-0.0034102969699435766,1.9921879577636719,71.58455657958984,66.3473129272461,21.069721221923828,59.88258361816406,-0.012069914076063368,-0.001,0.0,-0.005950758192274305,-0.4174677305908219,0.7360620498657227,24.169750213623047,0.05819159613715278,0.513190417819553
8900,-0.0034102969699435766,1.9921879577636719,71.56410217285156,66.32685089111328,21.090179443359375,59.862125396728516,-0.012069914076063368,-0.0006666666666666666,0.0,-0.005920240614149305,-0.4174677305908219,0.7360620498657227,24.169750213623047,0.058191680908203126,0.5136450449625651
8901,-0.0034102969699435766,1.9921879577636719,71.58455657958984,66.32685089111328,21.04926300048828,59.84166717529297,-0.012069914076063368,0.0,0.0,-0.005920240614149305,-0.4284540587158219,0.7360620498657227,24.169750213623047,0.058418952094184025,0.5134177313910591
8902,-0.0034102969699435766,1.9921879577636719,71.56410217285156,66.06089782714844,21.04926300048828,59.90304183959961,-0.012297227647569445,0.0003333333333333333,0.0,-0.005920240614149305,-0.4284540587158219,0.7140899896621704,24.169750213623047,0.061146714952256945,0.5127357906765408
8903,-0.0034102969699435766,1.9921879577636719,71.56410217285156,66.06089782714844,20.98788833618164,59.88258361816406,-0.012069914076063368,0.0003333333333333333,0.0,-0.005950758192274305,-0.4174677305908219,0.7360620498657227,24.169750213623047,0.061146714952256945,0.5122811635335286
8904,-0.0034102969699435766,1.9921879577636719,71.58455657958984,66.22456359863281,21.090179443359375,59.862125396728516,-0.012069914076063368,0.0,0.0,-0.005950758192274305,-0.4174677305908219,0.7360620498657227,24.169750213623047,0.05955547756618924,0.5136450449625651
8905,-0.0034102969699435766,1.9921879577636719,71.62547302246094,66.28593444824219,21.110637664794922,59.88258361816406,-0.012069914076063368,0.0,0.0,-0.005950758192274305,-0.4174677305908219,0.747048020362854,24.169750213623047,0.05932820638020833,0.5136450449625651
8906,-0.0034102969699435766,1.9921879577636719,71.56410217285156,66.24502563476562,21.13109588623047,59.862125396728516,-0.012069914076063368,-0.0003333333333333333,0.0,-0.005950758192274305,-0.4174677305908219,0.7360620498657227,24.169750213623047,0.05910085042317708,0.5140996721055773
8907,-0.0034102969699435766,1.9921879577636719,71.56410217285156,66.01998138427734,21.13109588623047,59.862125396728516,-0.012069914076063368,-0.0003333333333333333,0.0,-0.005950758192274305,-0.4174677305908219,0.7360620498657227,24.169750213623047,0.061601342095269095,0.5140996721055773
8908,-0.0034102969699435766,1.9921879577636719,71.54364013671875,65.99952697753906,21.13109588623047,59.862125396728516,-0.012069914076063368,-0.0006666666666666666,0.0,-0.005950758192274305,-0.4174677305908219,0.7360620498657227,24.169750213623047,0.06160125732421875,0.5140996721055773
8909,-0.0034102969699435766,1.9921879577636719,71.54364013671875,65.99952697753906,21.13109588623047,59.862125396728516,-0.012297227647569445,-0.001,0.0,-0.005950758192274305,-0.4174677305908219,0.7360620498657227,24.169750213623047,0.06160125732421875,0.5140996721055773
8910,-0.0034102969699435766,1.9921879577636719,71.56410217285156,66.01998138427734,21.13109588623047,59.862125396728516,-0.011842600504557292,-0.0003333333333333333,0.0,-0.005950758192274305,-0.4174677305908219,0.7360620498657227,24.169750213623047,0.061601342095269095,0.5140996721055773
8911,-0.0034102969699435766,1.9921879577636719,71.56410217285156,66.06089782714844,21.13109588623047,59.84166717529297,-0.012069914076063368,-0.0003333333333333333,0.0,-0.005950758192274305,-0.4174677305908219,0.7360620498657227,24.169750213623047,0.061146714952256945,0.5143269856770833
8912,-0.0034102969699435766,1.9921879577636719,71.56410217285156,66.10181427001953,21.069721221923828,59.84166717529297,-0.012297227647569445,-0.0006666666666666666,0.0,-0.005950758192274305,-0.4174677305908219,0.7360620498657227,24.169750213623047,0.060692087809244795,0.5136450449625651
8913,-0.0034102969699435766,1.9921879577636719,71.56410217285156,65.89723205566406,21.151554107666016,59.862125396728516,-0.012297227647569445,-0.0006666666666666666,0.0,-0.005920240614149305,-0.4174677305908219,0.747048020362854,24.169750213623047,0.06296522352430556,0.5143269856770833
8914,-0.0034102969699435766,1.9921879577636719,71.54364013671875,65.89723205566406,21.110637664794922,59.862125396728516,-0.01252454121907552,-0.0006666666666666666,0.0,-0.005981275770399305,-0.4174677305908219,0.7360620498657227,24.169750213623047,0.0627378675672743,0.5138723585340712
8915,-0.0034102969699435766,1.9921879577636719,71.56410217285156,65.91769409179688,21.110637664794922,59.90304183959961,-0.012297227647569445,-0.0006666666666666666,0.0,-0.005950758192274305,-0.4174677305908219,0.7360620498657227,24.169750213623047,0.0627378675672743,0.5134177313910591
8916,-0.0034102969699435766,1.9921879577636719,71.56410217285156,65.87677764892578,21.04926300048828,59.88258361816406,-0.012297227647569445,-0.0006666666666666666,0.0,-0.005981275770399305,-0.4174677305908219,0.747048020362854,24.169750213623047,0.06319249471028646,0.5129631042480469
8917,-0.0034102969699435766,1.9921879577636719,71.54364013671875,65.89723205566406,21.090179443359375,59.862125396728516,-0.012297227647569445,-0.001,0.0,-0.005950758192274305,-0.4174677305908219,0.7360620498657227,24.169750213623047,0.0627378675672743,0.5136450449625651
8918,-0.0034102969699435766,1.9921879577636719,71.56410217285156,65.87677764892578,21.151554107666016,59.88258361816406,-0.012069914076063368,-0.0006666666666666666,0.0,-0.005950758192274305,-0.4174677305908219,0.7360620498657227,24.169750213623047,0.06319249471028646,0.5140996721055773
8919,-0.0034102969699435766,1.9921879577636719,71.56410217285156,65.87677764892578,21.151554107666016,59.88258361816406,-0.012297227647569445,-0.0003333333333333333,0.0,-0.005950758192274305,-0.4174677305908219,0.7360620498657227,24.169750213623047,0.06319249471028646,0.5140996721055773
8920,-0.0034102969699435766,1.9921879577636719,71.56410217285156,65.89723205566406,21.13109588623047,59.88258361816406,-0.01252454121907552,-0.0003333333333333333,0.0,-0.005950758192274305,-0.4174677305908219,0.7360620498657227,24.169750213623047,0.06296522352430556,0.5138723585340712
8921,-0.0034102969699435766,1.9921879577636719,71.56410217285156,65.91769409179688,21.110637664794922,59.88258361816406,-0.012297227647569445,-0.0006666666666666666,0.0,-0.005950758192274305,-0.4174677305908219,0.747048020362854,24.169750213623047,0.0627378675672743,0.5136450449625651
8922,-0.0034102969699435766,1.9921879577636719,71.54364013671875,65.91769409179688,21.028804779052734,59.88258361816406,-0.012297227647569445,-0.0006666666666666666,0.0,-0.005950758192274305,-0.4174677305908219,0.7360620498657227,24.169750213623047,0.06251051161024306,0.5127357906765408
8923,-0.0034102969699435766,1.9921879577636719,71.56410217285156,65.87677764892578,21.13109588623047,59.862125396728516,-0.012069914076063368,-0.0006666666666666666,0.0,-0.005950758192274305,-0.4174677305908219,0.7360620498657227,24.169750213623047,0.06319249471028646,0.5140996721055773
8924,-0.0034102969699435766,1.9921879577636719,71.56410217285156,65.91769409179688,21.172012329101562,59.862125396728516,-0.012069914076063368,-0.0013333333333333333,0.0,-0.005920240614149305,-0.4174677305908219,0.7360620498657227,24.169750213623047,0.0627378675672743,0.5145542992485894
8925,-0.0034102969699435766,1.9921879577636719,71.54364013671875,65.95861053466797,21.13109588623047,59.84166717529297,-0.01252454121907552,-0.0003333333333333333,0.0,-0.005920240614149305,-0.4174677305908219,0.7250760197639465,24.169750213623047,0.062055884467230905,0.5143269856770833
8926,-0.0034102969699435766,1.9921879577636719,71.56410217285156,65.95861053466797,21.090179443359375,59.862125396728516,-0.012069914076063368,-0.001,0.0,-0.005950758192274305,-0.4174677305908219,0.7360620498657227,24.169750213623047,0.06228324042426215,0.5136450449625651
8927,-0.0034102969699435766,1.9921879577636719,71.56410217285156,65.89723205566406,21.090179443359375,59.862125396728516,-0.012069914076063368,-0.0003333333333333333,0.0,-0.005950758192274305,-0.4174677305908219,0.7360620498657227,24.169750213623047,0.06296522352430556,0.5136450449625651
8928,-0.0034102969699435766,1.9921879577636719,71.13448333740234,64.83341979980469,21.090179443359375,59.862125396728516,-0.012069914076063368,-0.0003333333333333333,0.0,-0.005950758192274305,-0.4174677305908219,0.7360620498657227,24.169750213623047,0.0700118170844184,0.5136450449625651
8929,-0.0034102969699435766,1.9921879577636719,71.2776870727539,64.91525268554688,21.13109588623047,59.862125396728516,-0.012297227647569445,-0.001,0.0,-0.005981275770399305,-0.4174677305908219,0.7360620498657227,24.169750213623047,0.07069371541341146,0.5140996721055773
8930,-0.0034102969699435766,1.9921879577636719,71.15493774414062,64.99708557128906,21.13109588623047,59.88258361816406,-0.012297227647569445,-0.001,0.0,-0.005950758192274305,-0.4174677305908219,0.7360620498657227,24.169750213623047,0.06842057969835069,0.5138723585340712
8931,-0.0034102969699435766,1.9921879577636719,71.15493774414062,64.95616912841797,21.151554107666016,59.862125396728516,-0.012297227647569445,-0.0003333333333333333,0.0,-0.005950758192274305,-0.4174677305908219,0.7360620498657227,24.169750213623047,0.06887520684136285,0.5143269856770833
8932,-0.0034102969699435766,1.9921879577636719,71.29814910888672,64.99708557128906,21.04926300048828,59.862125396728516,-0.012297227647569445,-0.001,0.0,-0.005950758192274305,-0.4174677305908219,0.7360620498657227,24.169750213623047,0.0700118170844184,0.513190417819553
8933,-0.0034102969699435766,1.9921879577636719,71.44135284423828,65.07891845703125,21.151554107666016,59.862125396728516,-0.012297227647569445,-0.001,0.0,-0.005950758192274305,-0.4174677305908219,0.7360620498657227,24.169750213623047,0.07069371541341146,0.5143269856770833
8934,-0.0034102969699435766,1.9921879577636719,70.52074432373047,64.44471740722656,21.25384521484375,59.862125396728516,-0.012297227647569445,-0.001,0.0,-0.005920240614149305,-0.4174677305908219,0.7360620498657227,24.169750213623047,0.06751141018337674,0.5154635535346137
8935,-0.0034102969699435766,1.9921879577636719,70.74578094482422,64.44471740722656,21.233386993408203,59.862125396728516,-0.012069914076063368,-0.0006666666666666666,0.0,-0.005950758192274305,-0.4174677305908219,0.7360620498657227,24.169750213623047,0.0700118170844184,0.5152362399631076
8936,-0.0034102969699435766,1.9921879577636719,70.60257720947266,64.48563385009766,21.274303436279297,59.862125396728516,-0.012297227647569445,-0.0016666666666666668,0.0,-0.005950758192274305,-0.4174677305908219,0.7360620498657227,24.169750213623047,0.0679660373263889,0.5156908671061198
8937,-0.0034102969699435766,1.9921879577636719,70.7662353515625,64.50608825683594,21.274303436279297,59.88258361816406,-0.012069914076063368,-0.001,0.0,-0.005981275770399305,-0.4284540587158219,0.747048020362854,24.169750213623047,0.06955718994140625,0.5154635535346137
8938,-0.0034102969699435766,1.9921879577636719,70.80715942382812,64.50608825683594,21.233386993408203,59.862125396728516,-0.012297227647569445,-0.0013333333333333333,0.0,-0.005981275770399305,-0.4284540587158219,0.747048020362854,24.169750213623047,0.07001190185546875,0.5152362399631076
8939,-0.0034102969699435766,1.9921879577636719,70.78669738769531,64.56746673583984,21.233386993408203,59.862125396728516,-0.01252454121907552,-0.0006666666666666666,0.0,-0.005981275770399305,-0.4174677305908219,0.7360620498657227,24.169750213623047,0.0691025627983941,0.5152362399631076
8940,-0.0034102969699435766,1.9921879577636719,70.95036315917969,64.58792114257812,21.212928771972656,41.900001525878906,-0.012297227647569445,-0.0003333333333333333,0.0,-0.005981275770399305,-0.4174677305908219,0.747048020362854,24.169750213623047,0.07069380018446181,0.7145880805121527
8941,-0.0034102969699435766,1.9921879577636719,70.92990112304688,64.69021606445312,21.212928771972656,59.88258361816406,-0.012069914076063368,-0.001,0.0,-0.005981275770399305,-0.4284540587158219,0.7580339908599854,24.169750213623047,0.069329833984375,0.5147816128200955
8942,-0.0034102969699435766,1.9921879577636719,71.01173400878906,64.7106704711914,21.212928771972656,59.862125396728516,-0.012297227647569445,-0.0006666666666666666,0.0,-0.005950758192274305,-0.4284540587158219,0.7360620498657227,24.169750213623047,0.0700118170844184,0.5150089263916016
8943,-0.0034102969699435766,1.9921879577636719,70.95036315917969,64.66975402832031,21.172012329101562,59.88258361816406,-0.01252454121907552,-0.0006666666666666666,0.0,-0.005981275770399305,-0.4174677305908219,0.7250760197639465,24.169750213623047,0.0697845458984375,0.5143269856770833
8944,-0.0034102969699435766,1.9921879577636719,71.05265045166016,64.7106704711914,21.172012329101562,59.862125396728516,-0.012069914076063368,0.0003333333333333333,0.0,-0.005981275770399305,-0.4174677305908219,0.7360620498657227,24.169750213623047,0.07046644422743055,0.5145542992485894
8945,-0.0034102969699435766,1.9921879577636719,71.03219604492188,64.73112487792969,21.172012329101562,59.88258361816406,-0.012297227647569445,0.0,0.0,-0.005981275770399305,-0.4174677305908219,0.7360620498657227,24.169750213623047,0.07001190185546875,0.5143269856770833
8946,-0.0034102969699435766,1.9921879577636719,70.99127960205078,64.7106704711914,21.172012329101562,59.88258361816406,-0.012297227647569445,0.0003333333333333333,0.0,-0.006011793348524305,-0.4174677305908219,0.7360620498657227,24.169750213623047,0.0697845458984375,0.5143269856770833
8947,-0.0034102969699435766,1.9921879577636719,71.05265045166016,41.900001525878906,21.19247055053711,59.88258361816406,-0.012297227647569445,0.0,0.0,-0.006011793348524305,-0.4284540587158219,0.747048020362854,24.169750213623047,0.32391832139756943,0.5145542992485894
8948,-0.0034102969699435766,1.9921879577636719,71.01173400878906,64.73112487792969,21.151554107666016,59.88258361816406,-0.012297227647569445,0.0003333333333333333,0.0,-0.006011793348524305,-0.4174677305908219,0.747048020362854,31.46462059020996,0.0697845458984375,0.5140996721055773
8949,-0.0034102969699435766,1.9921879577636719,71.01173400878906,41.900001525878906,21.110637664794922,59.90304183959961,-0.012297227647569445,-0.0003333333333333333,0.0,-0.006011793348524305,-0.4174677305908219,0.747048020362854,31.46462059020996,0.3234636942545573,0.5134177313910591
8950,-0.0034102969699435766,1.9921879577636719,71.05265045166016,64.73112487792969,21.110637664794922,59.90304183959961,-0.012297227647569445,0.0,0.0,-0.005981275770399305,-0.4174677305908219,0.747048020362854,31.46462059020996,0.07023917304144965,0.5134177313910591
8951,-0.0034102969699435766,1.9921879577636719,71.05265045166016,64.54700469970703,20.90605926513672,59.90304183959961,-0.012297227647569445,0.0,0.0,-0.005981275770399305,-0.4174677305908219,0.7360620498657227,31.552509307861328,0.07228495279947916,0.5111446380615234
8952,-0.0034102969699435766,1.9921879577636719,70.72532653808594,41.900001525878906,21.04926300048828,59.90304183959961,-0.01252454121907552,0.0013333333333333333,0.0,-0.005920240614149305,-0.4174677305908219,0.7360620498657227,31.552509307861328,0.3202813890245226,0.5127357906765408
8953,-0.0034102969699435766,1.9921879577636719,70.88898468017578,64.64929962158203,18.655677795410156,59.90304183959961,-0.012751854790581597,0.0003333333333333333,0.0,-0.005889723036024305,-0.4174677305908219,0.7250760197639465,31.552509307861328,0.069329833984375,0.48614039950900606
8954,-0.0034102969699435766,1.9921879577636719,70.9094467163086,64.66975402832031,19.4739990234375,59.88258361816406,-0.01252454121907552,-0.0003333333333333333,0.0,-0.005889723036024305,-0.4174677305908219,0.7360620498657227,31.552509307861328,0.06932991875542535,0.49546017116970487
8955,-0.0034102969699435766,1.9921879577636719,70.95036315917969,64.73112487792969,20.067279815673828,59.88258361816406,-0.01252454121907552,0.0006666666666666666,0.0,-0.005920240614149305,-0.4174677305908219,0.747048020362854,31.552509307861328,0.06910264756944444,0.5020521799723308
8956,-0.0034102969699435766,1.9921879577636719,71.07310485839844,64.58792114257812,21.294761657714844,59.88258361816406,-0.012751854790581597,0.001,0.0,-0.005920240614149305,-0.4174677305908219,0.7360620498657227,31.46462059020996,0.07205759684244792,0.5156908671061198
8957,-0.0034102969699435766,1.9921879577636719,70.95036315917969,64.73112487792969,21.274303436279297,59.90304183959961,-0.01252454121907552,0.0006666666666666666,0.0,-0.005889723036024305,-0.4174677305908219,0.7360620498657227,31.46462059020996,0.06910264756944444,0.5152362399631076
8958,-0.0034102969699435766,1.9921879577636719,71.03219604492188,64.73112487792969,21.25384521484375,59.88258361816406,-0.01252454121907552,0.0013333333333333333,0.0,-0.005859205457899305,-0.4174677305908219,0.7250760197639465,31.46462059020996,0.07001190185546875,0.5152362399631076
8959,-0.0034102969699435766,1.9921879577636719,70.9094467163086,64.7515869140625,21.233386993408203,59.90304183959961,-0.01252454121907552,0.0023333333333333335,0.0,-0.005889723036024305,-0.4174677305908219,0.7140899896621704,31.552509307861328,0.06842066446940104,0.5147816128200955
8960,-0.0034102969699435766,1.9921879577636719,71.11402893066406,64.77204895019531,20.885601043701172,59.90304183959961,-0.012297227647569445,0.002,0.0,-0.005889723036024305,-0.4174677305908219,0.7250760197639465,31.46462059020996,0.07046644422743055,0.5109173244900174
8961,-0.0034102969699435766,1.9921879577636719,70.8685302734375,64.7106704711914,21.233386993408203,59.88258361816406,-0.01252454121907552,0.0016666666666666668,0.0,-0.005889723036024305,-0.4174677305908219,0.7250760197639465,31.552509307861328,0.06842066446940104,0.5150089263916016
8962,-0.0034102969699435766,1.9921879577636719,70.97081756591797,64.77204895019531,20.926517486572266,59.88258361816406,-0.012751854790581597,0.0013333333333333333,0.0,-0.005859205457899305,-0.4174677305908219,0.7250760197639465,31.552509307861328,0.06887520684136285,0.5115992652045356
8963,-0.0034102969699435766,1.9921879577636719,71.01173400878906,64.7106704711914,21.397048950195312,59.88258361816406,-0.012751854790581597,0.0006666666666666666,0.0,-0.005859205457899305,-0.4174677305908219,0.7250760197639465,31.552509307861328,0.0700118170844184,0.516827392578125
8964,-0.0034102969699435766,1.9921879577636719,71.01173400878906,64.7515869140625,21.397048950195312,59.862125396728516,-0.012751854790581597,0.0013333333333333333,0.0,-0.005859205457899305,-0.4174677305908219,0.7250760197639465,31.552509307861328,0.06955718994140625,0.5170547061496311
8965,-0.0034102969699435766,1.9921879577636719,71.01173400878906,64.7106704711914,21.458423614501953,59.862125396728516,-0.012751854790581597,0.0003333333333333333,0.0,-0.005859205457899305,-0.4174677305908219,0.7140899896621704,31.552509307861328,0.0700118170844184,0.5177366468641493
8966,-0.0034102969699435766,1.9921879577636719,71.09356689453125,64.7925033569336,21.4788818359375,59.862125396728516,-0.012751854790581597,0.0006666666666666666,0.0,-0.005859205457899305,-0.4284540587158219,0.7250760197639465,31.552509307861328,0.0700118170844184,0.5179639604356554
8967,-0.0034102969699435766,1.9921879577636719,70.72532653808594,64.36288452148438,21.41750717163086,59.90304183959961,-0.01252454121907552,0.0,0.0,-0.005828687879774305,-0.3954969816894547,0.7140899896621704,31.552509307861328,0.07069380018446181,0.516827392578125
8968,-0.0034102969699435766,1.9921879577636719,70.7662353515625,64.64929962158203,21.172012329101562,59.88258361816406,-0.01252454121907552,0.0006666666666666666,0.0,-0.006011793348524305,-0.3954969816894547,0.6921180486679077,31.552509307861328,0.06796595255533854,0.5143269856770833
8969,-0.0034102969699435766,1.9722660827636718,70.97081756591797,64.36288452148438,21.519798278808594,59.862125396728516,-0.012069914076063368,-0.001,0.0,-0.006072828504774305,-0.3954969816894547,0.6921180486679077,31.552509307861328,0.07342147827148438,0.5184185875786675
8970,-0.0034102969699435766,1.9722660827636718,70.66394805908203,64.44471740722656,21.069721221923828,59.88258361816406,-0.012979168362087673,0.0,0.0,-0.005889723036024305,-0.3954969816894547,0.6811320185661316,31.552509307861328,0.0691025627983941,0.513190417819553
8971,-0.0034102969699435766,1.952344207763672,70.60257720947266,64.48563385009766,21.499340057373047,59.862125396728516,-0.012751854790581597,-0.0003333333333333333,0.0,-0.005859205457899305,-0.4394403868408219,0.6371880173683167,31.552509307861328,0.0679660373263889,0.5181912740071615
8972,-0.0034102969699435766,1.9324223327636718,70.8276138305664,64.48563385009766,21.4788818359375,59.88258361816406,-0.011615286933051215,0.0006666666666666666,0.0,-0.006561088562011719,-0.4174677305908219,0.7140899896621704,31.552509307861328,0.07046644422743055,0.5177366468641493
8973,-0.0034102969699435766,1.9324223327636718,70.8685302734375,64.66975402832031,21.499340057373047,59.88258361816406,-0.012297227647569445,0.0,0.0,-0.0070798661973741316,-0.4284540587158219,0.6262019872665405,31.552509307861328,0.0688752916124132,0.5179639604356554
8974,-0.0034102969699435766,1.912500457763672,70.92990112304688,64.66975402832031,21.519798278808594,59.88258361816406,-0.012751854790581597,0.001,0.0,-0.0070798661973741316,-0.3735243254394547,0.36253800988197327,31.552509307861328,0.06955718994140625,0.5181912740071615
8975,-0.0034102969699435766,1.8925785827636719,70.92990112304688,64.73112487792969,21.519798278808594,59.90304183959961,-0.014343007405598959,0.002,0.0,-0.005798170301649305,-0.3185945921630875,0.19774800539016724,31.46462059020996,0.0688752916124132,0.5179639604356554
8976,-0.0034102969699435766,1.8925785827636719,70.95036315917969,64.66975402832031,21.54025650024414,59.90304183959961,-0.013888380262586805,0.0016666666666666668,0.0,-0.004180781046549479,-0.18676246936035312,0.3954960107803345,31.46462059020996,0.0697845458984375,0.5181912740071615
8977,0.0004959530300564236,1.8726567077636718,71.01173400878906,64.77204895019531,21.560714721679688,59.90304183959961,-0.014115693834092882,0.0016666666666666668,0.0,-0.0023803075154622396,-0.13183273608398594,0.14281800389289856,31.46462059020996,0.069329833984375,0.5184185875786675
8978,0.0004959530300564236,1.852734832763672,71.09356689453125,64.60838317871094,21.069721221923828,59.90304183959961,-0.013433795505099827,0.0016666666666666668,0.0,-0.0016173892550998264,-0.05493034655761875,0.06591600179672241,24.433420181274414,0.07205759684244792,0.5129631042480469
8979,0.0004959530300564236,1.852734832763672,71.15493774414062,64.89479064941406,19.105754852294922,59.90304183959961,-0.009796820746527778,0.0013333333333333333,0.0,-0.0039061440361870658,-0.09887375170898594,0.0,24.433420181274414,0.06955718994140625,0.4911412556966146
8980,-0.0034102969699435766,1.852734832763672,71.19586181640625,65.11982727050781,21.519798278808594,59.923500061035156,-0.011160659790039062,0.0006666666666666666,0.0,-0.005370945400661893,-0.03295769030761875,0.17577600479125977,24.433420181274414,0.06751149495442708,0.5177366468641493
8981,-0.0034102969699435766,1.8328129577636718,71.21631622314453,65.2630386352539,21.54025650024414,59.923500061035156,-0.010933346218532987,0.0,0.0,-0.0070493486192491316,-0.06591667468261875,0.07690200209617615,24.433420181274414,0.06614752875434028,0.5179639604356554
8982,-0.007316546969943576,1.8328129577636718,71.23677062988281,65.52899169921875,21.13109588623047,59.9439582824707,-0.011387973361545138,0.001,0.0,-0.008361583285861545,-0.12084640795898594,0.29662200808525085,24.433420181274414,0.06341976589626735,0.513190417819553
8983,-0.007316546969943576,1.852734832763672,71.25723266601562,65.14028930664062,20.885601043701172,59.9439582824707,-0.01252454121907552,0.002,0.0,-0.008819325764973959,-0.05493034655761875,0.07690200209617615,24.433420181274414,0.0679660373263889,0.5104626973470052
8984,-0.007316546969943576,1.852734832763672,71.25723266601562,65.40624237060547,20.90605926513672,60.025787353515625,-0.01252454121907552,0.001,0.0,-0.008849843343098959,-0.12084640795898594,0.4284540116786957,24.433420181274414,0.06501100328233507,0.5097807990180121
8985,-0.007316546969943576,1.852734832763672,71.2776870727539,65.54945373535156,20.926517486572266,60.005332946777344,-0.013661109076605903,0.003,0.0,-0.008025889926486545,-0.07690300280761875,0.010986000299453735,24.433420181274414,0.06364703708224827,0.5102353837754992
8986,-0.0034102969699435766,1.8328129577636718,71.25723266601562,65.59036254882812,20.98788833618164,60.06670379638672,-0.013888380262586805,0.0003333333333333333,0.0,-0.0069883134629991316,0.09887400269508362,0.5493000149726868,24.345529556274414,0.06296522352430556,0.5102353837754992
8987,-0.0034102969699435766,1.8328129577636718,71.2776870727539,65.63127899169922,21.028804779052734,60.08716583251953,-0.01252454121907552,-0.0013333333333333333,0.0,-0.0073545244004991316,0.010986000299453735,0.05493000149726868,24.433420181274414,0.0627378675672743,0.51046265496148
8988,-0.0034102969699435766,1.8328129577636718,71.25723266601562,65.7131118774414,21.028804779052734,59.9439582824707,-0.01252454121907552,0.001,0.0,-0.0072934892442491316,0.032958000898361206,0.29662200808525085,24.433420181274414,0.061601342095269095,0.5120538499620225
8989,-0.0034102969699435766,1.8328129577636718,71.2776870727539,65.63127899169922,21.008346557617188,59.96441650390625,-0.012979168362087673,0.0,0.0,-0.0070798661973741316,-0.04394401843261875,0.1538040041923523,24.433420181274414,0.0627378675672743,0.5115992228190104
8990,-0.0034102969699435766,1.8328129577636718,71.318603515625,65.89723205566406,21.04926300048828,60.005332946777344,-0.012297227647569445,-0.002,0.0,-0.0072934892442491316,-0.09887375170898594,0.4064820110797882,24.433420181274414,0.06023746066623264,0.5115992228190104
8991,-0.007316546969943576,1.8328129577636718,71.33906555175781,66.08135986328125,21.028804779052734,59.96441650390625,-0.011842600504557292,-0.002,0.0,-0.008025889926486545,-0.06591667468261875,0.20873400568962097,24.433420181274414,0.058418952094184025,0.5118265363905165
8992,-0.007316546969943576,1.8328129577636718,71.33906555175781,66.24502563476562,21.04926300048828,59.9439582824707,-0.011387973361545138,-0.0023333333333333335,0.0,-0.008727773030598959,-0.14281906420898594,0.38451001048088074,24.433420181274414,0.05660044352213542,0.5122811635335286
8993,-0.007316546969943576,1.812891082763672,71.3799819946289,66.40868377685547,21.069721221923828,59.9439582824707,-0.01320648193359375,-0.002,0.0,-0.008056407504611545,-0.07690300280761875,0.5053560137748718,24.433420181274414,0.05523664686414931,0.5125084771050348
8994,-0.0034102969699435766,1.812891082763672,71.4208984375,66.81784057617188,21.090179443359375,59.98487091064453,-0.013433795505099827,-0.0023333333333333335,0.0,-0.006835746765136719,-0.08788933093261875,0.23070600628852844,24.433420181274414,0.05114508734809028,0.5122812059190538
8995,-0.0034102969699435766,1.812891082763672,71.52318572998047,67.18608856201172,21.233386993408203,59.923500061035156,-0.013661109076605903,-0.0026666666666666666,0.0,-0.005706617567274305,0.010986000299453735,0.4614120125770569,24.433420181274414,0.04818996853298611,0.5145542992485894
8996,-0.0034102969699435766,1.812891082763672,71.7686767578125,67.37020874023438,21.25384521484375,59.88258361816406,-0.01320648193359375,-0.0026666666666666666,0.0,-0.004974216885036893,0.02197200059890747,0.4614120125770569,24.433420181274414,0.04887186686197917,0.5152362399631076
8997,-0.0034102969699435766,1.812891082763672,71.89143371582031,67.8202896118164,21.581172943115234,59.923500061035156,-0.012751854790581597,-0.002,0.0,-0.004241816202799479,-0.10986007983398594,0.2526780068874359,24.433420181274414,0.045234934488932295,0.5184185875786675
8998,0.0004959530300564236,1.812891082763672,72.52562713623047,67.96349334716797,21.60163116455078,59.96441650390625,-0.013433795505099827,-0.0023333333333333335,0.0,-0.0028380499945746527,-0.15380539233398594,0.516342043876648,24.433420181274414,0.050690375434027775,0.5181912740071615
8999,0.0004959530300564236,1.812891082763672,72.52562713623047,68.20899200439453,21.54025650024414,59.9439582824707,-0.010933346218532987,-0.0033333333333333335,0.0,-0.0030821906195746527,-0.08788933093261875,0.3076080083847046,24.433420181274414,0.04796261257595486,0.5177366468641493
9000,0.0004959530300564236,1.8328129577636718,72.95524597167969,68.61814880371094,21.581172943115234,60.005332946777344,-0.01070603264702691,-0.003,0.0,-0.0035399330986870658,-0.02197326953125156,0.7580339908599854,24.433420181274414,0.04818996853298611,0.5175093332926433
9001,-0.0034102969699435766,1.8328129577636718,73.22119903564453,68.72044372558594,21.622089385986328,59.96441650390625,-0.011387973361545138,-0.0016666666666666668,0.0,-0.003936661614312066,-0.01098694140625156,0.5712720155715942,24.345529556274414,0.050008392333984374,0.5184185875786675
9002,-0.0034102969699435766,1.8328129577636718,73.28257751464844,68.74089813232422,21.54025650024414,59.9439582824707,-0.011387973361545138,-0.001,0.0,-0.004363886515299479,-0.08788933093261875,0.8019779920578003,24.433420181274414,0.050463104248046876,0.5177366468641493
9003,-0.0034102969699435766,1.8328129577636718,73.34394836425781,68.78181457519531,21.581172943115234,59.96441650390625,-0.011387973361545138,-0.001,0.0,-0.005431980556911893,-0.04394401843261875,0.6152160167694092,24.433420181274414,0.050690375434027775,0.5179639604356554
9004,-0.0034102969699435766,1.8328129577636718,73.323486328125,68.84318542480469,21.581172943115234,60.005332946777344,-0.010933346218532987,-0.002,0.0,-0.006469535827636719,-0.04394401843261875,0.747048020362854,24.433420181274414,0.049781121148003475,0.5175093332926433
9005,-0.0034102969699435766,1.8328129577636718,72.99616241455078,67.39067077636719,21.60163116455078,59.9439582824707,-0.012297227647569445,-0.0016666666666666668,0.0,-0.006591606140136719,-0.06591667468261875,0.7690200209617615,24.345529556274414,0.06228324042426215,0.5184185875786675
9006,-0.0034102969699435766,1.8328129577636718,72.9143295288086,67.47250366210938,21.60163116455078,59.98487091064453,-0.012069914076063368,-0.002,0.0,-0.006591606140136719,-0.17577614123535312,0.8788800239562988,24.433420181274414,0.060464731852213544,0.5179640028211806
9007,-0.0034102969699435766,1.8328129577636718,72.89387512207031,67.55433654785156,21.581172943115234,59.98487091064453,-0.013661109076605903,-0.0023333333333333335,0.0,-0.005584547254774305,-0.06591667468261875,0.9447960257530212,24.433420181274414,0.05932820638020833,0.5177366892496745
9008,-0.0034102969699435766,1.8328129577636718,72.9143295288086,67.59524536132812,21.60163116455078,60.025787353515625,-0.012297227647569445,-0.0013333333333333333,0.0,-0.005248875088161893,-0.09887375170898594,0.8678940534591675,24.345529556274414,0.05910093519422743,0.5175093756781683
9009,-0.0034102969699435766,1.812891082763672,72.9143295288086,67.69754028320312,21.54025650024414,60.005332946777344,-0.011842600504557292,-0.0016666666666666668,0.0,-0.005462498135036893,-0.2856375151367203,1.1645159721374512,24.345529556274414,0.057964324951171875,0.5170547061496311
9010,-0.0034102969699435766,1.812891082763672,72.89387512207031,67.7179946899414,21.581172943115234,59.923500061035156,-0.012297227647569445,-0.002,0.0,-0.005462498135036893,-0.15380539233398594,1.0436700582504272,28.388469696044922,0.05750978257921007,0.5184185875786675
9011,-0.0034102969699435766,1.812891082763672,72.9143295288086,67.94303894042969,21.642547607421875,59.923500061035156,-0.012297227647569445,-0.0013333333333333333,0.0,-0.005340427822536893,-0.16478981311035312,0.8019779920578003,28.388469696044922,0.055236562093098955,0.5191005282931858
9012,-0.0034102969699435766,1.812891082763672,72.9143295288086,68.20899200439453,21.642547607421875,59.88258361816406,-0.013433795505099827,-0.001,0.0,-0.004943699306911893,-0.3405672484130875,0.8898659944534302,28.388469696044922,0.05228152804904514,0.5195551554361979
9013,-0.0034102969699435766,1.812891082763672,72.95524597167969,68.311279296875,21.683460235595703,59.9439582824707,-0.012751854790581597,-0.001,0.0,-0.004424921671549479,-0.12084640795898594,0.373524010181427,28.388469696044922,0.05159962972005208,0.5193277994791666
9014,-0.0034102969699435766,1.7929692077636719,72.93478393554688,68.39311218261719,21.642547607421875,59.923500061035156,-0.01252454121907552,-0.0013333333333333333,0.0,-0.004699579874674479,0.0,0.373524010181427,28.388469696044922,0.05046301947699653,0.5191005282931858
9015,-0.0034102969699435766,1.7929692077636719,72.99616241455078,68.49539947509766,21.642547607421875,59.98487091064453,-0.010478719075520834,-0.0003333333333333333,0.0,-0.006683158874511719,-0.08788933093261875,0.45042601227760315,28.388469696044922,0.05000847710503472,0.5184186299641927
9016,-0.007316546969943576,1.7929692077636719,73.01661682128906,68.41356658935547,21.581172943115234,60.025787353515625,-0.010251405504014757,-0.0006666666666666666,0.0,-0.008849843343098959,-0.12084640795898594,0.3405660092830658,28.388469696044922,0.05114500257703993,0.5172820621066623
9017,-0.007316546969943576,1.7730473327636718,72.93478393554688,68.49539947509766,21.642547607421875,60.06670379638672,-0.011615286933051215,-0.0006666666666666666,0.0,-0.010558764139811197,-0.16478981311035312,0.1538040041923523,28.388469696044922,0.04932649400499132,0.5175093756781683
9018,-0.007316546969943576,1.7730473327636718,73.01661682128906,68.65906524658203,21.663002014160156,60.10762023925781,-0.01547957526312934,0.0,0.0,-0.008727773030598959,-0.10986007983398594,0.2526780068874359,28.56424903869629,0.04841723971896701,0.5172820197211372
9019,-0.0034102969699435766,1.7730473327636718,73.20074462890625,68.92501831054688,21.642547607421875,60.148536682128906,-0.01547957526312934,0.0033333333333333335,0.0,-0.006316947937011719,-0.03295769030761875,0.3185940086841583,28.56424903869629,0.04750807020399306,0.5166001213921441
9020,-0.0034102969699435766,1.753125457763672,73.42578125,69.02731323242188,21.60163116455078,60.08716583251953,-0.014115693834092882,0.008,0.0,-0.004913181728786893,0.0,0.29662200808525085,28.56424903869629,0.04887186686197917,0.516827392578125
9021,-0.0034102969699435766,1.753125457763672,73.13936614990234,68.67951965332031,21.560714721679688,60.803192138671875,-0.012751854790581597,0.005,0.0,-0.004791132609049479,-0.16478981311035312,-0.06591667468261875,28.56424903869629,0.04955384996202257,0.5084169175889757
9022,-0.0034102969699435766,1.753125457763672,73.11891174316406,68.49539947509766,20.70147705078125,60.864566802978516,-0.012979168362087673,0.004666666666666667,0.0,-0.004760615030924479,-0.02197326953125156,0.35155200958251953,28.56424903869629,0.05137235853407118,0.4981878916422526
9023,-0.0034102969699435766,1.753125457763672,73.09844970703125,68.61814880371094,19.53537368774414,61.43739318847656,-0.01252454121907552,0.003,0.0,-0.005340427822536893,0.12084600329399109,-0.21972145373535312,28.56424903869629,0.049781121148003475,0.47886644999186195
9024,-0.0034102969699435766,1.7332035827636718,73.3644027709961,68.65906524658203,15.402854919433594,65.83586120605469,-0.01252454121907552,0.0033333333333333335,0.0,-0.005767652723524305,-0.07690300280761875,-0.18676246936035312,28.56424903869629,0.05228152804904514,0.3840777079264323
9025,-0.0034102969699435766,1.7332035827636718,73.11891174316406,68.43402862548828,15.85293197631836,69.84562683105469,-0.013661109076605903,0.005,0.0,-0.005248875088161893,-0.04394401843261875,-0.18676246936035312,28.56424903869629,0.05205425686306424,0.3445256127251519
9026,0.0004959530300564236,1.7332035827636718,73.09844970703125,68.61814880371094,21.212928771972656,71.7686767578125,-0.013888380262586805,0.0013333333333333333,0.0,-0.004089249504937066,-0.09887375170898594,0.010986000299453735,28.56424903869629,0.049781121148003475,0.38271391126844617
9027,0.0004959530300564236,1.7332035827636718,73.15982055664062,68.78181457519531,19.371707916259766,71.54364013671875,-0.015024948120117187,0.0,0.0,-0.0017394595675998264,-0.07690300280761875,0.3185940086841583,28.388469696044922,0.04864451090494792,0.36475630866156683
9028,0.004402203030056424,1.713281707763672,73.26211547851562,68.96593475341797,19.371707916259766,71.99372100830078,-0.015934202406141493,-0.0006666666666666666,0.0,0.0014648013644748264,0.07690200209617615,0.26366400718688965,28.388469696044922,0.047735341389973956,0.35975541008843315
9029,0.004402203030056424,1.713281707763672,73.60990142822266,69.51830291748047,17.182701110839844,71.33906555175781,-0.012297227647569445,0.0006666666666666666,0.0,0.0021972020467122396,-0.2636648588867203,1.032684087753296,28.56424903869629,0.04546220567491319,0.34270706176757815
9030,0.004402203030056424,1.713281707763672,74.01905822753906,69.70242309570312,17.325908660888672,71.03219604492188,-0.008887566460503472,0.0,0.0,-0.0,-0.2307058745117203,1.340291976928711,28.56424903869629,0.04796261257595486,0.34770791795518663
