,WD,WS,AIL_1,AIL_2,ELEV_1,ELEV_2,RUDD,ALT,GS,TH,PTCH,ROLL,PLA_1,AIL,ELEV
4958,-0.30825599693128797,0.5179688644409179,84.98455047607422,78.13111877441406,-2.5388107299804688,89.32164001464844,-0.0009316762288411458,0.7746666666666666,0.5328571428571428,-0.03030305173661974,-3.0980535917968766,-0.14281906420898594,33.749759674072266,0.07614924112955729,-0.07622723049587674
4959,-0.27700599693128797,0.478125114440918,85.47554016113281,78.04928588867188,-1.0862922668457031,89.13752746582031,-0.0066144307454427086,0.7693333333333333,0.5325,-0.02682415114508735,-2.493822711059572,0.373524010181427,32.8708610534668,0.08251393636067708,-0.05804244147406684
4960,-0.29263099693128797,0.45820323944091795,87.0712661743164,80.11553955078125,2.8825607299804688,89.28073120117188,-0.0034320831298828127,0.763,0.5321428571428571,-0.026549500889248318,-2.208185809204103,1.3293060064315796,32.6950798034668,0.07728585137261285,-0.015535227457682292
4961,-0.28091224693128797,0.5378907394409179,86.662109375,79.8905029296875,-4.789188385009766,89.26026916503906,-2.242194281684028e-05,0.7553333333333333,0.5314285714285715,-0.02911290062798394,-2.504809039184572,0.09887400269508362,32.34352111816406,0.07524007161458333,-0.10054952833387587
4962,-0.29653724693128797,0.5179688644409179,86.559814453125,78.70394134521484,-4.768730163574219,89.26026916503906,-0.003659396701388889,0.7493333333333333,0.5307142857142857,-0.02972323364681668,-2.504809039184572,-0.5932451658935562,32.25563049316406,0.08728747897677952,-0.10032221476236979
4963,-0.28872474693128797,0.5179688644409179,86.41661071777344,78.02882385253906,-4.605068206787109,89.1170654296875,-0.002750142415364583,0.7436666666666667,0.5296428571428572,-0.029845301310221353,-2.219172137329103,-0.6811319761962906,32.25563049316406,0.0931976318359375,-0.09691259596082899
4964,-0.28872474693128797,0.49804698944091796,85.96653747558594,77.49691772460938,-4.482318878173828,89.1170654296875,-0.0050232781304253475,0.7376666666666667,0.5285714285714286,-0.02938755088382297,-2.0433966093750016,-0.4394403868408219,32.4314079284668,0.0941068861219618,-0.09554871453179253
4965,-0.28481849693128797,0.49804698944091796,84.98455047607422,77.9469985961914,-4.277740478515625,89.30118560791016,-0.002068201700846354,0.731,0.5275,-0.029296000798543293,-2.0873400145263687,-0.48338379199218906,32.4314079284668,0.0781950208875868,-0.09532140096028646
4966,-0.28481849693128797,0.478125114440918,85.43462371826172,77.70149993896484,-2.4160614013671875,89.38301849365234,-0.003886710272894965,0.7266666666666667,0.5264285714285715,-0.028685667779710558,-2.3949495726318375,-0.2746511870117203,32.4314079284668,0.08592359754774305,-0.07554533216688368
4967,-0.27309974693128797,0.5179688644409179,87.91004180908203,79.56317901611328,-0.14522552490234375,89.13752746582031,0.005887646145290798,0.721,0.5257142857142857,-0.030028401480780707,-2.3510042601318375,1.4721240997314453,32.4314079284668,0.092742919921875,-0.047586144341362845
4968,-0.31997474693128797,0.5179688644409179,86.72348022460938,78.41752624511719,-1.6591148376464844,89.46485137939453,-0.0007043626573350694,0.716,0.5253571428571429,-0.033202134238349064,-2.2850881987304703,1.2743760347366333,33.749759674072266,0.09228837754991319,-0.0680440690782335
4969,-0.33950599693128797,0.5378907394409179,86.68256378173828,78.37661743164062,-3.66400146484375,89.52622985839844,0.0008868323432074653,0.7113333333333334,0.525,-0.0349721007876926,-2.7355143004150406,0.8898659944534302,34.013431549072266,0.09228829277886284,-0.09100257025824653
4970,-0.36294349693128797,0.5179688644409179,86.78485107421875,79.62455749511719,-3.9299545288085938,89.26026916503906,-0.001613616943359375,0.7053333333333334,0.5246428571428572,-0.03631483448876275,-3.1090380125732437,1.3732500076293945,34.101318359375,0.07955881754557291,-0.09100248548719618
4971,-0.37466224693128797,0.49804698944091796,87.0712661743164,80.17691802978516,-4.11407470703125,88.95339965820312,-0.0054779052734375,0.6993333333333334,0.525,-0.0349721007876926,-2.922276156494142,1.3183200359344482,35.15599822998047,0.07660386827256944,-0.08963860405815972
4972,-0.29653724693128797,0.5578126525878906,84.06393432617188,76.80134582519531,-4.298198699951172,88.78973388671875,-0.01002409193250868,0.6916666666666667,0.5253571428571429,-0.03295800156063504,-2.0324102812500016,-0.834936755249025,36.65013122558594,0.08069542778862847,-0.0898659176296658
4973,-0.27700599693128797,0.5179688644409179,87.50088500976562,77.9879150390625,-4.789188385009766,89.30118560791016,-0.0059324900309244795,0.6873333333333334,0.5253571428571429,-0.030150469144185385,-1.8236757689209,0.6701459884643555,36.82590866088867,0.10569966634114583,-0.10100415547688803
4974,-0.28091224693128797,0.5378907394409179,87.09172058105469,79.29722595214844,-4.830104827880859,89.44439697265625,-0.0043413374159071184,0.6813333333333333,0.5246428571428572,-0.030943902333577473,-2.241144793579103,1.1535300016403198,35.50756072998047,0.0866054958767361,-0.10305002000596789
4975,-0.32388099693128797,0.5179688644409179,88.87156677246094,81.52714538574219,-5.484760284423828,89.62850952148438,0.003387239244249132,0.678,0.5242857142857142,-0.03262231879764133,-2.6476274901123062,1.5709980726242065,34.716548919677734,0.08160468207465278,-0.11236966451009114
4976,-0.32388099693128797,0.5378907394409179,79.29722595214844,73.81448364257812,-4.686901092529297,89.40347290039062,-0.009569507175021702,0.6683333333333333,0.525,-0.03485003577338325,-4.097778933593752,-1.7357889586181656,33.749759674072266,0.06091935899522569,-0.10100415547688803
4977,-0.32388099693128797,0.438281364440918,81.48623657226562,75.14425659179688,-4.932395935058594,89.6080551147461,-0.007978312174479167,0.6703333333333333,0.5253571428571429,-0.02996736897362603,-4.822855609008791,-0.5602861815185562,32.95874786376953,0.07046644422743055,-0.10600501166449652
4978,-0.35513099693128797,0.3785157012939453,88.17599487304688,80.0950927734375,-5.218807220458984,89.34210205078125,0.008388095431857638,0.6643333333333333,0.5253571428571429,-0.027648101912604438,-4.020876544067384,2.658612012863159,28.827919006347656,0.08978780110677083,-0.10623232523600261
4979,-0.31606849693128797,0.438281364440918,86.86668395996094,79.19493103027344,-4.830104827880859,88.44195556640625,-0.0050232781304253475,0.6546666666666666,0.5260714285714285,-0.028441535101996526,-4.031862872192384,1.4721240997314453,28.56424903869629,0.08524169921875,-0.09191178215874565
4980,-0.28872474693128797,0.478125114440918,86.78485107421875,79.97233581542969,-4.8914794921875,88.64653015136719,-0.0054779052734375,0.647,0.5271428571428571,-0.02792275216844347,-2.9772058897705094,0.6811320185661316,28.388469696044922,0.07569461398654515,-0.0948667738172743
4981,-0.32388099693128797,0.41835948944091794,85.27096557617188,78.4789047241211,-5.689342498779297,89.48530578613281,-0.006841744316948784,0.6416666666666667,0.5271428571428571,-0.027159833908081056,-2.493822711059572,0.32958000898361206,28.388469696044922,0.07546734280056423,-0.11305164761013455
4982,-0.29653724693128797,0.39843757629394533,85.94607543945312,77.72195434570312,-5.1983489990234375,89.40347290039062,-0.014343007405598959,0.6383333333333333,0.5246428571428572,-0.02413868374294705,-2.3729769163818375,1.1974740028381348,28.300579071044922,0.09137912326388889,-0.10668690999348958
4983,-0.33169349693128797,0.39843757629394533,90.30363464355469,83.69569396972656,-5.014228820800781,89.23981475830078,0.00543306138780382,0.632,0.5225,-0.025115219751993816,-1.8236757689209,3.3397440910339355,28.300579071044922,0.07342156304253472,-0.1028227064344618
4984,-0.38247474693128797,0.41835948944091794,87.54179382324219,79.91096496582031,-4.768730163574219,88.29874420166016,-0.009114880032009548,0.6233333333333333,0.5196428571428572,-0.027739651997884116,-1.2743765288085953,1.3512780666351318,28.300579071044922,0.0847869873046875,-0.08963860405815972
4985,-0.39028724693128797,0.3785157012939453,87.70545959472656,81.4453125,-4.850563049316406,88.87156677246094,-0.0022955152723524307,0.6156666666666667,0.5171428571428571,-0.02517624961005317,-0.4174677305908219,0.20873400568962097,28.300579071044922,0.06955718994140625,-0.09691255357530382
4986,-0.28481849693128797,0.3785157012939453,86.68256378173828,77.84471130371094,-4.830104827880859,88.99431610107422,-0.02207158406575521,0.6143333333333333,0.5114285714285715,-0.019713767369588218,-0.02197326953125156,-0.7909933500976578,28.300579071044922,0.09819836086697048,-0.0980491214328342
4987,-0.26919349693128797,0.3785157012939453,84.18669128417969,78.13111877441406,-4.911937713623047,89.26026916503906,-0.0009316762288411458,0.61,0.5078571428571429,-0.01940860218471951,-0.4504267149658219,-1.2633902006835953,28.300579071044922,0.06728413899739584,-0.10191340976291233
4988,-0.245755996931288,0.39843757629394533,85.5164566040039,78.15158081054688,-5.300640106201172,89.73080444335938,-0.0013863033718532986,0.6076666666666667,0.5028571428571429,-0.020324103037516274,-1.1864878111572281,-0.2307058745117203,28.300579071044922,0.08183195326063368,-0.11146049499511719
4989,-0.230130996931288,0.438281364440918,87.82821655273438,79.56317901611328,-6.037128448486328,89.71034240722656,-0.003204769558376736,0.607,0.49892857142857144,-0.020415650473700628,-1.9445234709472672,0.7580339908599854,28.124799728393555,0.09183375040690105,-0.11941634284125434
4990,-0.218412246931288,0.49804698944091796,88.0737075805664,80.38150024414062,-6.5894927978515625,90.28317260742188,-0.013661109076605903,0.603,0.4942857142857143,-0.021819416681925455,-2.6586119108886734,0.36253800988197327,28.124799728393555,0.0854689704047309,-0.1319185045030382
4991,-0.27309974693128797,0.45820323944091795,87.41905212402344,81.60897827148438,-6.2007904052734375,90.24225616455078,-0.004795964558919271,0.603,0.4903571428571429,-0.02462694909837511,-3.559464114257814,-0.4504267149658219,28.124799728393555,0.06455637613932291,-0.12714496188693578
4992,-0.26528724693128797,0.478125114440918,86.02790832519531,78.11065673828125,-5.709800720214844,89.32164001464844,-0.00843293931749132,0.596,0.48642857142857143,-0.026152785619099936,-3.6803099089355484,-1.3622652464599625,28.124799728393555,0.08796946207682292,-0.11146045260959202
4993,-0.241849746931288,0.478125114440918,87.31675720214844,79.33814239501953,-5.566593170166016,89.13752746582031,-0.008660252888997395,0.59,0.48428571428571426,-0.024321783913506402,-3.1310106688232437,0.0,28.124799728393555,0.08865127563476563,-0.10782356262207031
4994,-0.241849746931288,0.5378907394409179,87.23492431640625,79.09264373779297,-5.525676727294922,89.03523254394531,-0.004114023844401042,0.5833333333333334,0.4810714285714286,-0.027068283822801378,-2.504809039184572,-0.6481748991699234,28.124799728393555,0.09046978420681423,-0.10623232523600261
4995,-0.241849746931288,0.5179688644409179,87.29630279541016,80.545166015625,-5.484760284423828,89.23981475830078,-0.0050232781304253475,0.5746666666666667,0.4789285714285714,-0.027037768893771703,-2.7025572233886734,-0.4284540587158219,28.124799728393555,0.07501263088650173,-0.10805083380805122
4996,-0.28091224693128797,0.438281364440918,86.98943328857422,81.52714538574219,-5.321098327636719,89.05569458007812,0.003387239244249132,0.5683333333333334,0.47535714285714287,-0.027220869064331056,-2.922276156494142,-0.6481748991699234,28.124799728393555,0.060692087809244795,-0.10418658786349827
4997,-0.28481849693128797,0.438281364440918,86.6007308959961,78.41752624511719,-4.768730163574219,88.54424285888672,-0.00775099860297309,0.5626666666666666,0.4732142857142857,-0.028136367268032498,-2.482836382934572,-0.856909411499025,28.124799728393555,0.09092449612087673,-0.09236636691623264
4998,-0.28091224693128797,0.49804698944091796,86.80531311035156,80.46333312988281,-4.645984649658203,88.52378845214844,-0.0018409305148654514,0.5573333333333333,0.4707142857142857,-0.030547184414333767,-1.6039568358154312,-0.21972145373535312,28.124799728393555,0.07046644422743055,-0.09077525668674045
4999,-0.28872474693128797,0.5179688644409179,85.455078125,77.68104553222656,-4.932395935058594,88.72836303710938,-0.002522828843858507,0.55,0.4689285714285714,-0.033202134238349064,-1.2414194517822281,-1.2633902006835953,28.124799728393555,0.08637813991970486,-0.09623065524631076
5000,-0.28872474693128797,0.45820323944091795,85.98699188232422,78.80622863769531,-5.157432556152344,89.2193603515625,-0.008887566460503472,0.5446666666666666,0.4642857142857143,-0.030669252077738445,-1.3622652464599625,-0.04394401843261875,28.124799728393555,0.07978625827365451,-0.10418658786349827
5001,-0.30825599693128797,0.438281364440918,88.31919860839844,80.545166015625,-5.402931213378906,89.83309936523438,-0.004568650987413194,0.5383333333333333,0.4614285714285714,-0.03124906751844618,-1.9555078917236344,0.6371880173683167,28.124799728393555,0.08637813991970486,-0.11373367309570312
5002,-0.26919349693128797,0.5378907394409179,84.22760009765625,77.45600891113281,-6.773616790771484,89.97630310058594,-0.0066144307454427086,0.5353333333333333,0.4567857142857143,-0.0338124672571818,-2.0763555937500016,-1.6588865690917984,28.124799728393555,0.07523990207248264,-0.1305546654595269
5003,-0.26138099693128797,0.5179688644409179,84.82088470458984,76.41264343261719,-7.100944519042969,91.1219482421875,-0.010251405504014757,0.5336666666666666,0.45321428571428574,-0.033446266916063096,-2.845373766967775,-0.9338098936767594,28.124799728393555,0.0934249030219184,-0.14692103068033854
5004,-0.28872474693128797,0.478125114440918,84.90271759033203,78.37661743164062,-8.267051696777344,92.28805541992188,-0.0043413374159071184,0.5316666666666666,0.44642857142857145,-0.0338124672571818,-3.3397451811523453,-0.3185945921630875,28.124799728393555,0.07251222398546008,-0.1728345235188802
5005,-0.30825599693128797,0.41835948944091794,85.72103881835938,80.15646362304688,-7.325981140136719,91.28561401367188,-0.008205625745985243,0.5296666666666666,0.44107142857142856,-0.0323781861199273,-4.4273592406005875,0.4064820110797882,28.124799728393555,0.06182861328125,-0.1512399461534288
5006,-0.30825599693128797,0.438281364440918,86.58027648925781,83.71615600585938,-6.875904083251953,90.93782806396484,-0.0054779052734375,0.5256666666666666,0.4382142857142857,-0.03298851913876004,-4.37242950732422,0.8569080233573914,28.124799728393555,0.03182356092664931,-0.14237480163574218
5007,-0.29263099693128797,0.49804698944091796,88.52378845214844,79.64501190185547,-6.794075012207031,91.42881774902344,0.0065695868598090275,0.5233333333333333,0.4342857142857143,-0.03616225189632839,-4.778910296508791,-0.3076082640380875,28.124799728393555,0.09865307278103298,-0.14692103068033854
5008,-0.26919349693128797,0.5179688644409179,81.17935943603516,75.30791473388672,-6.855449676513672,90.89691162109375,0.0017960866292317708,0.5153333333333333,0.4317857142857143,-0.03485003577338325,-4.515246050903322,-2.4059339934082047,28.124799728393555,0.06523827446831597,-0.14169290330674914
5009,-0.230130996931288,0.41835948944091794,84.14576721191406,78.96989440917969,-6.916820526123047,91.06057739257812,-0.018661922878689237,0.5123333333333333,0.4282142857142857,-0.026671568552652996,-4.987644808837892,-0.2307058745117203,28.124799728393555,0.057509697808159725,-0.1441933102077908
5010,-0.222318496931288,0.33867195129394534,89.6080551147461,79.84959411621094,-6.916820526123047,90.75370788574219,-0.016388829549153647,0.509,0.42607142857142855,-0.02114805115593804,-5.306238787719728,2.13128399848938,28.124799728393555,0.1084273444281684,-0.14078364902072482
5011,-0.210599746931288,0.45820323944091795,90.38545989990234,81.9567642211914,-6.67132568359375,90.671875,0.0002048916286892361,0.5033333333333333,0.4225,-0.025420384936862522,-4.526232379028322,1.7577600479125977,28.124799728393555,0.0936521742078993,-0.13714667426215277
5012,-0.245755996931288,0.478125114440918,85.31187438964844,78.21295166015625,-5.853004455566406,90.40591430664062,-0.005705218844943577,0.49633333333333335,0.4203571428571429,-0.02911290062798394,-3.9989038878173844,-0.845923083374025,28.124799728393555,0.07887691921657985,-0.1250990973578559
5013,-0.218412246931288,0.41835948944091794,84.49356079101562,76.45356750488281,-5.464302062988281,90.46729278564453,-0.01911655002170139,0.49166666666666664,0.41714285714285715,-0.024291266335381402,-3.4496046477050797,-0.4284540587158219,28.124799728393555,0.08933325873480903,-0.12146216498480902
5014,-0.210599746931288,0.41835948944091794,87.84866333007812,79.21539306640625,-4.871021270751953,90.65141296386719,-2.242194281684028e-05,0.4866666666666667,0.415,-0.023772483401828342,-3.7352415495605484,1.0876140594482422,28.124799728393555,0.09592522515190972,-0.11691593594021267
5015,-0.226224746931288,0.41835948944091794,87.39859008789062,80.19737243652344,-5.7507171630859375,90.59004211425781,-0.00047704908582899306,0.4816666666666667,0.4114285714285714,-0.024504884084065755,-3.812142031738283,0.790992021560669,28.124799728393555,0.08001352945963541,-0.12600843641493056
5016,-0.218412246931288,0.41835948944091794,87.45996856689453,80.68836975097656,-6.037128448486328,90.0172119140625,-0.0066144307454427086,0.47733333333333333,0.4089285714285714,-0.02371145354376899,-3.0870672636718766,0.6481740474700928,28.124799728393555,0.07523998684353299,-0.12282600402832031
5017,-0.234037246931288,0.438281364440918,86.35523986816406,80.36103820800781,-5.648426055908203,89.97630310058594,-0.0018409305148654514,0.472,0.4060714285714286,-0.025420384936862522,-2.4388929777832047,-0.5163427763671891,28.124799728393555,0.06660224066840278,-0.11805254618326823
5018,-0.226224746931288,0.45820323944091795,87.6031723022461,79.09264373779297,-5.402931213378906,90.30363464355469,-0.009342193603515625,0.465,0.4035714285714286,-0.02670208348168267,-2.3949495726318375,-0.6701475554199234,28.124799728393555,0.09456142849392361,-0.11896184285481771
5019,-0.26138099693128797,0.45820323944091795,87.562255859375,80.60653686523438,-5.402931213378906,89.95584106445312,-0.004795964558919271,0.46166666666666667,0.39964285714285713,-0.03140165011088054,-2.5926958494873062,-0.5822588377685562,28.124799728393555,0.0772857666015625,-0.11509746975368923
5020,-0.30825599693128797,0.478125114440918,87.17355346679688,79.9518814086914,-5.034687042236328,89.64897155761719,0.002932612101236979,0.45666666666666667,0.39714285714285713,-0.03701671759287516,-3.0431219511718766,-1.6369139128417984,28.124799728393555,0.08024080064561633,-0.10759620666503907
5021,-0.29653724693128797,0.49804698944091796,85.18913269042969,77.25142669677734,-5.055145263671875,89.17843627929688,-0.00775099860297309,0.45366666666666666,0.3942857142857143,-0.03799325095282661,-2.1093126707763687,-2.0433966093750016,28.124799728393555,0.08819673326280382,-0.10259535047743056
5022,-0.28481849693128797,0.478125114440918,85.31187438964844,77.8856201171875,-4.339115142822266,89.1170654296875,-0.0075236850314670135,0.44866666666666666,0.3914285714285714,-0.037474468019273545,-1.0216986113281266,-0.5492998533935562,28.124799728393555,0.08251393636067708,-0.09395756191677518
5023,-0.29653724693128797,0.478125114440918,85.72103881835938,79.41996765136719,-3.5821685791015625,88.68744659423828,0.0065695868598090275,0.445,0.3871428571428571,-0.0388172017203437,0.02197200059890747,0.02197200059890747,28.124799728393555,0.07001190185546875,-0.08077350192599826
5024,-0.29263099693128797,0.438281364440918,86.662109375,78.540283203125,-2.334228515625,88.81019592285156,-0.013661109076605903,0.44133333333333336,0.38392857142857145,-0.03604018423292372,0.5822579860687256,0.5273280143737793,28.124799728393555,0.09024251302083333,-0.06827138264973959
5025,-0.30044349693128797,0.478125114440918,87.78729248046875,82.01814270019531,-4.073158264160156,88.74882507324219,0.0072515275743272566,0.43766666666666665,0.37892857142857145,-0.03848151895734999,0.8129640221595764,0.790992021560669,28.124799728393555,0.06410166422526041,-0.08691092597113716
5026,-0.32778724693128797,0.478125114440918,87.50088500976562,81.13844299316406,-4.7482757568359375,89.68988800048828,-0.005705218844943577,0.43433333333333335,0.37535714285714283,-0.04107543627421061,0.8898659944534302,-0.7360617094726578,28.124799728393555,0.07069380018446181,-0.10486848619249133
5027,-0.31997474693128797,0.45820323944091795,86.80531311035156,79.9518814086914,-5.607509613037109,91.1219482421875,-0.016388829549153647,0.43233333333333335,0.36857142857142855,-0.04000735282897949,0.04394400119781494,-1.505081790039064,28.124799728393555,0.07614924112955729,-0.13032730950249566
5028,-0.31216224693128797,0.45820323944091795,86.08927917480469,78.09020233154297,-5.464302062988281,90.99920654296875,-0.004114023844401042,0.42933333333333334,0.36357142857142855,-0.04009890291425917,-1.3842359953613297,-1.4062086516113297,28.124799728393555,0.08887863159179688,-0.12737231784396702
5029,-0.32778724693128797,0.45820323944091795,86.23248291015625,79.52226257324219,-4.175449371337891,91.34698486328125,-0.0007043626573350694,0.428,0.35714285714285715,-0.04293695290883382,-2.515795367309572,-0.6811319761962906,28.036909103393555,0.07455800374348959,-0.11691593594021267
5030,-0.33169349693128797,0.478125114440918,86.21202850341797,79.17447662353516,0.16164779663085938,91.7152328491211,-0.003659396701388889,0.42533333333333334,0.3532142857142857,-0.04641585085127089,-3.812142031738283,-0.9557825499267594,28.036909103393555,0.0781950208875868,-0.07281761169433594
5031,-0.32778724693128797,0.49804698944091796,83.42974090576172,77.31279754638672,-5.484760284423828,91.42881774902344,-0.004795964558919271,0.42133333333333334,0.34785714285714286,-0.04824685255686442,-5.119476931640627,-1.3512789183349625,28.036909103393555,0.0679660373263889,-0.13237308926052518
5032,-0.31606849693128797,0.478125114440918,83.40928649902344,77.45600891113281,-4.850563049316406,90.81507873535156,-0.014343007405598959,0.419,0.34535714285714286,-0.045713967747158475,-5.679762499877931,-0.4064833098144547,28.827919006347656,0.06614752875434028,-0.11850713094075521
5033,-0.28872474693128797,0.49804698944091796,86.25294494628906,80.17691802978516,-2.9684295654296875,90.20133972167969,-0.011160659790039062,0.413,0.34214285714285714,-0.04427968396080865,-5.163420336791994,1.0546560287475586,30.849390029907227,0.06751141018337674,-0.09077521430121528
5034,-0.30434974693128797,0.45820323944091795,88.29874420166016,82.5091323852539,-1.4545364379882812,90.05813598632812,-0.011842600504557292,0.408,0.3407142857142857,-0.04263178507486979,-4.185667651245119,1.3842360973358154,31.46462059020996,0.06432902018229167,-0.07236302693684896
5035,-0.28481849693128797,0.49804698944091796,88.0737075805664,81.85447692871094,-3.275299072265625,89.83309936523438,-0.007296371459960938,0.402,0.3382142857142857,-0.04315056800842285,-3.6473528319091812,0.04394400119781494,32.07984924316406,0.0691025627983941,-0.09009331597222223
5036,-0.28481849693128797,0.49804698944091796,83.18424987792969,78.15158081054688,-2.477436065673828,88.95339965820312,-0.011160659790039062,0.3983333333333333,0.3357142857142857,-0.043455735842386885,-2.6256548338623062,-1.9664942198486344,33.573978424072266,0.05591854519314236,-0.07145373026529948
5037,-0.26138099693128797,0.45820323944091795,83.87982177734375,76.92410278320312,-1.1272087097167969,90.569580078125,-0.014797634548611112,0.39466666666666667,0.33285714285714285,-0.04015993542141384,-2.1202989989013687,-1.6918455534667984,34.892330169677734,0.0772857666015625,-0.0744087643093533
5038,-0.241849746931288,0.45820323944091795,85.1072998046875,77.35371398925781,-0.3907203674316406,90.50820922851562,-0.010933346218532987,0.39066666666666666,0.33071428571428574,-0.038115318616231283,-3.0431219511718766,-0.08788933093261875,35.6833381652832,0.08615095350477431,-0.06554366217719185
5039,-0.26138099693128797,0.45820323944091795,87.37813568115234,81.26119232177734,-3.275299072265625,89.54668426513672,-0.0034320831298828127,0.388,0.32785714285714285,-0.0403430355919732,-3.1200243406982437,1.4281799793243408,36.29856872558594,0.0679660373263889,-0.08691092597113716
5040,-0.28091224693128797,0.49804698944091796,86.78485107421875,81.81356048583984,-2.7843055725097656,89.6080551147461,-0.002522828843858507,0.38333333333333336,0.32607142857142857,-0.04498156971401639,-2.3070608549804703,0.6811320185661316,37.441139221191406,0.055236562093098955,-0.08213734096950955
5041,-0.25356849693128797,0.49804698944091796,78.66302490234375,72.01417541503906,-0.4725532531738281,89.93538665771484,-0.027072440253363715,0.381,0.32392857142857145,-0.041746801800198026,-1.8126913481445328,-1.8126913481445328,38.671600341796875,0.07387610541449653,-0.06008822123209635
5042,-0.187162246931288,0.45820323944091795,82.24317932128906,74.71463012695312,-1.945526123046875,91.65385437011719,-0.03161866929796007,0.37833333333333335,0.3225,-0.032134050793117944,-2.504809039184572,-0.2746511870117203,39.19894027709961,0.08365054660373264,-0.09554867214626736
5043,-0.183255996931288,0.41835948944091794,88.89202880859375,83.14332580566406,-0.4111785888671875,89.09660339355469,-0.006159803602430555,0.37566666666666665,0.32107142857142856,-0.02831946743859185,-3.7462259703369156,2.449877977371216,39.19894027709961,0.06387447781032986,-0.05008646647135417
5044,-0.218412246931288,0.3785157012939453,87.33721923828125,79.9927978515625,0.18210220336914062,90.44683837890625,-0.005705218844943577,0.37266666666666665,0.32071428571428573,-0.030028401480780707,-3.1090380125732437,0.9667680263519287,39.19894027709961,0.08160468207465278,-0.05849706861707899
5045,-0.206693496931288,0.438281364440918,83.57295227050781,75.26699829101562,3.250804901123047,88.72836303710938,-0.009114880032009548,0.371,0.32035714285714284,-0.030516666836208767,-2.7355143004150406,-1.0656420164794937,40.42940139770508,0.09228837754991319,-0.005306201510959201
5046,-0.194974746931288,0.45820323944091795,87.54179382324219,80.46333312988281,-5.055145263671875,92.1243896484375,-0.007296371459960938,0.36533333333333334,0.32107142857142856,-0.031065967347886827,-2.4059339934082047,0.5053560137748718,42.362979888916016,0.07864956325954861,-0.13532816569010417
5047,-0.214505996931288,0.49804698944091796,88.44195556640625,82.52958679199219,-2.4569778442382812,89.1170654296875,0.002932612101236979,0.363,0.32071428571428573,-0.03585708406236437,-3.6143938475341812,1.6149420738220215,42.62664794921875,0.06569298638237847,-0.07304492526584201
5048,-0.206693496931288,0.5179688644409179,89.26026916503906,81.79310607910156,0.9390487670898438,90.24225616455078,-0.01547957526312934,0.3606666666666667,0.32,-0.03481951819525825,-4.097778933593752,0.9228240251541138,40.25362014770508,0.08296847873263889,-0.04781341552734375
5049,-0.194974746931288,0.5179688644409179,90.42637634277344,81.05661010742188,-3.909496307373047,89.50576782226562,-0.015252261691623263,0.356,0.31785714285714284,-0.03167630036671956,-2.7135435515136734,0.9887400269508362,38.320037841796875,0.10410851372612848,-0.09350293477376302
5050,-0.234037246931288,0.39843757629394533,87.88958740234375,79.74729919433594,-4.911937713623047,90.24225616455078,-0.007069057888454861,0.354,0.3157142857142857,-0.03018098407321506,-2.142269747802736,0.07690200209617615,36.56224060058594,0.09046986897786459,-0.11282437642415365
5051,-0.206693496931288,0.478125114440918,79.68592834472656,71.97325897216797,-4.564151763916016,89.91493225097656,-0.004795964558919271,0.348,0.3142857142857143,-0.03265283372667101,-1.7577597075195328,-2.6476274901123062,36.29856872558594,0.08569632636176215,-0.10532315572102864
5052,-0.194974746931288,0.438281364440918,84.43218231201172,78.56073760986328,-3.9504127502441406,90.13996887207031,-0.007978312174479167,0.345,0.3132142857142857,-0.030547184414333767,-2.823403018066408,0.1867620050907135,39.726280212402344,0.06523827446831597,-0.10100424024793837
5053,-0.234037246931288,0.45820323944091795,88.64653015136719,81.58851623535156,-4.3595733642578125,89.38301849365234,0.0011141459147135417,0.342,0.31285714285714283,-0.03549088372124566,-4.042849200317384,2.3290319442749023,40.25362014770508,0.07842237684461806,-0.09713990953233508
5054,-0.30434974693128797,0.478125114440918,84.86180114746094,77.90608215332031,-6.2007904052734375,89.91493225097656,0.018389765421549478,0.3373333333333333,0.31285714285714283,-0.04693463643391927,-4.218624728271486,1.3293060064315796,41.39619064331055,0.0772857666015625,-0.1235080295138889
5055,-0.26138099693128797,0.478125114440918,82.42729949951172,71.3595199584961,-6.1394195556640625,89.03523254394531,-0.028890948825412325,0.33566666666666667,0.3132142857142857,-0.04055665069156223,-4.273554461547853,0.10986000299453735,48.427391052246094,0.12297532823350694,-0.11305168999565972
5056,-0.163724746931288,0.49804698944091796,90.0172119140625,80.27920532226562,-6.712242126464844,90.24225616455078,-0.02980016072591146,0.33,0.31607142857142856,-0.026641050974527996,-3.284815447875978,3.1749541759490967,49.5699577331543,0.1082000732421875,-0.1328277587890625
5057,-0.194974746931288,0.478125114440918,92.53355407714844,84.554931640625,-6.650867462158203,90.36500549316406,0.0011141459147135417,0.3263333333333333,0.32035714285714284,-0.02673260105980767,-3.3397451811523453,6.833292007446289,48.69105911254883,0.08865136040581598,-0.13350969950358074
5058,-0.245755996931288,0.5777345275878907,85.53691101074219,78.78577423095703,-6.8963623046875,90.20133972167969,0.018389765421549478,0.323,0.3217857142857143,-0.03655896716647678,-3.2957998686523453,5.6248321533203125,48.427391052246094,0.07501263088650173,-0.13441891140407985
5059,-0.25747474693128797,0.5976564025878907,86.17111206054688,79.9927978515625,-6.834991455078125,90.671875,-0.01002409193250868,0.31833333333333336,0.32321428571428573,-0.036284319559733075,-2.878332751342775,4.614120006561279,48.427391052246094,0.06864793565538195,-0.1389651828342014
5060,-0.245755996931288,0.5976564025878907,88.38057708740234,81.19981384277344,-6.834991455078125,90.6309585571289,-0.029345575968424478,0.315,0.3242857142857143,-0.030669252077738445,-2.867346423217775,3.2628421783447266,48.427391052246094,0.07978625827365451,-0.13851055569118922
5061,-0.230130996931288,0.5378907394409179,87.82821655273438,80.32012939453125,-6.814533233642578,90.30363464355469,-0.029572847154405384,0.31166666666666665,0.325,-0.023528353373209635,-2.4498793059082047,-0.19774879748535312,48.427391052246094,0.0834231906467014,-0.13464630974663627
5062,-0.183255996931288,0.5378907394409179,88.0123291015625,81.19981384277344,-7.44873046875,91.1219482421875,-0.030254787868923612,0.30833333333333335,0.325,-0.016936752531263564,-2.2960745268554703,-0.7140909605712906,48.427391052246094,0.07569461398654515,-0.15078531901041667
5063,-0.191068496931288,0.49804698944091796,90.79461669921875,85.18913269042969,-7.285064697265625,91.20378112792969,-0.012297227647569445,0.30666666666666664,0.3246428571428571,-0.01559401618109809,-3.0870672636718766,-0.7909933500976578,48.427391052246094,0.062283155653211804,-0.14987606472439235
5064,-0.179349746931288,0.49804698944091796,89.0147705078125,80.42241668701172,-6.957736968994141,90.32408142089844,-0.014115693834092882,0.30366666666666664,0.3246428571428571,-0.014922650655110677,-2.7135435515136734,-1.0107122832031266,48.427391052246094,0.09547059800889757,-0.1364646487765842
5065,-0.152005996931288,0.49804698944091796,88.68744659423828,83.24562072753906,-7.060028076171875,90.89691162109375,-0.030027474297417533,0.3016666666666667,0.325,-0.012176153394911024,-2.4169203215332047,-3.3727022581787125,48.339500427246094,0.060464731852213544,-0.14396599663628473
5066,-0.132474746931288,0.478125114440918,88.0737075805664,79.82913208007812,-7.1418609619140625,90.46729278564453,-0.01547957526312934,0.29833333333333334,0.3242857142857143,-0.01144375271267361,-2.2960745268554703,-4.141722338745119,48.339500427246094,0.09160639444986979,-0.1401017083062066
5067,-0.12466224693128798,0.478125114440918,88.0737075805664,79.60409545898438,-7.571479797363281,91.1219482421875,-0.002522828843858507,0.2976666666666667,0.32357142857142857,-0.013763019773695205,-2.515795367309572,-3.3507315092773453,48.339500427246094,0.09410680135091146,-0.15214920043945312
5068,-0.140287246931288,0.438281364440918,90.46729278564453,81.40440368652344,-7.489646911621094,91.0810317993164,0.009524663289388021,0.2946666666666667,0.32357142857142857,-0.01672313478257921,-3.0431219511718766,-1.8346620970459,48.339500427246094,0.10069876776801215,-0.15078531901041667
5069,-0.128568496931288,0.45820323944091795,88.33966064453125,80.42241668701172,-6.834991455078125,90.03767395019531,-0.014343007405598959,0.29133333333333333,0.32321428571428573,-0.017119852701822917,-3.196926730224611,-3.493548052856447,48.427391052246094,0.08796937730577258,-0.1319185045030382
5070,-0.11684974693128798,0.438281364440918,86.45751953125,77.9469985961914,-7.837432861328125,90.38545989990234,-0.022753524780273437,0.289,0.32321428571428573,-0.017882765663994684,-1.9445234709472672,-4.009890215942384,48.427391052246094,0.09456134372287327,-0.14692103068033854
5071,-0.12075599693128798,0.478125114440918,86.84622192382812,80.44287109375,-7.960178375244141,91.91981506347656,0.016116672092013888,0.2843333333333333,0.3225,-0.022887500127156575,-2.504809039184572,-2.263117449829103,48.427391052246094,0.0711483425564236,-0.16533326043023003
5072,-0.152005996931288,0.39843757629394533,86.82576751708984,79.23585510253906,-7.223690032958984,90.48774719238281,-0.0018409305148654514,0.2833333333333333,0.32285714285714284,-0.026396918296813964,-3.7791849547119156,-2.911289828369142,48.427391052246094,0.08433236016167535,-0.14123819139268662
5073,-0.11684974693128798,0.438281364440918,86.78485107421875,79.31768798828125,-6.814533233642578,89.89447021484375,-0.024117406209309897,0.2793333333333333,0.32357142857142857,-0.025023667017618816,-3.229883807250978,-3.1419969969482437,48.339500427246094,0.08296847873263889,-0.13010003831651476
5074,-0.136380996931288,0.438281364440918,86.6007308959961,79.82913208007812,-6.9781951904296875,90.48774719238281,0.006114959716796875,0.2773333333333333,0.32392857142857145,-0.030455634329054092,-2.252131121704103,-1.2963491850585953,48.339500427246094,0.07523998684353299,-0.13851047092013888
5075,-0.148099746931288,0.49804698944091796,86.62118530273438,79.37905883789062,-6.998653411865234,90.52867126464844,0.004523807101779514,0.2743333333333333,0.32321428571428573,-0.0350331359439426,-2.0324102812500016,-1.4281813078613297,48.339500427246094,0.08046807183159722,-0.13919249640570747
5076,-0.132474746931288,0.45820323944091795,86.23248291015625,78.23341369628906,-8.451171875,92.65629577636719,-0.012979168362087673,0.272,0.3225,-0.033019034067789714,-2.3949495726318375,-1.4062086516113297,48.339500427246094,0.08887854682074653,-0.17897186279296876
5077,-0.12466224693128798,0.438281364440918,85.94607543945312,79.60409545898438,-7.346439361572266,90.69232940673828,-0.02684512668185764,0.2713333333333333,0.3217857142857143,-0.03164578543768989,-3.7681986265869156,-0.6701475554199234,48.339500427246094,0.07046644422743055,-0.14487520853678384
5078,-0.144193496931288,0.438281364440918,84.67768096923828,76.9854736328125,-7.285064697265625,90.65141296386719,0.0011141459147135417,0.2663333333333333,0.3221428571428571,-0.03506365087297228,-3.6473528319091812,0.9008520245552063,48.339500427246094,0.0854689704047309,-0.14373864067925346
5079,-0.163724746931288,0.41835948944091794,86.49844360351562,80.25875091552734,-7.305522918701172,90.48774719238281,0.014525477091471355,0.262,0.32321428571428573,-0.03588760164048937,-3.592423098632814,2.04339599609375,48.339500427246094,0.06932991875542535,-0.14214744567871093
5080,-0.155912246931288,0.3785157012939453,86.19157409667969,79.4404296875,-7.203235626220703,90.26271057128906,-0.009569507175021702,0.258,0.32392857142857145,-0.03207301828596327,-3.559464114257814,1.307334065437317,48.339500427246094,0.07501271565755209,-0.13851051330566405
5081,-0.10903724693128798,0.39843757629394533,86.17111206054688,77.64012145996094,-7.182777404785156,90.30363464355469,-0.026617813110351562,0.25333333333333335,0.32607142857142857,-0.02569503519270155,-3.493548052856447,0.9557820558547974,48.339500427246094,0.09478878445095486,-0.1387379116482205
5082,-0.08559974693128798,0.3785157012939453,88.6056137084961,82.42729949951172,-7.223690032958984,90.671875,-0.016388829549153647,0.24933333333333332,0.3271428571428571,-0.02120908631218804,-3.3727022581787125,1.2414180040359497,48.339500427246094,0.06864793565538195,-0.1432840559217665
5083,-0.07778724693128798,0.3785157012939453,84.94363403320312,76.65814208984375,-7.162319183349609,90.569580078125,0.002705298529730903,0.24433333333333335,0.32821428571428574,-0.02001893255445692,-3.943974154541017,-0.9997259550781266,48.339500427246094,0.09206102159288194,-0.1414655473497179
5084,-0.0191934691535102,0.45820323944091795,86.33477783203125,76.82180786132812,-6.7531585693359375,89.85355377197266,-0.030709415011935765,0.24166666666666667,0.3292857142857143,-0.012939066357082791,-3.3946749144287125,-0.07690300280761875,48.339500427246094,0.10569966634114583,-0.12896347045898438
5085,-0.0348184691535102,0.39843757629394533,87.03034973144531,80.81111145019531,-7.510105133056641,91.65385437011719,0.01725323994954427,0.24033333333333334,0.3296428571428571,-0.014403867721557616,-3.570450442382814,3.3617160320281982,48.339500427246094,0.06910264756944444,-0.15737732781304253
5086,-0.08950599693128798,0.478125114440918,88.38057708740234,80.66790771484375,-7.5305633544921875,91.18331909179688,0.017480553521050348,0.23566666666666666,0.33035714285714285,-0.02065978580050998,-4.800882952758791,3.702282190322876,48.339500427246094,0.08569632636176215,-0.15237647162543402
5087,-0.10513099693128798,0.41835948944091794,90.73324584960938,80.87248992919922,-7.387355804443359,90.48774719238281,0.0002048916286892361,0.234,0.33107142857142857,-0.019133949279785158,-4.734966891357423,2.8783321380615234,48.339500427246094,0.10956395467122396,-0.14305669996473525
5088,-0.10122474693128798,0.438281364440918,86.6007308959961,78.66302490234375,-7.428272247314453,91.36744689941406,-0.021389685736762153,0.229,0.3317857142857143,-0.018096383412679037,-3.7352415495605484,0.9447960257530212,48.339500427246094,0.08819673326280382,-0.1532857682969835
5089,-0.10903724693128798,0.438281364440918,86.02790832519531,79.46089172363281,-7.489646911621094,91.44927978515625,-0.002068201700846354,0.22566666666666665,0.33214285714285713,-0.018554136488172744,-3.867073672363283,1.0107120275497437,48.339500427246094,0.07296685112847222,-0.15487696329752604
5090,-0.12075599693128798,0.39843757629394533,86.90760040283203,81.0361557006836,-7.3668975830078125,90.77416229248047,-0.002522828843858507,0.22266666666666668,0.3317857142857143,-0.01834051873948839,-4.075806277343752,1.4831100702285767,48.339500427246094,0.06523827446831597,-0.14601177639431423
5091,-0.12466224693128798,0.39843757629394533,86.5188980102539,79.50180053710938,-7.080486297607422,90.34454345703125,-0.007069057888454861,0.21833333333333332,0.3325,-0.017669153213500977,-3.3617159300537125,2.6476261615753174,48.339500427246094,0.0779677497016059,-0.1380558861626519
5092,-0.132474746931288,0.45820323944091795,92.55400848388672,86.27340698242188,-7.428272247314453,90.81507873535156,0.008160781860351563,0.21366666666666667,0.33321428571428574,-0.01776070064968533,-2.812416689941408,3.680310010910034,48.339500427246094,0.06978446112738715,-0.14714834425184461
5093,-0.12466224693128798,0.49804698944091796,87.93049621582031,79.74729919433594,-7.285064697265625,91.14241027832031,-0.018207295735677084,0.20966666666666667,0.33285714285714285,-0.01620435184902615,-2.9991785460205094,2.2411441802978516,48.339500427246094,0.09092441134982639,-0.1491941663953993
5094,-0.148099746931288,0.478125114440918,90.79461669921875,81.0975341796875,-7.244148254394531,90.85599517822266,0.005887646145290798,0.20533333333333334,0.33214285714285713,-0.016906234953138564,-2.900305407592775,3.8341140747070312,48.339500427246094,0.107745361328125,-0.1455571492513021
5095,-0.183255996931288,0.5179688644409179,88.76927947998047,80.74974060058594,-7.285064697265625,90.95828247070312,0.009751976860894098,0.20366666666666666,0.33214285714285713,-0.020995468563503688,-2.6036821776123062,1.3183200359344482,48.339500427246094,0.08910598754882812,-0.14714830186631944
5096,-0.194974746931288,0.45820323944091795,85.35279846191406,76.90364074707031,-8.103385925292969,92.1243896484375,-0.030709415011935765,0.201,0.33214285714285713,-0.019805320103963218,-1.8126913481445328,-2.252131121704103,48.339500427246094,0.09387953016493056,-0.16919750637478298
5097,-0.183255996931288,0.41835948944091794,83.77752685546875,75.9216537475586,-8.103385925292969,92.69721984863281,-0.01252454121907552,0.197,0.33071428571428574,-0.01892033682929145,-3.592423098632814,-3.3067861967773453,48.339500427246094,0.08728747897677952,-0.17556228637695312
5098,-0.163724746931288,0.438281364440918,84.20714569091797,76.06486511230469,-7.714683532714844,90.91737365722656,-0.018889236450195312,0.19433333333333333,0.33071428571428574,-0.018615166346232098,-5.4051119261474625,-2.0543829375000016,48.339500427246094,0.09046978420681423,-0.15146730211046006
5099,-0.163724746931288,0.41835948944091794,85.39370727539062,77.96745300292969,-7.67376708984375,90.6309585571289,0.008388095431857638,0.19133333333333333,0.3317857142857143,-0.019683249791463218,-5.295252459594728,-0.03295769030761875,48.339500427246094,0.08251393636067708,-0.14783028496636286
5100,-0.159818496931288,0.438281364440918,83.5115737915039,75.14425659179688,-7.571479797363281,90.569580078125,-0.01070603264702691,0.185,0.3325,-0.019469632042778864,-4.086792605468752,0.16479000449180603,48.339500427246094,0.0929701911078559,-0.14601177639431423
5101,-0.163724746931288,0.39843757629394533,87.37813568115234,80.44287109375,-7.571479797363281,90.89691162109375,0.001341459486219618,0.18033333333333335,0.3335714285714286,-0.01779121822781033,-3.7681986265869156,1.4721240997314453,48.339500427246094,0.0770584954155816,-0.14964879353841146
5102,-0.167630996931288,0.39843757629394533,86.92805480957031,81.11798858642578,-7.5919342041015625,90.93782806396484,-0.004795964558919271,0.17566666666666667,0.3342857142857143,-0.01666209962632921,-3.87805809313965,1.2853620052337646,48.339500427246094,0.06455629136827257,-0.15033069186740453
5103,-0.175443496931288,0.3585938262939453,86.96897888183594,80.85203552246094,-7.551021575927734,90.91737365722656,-0.015706888834635415,0.171,0.33535714285714285,-0.014861615498860677,-3.4166475706787125,1.1864880323410034,48.339500427246094,0.0679660373263889,-0.14964883592393663
5104,-0.175443496931288,0.3785157012939453,87.19401550292969,81.73172760009766,-7.571479797363281,90.91737365722656,0.006342273288302952,0.166,0.3364285714285714,-0.015410916010538737,-3.7572122984619156,0.5383139848709106,48.339500427246094,0.060692087809244795,-0.1498761494954427
5105,-0.179349746931288,0.33867195129394534,86.1097412109375,78.27432250976562,-6.712242126464844,89.50576782226562,-0.028890948825412325,0.161,0.3367857142857143,-0.012511836157904731,-3.6693254881591812,0.26366400718688965,48.339500427246094,0.08706020779079861,-0.1246445549858941
5106,-0.171537246931288,0.3785157012939453,88.0737075805664,84.82088470458984,-6.916820526123047,90.95828247070312,-0.0013863033718532986,0.15566666666666668,0.33785714285714286,-0.013640949461195205,-2.856360095092775,-0.856909411499025,48.339500427246094,0.03614247639973958,-0.14305669996473525
5107,-0.202787246931288,0.33867195129394534,88.27828979492188,80.32012939453125,-6.957736968994141,90.85599517822266,-0.0009316762288411458,0.151,0.3385714285714286,-0.015990734100341797,-3.4056612425537125,-2.570725100585939,48.339500427246094,0.08842400444878472,-0.14237480163574218
5108,-0.155912246931288,0.3187500762939453,85.08683776855469,76.26943969726562,-6.569034576416016,89.52622985839844,-0.03093672858344184,0.14666666666666667,0.3392857142857143,-0.012939066357082791,-3.4166475706787125,-4.207638400146486,48.339500427246094,0.09797108968098958,-0.12328071594238281
5109,-0.136380996931288,0.3585938262939453,85.29141998291016,78.56073760986328,-6.5894927978515625,90.1604232788086,-0.0075236850314670135,0.14266666666666666,0.34,-0.01620435184902615,-3.0321375303955094,-3.0760809355468766,48.339500427246094,0.07478535970052083,-0.13055462307400173
5110,-0.163724746931288,0.3785157012939453,84.43218231201172,78.27432250976562,-6.691783905029297,89.97630310058594,-0.0009316762288411458,0.139,0.34035714285714286,-0.0216057989332411,-2.7794596129150406,-0.9008528166503922,48.339500427246094,0.06842066446940104,-0.12964541117350262
5111,-0.152005996931288,0.3785157012939453,86.02790832519531,80.27920532226562,-6.037128448486328,88.81019592285156,0.01066118876139323,0.13533333333333333,0.3407142857142857,-0.0217583868238661,-1.9005781584472672,-0.2636648588867203,48.339500427246094,0.06387447781032986,-0.10941471523708768
5112,-0.10122474693128798,0.39843757629394533,86.0074462890625,78.58119201660156,-6.528118133544922,89.95584106445312,-0.030027474297417533,0.136,0.34,-0.01556349860297309,-0.48338379199218906,-0.3735243254394547,48.339500427246094,0.08251393636067708,-0.12759954664442275
5113,-0.08950599693128798,0.33867195129394534,85.98699188232422,79.58363342285156,-8.533004760742188,92.41080474853516,-0.01616151597764757,0.13433333333333333,0.3367857142857143,-0.013335784276326498,0.032958000898361206,0.5053560137748718,48.339500427246094,0.07114842732747396,-0.17715343899197047
5114,-0.12466224693128798,0.3187500762939453,86.6007308959961,81.01570129394531,-8.267051696777344,92.69721984863281,0.01543473137749566,0.134,0.33464285714285713,-0.01571608649359809,-1.8126913481445328,1.966494083404541,48.339500427246094,0.062055884467230905,-0.17738079494900175
5115,-0.144193496931288,0.33867195129394534,88.31919860839844,82.46821594238281,-7.407814025878906,91.572021484375,-2.242194281684028e-05,0.13233333333333333,0.33321428571428574,-0.016997782389322917,-3.548477786132814,1.494096040725708,48.339500427246094,0.06501091851128472,-0.15533150566948783
5116,-0.155912246931288,0.3585938262939453,87.72592163085938,79.80867004394531,-7.203235626220703,90.2218017578125,0.005887646145290798,0.13,0.33321428571428574,-0.01831000116136339,-3.240870135375978,0.9997260570526123,48.339500427246094,0.08796946207682292,-0.13805597093370225
5117,-0.155912246931288,0.3785157012939453,86.72348022460938,79.4404296875,-7.223690032958984,90.34454345703125,-0.004568650987413194,0.12733333333333333,0.33321428571428574,-0.019103436999850804,-1.9335371428222672,-0.21972145373535312,48.339500427246094,0.08092278374565973,-0.13964703877766926
5118,-0.159818496931288,0.3785157012939453,85.80287170410156,77.68104553222656,-7.264606475830078,91.10148620605469,-0.0034320831298828127,0.12366666666666666,0.3325,-0.019744284947713218,-1.6808592253417984,-0.5053564482421891,48.339500427246094,0.09024251302083333,-0.14851214090983073
5119,-0.136380996931288,0.3785157012939453,85.63920593261719,78.4789047241211,-7.285064697265625,91.2242431640625,-0.01752539740668403,0.12,0.3317857142857143,-0.017577600479125977,-2.482836382934572,0.23070600628852844,48.339500427246094,0.07955890231662327,-0.1501034206814236
5120,-0.140287246931288,0.3585938262939453,85.86424255371094,79.93142700195312,-7.264606475830078,90.83554077148438,0.0017960866292317708,0.11666666666666667,0.3314285714285714,-0.01672313478257921,-3.273829119750978,2.0763540267944336,48.339500427246094,0.06592017279730902,-0.14555719163682726
5121,-0.183255996931288,0.3187500762939453,87.21446990966797,84.69813537597656,-7.264606475830078,90.77416229248047,0.009524663289388021,0.11366666666666667,0.33214285714285713,-0.017425017886691624,-3.3946749144287125,0.7580339908599854,48.339500427246094,0.02795927259657118,-0.14487520853678384
5122,-0.171537246931288,0.2789063262939453,84.90271759033203,78.4789047241211,-7.100944519042969,90.38545989990234,-0.02457203335232205,0.11066666666666666,0.33285714285714285,-0.01406818495856391,-3.4276319914550797,-0.5492998533935562,48.339500427246094,0.07137569851345486,-0.13873782687717015
5123,-0.10513099693128798,0.3585938262939453,85.47554016113281,79.35859680175781,-7.162319183349609,90.42637634277344,-0.011842600504557292,0.105,0.33464285714285713,-0.011077552371554904,-3.4496046477050797,0.32958000898361206,48.339500427246094,0.0679660373263889,-0.1398743947347005
5124,-0.136380996931288,0.3187500762939453,88.83065795898438,79.93142700195312,-7.1418609619140625,90.89691162109375,0.002932612101236979,0.10233333333333333,0.33535714285714285,-0.012542348437839084,-3.88904442126465,2.0214240550994873,48.339500427246094,0.0988803439670139,-0.14487525092230902
5125,-0.163724746931288,0.3585938262939453,90.0172119140625,80.91340637207031,-7.121402740478516,90.36500549316406,0.016798612806532116,0.09633333333333334,0.3364285714285714,-0.015410916010538737,-3.526507037231447,2.8563599586486816,48.339500427246094,0.1011533949110243,-0.13873786926269532
5126,-0.148099746931288,0.3785157012939453,89.1579818725586,82.20226287841797,-7.080486297607422,90.38545989990234,-0.018661922878689237,0.09233333333333334,0.3375,-0.012694936328464084,-2.9772058897705094,0.6921180486679077,48.339500427246094,0.0772857666015625,-0.13851051330566405
5127,-0.144193496931288,0.33867195129394534,89.05569458007812,81.5066909790039,-7.039569854736328,90.50820922851562,-0.006841744316948784,0.08766666666666667,0.3375,-0.01037566926744249,-2.3290335112304703,-0.4064833098144547,48.339500427246094,0.08387781778971354,-0.13941976759168836
5128,-0.155912246931288,0.29882820129394533,88.99431610107422,81.34302520751953,-6.814533233642578,90.0785903930664,-0.006841744316948784,0.083,0.33785714285714286,-0.010650316874186197,-1.8017050200195328,-0.834936755249025,48.339500427246094,0.08501434326171875,-0.13214581807454426
5129,-0.152005996931288,0.3585938262939453,85.65966796875,78.45845031738281,-6.773616790771484,90.28317260742188,-0.006841744316948784,0.07966666666666666,0.3375,-0.013579919603135851,-1.9555078917236344,-1.3842359953613297,48.339500427246094,0.08001352945963541,-0.13396432664659289
5130,-0.152005996931288,0.3585938262939453,86.13019561767578,78.37661743164062,-6.712242126464844,90.38545989990234,-0.0066144307454427086,0.076,0.33714285714285713,-0.014800585640801323,-1.7467752867431656,-0.5273291044921891,48.339500427246094,0.08615086873372396,-0.13441891140407985
5131,-0.148099746931288,0.33867195129394534,86.29386138916016,80.07463073730469,-7.080486297607422,91.46973419189453,-0.006841744316948784,0.07233333333333333,0.3367857142857143,-0.014281802707248263,-1.9555078917236344,-0.3185945921630875,48.339500427246094,0.0691025627983941,-0.1505580054389106
5132,-0.12075599693128798,0.3785157012939453,86.33477783203125,80.0950927734375,-6.9781951904296875,91.40835571289062,-0.007069057888454861,0.07033333333333333,0.3364285714285714,-0.012511836157904731,-3.0980535917968766,-0.48338379199218906,48.339500427246094,0.069329833984375,-0.1487394544813368
5133,-0.10122474693128798,0.39843757629394533,85.61874389648438,80.0950927734375,-6.487205505371094,90.0785903930664,-0.006841744316948784,0.068,0.3360714285714286,-0.01144375271267361,-3.834114687988283,-0.7031046324462906,48.339500427246094,0.0613739013671875,-0.12850884331597223
5134,-0.07778724693128798,0.438281364440918,89.1579818725586,79.4404296875,-6.159877777099609,89.97630310058594,-0.006841744316948784,0.06366666666666666,0.3360714285714286,-0.009704298443264432,-2.966221468994142,1.032684087753296,48.339500427246094,0.1079728020562066,-0.12373534308539497
5135,-0.11684974693128798,0.41835948944091794,91.06057739257812,87.41905212402344,-8.492088317871094,90.6309585571289,-0.006841744316948784,0.06166666666666667,0.3360714285714286,-0.013091648949517145,-1.8236757689209,0.9447960257530212,48.339500427246094,0.04046139187282986,-0.15692274305555556
5136,-0.136380996931288,0.3785157012939453,87.68500518798828,79.31768798828125,-6.834991455078125,92.34942626953125,-0.006841744316948784,0.059,0.33464285714285713,-0.013366301854451498,-3.163967745849611,-0.5712725096435562,48.339500427246094,0.0929701911078559,-0.1576046413845486
5137,-0.171537246931288,0.3785157012939453,88.0123291015625,80.77020263671875,-7.223690032958984,90.75370788574219,-0.006841744316948784,0.056666666666666664,0.3339285714285714,-0.018645683924357098,-2.9772058897705094,-0.3295809202880875,48.339500427246094,0.08046807183159722,-0.1441933102077908
5138,-0.202787246931288,0.3585938262939453,88.54424285888672,81.34302520751953,-7.285064697265625,91.18331909179688,-0.006841744316948784,0.053,0.3339285714285714,-0.021483733918931748,-2.7574869566650406,-0.15380539233398594,48.339500427246094,0.08001352945963541,-0.1496487087673611
5139,-0.202787246931288,0.3785157012939453,85.84378051757812,81.48623657226562,-7.080486297607422,90.2218017578125,-0.006841744316948784,0.048,0.3342857142857143,-0.023467318216959635,-2.537766116210939,-2.3949495726318375,48.251609802246094,0.048417154947916666,-0.1366920895046658
5140,-0.191068496931288,0.3585938262939453,84.0025634765625,75.30791473388672,-6.3644561767578125,91.04011535644531,-0.006841744316948784,0.045,0.3342857142857143,-0.022856982549031575,-2.911289828369142,-2.537766116210939,48.251609802246094,0.09660720825195312,-0.13782857259114584
5141,-0.206693496931288,0.3187500762939453,84.39126586914062,78.17203521728516,-5.853004455566406,89.1170654296875,-0.0066144307454427086,0.041,0.335,-0.024504884084065755,-2.197201388427736,-0.3845106535644547,48.251609802246094,0.0691025627983941,-0.11077855428059896
5142,-0.230130996931288,0.33867195129394534,88.72836303710938,80.60653686523438,-6.67132568359375,90.42637634277344,-0.006841744316948784,0.03766666666666667,0.335,-0.02725138399336073,-1.2633902006835953,0.9228240251541138,48.251609802246094,0.09024251302083333,-0.13441891140407985
5143,-0.210599746931288,0.39843757629394533,88.25782775878906,81.71127319335938,-6.773616790771484,90.97874450683594,-0.006841744316948784,0.03233333333333333,0.335,-0.028136367268032498,-1.7797323637695328,0.20873400568962097,48.251609802246094,0.07273949517144097,-0.14169290330674914
5144,-0.245755996931288,0.3785157012939453,85.78240966796875,77.25142669677734,-6.67132568359375,90.69232940673828,-0.006841744316948784,0.030333333333333334,0.3342857142857143,-0.03030305173661974,-2.823403018066408,0.4394400119781494,48.251609802246094,0.09478869967990451,-0.1373739454481337
5145,-0.26138099693128797,0.3585938262939453,86.13019561767578,85.41416931152344,-6.9781951904296875,91.6333999633789,-0.0066144307454427086,0.02666666666666667,0.3342857142857143,-0.031157517433166505,-3.570450442382814,-0.3845106535644547,48.251609802246094,0.007955847846137152,-0.1512399461534288
5146,-0.26528724693128797,0.3585938262939453,86.45751953125,74.63279724121094,-7.1418609619140625,89.36256408691406,-0.006841744316948784,0.024333333333333332,0.335,-0.03167630036671956,-2.153256075927736,-0.5053564482421891,47.81216049194336,0.13138580322265625,-0.12782694498697916
5147,-0.26528724693128797,0.3785157012939453,86.47798156738281,80.0950927734375,-6.323539733886719,91.69477844238281,-0.006841744316948784,0.018333333333333333,0.33321428571428574,-0.03396505249871148,-2.0873400145263687,-0.4723993712158219,47.54848861694336,0.07092098659939236,-0.14464797973632812
5148,-0.249662246931288,0.3585938262939453,85.88470458984375,79.72684478759766,-3.9299545288085938,88.62606811523438,-0.006841744316948784,0.015,0.33321428571428574,-0.030913384755452473,-1.3842359953613297,-0.4174677305908219,38.05636978149414,0.06842066446940104,-0.08395580715603299
5149,-0.241849746931288,0.3187500762939453,90.73324584960938,84.5140151977539,-2.497894287109375,91.40835571289062,-0.006841744316948784,0.011,0.33,-0.025908650292290582,0.0,-0.02197326953125156,34.716548919677734,0.0691025627983941,-0.09895833333333333
5150,-0.191068496931288,0.239062557220459,84.6572265625,76.20806884765625,-1.9250717163085938,90.40591430664062,-0.006841744316948784,0.009,0.3264285714285714,-0.016082286834716797,0.4064820110797882,-0.7909933500976578,32.34352111816406,0.09387953016493056,-0.08145540025499132
5151,-0.10122474693128798,0.25898443222045897,87.29630279541016,80.93386840820312,-0.6975898742675781,89.567138671875,-0.006841744316948784,0.005,0.32035714285714284,-0.009795851177639432,1.021697998046875,0.9228240251541138,31.816179275512695,0.07069371541341146,-0.058496983846028645
5152,-0.159818496931288,0.219140682220459,90.40591430664062,88.54424285888672,-2.0273590087890625,88.29874420166016,-0.006841744316948784,0.005,0.3157142857142857,-0.011199617385864257,1.768746018409729,-0.5822588377685562,31.200950622558594,0.020685238308376735,-0.059178924560546874
5153,-0.194974746931288,0.19921878814697266,79.46089172363281,74.63279724121094,0.18210220336914062,88.70790100097656,-0.006841744316948784,0.005333333333333333,0.30892857142857144,-0.013610431883070205,1.922550082206726,-1.9884668760986344,30.849390029907227,0.053645494249131946,-0.03917554219563802
5154,-0.202787246931288,0.17929691314697266,90.34454345703125,84.53446960449219,1.8596611022949219,86.08927917480469,-0.0066144307454427086,0.0036666666666666666,0.3053571428571429,-0.013488366868760851,3.0101640224456787,-0.5273291044921891,30.673608779907227,0.06455637613932291,0.008559799194335938
5155,-0.155912246931288,0.19921878814697266,89.1579818725586,81.91584777832031,-1.4545364379882812,83.06149291992188,-0.006841744316948784,0.003,0.3,-0.011047034793429904,3.4825620651245117,-0.9887415343017594,30.058380126953125,0.08046815660264757,0.005377451578776042
5156,-0.07778724693128798,0.15937503814697265,94.6407241821289,88.72836303710938,0.7958450317382812,81.30210876464844,-0.006841744316948784,0.0013333333333333333,0.29392857142857143,-0.004852151870727539,0.35155200958251953,-0.856909411499025,28.827919006347656,0.06569290161132812,0.04993040296766493
5157,-0.011380969153510199,0.19921878814697266,102.61934661865234,96.25691223144531,-4.952854156494141,87.82821655273438,-0.006841744316948784,0.0,0.2864285714285714,-0.0,-0.01098694140625156,-1.4721247130126969,25.136539459228516,0.07069371541341146,-0.08645634121365017
