,WD,WS,AIL_1,AIL_2,ELEV_1,ELEV_2,RUDD,ALT,GS,TH,PTCH,ROLL,PLA_1,AIL,ELEV
5372,0.8225561794786241,0.09960939407348633,85.80287170410156,78.23341369628906,-4.645984649658203,97.2798080444336,-0.004114023844401042,0.904,0.5260714285714285,0.005126825968424479,-0.823950427124025,0.2746500074863434,39.814170837402344,0.08410508897569445,-0.18806436326768664
5373,0.8108374294786241,0.09960939407348633,85.74149322509766,78.43798828125,-4.543693542480469,97.2388916015625,-0.00297745598687066,0.9,0.5260714285714285,0.005523512098524305,-0.9557825499267594,0.5602860450744629,39.19894027709961,0.08115005493164062,-0.1864731682671441
5374,0.8147436794786241,0.09960939407348633,85.74149322509766,79.56317901611328,-4.523235321044922,97.21842956542969,-0.002750142415364583,0.8953333333333333,0.5264285714285715,0.005798170301649305,-1.0326849394531266,1.032684087753296,38.583709716796875,0.06864793565538195,-0.18601849873860676
5375,0.8303686794786241,0.09960939407348633,85.78240966796875,79.31768798828125,-4.502777099609375,97.21842956542969,-0.004114023844401042,0.891,0.5267857142857143,0.005798170301649305,-1.0876146727294937,0.7800060510635376,38.05636978149414,0.07183024088541666,-0.1857911851671007
5376,0.8420874294786241,0.09960939407348633,85.76194763183594,78.82669067382812,-4.482318878173828,97.21842956542969,-0.004568650987413194,0.886,0.5271428571428571,0.005676099989149305,-1.164517062255861,0.20873400568962097,37.441139221191406,0.07705841064453126,-0.18556387159559462
5377,0.8342749294786241,0.09960939407348633,85.74149322509766,78.68348693847656,-4.461860656738281,97.1979751586914,-0.004568650987413194,0.882,0.5271428571428571,0.005859205457899305,-1.2414194517822281,0.06591600179672241,37.17747116088867,0.07842229207356771,-0.18510928683810765
5378,0.8264624294786241,0.09960939407348633,85.78240966796875,79.9927978515625,-4.4209442138671875,96.91156005859375,-0.0054779052734375,0.8773333333333333,0.5275,0.005889723036024305,-1.2084604674072281,0.2197200059890747,37.00168991088867,0.06432902018229167,-0.18147226969401042
5379,0.8459936794786241,0.09960939407348633,85.86424255371094,79.15402221679688,-4.318656921386719,96.89110565185547,-0.004795964558919271,0.8723333333333333,0.5275,0.005157343546549479,-0.6371885710449234,-0.3185945921630875,36.38645935058594,0.07455800374348959,-0.1801084730360243
5380,0.8459936794786241,0.09960939407348633,85.78240966796875,78.17203521728516,-4.3595733642578125,97.17752075195312,-0.004568650987413194,0.868,0.5275,0.004516474405924479,-0.2636648588867203,-0.7800070219726578,36.29856872558594,0.0845597161187066,-0.18374549018012154
5381,0.8459936794786241,0.09960939407348633,85.74149322509766,77.76287841796875,-4.400489807128906,97.1979751586914,-0.0018409305148654514,0.864,0.5267857142857143,0.004058710734049479,-0.5602861815185562,-0.6371885710449234,36.29856872558594,0.08865127563476563,-0.18442738850911458
5382,0.8420874294786241,0.09960939407348633,85.72103881835938,79.50180053710938,-4.461860656738281,97.2388916015625,-0.0034320831298828127,0.86,0.5264285714285715,0.003936682807074653,-0.845923083374025,0.12084600329399109,36.1227912902832,0.06910264756944444,-0.1855639139811198
5383,0.8655249294786241,0.09960939407348633,85.78240966796875,79.46089172363281,-4.502777099609375,97.2388916015625,-0.0034320831298828127,0.8556666666666667,0.5260714285714285,0.0032958136664496527,-1.0216986113281266,0.13183200359344482,36.29856872558594,0.0702390882703993,-0.18601854112413194
5384,0.8850561794786241,0.09960939407348633,85.76194763183594,79.0312728881836,-4.502777099609375,97.25935363769531,-0.004568650987413194,0.8513333333333334,0.5260714285714285,0.0025634341769748266,-1.175503390380861,-0.3845106535644547,36.65013122558594,0.07478527492947049,-0.18624589708116318
5385,0.8811499294786241,0.09960939407348633,85.78240966796875,79.01081848144531,-4.502777099609375,97.21842956542969,-0.0054779052734375,0.8466666666666667,0.5260714285714285,0.0021667056613498266,-1.3293062620849625,-0.7580343657226578,36.65013122558594,0.07523990207248264,-0.1857911851671007
5386,0.8772436794786241,0.09960939407348633,85.76194763183594,78.82669067382812,-4.502777099609375,97.2388916015625,-0.004795964558919271,0.8416666666666667,0.5264285714285715,0.0015563540988498264,-1.4940973692626969,-1.0546575957031266,36.65013122558594,0.07705841064453126,-0.18601854112413194
5387,0.8694311794786241,0.09960939407348633,85.74149322509766,78.540283203125,-4.482318878173828,97.1979751586914,-0.004568650987413194,0.836,0.5267857142857143,0.000946044921875,-1.6259294920654312,-1.2084604674072281,36.56224060058594,0.08001344468858507,-0.18533660040961372
5388,0.8577124294786241,0.09960939407348633,85.74149322509766,78.19248962402344,-4.441402435302734,97.1979751586914,-0.00297745598687066,0.831,0.5271428571428571,0.000457763671875,-1.6918455534667984,-1.0656420164794937,36.38645935058594,0.08387781778971354,-0.18488197326660155
5389,0.8498999294786241,0.09960939407348633,85.72103881835938,78.35615539550781,-4.4209442138671875,97.15705871582031,-0.003204769558376736,0.8256666666666667,0.5275,0.000152587890625,-1.7028299742431656,-0.6371885710449234,35.24388885498047,0.08183203803168403,-0.18420003255208334
5390,0.8459936794786241,0.09960939407348633,85.72103881835938,77.74241638183594,-4.4209442138671875,97.1365966796875,-0.0018409305148654514,0.8196666666666667,0.5278571428571428,6.103515625e-05,-1.6808592253417984,-0.13183273608398594,34.892330169677734,0.08865136040581598,-0.1839726765950521
5391,0.8342749294786241,0.1195312786102295,84.98455047607422,77.8856201171875,-4.400489807128906,97.11614227294922,-0.0013863033718532986,0.8143333333333334,0.5282142857142857,0.00048828125,-1.6808592253417984,0.9447960257530212,34.628658294677734,0.07887700398763021,-0.18351813422309027
5392,0.8303686794786241,0.1195312786102295,85.5164566040039,79.9927978515625,-4.400489807128906,97.09568786621094,-0.003204769558376736,0.809,0.5285714285714286,0.0014037662082248264,-1.6039568358154312,2.13128399848938,34.540771484375,0.06137398613823785,-0.18329086303710937
5393,0.8616186794786241,0.09960939407348633,85.92561340332031,79.4813461303711,-4.339115142822266,97.07522583007812,-0.004568650987413194,0.803,0.5285714285714286,0.0016173892550998264,-1.527054446289064,1.8456480503082275,34.540771484375,0.07160296969943576,-0.18238156636555988
5394,0.8772436794786241,0.1195312786102295,85.74149322509766,79.4404296875,-4.318656921386719,97.1365966796875,-0.006387117173936632,0.7976666666666666,0.5285714285714286,0.0019836001925998266,-1.4940973692626969,1.2084600925445557,34.364990234375,0.0700118170844184,-0.18283615112304688
5395,0.8811499294786241,0.1195312786102295,85.74149322509766,78.56073760986328,-41.900001525878906,97.11614227294922,-0.005250591701931423,0.7926666666666666,0.5285714285714286,0.0022887759738498266,-1.4940973692626969,0.6481740474700928,34.364990234375,0.07978617350260417,-0.6001793755425348
5396,0.8694311794786241,0.1195312786102295,85.68012237548828,78.19248962402344,-4.298198699951172,97.11614227294922,-0.003886710272894965,0.7866666666666666,0.5285714285714286,0.0028990851508246527,-1.4940973692626969,0.7800060510635376,34.101318359375,0.08319591946072048,-0.18238156636555988
5397,0.8655249294786241,0.1195312786102295,85.72103881835938,78.9494400024414,-41.900001525878906,97.11614227294922,-0.003659396701388889,0.7816666666666666,0.5285714285714286,0.0035094367133246527,-1.4721247130126969,1.3732500076293945,34.013431549072266,0.07523998684353299,-0.6001793755425348
5398,0.8850561794786241,0.1195312786102295,85.68012237548828,77.435546875,-4.175449371337891,97.11614227294922,-0.00047704908582899306,0.776,0.5282142857142857,0.0037230597601996527,-1.4501520567626969,1.6808580160140991,34.013431549072266,0.09160639444986979,-0.18101768493652343
5399,0.8850561794786241,0.1195312786102295,85.47554016113281,78.90852355957031,-4.134532928466797,97.09568786621094,-0.0022955152723524307,0.7706666666666667,0.5282142857142857,0.004943720499674479,-1.4391657286376969,2.7135419845581055,34.013431549072266,0.07296685112847222,-0.18033578660753039
5400,0.9006811794786241,0.1195312786102295,85.65966796875,80.21783447265625,-4.093616485595703,97.11614227294922,-0.003886710272894965,0.7663333333333333,0.5282142857142857,0.006042310926649305,-1.4281813078613297,3.0980520248413086,34.277099609375,0.06046481662326389,-0.18010843065049914
5401,0.9319311794786241,0.1195312786102295,86.76439666748047,80.05416870117188,-4.175449371337891,97.11614227294922,-0.006387117173936632,0.76,0.5285714285714286,0.006378004286024305,-1.4171949797363297,1.922550082206726,34.364990234375,0.07455808851453993,-0.18101768493652343
5402,0.9436499294786241,0.1195312786102295,86.13019561767578,79.82913208007812,-4.11407470703125,97.11614227294922,-0.00843293931749132,0.7546666666666667,0.5285714285714286,0.006469557020399305,-1.4171949797363297,0.2197200059890747,34.540771484375,0.0700118170844184,-0.1803357442220052
5403,0.9397436794786241,0.1195312786102295,86.1097412109375,78.64257049560547,-4.093616485595703,97.11614227294922,-0.007069057888454861,0.75,0.5285714285714286,0.006133863661024305,-1.4062086516113297,-1.2194467955322281,34.628658294677734,0.08296856350368924,-0.18010843065049914
5404,0.9163061794786241,0.1195312786102295,85.76194763183594,77.41508483886719,-4.093616485595703,97.15705871582031,-0.0043413374159071184,0.7446666666666667,0.5285714285714286,0.005706617567274305,-1.4062086516113297,-1.7138163023681656,34.628658294677734,0.092742919921875,-0.18056305779351128
5405,0.8811499294786241,0.1195312786102295,84.98455047607422,77.74241638183594,-4.11407470703125,97.1979751586914,-0.002068201700846354,0.7396666666666667,0.5285714285714286,0.005950758192274305,-1.4721247130126969,-0.7690206938476578,34.628658294677734,0.08046815660264757,-0.18124499850802953
5406,0.8616186794786241,0.1195312786102295,85.53691101074219,78.49935913085938,-4.073158264160156,97.21842956542969,-0.001613616943359375,0.7346666666666667,0.5285714285714286,0.006347486707899305,-1.549027102539064,0.5383139848709106,34.540771484375,0.0781950208875868,-0.18101764255099825
5407,0.8694311794786241,0.1195312786102295,85.53691101074219,78.66302490234375,-4.073158264160156,97.1979751586914,-0.0018409305148654514,0.729,0.5285714285714286,0.006622144911024305,-1.6149431639404312,1.2084600925445557,34.540771484375,0.0763765123155382,-0.18079037136501735
5408,0.8772436794786241,0.13945316314697265,85.5982894897461,79.9518814086914,-4.032245635986328,97.21842956542969,-0.004795964558919271,0.7236666666666667,0.5289285714285714,0.0072324540879991316,-1.7138163023681656,1.4391660690307617,34.013431549072266,0.0627378675672743,-0.18056305779351128
5409,0.8889624294786241,0.13945316314697265,86.15065002441406,80.19737243652344,-4.093616485595703,97.17752075195312,-0.007069057888454861,0.7173333333333334,0.5292857142857142,0.0073240068223741316,-1.8126913481445328,0.7031040191650391,33.749759674072266,0.06614752875434028,-0.18079041375054253
5410,0.9006811794786241,0.13945316314697265,85.94607543945312,78.56073760986328,-4.052700042724609,97.1365966796875,-0.0075236850314670135,0.7123333333333334,0.5292857142857142,0.006835767957899305,-1.8236757689209,-0.6481748991699234,33.749759674072266,0.08205930921766492,-0.17988107469346787
5411,0.8928686794786241,0.13945316314697265,85.84378051757812,77.9469985961914,-4.134532928466797,97.1365966796875,-0.005250591701931423,0.7066666666666667,0.5296428571428572,0.006652662489149305,-1.7467752867431656,-0.9447962218017594,33.749759674072266,0.08774202134874132,-0.18079032897949218
5412,0.8811499294786241,0.13945316314697265,85.82332611083984,78.86760711669922,-4.216365814208984,97.11614227294922,-0.004114023844401042,0.701,0.5296428571428572,0.006652662489149305,-1.6698728972167984,-0.2746511870117203,33.749759674072266,0.0772857666015625,-0.1814723120795356
5413,0.8889624294786241,0.13945316314697265,85.82332611083984,78.56073760986328,-4.216365814208984,97.1365966796875,-0.002068201700846354,0.695,0.5296428571428572,0.006164381239149305,-1.6369139128417984,0.13183200359344482,33.749759674072266,0.08069542778862847,-0.1816995832655165
5414,0.8928686794786241,0.15937503814697265,85.82332611083984,78.72439575195312,-4.257282257080078,97.1365966796875,-0.003886710272894965,0.6893333333333334,0.5296428571428572,0.006225416395399305,-1.6479002409667984,0.4723980128765106,33.749759674072266,0.07887700398763021,-0.18215421040852864
5415,0.8928686794786241,0.15937503814697265,85.82332611083984,79.35859680175781,-4.277740478515625,97.15705871582031,-0.0043413374159071184,0.6836666666666666,0.53,0.006378004286024305,-1.6698728972167984,0.7250760197639465,33.749759674072266,0.07183032565646702,-0.18260887993706598
5416,0.9045874294786241,0.15937503814697265,85.94607543945312,79.9927978515625,-4.257282257080078,97.1365966796875,-0.005705218844943577,0.678,0.53,0.006133863661024305,-1.6808592253417984,0.35155200958251953,33.749759674072266,0.06614752875434028,-0.18215421040852864
5417,0.9123999294786241,0.15937503814697265,85.90515899658203,78.33570098876953,-4.257282257080078,97.1365966796875,-0.005250591701931423,0.6726666666666666,0.5303571428571429,0.005523512098524305,-1.6918455534667984,-0.6591612272949234,34.101318359375,0.08410508897569445,-0.18215421040852864
5418,0.8967749294786241,0.15937503814697265,85.68012237548828,77.68104553222656,-4.236824035644531,97.11614227294922,-0.003886710272894965,0.6663333333333333,0.5307142857142857,0.005554029676649305,-1.6588865690917984,-0.5712725096435562,34.277099609375,0.08887863159179688,-0.18169962565104167
5419,0.8850561794786241,0.15937503814697265,85.65966796875,79.46089172363281,-4.257282257080078,97.1365966796875,-0.0043413374159071184,0.661,0.5307142857142857,0.006042310926649305,-1.6479002409667984,0.4723980128765106,34.013431549072266,0.0688752916124132,-0.18215421040852864
5420,0.9006811794786241,0.15937503814697265,85.74149322509766,79.15402221679688,-4.236824035644531,97.15705871582031,-0.00297745598687066,0.6553333333333333,0.5307142857142857,0.005615064832899305,-1.6808592253417984,0.6371880173683167,33.837650299072266,0.07319412231445313,-0.1821542527940538
5421,0.9123999294786241,0.15937503814697265,85.72103881835938,78.8880615234375,-4.236824035644531,97.17752075195312,-0.003659396701388889,0.6496666666666666,0.5307142857142857,0.005218378702799479,-1.7357889586181656,0.38451001048088074,33.749759674072266,0.07592196994357639,-0.18238160875108506
5422,0.9084936794786241,0.13945316314697265,85.74149322509766,79.15402221679688,-4.216365814208984,97.17752075195312,-0.0054779052734375,0.6436666666666667,0.5310714285714285,0.005309931437174479,-1.7907186918945328,0.16479000449180603,33.749759674072266,0.07319412231445313,-0.18215429517957898
5423,0.9045874294786241,0.13945316314697265,85.74149322509766,77.92654418945312,-4.1959075927734375,97.17752075195312,-0.004114023844401042,0.6383333333333333,0.5310714285714285,0.005218378702799479,-1.8017050200195328,-0.10986007983398594,33.573978424072266,0.08683276706271702,-0.1819269816080729
5424,0.8967749294786241,0.15937503814697265,85.68012237548828,78.60165405273438,-4.134532928466797,97.15705871582031,-0.003886710272894965,0.6323333333333333,0.5310714285714285,0.005523512098524305,-1.7577597075195328,0.4723980128765106,32.6071891784668,0.07864964803059896,-0.18101768493652343
5425,0.9045874294786241,0.15937503814697265,85.72103881835938,79.07218933105469,-4.093616485595703,97.17752075195312,-0.003204769558376736,0.6273333333333333,0.5310714285714285,0.005767652723524305,-1.7577597075195328,1.0876140594482422,32.4314079284668,0.07387610541449653,-0.18079041375054253
5426,0.9241186794786241,0.15937503814697265,85.74149322509766,79.21539306640625,-4.11407470703125,97.17752075195312,-0.003659396701388889,0.6216666666666667,0.5310714285714285,0.005706617567274305,-1.7907186918945328,1.3512780666351318,32.4314079284668,0.07251222398546008,-0.1810177273220486
5427,0.9514624294786241,0.17929691314697266,85.80287170410156,80.05416870117188,-4.134532928466797,97.09568786621094,-0.0050232781304253475,0.616,0.5314285714285715,0.005370966593424479,-1.8017050200195328,1.1864880323410034,32.34352111816406,0.06387447781032986,-0.18033578660753039
5428,0.9709936794786241,0.15937503814697265,85.86424255371094,78.9903564453125,-4.154991149902344,97.05476379394531,-0.004568650987413194,0.61,0.5310714285714285,0.004791132609049479,-1.6918455534667984,0.38451001048088074,32.34352111816406,0.0763765123155382,-0.18010838826497397
5429,0.9670874294786241,0.15937503814697265,85.84378051757812,79.29722595214844,-4.134532928466797,97.07522583007812,-0.0066144307454427086,0.605,0.5314285714285715,0.004852167765299479,-1.549027102539064,0.02197200059890747,32.34352111816406,0.07273949517144097,-0.18010843065049914
5430,0.9709936794786241,0.15937503814697265,85.84378051757812,79.23585510253906,-4.154991149902344,97.07522583007812,-0.0054779052734375,0.599,0.5314285714285715,0.004516474405924479,-1.4391657286376969,-0.15380539233398594,32.95874786376953,0.07342139350043403,-0.1803357442220052
5431,0.9827124294786241,0.15937503814697265,85.82332611083984,79.41996765136719,-4.134532928466797,97.1365966796875,-0.0050232781304253475,0.5936666666666667,0.5314285714285715,0.0038451300726996527,-1.4062086516113297,-0.3185945921630875,33.13452911376953,0.07114842732747396,-0.18079032897949218
5432,0.9944311794786241,0.15937503814697265,85.82332611083984,78.92898559570312,-4.093616485595703,97.17752075195312,-0.0018409305148654514,0.5886666666666667,0.5310714285714285,0.0029296027289496527,-1.3402925902099625,-0.5712725096435562,33.13452911376953,0.0766037835015191,-0.18079041375054253
5433,-0.9977563205213759,0.17929691314697266,85.82332611083984,78.45845031738281,-4.032245635986328,97.17752075195312,-0.002068201700846354,0.5836666666666667,0.5310714285714285,0.0020446353488498266,-1.3952223234863297,-0.7690206938476578,33.22241973876953,0.08183195326063368,-0.1801085154215495
5434,-0.9938500705213759,0.15937503814697265,85.78240966796875,78.66302490234375,-3.9504127502441406,97.17752075195312,-0.0022955152723524307,0.5776666666666667,0.5307142857142857,0.0013732486300998264,-1.4831110411376969,-0.4614130430908219,33.573978424072266,0.07910427517361111,-0.17919926113552517
5435,-0.9977563205213759,0.15937503814697265,85.80287170410156,79.21539306640625,-3.9708709716796875,97.21842956542969,-0.004114023844401042,0.5723333333333334,0.5310714285714285,0.001068115234375,-1.560013430664064,-0.20873512561035312,33.837650299072266,0.07319420708550348,-0.17988111707899307
5436,-0.9977563205213759,0.17929691314697266,85.82332611083984,79.07218933105469,-3.9913291931152344,97.1979751586914,-0.0054779052734375,0.567,0.5310714285714285,0.000946044921875,-1.6479002409667984,-0.16478981311035312,33.837650299072266,0.07501263088650173,-0.17988115946451824
5437,-0.9821313205213759,0.17929691314697266,85.82332611083984,79.56317901611328,-4.011787414550781,97.15705871582031,-0.004114023844401042,0.5616666666666666,0.5314285714285715,3.0517578125e-05,-1.6479002409667984,-0.18676246936035312,33.837650299072266,0.06955718994140625,-0.17965384589301214
5438,-0.9665063205213759,0.19921878814697266,85.82332611083984,79.17447662353516,-3.9913291931152344,97.09568786621094,-0.002068201700846354,0.5566666666666666,0.5314285714285715,-0.0014648013644748264,-1.5929705076904312,-0.5383154326171891,33.837650299072266,0.07387610541449653,-0.17874463399251303
5439,-0.9626000705213759,0.19921878814697266,85.80287170410156,79.72684478759766,-4.052700042724609,97.07522583007812,-0.0075236850314670135,0.5516666666666666,0.5321428571428571,-0.0021666632758246527,-1.527054446289064,-1.0656420164794937,33.837650299072266,0.06751141018337674,-0.17919917636447483
5440,-0.9743188205213759,0.239062557220459,85.80287170410156,77.70149993896484,-4.052700042724609,97.09568786621094,-0.003204769558376736,0.5453333333333333,0.5325,-0.0028075324164496527,-1.505081790039064,-1.560013430664064,34.716548919677734,0.09001524183485243,-0.17942653232150607
5441,-0.9938500705213759,0.239062557220459,84.69813537597656,78.35615539550781,-4.052700042724609,97.1365966796875,-0.002522828843858507,0.5403333333333333,0.5335714285714286,-0.0024108039008246527,-1.4721247130126969,-0.5053564482421891,34.892330169677734,0.07046644422743055,-0.17988107469346787
5442,-0.9860375705213759,0.239062557220459,85.41416931152344,79.60409545898438,-4.073158264160156,97.07522583007812,0.0004322052001953125,0.5346666666666666,0.5342857142857143,-0.0029296027289496527,-1.4391657286376969,0.8239500522613525,36.29856872558594,0.06455637613932291,-0.1794264899359809
5443,-0.9665063205213759,0.239062557220459,85.49600219726562,78.56073760986328,-4.093616485595703,97.15705871582031,-0.001613616943359375,0.5286666666666666,0.5353571428571429,-0.0037230173746744793,-1.4391657286376969,0.8129640221595764,36.65013122558594,0.0770584954155816,-0.18056305779351128
5444,-0.9782250705213759,0.25898443222045897,85.455078125,78.58119201660156,-4.154991149902344,97.2388916015625,-0.004795964558919271,0.5233333333333333,0.5360714285714285,-0.0028990851508246527,-1.527054446289064,0.6152160167694092,34.716548919677734,0.0763765123155382,-0.1821542527940538
5445,-0.9860375705213759,0.2789063262939453,85.49600219726562,79.17447662353516,-4.154991149902344,97.09568786621094,-0.003659396701388889,0.518,0.5360714285714285,-0.0022276984320746527,-1.7248026304931656,0.5932440161705017,28.65213966369629,0.07023917304144965,-0.18056310017903646
5446,-0.9860375705213759,0.25898443222045897,85.47554016113281,79.3995132446289,-4.093616485595703,97.03430938720703,-0.0043413374159071184,0.5116666666666667,0.5360714285714285,-0.0021361456976996527,-1.6479002409667984,0.2746500074863434,28.56424903869629,0.06751141018337674,-0.17919917636447483
5447,-0.9860375705213759,0.2789063262939453,85.5164566040039,78.68348693847656,-4.052700042724609,96.99339294433594,-0.003659396701388889,0.506,0.5360714285714285,-0.0023497687445746527,-1.3952223234863297,-0.3185945921630875,28.56424903869629,0.07592188517252604,-0.1782899220784505
5448,-0.9938500705213759,0.29882820129394533,85.455078125,77.9469985961914,-4.052700042724609,97.03430938720703,-0.0034320831298828127,0.5003333333333333,0.5357142857142857,-0.0021056281195746527,-1.3622652464599625,-0.4394403868408219,28.56424903869629,0.08342310587565104,-0.17874454922146268
5449,0.9983374294786241,0.2789063262939453,85.455078125,79.19493103027344,-4.11407470703125,96.99339294433594,0.0002048916286892361,0.49433333333333335,0.5353571428571429,-0.0017394171820746527,-1.4831110411376969,0.373524010181427,28.388469696044922,0.06955718994140625,-0.17897186279296876
5450,-0.9977563205213759,0.29882820129394533,85.47554016113281,77.8856201171875,-4.175449371337891,96.99339294433594,-0.0009316762288411458,0.48833333333333334,0.5353571428571429,-0.0018920050726996527,-1.549027102539064,0.3954960107803345,28.388469696044922,0.0843324449327257,-0.17965380350748697
5451,0.9944311794786241,0.2789063262939453,86.45751953125,79.76776123046875,-4.175449371337891,97.17752075195312,-0.005705218844943577,0.48233333333333334,0.535,-0.0008544498019748264,-1.6259294920654312,1.3512780666351318,28.388469696044922,0.07433064778645833,-0.18169966803656684
5452,0.9983374294786241,0.2789063262939453,41.900001525878906,78.9494400024414,-4.216365814208984,97.03430938720703,0.001341459486219618,0.4776666666666667,0.5342857142857143,-0.0003356509738498264,-1.7138163023681656,1.647900104522705,28.388469696044922,-0.4116604275173611,-0.18056305779351128
5453,0.9944311794786241,0.2789063262939453,85.14820861816406,77.3946304321289,-4.461860656738281,97.2388916015625,-0.00843293931749132,0.4716666666666667,0.5325,0.00054931640625,-1.7357889586181656,0.3076080083847046,28.388469696044922,0.08615086873372396,-0.1855639139811198
5454,0.9631811794786241,0.29882820129394533,85.65966796875,78.29478454589844,-5.464302062988281,97.77079772949219,-0.006841744316948784,0.4666666666666667,0.5310714285714285,0.0027464972601996527,-1.8017050200195328,0.4614120125770569,28.388469696044922,0.08183203803168403,-0.20261221991644965
5455,0.9514624294786241,0.29882820129394533,85.98699188232422,79.74729919433594,-6.487205505371094,98.2413330078125,-0.004795964558919271,0.4613333333333333,0.5278571428571428,0.004058710734049479,-2.3070608549804703,0.7800060510635376,28.388469696044922,0.06932991875542535,-0.2192059834798177
5456,0.9553686794786241,0.29882820129394533,85.76194763183594,79.60409545898438,-6.7531585693359375,98.46636962890625,-0.0018409305148654514,0.457,0.525,0.0038146124945746527,-3.284815447875978,0.2197200059890747,28.388469696044922,0.06842057969835069,-0.2246614244249132
5457,0.9475561794786241,0.3187500762939453,41.900001525878906,79.25630950927734,-7.080486297607422,98.67095184326172,-0.006387117173936632,0.4533333333333333,0.52,0.004363886515299479,-4.119751589843752,-0.4284540587158219,28.388469696044922,-0.4150700887044271,-0.230571534898546
5458,0.9475561794786241,0.3187500762939453,85.74149322509766,78.70394134521484,-7.162319183349609,98.85507202148438,0.0008868323432074653,0.44866666666666666,0.5171428571428571,0.0036620246039496527,-4.603134768554689,-0.5712725096435562,28.388469696044922,0.0781950208875868,-0.23352656894259982
5459,0.9475561794786241,0.33867195129394534,41.900001525878906,78.92898559570312,-6.548576354980469,98.65049743652344,-0.004114023844401042,0.444,0.5125,0.0035399542914496527,-4.888771670410158,-0.3405672484130875,28.388469696044922,-0.4114331563313802,-0.2244341532389323
5460,0.9475561794786241,0.3187500762939453,85.76194763183594,79.41996765136719,-6.507663726806641,98.46636962890625,-0.003886710272894965,0.437,0.51,0.0033568488226996527,-4.712994235107423,0.010986000299453735,28.388469696044922,0.07046644422743055,-0.22193370395236545
5461,0.9553686794786241,0.29882820129394533,85.72103881835938,79.13356018066406,-6.487205505371094,98.40499877929688,-0.0009316762288411458,0.43133333333333335,0.5064285714285715,0.0022887759738498266,-4.526232379028322,0.06591600179672241,28.388469696044922,0.07319420708550348,-0.2210244920518663
5462,0.9553686794786241,0.29882820129394533,85.70057678222656,78.96989440917969,-6.466747283935547,98.36408233642578,-0.0034320831298828127,0.425,0.5046428571428572,0.0022277408175998266,-4.449329989501955,0.032958000898361206,28.388469696044922,0.07478535970052083,-0.2203425513373481
5463,0.9358374294786241,0.29882820129394533,84.41172790527344,76.65814208984375,-6.4462890625,98.38453674316406,-0.0011589898003472221,0.42033333333333334,0.5014285714285714,0.0035399542914496527,-4.37242950732422,-0.17577614123535312,28.388469696044922,0.08615095350477431,-0.22034250895182292
5464,0.9006811794786241,0.3187500762939453,85.74149322509766,79.4404296875,-6.4462890625,98.58911895751953,-0.009569507175021702,0.4146666666666667,0.49892857142857144,0.006805250379774305,-4.141722338745119,0.5822579860687256,28.388469696044922,0.0700118170844184,-0.2226156446668837
5465,0.9163061794786241,0.29882820129394533,85.57783508300781,79.41996765136719,-6.282623291015625,98.07766723632812,0.007478841145833333,0.4093333333333333,0.4953571428571429,0.005554029676649305,-4.4053865843505875,1.0546560287475586,28.388469696044922,0.06842074924045138,-0.21511433919270834
5466,0.9202124294786241,0.3187500762939453,85.5164566040039,78.31524658203125,-6.221248626708984,98.17996215820312,-0.0050232781304253475,0.4036666666666667,0.49357142857142855,0.006072828504774305,-3.92200340563965,0.373524010181427,28.388469696044922,0.08001344468858507,-0.21556900872124565
5467,0.9006811794786241,0.29882820129394533,85.53691101074219,78.04928588867188,-6.794075012207031,98.44590759277344,-0.006387117173936632,0.3983333333333333,0.49,0.0075681474473741316,-3.6803099089355484,0.4394400119781494,28.388469696044922,0.08319583468967014,-0.22488869561089408
5468,0.8616186794786241,0.2789063262939453,87.70545959472656,80.15646362304688,-7.019111633300781,98.95736694335938,-0.007069057888454861,0.394,0.48678571428571427,0.010131539238823786,-4.251581805297853,1.3842360973358154,28.388469696044922,0.08387773301866319,-0.23307198418511285
5469,0.8967749294786241,0.3187500762939453,86.45751953125,78.66302490234375,-7.346439361572266,98.83460998535156,-0.006387117173936632,0.39,0.48142857142857143,0.009643300374348959,-5.4270845823974625,1.1205720901489258,28.388469696044922,0.0866054958767361,-0.2353449927435981
5470,0.8889624294786241,0.29882820129394533,86.45751953125,79.60409545898438,-8.144302368164062,99.50972747802734,-0.008205625745985243,0.3863333333333333,0.4782142857142857,0.010070504082573786,-5.976383822509767,0.6042300462722778,28.388469696044922,0.07614915635850694,-0.2517114427354601
5471,0.9123999294786241,0.33867195129394534,85.94607543945312,77.9879150390625,-7.857891082763672,99.61201477050781,-0.00775099860297309,0.383,0.47285714285714286,0.009093983968098959,-6.866251605102541,0.3405660092830658,28.388469696044922,0.08842400444878472,-0.2496656205919054
5472,0.8967749294786241,0.29882820129394533,85.39370727539062,77.49691772460938,-7.5305633544921875,99.2028579711914,-0.008660252888997395,0.37833333333333335,0.4692857142857143,0.009124501546223959,-7.228788989135744,0.2526780068874359,28.388469696044922,0.08774210611979166,-0.24148245917426214
5473,0.8928686794786241,0.3187500762939453,84.82088470458984,76.535400390625,-7.3668975830078125,98.87553405761719,-0.01002409193250868,0.372,0.465,0.010162056816948786,-7.085970538208009,0.9447960257530212,28.388469696044922,0.0920609368218316,-0.23602701822916666
5474,0.8577124294786241,0.239062557220459,85.23004150390625,78.84715270996094,-7.387355804443359,98.89598846435547,-0.009796820746527778,0.36533333333333334,0.4625,0.010497750176323786,-6.602587359497072,2.065368175506592,28.388469696044922,0.07092098659939236,-0.23648160298665363
5475,0.8850561794786241,0.25898443222045897,86.33477783203125,80.32012939453125,-6.998653411865234,98.73233032226562,-0.009796820746527778,0.3606666666666667,0.45785714285714285,0.010711373223198786,-6.536671298095705,2.4608640670776367,28.388469696044922,0.06682942708333334,-0.2303442637125651
5476,0.8928686794786241,0.2789063262939453,88.31919860839844,80.52470397949219,-7.285064697265625,98.87553405761719,-0.010478719075520834,0.356,0.45535714285714285,0.01214565700954861,-6.273007052490236,1.9115641117095947,28.388469696044922,0.0866054958767361,-0.23511776394314235
5477,0.8889624294786241,0.25898443222045897,86.37569427490234,78.8880615234375,-7.182777404785156,99.32560729980469,-0.01070603264702691,0.35033333333333333,0.45,0.01211513943142361,-6.305964129516603,0.3405660092830658,28.388469696044922,0.08319591946072048,-0.23898205227322047
5478,0.8381811794786241,0.25898443222045897,86.15065002441406,78.29478454589844,-7.019111633300781,98.87553405761719,-0.01661614312065972,0.347,0.44642857142857145,0.01541091071234809,-7.096956866333009,-0.4723993712158219,28.388469696044922,0.08728739420572916,-0.23216272989908854
5479,0.8147436794786241,0.25898443222045897,86.17111206054688,78.8880615234375,-7.039569854736328,98.83460998535156,-0.010478719075520834,0.343,0.4417857142857143,0.01660109625922309,-7.118929522583009,0.4723980128765106,28.388469696044922,0.08092278374565973,-0.23193533155653212
5480,0.8577124294786241,0.239062557220459,86.19157409667969,79.9927978515625,-7.100944519042969,98.93690490722656,-0.002750142415364583,0.3373333333333333,0.43892857142857145,0.013152694702148438,-6.811319964477541,1.219446063041687,28.388469696044922,0.0688752916124132,-0.2337538825141059
5481,0.8928686794786241,0.219140682220459,85.0459213256836,77.57875061035156,-6.855449676513672,98.46636962890625,-0.007978312174479167,0.333,0.4342857142857143,0.010192574395073786,-6.932167666503908,0.6042300462722778,28.388469696044922,0.08296856350368924,-0.22579799228244357
5482,0.8655249294786241,0.219140682220459,85.43462371826172,77.16959381103516,-6.916820526123047,98.67095184326172,-0.01797998216417101,0.328,0.4317857142857143,0.01242031521267361,-6.338923113891603,0.7031040191650391,28.388469696044922,0.0918336656358507,-0.22875302632649738
5483,0.8264624294786241,0.19921878814697266,87.68500518798828,79.13356018066406,-6.8963623046875,98.58911895751953,-0.01320648193359375,0.32366666666666666,0.42714285714285716,0.014312320285373263,-5.767651217529298,1.7028300762176514,28.388469696044922,0.09501605563693577,-0.22761645846896703
5484,0.8538061794786241,0.19921878814697266,87.5213394165039,81.36347961425781,-6.262165069580078,98.26179504394531,-0.01002409193250868,0.319,0.42392857142857143,0.014190249972873263,-5.580889361450197,2.2191720008850098,28.388469696044922,0.06842066446940104,-0.2169328901502821
5485,0.8889624294786241,0.19921878814697266,85.90515899658203,77.76287841796875,-6.180332183837891,97.99583435058594,-0.01002409193250868,0.314,0.41928571428571426,0.01217617458767361,-5.108490603515627,0.2746500074863434,28.388469696044922,0.09046978420681423,-0.21306851704915364
5486,0.8381811794786241,0.219140682220459,86.39614868164062,78.62211608886719,-6.180332183837891,98.26179504394531,-0.024117406209309897,0.31,0.4160714285714286,0.01632643805609809,-4.680037158081056,0.48338401317596436,28.388469696044922,0.08637813991970486,-0.21602363586425782
5487,0.8459936794786241,0.239062557220459,86.0074462890625,79.46089172363281,-5.853004455566406,97.99583435058594,-0.012297227647569445,0.30566666666666664,0.4114285714285714,0.017669169108072917,-4.37242950732422,1.7797319889068604,30.673608779907227,0.07273949517144097,-0.20943154229058158
5488,0.8303686794786241,0.19921878814697266,86.0074462890625,79.01081848144531,-5.853004455566406,98.05721282958984,-0.011615286933051215,0.3006666666666667,0.4085714285714286,0.016906229654947917,-3.976933138916017,1.0107120275497437,33.39820098876953,0.07774030897352431,-0.210113525390625
5489,0.7444311794786241,0.15937503814697265,86.0074462890625,78.64257049560547,-6.078044891357422,98.15950012207031,-0.01752539740668403,0.29733333333333334,0.4057142857142857,0.019195005628797744,-3.812142031738283,0.6811320185661316,36.0349006652832,0.08183195326063368,-0.21375050014919705
5490,0.7209936794786241,0.17929691314697266,87.1121826171875,81.05661010742188,-5.996212005615234,98.54820251464844,-0.0168434566921658,0.294,0.4039285714285714,0.022307713826497395,-3.965946810791017,0.8898659944534302,37.441139221191406,0.06728413899739584,-0.217160161336263
5491,0.7639624294786241,0.219140682220459,87.70545959472656,81.79310607910156,-5.730258941650391,98.07766723632812,-0.010933346218532987,0.29,0.4007142857142857,0.02319268120659722,-4.33947052294922,0.3405660092830658,37.96847915649414,0.06569281684027778,-0.20897695753309461
5492,0.7522436794786241,0.17929691314697266,87.54179382324219,80.91340637207031,-5.955295562744141,98.01629638671875,-0.010251405504014757,0.28633333333333333,0.3992857142857143,0.02087343004014757,-4.009890215942384,-0.9557825499267594,38.671600341796875,0.07364874945746527,-0.21079546610514324
5493,0.7405249294786241,0.17929691314697266,86.74394226074219,78.86760711669922,-6.037128448486328,98.22087097167969,-0.010933346218532987,0.2816666666666667,0.3975,0.02041566636827257,-3.7462259703369156,-1.8346620970459,39.98994827270508,0.08751483493381076,-0.21397777133517795
5494,0.7561499294786241,0.17929691314697266,86.62118530273438,79.41996765136719,-6.159877777099609,98.36408233642578,-0.009342193603515625,0.2783333333333333,0.3960714285714286,0.017943827311197917,-3.965946810791017,-1.9005781584472672,40.60517883300781,0.08001352945963541,-0.2169328901502821
5495,0.8147436794786241,0.19921878814697266,85.0050048828125,76.94454956054688,-6.098503112792969,98.1390380859375,-0.006841744316948784,0.2743333333333333,0.395,0.013885116577148438,-4.4163729124755875,-1.8017050200195328,40.95674133300781,0.08956061469184028,-0.21375045776367188
5496,0.8108374294786241,0.19921878814697266,85.98699188232422,77.9469985961914,-5.5870513916015625,97.75033569335938,-0.012979168362087673,0.2703333333333333,0.395,0.013152694702148438,-4.4053865843505875,-0.4723993712158219,41.74774932861328,0.08933325873480903,-0.20374874538845486
5497,0.8030249294786241,0.19921878814697266,87.1121826171875,80.52470397949219,-5.627967834472656,97.48439025878906,0.0011141459147135417,0.2663333333333333,0.395,0.012694931030273438,-3.88904442126465,1.2853620052337646,42.01142120361328,0.07319420708550348,-0.20124842325846354
5498,0.8069311794786241,0.219140682220459,86.78485107421875,78.96989440917969,-5.955295562744141,98.36408233642578,-0.018661922878689237,0.26166666666666666,0.39464285714285713,0.014739566379123263,-3.4166475706787125,0.6262019872665405,43.153987884521484,0.08683285183376736,-0.21465975443522137
5499,0.7600561794786241,0.19921878814697266,87.50088500976562,79.21539306640625,-5.8120880126953125,97.97537994384766,-0.0168434566921658,0.25766666666666665,0.39357142857142857,0.01641799079047309,-3.7132688933105484,0.45042601227760315,43.241878509521484,0.09206102159288194,-0.20874964396158854
5500,0.8225561794786241,0.25898443222045897,88.38057708740234,82.83645629882812,-5.689342498779297,97.89354705810547,-0.0066144307454427086,0.25433333333333336,0.39357142857142857,0.017119852701822917,-4.36144317919922,1.9005780220031738,43.241878509521484,0.061601342095269095,-0.20647655063205295
5501,0.7952124294786241,0.219140682220459,86.82576751708984,81.77264404296875,-5.055145263671875,97.75033569335938,-0.009569507175021702,0.24966666666666668,0.39357142857142857,0.018187967936197917,-4.306513445922853,0.8019779920578003,43.241878509521484,0.05614581637912326,-0.1978386773003472
5502,0.7639624294786241,0.19921878814697266,88.31919860839844,80.8929443359375,-4.605068206787109,97.3411865234375,-0.007296371459960938,0.24633333333333332,0.39321428571428574,0.018462583753797744,-3.7901712828369156,0.5712720155715942,41.83563995361328,0.08251393636067708,-0.18829171922471788
5503,0.8069311794786241,0.17929691314697266,87.72592163085938,81.56806182861328,-4.4209442138671875,97.36163330078125,0.003841866387261285,0.24133333333333334,0.3925,0.01571608649359809,-3.0211512022705094,0.8019779920578003,41.83563995361328,0.06842066446940104,-0.18647308349609376
5504,0.8538061794786241,0.19921878814697266,86.64164733886719,78.72439575195312,-4.482318878173828,97.2798080444336,0.0011141459147135417,0.237,0.3914285714285714,0.013671493530273438,-2.3619905882568375,-0.5053564482421891,41.74774932861328,0.08796946207682292,-0.186245854695638
5505,0.8186499294786241,0.19921878814697266,83.16378784179688,75.69661712646484,-5.5870513916015625,98.01629638671875,-0.020707745022243925,0.234,0.39,0.014983707004123263,-1.9225508146972672,-1.6698728972167984,41.74774932861328,0.08296856350368924,-0.20670386420355902
5506,0.7991186794786241,0.219140682220459,86.72348022460938,77.96745300292969,-5.014228820800781,97.93446350097656,-0.01797998216417101,0.23033333333333333,0.38821428571428573,0.01620436774359809,-2.537766116210939,-0.2636648588867203,41.74774932861328,0.09728919135199653,-0.19942991468641494
5507,0.8264624294786241,0.219140682220459,87.64408874511719,81.79310607910156,-4.993770599365234,97.46392822265625,0.004751120673285591,0.22666666666666666,0.3867857142857143,0.014495425754123263,-3.0650946074218766,1.3842360973358154,41.74774932861328,0.06501091851128472,-0.19397443135579426
5508,0.8459936794786241,0.19921878814697266,86.559814453125,79.17447662353516,-4.932395935058594,97.1365966796875,-0.0018409305148654514,0.22233333333333333,0.38607142857142857,0.01238979763454861,-3.0211512022705094,0.5602860450744629,41.74774932861328,0.08205930921766492,-0.18965547349717882
5509,0.8303686794786241,0.17929691314697266,85.14820861816406,78.60165405273438,-4.7482757568359375,97.2388916015625,-0.017070770263671875,0.21833333333333332,0.385,0.01196255154079861,-3.163967745849611,-0.5273291044921891,41.74774932861328,0.07273949517144097,-0.18874630398220485
5510,0.7678686794786241,0.17929691314697266,86.43707275390625,81.30210876464844,-4.850563049316406,97.58667755126953,-0.02616318596733941,0.21533333333333332,0.3842857142857143,0.01553298102484809,-3.218899386474611,-0.5932451658935562,41.74774932861328,0.057055155436197914,-0.1937471177842882
5511,0.7288061794786241,0.19921878814697266,86.35523986816406,80.11553955078125,-4.871021270751953,97.62759399414062,-0.023435465494791665,0.21033333333333334,0.38285714285714284,0.018126932779947917,-2.867346423217775,-0.4723993712158219,41.74774932861328,0.0693300035264757,-0.19442905849880643
5512,0.6623999294786241,0.15937503814697265,85.41416931152344,77.21051025390625,-5.075603485107422,98.05721282958984,-0.011387973361545138,0.20633333333333334,0.3817857142857143,0.01654006110297309,-2.6036821776123062,-0.9667688780517594,41.74774932861328,0.09115176730685765,-0.2014757368299696
5513,0.6975561794786241,0.13945316314697265,84.41172790527344,76.24897766113281,-5.055145263671875,97.66851043701172,0.0017960866292317708,0.20366666666666666,0.3796428571428571,0.012603378295898438,-2.911289828369142,-1.6369139128417984,41.74774932861328,0.09069722493489583,-0.19692950778537327
5514,0.6233374294786241,0.1195312786102295,85.78240966796875,77.59921264648438,-4.9733123779296875,97.52529907226562,-0.0043413374159071184,0.20033333333333334,0.37892857142857145,0.009643300374348959,-3.1200243406982437,-0.9008528166503922,41.74774932861328,0.09092441134982639,-0.19442901611328126
5515,0.7053686794786241,0.09960939407348633,85.39370727539062,79.56317901611328,-4.9733123779296875,97.54576110839844,0.0040691799587673615,0.19733333333333333,0.37785714285714284,0.005737135145399305,-3.1529833250732437,0.32958000898361206,41.74774932861328,0.06478364732530383,-0.1946563720703125
5516,0.7952124294786241,0.09960939407348633,85.25050354003906,78.58119201660156,-5.096061706542969,97.58667755126953,-0.0018409305148654514,0.19466666666666665,0.3767857142857143,0.004669062296549479,-2.867346423217775,0.19774800539016724,41.74774932861328,0.07410346137152778,-0.1964748806423611
5517,0.7561499294786241,0.13945316314697265,85.14820861816406,78.68348693847656,-5.709800720214844,98.22087097167969,-0.02389009263780382,0.19266666666666668,0.375,0.009124501546223959,-2.471850054809572,-0.2966219359130875,41.74774932861328,0.07183024088541666,-0.2103407965766059
5518,0.6819311794786241,0.15937503814697265,86.53935241699219,77.64012145996094,-5.44384765625,97.77079772949219,-0.013888380262586805,0.18966666666666668,0.37357142857142855,0.01132168240017361,-3.1419969969482437,-0.05493034655761875,41.74774932861328,0.0988803439670139,-0.20238494873046875
5519,0.7053686794786241,0.15937503814697265,86.15065002441406,78.72439575195312,-5.525676727294922,98.07766723632812,0.0002048916286892361,0.185,0.37214285714285716,0.01168789333767361,-3.4276319914550797,0.747048020362854,41.74774932861328,0.08251393636067708,-0.20670382181803384
5520,0.6780249294786241,0.13945316314697265,85.29141998291016,77.49691772460938,-5.525676727294922,97.89354705810547,-0.0066144307454427086,0.182,0.37142857142857144,0.010802925957573786,-3.559464114257814,0.2856360077857971,41.74774932861328,0.08660558064778646,-0.20465804206000435
5521,0.6897436794786241,0.15937503814697265,85.98699188232422,79.66546630859375,-4.605068206787109,97.17752075195312,-0.020253117879231772,0.17733333333333334,0.3707142857142857,0.013030624389648438,-3.8011576109619156,0.8569080233573914,41.74774932861328,0.07023917304144965,-0.18647321065266928
5522,0.6780249294786241,0.15937503814697265,90.05813598632812,80.27920532226562,-4.830104827880859,97.1979751586914,0.013843536376953125,0.17333333333333334,0.3707142857142857,0.013793563842773438,-3.1529833250732437,1.8017040491104126,41.74774932861328,0.10865478515625,-0.18920088873969185
5523,0.7170874294786241,0.15937503814697265,87.15309143066406,81.17935943603516,-5.055145263671875,97.60713195800781,-0.008660252888997395,0.16933333333333334,0.3703571428571429,0.014831119113498263,-2.6256548338623062,0.8569080233573914,41.74774932861328,0.06637479994032118,-0.19624752468532985
5524,0.6780249294786241,0.13945316314697265,87.15309143066406,80.83157348632812,-5.014228820800781,97.25935363769531,-0.004795964558919271,0.16466666666666666,0.36964285714285716,0.013946151733398438,-3.218899386474611,0.14281800389289856,41.74774932861328,0.0702390882703993,-0.19192869398328993
5525,0.7288061794786241,0.15937503814697265,90.1604232788086,84.43218231201172,-4.993770599365234,97.44346618652344,-0.007069057888454861,0.16033333333333333,0.36964285714285716,0.013732528686523438,-3.548477786132814,0.5712720155715942,41.74774932861328,0.06364712185329861,-0.193747075398763
5526,0.7327124294786241,0.13945316314697265,84.6572265625,80.0337142944336,-4.789188385009766,97.30026245117188,-0.0022955152723524307,0.15733333333333333,0.3692857142857143,0.012939071655273438,-3.6803099089355484,-0.9997259550781266,41.74774932861328,0.05137235853407118,-0.1898827870686849
5527,0.6936499294786241,0.15937503814697265,86.17111206054688,80.0950927734375,-4.830104827880859,97.21842956542969,-0.024117406209309897,0.152,0.3692857142857143,0.013488388061523438,-3.3946749144287125,-1.4611383848876969,42.71453857421875,0.06751132541232639,-0.18942815992567275
5528,0.7288061794786241,0.13945316314697265,84.30943298339844,75.75799560546875,-4.9733123779296875,97.17752075195312,0.011570443047417535,0.14833333333333334,0.3692857142857143,0.010009468926323786,-2.856360095092775,-0.9228254729003922,42.71453857421875,0.09501597086588541,-0.19056481255425348
5529,0.7288061794786241,0.15937503814697265,83.49111938476562,75.22608184814453,-4.871021270751953,97.25935363769531,-0.015252261691623263,0.14433333333333334,0.3692857142857143,0.009704335530598959,-2.3729769163818375,-0.5932451658935562,42.71453857421875,0.09183375040690105,-0.1903374989827474
5530,0.7014624294786241,0.13945316314697265,84.84133911132812,78.17203521728516,-4.830104827880859,97.21842956542969,-0.002522828843858507,0.14,0.3692857142857143,0.010101021660698786,-2.3070608549804703,1.494096040725708,42.71453857421875,0.07410337660047743,-0.18942815992567275
5531,0.7522436794786241,0.15937503814697265,86.98943328857422,81.13844299316406,-4.830104827880859,97.1979751586914,-0.003204769558376736,0.136,0.36857142857142855,0.010436715020073786,-2.1202989989013687,2.84537410736084,42.71453857421875,0.06501100328233507,-0.18920088873969185
5532,0.6116186794786241,0.09960939407348633,86.25294494628906,80.50424194335938,-5.075603485107422,97.48439025878906,-0.0013863033718532986,0.13266666666666665,0.3682142857142857,0.01226772732204861,-1.9555078917236344,2.4828360080718994,42.71453857421875,0.06387447781032986,-0.19511104159884982
5533,0.7170874294786241,0.1195312786102295,87.43951416015625,80.77020263671875,-5.136974334716797,97.60713195800781,-0.010933346218532987,0.12933333333333333,0.3678571428571429,0.012908554077148438,-2.6146685057373062,2.3400180339813232,42.71453857421875,0.07410346137152778,-0.197156736585829
5534,0.7913061794786241,0.1195312786102295,83.32745361328125,74.81692504882812,-4.932395935058594,97.21842956542969,0.015662044949001735,0.126,0.3675,0.012664413452148438,-3.3067861967773453,2.2521300315856934,42.71453857421875,0.09456142849392361,-0.19056472778320313
5535,0.7366186794786241,0.15937503814697265,85.78240966796875,79.76776123046875,-4.8914794921875,97.36163330078125,-0.03161866929796007,0.12366666666666666,0.36714285714285716,0.01998842027452257,-2.856360095092775,1.1425440311431885,42.71453857421875,0.06682942708333334,-0.19170125325520834
5536,0.6780249294786241,0.15937503814697265,86.29386138916016,78.82669067382812,-5.11651611328125,97.68896484375,-0.01252454121907552,0.11766666666666667,0.3675,0.021453221638997395,-2.504809039184572,1.6808580160140991,42.71453857421875,0.08296856350368924,-0.1978386773003472
5537,0.7170874294786241,0.07968751907348633,86.33477783203125,81.05661010742188,-5.136974334716797,97.46392822265625,0.016343985663519967,0.11566666666666667,0.36714285714285716,0.01553298102484809,-2.867346423217775,2.0763540267944336,42.71453857421875,0.058646308051215276,-0.19556558397081164
5538,0.7834936794786241,0.13945316314697265,87.31675720214844,80.36103820800781,-5.136974334716797,97.52529907226562,-0.023662779066297743,0.112,0.36642857142857144,0.019652769300672744,-2.900305407592775,0.3954960107803345,42.71453857421875,0.0772857666015625,-0.19624748229980468
5539,0.7483374294786241,0.19921878814697266,87.6031723022461,79.8905029296875,-5.136974334716797,97.42301177978516,-0.028436321682400175,0.10833333333333334,0.36642857142857144,0.025756072998046876,-2.548752444335939,-0.3185945921630875,42.71453857421875,0.08569632636176215,-0.19511095682779947
5540,0.7522436794786241,0.219140682220459,88.46240997314453,83.26608276367188,-4.523235321044922,96.99339294433594,-0.009342193603515625,0.10366666666666667,0.36642857142857144,0.027281909518771703,-2.6805845671386734,-0.08788933093261875,43.241878509521484,0.057736968994140624,-0.1835180918375651
5541,0.7522436794786241,0.19921878814697266,86.90760040283203,79.11309814453125,-4.727817535400391,96.97293853759766,-0.003204769558376736,0.099,0.36714285714285716,0.02499317593044705,-2.526779788085939,-0.7909933500976578,43.417659759521484,0.08660558064778646,-0.18556395636664497
5542,0.7405249294786241,0.17929691314697266,86.90760040283203,79.66546630859375,-4.5846099853515625,96.97293853759766,-0.008887566460503472,0.095,0.3678571428571429,0.02352837456597222,-2.3400179320068375,-1.1974741392822281,43.417659759521484,0.08046815660264757,-0.18397276136610244
5543,0.7327124294786241,0.17929691314697266,86.0688247680664,78.70394134521484,-4.952854156494141,97.15705871582031,-0.009114880032009548,0.08933333333333333,0.36892857142857144,0.022460301717122395,-2.0543829375000016,-0.9777552061767594,43.417659759521484,0.08183203803168403,-0.19011014302571613
5544,0.7717749294786241,0.15937503814697265,86.62118530273438,79.4404296875,-4.339115142822266,96.85018920898438,0.009297349717881945,0.086,0.3692857142857143,0.018401548597547744,-1.8126913481445328,-0.6811319761962906,43.417659759521484,0.07978617350260417,-0.17988115946451824
5545,0.7366186794786241,0.13945316314697265,85.57783508300781,77.80378723144531,-4.400489807128906,96.93202209472656,-0.004795964558919271,0.08266666666666667,0.36892857142857144,0.017272440592447917,-1.0876146727294937,-1.0436712675781266,43.417659759521484,0.08637830946180555,-0.18147235446506077
5546,0.7834936794786241,0.17929691314697266,89.44439697265625,81.62944030761719,-5.546134948730469,97.66851043701172,-0.011387973361545138,0.07933333333333334,0.36857142857142855,0.01678420172797309,-0.7800070219726578,-0.3185945921630875,43.417659759521484,0.08683285183376736,-0.20238494873046875
5547,0.7834936794786241,0.1195312786102295,85.25050354003906,78.45845031738281,-5.3620147705078125,97.93446350097656,-0.003659396701388889,0.07533333333333334,0.3678571428571429,0.012969589233398438,-1.9445234709472672,-1.2194467955322281,43.417659759521484,0.07546725802951389,-0.20329420301649306
5548,0.7952124294786241,0.13945316314697265,84.47309875488281,78.540283203125,-5.218807220458984,97.3411865234375,-0.015024948120117187,0.073,0.3675,0.01177944607204861,-2.6695982390136734,-1.4501520567626969,43.417659759521484,0.06592017279730902,-0.19511104159884982
5549,0.7561499294786241,0.09960939407348633,83.24562072753906,73.73265075683594,-4.768730163574219,96.89110565185547,0.004296493530273437,0.069,0.3682142857142857,0.009643300374348959,-2.7465006285400406,-1.4721247130126969,43.417659759521484,0.10569966634114583,-0.18510928683810765
5550,0.8069311794786241,0.15937503814697265,90.6309585571289,84.35034942626953,-4.993770599365234,97.1979751586914,-0.013433795505099827,0.066,0.3682142857142857,0.01113857693142361,-2.515795367309572,1.5600121021270752,43.417659759521484,0.0697845458984375,-0.19101939731174045
5551,0.7756811794786241,0.15937503814697265,82.75462341308594,74.8373794555664,-5.177890777587891,97.87309265136719,-0.01979849073621962,0.062,0.3682142857142857,0.013518905639648438,-2.153256075927736,-0.5932451658935562,43.417659759521484,0.08796937730577258,-0.20056648254394532
5552,0.7483374294786241,0.19921878814697266,83.14332580566406,75.26699829101562,-4.482318878173828,97.42301177978516,-0.018661922878689237,0.058333333333333334,0.3682142857142857,0.01635695563422309,-2.790444033691408,-1.4281813078613297,43.417659759521484,0.08751475016276042,-0.1878370073106554
5553,0.6975561794786241,0.219140682220459,89.38301849365234,82.01814270019531,-4.400489807128906,96.788818359375,-0.02684512668185764,0.05466666666666667,0.36857142857142855,0.021270116170247395,-2.537766116210939,0.9557820558547974,43.417659759521484,0.08183195326063368,-0.17988120185004342
5554,0.6663061794786241,0.17929691314697266,88.99431610107422,80.19737243652344,-4.482318878173828,97.15705871582031,0.007024214002821181,0.050666666666666665,0.36892857142857144,0.01989686754014757,-1.516068118164064,1.9115641117095947,43.417659759521484,0.09774381849500868,-0.18488197326660155
5555,0.6936499294786241,0.13945316314697265,88.72836303710938,82.97966003417969,-5.11651611328125,97.44346618652344,0.012707010904947916,0.04633333333333333,0.3682142857142857,0.01650954352484809,-1.1974741392822281,1.9005780220031738,43.417659759521484,0.06387447781032986,-0.1951109144422743
5556,0.7913061794786241,0.1195312786102295,84.20714569091797,76.69905853271484,-5.218807220458984,98.01629638671875,0.004296493530273437,0.042333333333333334,0.3675,0.01220669216579861,-1.8566347532959,-0.6481748991699234,43.417659759521484,0.0834231906467014,-0.20261226230197482
5557,0.7952124294786241,0.09960939407348633,85.02546691894531,76.02394104003906,-5.157432556152344,97.11614227294922,-0.021616956922743055,0.04,0.36678571428571427,0.010558785332573786,-2.790444033691408,-1.8346620970459,43.417659759521484,0.10001695421006944,-0.1919286092122396
5558,0.7952124294786241,0.09960939407348633,83.40928649902344,74.69417572021484,-4.952854156494141,97.56622314453125,0.004523807101779514,0.035,0.3675,0.007995393541124132,-2.911289828369142,-1.9005781584472672,43.417659759521484,0.09683456420898437,-0.19465641445583767
5559,0.7405249294786241,0.1195312786102295,84.08439636230469,80.46333312988281,-5.014228820800781,97.42301177978516,-0.027981694539388022,0.03166666666666667,0.36714285714285716,0.010833443535698786,-2.7574869566650406,-0.6371885710449234,43.417659759521484,0.04023403591579861,-0.1937471177842882
5560,0.7014624294786241,0.13945316314697265,84.61630249023438,80.29966735839844,-6.037128448486328,98.58911895751953,-0.015934202406141493,0.028333333333333332,0.36642857142857144,0.013030624389648438,-1.8676210814209,0.08788800239562988,42.97821044921875,0.04796261257595486,-0.21806941562228732
5561,0.7209936794786241,0.13945316314697265,85.88470458984375,82.12042999267578,-5.423389434814453,97.85263061523438,-0.0075236850314670135,0.025,0.36428571428571427,0.013183212280273438,-2.0104395323486344,1.4281799793243408,42.89031982421875,0.04182527330186632,-0.203066889444987
5562,0.8108374294786241,0.15937503814697265,83.87982177734375,82.57050323486328,-5.464302062988281,97.50484466552734,0.0004322052001953125,0.02,0.3628571428571429,0.01211513943142361,-1.8786074095459,1.3512780666351318,42.71453857421875,0.014547983805338541,-0.19965718587239584
5563,0.7678686794786241,0.13945316314697265,86.53935241699219,82.28408813476562,-5.402931213378906,97.42301177978516,-0.01320648193359375,0.018,0.3607142857142857,0.013183212280273438,-1.3293062620849625,0.6371880173683167,42.62664794921875,0.04728071424696181,-0.19806603325737848
5564,0.8108374294786241,0.15937503814697265,81.85447692871094,75.73753356933594,-1.720489501953125,96.99339294433594,-0.01729808383517795,0.013666666666666667,0.35928571428571426,0.012908554077148438,-0.6371885710449234,-0.3625379973144547,24.96076011657715,0.0679660373263889,-0.15237647162543402
5565,0.7913061794786241,0.13945316314697265,88.58515930175781,79.91096496582031,-2.5388107299804688,95.97048950195312,-0.015252261691623263,0.009666666666666667,0.35678571428571426,0.01123012966579861,0.09887400269508362,1.6808580160140991,24.69709014892578,0.09637993706597223,-0.15010333591037325
5566,0.8655249294786241,0.13945316314697265,81.13844299316406,81.9567642211914,-0.9635429382324219,96.91156005859375,-0.06912498474121094,0.006333333333333333,0.3539285714285714,0.008514149983723959,0.9777539968490601,2.296074151992798,24.60919952392578,-0.009092458089192708,-0.14305669996473525
5567,0.9905249294786241,0.13945316314697265,78.31524658203125,76.45356750488281,-0.08385086059570312,96.46148681640625,-0.09026493496365018,0.005333333333333333,0.34785714285714286,0.00091552734375,0.8129640221595764,1.4062080383300781,24.69709014892578,0.020685323079427085,-0.12828152974446613
5568,-0.8688500705213759,0.1195312786102295,87.72592163085938,82.0385971069336,-1.8841552734375,95.58179473876953,-0.021844270494249134,0.002,0.3442857142857143,-0.0066831376817491316,1.4391660690307617,1.7028300762176514,24.69709014892578,0.06319249471028646,-0.13851055569118922
5569,-0.7790063205213759,0.09960939407348633,82.83645629882812,71.72776794433594,0.3457679748535156,93.41324615478516,-0.053213204277886283,0.0006666666666666666,0.3382142857142857,-0.008147939046223959,1.1205720901489258,0.5273280143737793,24.60919952392578,0.12342987060546876,-0.0896386464436849
5570,-0.9079125705213759,0.07968751907348633,84.18669128417969,73.95768737792969,0.9185905456542969,93.27003479003906,-0.07617166307237414,0.0,0.33464285714285713,-0.003997675577799479,1.6259280443191528,0.6262019872665405,24.60919952392578,0.11365559895833334,-0.0816827138264974
5571,0.9905249294786241,0.09960939407348633,85.33233642578125,79.76776123046875,0.22301864624023438,95.07034301757812,-0.07321658664279514,0.0,0.3289285714285714,-0.0,2.75748610496521,1.494096040725708,24.60919952392578,0.06182861328125,-0.10941471523708768
