,WD,WS,AIL_1,AIL_2,ELEV_1,ELEV_2,RUDD,ALT,GS,TH,PTCH,ROLL,PLA_1,AIL,ELEV
4394,-0.0230255126953125,0.5378907394409179,86.64164733886719,80.07463073730469,-6.303081512451172,98.793701171875,-0.005250591701931423,0.7693333333333333,0.3675,-0.0032347785101996527,-3.0760809355468766,1.0546560287475586,37.00168991088867,0.07296685112847222,-0.2232975853814019
4395,-0.0269317626953125,0.5179688644409179,86.662109375,79.91096496582031,-7.1418609619140625,98.99827575683594,-0.0059324900309244795,0.7663333333333333,0.36428571428571427,-0.0030821906195746527,-3.3617159300537125,0.9228240251541138,37.00168991088867,0.07501271565755209,-0.2348904079861111
4396,-0.0230255126953125,0.5179688644409179,86.64164733886719,79.58363342285156,-7.264606475830078,98.91644287109375,-0.011160659790039062,0.7643333333333333,0.35928571428571426,-0.0022582160101996527,-4.031862872192384,0.5273280143737793,37.00168991088867,0.07842237684461806,-0.2353449927435981
4397,-0.0191192626953125,0.5179688644409179,86.62118530273438,79.3995132446289,-7.100944519042969,98.99827575683594,-0.009569507175021702,0.7623333333333333,0.3557142857142857,-0.0016173892550998264,-4.240597384521486,0.5053560137748718,43.153987884521484,0.08024080064561633,-0.23443578084309896
4398,-0.0230255126953125,0.5179688644409179,86.64164733886719,79.74729919433594,-7.264606475830078,98.97782135009766,-0.0022955152723524307,0.7603333333333333,0.3514285714285714,-0.0016479068332248264,-4.163694994995119,0.7360620498657227,43.241878509521484,0.07660386827256944,-0.2360269758436415
4399,-0.0191192626953125,0.5179688644409179,86.662109375,79.68592834472656,-7.264606475830078,99.01873779296875,-0.009342193603515625,0.7576666666666667,0.3492857142857143,-0.0007018619113498264,-4.207638400146486,0.6042300462722778,43.241878509521484,0.07751312255859374,-0.23648160298665363
4400,-0.0152130126953125,0.5179688644409179,86.662109375,79.4813461303711,-7.223690032958984,98.99827575683594,-0.004795964558919271,0.755,0.3460714285714286,-0.0001220703125,-4.36144317919922,0.32958000898361206,43.241878509521484,0.07978625827365451,-0.23579961988661025
4401,-0.0113067626953125,0.5179688644409179,86.68256378173828,79.97233581542969,-7.244148254394531,98.99827575683594,-0.006841744316948784,0.752,0.3442857142857143,0.0007628970675998264,-4.603134768554689,0.38451001048088074,43.241878509521484,0.07455808851453993,-0.23602693345811632
4402,-0.0152130126953125,0.5179688644409179,86.70301818847656,79.8905029296875,-7.285064697265625,99.03919982910156,-0.0059324900309244795,0.7483333333333333,0.3417857142857143,0.0006103515625,-5.053560870239259,0.4284540116786957,43.241878509521484,0.07569461398654515,-0.23693627251519098
4403,-0.0152130126953125,0.49804698944091796,86.68256378173828,79.74729919433594,-7.244148254394531,98.93690490722656,-0.006159803602430555,0.745,0.34,0.000518798828125,-5.580889361450197,0.5053560137748718,43.241878509521484,0.0770584954155816,-0.23534503512912328
4404,-0.0191192626953125,0.49804698944091796,86.68256378173828,79.72684478759766,-7.100944519042969,98.87553405761719,-0.006387117173936632,0.741,0.3375,0.000579833984375,-5.756664889404298,0.6262019872665405,45.43912887573242,0.0772857666015625,-0.23307198418511285
4405,-0.0191192626953125,0.49804698944091796,86.68256378173828,79.80867004394531,-7.1418609619140625,98.83460998535156,-0.006159803602430555,0.737,0.3364285714285714,0.00042724609375,-5.844553607055666,0.7580339908599854,46.40591812133789,0.07637659708658855,-0.2330718994140625
4406,-0.0191192626953125,0.49804698944091796,86.662109375,80.29966735839844,-7.060028076171875,98.83460998535156,-0.008205625745985243,0.733,0.3357142857142857,0.0012816958957248264,-5.9434267454834,0.8569080233573914,46.84537124633789,0.07069380018446181,-0.2321626451280382
4407,-0.0191192626953125,0.49804698944091796,86.662109375,80.32012939453125,-7.060028076171875,98.77323913574219,-0.005250591701931423,0.7283333333333334,0.33535714285714285,0.0020141177707248266,-6.053286212036134,0.9228240251541138,47.284820556640625,0.07046644422743055,-0.23148074679904515
4408,-0.0191192626953125,0.49804698944091796,86.68256378173828,80.4837875366211,-6.916820526123047,98.73233032226562,-0.0043413374159071184,0.7233333333333334,0.33535714285714285,0.0023802863226996527,-6.130188601562502,0.8569080233573914,47.987937927246094,0.0688752916124132,-0.2294350094265408
4409,-0.0191192626953125,0.49804698944091796,86.68256378173828,79.9927978515625,-6.8963623046875,98.77323913574219,-0.0050232781304253475,0.718,0.33535714285714285,0.0025939093695746527,-6.130188601562502,0.5932440161705017,48.339500427246094,0.07433073255750867,-0.22966223822699652
4410,-0.0191192626953125,0.49804698944091796,86.662109375,80.07463073730469,-6.916820526123047,98.81415557861328,-0.008660252888997395,0.7126666666666667,0.3357142857142857,0.0031127081976996527,-6.108215945312502,0.4614120125770569,48.427391052246094,0.07319420708550348,-0.23034417894151477
4411,-0.0191192626953125,0.49804698944091796,86.70301818847656,80.19737243652344,-6.937278747558594,98.77323913574219,-0.007978312174479167,0.7073333333333334,0.3360714285714286,0.0034178839789496527,-6.163147585937502,0.3954960107803345,48.427391052246094,0.07228495279947916,-0.2301168653700087
4412,-0.0191192626953125,0.49804698944091796,86.68256378173828,79.64501190185547,-6.916820526123047,98.793701171875,-0.0050232781304253475,0.7023333333333334,0.33714285714285713,0.0033873664008246527,-6.240048068115236,0.1867620050907135,48.427391052246094,0.0781950208875868,-0.23011690775553387
4413,-0.0230255126953125,0.49804698944091796,86.68256378173828,79.62455749511719,-6.937278747558594,98.7527847290039,-0.004114023844401042,0.697,0.3375,0.0033263312445746527,-6.240048068115236,0.14281800389289856,48.427391052246094,0.07842229207356771,-0.22988959418402777
4414,-0.0191192626953125,0.49804698944091796,86.662109375,80.52470397949219,-6.916820526123047,98.7527847290039,-0.006841744316948784,0.692,0.3382142857142857,0.0033873664008246527,-6.273007052490236,0.06591600179672241,48.427391052246094,0.06819339328342014,-0.2296622806125217
4415,-0.0152130126953125,0.49804698944091796,86.68256378173828,79.93142700195312,-6.875904083251953,98.73233032226562,-0.008205625745985243,0.686,0.3385714285714286,0.003997675577799479,-6.316950457641603,-0.02197326953125156,48.427391052246094,0.07501263088650173,-0.22898038228352866
4416,-0.0191192626953125,0.49804698944091796,86.64164733886719,79.72684478759766,-6.855449676513672,98.7527847290039,-0.005705218844943577,0.6813333333333333,0.3392857142857143,0.0036924997965494793,-6.327936785766603,-0.02197326953125156,48.427391052246094,0.07683113945855034,-0.22898038228352866
4417,-0.0152130126953125,0.478125114440918,86.78485107421875,81.17935943603516,-6.855449676513672,98.7527847290039,-0.008660252888997395,0.6756666666666666,0.33964285714285714,0.0037535349527994793,-6.283993380615236,-0.16478981311035312,48.427391052246094,0.06228324042426215,-0.22898038228352866
4418,-0.0152130126953125,0.49804698944091796,87.1121826171875,81.77264404296875,-6.855449676513672,98.7527847290039,-0.011160659790039062,0.6703333333333333,0.34,0.0035399542914496527,-6.218077319213869,-1.0656420164794937,48.427391052246094,0.05932820638020833,-0.22898038228352866
4419,-0.0113067626953125,0.478125114440918,87.05081176757812,79.60409545898438,-6.834991455078125,98.7527847290039,-0.013661109076605903,0.665,0.3407142857142857,0.0033873664008246527,-6.185118334838869,-2.526779788085939,48.427391052246094,0.08274129231770834,-0.22875306871202256
4420,-0.0074005126953125,0.478125114440918,86.84622192382812,79.78821563720703,-6.875904083251953,98.7527847290039,-0.009342193603515625,0.6596666666666666,0.3414285714285714,0.0016479068332248264,-6.119202273437502,-3.0101648741455094,48.427391052246094,0.07842229207356771,-0.22920765346950955
4421,-0.0074005126953125,0.478125114440918,86.82576751708984,79.68592834472656,-6.814533233642578,98.793701171875,-0.004568650987413194,0.6543333333333333,0.3417857142857143,-0.000579833984375,-6.031315463134767,-2.900305407592775,48.427391052246094,0.07933154635959201,-0.22898038228352866
4422,-0.0074005126953125,0.478125114440918,86.82576751708984,78.17203521728516,-6.814533233642578,98.793701171875,-0.010251405504014757,0.6493333333333333,0.3417857142857143,-0.0029296027289496527,-5.998356478759767,-2.7794596129150406,48.427391052246094,0.09615258110894097,-0.22898038228352866
4423,-0.0074005126953125,0.478125114440918,86.53935241699219,80.545166015625,-6.855449676513672,98.73233032226562,-0.0054779052734375,0.644,0.34214285714285714,-0.004577509562174479,-5.9653994017334,-1.9884668760986344,48.427391052246094,0.06660207112630208,-0.22875311109754776
4424,-0.0113067626953125,0.478125114440918,86.68256378173828,79.41996765136719,-6.875904083251953,98.7527847290039,-0.00297745598687066,0.639,0.3425,-0.0066526201036241316,-5.899483340332033,-1.5709978514404312,48.427391052246094,0.08069551255967881,-0.22920765346950955
4425,-0.0191192626953125,0.478125114440918,86.662109375,79.72684478759766,-6.875904083251953,98.7527847290039,-0.003886710272894965,0.634,0.3425,-0.008544667561848959,-5.833567278930666,-1.175503390380861,48.60316848754883,0.0770584954155816,-0.22920765346950955
4426,-0.0230255126953125,0.49804698944091796,86.68256378173828,79.76776123046875,-6.875904083251953,98.87553405761719,-0.009796820746527778,0.6286666666666667,0.34285714285714286,-0.010101021660698786,-5.822580950805666,-0.9008528166503922,48.60316848754883,0.07683113945855034,-0.230571534898546
4427,-0.0230255126953125,0.49804698944091796,86.68256378173828,79.60409545898438,-6.9781951904296875,98.87553405761719,-0.008205625745985243,0.6236666666666667,0.34214285714285714,-0.01089443630642361,-5.9214540892334,-0.7031046324462906,48.60316848754883,0.07864964803059896,-0.2317081027560764
4428,-0.0308380126953125,0.49804698944091796,86.662109375,79.66546630859375,-6.998653411865234,98.91644287109375,-0.0011589898003472221,0.6193333333333333,0.34214285714285714,-0.012389755249023438,-6.020329135009767,-0.4504267149658219,48.60316848754883,0.077740478515625,-0.23238995869954426
4429,-0.0308380126953125,0.49804698944091796,86.662109375,79.3995132446289,-7.080486297607422,98.89598846435547,-0.010478719075520834,0.6143333333333333,0.34214285714285714,-0.013091659545898438,-6.086245196411134,-0.49437012011718906,48.60316848754883,0.08069551255967881,-0.23307194179958768
4430,-0.0308380126953125,0.478125114440918,86.662109375,79.72684478759766,-7.019111633300781,98.97782135009766,-0.007978312174479167,0.609,0.3425,-0.013427352905273438,-6.075258868286134,-0.3625379973144547,48.60316848754883,0.0770584954155816,-0.23329925537109375
4431,-0.0308380126953125,0.478125114440918,86.662109375,79.68592834472656,-7.162319183349609,99.05965423583984,-0.006159803602430555,0.604,0.3425,-0.013976626925998263,-6.086245196411134,-0.2636648588867203,48.427391052246094,0.07751312255859374,-0.2357997046576606
4432,-0.0308380126953125,0.478125114440918,86.68256378173828,79.62455749511719,-7.223690032958984,99.08010864257812,-0.006159803602430555,0.5993333333333334,0.3425,-0.014373355441623263,-6.262020724365236,-0.3076082640380875,48.427391052246094,0.07842229207356771,-0.23670887417263456
4433,-0.0308380126953125,0.478125114440918,86.662109375,79.64501190185547,-7.223690032958984,98.99827575683594,-0.00843293931749132,0.5936666666666667,0.3425,-0.014251285129123263,-6.492725985595705,-0.2966219359130875,48.427391052246094,0.0779677497016059,-0.23579961988661025
4434,-0.0347442626953125,0.478125114440918,86.662109375,79.13356018066406,-7.1418609619140625,98.91644287109375,-0.001613616943359375,0.5886666666666667,0.34285714285714286,-0.01525832282172309,-6.635544436523439,-0.2416922026367203,48.427391052246094,0.08365054660373264,-0.23398115370008682
4435,-0.0269317626953125,0.478125114440918,86.64164733886719,79.27676391601562,-7.100944519042969,98.95736694335938,-0.010478719075520834,0.5836666666666667,0.3432142857142857,-0.014770083957248263,-6.668503420898439,-0.2636648588867203,48.427391052246094,0.08183203803168403,-0.23398123847113717
4436,-0.0191192626953125,0.478125114440918,86.64164733886719,79.37905883789062,-7.080486297607422,98.89598846435547,-0.00843293931749132,0.577,0.3439285714285714,-0.013793521457248263,-6.635544436523439,0.0,48.427391052246094,0.08069542778862847,-0.23307194179958768
4437,-0.0191192626953125,0.478125114440918,86.662109375,79.66546630859375,-7.039569854736328,98.50728607177734,-0.0066144307454427086,0.571,0.3442857142857143,-0.013854556613498263,-6.591601031372072,0.3185940086841583,48.427391052246094,0.077740478515625,-0.22829839918348524
4438,-0.0191192626953125,0.45820323944091795,86.90760040283203,80.85203552246094,-6.425830841064453,98.26179504394531,-0.006841744316948784,0.566,0.34535714285714286,-0.013671451144748263,-6.053286212036134,0.2746500074863434,48.60316848754883,0.06728405422634548,-0.21875139872233074
4439,-0.0152130126953125,0.45820323944091795,86.90760040283203,80.83157348632812,-6.466747283935547,98.97782135009766,-0.013661109076605903,0.5603333333333333,0.3457142857142857,-0.013000106811523438,-4.910742419311525,-0.4614130430908219,48.60316848754883,0.06751141018337674,-0.22716187371148003
4440,-0.0113067626953125,0.45820323944091795,86.72348022460938,79.91096496582031,-6.998653411865234,98.77323913574219,-0.010478719075520834,0.556,0.34535714285714286,-0.013335800170898438,-4.833840029785158,-1.120571749755861,48.60316848754883,0.07569461398654515,-0.2307988060845269
4441,-0.0074005126953125,0.45820323944091795,86.72348022460938,79.82913208007812,-6.528118133544922,98.63003540039062,-0.0059324900309244795,0.5523333333333333,0.34464285714285714,-0.013732486300998263,-5.075533526489259,-1.3952223234863297,48.60316848754883,0.07660386827256944,-0.22397948371039497
4442,-0.0074005126953125,0.45820323944091795,86.72348022460938,79.70639038085938,-6.528118133544922,98.77323913574219,-0.003886710272894965,0.5483333333333333,0.3442857142857143,-0.01492262946234809,-4.789896624633791,-1.3732515745849625,48.60316848754883,0.07796766493055556,-0.22557063632541233
4443,-0.0074005126953125,0.45820323944091795,86.70301818847656,79.74729919433594,-6.794075012207031,98.77323913574219,-0.009342193603515625,0.5443333333333333,0.3435714285714286,-0.01559401618109809,-4.691023486206056,-1.2853628569335953,48.60316848754883,0.0772857666015625,-0.2285257127549913
4444,-0.0034942626953125,0.45820323944091795,86.72348022460938,79.33814239501953,-6.712242126464844,98.71186828613281,-0.0066144307454427086,0.5413333333333333,0.3432142857142857,-0.01623488532172309,-4.723980563232423,-1.0436712675781266,48.60316848754883,0.08205930921766492,-0.22693456013997396
4445,-0.0034942626953125,0.438281364440918,86.68256378173828,79.41996765136719,-6.650867462158203,98.67095184326172,-0.0075236850314670135,0.538,0.3425,-0.016723124186197917,-4.614121096679689,-0.5383154326171891,48.60316848754883,0.08069551255967881,-0.22579799228244357
4446,-0.0034942626953125,0.438281364440918,86.68256378173828,79.52226257324219,-6.67132568359375,98.69140625,-0.007069057888454861,0.5346666666666666,0.3417857142857143,-0.017394510904947917,-4.449329989501955,-0.01098694140625156,50.53675079345703,0.07955890231662327,-0.22625257703993057
4447,-0.0034942626953125,0.438281364440918,86.70301818847656,79.4404296875,-6.691783905029297,98.63003540039062,-0.006387117173936632,0.5316666666666666,0.3410714285714286,-0.017272440592447917,-4.3834139281005875,0.48338401317596436,50.62464141845703,0.08069542778862847,-0.22579799228244357
4448,-0.0074005126953125,0.438281364440918,86.70301818847656,79.13356018066406,-6.548576354980469,98.65049743652344,-0.003659396701388889,0.5283333333333333,0.3410714285714286,-0.017241923014322917,-4.251581805297853,1.021697998046875,50.62464141845703,0.08410508897569445,-0.2244341532389323
4449,-0.0113067626953125,0.438281364440918,86.70301818847656,80.05416870117188,-6.732700347900391,98.7527847290039,0.0006595187717013889,0.525,0.3410714285714286,-0.017272440592447917,-4.130736010620119,1.7028300762176514,51.5035400390625,0.07387610541449653,-0.2276165008544922
4450,-0.0152130126953125,0.438281364440918,86.74394226074219,80.19737243652344,-6.712242126464844,98.71186828613281,-0.006159803602430555,0.5223333333333333,0.34035714285714286,-0.01614333258734809,-4.152708666870119,1.8456480503082275,51.5035400390625,0.07273966471354167,-0.22693456013997396
4451,-0.0113067626953125,0.41835948944091794,86.74394226074219,80.36103820800781,-6.630409240722656,98.58911895751953,-0.010933346218532987,0.5193333333333333,0.34035714285714286,-0.014434390597873263,-4.174681323120119,1.647900104522705,51.5035400390625,0.07092115614149305,-0.2246614244249132
4452,-0.0113067626953125,0.41835948944091794,86.70301818847656,81.19981384277344,-6.528118133544922,98.63003540039062,-0.0043413374159071184,0.5163333333333333,0.3407142857142857,-0.013274765014648438,-3.9989038878173844,1.5160679817199707,51.5035400390625,0.061146714952256945,-0.22397948371039497
4453,-0.0113067626953125,0.438281364440918,87.86912536621094,79.31768798828125,-6.5894927978515625,98.67095184326172,-0.009569507175021702,0.513,0.34035714285714286,-0.012328720092773438,-3.87805809313965,0.6262019872665405,51.5035400390625,0.09501597086588541,-0.22511605156792536
4454,-0.0034942626953125,0.41835948944091794,87.15309143066406,79.29722595214844,-6.548576354980469,98.69140625,-0.012979168362087673,0.5103333333333333,0.34035714285714286,-0.01113857693142361,-3.88904442126465,-0.03295769030761875,51.5035400390625,0.08728739420572916,-0.22488869561089408
4455,0.0004119873046875,0.41835948944091794,87.13264465332031,78.64257049560547,-6.548576354980469,98.58911895751953,-0.012069914076063368,0.5073333333333333,0.34035714285714286,-0.010589302910698786,-3.90003074938965,0.13183200359344482,51.5035400390625,0.09433415730794271,-0.2237521701388889
4456,0.0004119873046875,0.41835948944091794,86.53935241699219,78.78577423095703,-6.425830841064453,98.54820251464844,-0.0059324900309244795,0.504,0.34035714285714286,-0.010589302910698786,-3.7681986265869156,0.9338099956512451,51.5035400390625,0.08615086873372396,-0.22193370395236545
4457,-0.0034942626953125,0.41835948944091794,86.82576751708984,79.58363342285156,-6.405372619628906,98.54820251464844,-0.00297745598687066,0.5016666666666667,0.34035714285714286,-0.010314644707573786,-3.493548052856447,2.065368175506592,51.5035400390625,0.08046815660264757,-0.22170639038085938
4458,-0.0074005126953125,0.41835948944091794,86.84622192382812,80.19737243652344,-6.4462890625,98.60957336425781,-0.001613616943359375,0.49933333333333335,0.34,-0.009490670098198786,-3.4715773039550797,2.658612012863159,51.5035400390625,0.07387610541449653,-0.2228429158528646
4459,-0.0074005126953125,0.41835948944091794,86.88714599609375,80.0950927734375,-6.343997955322266,98.60957336425781,-0.00775099860297309,0.49666666666666665,0.33964285714285714,-0.0076291826036241316,-3.4496046477050797,2.592696189880371,51.5035400390625,0.07546725802951389,-0.2217063479953342
4460,-0.0034942626953125,0.41835948944091794,86.90760040283203,80.87248992919922,-6.323539733886719,98.65049743652344,-0.011160659790039062,0.494,0.3392857142857143,-0.005096266004774305,-3.4496046477050797,2.4608640670776367,51.5035400390625,0.06705678304036458,-0.22193374633789062
4461,-0.0113067626953125,0.41835948944091794,86.94851684570312,80.40196228027344,-6.303081512451172,98.67095184326172,0.0006595187717013889,0.49166666666666664,0.3389285714285714,-0.004333368937174479,-3.3397451811523453,2.054382085800171,51.5035400390625,0.07273949517144097,-0.22193370395236545
4462,-0.0034942626953125,0.41835948944091794,86.96897888183594,81.07707214355469,-6.4462890625,98.85507202148438,-0.014797634548611112,0.48966666666666664,0.3385714285714286,-0.0021361456976996527,-3.3617159300537125,1.263390064239502,51.5035400390625,0.06546563042534723,-0.2255706787109375
4463,0.0043182373046875,0.41835948944091794,87.0098876953125,79.76776123046875,-6.487205505371094,98.793701171875,-0.01070603264702691,0.4866666666666667,0.3382142857142857,-0.000274658203125,-3.6583391600341812,0.8349360227584839,51.5035400390625,0.08046807183159722,-0.2253434075249566
4464,0.0043182373046875,0.39843757629394533,86.98943328857422,79.91096496582031,-6.221248626708984,98.71186828613281,-0.0066144307454427086,0.48433333333333334,0.33785714285714286,-9.1552734375e-05,-3.90003074938965,0.9338099956512451,51.6793212890625,0.07864964803059896,-0.2214790768093533
4465,0.0082244873046875,0.39843757629394533,87.0098876953125,80.27920532226562,-6.282623291015625,98.69140625,-0.008205625745985243,0.482,0.33785714285714286,0.0008544498019748264,-3.91101707751465,0.8569080233573914,53.2613410949707,0.07478535970052083,-0.22193366156684027
4466,0.0082244873046875,0.41835948944091794,87.0098876953125,80.25875091552734,-6.221248626708984,98.67095184326172,-0.004114023844401042,0.47833333333333333,0.3382142857142857,0.0014037662082248264,-3.943974154541017,0.8129640221595764,54.579689025878906,0.07501263088650173,-0.22102444966634113
4467,0.0043182373046875,0.41835948944091794,87.0098876953125,81.48623657226562,-6.282623291015625,98.73233032226562,-0.007296371459960938,0.47533333333333333,0.3389285714285714,0.0016784244113498264,-4.020876544067384,0.6371880173683167,54.579689025878906,0.0613739013671875,-0.2223883734809028
4468,0.0082244873046875,0.39843757629394533,87.21446990966797,81.11798858642578,-6.425830841064453,98.73233032226562,-0.01070603264702691,0.472,0.34,0.0022887335883246527,-4.174681323120119,-0.2966219359130875,54.579689025878906,0.06773868136935764,-0.22397956848144532
4469,0.0160369873046875,0.41835948944091794,87.03034973144531,79.66546630859375,-6.384914398193359,98.73233032226562,-0.012297227647569445,0.469,0.3410714285714286,0.0025328742133246527,-4.32848419482422,-1.3402925902099625,54.579689025878906,0.08183203803168403,-0.22352494133843315
4470,0.0277557373046875,0.41835948944091794,86.559814453125,79.3995132446289,-6.3644561767578125,98.83460998535156,-0.014570320977105035,0.4656666666666667,0.3425,0.0027770148383246527,-4.4053865843505875,-1.7138163023681656,54.579689025878906,0.07955890231662327,-0.22443406846788194
4471,0.0433807373046875,0.41835948944091794,86.82576751708984,80.13600158691406,-6.487205505371094,98.60957336425781,-0.0168434566921658,0.46166666666666667,0.3432142857142857,0.0036009470621744793,-4.537218707153322,-1.0326849394531266,54.579689025878906,0.07433073255750867,-0.22329754299587673
4472,0.0394744873046875,0.438281364440918,87.21446990966797,80.83157348632812,-6.282623291015625,98.793701171875,0.013388951619466146,0.45866666666666667,0.34464285714285714,0.0026549445258246527,-4.482288973876955,-0.19774879748535312,54.579689025878906,0.0709210713704427,-0.22307027180989583
4473,0.0433807373046875,0.41835948944091794,86.98943328857422,78.9903564453125,-6.507663726806641,98.7527847290039,-0.002750142415364583,0.4563333333333333,0.3457142857142857,0.0024413214789496527,-4.4383455687255875,-1.3183199339599625,54.579689025878906,0.08887863159179688,-0.22511609395345053
4474,0.0472869873046875,0.41835948944091794,86.53935241699219,78.78577423095703,-6.425830841064453,98.85507202148438,-0.010933346218532987,0.453,0.3475,0.0014953189425998264,-4.4163729124755875,-1.8236757689209,54.579689025878906,0.08615086873372396,-0.22534336513943143
4475,0.0394744873046875,0.39843757629394533,86.78485107421875,78.9903564453125,-6.630409240722656,98.93690490722656,-0.003204769558376736,0.45066666666666666,0.3482142857142857,-0.0007628970675998264,-4.603134768554689,-0.9887415343017594,54.579689025878906,0.0866054958767361,-0.2285257127549913
4476,0.0238494873046875,0.3785157012939453,86.80531311035156,81.22027587890625,-6.7531585693359375,98.65049743652344,0.0008868323432074653,0.449,0.34964285714285714,-0.0035399119059244793,-4.778910296508791,0.4064820110797882,54.579689025878906,0.06205596923828125,-0.22670728895399306
4477,0.0004119873046875,0.3785157012939453,87.13264465332031,80.44287109375,-6.405372619628906,98.77323913574219,-0.00047704908582899306,0.44666666666666666,0.35035714285714287,-0.006072828504774305,-4.581162112304689,0.41746801137924194,54.579689025878906,0.07433081732855903,-0.22420679728190104
4478,-0.0113067626953125,0.39843757629394533,86.96897888183594,80.0950927734375,-6.487205505371094,98.67095184326172,-0.007296371459960938,0.44366666666666665,0.3514285714285714,-0.0075986650254991316,-4.229611056396486,-0.18676246936035312,54.579689025878906,0.0763765123155382,-0.22397952609592015
4479,-0.0034942626953125,0.39843757629394533,86.94851684570312,78.80622863769531,-6.343997955322266,98.56866455078125,-0.016388829549153647,0.44133333333333336,0.3517857142857143,-0.0070493486192491316,-3.932987826416017,-0.6042314940185562,54.579689025878906,0.09046986897786459,-0.2212518056233724
4480,-0.0074005126953125,0.39843757629394533,86.23248291015625,79.58363342285156,-6.180332183837891,98.71186828613281,-0.0018409305148654514,0.43933333333333335,0.3517857142857143,-0.008178456624348959,-3.493548052856447,-0.14281906420898594,54.579689025878906,0.07387610541449653,-0.22102444966634113
4481,-0.0113067626953125,0.39843757629394533,86.662109375,79.35859680175781,-6.323539733886719,98.69140625,-0.0022955152723524307,0.43766666666666665,0.3517857142857143,-0.009185536702473959,-3.185940402099611,0.20873400568962097,54.579689025878906,0.08115013970269097,-0.22238828870985244
4482,-0.0074005126953125,0.39843757629394533,86.70301818847656,80.93386840820312,-6.343997955322266,98.73233032226562,-0.010933346218532987,0.43666666666666665,0.3517857142857143,-0.008422597249348959,-3.0101648741455094,0.32958000898361206,54.579689025878906,0.06410166422526041,-0.223070314195421
4483,-0.0034942626953125,0.3785157012939453,87.0712661743164,80.56562042236328,-6.405372619628906,98.793701171875,-0.01002409193250868,0.436,0.3514285714285714,-0.007934315999348959,-2.823403018066408,0.19774800539016724,54.579689025878906,0.07228495279947916,-0.2244341532389323
4484,-0.0074005126953125,0.3785157012939453,86.86668395996094,79.11309814453125,-6.67132568359375,98.95736694335938,-0.008660252888997395,0.435,0.35035714285714287,-0.008025868733723959,-2.6805845671386734,-0.09887375170898594,54.579689025878906,0.08615095350477431,-0.22920769585503473
4485,-0.0034942626953125,0.3785157012939453,86.80531311035156,79.0312728881836,-7.019111633300781,98.99827575683594,-0.0066144307454427086,0.434,0.35,-0.008056386311848959,-2.7684732847900406,0.10986000299453735,54.579689025878906,0.0863782246907552,-0.23352652655707465
4486,-0.0074005126953125,0.3785157012939453,86.80531311035156,79.3995132446289,-7.080486297607422,98.97782135009766,-0.0059324900309244795,0.43266666666666664,0.3489285714285714,-0.008361562093098959,-2.966221468994142,0.6042300462722778,54.579689025878906,0.08228666517469618,-0.233981196085612
4487,-0.0074005126953125,0.39843757629394533,86.82576751708984,80.40196228027344,-7.121402740478516,98.85507202148438,-0.008205625745985243,0.43133333333333335,0.3482142857142857,-0.007995351155598959,-3.1090380125732437,0.7800060510635376,54.579689025878906,0.07137561374240452,-0.23307194179958768
4488,0.0004119873046875,0.3785157012939453,86.84622192382812,80.11553955078125,-7.039569854736328,98.99827575683594,-0.013433795505099827,0.42733333333333334,0.34785714285714286,-0.0065610673692491316,-3.0431219511718766,0.6262019872665405,54.579689025878906,0.07478535970052083,-0.23375384012858072
4489,0.0277557373046875,0.33867195129394534,86.80531311035156,79.19493103027344,-7.3668975830078125,99.18240356445312,-0.018207295735677084,0.427,0.3475,-0.0034789191351996527,-3.0650946074218766,-0.12084640795898594,54.579689025878906,0.08455980088975694,-0.23943667941623265
4490,0.0550994873046875,0.29882820129394533,86.78485107421875,80.34058380126953,-7.5919342041015625,99.1414794921875,0.003841866387261285,0.42333333333333334,0.34714285714285714,-0.0018310123019748264,-3.284815447875978,0.5383139848709106,54.579689025878906,0.07160296969943576,-0.2414823744032118
4491,0.0629119873046875,0.29882820129394533,86.86668395996094,81.0975341796875,-7.325981140136719,98.97782135009766,-0.01002409193250868,0.419,0.3482142857142857,-0.0009765201144748264,-3.7352415495605484,0.6042300462722778,54.579689025878906,0.06410166422526041,-0.23670891655815973
4492,0.0511932373046875,0.3187500762939453,86.86668395996094,80.70883178710938,-7.223690032958984,98.73233032226562,-0.008205625745985243,0.4166666666666667,0.3492857142857143,-0.0011291080050998264,-5.240322726318361,0.4394400119781494,54.579689025878906,0.06842057969835069,-0.23284467061360678
4493,0.0433807373046875,0.33867195129394534,86.90760040283203,81.67034912109375,-7.080486297607422,98.81415557861328,0.0024779849582248262,0.4116666666666667,0.3510714285714286,-0.0016784244113498264,-5.372154849121095,0.7800060510635376,54.579689025878906,0.058191680908203126,-0.23216268751356336
4494,0.0238494873046875,0.3785157012939453,87.31675720214844,79.80867004394531,-41.900001525878906,99.10057067871094,-0.0059324900309244795,0.4063333333333333,0.3532142857142857,-0.0028075324164496527,-5.50398697192383,0.04394400119781494,54.579689025878906,0.0834231906467014,-0.6222285800509982
4495,0.0629119873046875,0.3785157012939453,86.96897888183594,79.70639038085938,-7.244148254394531,98.89598846435547,-0.01661614312065972,0.4033333333333333,0.35464285714285715,0.0011291080050998264,-5.844553607055666,-0.8898664885253922,54.579689025878906,0.08069542778862847,-0.2348904079861111
4496,0.0980682373046875,0.2789063262939453,86.90760040283203,79.62455749511719,-7.039569854736328,98.99827575683594,-0.022298897637261283,0.3983333333333333,0.3560714285714286,0.0017089419894748264,-5.580889361450197,-0.7800070219726578,54.579689025878906,0.08092269897460938,-0.23375384012858072
4497,0.0394744873046875,0.3785157012939453,86.92805480957031,79.93142700195312,-6.9781951904296875,98.67095184326172,0.009751976860894098,0.39366666666666666,0.3578571428571429,-0.0030211554633246527,-5.723705905029298,0.5493000149726868,54.579689025878906,0.07774030897352431,-0.22943496704101562
4498,0.0550994873046875,0.3585938262939453,86.98943328857422,80.58607482910156,-6.998653411865234,98.793701171875,-0.014570320977105035,0.39066666666666666,0.36,-0.0009765201144748264,-5.48201431567383,0.06591600179672241,54.579689025878906,0.07114842732747396,-0.23102616204155815
4499,0.0980682373046875,0.29882820129394533,86.90760040283203,78.66302490234375,-7.162319183349609,98.97782135009766,-0.014797634548611112,0.3863333333333333,0.3610714285714286,0.0019836001925998266,-4.756939547607423,-0.5383154326171891,54.579689025878906,0.09160639444986979,-0.23489045037163628
4500,0.1215057373046875,0.29882820129394533,86.70301818847656,80.25875091552734,-7.878349304199219,99.42790222167969,-0.01320648193359375,0.38233333333333336,0.3628571428571429,0.0033873664008246527,-4.35045685107422,-0.3735243254394547,54.579689025878906,0.07160296969943576,-0.24784723917643228
4501,0.0590057373046875,0.3785157012939453,87.17355346679688,79.74729919433594,-7.244148254394531,98.83460998535156,0.012707010904947916,0.38133333333333336,0.36357142857142855,-0.0011291080050998264,-5.49300064379883,-0.17577614123535312,54.579689025878906,0.08251393636067708,-0.23420842488606772
4502,0.0746307373046875,0.3187500762939453,86.94851684570312,79.84959411621094,-8.144302368164062,99.48927307128906,-0.014115693834092882,0.376,0.36464285714285716,-0.00054931640625,-5.130463259765627,-0.9118391447753922,54.579689025878906,0.07887691921657985,-0.25148417154947916
4503,0.0746307373046875,0.29882820129394533,86.84622192382812,77.23097229003906,-8.001094818115234,99.36652374267578,-0.006841744316948784,0.37366666666666665,0.3657142857142857,-0.0019836001925998266,-5.317225115844728,-1.6698728972167984,54.579689025878906,0.1068361070421007,-0.24852909511990018
4504,0.0863494873046875,0.29882820129394533,85.82332611083984,80.01325988769531,-7.653308868408203,99.2437744140625,-0.015934202406141493,0.36966666666666664,0.36678571428571427,-0.0021971808539496527,-5.9653994017334,-0.9997259550781266,54.579689025878906,0.06455629136827257,-0.2433009253607856
4505,0.1058807373046875,0.2789063262939453,86.23248291015625,81.32257080078125,-7.346439361572266,98.50728607177734,-0.009569507175021702,0.36566666666666664,0.3678571428571429,-0.0014037662082248264,-6.4268099241943375,0.032958000898361206,54.579689025878906,0.054554578993055554,-0.23170806037055122
4506,0.1019744873046875,0.29882820129394533,86.64164733886719,79.05172729492188,-7.714683532714844,99.22331237792969,-0.014115693834092882,0.3606666666666667,0.3703571428571429,-0.0015563540988498264,-6.020329135009767,0.032958000898361206,54.579689025878906,0.0843324449327257,-0.24375551011827257
4507,0.0980682373046875,0.2789063262939453,86.6007308959961,80.64745330810547,-7.44873046875,99.05965423583984,-0.0050232781304253475,0.356,0.3717857142857143,-0.0022276984320746527,-5.910469668457033,1.3622640371322632,54.579689025878906,0.06614752875434028,-0.23898205227322047
4508,0.0472869873046875,0.3187500762939453,86.90760040283203,81.75218200683594,-7.346439361572266,98.71186828613281,0.0024779849582248262,0.35133333333333333,0.37392857142857144,-0.004699579874674479,-6.4487825804443375,2.2521300315856934,54.579689025878906,0.05728242662217882,-0.233981196085612
4509,0.0121307373046875,0.239062557220459,87.54179382324219,82.30455017089844,-41.900001525878906,98.7527847290039,0.011797756618923612,0.3486666666666667,0.37535714285714283,-0.0069577958848741316,-6.207090991088869,2.4718501567840576,54.579689025878906,0.05819159613715278,-0.6183642917209201
4510,0.0394744873046875,0.29882820129394533,87.31675720214844,77.64012145996094,-7.816974639892578,99.44835662841797,-0.030709415011935765,0.344,0.3782142857142857,-0.0030516730414496527,-5.47102798754883,0.13183200359344482,54.579689025878906,0.10751817491319444,-0.24739256964789497
4511,0.0629119873046875,0.33867195129394534,86.15065002441406,80.21783447265625,-7.5305633544921875,99.1414794921875,-0.014570320977105035,0.339,0.3782142857142857,0.00018310546875,-5.976383822509767,0.5932440161705017,54.579689025878906,0.06592017279730902,-0.24080047607421876
4512,0.0472869873046875,0.25898443222045897,88.13508605957031,81.77264404296875,-7.898807525634766,99.2846908569336,0.006114959716796875,0.3363333333333333,0.3792857142857143,-0.0022887335883246527,-5.569903033325197,1.219446063041687,54.579689025878906,0.07069380018446181,-0.24648331536187065
4513,0.0121307373046875,0.239062557220459,87.31675720214844,80.11553955078125,-7.571479797363281,99.10057067871094,0.0031599256727430558,0.332,0.3807142857142857,-0.005004713270399305,-5.723705905029298,0.5053560137748718,54.579689025878906,0.08001352945963541,-0.2408005608452691
4514,0.0121307373046875,0.2789063262939453,87.64408874511719,78.64257049560547,-7.387355804443359,98.97782135009766,-0.010251405504014757,0.32766666666666666,0.38142857142857145,-0.004730097452799479,-6.108215945312502,-0.6262022429199234,54.579689025878906,0.1000168694390191,-0.23739085727267795
4515,0.0550994873046875,0.29882820129394533,87.03034973144531,80.11553955078125,-7.776058197021484,99.38697814941406,-0.012069914076063368,0.325,0.3825,-0.0011291080050998264,-5.734692233154298,-0.48338379199218906,54.579689025878906,0.07683122422960069,-0.2462559594048394
4516,0.0511932373046875,0.3187500762939453,87.27584838867188,80.25875091552734,-7.7555999755859375,99.32560729980469,-0.009796820746527778,0.32033333333333336,0.38285714285714284,-0.0011291080050998264,-5.569903033325197,0.09887400269508362,54.579689025878906,0.0779677497016059,-0.24534674750434027
4517,0.0511932373046875,0.29882820129394533,87.29630279541016,80.545166015625,-7.878349304199219,99.40744018554688,-0.0022955152723524307,0.31733333333333336,0.38321428571428573,-0.0015258365207248264,-5.4380709105224625,0.4943700134754181,53.1734504699707,0.07501263088650173,-0.24761988321940104
4518,0.0355682373046875,0.29882820129394533,87.29630279541016,79.9518814086914,-7.857891082763672,99.30514526367188,0.0002048916286892361,0.31333333333333335,0.38321428571428573,-0.0030516730414496527,-5.4270845823974625,0.10986000299453735,51.767208099365234,0.08160468207465278,-0.2462559594048394
4519,0.0472869873046875,0.25898443222045897,87.27584838867188,79.0312728881836,-7.796516418457031,99.3460693359375,-0.010478719075520834,0.31,0.38285714285714284,-0.0027770148383246527,-5.48201431567383,-0.5822588377685562,50.53675079345703,0.09160639444986979,-0.24602873060438368
4520,0.0550994873046875,0.2789063262939453,87.0712661743164,78.86760711669922,-8.042011260986328,99.44835662841797,-0.012751854790581597,0.30566666666666664,0.3825,-0.0026244269476996527,-5.580889361450197,-0.4504267149658219,50.09729766845703,0.09115176730685765,-0.24989297654893664
4521,0.0550994873046875,0.2789063262939453,87.03034973144531,78.96989440917969,-8.021553039550781,99.42790222167969,-0.004795964558919271,0.30133333333333334,0.38142857142857145,-0.0031432257758246527,-6.119202273437502,0.02197200059890747,50.09729766845703,0.08956061469184028,-0.24943839179144967
4522,0.0394744873046875,0.219140682220459,86.80531311035156,78.74485778808594,-7.857891082763672,99.32560729980469,0.001341459486219618,0.29833333333333334,0.38142857142857145,-0.005096266004774305,-6.39385284716797,0.38451001048088074,49.48207092285156,0.08956061469184028,-0.24648331536187065
4523,0.0433807373046875,0.219140682220459,86.84622192382812,79.27676391601562,-7.878349304199219,99.32560729980469,-0.00775099860297309,0.29533333333333334,0.38142857142857145,-0.004577509562174479,-6.569628375122072,1.7028300762176514,49.48207092285156,0.08410508897569445,-0.24671062893337672
4524,0.0199432373046875,0.19921878814697266,87.09172058105469,80.85203552246094,-7.857891082763672,99.3460693359375,-0.003659396701388889,0.28933333333333333,0.3817857142857143,-0.005065748426649305,-6.262020724365236,2.109312057495117,49.48207092285156,0.069329833984375,-0.2467106713189019
4525,0.0277557373046875,0.219140682220459,87.23492431640625,80.91340637207031,-7.5919342041015625,99.2437744140625,-0.009114880032009548,0.283,0.3817857142857143,-0.0029601203070746527,-6.4817415648193375,1.647900104522705,49.48207092285156,0.0702390882703993,-0.24261898464626735
4526,0.0355682373046875,0.219140682220459,87.25538635253906,81.40440368652344,-7.653308868408203,99.26423645019531,0.0004322052001953125,0.279,0.3817857142857143,-0.0016173892550998264,-7.085970538208009,1.5050820112228394,49.48207092285156,0.06501091851128472,-0.24352828131781684
4527,0.0277557373046875,0.219140682220459,87.35768127441406,79.4404296875,-7.551021575927734,99.2028579711914,-0.010478719075520834,0.27466666666666667,0.3825,-0.0017394595675998264,-7.151886599609377,0.32958000898361206,49.48207092285156,0.08796946207682292,-0.24170977274576824
4528,0.0160369873046875,0.19921878814697266,87.23492431640625,79.25630950927734,-7.653308868408203,99.2028579711914,0.0031599256727430558,0.2683333333333333,0.38321428571428573,-0.0027770148383246527,-6.822306292602541,0.5932440161705017,49.48207092285156,0.08865127563476563,-0.24284629821777343
4529,-0.0152130126953125,0.17929691314697266,87.25538635253906,79.60409545898438,-7.428272247314453,98.99827575683594,0.0004322052001953125,0.2633333333333333,0.38392857142857145,-0.004516474405924479,-6.690474169799806,1.450152039527893,49.48207092285156,0.08501434326171875,-0.23807275560167102
4530,-0.0581817626953125,0.17929691314697266,86.02790832519531,78.29478454589844,-7.5305633544921875,99.18240356445312,-0.0007043626573350694,0.25666666666666665,0.385,-0.005767652723524305,-6.492725985595705,1.1974740028381348,49.48207092285156,0.08592359754774305,-0.24125518798828124
4531,-0.0152130126953125,0.19921878814697266,86.53935241699219,78.96989440917969,-7.571479797363281,99.1414794921875,-0.01547957526312934,0.251,0.38571428571428573,-0.0026549445258246527,-6.899208682128908,1.340291976928711,49.48207092285156,0.08410508897569445,-0.2412551032172309
4532,0.0082244873046875,0.19921878814697266,86.6007308959961,80.545166015625,-7.612392425537109,99.1414794921875,-0.010251405504014757,0.24633333333333332,0.38642857142857145,-0.00030517578125,-7.173859255859377,1.9005780220031738,49.48207092285156,0.06728405422634548,-0.24170968797471787
4533,0.0316619873046875,0.219140682220459,87.25538635253906,79.87004852294922,-7.428272247314453,99.1414794921875,-0.01775266859266493,0.242,0.3871428571428571,0.0027770148383246527,-7.228788989135744,1.3732500076293945,49.48207092285156,0.08205930921766492,-0.23966390821668837
4534,0.0863494873046875,0.19921878814697266,87.0098876953125,79.13356018066406,-7.489646911621094,99.1414794921875,-0.01616151597764757,0.23633333333333334,0.3875,0.0064695146348741316,-6.877236025878908,0.6811320185661316,49.48207092285156,0.08751475016276042,-0.24034584893120658
4535,0.0785369873046875,0.19921878814697266,87.86912536621094,80.66790771484375,-7.653308868408203,99.16194152832031,0.00543306138780382,0.23033333333333333,0.38857142857142857,0.005706617567274305,-6.976111071655275,1.4611380100250244,49.48207092285156,0.08001352945963541,-0.24239167107476128
4536,-0.0034942626953125,0.219140682220459,87.39859008789062,77.51737976074219,-7.714683532714844,99.18240356445312,0.006114959716796875,0.22466666666666665,0.3889285714285714,0.0016173892550998264,-7.085970538208009,0.4064820110797882,49.48207092285156,0.10979122585720485,-0.24330096774631077
4537,0.0746307373046875,0.219140682220459,85.94607543945312,80.4837875366211,-7.796516418457031,99.59156036376953,-0.03275523715549045,0.22,0.3896428571428571,0.0070188310411241316,-6.965124743530275,-0.3735243254394547,49.48207092285156,0.060692087809244795,-0.24875640869140625
4538,0.0980682373046875,0.17929691314697266,86.559814453125,81.62944030761719,-7.44873046875,99.08010864257812,-0.0018409305148654514,0.21433333333333332,0.39,0.0071409013536241316,-7.316677706787111,0.6371880173683167,49.48207092285156,0.054781934950086805,-0.2392093234592014
4539,0.0316619873046875,0.1195312786102295,89.13752746582031,79.74729919433594,-7.407814025878906,98.793701171875,0.011797756618923612,0.21033333333333334,0.3917857142857143,0.0037840525309244793,-7.206816332885744,1.6149420738220215,49.48207092285156,0.10433586968315972,-0.23557239108615452
4540,-0.0074005126953125,0.13945316314697265,87.19401550292969,79.78821563720703,-7.407814025878906,98.95736694335938,-0.004568650987413194,0.205,0.3921428571428571,0.0029601203070746527,-6.767376559326173,0.48338401317596436,49.48207092285156,0.08228666517469618,-0.23739089965820312
4541,0.0199432373046875,0.13945316314697265,87.50088500976562,80.77020263671875,-7.489646911621094,99.12102508544922,-0.015706888834635415,0.198,0.39321428571428574,0.004455439249674479,-6.38286651904297,0.32958000898361206,48.251609802246094,0.07478535970052083,-0.2401185777452257
4542,0.0199432373046875,0.13945316314697265,87.95095825195312,81.13844299316406,-7.428272247314453,98.83460998535156,-0.003659396701388889,0.19366666666666665,0.39357142857142857,0.004485956827799479,-6.624558108398439,-0.01098694140625156,46.054359436035156,0.07569461398654515,-0.2362542470296224
4543,0.0394744873046875,0.15937503814697265,87.70545959472656,79.72684478759766,-7.489646911621094,98.99827575683594,-0.01616151597764757,0.18866666666666668,0.39321428571428574,0.005065748426649305,-6.4377962523193375,-1.0326849394531266,45.79069137573242,0.08865127563476563,-0.23875469631618923
4544,-0.0034942626953125,0.17929691314697266,87.66455078125,79.4404296875,-7.407814025878906,98.95736694335938,0.007024214002821181,0.18466666666666667,0.3925,0.0020751529269748266,-6.327936785766603,-0.7250772886962906,44.12078094482422,0.09137912326388889,-0.23739089965820312
4545,0.0277557373046875,0.17929691314697266,87.58271789550781,79.21539306640625,-7.489646911621094,98.97782135009766,-0.013433795505099827,0.178,0.39107142857142857,0.0031432257758246527,-5.9544130736084,-0.801977770874025,43.85710906982422,0.09297027587890624,-0.23852742513020833
4546,-0.0230255126953125,0.17929691314697266,87.48042297363281,80.545166015625,-7.571479797363281,99.10057067871094,0.01316163804796007,0.17566666666666667,0.3896428571428571,-0.0006103515625,-5.767651217529298,0.5493000149726868,43.85710906982422,0.07705841064453126,-0.2408005608452691
4547,-0.0503692626953125,0.25898443222045897,87.6031723022461,79.80867004394531,-7.469188690185547,99.01873779296875,-0.00297745598687066,0.17266666666666666,0.3871428571428571,-0.0029601203070746527,-5.9653994017334,0.04394400119781494,41.83563995361328,0.08660558064778646,-0.2387547387017144
4548,-0.0308380126953125,0.19921878814697266,87.54179382324219,80.15646362304688,-7.428272247314453,98.93690490722656,-0.011160659790039062,0.16733333333333333,0.385,-0.0011291080050998264,-6.042299883911134,-0.18676246936035312,40.86885070800781,0.08205922444661458,-0.23739085727267795
4549,-0.0425567626953125,0.19921878814697266,87.562255859375,79.37905883789062,-7.407814025878906,98.87553405761719,0.00225067138671875,0.16433333333333333,0.3817857142857143,-0.0022276984320746527,-6.251034396240236,-0.801977770874025,40.69306945800781,0.09092441134982639,-0.2364816453721788
4550,-0.0464630126953125,0.17929691314697266,86.92805480957031,78.51982116699219,-7.387355804443359,98.83460998535156,-0.008887566460503472,0.16133333333333333,0.3796428571428571,-0.0031127081976996527,-6.36089386279297,-1.0656420164794937,40.69306945800781,0.09342481825086806,-0.23579961988661025
4551,-0.0503692626953125,0.219140682220459,86.96897888183594,78.45845031738281,-7.387355804443359,98.77323913574219,0.0040691799587673615,0.15633333333333332,0.3767857142857143,-0.004791132609049479,-6.075258868286134,-0.823950427124025,40.69306945800781,0.09456142849392361,-0.23511772155761718
4552,-0.0503692626953125,0.19921878814697266,86.41661071777344,78.23341369628906,-7.264606475830078,98.32316589355469,-0.012297227647569445,0.153,0.375,-0.005340406629774305,-5.888497012207033,-0.3625379973144547,40.60517883300781,0.09092441134982639,-0.22875302632649738
4553,-0.0386505126953125,0.17929691314697266,86.98943328857422,79.33814239501953,-7.285064697265625,98.71186828613281,-0.012297227647569445,0.149,0.3725,-0.004638544718424479,-5.4490572386474625,0.4064820110797882,40.60517883300781,0.08501434326171875,-0.23329925537109375
4554,0.0082244873046875,0.219140682220459,86.98943328857422,79.01081848144531,-7.325981140136719,99.03919982910156,-0.03093672858344184,0.14533333333333334,0.3703571428571429,-0.0011291080050998264,-4.976658480712892,0.10986000299453735,40.60517883300781,0.08865127563476563,-0.23739089965820312
4555,0.0394744873046875,0.19921878814697266,88.52378845214844,82.85691833496094,-6.691783905029297,98.01629638671875,-0.012297227647569445,0.142,0.3675,0.0010680728488498264,-5.4600435667724625,0.08788800239562988,40.60517883300781,0.06296522352430556,-0.21897866990831164
4556,0.0238494873046875,0.17929691314697266,88.42149353027344,82.36592102050781,-7.019111633300781,98.40499877929688,0.0024779849582248262,0.139,0.36642857142857144,-0.000457763671875,-5.009617465087892,-0.7250772886962906,40.60517883300781,0.06728413899739584,-0.22693456013997396
4557,0.0277557373046875,0.17929691314697266,41.900001525878906,79.56317901611328,-7.019111633300781,98.67095184326172,-0.006841744316948784,0.13466666666666666,0.36357142857142855,-0.0014037662082248264,-4.647078173706056,-2.241144793579103,40.60517883300781,-0.41847974989149306,-0.22988959418402777
4558,0.0550994873046875,0.19921878814697266,84.20714569091797,75.10333251953125,-6.732700347900391,97.99583435058594,-0.020253117879231772,0.13133333333333333,0.36214285714285716,-0.0011901431613498264,-4.493275302001955,-3.3287588530273453,40.60517883300781,0.10115347968207465,-0.21920594109429253
4559,0.0785369873046875,0.19921878814697266,84.26852416992188,77.41508483886719,-6.834991455078125,98.7527847290039,-0.017070770263671875,0.12766666666666668,0.3585714285714286,-0.0019530826144748264,-3.823128359863283,-2.0324102812500016,40.60517883300781,0.07614932590060763,-0.22875306871202256
4560,0.0707244873046875,0.13945316314697265,88.83065795898438,82.16134643554688,-6.834991455078125,98.09812927246094,0.002932612101236979,0.124,0.35642857142857143,-0.005065748426649305,-3.987919467041017,0.4614120125770569,40.60517883300781,0.07410346137152778,-0.22147911919487848
4561,-0.0113067626953125,0.239062557220459,83.20470428466797,77.96745300292969,-6.957736968994141,98.2004165649414,0.012934324476453993,0.11966666666666667,0.35428571428571426,-0.008514149983723959,-4.141722338745119,-0.7360617094726578,40.60517883300781,0.058191680908203126,-0.22397948371039497
4562,0.0668182373046875,0.19921878814697266,41.900001525878906,80.23829650878906,-7.060028076171875,99.2028579711914,-0.03343713548448351,0.117,0.3517857142857143,-0.004089228312174479,-4.042849200317384,-1.516068118164064,40.60517883300781,-0.4259810553656684,-0.23625428941514756
4563,0.0707244873046875,0.19921878814697266,85.23004150390625,78.84715270996094,-6.732700347900391,97.99583435058594,0.005887646145290798,0.11366666666666667,0.3492857142857143,-0.004791132609049479,-4.965672152587892,0.6152160167694092,40.60517883300781,0.07092098659939236,-0.21920594109429253
4564,0.0277557373046875,0.219140682220459,85.96653747558594,78.92898559570312,-6.7531585693359375,98.11858367919922,0.0024779849582248262,0.10933333333333334,0.34785714285714286,-0.0070493486192491316,-4.921728747436525,1.5709980726242065,40.60517883300781,0.0781950208875868,-0.22079713609483506
4565,0.0238494873046875,0.17929691314697266,87.37813568115234,83.71615600585938,-6.3644561767578125,97.91400146484375,0.0024779849582248262,0.105,0.3464285714285714,-0.005889723036024305,-4.526232379028322,2.3070600032806396,40.60517883300781,0.04068866305881076,-0.21420508490668402
4566,0.0121307373046875,0.15937503814697265,89.23981475830078,80.13600158691406,-6.118961334228516,97.54576110839844,-0.0075236850314670135,0.10033333333333333,0.3457142857142857,-0.005523512098524305,-4.053835528442384,1.3183200359344482,40.60517883300781,0.10115347968207465,-0.20738580491807726
4567,-0.0074005126953125,0.15937503814697265,84.47309875488281,76.3921890258789,-5.934837341308594,97.87309265136719,-0.0002497355143229167,0.09633333333333334,0.3439285714285714,-0.005218336317274305,-2.9991785460205094,0.3185940086841583,40.95674133300781,0.08978788587782117,-0.2089769999186198
4568,-0.0074005126953125,0.19921878814697266,84.49356079101562,76.94454956054688,-6.180332183837891,97.7298812866211,-0.012069914076063368,0.09133333333333334,0.3425,-0.005767652723524305,-3.163967745849611,-0.6591612272949234,41.57196807861328,0.08387790256076388,-0.21011348300509983
4569,0.0082244873046875,0.19921878814697266,85.43462371826172,77.10821533203125,-6.262165069580078,98.26179504394531,-0.014343007405598959,0.08733333333333333,0.3407142857142857,-0.005218336317274305,-3.273829119750978,0.3954960107803345,41.74774932861328,0.0925156487358941,-0.2169328901502821
4570,-0.0034942626953125,0.19921878814697266,88.72836303710938,83.26608276367188,-6.241706848144531,97.81171417236328,0.0002048916286892361,0.08233333333333333,0.3392857142857143,-0.005462476942274305,-3.823128359863283,1.5600121021270752,41.74774932861328,0.06069200303819444,-0.21170467800564235
4571,-0.0034942626953125,0.219140682220459,87.86912536621094,79.84959411621094,-5.791633605957031,97.44346618652344,-0.010478719075520834,0.07866666666666666,0.3382142857142857,-0.004241816202799479,-4.35045685107422,0.5053560137748718,41.39619064331055,0.08910590277777777,-0.20261221991644965
4572,0.0043182373046875,0.219140682220459,86.559814453125,80.58607482910156,-6.078044891357422,97.75033569335938,-0.009796820746527778,0.07433333333333333,0.33785714285714286,-0.0037840525309244793,-4.064819949218752,0.5932440161705017,41.39619064331055,0.06637488471137153,-0.2092042287190755
4573,-0.0386505126953125,0.239062557220459,87.15309143066406,79.17447662353516,-6.1394195556640625,97.97537994384766,-0.00047704908582899306,0.07033333333333333,0.3360714285714286,-0.0068967607286241316,-3.6583391600341812,0.7690200209617615,41.39619064331055,0.08865127563476563,-0.21238666110568577
4574,-0.0659942626953125,0.219140682220459,86.43707275390625,79.9518814086914,-6.098503112792969,97.89354705810547,-2.242194281684028e-05,0.066,0.335,-0.008605702718098959,-3.4825636320800797,0.6701459884643555,41.39619064331055,0.07205768161349826,-0.2110227796766493
4575,-0.0699005126953125,0.25898443222045897,85.68012237548828,75.16471099853516,-5.709800720214844,97.83216857910156,-0.0066144307454427086,0.061,0.3335714285714286,-0.009246529473198786,-3.7022825651855484,0.45042601227760315,41.22040939331055,0.11683790418836805,-0.20602188110351563
4576,-0.0464630126953125,0.19921878814697266,88.62606811523438,84.63676452636719,-5.853004455566406,97.36163330078125,-0.022298897637261283,0.058,0.33285714285714285,-0.005584547254774305,-3.4276319914550797,1.7138160467147827,41.22040939331055,0.04432559543185764,-0.2023848639594184
4577,-0.0347442626953125,0.19921878814697266,88.93293762207031,81.87493133544922,-5.709800720214844,97.50484466552734,-0.010478719075520834,0.053,0.3317857142857143,-0.0035704294840494793,-2.812416689941408,1.3622640371322632,41.22040939331055,0.07842229207356771,-0.20238494873046875
4578,-0.0269317626953125,0.19921878814697266,87.13264465332031,80.29966735839844,-5.627967834472656,97.32072448730469,-0.015934202406141493,0.04933333333333333,0.33035714285714285,-0.0018920474582248264,-2.559738772460939,-0.01098694140625156,41.22040939331055,0.07592196994357639,-0.19942991468641494
4579,0.0043182373046875,0.219140682220459,88.48286437988281,78.19248962402344,-6.773616790771484,97.85263061523438,-0.01957117716471354,0.045,0.3289285714285714,6.103515625e-05,-2.0324102812500016,-0.3625379973144547,41.22040939331055,0.1143374972873264,-0.21806941562228732
4580,-0.0152130126953125,0.19921878814697266,85.94607543945312,82.12042999267578,-5.382472991943359,97.1365966796875,0.0049784342447916664,0.041,0.3271428571428571,-0.0018310123019748264,-2.559738772460939,-0.15380539233398594,41.22040939331055,0.042507171630859375,-0.19465632968478733
4581,-0.0308380126953125,0.19921878814697266,84.53446960449219,78.58119201660156,-4.400489807128906,96.89110565185547,-0.0168434566921658,0.036333333333333336,0.32571428571428573,-0.0034789191351996527,-2.845373766967775,-1.527054446289064,41.22040939331055,0.06614752875434028,-0.1810177273220486
4582,-0.0425567626953125,0.219140682220459,82.61141967773438,75.10333251953125,-5.136974334716797,96.64561462402344,0.0002048916286892361,0.03266666666666666,0.3246428571428571,-0.006255933973524305,-2.0763555937500016,-1.3952223234863297,41.22040939331055,0.0834231906467014,-0.18647321065266928
4583,-0.0464630126953125,0.239062557220459,91.55156707763672,79.76776123046875,-4.216365814208984,97.87309265136719,-0.011615286933051215,0.030333333333333334,0.32321428571428573,-0.0077512529161241316,-1.2414194517822281,0.17577600479125977,41.48408126831055,0.1309311760796441,-0.18988287183973523
4584,-0.0699005126953125,0.19921878814697266,84.14576721191406,75.73753356933594,-4.871021270751953,97.42301177978516,0.0017960866292317708,0.026333333333333334,0.32142857142857145,-0.008697255452473959,-1.538040774414064,-0.3515516691894547,41.48408126831055,0.09342481825086806,-0.19215592278374566
4585,-0.0425567626953125,0.19921878814697266,84.12531280517578,76.31035614013672,-5.300640106201172,97.1365966796875,-0.02093505859375,0.02266666666666667,0.3192857142857143,-0.0074155595567491316,-1.0986010008544937,-2.0653692656250016,41.48408126831055,0.08683285183376736,-0.193747075398763
4586,0.0082244873046875,0.219140682220459,89.2193603515625,78.66302490234375,-4.564151763916016,97.66851043701172,-0.018889236450195312,0.019666666666666666,0.31785714285714284,-0.005370924207899305,-0.9887415343017594,-0.6262022429199234,41.48408126831055,0.11729261610243055,-0.19147402445475262
4587,-0.0034942626953125,0.15937503814697265,81.85447692871094,78.33570098876953,-4.952854156494141,96.97293853759766,0.011570443047417535,0.016,0.31535714285714284,-0.0064695146348741316,-0.6811319761962906,0.23070600628852844,41.48408126831055,0.0390975104437934,-0.18806436326768664
4588,-0.0113067626953125,0.17929691314697266,83.77752685546875,76.24897766113281,-4.4209442138671875,96.50240325927734,-0.017070770263671875,0.012333333333333333,0.31357142857142856,-0.0076597001817491316,0.2526780068874359,-0.5822588377685562,41.48408126831055,0.08365054660373264,-0.17692608303493923
4589,-0.0113067626953125,0.19921878814697266,86.94851684570312,82.63188171386719,-3.8276634216308594,96.7274398803711,0.003841866387261285,0.008666666666666666,0.31035714285714283,-0.0075681474473741316,1.0766279697418213,0.8239500522613525,41.48408126831055,0.04796261257595486,-0.17283448113335503
4590,-0.0152130126953125,0.15937503814697265,89.09660339355469,79.9927978515625,-2.313770294189453,95.31584167480469,-0.006841744316948784,0.004666666666666667,0.3078571428571429,-0.0071714189317491316,1.263390064239502,0.24169200658798218,30.673608779907227,0.1011533949110243,-0.14032902187771268
4591,0.0121307373046875,0.13945316314697265,85.455078125,77.57875061035156,-1.7614059448242188,92.94271087646484,0.006114959716796875,0.003,0.30464285714285716,-0.005401441786024305,2.285088062286377,-0.2416922026367203,23.993968963623047,0.08751475016276042,-0.10782352023654514
4592,0.0472869873046875,0.15937503814697265,85.57783508300781,79.52226257324219,-1.0862922668457031,94.47706604003906,0.007933468288845487,0.001,0.30178571428571427,-0.0028990851508246527,3.306786060333252,-0.2966219359130875,23.81818962097168,0.06728413899739584,-0.11737064785427517
4593,0.0824432373046875,0.15937503814697265,84.45263671875,77.84471130371094,2.0233230590820312,93.00408935546875,0.003841866387261285,0.0,0.2960714285714286,-0.0,2.658612012863159,-0.834936755249025,23.81818962097168,0.07342139350043403,-0.06645295884874132
