,WD,WS,AIL_1,AIL_2,ELEV_1,ELEV_2,RUDD,ALT,GS,TH,PTCH,ROLL,PLA_1,AIL,ELEV
2714,-0.05930534427083332,0.39843757629394533,85.16867065429688,77.72195434570312,-3.4185028076171875,96.40011596679688,0.004523807101779514,0.6556666666666666,0.45535714285714285,-0.010986031426323786,-0.856909411499025,1.2414180040359497,28.827919006347656,0.08274129231770834,-0.1646513197157118
2715,-0.06711784427083332,0.39843757629394533,85.23004150390625,78.31524658203125,-3.4185028076171875,96.35919189453125,0.004751120673285591,0.6506666666666666,0.4542857142857143,-0.010863961113823786,-0.9228254729003922,1.9994521141052246,28.827919006347656,0.0768310546875,-0.1641966078016493
2716,-0.07102409427083332,0.39843757629394533,85.25050354003906,78.45845031738281,-3.3775863647460938,96.40011596679688,0.0031599256727430558,0.646,0.4539285714285714,-0.009978951348198786,-0.9777552061767594,2.2521300315856934,28.827919006347656,0.07546725802951389,-0.16419669257269964
2717,-0.06711784427083332,0.39843757629394533,85.27096557617188,78.84715270996094,-3.357128143310547,96.37965393066406,-0.0002497355143229167,0.6406666666666667,0.4525,-0.008544667561848959,-1.0326849394531266,1.9994521141052246,28.827919006347656,0.07137569851345486,-0.16374202304416233
2718,-0.06321159427083332,0.39843757629394533,85.27096557617188,78.92898559570312,-3.357128143310547,96.31828308105469,-2.242194281684028e-05,0.6363333333333333,0.4517857142857143,-0.0072324540879991316,-1.0546575957031266,1.3293060064315796,28.827919006347656,0.07046644422743055,-0.16306012471516926
2719,-0.05930534427083332,0.39843757629394533,85.68012237548828,79.60409545898438,-3.3980445861816406,96.35919189453125,-0.0007043626573350694,0.631,0.45071428571428573,-0.006347486707899305,-1.0876146727294937,0.7800060510635376,28.827919006347656,0.06751141018337674,-0.16396929423014323
2720,-0.05930534427083332,0.39843757629394533,85.39370727539062,79.19493103027344,-3.357128143310547,96.31828308105469,0.001341459486219618,0.6256666666666667,0.4496428571428571,-0.006286451551649305,-1.131558077880861,-0.17577614123535312,28.827919006347656,0.0688752916124132,-0.16306012471516926
2721,-0.04758659427083332,0.39843757629394533,85.33233642578125,77.57875061035156,-3.1730079650878906,96.29782104492188,0.0011141459147135417,0.6213333333333333,0.44892857142857145,-0.005554029676649305,-1.0986010008544937,-0.2746511870117203,28.827919006347656,0.08615095350477431,-0.16078698900010852
2722,-0.04368034427083332,0.39843757629394533,86.19157409667969,79.07218933105469,-3.0707168579101562,96.21598815917969,0.0004322052001953125,0.6156666666666667,0.44821428571428573,-0.005096308390299479,-0.9447962218017594,0.1538040041923523,28.827919006347656,0.07910427517361111,-0.15874116685655382
2723,-0.05149284427083332,0.39843757629394533,86.21202850341797,80.27920532226562,-3.11163330078125,96.17507934570312,-0.0002497355143229167,0.6106666666666667,0.4467857142857143,-0.006225416395399305,-0.7909933500976578,-0.9447962218017594,28.827919006347656,0.06592025756835937,-0.15874125162760416
2724,-0.05539909427083332,0.39843757629394533,85.68012237548828,78.60165405273438,-3.091175079345703,96.2364501953125,0.0011141459147135417,0.606,0.44642857142857145,-0.0075681474473741316,-0.7909933500976578,-2.0983263426513687,28.827919006347656,0.07864964803059896,-0.15919583638509113
2725,-0.05149284427083332,0.39843757629394533,85.65966796875,78.3970718383789,-3.0298004150390625,96.2364501953125,0.001341459486219618,0.6006666666666667,0.44535714285714284,-0.008422597249348959,-0.8678938322753922,-2.3180471831054703,28.827919006347656,0.08069551255967881,-0.15851389567057292
2726,-0.04758659427083332,0.39843757629394533,85.29141998291016,77.90608215332031,-2.9479713439941406,96.1955337524414,0.003387239244249132,0.5963333333333334,0.4442857142857143,-0.009246571858723959,-0.8678938322753922,-1.9225508146972672,28.827919006347656,0.08205930921766492,-0.15715005662706164
2727,-0.03977409427083332,0.39843757629394533,85.41416931152344,77.66058349609375,-2.866138458251953,96.21598815917969,0.003841866387261285,0.5926666666666667,0.4432142857142857,-0.009460194905598959,-0.801977770874025,-0.823950427124025,28.827919006347656,0.08615095350477431,-0.15646807352701822
2728,-0.03977409427083332,0.39843757629394533,85.41416931152344,77.66058349609375,-2.8456802368164062,96.17507934570312,0.007933468288845487,0.5873333333333334,0.4417857142857143,-0.009673775566948786,-0.6481748991699234,0.48338401317596436,28.827919006347656,0.08615095350477431,-0.15578621758355035
2729,-0.04758659427083332,0.39843757629394533,85.47554016113281,78.06974792480469,-2.907054901123047,96.33873748779297,0.00770615471733941,0.582,0.43892857142857145,-0.009856881035698786,-0.4723993712158219,1.5050820112228394,28.827919006347656,0.08228658040364584,-0.15828658209906685
2730,-0.04758659427083332,0.39843757629394533,85.5164566040039,79.31768798828125,-3.3366737365722656,96.788818359375,-0.0002497355143229167,0.5776666666666667,0.43607142857142855,-0.009002431233723959,-0.6921183043212906,1.450152039527893,28.827919006347656,0.06887520684136285,-0.16806102328830294
2731,-0.04758659427083332,0.39843757629394533,85.5164566040039,79.27676391601562,-4.11407470703125,97.21842956542969,0.0036145528157552082,0.5743333333333334,0.4303571428571429,-0.008636220296223959,-1.4501520567626969,0.9338099956512451,28.827919006347656,0.06932991875542535,-0.18147226969401042
2732,-0.05149284427083332,0.3785157012939453,85.47554016113281,77.92654418945312,-4.8096466064453125,97.58667755126953,0.007933468288845487,0.5716666666666667,0.42642857142857143,-0.008727773030598959,-2.3070608549804703,0.7360620498657227,28.827919006347656,0.08387773301866319,-0.19329249064127604
2733,-0.03977409427083332,0.3785157012939453,85.5164566040039,78.04928588867188,-5.402931213378906,97.95492553710938,0.001341459486219618,0.5703333333333334,0.4203571428571429,-0.0067441728379991316,-3.0541082792968766,1.3842360973358154,28.827919006347656,0.08296856350368924,-0.20397618611653645
2734,-0.03977409427083332,0.3785157012939453,85.53691101074219,78.78577423095703,-5.11651611328125,98.1390380859375,0.001341459486219618,0.5673333333333334,0.41678571428571426,-0.005828687879774305,-3.7242552214355484,1.922550082206726,28.827919006347656,0.07501263088650173,-0.20283949110243055
2735,-0.04758659427083332,0.3785157012939453,85.74149322509766,79.93142700195312,-4.564151763916016,97.85263061523438,0.0024779849582248262,0.5636666666666666,0.4117857142857143,-0.005584547254774305,-4.031862872192384,1.6149420738220215,28.827919006347656,0.06455629136827257,-0.19351980421278211
2736,-0.04758659427083332,0.3785157012939453,85.74149322509766,79.4813461303711,-4.3595733642578125,97.62759399414062,0.001341459486219618,0.559,0.4089285714285714,-0.005370924207899305,-4.020876544067384,0.6921180486679077,28.827919006347656,0.06955718994140625,-0.18874630398220485
2737,-0.04368034427083332,0.3785157012939453,85.557373046875,78.92898559570312,-4.073158264160156,97.42301177978516,-0.0011589898003472221,0.5533333333333333,0.405,-0.004730097452799479,-3.88904442126465,-0.3295809202880875,28.827919006347656,0.07364874945746527,-0.18329077826605902
2738,-0.03196159427083332,0.3785157012939453,85.57783508300781,78.96989440917969,-3.9708709716796875,97.2798080444336,0.0006595187717013889,0.5486666666666666,0.40285714285714286,-0.0037230597601996527,-3.6583391600341812,-0.6042314940185562,28.827919006347656,0.07342156304253472,-0.18056310017903646
2739,-0.024149094270833317,0.3785157012939453,85.76194763183594,79.50180053710938,-3.868579864501953,97.1979751586914,-0.001613616943359375,0.543,0.3989285714285714,-0.0036925421820746527,-3.4386183195800797,-0.7690206938476578,28.827919006347656,0.06955718994140625,-0.17851727803548176
2740,-0.028055344270833317,0.3785157012939453,85.5982894897461,79.46089172363281,-3.643543243408203,97.17752075195312,0.0004322052001953125,0.538,0.3967857142857143,-0.004730097452799479,-3.262842791625978,-1.4062086516113297,28.827919006347656,0.0681933085123698,-0.1757895999484592
2741,-0.024149094270833317,0.3785157012939453,85.53691101074219,78.27432250976562,-3.500335693359375,97.07522583007812,0.003387239244249132,0.5333333333333333,0.3939285714285714,-0.005676099989149305,-3.0760809355468766,-1.5929705076904312,28.827919006347656,0.08069542778862847,-0.1730617947048611
2742,-0.012430344270833319,0.3785157012939453,85.0459213256836,77.435546875,-3.0502586364746094,96.87065124511719,0.003841866387261285,0.5283333333333333,0.3917857142857143,-0.005126825968424479,-2.7684732847900406,-0.6921183043212906,28.827919006347656,0.0845597161187066,-0.1657878875732422
2743,-0.008524094270833319,0.3785157012939453,85.49600219726562,78.64257049560547,-2.8252220153808594,96.76835632324219,0.0006595187717013889,0.524,0.3875,-0.004394404093424479,-2.493822711059572,0.7690200209617615,28.827919006347656,0.07614924112955729,-0.16215087042914497
2744,-0.020242844270833317,0.3785157012939453,86.0688247680664,80.19737243652344,-2.5797271728515625,97.03430938720703,0.0008868323432074653,0.5196666666666667,0.385,-0.005187861124674479,-2.493822711059572,1.2084600925445557,28.827919006347656,0.06523835923936631,-0.16237818400065104
2745,-0.03196159427083332,0.3785157012939453,85.74149322509766,79.93142700195312,-2.497894287109375,97.38209533691406,-0.004114023844401042,0.516,0.3796428571428571,-0.005584547254774305,-2.911289828369142,0.6371880173683167,28.827919006347656,0.06455629136827257,-0.16533321804470485
2746,-0.024149094270833317,0.3785157012939453,85.68012237548828,78.76531982421875,-3.357128143310547,97.58667755126953,-0.005705218844943577,0.5136666666666667,0.37357142857142855,-0.004638544718424479,-3.493548052856447,0.4723980128765106,28.827919006347656,0.07683113945855034,-0.1771533966064453
2747,-0.024149094270833317,0.3585938262939453,86.13019561767578,79.78821563720703,-3.868579864501953,97.7298812866211,-0.007978312174479167,0.512,0.36964285714285716,-0.004180781046549479,-4.009890215942384,0.41746801137924194,28.827919006347656,0.07046644422743055,-0.1844273461235894
2748,-0.03196159427083332,0.3585938262939453,86.64164733886719,81.17935943603516,-4.154991149902344,97.85263061523438,-0.002522828843858507,0.5093333333333333,0.3632142857142857,-0.005309931437174479,-4.537218707153322,-0.5163427763671891,28.827919006347656,0.060692087809244795,-0.18897357516818578
2749,-0.03586784427083332,0.33867195129394534,86.17111206054688,79.13356018066406,-4.011787414550781,97.89354705810547,-0.0018409305148654514,0.5076666666666667,0.3582142857142857,-0.006378004286024305,-5.064547198364259,-1.8126913481445328,28.827919006347656,0.0781950208875868,-0.18783704969618056
2750,-0.016336594270833317,0.33867195129394534,84.16622924804688,76.55585479736328,-3.1525497436523438,97.64805603027344,-0.002068201700846354,0.505,0.35285714285714287,-0.005523512098524305,-5.295252459594728,-1.4831110411376969,28.827919006347656,0.0845597161187066,-0.17556228637695312
2751,-0.004617844270833318,0.3585938262939453,84.5958480834961,77.55829620361328,-3.0707168579101562,97.46392822265625,-0.0002497355143229167,0.502,0.3492857142857143,-0.004669062296549479,-5.119476931640627,0.2856360077857971,28.827919006347656,0.0781950208875868,-0.17260716756184896
2752,-0.020242844270833317,0.3585938262939453,86.92805480957031,80.50424194335938,-2.9684295654296875,97.46392822265625,0.004751120673285591,0.498,0.3442857142857143,-0.006011793348524305,-5.075533526489259,1.1095860004425049,28.827919006347656,0.07137569851345486,-0.17147064208984375
2753,-0.03586784427083332,0.3585938262939453,86.39614868164062,81.24073791503906,-2.3751449584960938,97.03430938720703,-0.003659396701388889,0.49433333333333335,0.3414285714285714,-0.0071103837754991316,-4.877785342285158,0.23070600628852844,28.827919006347656,0.057282341851128474,-0.16010504828559027
2754,-0.03586784427083332,0.3585938262939453,86.31431579589844,80.23829650878906,-1.7614059448242188,96.54331970214844,-0.00775099860297309,0.49033333333333334,0.33714285714285713,-0.0072934892442491316,-4.141722338745119,-0.9447962218017594,28.65213966369629,0.06751132541232639,-0.14783028496636286
2755,-0.020242844270833317,0.3585938262939453,86.0074462890625,78.23341369628906,-1.7614059448242188,96.44102478027344,-0.009569507175021702,0.48633333333333334,0.3335714285714286,-0.006347486707899305,-3.251856463500978,-1.2963491850585953,28.65213966369629,0.08637813991970486,-0.1466936747233073
2756,-0.012430344270833319,0.3585938262939453,86.08927917480469,78.31524658203125,-1.9250717163085938,96.40011596679688,0.0006595187717013889,0.4836666666666667,0.3289285714285714,-0.006286451551649305,-2.7574869566650406,-0.5383154326171891,28.65213966369629,0.08637813991970486,-0.1480576409233941
2757,-0.020242844270833317,0.3585938262939453,86.13019561767578,79.23585510253906,-1.7409477233886719,96.17507934570312,0.0065695868598090275,0.4806666666666667,0.32535714285714284,-0.0076291826036241316,-2.4388929777832047,0.1538040041923523,28.65213966369629,0.0766037835015191,-0.14351141187879773
2758,-0.020242844270833317,0.3785157012939453,85.80287170410156,77.9879150390625,-1.1885833740234375,95.90911865234375,-0.002522828843858507,0.478,0.32035714285714284,-0.0075376298692491316,-1.8786074095459,0.4614120125770569,28.65213966369629,0.08683285183376736,-0.13441891140407985
2759,-0.020242844270833317,0.3585938262939453,86.04837036132812,78.60165405273438,-1.331787109375,95.70454406738281,-0.0043413374159071184,0.47633333333333333,0.3167857142857143,-0.006561109754774305,-1.1095873289794937,1.1645159721374512,28.65213966369629,0.08274129231770834,-0.1337370130750868
2760,-0.024149094270833317,0.3785157012939453,86.33477783203125,80.42241668701172,-1.7614059448242188,95.90911865234375,-0.003886710272894965,0.4736666666666667,0.3107142857142857,-0.006408521864149305,-0.7690206938476578,1.2963480949401855,28.827919006347656,0.06569290161132812,-0.14078360663519965
2761,-0.03196159427083332,0.3785157012939453,86.13019561767578,79.84959411621094,-1.7818641662597656,95.82728576660156,-0.004114023844401042,0.4716666666666667,0.3075,-0.0067441728379991316,-0.8788801604003922,0.7250760197639465,30.673608779907227,0.06978446112738715,-0.14010166592068143
2762,-0.028055344270833317,0.3785157012939453,85.27096557617188,77.8856201171875,-1.5772857666015625,95.70454406738281,-0.0043413374159071184,0.47,0.3028571428571429,-0.005615064832899305,-0.9118391447753922,0.5822579860687256,34.892330169677734,0.08205939398871528,-0.13646477593315973
2763,-0.016336594270833317,0.3785157012939453,85.65966796875,77.84471130371094,-1.4340782165527344,95.52041625976562,-0.0043413374159071184,0.468,0.30107142857142855,-0.0035094367133246527,-0.7031046324462906,1.3622640371322632,37.704811096191406,0.08683285183376736,-0.13282771640353733
2764,-0.016336594270833317,0.3785157012939453,86.33477783203125,80.13600158691406,-1.2908706665039062,95.41812896728516,-0.004114023844401042,0.466,0.2985714285714286,-0.0023803287082248266,-0.3845106535644547,1.8786060810089111,39.814170837402344,0.0688752916124132,-0.1300999959309896
2765,-0.028055344270833317,0.3785157012939453,86.662109375,81.22027587890625,-1.2499542236328125,95.31584167480469,-0.004114023844401042,0.4633333333333333,0.2975,-0.0025633917914496527,-0.07690300280761875,1.340291976928711,41.39619064331055,0.06046481662326389,-0.12850884331597223
2766,-0.028055344270833317,0.3785157012939453,86.29386138916016,80.50424194335938,-1.2090415954589844,95.25446319580078,-0.0043413374159071184,0.461,0.2960714285714286,-0.0019530826144748264,0.16479000449180603,0.20873400568962097,42.362979888916016,0.06432910495334201,-0.12737227545844185
2767,-0.016336594270833317,0.3785157012939453,86.25294494628906,79.91096496582031,-1.3727035522460938,95.25446319580078,-0.0043413374159071184,0.45866666666666667,0.2957142857142857,-0.0001220703125,0.32958000898361206,-0.5932451658935562,43.505550384521484,0.07046644422743055,-0.12919074164496527
2768,-0.0007115942708333181,0.3785157012939453,86.45751953125,80.66790771484375,-1.7614059448242188,95.49996185302734,-0.0043413374159071184,0.456,0.29464285714285715,0.0015868716769748264,0.2197200059890747,-1.142544406005861,43.85710906982422,0.06432902018229167,-0.13623741997612848
2769,0.007100905729166682,0.3785157012939453,86.49844360351562,80.91340637207031,-1.7818641662597656,95.49996185302734,-0.004114023844401042,0.4533333333333333,0.29464285714285715,0.0017394595675998264,-0.06591667468261875,-1.538040774414064,44.91178894042969,0.06205596923828125,-0.13646473354763455
2770,0.003194655729166682,0.3785157012939453,86.27340698242188,80.52470397949219,-1.7614059448242188,95.52041625976562,-0.003886710272894965,0.4503333333333333,0.29428571428571426,3.0517578125e-05,-0.3295809202880875,-1.8895918303222672,45.26335144042969,0.06387447781032986,-0.13646469116210938
2771,-0.004617844270833318,0.3785157012939453,86.19157409667969,79.84959411621094,-1.6181983947753906,95.47950744628906,-0.001613616943359375,0.44766666666666666,0.29428571428571426,-0.0029906378851996527,-0.5602861815185562,-2.252131121704103,45.70280075073242,0.07046644422743055,-0.13441895378960503
2772,-0.008524094270833319,0.3785157012939453,85.0050048828125,78.27432250976562,-1.2704124450683594,95.33629608154297,-0.003204769558376736,0.44433333333333336,0.295,-0.005401441786024305,-0.6701475554199234,-2.1202989989013687,45.79069137573242,0.07478535970052083,-0.1289634280734592
2773,-0.008524094270833319,0.3785157012939453,84.47309875488281,76.94454956054688,-1.10675048828125,95.31584167480469,-0.003886710272894965,0.441,0.2953571428571429,-0.0072019365098741316,-0.6152159147949234,-1.175503390380861,45.79069137573242,0.08365054660373264,-0.12691769070095485
2774,-0.016336594270833317,0.3785157012939453,84.94363403320312,76.90364074707031,-0.8612556457519531,95.25446319580078,-0.004114023844401042,0.43766666666666665,0.2960714285714286,-0.008788808186848959,-0.5163427763671891,0.1867620050907135,45.79069137573242,0.08933325873480903,-0.12350798712836372
2775,-0.020242844270833317,0.3785157012939453,85.1072998046875,78.58119201660156,-0.8407974243164062,95.21354675292969,-0.005250591701931423,0.435,0.2960714285714286,-0.009551747639973959,-0.3405672484130875,1.219446063041687,45.79069137573242,0.07251230875651042,-0.12282604641384548
2776,-0.028055344270833317,0.3785157012939453,85.65966796875,79.87004852294922,-1.0862922668457031,95.17263793945312,-0.006159803602430555,0.431,0.2960714285714286,-0.009399159749348959,-0.13183273608398594,1.252403974533081,45.70280075073242,0.06432910495334201,-0.12509922451443142
2777,-0.020242844270833317,0.3785157012939453,85.57783508300781,79.93142700195312,-1.6386566162109375,95.39767456054688,-0.009569507175021702,0.42766666666666664,0.2960714285714286,-0.0077817704942491316,-0.06591667468261875,0.7140899896621704,45.70280075073242,0.0627378675672743,-0.1337370130750868
2778,-0.012430344270833319,0.3785157012939453,85.37325286865234,79.66546630859375,-1.720489501953125,95.66361999511719,-0.008887566460503472,0.425,0.2960714285714286,-0.006316969129774305,-0.4284540587158219,0.2746500074863434,45.70280075073242,0.06341985066731771,-0.1376012166341146
2779,-0.008524094270833319,0.3785157012939453,85.33233642578125,77.72195434570312,-1.7000312805175781,95.43858337402344,-0.007069057888454861,0.422,0.2960714285714286,-0.005187861124674479,-0.823950427124025,0.6481740474700928,45.70280075073242,0.08455980088975694,-0.13487349616156685
2780,-0.012430344270833319,0.3585938262939453,85.39370727539062,79.21539306640625,-1.6591148376464844,95.39767456054688,-0.004114023844401042,0.41833333333333333,0.2960714285714286,-0.005218378702799479,-0.845923083374025,1.1864880323410034,45.70280075073242,0.06864793565538195,-0.13396432664659289
2781,-0.020242844270833317,0.3785157012939453,85.82332611083984,80.0337142944336,-1.7614059448242188,95.43858337402344,-0.004114023844401042,0.41433333333333333,0.29642857142857143,-0.005584547254774305,-0.7690206938476578,0.9777539968490601,45.79069137573242,0.06432902018229167,-0.13555543687608507
2782,-0.016336594270833317,0.3785157012939453,85.557373046875,80.15646362304688,-1.5159111022949219,95.41812896728516,-0.006159803602430555,0.41133333333333333,0.29642857142857143,-0.004577509562174479,-0.812964098999025,0.3405660092830658,45.79069137573242,0.06001010470920139,-0.13260044521755643
2783,-0.008524094270833319,0.3785157012939453,85.43462371826172,78.51982116699219,-1.2294998168945312,95.21354675292969,-0.005705218844943577,0.408,0.29714285714285715,-0.0034484015570746527,-0.6371885710449234,0.1538040041923523,45.26335144042969,0.07683113945855034,-0.12714496188693578
2784,-0.004617844270833318,0.3785157012939453,85.5164566040039,78.35615539550781,-1.720489501953125,95.45904541015625,-0.004114023844401042,0.4043333333333333,0.29678571428571426,-0.0026854621039496527,-0.4504267149658219,0.7140899896621704,44.99967956542969,0.07955890231662327,-0.13532816569010417
2785,-0.012430344270833319,0.3785157012939453,86.43707275390625,80.66790771484375,-1.8636970520019531,95.68408203125,-0.0034320831298828127,0.401,0.29678571428571426,-0.0033568488226996527,-0.8678938322753922,0.6921180486679077,44.91178894042969,0.06410183376736112,-0.13941976759168836
2786,-0.020242844270833317,0.3785157012939453,86.31431579589844,81.01570129394531,-1.8023223876953125,95.60224914550781,-0.003659396701388889,0.3973333333333333,0.29642857142857143,-0.004058710734049479,-1.4062086516113297,-0.17577614123535312,44.91178894042969,0.058873494466145836,-0.13782857259114584
2787,-0.012430344270833319,0.3785157012939453,86.0688247680664,80.0337142944336,-1.6181983947753906,95.43858337402344,-0.005250591701931423,0.39366666666666666,0.29678571428571426,-0.0032652960883246527,-1.4831110411376969,-1.0986010008544937,44.91178894042969,0.06705678304036458,-0.13396424187554254
2788,0.003194655729166682,0.3785157012939453,85.98699188232422,78.78577423095703,-1.5568275451660156,95.39767456054688,-0.006159803602430555,0.3903333333333333,0.2975,-0.0021667056613498266,-1.2853628569335953,-1.1974741392822281,44.91178894042969,0.08001352945963541,-0.13282780117458767
2789,0.003194655729166682,0.3585938262939453,85.94607543945312,78.540283203125,-1.3727035522460938,95.31584167480469,-0.003886710272894965,0.38666666666666666,0.2975,-0.0031737433539496527,-1.1095873289794937,-0.4284540587158219,44.91178894042969,0.08228658040364584,-0.1298727247450087
2790,-0.012430344270833319,0.3785157012939453,85.98699188232422,79.3995132446289,-1.2294998168945312,95.2340087890625,-0.002750142415364583,0.38266666666666665,0.2975,-0.005584547254774305,-0.9228254729003922,0.010986000299453735,44.91178894042969,0.07319420708550348,-0.12737231784396702
2791,-0.024149094270833317,0.3785157012939453,85.16867065429688,78.23341369628906,-1.10675048828125,95.1317138671875,-0.003659396701388889,0.379,0.2975,-0.0075986650254991316,-0.6152159147949234,0.032958000898361206,44.38444900512695,0.07705841064453126,-0.124871826171875
2792,-0.024149094270833317,0.3785157012939453,84.5958480834961,76.84226989746094,-1.6181983947753906,95.27491760253906,-0.005705218844943577,0.37566666666666665,0.29714285714285715,-0.0077817704942491316,-0.2966219359130875,0.5932440161705017,44.03289031982422,0.08615086873372396,-0.1321457333034939
2793,-0.024149094270833317,0.3785157012939453,85.31187438964844,78.82669067382812,-1.6591148376464844,95.58179473876953,-0.007069057888454861,0.37233333333333335,0.29678571428571426,-0.0068967607286241316,-0.4284540587158219,1.3293060064315796,43.85710906982422,0.07205759684244792,-0.13601010640462238
2794,-0.024149094270833317,0.3785157012939453,86.21202850341797,80.32012939453125,-1.6591148376464844,95.62271118164062,-0.007069057888454861,0.36866666666666664,0.29642857142857143,-0.006011793348524305,-0.8788801604003922,1.219446063041687,44.38444900512695,0.06546554565429688,-0.13646473354763455
2795,-0.020242844270833317,0.3785157012939453,85.70057678222656,79.87004852294922,-1.5159111022949219,95.35675048828125,-0.0075236850314670135,0.36533333333333334,0.29642857142857143,-0.004791132609049479,-1.120571749755861,0.6152160167694092,44.56023025512695,0.06478364732530383,-0.131918462117513
2796,-0.008524094270833319,0.3785157012939453,85.65966796875,78.66302490234375,-1.3931617736816406,95.39767456054688,-0.008887566460503472,0.362,0.29642857142857143,-0.0030211554633246527,-0.9447962218017594,0.516342043876648,44.56023025512695,0.077740478515625,-0.13100929260253907
2797,-0.004617844270833318,0.3785157012939453,85.68012237548828,78.68348693847656,-1.495452880859375,95.54087829589844,-0.007296371459960938,0.35833333333333334,0.29678571428571426,-0.0017699771457248264,-0.7140909605712906,1.021697998046875,44.56023025512695,0.07774039374457466,-0.1337370130750868
2798,-0.008524094270833319,0.3785157012939453,85.92561340332031,79.87004852294922,-1.5568275451660156,41.900001525878906,-0.0054779052734375,0.355,0.29642857142857143,-0.0016784244113498264,-0.7250772886962906,1.3622640371322632,44.56023025512695,0.06728405422634548,0.4615907880995009
2799,-0.020242844270833317,0.3785157012939453,87.25538635253906,81.15890502929688,-1.5159111022949219,95.37721252441406,-0.005705218844943577,0.351,0.2960714285714286,-0.0023192935519748266,-1.0216986113281266,0.747048020362854,44.56023025512695,0.06773868136935764,-0.13214581807454426
2800,-0.020242844270833317,0.3785157012939453,87.17355346679688,81.52714538574219,-1.4136199951171875,41.900001525878906,-0.0059324900309244795,0.348,0.2960714285714286,-0.0020141177707248266,-1.1095873289794937,-0.9667688780517594,44.56023025512695,0.0627378675672743,0.4631819831000434
2801,-0.0007115942708333181,0.3785157012939453,86.53935241699219,80.79066467285156,-1.4749946594238281,95.58179473876953,-0.00843293931749132,0.344,0.29642857142857143,-0.000457763671875,-0.9997259550781266,-2.515795367309572,44.38444900512695,0.06387430826822917,-0.13396432664659289
2802,0.014913405729166681,0.3785157012939453,85.455078125,78.27432250976562,-1.4340782165527344,41.900001525878906,-0.0059324900309244795,0.3406666666666667,0.2960714285714286,-0.0003662109375,-0.9997259550781266,-2.6036821776123062,44.12078094482422,0.07978617350260417,0.4629546695285373
2803,0.011007155729166681,0.3785157012939453,84.88226318359375,76.8831787109375,-1.0453758239746094,95.37721252441406,-0.0022955152723524307,0.33666666666666667,0.2960714285714286,-0.0034178839789496527,-1.0107122832031266,-1.3073355131835953,44.03289031982422,0.08887871636284722,-0.12691764831542968
2804,-0.012430344270833319,0.3785157012939453,85.20958709716797,78.29478454589844,-0.8817138671875,95.25446319580078,-0.0011589898003472221,0.33366666666666667,0.2960714285714286,-0.0074765947129991316,-0.7360617094726578,-0.15380539233398594,44.03289031982422,0.07683113945855034,-0.1237353006998698
2805,-0.028055344270833317,0.3785157012939453,85.20958709716797,78.90852355957031,-0.9635429382324219,95.35675048828125,-0.0043413374159071184,0.33,0.2957142857142857,-0.010101021660698786,-0.4174677305908219,-0.03295769030761875,44.03289031982422,0.0700118170844184,-0.12578103807237412
2806,-0.020242844270833317,0.3785157012939453,85.20958709716797,77.8856201171875,-1.0249176025390625,95.29537963867188,-0.009342193603515625,0.3263333333333333,0.2953571428571429,-0.009460194905598959,-0.2746511870117203,-0.01098694140625156,43.85710906982422,0.08137741088867187,-0.12578108045789932
2807,-0.008524094270833319,0.3785157012939453,85.20958709716797,78.60165405273438,-0.6771316528320312,95.2340087890625,-0.011615286933051215,0.323,0.295,-0.0074765947129991316,-0.2526785307617203,0.41746801137924194,44.29655838012695,0.07342147827148438,-0.12123489379882812
2808,-0.004617844270833318,0.3785157012939453,85.20958709716797,78.41752624511719,-0.493011474609375,95.39767456054688,-0.007069057888454861,0.31966666666666665,0.29464285714285715,-0.0067746904161241316,-0.04394401843261875,1.1974740028381348,44.38444900512695,0.07546734280056423,-0.12100762261284723
2809,-0.012430344270833319,0.3785157012939453,85.33233642578125,78.60165405273438,-0.718048095703125,95.35675048828125,-0.006159803602430555,0.31733333333333336,0.29428571428571426,-0.0069577958848741316,0.13183200359344482,1.7907180786132812,44.38444900512695,0.07478535970052083,-0.12305331759982639
2810,-0.020242844270833317,0.3785157012939453,86.13019561767578,80.42241668701172,-0.3498039245605469,95.25446319580078,-0.0075236850314670135,0.314,0.29392857142857143,-0.006500074598524305,0.09887400269508362,1.5050820112228394,44.91178894042969,0.06341976589626735,-0.11782519022623698
2811,-0.012430344270833319,0.3785157012939453,85.92561340332031,79.84959411621094,-0.06339263916015625,95.37721252441406,-0.010251405504014757,0.31133333333333335,0.29392857142857143,-0.004485956827799479,0.2526780068874359,0.790992021560669,45.17546081542969,0.06751132541232639,-0.11600672403971354
2812,-0.0007115942708333181,0.3785157012939453,85.72103881835938,41.900001525878906,-0.2679710388183594,95.47950744628906,-0.01070603264702691,0.30866666666666664,0.2932142857142857,-0.0023192935519748266,0.5053560137748718,0.373524010181427,45.43912887573242,0.4869004143608941,-0.11941642761230468
2813,0.003194655729166682,0.3785157012939453,85.72103881835938,79.78821563720703,-0.22705459594726562,95.62271118164062,-0.006841744316948784,0.30633333333333335,0.2932142857142857,-0.0015258365207248264,0.4723980128765106,0.38451001048088074,45.79069137573242,0.06592025756835937,-0.1205529530843099
2814,-0.0007115942708333181,0.3785157012939453,85.90515899658203,80.0337142944336,0.01844024658203125,95.62271118164062,-0.006159803602430555,0.30266666666666664,0.29285714285714287,-0.0016479068332248264,0.17577600479125977,0.4064820110797882,45.966468811035156,0.06523827446831597,-0.11782523261176216
2815,-0.008524094270833319,0.3785157012939453,85.72103881835938,79.35859680175781,0.07981491088867188,95.41812896728516,-0.005705218844943577,0.3,0.2925,-0.0025633917914496527,-0.16478981311035312,0.2526780068874359,46.142250061035156,0.07069380018446181,-0.11487015618218316
2816,-0.012430344270833319,0.3785157012939453,85.68012237548828,41.900001525878906,0.24347686767578125,95.43858337402344,-0.006159803602430555,0.29733333333333334,0.29285714285714287,-0.0030821906195746527,-0.2526785307617203,0.1867620050907135,46.142250061035156,0.48644578721788195,-0.11327896118164063
2817,-0.016336594270833317,0.3785157012939453,85.70057678222656,79.70639038085938,0.18210220336914062,95.54087829589844,-0.0059324900309244795,0.2936666666666667,0.2932142857142857,-0.0032958136664496527,-0.13183273608398594,0.2856360077857971,46.142250061035156,0.06660207112630208,-0.1150975121392144
2818,-0.016336594270833317,0.3785157012939453,85.72103881835938,41.900001525878906,0.5912628173828125,95.35675048828125,-0.006159803602430555,0.2906666666666667,0.2935714285714286,-0.0031737433539496527,-0.14281906420898594,0.3185940086841583,46.142250061035156,0.4869004143608941,-0.10850541856553819
2819,-0.016336594270833317,0.3585938262939453,86.47798156738281,80.0337142944336,1.3891258239746094,95.1317138671875,-0.006159803602430555,0.2886666666666667,0.29392857142857143,-0.0031127081976996527,-0.10986007983398594,-0.04394401843261875,46.142250061035156,0.07160296969943576,-0.0971398671468099
2820,-0.016336594270833317,0.3785157012939453,85.94607543945312,78.72439575195312,2.084697723388672,95.09080505371094,-0.0059324900309244795,0.285,0.29428571428571426,-0.0035094367133246527,0.2856360077857971,-0.5163427763671891,46.142250061035156,0.08024088541666667,-0.08895674811469184
2821,-0.016336594270833317,0.3785157012939453,85.86424255371094,78.74485778808594,2.3301925659179688,95.37721252441406,-0.006159803602430555,0.2823333333333333,0.29392857142857143,-0.004028193155924479,0.8349360227584839,-0.4723993712158219,46.142250061035156,0.07910427517361111,-0.08941133287217883
2822,-0.020242844270833317,0.3785157012939453,85.86424255371094,78.37661743164062,6.421794891357422,95.54087829589844,-0.005705218844943577,0.28,0.29428571428571426,-0.005035273234049479,0.9777539968490601,0.032958000898361206,46.58169937133789,0.08319583468967014,-0.045767593383789065
2823,-0.03196159427083332,0.3785157012939453,85.84378051757812,79.17447662353516,-0.9021682739257812,95.43858337402344,-0.0059324900309244795,0.277,0.2935714285714286,-0.006255933973524305,0.6811320185661316,0.7140899896621704,46.933258056640625,0.07410337660047743,-0.12600835164388022
2824,-0.03977409427083332,0.3785157012939453,85.86424255371094,80.23829650878906,-0.7589645385742188,95.47950744628906,-0.0054779052734375,0.2743333333333333,0.29392857142857143,-0.0068662431504991316,0.4614120125770569,1.0107120275497437,46.933258056640625,0.06251051161024306,-0.12487191094292535
2825,-0.03977409427083332,0.3585938262939453,86.04837036132812,41.900001525878906,-0.5748405456542969,95.56134033203125,-0.007978312174479167,0.272,0.29392857142857143,-0.006255933973524305,0.4284540116786957,0.7140899896621704,46.933258056640625,0.4905374315049913,-0.12373534308539497
2826,-0.03586784427083332,0.3585938262939453,85.88470458984375,80.21783447265625,-0.2475128173828125,95.58179473876953,-0.008205625745985243,0.26966666666666667,0.29428571428571426,-0.005431959364149305,0.36253800988197327,0.2746500074863434,47.109039306640625,0.06296522352430556,-0.12032563951280383
2827,-0.03586784427083332,0.3585938262939453,86.27340698242188,80.50424194335938,0.32530975341796875,95.47950744628906,-0.007296371459960938,0.267,0.29464285714285715,-0.004882685343424479,0.2197200059890747,-0.04394401843261875,47.54848861694336,0.06410183376736112,-0.11282441880967882
2828,-0.03196159427083332,0.3585938262939453,85.94607543945312,79.58363342285156,1.675537109375,95.37721252441406,-0.0059324900309244795,0.2643333333333333,0.2953571428571429,-0.004730097452799479,0.13183200359344482,-0.5053564482421891,47.987937927246094,0.07069380018446181,-0.09668528238932292
2829,-0.03196159427083332,0.3585938262939453,85.92561340332031,80.8929443359375,1.5937042236328125,95.41812896728516,-0.005705218844943577,0.261,0.2960714285714286,-0.005492994520399305,0.2746500074863434,-0.7909933500976578,48.075828552246094,0.05591854519314236,-0.09804916381835938
2830,-0.03977409427083332,0.3585938262939453,86.74394226074219,79.91096496582031,2.657520294189453,95.45904541015625,-0.004568650987413194,0.259,0.2960714285714286,-0.0074155595567491316,0.4614120125770569,-1.2194467955322281,48.075828552246094,0.07592196994357639,-0.08668361239963107
2831,-0.04758659427083332,0.33867195129394534,86.0688247680664,78.70394134521484,-0.45209503173828125,95.54087829589844,-0.004568650987413194,0.25566666666666665,0.29642857142857143,-0.009368642171223959,0.5932440161705017,-1.9555078917236344,48.075828552246094,0.08183203803168403,-0.12214414808485242
2832,-0.04758659427083332,0.3187500762939453,85.98699188232422,78.60165405273438,-0.5134696960449219,95.41812896728516,-0.01661614312065972,0.253,0.29642857142857143,-0.010650338066948786,0.6591600179672241,-1.9994532042236344,48.075828552246094,0.08205930921766492,-0.1214622073703342
2833,-0.05930534427083332,0.33867195129394534,85.94607543945312,76.96501159667969,-0.5134696960449219,95.43858337402344,-0.002068201700846354,0.25066666666666665,0.29678571428571426,-0.013854556613498263,0.6371880173683167,-1.527054446289064,48.075828552246094,0.0997895982530382,-0.12168947855631511
2834,-0.07102409427083332,0.3187500762939453,84.35034942626953,76.57630920410156,-0.4725532531738281,95.41812896728516,-0.002522828843858507,0.24766666666666667,0.2975,-0.016906229654947917,0.6481740474700928,-0.6811319761962906,48.075828552246094,0.0863782246907552,-0.12100758022732205
2835,-0.08274284427083332,0.3187500762939453,84.5958480834961,78.84715270996094,-0.3907203674316406,95.04988098144531,-0.001613616943359375,0.24566666666666667,0.2978571428571429,-0.018523618910047744,0.6921180486679077,0.6262019872665405,48.075828552246094,0.06387439303927951,-0.11600668165418837
2836,-0.09836784427083332,0.29882820129394533,85.0050048828125,78.92898559570312,-0.14522552490234375,95.09080505371094,-0.002068201700846354,0.24333333333333335,0.2982142857142857,-0.018859312269422744,0.9887400269508362,1.6918439865112305,48.075828552246094,0.06751132541232639,-0.11373367309570312
2837,-0.10227409427083332,0.3187500762939453,85.02546691894531,78.9494400024414,-0.2679710388183594,95.27491760253906,-0.0007043626573350694,0.24033333333333334,0.2985714285714286,-0.018004862467447917,1.307334065437317,1.8895920515060425,48.075828552246094,0.06751141018337674,-0.11714320712619358
2838,-0.09055534427083332,0.3187500762939453,85.0459213256836,79.3995132446289,-0.6975898742675781,95.33629608154297,-0.009342193603515625,0.23866666666666667,0.29892857142857143,-0.01541091071234809,1.3732500076293945,1.8895920515060425,48.075828552246094,0.0627378675672743,-0.12259873284233941
2839,-0.08664909427083332,0.29882820129394533,86.13019561767578,81.69081115722656,-1.1885833740234375,95.95003509521484,-0.00775099860297309,0.23633333333333334,0.29928571428571427,-0.012786483764648438,1.3732500076293945,2.197200059890747,48.075828552246094,0.04932649400499132,-0.13487353854709203
2840,-0.08664909427083332,0.3187500762939453,87.562255859375,79.9518814086914,-1.5568275451660156,95.45904541015625,-0.0059324900309244795,0.23333333333333334,0.29892857142857143,-0.010924996270073786,1.06564199924469,1.8676199913024902,48.075828552246094,0.0845597161187066,-0.13350969950358074
2841,-0.08664909427083332,0.3187500762939453,86.47798156738281,78.76531982421875,-1.5772857666015625,95.43858337402344,-0.010933346218532987,0.23166666666666666,0.29892857142857143,-0.009490712483723959,0.6591600179672241,0.7580339908599854,48.075828552246094,0.0856962415907118,-0.13350965711805557
2842,-0.08664909427083332,0.29882820129394533,86.49844360351562,79.21539306640625,-1.6591148376464844,95.52041625976562,-0.005705218844943577,0.22966666666666666,0.29928571428571427,-0.008788808186848959,0.7360620498657227,0.9777539968490601,48.075828552246094,0.08092278374565973,-0.135328123304579
2843,-0.10618034427083332,0.2789063262939453,86.5188980102539,79.72684478759766,-1.720489501953125,95.54087829589844,0.002705298529730903,0.227,0.29964285714285716,-0.009551747639973959,0.7140899896621704,1.4611380100250244,48.075828552246094,0.07546725802951389,-0.13623741997612848
2844,-0.11399284427083332,0.29882820129394533,86.53935241699219,79.80867004394531,-1.8023223876953125,95.58179473876953,0.0011141459147135417,0.22466666666666665,0.3007142857142857,-0.010009468926323786,0.5053560137748718,1.6369140148162842,48.69105911254883,0.07478535970052083,-0.13760130140516494
2845,-0.1296178442708333,0.2789063262939453,86.53935241699219,79.9518814086914,-1.8227806091308594,95.99095153808594,-0.00297745598687066,0.22133333333333333,0.30142857142857143,-0.009551747639973959,0.20873400568962097,1.6039559841156006,49.48207092285156,0.07319412231445313,-0.14237480163574218
2846,-0.1296178442708333,0.2789063262939453,86.559814453125,80.17691802978516,-2.6206436157226562,96.01141357421875,-0.0034320831298828127,0.21833333333333332,0.3032142857142857,-0.008239491780598959,-0.19774879748535312,1.3293060064315796,49.48207092285156,0.0709210713704427,-0.15146730211046006
2847,-0.1296178442708333,0.25898443222045897,86.559814453125,81.26119232177734,-2.4365196228027344,96.01141357421875,-0.008887566460503472,0.21433333333333332,0.30464285714285716,-0.0068662431504991316,-1.3183199339599625,0.9447960257530212,49.48207092285156,0.05887357923719618,-0.14942147996690539
2848,-0.1413365942708333,0.25898443222045897,87.82821655273438,81.73172760009766,-2.354686737060547,95.60224914550781,-0.0034320831298828127,0.21033333333333334,0.3075,-0.0068052079942491316,-2.0324102812500016,0.3405660092830658,49.48207092285156,0.06773876614040798,-0.14396595425075956
2849,-0.1452428442708333,0.25898443222045897,87.05081176757812,76.28990173339844,-2.2933120727539062,95.86820983886719,-0.01002409193250868,0.20533333333333334,0.30964285714285716,-0.0071409013536241316,-2.0543829375000016,-1.2633902006835953,49.48207092285156,0.11956566704644098,-0.14623913235134547
2850,-0.1530553442708333,0.219140682220459,84.57539367675781,79.62455749511719,-2.313770294189453,95.54087829589844,-0.0075236850314670135,0.201,0.31357142857142856,-0.007842805650499132,-2.142269747802736,-1.2633902006835953,49.48207092285156,0.05500929090711806,-0.14282942877875435
2851,-0.1491490942708333,0.219140682220459,85.557373046875,82.48867797851562,-1.8636970520019531,95.27491760253906,-0.0050232781304253475,0.19566666666666666,0.31642857142857145,-0.008605702718098959,-2.0763555937500016,-0.823950427124025,49.48207092285156,0.034096611870659724,-0.13487349616156685
2852,-0.1647740942708333,0.219140682220459,88.29874420166016,80.05416870117188,-1.8227806091308594,95.15217590332031,-0.00047704908582899306,0.19033333333333333,0.32,-0.010375679863823786,-1.560013430664064,-1.7028299742431656,49.48207092285156,0.09160639444986979,-0.13305507236056857
2853,-0.1686803442708333,0.19921878814697266,87.41905212402344,79.8905029296875,-1.4136199951171875,95.45904541015625,-0.012297227647569445,0.186,0.3221428571428571,-0.01129116482204861,-0.8898664885253922,-3.0980535917968766,49.48207092285156,0.08365054660373264,-0.1319185045030382
2854,-0.1764928442708333,0.17929691314697266,86.62118530273438,78.13111877441406,-1.945526123046875,95.70454406738281,-0.006841744316948784,0.18133333333333335,0.325,-0.013793563842773438,-0.3625379973144547,-3.6363665037841812,49.48207092285156,0.09433407253689235,-0.14055633544921875
2855,-0.1686803442708333,0.17929691314697266,85.84378051757812,77.68104553222656,-2.0069007873535156,95.82728576660156,-0.00843293931749132,0.17766666666666667,0.3264285714285714,-0.016997782389322917,-0.4064833098144547,-3.548477786132814,49.48207092285156,0.09069705539279514,-0.1426020728217231
2856,-0.1843053442708333,0.17929691314697266,85.35279846191406,77.41508483886719,-2.129650115966797,95.80683135986328,0.0017960866292317708,0.174,0.32785714285714285,-0.02084291246202257,-0.5932451658935562,-3.0541082792968766,49.48207092285156,0.08819681803385417,-0.14373868306477863
2857,-0.2155553442708333,0.15937503814697265,85.25050354003906,77.35371398925781,-2.129650115966797,96.01141357421875,0.0006595187717013889,0.17166666666666666,0.3296428571428571,-0.02401661343044705,-0.7031046324462906,-2.790444033691408,49.48207092285156,0.08774210611979166,-0.1460118187798394
2858,-0.2077428442708333,0.17929691314697266,85.06637573242188,77.25142669677734,-2.129650115966797,95.66361999511719,-0.006387117173936632,0.16766666666666666,0.33107142857142857,-0.026152801513671876,-0.9338098936767594,-2.0653692656250016,49.48207092285156,0.08683276706271702,-0.14214744567871093
2859,-0.1843053442708333,0.19921878814697266,85.0459213256836,77.78333282470703,-2.0682754516601562,95.76591491699219,-0.003886710272894965,0.164,0.33214285714285713,-0.027800708346896703,-0.9338098936767594,-1.0436712675781266,49.48207092285156,0.08069542778862847,-0.14260211520724828
2860,-0.1843053442708333,0.19921878814697266,85.557373046875,78.96989440917969,-2.1501083374023438,96.2364501953125,-0.0013863033718532986,0.16166666666666665,0.33285714285714285,-0.028807746039496526,-0.5383154326171891,-0.07690300280761875,49.39418029785156,0.07319420708550348,-0.14873953925238714
2861,-0.2272740942708333,0.17929691314697266,85.5982894897461,78.9903564453125,-2.6206436157226562,96.42057037353516,0.0036145528157552082,0.15933333333333333,0.33321428571428574,-0.029662195841471353,-0.5053564482421891,0.6591600179672241,49.39418029785156,0.07342147827148438,-0.15601348876953125
2862,-0.2350865942708333,0.17929691314697266,85.65966796875,80.72928619384766,-2.6820144653320312,95.90911865234375,-0.0050232781304253475,0.156,0.3335714285714286,-0.029204474555121526,-1.2084604674072281,1.2084600925445557,46.66958999633789,0.05478201972113715,-0.15101259019639757
2863,-0.2428990942708333,0.17929691314697266,86.6007308959961,79.84959411621094,-2.3956031799316406,95.88866424560547,0.00225067138671875,0.153,0.3339285714285714,-0.028807746039496526,-1.7138163023681656,1.494096040725708,46.40591812133789,0.07501263088650173,-0.14760297139485676
2864,-0.2468053442708333,0.15937503814697265,86.35523986816406,78.25386810302734,-2.497894287109375,95.90911865234375,-0.004114023844401042,0.15033333333333335,0.3342857142857143,-0.027251391940646703,-1.4062086516113297,0.6701459884643555,46.40591812133789,0.09001524183485243,-0.14896681043836807
2865,-0.2311803442708333,0.13945316314697265,86.0688247680664,80.29966735839844,-2.4160614013671875,95.92958068847656,-0.009342193603515625,0.14766666666666667,0.3339285714285714,-0.02447437710232205,-1.3512789183349625,0.8788800239562988,46.40591812133789,0.06410174899631077,-0.148284912109375
2866,-0.2233678442708333,0.13945316314697265,86.17111206054688,80.9543228149414,-2.4365196228027344,96.2364501953125,-0.004568650987413194,0.144,0.33464285714285713,-0.02236870659722222,-1.2853628569335953,1.4281799793243408,46.40591812133789,0.057964324951171875,-0.15192188686794705
2867,-0.26243034427083334,0.1195312786102295,86.76439666748047,80.19737243652344,-2.4569778442382812,95.6431655883789,-0.002522828843858507,0.14066666666666666,0.335,-0.021666844685872395,-1.8126913481445328,1.4831100702285767,46.40591812133789,0.07296693589952256,-0.1455571492513021
2868,-0.2389928442708333,0.15937503814697265,86.37569427490234,77.10821533203125,-2.10919189453125,95.41812896728516,-0.003886710272894965,0.13633333333333333,0.3357142857142857,-0.021819432576497395,-2.153256075927736,0.5273280143737793,46.40591812133789,0.10297198825412326,-0.1391924540201823
2869,-0.2272740942708333,0.15937503814697265,85.06637573242188,78.9903564453125,-1.9046134948730469,95.43858337402344,-0.006159803602430555,0.133,0.3364285714285714,-0.021239598592122395,-1.505081790039064,0.29662200808525085,46.40591812133789,0.06751132541232639,-0.1371466318766276
2870,-0.25071159427083334,0.13945316314697265,85.68012237548828,79.76776123046875,-2.0682754516601562,95.95003509521484,0.0006595187717013889,0.12933333333333333,0.3367857142857143,-0.021331151326497395,-0.7580343657226578,0.7250760197639465,46.40591812133789,0.06569290161132812,-0.14464789496527777
2871,-0.2272740942708333,0.15937503814697265,85.72103881835938,79.91096496582031,-2.334228515625,96.01141357421875,-0.004114023844401042,0.12633333333333333,0.3367857142857143,-0.02053773668077257,-0.6371885710449234,1.1864880323410034,46.40591812133789,0.06455637613932291,-0.148284912109375
2872,-0.2311803442708333,0.15937503814697265,86.0074462890625,80.42241668701172,-2.313770294189453,95.88866424560547,-0.0043413374159071184,0.123,0.3367857142857143,-0.019469663831922744,-1.142544406005861,1.307334065437317,46.40591812133789,0.062055884467230905,-0.14669371710883247
2873,-0.26633659427083334,0.1195312786102295,85.92561340332031,79.74729919433594,-2.2933120727539062,95.88866424560547,0.0002048916286892361,0.12066666666666667,0.3367857142857143,-0.018035380045572917,-1.2963491850585953,0.8569080233573914,46.40591812133789,0.06864793565538195,-0.1464664035373264
2874,-0.28196159427083334,0.1195312786102295,85.90515899658203,79.05172729492188,-2.252399444580078,95.92958068847656,-0.002068201700846354,0.11666666666666667,0.3375,-0.017516581217447917,-1.3842359953613297,0.45042601227760315,46.40591812133789,0.07614924112955729,-0.14646644592285157
2875,-0.30539909427083334,0.1195312786102295,85.88470458984375,78.33570098876953,-2.2933120727539062,95.88866424560547,-0.0011589898003472221,0.11333333333333333,0.3375,-0.017943827311197917,-1.4940973692626969,0.3954960107803345,46.40591812133789,0.08387781778971354,-0.1464664035373264
2876,-0.26243034427083334,0.1195312786102295,85.88470458984375,78.86760711669922,-2.272857666015625,95.80683135986328,-0.009569507175021702,0.11033333333333334,0.3382142857142857,-0.016814676920572917,-1.6479002409667984,0.5493000149726868,46.40591812133789,0.0779677497016059,-0.1453298780653212
2877,-0.28977409427083334,0.1195312786102295,85.88470458984375,79.37905883789062,-2.272857666015625,95.92958068847656,-0.0013863033718532986,0.10733333333333334,0.3385714285714286,-0.01586867438422309,-1.4501520567626969,0.6481740474700928,46.40591812133789,0.07228495279947916,-0.14669375949435765
2878,-0.31711784427083334,0.07968751907348633,87.66455078125,82.57050323486328,-2.252399444580078,95.56134033203125,-0.013433795505099827,0.103,0.3392857142857143,-0.013274765014648438,-1.527054446289064,1.6698720455169678,46.40591812133789,0.056600528293185765,-0.14237488640679252
2879,-0.4186803442708332,0.07968751907348633,88.46240997314453,77.70149993896484,-2.10919189453125,95.54087829589844,0.004751120673285591,0.10066666666666667,0.33964285714285714,-0.014220767550998263,-1.538040774414064,0.7250760197639465,46.40591812133789,0.11956566704644098,-0.14055633544921875
2880,-0.36789909427083334,0.09960939407348633,84.82088470458984,77.68104553222656,-2.2114830017089844,95.74545288085938,-0.014115693834092882,0.096,0.3410714285714286,-0.013518905639648438,-1.3952223234863297,-0.3405672484130875,46.40591812133789,0.07933154635959201,-0.14396595425075956
2881,-0.37961784427083334,0.07968751907348633,85.5164566040039,78.72439575195312,-2.2319412231445312,96.03186798095703,-0.002522828843858507,0.09233333333333334,0.3417857142857143,-0.012664413452148438,-1.6039568358154312,0.19774800539016724,46.40591812133789,0.07546734280056423,-0.1473756578233507
2882,-0.37180534427083334,0.07968751907348633,86.08927917480469,80.0950927734375,-2.2319412231445312,95.49996185302734,-0.002750142415364583,0.088,0.3425,-0.01180996365017361,-2.3400179320068375,0.6591600179672241,46.40591812133789,0.06660207112630208,-0.14146558973524306
2883,-0.34446159427083334,0.07968751907348633,86.08927917480469,80.05416870117188,-2.1501083374023438,95.76591491699219,-0.002522828843858507,0.08333333333333333,0.3439285714285714,-0.01168789333767361,-2.252131121704103,0.7031040191650391,46.40591812133789,0.06705678304036458,-0.14351136949327256
2884,-0.4421178442708332,0.09960939407348633,86.15065002441406,80.46333312988281,-2.1705665588378906,95.80683135986328,0.01543473137749566,0.08033333333333334,0.34535714285714286,-0.013671493530273438,-1.7797323637695328,1.0546560287475586,46.40591812133789,0.06319240993923611,-0.1441933102077908
2885,-0.3952428442708332,0.07968751907348633,86.559814453125,81.40440368652344,-2.1705665588378906,95.58179473876953,-0.014797634548611112,0.07666666666666666,0.3457142857142857,-0.01119961208767361,-1.7687460356445328,0.5273280143737793,46.40591812133789,0.057282341851128474,-0.14169290330674914
2886,-0.4577428442708332,0.07968751907348633,86.76439666748047,76.84226989746094,-2.10919189453125,94.98851013183594,-0.007296371459960938,0.07166666666666667,0.3467857142857143,-0.010070504082573786,-1.7138163023681656,-0.19774879748535312,46.40591812133789,0.11024585300021701,-0.13441891140407985
2887,-0.28196159427083334,0.09960939407348633,85.0459213256836,77.92654418945312,-1.331787109375,95.88866424560547,-0.0050232781304253475,0.068,0.3475,-0.010619820488823786,-1.164517062255861,-0.5602861815185562,46.40591812133789,0.07910419040256077,-0.1357827928331163
2888,-0.32883659427083334,0.09960939407348633,85.49600219726562,82.01814270019531,-2.0069007873535156,95.90911865234375,0.006342273288302952,0.06333333333333334,0.34785714285714286,-0.01211513943142361,-0.6152159147949234,-0.08788933093261875,46.40591812133789,0.03864288330078125,-0.1435113271077474
2889,-0.27024284427083334,0.1195312786102295,87.70545959472656,78.00836944580078,-2.0478172302246094,96.03186798095703,0.014298163519965278,0.061,0.34714285714285714,-0.013274765014648438,-0.9008528166503922,-0.6371885710449234,46.40591812133789,0.10774544609917534,-0.14532983567979602
2890,-0.30149284427083334,0.07968751907348633,85.76194763183594,78.11065673828125,-2.0478172302246094,96.25691223144531,-0.021162372165256075,0.058666666666666666,0.3467857142857143,-0.01184048122829861,-1.153530734130861,-1.7907186918945328,46.40591812133789,0.08501434326171875,-0.14783032735188803
2891,-0.28196159427083334,0.09960939407348633,85.90515899658203,79.3995132446289,-2.313770294189453,96.11370086669922,-0.007978312174479167,0.05566666666666667,0.3460714285714286,-0.013671493530273438,-1.527054446289064,-0.9887415343017594,46.40591812133789,0.07228495279947916,-0.14919412400987414
2892,-0.30930534427083334,0.1195312786102295,86.35523986816406,79.27676391601562,-2.313770294189453,96.25691223144531,0.019753646850585938,0.052333333333333336,0.3460714285714286,-0.018035380045572917,-1.5929705076904312,-0.4174677305908219,45.79069137573242,0.0786497328016493,-0.15078536139594184
2893,-0.4616490942708332,0.09960939407348633,86.31431579589844,79.17447662353516,-2.272857666015625,96.1955337524414,-0.005705218844943577,0.050666666666666665,0.3457142857142857,-0.018279478285047744,-1.7797323637695328,-0.5492998533935562,44.91178894042969,0.07933154635959201,-0.14964879353841146
2894,-0.30149284427083334,0.09960939407348633,86.33477783203125,80.58607482910156,-2.2114830017089844,95.97048950195312,-0.011842600504557292,0.04733333333333333,0.3457142857142857,-0.01614333258734809,-2.0873400145263687,-0.2746511870117203,44.64812088012695,0.06387447781032986,-0.14646636115180123
2895,-0.32883659427083334,0.09960939407348633,89.6080551147461,80.15646362304688,-2.1705665588378906,96.11370086669922,0.0020233578152126738,0.04466666666666667,0.3457142857142857,-0.017302958170572917,-2.0543829375000016,0.4614120125770569,44.64812088012695,0.10501768324110243,-0.14760297139485676
2896,-0.4069615942708332,0.09960939407348633,87.80775451660156,77.84471130371094,-2.1501083374023438,96.07278442382812,0.00225067138671875,0.04033333333333333,0.34535714285714286,-0.017943827311197917,-2.0433966093750016,-0.5273291044921891,44.64812088012695,0.11070048014322917,-0.14692103068033854
2897,-0.30930534427083334,0.07968751907348633,85.35279846191406,77.55829620361328,-2.1705665588378906,95.43858337402344,-0.01252454121907552,0.037333333333333336,0.34535714285714286,-0.01556349860297309,-1.9335371428222672,-1.7028299742431656,44.64812088012695,0.08660558064778646,-0.14010166592068143
2898,-0.1882115942708333,0.09960939407348633,87.95095825195312,80.50424194335938,-1.720489501953125,95.97048950195312,-0.01729808383517795,0.03266666666666666,0.34535714285714286,-0.014586978488498263,-2.230158465454103,0.06591600179672241,44.56023025512695,0.08274129231770834,-0.14101087782118055
2899,-0.34836784427083334,0.07968751907348633,86.29386138916016,78.15158081054688,-2.2319412231445312,96.21598815917969,0.01770782470703125,0.029,0.34535714285714286,-0.017852274576822917,-1.7248026304931656,-0.4504267149658219,44.56023025512695,0.09046978420681423,-0.1494214375813802
2900,-0.25071159427083334,0.07968751907348633,86.13019561767578,78.33570098876953,-2.2114830017089844,96.50240325927734,-0.015024948120117187,0.026,0.3439285714285714,-0.01592970954047309,-1.4831110411376969,-0.05493034655761875,44.56023025512695,0.0866054958767361,-0.1523765140109592
2901,-0.36789909427083334,0.05976563930511475,86.19157409667969,79.97233581542969,-3.3775863647460938,96.03186798095703,0.01884439256456163,0.021666666666666667,0.3425,-0.01660109625922309,-1.120571749755861,1.2853620052337646,44.29655838012695,0.06910264756944444,-0.16010504828559027
2902,-0.35618034427083334,0.05976563930511475,86.86668395996094,81.22027587890625,-2.722930908203125,95.52041625976562,0.013388951619466146,0.017666666666666667,0.34035714285714286,-0.014678531222873263,-1.1864878111572281,1.6369140148162842,42.62664794921875,0.0627378675672743,-0.14714830186631944
2903,-0.28586784427083334,0.05976563930511475,86.80531311035156,81.22027587890625,-1.5363693237304688,95.99095153808594,-2.242194281684028e-05,0.014,0.3389285714285714,-0.01159634060329861,-0.4174677305908219,0.9997260570526123,41.13251876831055,0.06205596923828125,-0.1391924540201823
2904,-0.31321159427083334,0.03984375953674316,86.90760040283203,78.60165405273438,-1.8023223876953125,94.66117858886719,0.0002048916286892361,0.01,0.3360714285714286,-0.009673775566948786,0.1538040041923523,0.5602860450744629,40.60517883300781,0.09228829277886284,-0.12737223307291667
2905,-0.4538365942708332,0.05976563930511475,86.62118530273438,78.90852355957031,-0.45209503173828125,93.45416259765625,0.006796900431315104,0.007666666666666666,0.3335714285714286,-0.01116909450954861,1.1205720901489258,0.05493000149726868,38.05636978149414,0.0856962415907118,-0.09895841810438367
2906,-0.4499303442708332,0.05976563930511475,86.68256378173828,79.19493103027344,2.1869888305664062,93.37232971191406,0.019299019707573785,0.004333333333333333,0.3289285714285714,-0.01132168240017361,2.4059340953826904,-0.12084640795898594,37.17747116088867,0.08319591946072048,-0.06872600979275173
2907,-0.34836784427083334,0.03984375953674316,86.68256378173828,80.0950927734375,1.5732498168945312,93.39279174804688,-0.015706888834635415,0.003,0.32535714285714284,-0.008880360921223959,3.7572121620178223,-0.17577614123535312,24.69709014892578,0.07319412231445313,-0.07577268812391492
2908,-0.4030553442708332,0.03984375953674316,86.70301818847656,82.83645629882812,1.5527915954589844,91.24469757080078,0.014070849948459202,0.0013333333333333333,0.3196428571428571,-0.010345162285698786,3.383687973022461,-0.12084640795898594,24.60919952392578,0.042961798773871525,-0.05213228861490885
2909,-0.4889928442708332,0.03984375953674316,88.09416198730469,79.37905883789062,4.9283599853515625,90.569580078125,0.0056603749593098955,0.0003333333333333333,0.31535714285714284,-0.008910878499348959,3.8231282234191895,-0.9777552061767594,24.60919952392578,0.09683447943793402,-0.007124667697482639
2910,-0.5436803442708332,0.03984375953674316,85.84378051757812,80.21783447265625,7.546985626220703,93.10637664794922,0.049758699205186635,0.0003333333333333333,0.30964285714285716,-0.009551747639973959,4.910742282867432,-0.7580343657226578,24.60919952392578,0.06251051161024306,-0.006215455796983507
2911,-0.5514928442708332,0.01992187976837158,86.29386138916016,83.16378784179688,6.053550720214844,89.50576782226562,0.05998772515190972,-0.0003333333333333333,0.3053571428571429,-0.008331044514973959,4.811868190765381,-0.19774879748535312,24.60919952392578,0.034778594970703125,0.01719758775499132
2912,-0.7975865664930555,0.01992187976837158,92.49263000488281,84.5140151977539,7.117366790771484,88.03279113769531,0.04862217373318142,0.001,0.29928571428571427,-0.004241816202799479,4.4493303298950195,-0.6921183043212906,24.60919952392578,0.08865127563476563,0.04538417392306858
2913,0.8430384335069445,0.01992187976837158,91.73568725585938,87.562255859375,8.938129425048828,88.0737075805664,-0.020025804307725693,0.0,0.29464285714285715,-0.0,2.142270088195801,-0.4614130430908219,24.60919952392578,0.0463714599609375,0.06516024271647135
