,WD,WS,AIL_1,AIL_2,ELEV_1,ELEV_2,RUDD,ALT,GS,TH,PTCH,ROLL,PLA_1,AIL,ELEV
4916,0.4520539747721355,0.15937503814697265,85.82332611083984,78.64257049560547,-7.653308868408203,99.7552261352539,-0.0054779052734375,0.668,0.46214285714285713,-0.2435230255126953,-5.613846438476564,-0.15380539233398594,23.554519653320312,0.07978617350260417,-0.24898372226291232
4917,0.4403352247721355,0.15937503814697265,85.84378051757812,78.4789047241211,-7.5919342041015625,99.89842987060547,-0.0075236850314670135,0.6636666666666666,0.45785714285714285,-0.2436450958251953,-5.4380709105224625,-0.2307058745117203,23.554519653320312,0.08183195326063368,-0.24989293416341146
4918,0.4247102247721355,0.15937503814697265,85.84378051757812,78.9494400024414,-7.67376708984375,99.77568054199219,-0.0066144307454427086,0.66,0.45107142857142857,-0.24282116360134548,-5.613846438476564,-0.17577614123535312,23.554519653320312,0.0766037835015191,-0.24943830702039932
4919,0.4208039747721355,0.15937503814697265,85.84378051757812,78.74485778808594,-7.080486297607422,99.40744018554688,-0.003204769558376736,0.6566666666666666,0.44642857142857145,-0.2432483673095703,-5.910469668457033,-0.16478981311035312,23.554519653320312,0.07887691921657985,-0.2387547387017144
4920,0.4129914747721355,0.15937503814697265,85.82332611083984,78.64257049560547,-5.546134948730469,99.1414794921875,-0.004795964558919271,0.6516666666666666,0.44142857142857145,-0.2434009552001953,-5.679762499877931,-0.3185945921630875,23.554519653320312,0.07978617350260417,-0.21875127156575522
4921,0.4012727247721355,0.15937503814697265,85.80287170410156,78.49935913085938,-2.129650115966797,98.7527847290039,-0.0050232781304253475,0.6473333333333333,0.43785714285714283,-0.2434314727783203,-5.240322726318361,-0.4284540587158219,23.554519653320312,0.08115013970269097,-0.17647149827745226
4922,0.4012727247721355,0.15937503814697265,85.82332611083984,78.56073760986328,-3.500335693359375,98.58911895751953,-0.003204769558376736,0.643,0.4325,-0.2434314727783203,-4.647078173706056,-0.4284540587158219,23.554519653320312,0.08069542778862847,-0.18988282945421006
4923,0.3856477247721355,0.15937503814697265,85.84378051757812,78.62211608886719,-4.236824035644531,98.56866455078125,-0.0007043626573350694,0.6393333333333333,0.42928571428571427,-0.2435230255126953,-3.954960482666017,-0.3625379973144547,23.554519653320312,0.08024071587456597,-0.19783876207139756
4924,0.3817414747721355,0.15937503814697265,85.84378051757812,78.64257049560547,-4.154991149902344,98.44590759277344,-0.0011589898003472221,0.6356666666666667,0.42392857142857143,-0.2437061309814453,-3.4825636320800797,-0.3076082640380875,23.554519653320312,0.08001344468858507,-0.19556554158528647
4925,0.3583039747721355,0.13945316314697265,85.82332611083984,78.70394134521484,-3.7662887573242188,97.95492553710938,-0.003659396701388889,0.633,0.4203571428571429,-0.2438587188720703,-3.1200243406982437,-0.3185945921630875,23.554519653320312,0.07910427517361111,-0.18579126993815104
4926,0.3387727247721355,0.15937503814697265,85.84378051757812,78.78577423095703,-3.2343826293945312,97.87309265136719,-0.0059324900309244795,0.6303333333333333,0.415,-0.2434009552001953,-2.4059339934082047,-0.2636648588867203,23.554519653320312,0.07842229207356771,-0.1789719475640191
4927,0.3270539747721355,0.13945316314697265,85.84378051757812,78.76531982421875,-2.8252220153808594,98.1390380859375,-0.003204769558376736,0.6286666666666667,0.4110714285714286,-0.2438282012939453,-1.4721247130126969,-0.15380539233398594,23.554519653320312,0.07864956325954861,-0.17738066779242623
4928,0.3192414747721355,0.13945316314697265,85.82332611083984,77.90608215332031,-0.8817138671875,100.61445617675781,-0.0022955152723524307,0.6266666666666667,0.4042857142857143,-0.2436450958251953,-1.0326849394531266,-0.10986007983398594,23.554519653320312,0.08796937730577258,-0.18329077826605902
4929,0.2997102247721355,0.15937503814697265,84.24806213378906,77.16959381103516,-0.6157569885253906,97.38209533691406,-0.005250591701931423,0.625,0.3992857142857143,-0.2431262969970703,-1.9555078917236344,0.19774800539016724,29.003700256347656,0.07864964803059896,-0.1444205813937717
4930,0.3192414747721355,0.15937503814697265,84.5140151977539,76.330810546875,4.744239807128906,97.44346618652344,-0.001613616943359375,0.624,0.3942857142857143,-0.2429737091064453,-1.4831110411376969,1.175502061843872,32.6950798034668,0.09092449612087673,-0.08554695977105034
4931,0.2684602247721355,0.13945316314697265,84.1048583984375,76.41264343261719,-1.5977401733398438,97.87309265136719,0.002932612101236979,0.6226666666666667,0.39107142857142857,-0.24202770657009548,-0.3735243254394547,2.8893179893493652,35.41967010498047,0.08546905517578125,-0.1607870313856337
4932,0.2645539747721355,0.13945316314697265,84.47309875488281,77.86516571044922,-2.497894287109375,97.38209533691406,0.0056603749593098955,0.6206666666666667,0.38607142857142857,-0.24031876458062065,-0.3185945921630875,4.6800360679626465,41.39619064331055,0.07342147827148438,-0.16533321804470485
4933,0.2528352247721355,0.13945316314697265,84.554931640625,79.07218933105469,-2.6820144653320312,97.44346618652344,0.001341459486219618,0.619,0.38285714285714284,-0.23690092298719617,-0.48338379199218906,5.7896223068237305,41.48408126831055,0.06091935899522569,-0.16806089613172742
4934,0.2606477247721355,0.13945316314697265,86.23248291015625,80.01325988769531,-2.702472686767578,97.46392822265625,-0.0022955152723524307,0.6173333333333333,0.3792857142857143,-0.2317435794406467,-0.18676246936035312,5.833566188812256,41.57196807861328,0.06910247802734375,-0.16851556566026477
4935,0.2528352247721355,0.13945316314697265,85.76194763183594,80.42241668701172,-3.3162155151367188,97.1365966796875,-0.007296371459960938,0.6156666666666667,0.37714285714285717,-0.22664731343587238,0.06591600179672241,5.152434349060059,43.153987884521484,0.059328121609157985,-0.17169791327582465
4936,0.2528352247721355,0.13945316314697265,86.02790832519531,77.55829620361328,-2.8865966796875,97.07522583007812,-0.007296371459960938,0.614,0.37392857142857144,-0.22203928629557293,0.4064820110797882,4.372427940368652,44.91178894042969,0.09410680135091146,-0.16624247233072917
4937,0.2528352247721355,0.15937503814697265,85.16867065429688,77.45600891113281,-3.4594192504882812,97.46392822265625,-0.0043413374159071184,0.613,0.3725,-0.21773643493652345,1.0107120275497437,4.548203945159912,50.888309478759766,0.0856962415907118,-0.17692608303493923
4938,0.2450227247721355,0.15937503814697265,85.25050354003906,80.40196228027344,-4.11407470703125,97.32072448730469,0.0006595187717013889,0.611,0.3707142857142857,-0.21407445271809897,1.2304320335388184,5.4710283279418945,51.2398681640625,0.0538726806640625,-0.18260887993706598
4939,0.2528352247721355,0.13945316314697265,85.76194763183594,77.8856201171875,-4.339115142822266,97.66851043701172,-0.0009316762288411458,0.6096666666666667,0.3707142857142857,-0.2099241468641493,1.3622640371322632,5.7896223068237305,51.2398681640625,0.08751475016276042,-0.18897361755371095
4940,0.2567414747721355,0.13945316314697265,85.49600219726562,79.78821563720703,-4.441402435302734,97.87309265136719,-0.0018409305148654514,0.6076666666666667,0.37,-0.205010986328125,1.0986000299453735,6.251034259796143,51.2398681640625,0.06341985066731771,-0.1923832787407769
4941,0.2528352247721355,0.13945316314697265,85.98699188232422,80.19737243652344,-3.66400146484375,97.21842956542969,-0.0013863033718532986,0.6056666666666667,0.3692857142857143,-0.2002198961046007,0.6371880173683167,6.240048408508301,51.2398681640625,0.06432910495334201,-0.1764714558919271
4942,0.2567414747721355,0.13945316314697265,85.76194763183594,79.17447662353516,-3.725372314453125,97.60713195800781,-0.003659396701388889,0.604,0.3692857142857143,-0.19539820353190104,1.0436700582504272,5.657790184020996,51.2398681640625,0.07319412231445313,-0.18147226969401042
4943,0.2528352247721355,0.15937503814697265,85.65966796875,78.72439575195312,-3.5412521362304688,97.83216857910156,-0.006387117173936632,0.6026666666666667,0.36892857142857144,-0.19051556057400174,1.2853620052337646,5.185392379760742,51.2398681640625,0.07705858018663195,-0.18192689683702257
4944,0.2450227247721355,0.15937503814697265,85.65966796875,79.68592834472656,-2.6820144653320312,97.83216857910156,-0.0034320831298828127,0.6003333333333334,0.3678571428571429,-0.18636533949110243,0.9447960257530212,5.152434349060059,51.2398681640625,0.06637488471137153,-0.17237981160481772
4945,0.2411164747721355,0.13945316314697265,85.65966796875,77.25142669677734,1.5732498168945312,97.38209533691406,-0.003659396701388889,0.5983333333333334,0.3675,-0.18276435004340277,0.4064820110797882,5.020602226257324,51.2398681640625,0.0934249030219184,-0.12009828355577257
4946,0.2333039747721355,0.13945316314697265,84.30943298339844,75.86028289794922,-2.907054901123047,97.25935363769531,-0.001613616943359375,0.5963333333333334,0.3678571428571429,-0.17907180786132812,0.4943700134754181,5.482014179229736,51.2398681640625,0.09387944539388021,-0.1685156504313151
4947,0.2215852247721355,0.13945316314697265,84.26852416992188,80.21783447265625,-3.0502586364746094,97.54576110839844,0.004523807101779514,0.5936666666666667,0.3675,-0.1748605516221788,0.9777539968490601,7.118927955627441,51.2398681640625,0.04500766330295139,-0.17328910827636718
4948,0.1981477247721355,0.13945316314697265,86.0074462890625,80.38150024414062,-3.11163330078125,97.81171417236328,-0.0013863033718532986,0.592,0.36678571428571427,-0.1695201449924045,1.1095860004425049,7.624284267425537,51.2398681640625,0.06251051161024306,-0.17692608303493923
4949,0.2020539747721355,0.13945316314697265,86.1097412109375,80.23829650878906,-2.4569778442382812,97.64805603027344,-0.007296371459960938,0.5893333333333334,0.36678571428571427,-0.1635083516438802,0.7031040191650391,7.151885986328125,51.2398681640625,0.06523827446831597,-0.16783370971679687
4950,0.2098664747721355,0.13945316314697265,85.90515899658203,80.19737243652344,0.5912628173828125,97.48439025878906,-0.007069057888454861,0.5873333333333334,0.36607142857142855,-0.15743552313910592,0.4943700134754181,6.514698028564453,51.2398681640625,0.06341985066731771,-0.13214586046006943
4951,0.2137727247721355,0.13945316314697265,85.74149322509766,80.25875091552734,-2.6001853942871094,97.93446350097656,-0.0059324900309244795,0.5853333333333334,0.36607142857142855,-0.1522477043999566,0.5053560137748718,5.833566188812256,51.2398681640625,0.06091935899522569,-0.17260720994737414
4952,0.2137727247721355,0.13945316314697265,85.92561340332031,80.23829650878906,-2.6001853942871094,97.93446350097656,-0.009114880032009548,0.5826666666666667,0.3657142857142857,-0.14757859971788195,0.16479000449180603,5.097504138946533,51.2398681640625,0.06319240993923611,-0.17260720994737414
4953,0.2215852247721355,0.13945316314697265,85.76194763183594,77.96745300292969,-2.6206436157226562,97.17752075195312,-0.0059324900309244795,0.5806666666666667,0.3657142857142857,-0.14379458957248265,-0.3735243254394547,4.427358150482178,51.2398681640625,0.0866054958767361,-0.16442404852973092
4954,0.2372102247721355,0.13945316314697265,85.39370727539062,77.59921264648438,-2.722930908203125,97.42301177978516,-0.004568650987413194,0.5786666666666667,0.36678571428571427,-0.140193600124783,0.08788800239562988,4.4383440017700195,51.2398681640625,0.0866054958767361,-0.1682882520887587
4955,0.2450227247721355,0.13945316314697265,85.37325286865234,80.62699890136719,-3.5617103576660156,97.56622314453125,-0.001613616943359375,0.5766666666666667,0.36678571428571427,-0.13653157552083334,0.747048020362854,4.998630046844482,51.2398681640625,0.052736155192057294,-0.17919926113552517
4956,0.2450227247721355,0.13945316314697265,86.19157409667969,80.40196228027344,-3.4389610290527344,97.7298812866211,-0.005250591701931423,0.5743333333333334,0.36678571428571427,-0.13277808295355903,0.790992021560669,4.7679243087768555,51.2398681640625,0.06432902018229167,-0.17965380350748697
4957,0.2606477247721355,0.13945316314697265,85.88470458984375,80.05416870117188,-2.1501083374023438,97.791259765625,-0.009342193603515625,0.5726666666666667,0.36678571428571427,-0.12862777709960938,0.4943700134754181,3.943974018096924,51.2398681640625,0.06478373209635417,-0.16601520114474827
4958,0.2528352247721355,0.13945316314697265,85.76194763183594,80.13600158691406,-2.0682754516601562,97.99583435058594,-0.007296371459960938,0.57,0.36678571428571427,-0.12545403374565972,0.12084600329399109,3.1859400272369385,51.2398681640625,0.06251051161024306,-0.16737899780273438
4959,0.2567414747721355,0.13945316314697265,85.68012237548828,77.61967468261719,-2.6206436157226562,97.77079772949219,-0.006159803602430555,0.568,0.36678571428571427,-0.12328737046983507,-0.2856375151367203,2.427906036376953,51.2398681640625,0.08956052992078993,-0.1710160149468316
4960,0.2528352247721355,0.13945316314697265,85.18913269042969,76.82180786132812,-2.10919189453125,97.791259765625,-0.0034320831298828127,0.566,0.3675,-0.12185304429796007,-0.4394403868408219,2.4059340953826904,51.2398681640625,0.09297027587890624,-0.1655605740017361
4961,0.2450227247721355,0.13945316314697265,84.84133911132812,78.70394134521484,-0.718048095703125,97.95492553710938,-2.242194281684028e-05,0.5633333333333334,0.3682142857142857,-0.12041880289713541,-0.49437012011718906,3.2628421783447266,51.2398681640625,0.0681933085123698,-0.15192192925347223
4962,0.2450227247721355,0.1195312786102295,85.74149322509766,80.07463073730469,0.673095703125,97.64805603027344,-0.0009316762288411458,0.5606666666666666,0.36892857142857144,-0.11849628024631076,-0.7690206938476578,3.625380039215088,51.2398681640625,0.06296513875325521,-0.13305511474609374
4963,0.2411164747721355,0.1195312786102295,85.70057678222656,79.13356018066406,1.3072929382324219,97.42301177978516,-0.007978312174479167,0.558,0.3692857142857143,-0.11596332126193576,-0.7580343657226578,3.1090381145477295,51.2398681640625,0.07296685112847222,-0.12350798712836372
4964,0.2411164747721355,0.13945316314697265,85.37325286865234,79.29722595214844,-3.0093421936035156,97.83216857910156,-0.008887566460503472,0.5556666666666666,0.37,-0.1131557888454861,-0.5273291044921891,2.7135419845581055,51.2398681640625,0.06751141018337674,-0.17601678636338974
4965,0.2450227247721355,0.13945316314697265,85.39370727539062,79.15402221679688,-3.8481216430664062,98.07766723632812,-0.00843293931749132,0.5533333333333333,0.37,-0.11056187947591146,-0.5932451658935562,2.6476261615753174,51.151981353759766,0.069329833984375,-0.18806432088216146
4966,0.2528352247721355,0.13945316314697265,85.37325286865234,79.0312728881836,-3.9913291931152344,98.09812927246094,-0.004568650987413194,0.5503333333333333,0.3703571428571429,-0.10888349745008681,-1.0876146727294937,2.5597381591796875,51.151981353759766,0.07046644422743055,-0.18988287183973523
4967,0.2489289747721355,0.13945316314697265,85.35279846191406,78.17203521728516,-4.175449371337891,97.95492553710938,-0.00843293931749132,0.5473333333333333,0.3703571428571429,-0.10671683417426216,-1.5929705076904312,2.4608640670776367,51.151981353759766,0.07978625827365451,-0.1903374989827474
4968,0.2567414747721355,0.13945316314697265,85.31187438964844,78.31524658203125,-4.298198699951172,97.75033569335938,-0.004795964558919271,0.5443333333333333,0.37107142857142855,-0.10473319159613716,-1.8346620970459,2.7904441356658936,51.151981353759766,0.07774030897352431,-0.18942815992567275
4969,0.2411164747721355,0.13945316314697265,85.33233642578125,78.86760711669922,-4.236824035644531,97.95492553710938,-0.00297745598687066,0.5413333333333333,0.37214285714285716,-0.1031768798828125,-1.6588865690917984,3.2738280296325684,51.151981353759766,0.07183032565646702,-0.19101943969726562
4970,0.2333039747721355,0.13945316314697265,85.33233642578125,77.72195434570312,-4.257282257080078,98.3436279296875,-0.00775099860297309,0.5376666666666666,0.3732142857142857,-0.10055245293511285,-1.5929705076904312,3.4386181831359863,51.151981353759766,0.08455980088975694,-0.195565668741862
4971,0.2333039747721355,0.13945316314697265,85.31187438964844,77.29234313964844,-4.318656921386719,98.2004165649414,-0.0050232781304253475,0.534,0.37357142857142855,-0.0974397447374132,-1.9884668760986344,4.020875930786133,51.151981353759766,0.08910590277777777,-0.1946563720703125
4972,0.2215852247721355,0.13945316314697265,85.20958709716797,77.9469985961914,-4.216365814208984,98.15950012207031,-0.003204769558376736,0.5306666666666666,0.3742857142857143,-0.09435755411783854,-2.482836382934572,5.031588077545166,51.151981353759766,0.08069542778862847,-0.19306517706976997
4973,0.2215852247721355,0.13945316314697265,85.27096557617188,79.3995132446289,-4.052700042724609,98.15950012207031,-0.0059324900309244795,0.5263333333333333,0.375,-0.09078708224826389,-2.7684732847900406,5.932440280914307,51.151981353759766,0.06523835923936631,-0.19124666849772134
4974,0.2098664747721355,0.13945316314697265,85.90515899658203,80.15646362304688,-4.073158264160156,97.89354705810547,-0.0034320831298828127,0.5226666666666666,0.37642857142857145,-0.08642323811848958,-2.823403018066408,6.262020111083984,51.151981353759766,0.06387439303927951,-0.1885189480251736
4975,0.2020539747721355,0.13945316314697265,85.80287170410156,80.15646362304688,-4.175449371337891,97.97537994384766,-0.0075236850314670135,0.519,0.37714285714285717,-0.08160163031684028,-2.493822711059572,5.855538368225098,51.151981353759766,0.0627378675672743,-0.1905647701687283
4976,0.2098664747721355,0.13945316314697265,85.90515899658203,80.21783447265625,-4.380031585693359,98.22087097167969,-0.00843293931749132,0.5146666666666667,0.37857142857142856,-0.07690200805664063,-2.3290335112304703,5.207364082336426,51.151981353759766,0.06319249471028646,-0.19556558397081164
4977,0.2098664747721355,0.13945316314697265,85.88470458984375,80.0950927734375,-4.66644287109375,98.30270385742188,-0.007978312174479167,0.511,0.37892857142857145,-0.07314851548936632,-2.515795367309572,4.416372299194336,51.151981353759766,0.06432902018229167,-0.19965718587239584
4978,0.2137727247721355,0.13945316314697265,85.72103881835938,79.46089172363281,-4.605068206787109,98.3436279296875,-0.008887566460503472,0.5073333333333333,0.38,-0.06994425455729167,-2.878332751342775,3.6693241596221924,51.151981353759766,0.06955718994140625,-0.1994299570719401
4979,0.2137727247721355,0.13945316314697265,85.5164566040039,79.87004852294922,-4.4209442138671875,98.42545318603516,-0.009114880032009548,0.5033333333333333,0.38035714285714284,-0.06664844089084201,-3.1419969969482437,3.29580020904541,51.151981353759766,0.0627378675672743,-0.19829330444335938
4980,0.2254914747721355,0.13945316314697265,85.57783508300781,79.58363342285156,-3.643543243408203,98.32316589355469,-0.009342193603515625,0.499,0.3817857142857143,-0.06414608425564236,-3.4386183195800797,3.0321359634399414,50.62464141845703,0.06660224066840278,-0.18851899041069878
4981,0.2059602247721355,0.13945316314697265,85.47554016113281,79.27676391601562,-3.9299545288085938,98.54820251464844,-0.003886710272894965,0.49533333333333335,0.3825,-0.06283382839626736,-3.570450442382814,2.7355141639709473,50.36096954345703,0.0688752916124132,-0.19420174492730036
4982,0.2059602247721355,0.13945316314697265,85.455078125,79.3995132446289,-41.900001525878906,97.95492553710938,-0.009114880032009548,0.491,0.38321428571428573,-0.060606129964192706,-3.7791849547119156,2.5377659797668457,50.36096954345703,0.06728405422634548,-0.6094991895887587
4983,0.2098664747721355,0.1195312786102295,85.47554016113281,79.50180053710938,-3.357128143310547,98.26179504394531,-0.0066144307454427086,0.487,0.3842857142857143,-0.059019215901692706,-3.603409426757814,2.4169201850891113,50.36096954345703,0.06637488471137153,-0.18465470208062065
4984,0.1942414747721355,0.1195312786102295,85.47554016113281,78.78577423095703,-41.900001525878906,98.58911895751953,-0.0059324900309244795,0.48233333333333334,0.38571428571428573,-0.05776807996961805,-3.3507315092773453,2.197200059890747,50.27307891845703,0.07433073255750867,-0.6165457831488715
4985,0.1864289747721355,0.1195312786102295,85.455078125,78.62211608886719,-3.275299072265625,98.65049743652344,-0.009796820746527778,0.4786666666666667,0.38607142857142857,-0.05645582411024305,-3.7022825651855484,2.0983259677886963,50.27307891845703,0.0759218004014757,-0.1880644056532118
4986,0.1942414747721355,0.1195312786102295,85.41416931152344,77.72195434570312,-3.2139244079589844,98.63003540039062,-0.003659396701388889,0.47433333333333333,0.3867857142857143,-0.055174170600043405,-4.163694994995119,2.351004123687744,49.7457389831543,0.08546905517578125,-0.18715510898166232
4987,0.1825227247721355,0.1195312786102295,85.41416931152344,77.9879150390625,-2.313770294189453,98.60957336425781,-0.0022955152723524307,0.4696666666666667,0.3875,-0.053709326850043405,-4.4383455687255875,3.054108142852783,49.5699577331543,0.08251393636067708,-0.17692604064941406
4988,0.1708039747721355,0.1195312786102295,85.41416931152344,78.09020233154297,-0.16568374633789062,98.44590759277344,-0.004114023844401042,0.4656666666666667,0.38821428571428573,-0.05163421630859375,-4.636091845581056,3.7242541313171387,49.48207092285156,0.08137741088867187,-0.15123990376790364
4989,0.1668977247721355,0.1195312786102295,85.39370727539062,78.04928588867188,-5.341556549072266,98.40499877929688,-0.005705218844943577,0.46066666666666667,0.3889285714285714,-0.0491623772515191,-4.570175784179689,4.427358150482178,49.48207092285156,0.08160468207465278,-0.20829505920410157
4990,0.1551789747721355,0.1195312786102295,85.39370727539062,80.8929443359375,-41.900001525878906,98.32316589355469,-0.0054779052734375,0.456,0.39,-0.04595811631944444,-4.33947052294922,5.174406051635742,49.48207092285156,0.05000847710503472,-0.6135907491048177
4991,0.1551789747721355,0.1195312786102295,86.90760040283203,81.11798858642578,-5.321098327636719,98.2413330078125,-0.003204769558376736,0.4513333333333333,0.39035714285714285,-0.04247919718424479,-4.053835528442384,5.141448020935059,49.48207092285156,0.06432902018229167,-0.20624923706054688
4992,0.1317414747721355,0.1195312786102295,86.70301818847656,79.9927978515625,-5.321098327636719,98.40499877929688,-0.007069057888454861,0.44666666666666666,0.39071428571428574,-0.03954959445529514,-3.7132688933105484,3.8121421337127686,49.48207092285156,0.07455800374348959,-0.20806774563259547
4993,0.1629914747721355,0.1195312786102295,86.15065002441406,78.3970718383789,-5.525676727294922,98.56866455078125,-0.01320648193359375,0.44233333333333336,0.39107142857142857,-0.035704549153645834,-3.537493365356447,2.658612012863159,49.48207092285156,0.08615086873372396,-0.2121593475341797
4994,0.1747102247721355,0.1195312786102295,86.08927917480469,78.62211608886719,-5.341556549072266,98.46636962890625,-0.0066144307454427086,0.439,0.39071428571428574,-0.033415730794270834,-3.6583391600341812,2.5707240104675293,49.48207092285156,0.08296847873263889,-0.20897695753309461
4995,0.1668977247721355,0.1195312786102295,86.1097412109375,81.0361557006836,-5.3620147705078125,98.44590759277344,-0.003659396701388889,0.43533333333333335,0.39035714285714285,-0.03192045423719618,-3.7242552214355484,2.4718501567840576,49.48207092285156,0.05637317233615451,-0.20897691514756944
4996,0.1708039747721355,0.1195312786102295,86.6007308959961,79.68592834472656,-5.300640106201172,98.32316589355469,-0.009114880032009548,0.43133333333333335,0.39035714285714285,-0.030058966742621526,-3.6473528319091812,1.3952220678329468,49.48207092285156,0.07683113945855034,-0.20693117777506512
4997,0.1786164747721355,0.1195312786102295,85.98699188232422,78.04928588867188,-41.900001525878906,98.40499877929688,-0.009569507175021702,0.42833333333333334,0.39,-0.028899298773871526,-3.3287588530273453,0.6152160167694092,49.48207092285156,0.08819673326280382,-0.614500003390842
4998,0.1942414747721355,0.1195312786102295,85.86424255371094,78.00836944580078,-5.546134948730469,98.65049743652344,-0.0054779052734375,0.42533333333333334,0.3896428571428571,-0.028136359320746526,-3.0101648741455094,0.7800060510635376,49.48207092285156,0.08728747897677952,-0.21329591539171006
4999,0.1825227247721355,0.1195312786102295,85.94607543945312,78.19248962402344,-5.648426055908203,98.73233032226562,-0.006387117173936632,0.42233333333333334,0.3889285714285714,-0.027587127685546876,-3.174954073974611,1.3293060064315796,49.48207092285156,0.08615095350477431,-0.21534173753526475
5000,0.1747102247721355,0.1195312786102295,85.94607543945312,79.3995132446289,-5.423389434814453,98.73233032226562,-0.003659396701388889,0.419,0.38785714285714284,-0.026793670654296876,-3.6363665037841812,1.9884660243988037,49.48207092285156,0.07273957994249132,-0.21284133063422309
5001,0.1668977247721355,0.1195312786102295,85.98699188232422,80.0337142944336,-5.300640106201172,98.48683166503906,-0.00297745598687066,0.415,0.3875,-0.025786590576171876,-3.91101707751465,2.1752281188964844,49.48207092285156,0.06614752875434028,-0.20874968634711372
5002,0.1512727247721355,0.1195312786102295,86.0688247680664,79.87004852294922,-5.218807220458984,98.48683166503906,-0.005250591701931423,0.412,0.3871428571428571,-0.025084686279296876,-3.823128359863283,1.6039559841156006,49.48207092285156,0.0688752916124132,-0.2078404320610894
5003,0.1512727247721355,0.1195312786102295,85.98699188232422,78.41752624511719,-5.096061706542969,98.52774047851562,-0.01002409193250868,0.408,0.3867857142857143,-0.02374199761284722,-3.7352415495605484,1.032684087753296,49.48207092285156,0.0841051737467448,-0.20693113538953994
5004,0.1551789747721355,0.1195312786102295,85.96653747558594,77.55829620361328,-4.8096466064453125,98.54820251464844,-0.006841744316948784,0.4043333333333333,0.38571428571428573,-0.02316216362847222,-3.7572122984619156,1.175502061843872,49.48207092285156,0.0934249030219184,-0.2039761013454861
5005,0.1551789747721355,0.1195312786102295,85.41416931152344,77.49691772460938,-4.605068206787109,98.46636962890625,-0.0075236850314670135,0.40066666666666667,0.38571428571428573,-0.02209404839409722,-3.867073672363283,1.9005780220031738,49.48207092285156,0.08796946207682292,-0.20079375372992622
5006,0.1590852247721355,0.1195312786102295,84.57539367675781,77.92654418945312,-4.380031585693359,98.60957336425781,-0.0011589898003472221,0.397,0.38535714285714284,-0.02078187730577257,-3.932987826416017,3.065093994140625,49.48207092285156,0.07387610541449653,-0.1998844994439019
5007,0.1590852247721355,0.1195312786102295,86.31431579589844,80.32012939453125,-1.8227806091308594,98.48683166503906,-0.003886710272894965,0.393,0.38535714285714284,-0.018432108561197917,-4.075806277343752,3.6693241596221924,49.48207092285156,0.06660207112630208,-0.17010680304633247
5008,0.1668977247721355,0.1195312786102295,85.76194763183594,79.62455749511719,-4.605068206787109,98.44590759277344,-0.011615286933051215,0.38866666666666666,0.3846428571428571,-0.015380435519748263,-4.262568133422853,3.065093994140625,49.48207092285156,0.06819322374131945,-0.20056639777289498
5009,0.1903352247721355,0.1195312786102295,85.72103881835938,79.62455749511719,-4.871021270751953,98.44590759277344,-0.010933346218532987,0.38466666666666666,0.385,-0.01202358669704861,-4.240597384521486,2.603682041168213,49.48207092285156,0.06773868136935764,-0.2035214318169488
5010,0.1825227247721355,0.1195312786102295,85.76194763183594,79.9927978515625,-4.952854156494141,98.42545318603516,-0.003204769558376736,0.38033333333333336,0.385,-0.01086391872829861,-4.185667651245119,2.285088062286377,49.39418029785156,0.06410166422526041,-0.20420341491699218
5011,0.1590852247721355,0.1195312786102295,85.74149322509766,79.56317901611328,-4.932395935058594,98.44590759277344,-0.007296371459960938,0.37666666666666665,0.3846428571428571,-0.010375722249348959,-4.185667651245119,1.6698720455169678,49.13050842285156,0.06864793565538195,-0.204203372531467
5012,0.1473664747721355,0.1195312786102295,85.68012237548828,77.72195434570312,-4.932395935058594,98.2822494506836,-0.003886710272894965,0.372,0.385,-0.009917958577473959,-4.185667651245119,1.307334065437317,49.13050842285156,0.08842408921983506,-0.20238494873046875
5013,0.1473664747721355,0.1195312786102295,85.63920593261719,78.17203521728516,-4.911937713623047,98.17996215820312,-0.008660252888997395,0.368,0.385,-0.008727773030598959,-3.90003074938965,1.8346620798110962,48.95473098754883,0.08296856350368924,-0.20102110968695747
5014,0.11611647477213549,0.09960939407348633,85.65966796875,78.06974792480469,-4.911937713623047,98.3436279296875,-0.002068201700846354,0.364,0.3846428571428571,-0.008788808186848959,-3.504534380981447,2.274101972579956,48.95473098754883,0.0843324449327257,-0.20283961825900607
5015,0.10830397477213549,0.1195312786102295,84.84133911132812,76.9854736328125,-4.952854156494141,98.52774047851562,-0.011842600504557292,0.359,0.3842857142857143,-0.006744215223524305,-3.284815447875978,2.515794038772583,48.95473098754883,0.08728739420572916,-0.2053399403889974
5016,0.1317414747721355,0.1195312786102295,84.90271759033203,79.78821563720703,-4.932395935058594,98.58911895751953,-0.0050232781304253475,0.35533333333333333,0.38357142857142856,-0.0039061652289496527,-3.4825636320800797,3.317772150039673,48.95473098754883,0.05682779947916667,-0.20579460991753473
5017,0.1629914747721355,0.1195312786102295,85.65966796875,79.84959411621094,-5.096061706542969,98.50728607177734,-0.011842600504557292,0.35133333333333333,0.38321428571428573,-0.000396728515625,-3.7242552214355484,3.4825620651245117,48.95473098754883,0.06455637613932291,-0.20670386420355902
5018,0.1395539747721355,0.1195312786102295,86.25294494628906,80.19737243652344,-5.177890777587891,98.38453674316406,-0.00297745598687066,0.347,0.3825,0.0014037238226996527,-3.834114687988283,3.131010055541992,48.95473098754883,0.06728413899739584,-0.2062491946750217
5019,0.1395539747721355,0.1195312786102295,85.78240966796875,79.56317901611328,-5.157432556152344,98.22087097167969,-0.009796820746527778,0.3436666666666667,0.3825,0.0035703870985243054,-3.6473528319091812,2.361989974975586,48.95473098754883,0.0691025627983941,-0.204203372531467
5020,0.1512727247721355,0.1195312786102295,84.84133911132812,78.15158081054688,-5.218807220458984,98.40499877929688,-0.014570320977105035,0.3393333333333333,0.3825,0.006133863661024305,-3.3617159300537125,1.9335360527038574,48.95473098754883,0.07433064778645833,-0.20693117777506512
5021,0.1747102247721355,0.1195312786102295,85.47554016113281,80.83157348632812,-5.157432556152344,98.2413330078125,-0.0009316762288411458,0.335,0.3821428571428571,0.007873280843098959,-3.2957998686523453,2.4608640670776367,48.95473098754883,0.05159962972005208,-0.20443072848849828
5022,0.1590852247721355,0.1195312786102295,86.49844360351562,78.23341369628906,-5.259723663330078,98.48683166503906,-0.009569507175021702,0.331,0.38107142857142856,0.00958218044704861,-3.1310106688232437,1.7028300762176514,48.86684036254883,0.0918336656358507,-0.20829505920410157
5023,0.1512727247721355,0.1195312786102295,85.78240966796875,78.21295166015625,-4.993770599365234,98.54820251464844,-0.0043413374159071184,0.327,0.38107142857142856,0.01058926052517361,-3.3727022581787125,1.6149420738220215,48.86684036254883,0.08410508897569445,-0.2060219234890408
5024,0.1395539747721355,0.09960939407348633,85.86424255371094,78.96989440917969,-4.727817535400391,98.1390380859375,-0.006387117173936632,0.3233333333333333,0.38035714285714284,0.01061977810329861,-3.7791849547119156,1.7138160467147827,48.86684036254883,0.07660386827256944,-0.19852061801486545
5025,0.10439772477213549,0.09960939407348633,85.82332611083984,80.0950927734375,-4.625526428222656,98.30270385742188,-2.242194281684028e-05,0.32,0.38035714285714284,0.01074184841579861,-3.493548052856447,1.7577600479125977,48.86684036254883,0.06364703708224827,-0.1992025587293837
5026,0.10830397477213549,0.09960939407348633,85.88470458984375,79.35859680175781,-4.8096466064453125,98.56866455078125,-0.011387973361545138,0.31633333333333336,0.3796428571428571,0.012267642550998263,-3.240870135375978,1.175502061843872,48.86684036254883,0.07251230875651042,-0.20420345730251735
5027,0.10049147477213549,0.1195312786102295,85.86424255371094,79.8905029296875,-4.645984649658203,98.36408233642578,-0.006841744316948784,0.31133333333333335,0.3796428571428571,0.013000064425998263,-3.559464114257814,1.0546560287475586,48.86684036254883,0.06637488471137153,-0.20011185540093315
5028,0.08877272477213549,0.1195312786102295,85.84378051757812,78.51982116699219,-4.380031585693359,98.3436279296875,-0.010478719075520834,0.307,0.3792857142857143,0.013274722629123263,-3.7352415495605484,0.7800060510635376,48.86684036254883,0.08137732611762152,-0.19692955017089844
5029,0.0692415025499132,0.1195312786102295,85.80287170410156,80.07463073730469,-4.339115142822266,98.3436279296875,0.001341459486219618,0.30366666666666664,0.37892857142857145,0.013091617160373263,-3.6693254881591812,0.6042300462722778,48.86684036254883,0.06364712185329861,-0.19647492302788627
5030,0.053616502549913195,0.09960939407348633,85.84378051757812,77.96745300292969,-4.236824035644531,98.42545318603516,-0.005250591701931423,0.299,0.37892857142857145,0.012694888644748263,-3.581436770507814,-0.2856375151367203,47.987937927246094,0.08751475016276042,-0.19624752468532985
5031,0.10049147477213549,0.09960939407348633,85.76194763183594,78.80622863769531,-4.4209442138671875,98.2822494506836,-0.018889236450195312,0.29533333333333334,0.37857142857142856,0.014159732394748263,-3.7462259703369156,-0.4723993712158219,47.72426986694336,0.0772857666015625,-0.19670215182834203
5032,0.11221022477213549,0.09960939407348633,85.80287170410156,79.60409545898438,-4.216365814208984,98.2413330078125,-0.0066144307454427086,0.291,0.37857142857142856,0.014342837863498263,-3.7022825651855484,-0.03295769030761875,47.72426986694336,0.0688752916124132,-0.19397443135579426
5033,0.09267897477213549,0.1195312786102295,85.82332611083984,80.38150024414062,-3.7662887573242188,98.11858367919922,-0.0011589898003472221,0.287,0.37857142857142856,0.013763003879123263,-3.504534380981447,0.032958000898361206,47.72426986694336,0.060464731852213544,-0.18760969373914932
5034,0.08877272477213549,0.09960939407348633,86.41661071777344,80.0950927734375,-4.011787414550781,98.15950012207031,-0.007978312174479167,0.2826666666666667,0.3782142857142857,0.013427310519748263,-3.185940402099611,-0.6371885710449234,47.72426986694336,0.0702390882703993,-0.19079208374023438
5035,0.08877272477213549,0.1195312786102295,85.88470458984375,79.17447662353516,-4.605068206787109,98.2822494506836,-0.009569507175021702,0.2793333333333333,0.3782142857142857,0.012969546847873263,-2.966221468994142,-1.4171949797363297,47.54848861694336,0.07455808851453993,-0.1987479739718967
5036,0.09267897477213549,0.1195312786102295,85.82332611083984,78.70394134521484,-4.1959075927734375,98.1390380859375,-0.00775099860297309,0.27566666666666667,0.3775,0.01199306911892361,-2.9991785460205094,-1.7467752867431656,47.54848861694336,0.07910427517361111,-0.19261050754123263
5037,0.10439772477213549,0.1195312786102295,41.900001525878906,77.80378723144531,-2.6206436157226562,97.77079772949219,-0.01002409193250868,0.2723333333333333,0.37714285714285717,0.01110805935329861,-2.933262484619142,-1.6149431639404312,47.54848861694336,-0.39893095228407116,-0.1710160149468316
5038,0.09267897477213549,0.1195312786102295,85.72103881835938,78.17203521728516,-2.8047637939453125,98.2004165649414,-0.009114880032009548,0.268,0.37642857142857145,0.00982632107204861,-2.3070608549804703,-1.0766283446044937,47.54848861694336,0.08387781778971354,-0.17783533732096354
5039,0.061429002549913195,0.1195312786102295,85.78240966796875,78.82669067382812,-2.5388107299804688,98.54820251464844,0.0002048916286892361,0.2653333333333333,0.3757142857142857,0.0077206929524739586,-2.241144793579103,-0.2636648588867203,47.54848861694336,0.0772857666015625,-0.17874459160698786
5040,0.045804002549913195,0.1195312786102295,85.78240966796875,79.91096496582031,-1.5159111022949219,98.44590759277344,-0.005250591701931423,0.2623333333333333,0.3742857142857143,0.0070493062337239586,-2.911289828369142,0.08788800239562988,47.54848861694336,0.06523827446831597,-0.166242429945204
5041,0.026272752549913195,0.09960939407348633,85.5982894897461,79.4404296875,-1.5977401733398438,98.40499877929688,-0.00843293931749132,0.259,0.37392857142857144,0.0064084370930989586,-3.2957998686523453,-0.19774879748535312,47.54848861694336,0.06842066446940104,-0.1666970994737413
5042,0.010647752549913195,0.1195312786102295,85.70057678222656,79.87004852294922,-2.354686737060547,98.36408233642578,-0.004568650987413194,0.25533333333333336,0.37357142857142855,0.005431959364149305,-3.4605909758300797,-0.5273291044921891,47.54848861694336,0.06478364732530383,-0.17465298970540363
5043,0.014554002549913195,0.09960939407348633,85.68012237548828,78.60165405273438,-1.4545364379882812,98.11858367919922,-0.0054779052734375,0.251,0.37357142857142855,0.004913160536024305,-3.4386183195800797,-1.120571749755861,47.54848861694336,0.07864964803059896,-0.1619235568576389
5044,0.030179002549913195,0.1195312786102295,85.68012237548828,78.3970718383789,-5.321098327636719,98.38453674316406,-0.010933346218532987,0.247,0.37392857142857144,0.004791090223524305,-3.174954073974611,-1.4062086516113297,47.54848861694336,0.08092278374565973,-0.20784038967556423
5045,0.049710252549913195,0.1195312786102295,85.61874389648438,78.31524658203125,-5.321098327636719,98.40499877929688,-0.01002409193250868,0.24233333333333335,0.37392857142857144,0.004577467176649305,-3.229883807250978,-1.2084604674072281,47.54848861694336,0.08114997016059028,-0.20806774563259547
5046,0.034085252549913195,0.1195312786102295,86.23248291015625,79.87004852294922,-5.3620147705078125,98.32316589355469,-0.009114880032009548,0.23766666666666666,0.37357142857142855,0.0030821906195746527,-3.4386183195800797,-0.5712725096435562,47.54848861694336,0.07069371541341146,-0.20761311848958333
5047,-0.024508497450086805,0.1195312786102295,85.86424255371094,80.34058380126953,-5.300640106201172,98.17996215820312,0.0056603749593098955,0.234,0.37392857142857144,0.000335693359375,-3.537493365356447,-0.3735243254394547,47.54848861694336,0.06137398613823785,-0.20534002516004773
5048,-0.040133497450086805,0.1195312786102295,85.76194763183594,78.41752624511719,-5.3620147705078125,98.2004165649414,-0.009796820746527778,0.23033333333333333,0.3742857142857143,-0.000732421875,-3.3836885863037125,-1.2194467955322281,47.54848861694336,0.08160468207465278,-0.20624923706054688
5049,-0.008883497450086805,0.1195312786102295,85.76194763183594,78.02882385253906,-5.402931213378906,98.22087097167969,-0.012069914076063368,0.22533333333333333,0.3742857142857143,-0.000518798828125,-3.251856463500978,-1.4940973692626969,47.54848861694336,0.08592359754774305,-0.20693113538953994
5050,-0.012789747450086805,0.09960939407348633,41.900001525878906,78.29478454589844,-5.3620147705078125,98.22087097167969,-0.005705218844943577,0.221,0.3742857142857143,-0.0015869140625,-3.251856463500978,-1.131558077880861,47.54848861694336,-0.404386478000217,-0.20647650824652777
5051,-0.024508497450086805,0.09960939407348633,85.18913269042969,76.69905853271484,-5.321098327636719,98.22087097167969,-0.004568650987413194,0.21733333333333332,0.37464285714285717,-0.0027159796820746527,-3.3067861967773453,-0.6481748991699234,47.54848861694336,0.09433415730794271,-0.20602188110351563
5052,-0.028414747450086805,0.09960939407348633,85.35279846191406,77.96745300292969,-5.157432556152344,98.2004165649414,-0.004568650987413194,0.21333333333333335,0.37464285714285717,-0.0031127081976996527,-3.240870135375978,0.24169200658798218,47.54848861694336,0.08205939398871528,-0.2039761013454861
5053,-0.051852247450086805,0.09960939407348633,85.80287170410156,79.93142700195312,-4.993770599365234,97.81171417236328,0.0017960866292317708,0.20933333333333334,0.375,-0.0036009894476996527,-2.900305407592775,0.8019779920578003,47.54848861694336,0.06523827446831597,-0.19783871968587238
5054,-0.0674772474500868,0.09960939407348633,85.49600219726562,79.58363342285156,-4.850563049316406,98.30270385742188,-0.004795964558919271,0.207,0.37464285714285717,-0.0035094367133246527,-2.3290335112304703,0.3405660092830658,47.54848861694336,0.06569298638237847,-0.20170296563042533
5055,-0.051852247450086805,0.09960939407348633,85.47554016113281,79.62455749511719,-4.625526428222656,98.38453674316406,-0.008205625745985243,0.20233333333333334,0.3742857142857143,-0.0027770148383246527,-2.2960745268554703,-0.2856375151367203,47.54848861694336,0.06501091851128472,-0.20011181301540798
5056,-0.040133497450086805,0.09960939407348633,85.43462371826172,78.66302490234375,-4.3595733642578125,98.2413330078125,-0.010251405504014757,0.19966666666666666,0.37357142857142855,-0.0025328742133246527,-2.6036821776123062,-0.6811319761962906,47.54848861694336,0.07523998684353299,-0.1955656263563368
5057,-0.044039747450086805,0.09960939407348633,85.455078125,78.60165405273438,-3.643543243408203,98.17996215820312,-0.004568650987413194,0.19666666666666666,0.37357142857142855,-0.0030516730414496527,-2.7135435515136734,-0.49437012011718906,47.54848861694336,0.07614915635850694,-0.18692783779568142
5058,-0.0752897474500868,0.1195312786102295,85.94607543945312,80.25875091552734,-2.9888877868652344,97.70942687988281,0.0006595187717013889,0.19233333333333333,0.37285714285714283,-0.004547034369574653,-2.6586119108886734,-0.18676246936035312,47.54848861694336,0.06319249471028646,-0.17442571851942273
5059,-0.0987272474500868,0.1195312786102295,85.5164566040039,78.31524658203125,-3.1730079650878906,98.22087097167969,-0.0022955152723524307,0.19,0.37285714285714283,-0.005645582411024305,-2.0433966093750016,-0.6481748991699234,47.54848861694336,0.08001344468858507,-0.18215421040852864
5060,-0.0870084974500868,0.1195312786102295,85.16867065429688,77.29234313964844,-3.2139244079589844,98.44590759277344,-0.009569507175021702,0.18733333333333332,0.3717857142857143,-0.005828687879774305,-1.7797323637695328,-0.6262022429199234,47.54848861694336,0.08751475016276042,-0.18510924445258248
5061,-0.0870084974500868,0.1195312786102295,85.37325286865234,78.00836944580078,-2.4160614013671875,98.58911895751953,-0.004795964558919271,0.18366666666666667,0.37107142857142855,-0.006133863661024305,-2.208185809204103,0.17577600479125977,47.54848861694336,0.08183203803168403,-0.17783533732096354
5062,-0.1065397474500868,0.1195312786102295,85.37325286865234,77.80378723144531,-1.8227806091308594,98.50728607177734,0.004296493530273437,0.18066666666666667,0.3703571428571429,-0.006439039442274305,-2.845373766967775,1.1425440311431885,47.54848861694336,0.0841051737467448,-0.17033407423231336
5063,-0.1221647474500868,0.1195312786102295,85.57783508300781,80.19737243652344,-4.8096466064453125,98.03675842285156,0.00225067138671875,0.178,0.37,-0.005859205457899305,-3.273829119750978,1.8566340208053589,47.54848861694336,0.059782918294270834,-0.19829338921440973
5064,-0.14560224745008682,0.1195312786102295,85.5982894897461,79.37905883789062,-4.8096466064453125,98.22087097167969,0.0017960866292317708,0.174,0.37,-0.005645582411024305,-2.9881922178955094,1.9115641117095947,47.54848861694336,0.0691025627983941,-0.20033908420138888
5065,-0.16513349745008682,0.1195312786102295,85.57783508300781,79.0312728881836,-4.66644287109375,98.17996215820312,0.0040691799587673615,0.171,0.37,-0.005126783582899305,-2.7574869566650406,1.768746018409729,47.54848861694336,0.07273957994249132,-0.19829338921440973
5066,-0.15341474745008682,0.1195312786102295,85.5982894897461,78.15158081054688,-3.479877471923828,98.50728607177734,-0.002750142415364583,0.16666666666666666,0.3703571428571429,-0.0035094367133246527,-2.834389346191408,1.5490260124206543,47.54848861694336,0.08274120754665798,-0.18874626159667968
5067,-0.16122724745008682,0.1195312786102295,85.57783508300781,78.90852355957031,-2.252399444580078,98.38453674316406,-0.00047704908582899306,0.16266666666666665,0.37,-0.002105712890625,-3.1529833250732437,1.8017040491104126,47.54848861694336,0.07410346137152778,-0.17374373541937935
5068,-0.16903974745008682,0.1195312786102295,85.57783508300781,79.13356018066406,-1.9659843444824219,98.2004165649414,-0.0022955152723524307,0.15933333333333333,0.37,-0.00079345703125,-3.537493365356447,1.9555079936981201,47.54848861694336,0.07160305447048611,-0.16851556566026477
5069,-0.17685224745008682,0.1195312786102295,85.61874389648438,79.01081848144531,-1.4545364379882812,97.89354705810547,-0.003204769558376736,0.155,0.3703571428571429,0.00054931640625,-3.559464114257814,1.922550082206726,47.54848861694336,0.07342139350043403,-0.15942314995659723
5070,-0.16903974745008682,0.1195312786102295,86.13019561767578,81.07707214355469,-4.277740478515625,98.09812927246094,-0.003886710272894965,0.15066666666666667,0.3707142857142857,0.0024108039008246527,-3.0870672636718766,1.7577600479125977,47.54848861694336,0.05614581637912326,-0.19306521945529515
5071,-0.17294599745008682,0.1195312786102295,86.31431579589844,80.93386840820312,-4.318656921386719,98.32316589355469,-0.004568650987413194,0.14633333333333334,0.37107142857142855,0.0038145277235243054,-2.878332751342775,0.8898659944534302,47.54848861694336,0.05978274875217014,-0.19602025349934896
5072,-0.16903974745008682,0.1195312786102295,86.1097412109375,79.9518814086914,-4.236824035644531,98.26179504394531,-0.007069057888454861,0.14266666666666666,0.37142857142857144,0.004607984754774305,-3.1200243406982437,-0.16478981311035312,47.54848861694336,0.06842066446940104,-0.1944291008843316
5073,-0.18857099745008682,0.09960939407348633,85.80287170410156,79.11309814453125,-4.154991149902344,98.01629638671875,-0.002522828843858507,0.13833333333333334,0.37142857142857144,0.0038755628797743054,-3.229883807250978,-0.8898664885253922,47.54848861694336,0.07433081732855903,-0.19079208374023438
5074,-0.20810224745008682,0.09960939407348633,85.90515899658203,80.05416870117188,-4.1959075927734375,98.07766723632812,-0.003886710272894965,0.13433333333333333,0.3717857142857143,0.0024108039008246527,-2.955235140869142,-1.0107122832031266,47.54848861694336,0.06501100328233507,-0.1919286092122396
5075,-0.23544599745008682,0.1195312786102295,85.88470458984375,79.58363342285156,-4.257282257080078,98.22087097167969,-0.0009316762288411458,0.13033333333333333,0.37214285714285716,0.00067138671875,-2.790444033691408,-1.2963491850585953,47.54848861694336,0.07001190185546875,-0.19420170254177518
5076,-0.2588834974500868,0.09960939407348633,84.88226318359375,77.3946304321289,-3.8481216430664062,97.93446350097656,-0.0066144307454427086,0.126,0.3717857142857143,-0.0001220703125,-2.889319079467775,-1.7248026304931656,47.54848861694336,0.08319591946072048,-0.1864731682671441
5077,-0.2706022474500868,0.09960939407348633,85.1072998046875,77.86516571044922,-3.1525497436523438,97.97537994384766,-2.242194281684028e-05,0.12266666666666666,0.37214285714285716,-0.001922607421875,-2.823403018066408,-1.0876146727294937,47.54848861694336,0.08046815660264757,-0.17919921875
5078,-0.3096647474500868,0.09960939407348633,87.35768127441406,79.21539306640625,-2.9888877868652344,97.99583435058594,0.0017960866292317708,0.11866666666666667,0.37214285714285716,-0.0038451300726996527,-2.6036821776123062,-0.4504267149658219,47.54848861694336,0.09046986897786459,-0.17760802374945747
5079,-0.3291959974500868,0.1195312786102295,87.17355346679688,81.07707214355469,-3.6026268005371094,97.87309265136719,-0.0013863033718532986,0.11466666666666667,0.37142857142857144,-0.005340406629774305,-2.537766116210939,-0.834936755249025,47.54848861694336,0.06773868136935764,-0.1830635494656033
5080,-0.3526334974500868,0.1195312786102295,85.92561340332031,79.33814239501953,-3.295757293701172,97.66851043701172,-0.007069057888454861,0.111,0.3707142857142857,-0.006744215223524305,-2.4498793059082047,-2.186215060302736,47.54848861694336,0.07319412231445313,-0.17738075256347657
5081,-0.3409147474500868,0.1195312786102295,86.31431579589844,78.41752624511719,-2.641101837158203,97.85263061523438,-0.011615286933051215,0.10733333333333334,0.37,-0.008270009358723959,-2.186215060302736,-2.878332751342775,47.54848861694336,0.08774210611979166,-0.172152582804362
5082,-0.3409147474500868,0.1195312786102295,84.37080383300781,76.28990173339844,-2.866138458251953,97.87309265136719,-0.007978312174479167,0.10433333333333333,0.36964285714285716,-0.010253651936848959,-1.9445234709472672,-2.6586119108886734,47.54848861694336,0.08978780110677083,-0.1748803456624349
5083,-0.3682584974500868,0.1195312786102295,84.73905181884766,76.59677124023438,-3.643543243408203,97.75033569335938,0.002932612101236979,0.10033333333333333,0.36857142857142855,-0.013610415988498263,-1.9555078917236344,-1.4281813078613297,47.54848861694336,0.09046978420681423,-0.18215421040852864
5084,-0.3799772474500868,0.13945316314697265,85.06637573242188,79.21539306640625,-3.643543243408203,97.75033569335938,-0.0007043626573350694,0.098,0.3678571428571429,-0.015594058566623263,-1.9884668760986344,-0.10986007983398594,47.54848861694336,0.06501091851128472,-0.18215421040852864
5085,-0.3760709974500868,0.13945316314697265,87.58271789550781,82.16134643554688,-3.3366737365722656,97.83216857910156,-0.0054779052734375,0.09366666666666666,0.36714285714285716,-0.016021304660373263,-1.9664942198486344,0.16479000449180603,47.54848861694336,0.06023746066623264,-0.17965380350748697
5086,-0.3721647474500868,0.13945316314697265,85.65966796875,77.96745300292969,-1.7409477233886719,97.66851043701172,-0.013661109076605903,0.09066666666666667,0.36642857142857144,-0.015655093722873263,-1.9774805479736344,-0.9118391447753922,47.54848861694336,0.08546905517578125,-0.16010509067111545
5087,-0.3682584974500868,0.1195312786102295,83.79798889160156,77.90608215332031,-3.0502586364746094,97.81171417236328,-0.009569507175021702,0.08733333333333333,0.3657142857142857,-0.015685611300998263,-1.8566347532959,-0.9118391447753922,47.54848861694336,0.06546563042534723,-0.17624414232042102
5088,-0.3604459974500868,0.1195312786102295,86.08927917480469,77.35371398925781,-2.1501083374023438,97.89354705810547,-0.00297745598687066,0.08366666666666667,0.3653571428571429,-0.016478983561197917,-1.8126913481445328,0.04394400119781494,47.54848861694336,0.09706183539496528,-0.16715172661675348
5089,-0.3682584974500868,0.13945316314697265,85.78240966796875,79.9518814086914,-1.2499542236328125,97.83216857910156,-0.003886710272894965,0.081,0.36428571428571427,-0.016540018717447917,-1.8786074095459,0.6481740474700928,47.54848861694336,0.06478364732530383,-0.15646803114149305
5090,-0.3721647474500868,0.13945316314697265,85.0459213256836,77.72195434570312,-4.4209442138671875,97.64805603027344,-0.009342193603515625,0.078,0.36392857142857143,-0.016082339816623263,-1.9335371428222672,0.35155200958251953,47.54848861694336,0.08137741088867187,-0.18965555826822916
5091,-0.3799772474500868,0.1195312786102295,84.75950622558594,76.55585479736328,-4.645984649658203,97.89354705810547,-0.0066144307454427086,0.07433333333333333,0.36357142857142855,-0.015594058566623263,-1.8017050200195328,0.6591600179672241,47.54848861694336,0.09115168253580729,-0.19488368564181857
5092,-0.3877897474500868,0.1195312786102295,88.31919860839844,80.27920532226562,-4.66644287109375,97.87309265136719,-0.0054779052734375,0.07,0.3628571428571429,-0.014770083957248263,-1.9115644865722672,1.6369140148162842,47.54848861694336,0.08933325873480903,-0.19488372802734374
5093,-0.4112272474500868,0.13945316314697265,86.98943328857422,81.17935943603516,-4.768730163574219,97.77079772949219,0.0002048916286892361,0.06666666666666667,0.3628571428571429,-0.014800601535373263,-2.164242404052736,1.263390064239502,47.54848861694336,0.06455637613932291,-0.1948836432562934
5094,-0.3916959974500868,0.13945316314697265,85.57783508300781,77.4764633178711,-4.850563049316406,97.77079772949219,-0.01070603264702691,0.06266666666666666,0.3625,-0.013946109347873263,-2.3180471831054703,-0.01098694140625156,47.54848861694336,0.09001524183485243,-0.1957928975423177
5095,-0.3721647474500868,0.1195312786102295,85.92561340332031,78.58119201660156,-4.830104827880859,97.75033569335938,-0.012751854790581597,0.058666666666666666,0.3628571428571429,-0.01242031521267361,-2.4388929777832047,-0.3185945921630875,47.54848861694336,0.08160468207465278,-0.19533822801378037
5096,-0.3956022474500868,0.1195312786102295,85.33233642578125,77.8856201171875,-4.257282257080078,97.60713195800781,-0.004568650987413194,0.05466666666666667,0.3628571428571429,-0.01278652615017361,-2.526779788085939,-0.4504267149658219,47.54848861694336,0.08274129231770834,-0.18738238016764322
5097,-0.4307584974500868,0.1195312786102295,85.06637573242188,76.94454956054688,-4.216365814208984,97.48439025878906,-0.0075236850314670135,0.050666666666666665,0.3632142857142857,-0.013579898410373263,-2.2960745268554703,-0.2526785307617203,47.54848861694336,0.09024251302083333,-0.18556395636664497
5098,-0.3995084974500868,0.1195312786102295,84.61630249023438,76.69905853271484,-3.9913291931152344,97.58667755126953,-0.0007043626573350694,0.04633333333333333,0.3632142857142857,-0.014068179660373263,-1.9005781584472672,0.516342043876648,47.54848861694336,0.08796937730577258,-0.1842000749376085
5099,-0.3995084974500868,0.1195312786102295,85.20958709716797,78.84715270996094,-3.6026268005371094,97.2798080444336,-0.003886710272894965,0.042,0.36357142857142855,-0.013579898410373263,-1.8676210814209,1.1645159721374512,47.54848861694336,0.07069371541341146,-0.17647149827745226
5100,-0.3995084974500868,0.1195312786102295,86.58027648925781,80.97477722167969,-3.725372314453125,97.2798080444336,-0.003886710272894965,0.03933333333333333,0.36357142857142855,-0.01248135036892361,-1.5709978514404312,1.2963480949401855,47.54848861694336,0.0622833251953125,-0.17783533732096354
5101,-0.4112272474500868,0.1195312786102295,84.45263671875,80.70883178710938,-3.7662887573242188,97.66851043701172,-0.0050232781304253475,0.034666666666666665,0.3632142857142857,-0.010589345296223959,-1.2743765288085953,0.2526780068874359,47.54848861694336,0.04159783257378472,-0.18260887993706598
5102,-0.4268522474500868,0.09960939407348633,82.42729949951172,76.3921890258789,-3.520793914794922,97.46392822265625,-0.01002409193250868,0.030666666666666665,0.3632142857142857,-0.009673817952473959,-1.4062086516113297,-1.4062086516113297,47.54848861694336,0.06705678304036458,-0.17760802374945747
5103,-0.4385709974500868,0.07968751907348633,89.95584106445312,78.27432250976562,-3.868579864501953,97.46392822265625,-0.0050232781304253475,0.028333333333333332,0.36214285714285716,-0.009521230061848959,-0.9338098936767594,-0.2856375151367203,47.54848861694336,0.1297946506076389,-0.1814723120795356
5104,-0.4307584974500868,0.09960939407348633,84.22760009765625,79.80867004394531,-4.830104827880859,98.54820251464844,0.004296493530273437,0.024333333333333332,0.3610714285714286,-0.010253651936848959,-0.07690300280761875,0.1538040041923523,47.54848861694336,0.04909922281901042,-0.20420341491699218
5105,-0.4073209974500868,0.09960939407348633,87.0712661743164,76.06486511230469,-4.134532928466797,97.62759399414062,-0.0022955152723524307,0.021,0.3582142857142857,-0.009551747639973959,0.0,-0.2307058745117203,46.054359436035156,0.12229334513346354,-0.186245854695638
5106,-0.4307584974500868,0.07968751907348633,85.57783508300781,79.21539306640625,-4.605068206787109,98.42545318603516,-0.006159803602430555,0.018,0.35714285714285715,-0.008147939046223959,0.5932440161705017,0.3954960107803345,46.054359436035156,0.07069380018446181,-0.20033912658691405
5107,-0.4229459974500868,0.07968751907348633,86.0688247680664,81.0975341796875,-3.4594192504882812,98.17996215820312,-0.002522828843858507,0.015333333333333332,0.355,-0.007629224989149305,0.5822579860687256,0.5493000149726868,43.85710906982422,0.055236562093098955,-0.18488201565212672
5108,-0.4502897474500868,0.05976563930511475,84.554931640625,78.58119201660156,-2.641101837158203,96.66606140136719,-0.00843293931749132,0.012,0.3517857142857143,-0.006347486707899305,0.8349360227584839,-0.02197326953125156,43.85710906982422,0.06637488471137153,-0.1589684804280599
5109,-0.4893522474500868,0.05976563930511475,86.58027648925781,80.93386840820312,-1.2294998168945312,97.17752075195312,-0.0009316762288411458,0.009333333333333334,0.3482142857142857,-0.005584547254774305,1.4721240997314453,-0.13183273608398594,40.95674133300781,0.0627378675672743,-0.14896689520941842
5110,-0.5362272474500868,0.05976563930511475,84.67768096923828,76.65814208984375,-0.14522552490234375,95.68408203125,0.022254053751627603,0.007,0.3457142857142857,-0.006957838270399305,1.5490260124206543,-0.3845106535644547,29.706819534301758,0.08910598754882812,-0.12032563951280383
5111,-0.5401334974500868,0.05976563930511475,83.4501953125,80.85203552246094,1.0004234313964844,95.04988098144531,-0.0075236850314670135,0.005333333333333333,0.3410714285714286,-0.006622144911024305,1.966494083404541,-0.4174677305908219,26.103330612182617,0.02886844211154514,-0.10054952833387587
5112,-0.5284147474500868,0.05976563930511475,87.99187469482422,79.21539306640625,2.657520294189453,95.786376953125,0.015889358520507813,0.0036666666666666666,0.33785714285714286,-0.005615064832899305,2.197200059890747,-0.4723993712158219,26.015439987182617,0.09751646253797742,-0.0903206295437283
5113,-0.5596647474500868,0.03984375953674316,85.63920593261719,77.66058349609375,5.357978820800781,93.7201156616211,0.022254053751627603,0.002,0.33285714285714285,-0.0033873664008246527,2.274101972579956,-0.3405672484130875,26.015439987182617,0.08865136040581598,-0.03735707600911458
5114,-0.5010709974500868,0.01992187976837158,86.84622192382812,77.8856201171875,10.104232788085938,92.34942626953125,0.011115815904405382,0.0013333333333333333,0.33,-0.0010986328125,2.5707240104675293,0.010986000299453735,26.015439987182617,0.09956224229600695,0.030608961317274305
5115,-0.4620084974500868,0.01992187976837158,84.88226318359375,76.35127258300781,8.938129425048828,92.41080474853516,0.016343985663519967,0.0,0.32285714285714284,-0.0,1.6588860750198364,-0.7909933500976578,26.015439987182617,0.09478878445095486,0.01697027418348524
