,WD,WS,AIL_1,AIL_2,ELEV_1,ELEV_2,RUDD,ALT,GS,TH,PTCH,ROLL,PLA_1,AIL,ELEV
5708,0.13443778927408856,0.856640853881836,87.09172058105469,77.80378723144531,-4.052700042724609,90.32408142089844,-0.007978312174479167,0.5983333333333334,0.24642857142857144,0.035338338216145834,-1.153530734130861,-1.6918455534667984,44.99967956542969,0.10319925944010416,-0.10418646070692274
5709,0.13053153927408856,0.856640853881836,85.86424255371094,78.17203521728516,-3.5412521362304688,89.50576782226562,-0.0007043626573350694,0.5963333333333334,0.24642857142857144,0.03347685072157118,-1.6808592253417984,-0.9777552061767594,44.99967956542969,0.0854689704047309,-0.08941133287217883
5710,0.12662528927408856,0.856640853881836,85.88470458984375,79.60409545898438,-3.295757293701172,88.29874420166016,-0.004795964558919271,0.593,0.24678571428571427,0.03188993665907118,-1.560013430664064,0.24169200658798218,44.99967956542969,0.0697845458984375,-0.0732722388373481
5711,0.11881278927408856,0.8367189788818359,85.98699188232422,79.72684478759766,-2.1705665588378906,89.71034240722656,0.010888502332899305,0.5913333333333334,0.24714285714285714,0.029387580023871526,-0.3735243254394547,1.5490260124206543,44.99967956542969,0.06955718994140625,-0.07645454406738281
5712,0.11100028927408856,0.8367189788818359,86.0074462890625,79.68592834472656,-2.313770294189453,89.71034240722656,-0.003204769558376736,0.5886666666666667,0.24678571428571427,0.028227912055121526,0.12084600329399109,1.7467740774154663,44.99967956542969,0.0702390882703993,-0.07804569668240018
5713,0.11100028927408856,0.8167971038818359,86.02790832519531,79.60409545898438,-2.2114830017089844,89.83309936523438,-0.010251405504014757,0.587,0.24642857142857144,0.029143439398871526,-0.14281906420898594,1.647900104522705,44.99967956542969,0.07137569851345486,-0.07827313741048177
5714,0.11881278927408856,0.7769532775878907,86.02790832519531,79.70639038085938,-2.0069007873535156,90.28317260742188,-0.010478719075520834,0.586,0.24571428571428572,0.03131010267469618,-0.5053564482421891,1.4831100702285767,44.99967956542969,0.0702390882703993,-0.08100081549750435
5715,0.11490653927408856,0.7968751525878907,86.25294494628906,80.23829650878906,-1.3727035522460938,90.1195068359375,-0.004795964558919271,0.584,0.24535714285714286,0.03216459486219618,-1.0986010008544937,1.450152039527893,44.99967956542969,0.06682942708333334,-0.07213567097981771
5716,0.11490653927408856,0.7968751525878907,86.37569427490234,80.42241668701172,-5.505218505859375,90.1195068359375,-0.0050232781304253475,0.5813333333333334,0.24571428571428572,0.03347685072157118,-1.4501520567626969,1.3732500076293945,44.99967956542969,0.06614752875434028,-0.11805250379774306
5717,0.11490653927408856,0.7968751525878907,86.6007308959961,80.56562042236328,-5.464302062988281,89.54668426513672,-0.002522828843858507,0.58,0.24642857142857144,0.034148152669270834,-1.6808592253417984,1.3512780666351318,44.99967956542969,0.06705678304036458,-0.1112331814236111
5718,0.11100028927408856,0.7769532775878907,88.50332641601562,82.67279052734375,-5.096061706542969,89.2193603515625,0.002705298529730903,0.577,0.24678571428571427,0.03335478040907118,-1.8566347532959,1.0546560287475586,44.99967956542969,0.06478373209635417,-0.10350468953450521
5719,0.11100028927408856,0.8167971038818359,88.33966064453125,78.72439575195312,-5.096061706542969,90.569580078125,-0.02434471978081597,0.5743333333333334,0.24785714285714286,0.035033162434895834,-1.6039568358154312,-1.7577597075195328,44.99967956542969,0.10683627658420139,-0.11850713094075521
5720,0.12271903927408856,0.8167971038818359,86.58027648925781,78.13111877441406,-6.343997955322266,89.13752746582031,-0.007978312174479167,0.5716666666666667,0.24857142857142858,0.035887654622395834,-2.0433966093750016,-2.471850054809572,44.99967956542969,0.09387953016493056,-0.11646139356825087
5721,0.12662528927408856,0.7769532775878907,86.21202850341797,78.62211608886719,-5.280181884765625,90.05813598632812,-0.003204769558376736,0.5696666666666667,0.25035714285714283,0.033904012044270834,-2.0104395323486344,-1.7248026304931656,44.99967956542969,0.08433236016167535,-0.11487019856770833
5722,0.11881278927408856,0.7769532775878907,86.47798156738281,79.23585510253906,-5.300640106201172,89.567138671875,0.012707010904947916,0.5663333333333334,0.25142857142857145,0.029997931586371526,-2.0763555937500016,-1.1864878111572281,44.99967956542969,0.08046807183159722,-0.10964198642306858
5723,0.11881278927408856,0.8167971038818359,86.15065002441406,76.12623596191406,-5.055145263671875,89.91493225097656,-0.010251405504014757,0.564,0.25214285714285717,0.03097440931532118,-2.3729769163818375,-1.6808592253417984,44.99967956542969,0.11138237847222222,-0.11077863905164931
5724,0.13053153927408856,0.856640853881836,84.98455047607422,80.52470397949219,-5.11651611328125,90.69232940673828,-0.02434471978081597,0.56,0.25285714285714284,0.034209187825520834,-2.4059339934082047,-0.7470480375976578,44.99967956542969,0.04955384996202257,-0.12009828355577257
5725,0.13443778927408856,0.8367189788818359,87.1121826171875,81.05661010742188,-4.911937713623047,89.23981475830078,0.017935138278537325,0.5573333333333333,0.2532142857142857,0.034087117513020834,-2.9772058897705094,0.7580339908599854,44.99967956542969,0.06728413899739584,-0.10168613857693143
5726,0.11881278927408856,0.8367189788818359,87.15309143066406,81.05661010742188,-4.564151763916016,89.26026916503906,0.00225067138671875,0.5553333333333333,0.25357142857142856,0.030150519476996526,-2.4608656340332047,0.8349360227584839,44.99967956542969,0.06773868136935764,-0.0980491214328342
5727,0.11881278927408856,0.8167971038818359,87.23492431640625,81.0361557006836,-4.318656921386719,90.81507873535156,-0.019343863593207465,0.552,0.2532142857142857,0.03088285658094618,-1.3842359953613297,-0.4174677305908219,44.99967956542969,0.06887520684136285,-0.11259706285264758
5728,0.11881278927408856,0.7968751525878907,86.94851684570312,80.17691802978516,-4.850563049316406,90.671875,0.006796900431315104,0.549,0.2532142857142857,0.029296027289496526,-1.6259294920654312,-0.7360617094726578,44.99967956542969,0.07523998684353299,-0.11691597832573784
5729,0.11490653927408856,0.7769532775878907,86.662109375,75.34883117675781,-3.8890380859375,89.54668426513672,-0.010478719075520834,0.5463333333333333,0.25285714285714284,0.027068328857421876,-2.6146685057373062,-1.6039568358154312,44.99967956542969,0.12570309109157987,-0.0937302483452691
5730,0.11490653927408856,0.7769532775878907,83.4501953125,81.28164672851562,-4.4209442138671875,89.54668426513672,-0.0018409305148654514,0.542,0.25392857142857145,0.025603485107421876,-2.4279066496582047,-0.6152159147949234,44.99967956542969,0.024094984266493057,-0.09964031643337673
5731,0.10318778927408856,0.7769532775878907,87.39859008789062,80.58607482910156,-4.339115142822266,89.87400817871094,0.011570443047417535,0.5396666666666666,0.2542857142857143,0.02319268120659722,-1.7907186918945328,0.6921180486679077,44.99967956542969,0.07569461398654515,-0.10236803690592448
5732,0.10709403927408856,0.7769532775878907,87.31675720214844,79.97233581542969,-4.298198699951172,90.09904479980469,-0.00297745598687066,0.5353333333333333,0.2542857142857143,0.02365044487847222,-1.538040774414064,-0.05493034655761875,44.99967956542969,0.08160468207465278,-0.104413816663954
5733,0.11100028927408856,0.7769532775878907,87.25538635253906,79.82913208007812,-4.236824035644531,89.99675750732422,-0.009796820746527778,0.5326666666666666,0.2542857142857143,0.025420379638671876,-1.7687460356445328,-0.10986007983398594,44.99967956542969,0.08251393636067708,-0.10259535047743056
5734,0.10709403927408856,0.8167971038818359,87.25538635253906,83.96165466308594,-4.134532928466797,89.99675750732422,0.0015687730577256945,0.5286666666666666,0.2542857142857143,0.025267791748046876,-2.0214239531250016,0.2746500074863434,44.99967956542969,0.03659701877170139,-0.10145878261990017
5735,0.10709403927408856,0.7769532775878907,89.6080551147461,81.0361557006836,-3.9708709716796875,89.91493225097656,-0.006159803602430555,0.5253333333333333,0.2542857142857143,0.02343682183159722,-2.230158465454103,-1.9005781584472672,44.99967956542969,0.09524332682291667,-0.09873114691840278
5736,0.11100028927408856,0.7968751525878907,87.43951416015625,76.35127258300781,-4.11407470703125,89.85355377197266,-0.020707745022243925,0.522,0.255,0.02328423394097222,-2.197201388427736,-5.229336398193361,44.99967956542969,0.12320268419053819,-0.09964031643337673
5737,0.11881278927408856,0.8167971038818359,82.14088439941406,77.92654418945312,-4.298198699951172,89.62850952148438,-0.013661109076605903,0.5176666666666667,0.2557142857142857,0.02093446519639757,-2.186215060302736,-4.4383455687255875,44.99967956542969,0.046826002332899304,-0.09918564690483941
5738,0.11100028927408856,0.7570314025878906,85.76194763183594,80.27920532226562,-4.5846099853515625,89.2193603515625,0.020435587565104166,0.5146666666666667,0.2567857142857143,0.015197330050998263,-2.0543829375000016,-0.6262022429199234,44.99967956542969,0.06091935899522569,-0.09782189263237848
5739,0.09537528927408856,0.7570314025878906,87.27584838867188,78.04928588867188,-4.5846099853515625,89.85355377197266,0.001341459486219618,0.512,0.2571428571428571,0.010070546468098959,-1.7797323637695328,0.17577600479125977,44.99967956542969,0.10251736111111111,-0.10486848619249133
5740,0.09928153927408856,0.6972657775878907,85.80287170410156,78.8880615234375,-4.66644287109375,89.48530578613281,0.001341459486219618,0.5086666666666667,0.2571428571428571,0.009368642171223959,-1.7138163023681656,1.0766279697418213,44.99967956542969,0.07683122422960069,-0.10168609619140626
5741,0.08756278927408856,0.7371095275878906,85.88470458984375,75.75799560546875,-4.605068206787109,89.40347290039062,0.005887646145290798,0.5043333333333333,0.2575,0.008331044514973959,-1.6808592253417984,1.032684087753296,44.99967956542969,0.11251898871527778,-0.10009490119086371
5742,0.07975028927408856,0.7371095275878906,84.02302551269531,76.06486511230469,-4.543693542480469,88.36012268066406,-0.01002409193250868,0.5006666666666667,0.25821428571428573,0.007507154676649305,-1.7028299742431656,1.6039559841156006,44.99967956542969,0.08842400444878472,-0.08782018025716146
5743,0.08756278927408856,0.6972657775878907,84.24806213378906,79.84959411621094,-3.725372314453125,89.83309936523438,-0.004114023844401042,0.49866666666666665,0.25857142857142856,0.010650380452473959,-0.7250772886962906,2.592696189880371,44.99967956542969,0.04887186686197917,-0.09509412977430555
5744,0.09537528927408856,0.6773439025878907,87.86912536621094,82.32501220703125,-4.502777099609375,90.1604232788086,-0.0013863033718532986,0.49666666666666665,0.25821428571428573,0.01364101833767361,-0.5822588377685562,2.8673460483551025,44.99967956542969,0.06160125732421875,-0.10736889309353298
5745,0.09537528927408856,0.7171876525878906,89.40347290039062,76.51493835449219,-4.625526428222656,88.29874420166016,-0.01070603264702691,0.494,0.2575,0.017058817545572917,-1.3073355131835953,0.9118380546569824,44.99967956542969,0.14320593939887152,-0.08804745144314235
5746,0.10318778927408856,0.7371095275878906,84.71859741210938,79.80867004394531,-4.154991149902344,90.13996887207031,-0.010251405504014757,0.49133333333333334,0.2575,0.02004945543077257,-1.0107122832031266,0.5932440161705017,44.99967956542969,0.05455474853515625,-0.10327733357747396
5747,0.11100028927408856,0.7371095275878906,87.54179382324219,81.5066909790039,-4.8914794921875,90.03767395019531,-0.0022955152723524307,0.48933333333333334,0.2571428571428571,0.02282647026909722,-0.6371885710449234,1.0766279697418213,44.99967956542969,0.06705669826931424,-0.1103239271375868
5748,0.11881278927408856,0.6972657775878907,87.31675720214844,78.84715270996094,-4.871021270751953,89.48530578613281,-0.01616151597764757,0.487,0.2567857142857143,0.02474907769097222,-1.1095873289794937,0.4064820110797882,44.99967956542969,0.09410671657986111,-0.10395918952094184
5749,0.10709403927408856,0.7570314025878906,86.96897888183594,80.0950927734375,-4.871021270751953,89.19889831542969,0.016798612806532116,0.48533333333333334,0.25642857142857145,0.02355889214409722,-1.3073355131835953,1.2853620052337646,44.99967956542969,0.0763765123155382,-0.10077688429090711
5750,0.09928153927408856,0.7769532775878907,87.0098876953125,79.13356018066406,-4.932395935058594,89.93538665771484,-0.0018409305148654514,0.48333333333333334,0.25607142857142856,0.02316216362847222,-0.7800070219726578,1.1095860004425049,44.99967956542969,0.08751475016276042,-0.10964202880859375
5751,0.11100028927408856,0.7371095275878906,87.19401550292969,83.0410385131836,-5.177890777587891,89.32164001464844,-0.009114880032009548,0.48133333333333334,0.255,0.026213836669921876,-0.6371885710449234,1.4171940088272095,44.99967956542969,0.046144188774956595,-0.10555034213595921
5752,0.11100028927408856,0.6972657775878907,86.72348022460938,78.58119201660156,-5.177890777587891,89.0147705078125,0.002932612101236979,0.47933333333333333,0.2542857142857143,0.025725555419921876,-1.1095873289794937,0.6921180486679077,45.17546081542969,0.09046986897786459,-0.10214068094889323
5753,0.11881278927408856,0.6574220275878906,86.86668395996094,76.86272430419922,-5.157432556152344,89.46485137939453,-0.010251405504014757,0.47933333333333333,0.25392857142857145,0.026335906982421876,-0.19774879748535312,-1.4831110411376969,44.99967956542969,0.11115510728624133,-0.10691426595052084
5754,0.14615653927408856,0.6574220275878906,83.0410385131836,79.29722595214844,-5.11651611328125,88.564697265625,-0.023435465494791665,0.4723333333333333,0.2557142857142857,0.03109647962782118,-0.7470480375976578,-0.4504267149658219,44.99967956542969,0.04159791734483507,-0.09645792643229166
5755,0.12271903927408856,0.6175782775878906,85.96653747558594,81.24073791503906,-4.052700042724609,87.76683807373047,0.019753646850585938,0.4716666666666667,0.2567857142857143,0.02481011284722222,-1.2524038725585953,3.3397440910339355,44.91178894042969,0.05250888400607639,-0.07577264573838975
5756,0.06803153927408856,0.6773439025878907,87.29630279541016,81.13844299316406,-4.318656921386719,90.73324584960938,0.019753646850585938,0.469,0.2571428571428571,0.016082339816623263,-0.7360617094726578,3.691296100616455,44.99967956542969,0.06842066446940104,-0.11168780856662326
5757,0.06021903927408856,0.6773439025878907,87.50088500976562,81.11798858642578,-6.609951019287109,90.13996887207031,-0.023662779066297743,0.466,0.2571428571428571,0.017577616373697917,-0.856909411499025,1.3622640371322632,44.99967956542969,0.0709210713704427,-0.1305546654595269
5758,0.09146903927408856,0.7171876525878906,85.90515899658203,77.14913940429688,-5.034687042236328,89.0761489868164,-0.028890948825412325,0.4653333333333333,0.25785714285714284,0.025756072998046876,-1.4501520567626969,-0.6262022429199234,44.99967956542969,0.09728910658094618,-0.10123151143391927
5759,0.10318778927408856,0.7371095275878906,85.94607543945312,79.4813461303711,-5.1983489990234375,90.0785903930664,-0.007296371459960938,0.4633333333333333,0.25785714285714284,0.029479132758246526,-0.7909933500976578,0.0,44.99967956542969,0.07183032565646702,-0.11418821546766493
5760,0.09928153927408856,0.7171876525878906,85.63920593261719,79.82913208007812,-5.484760284423828,89.93538665771484,-0.002068201700846354,0.461,0.25785714285714284,0.027892303466796876,-0.5932451658935562,0.5932440161705017,45.52701950073242,0.06455637613932291,-0.11577941046820747
5761,0.09146903927408856,0.7769532775878907,86.37569427490234,79.91096496582031,-5.321098327636719,90.2218017578125,-0.002522828843858507,0.46,0.2575,0.027068328857421876,-0.7580343657226578,0.3076080083847046,45.79069137573242,0.07183032565646702,-0.1171433342827691
5762,0.09537528927408856,0.7769532775878907,85.92561340332031,78.00836944580078,-5.832546234130859,90.83554077148438,-0.012297227647569445,0.4583333333333333,0.2575,0.028197394476996526,-1.0107122832031266,-0.4064833098144547,45.79069137573242,0.08796937730577258,-0.12964541117350262
5763,0.10709403927408856,0.7171876525878906,85.80287170410156,78.62211608886719,-5.955295562744141,90.28317260742188,-0.001613616943359375,0.45666666666666667,0.2571428571428571,0.028960333930121526,-1.6149431639404312,0.747048020362854,45.79069137573242,0.07978617350260417,-0.12487186855740018
5764,0.09146903927408856,0.7171876525878906,86.17111206054688,80.11553955078125,-5.627967834472656,89.23981475830078,0.018617078993055557,0.4543333333333333,0.25821428571428573,0.026976776123046876,-2.537766116210939,2.4608640670776367,45.79069137573242,0.06728413899739584,-0.10964202880859375
5765,0.08756278927408856,0.7171876525878906,86.15065002441406,79.58363342285156,-5.505218505859375,89.6080551147461,-0.008660252888997395,0.4533333333333333,0.2592857142857143,0.028227912055121526,-2.208185809204103,2.120298147201538,45.79069137573242,0.07296685112847222,-0.11236970689561632
5766,0.09928153927408856,0.6972657775878907,85.5982894897461,78.45845031738281,-5.484760284423828,90.52867126464844,-0.013433795505099827,0.45066666666666666,0.2596428571428571,0.03143217298719618,-1.3732515745849625,1.494096040725708,45.966468811035156,0.07933154635959201,-0.12237146165635851
5767,0.10709403927408856,0.6972657775878907,85.68012237548828,81.40440368652344,-5.7507171630859375,90.46729278564453,-0.004114023844401042,0.4483333333333333,0.26,0.034239705403645834,-1.0876146727294937,2.603682041168213,45.79069137573242,0.047507985432942705,-0.1246445549858941
5768,0.09146903927408856,0.7171876525878906,87.39859008789062,80.29966735839844,-5.5870513916015625,89.73080444335938,0.013388951619466146,0.44433333333333336,0.2596428571428571,0.03356840345594618,-1.505081790039064,2.922276020050049,45.79069137573242,0.07887691921657985,-0.11464284261067709
5769,0.08756278927408856,0.6574220275878906,87.17355346679688,87.93049621582031,-5.546134948730469,89.17843627929688,-0.0018409305148654514,0.441,0.2596428571428571,0.034422810872395834,-1.0107122832031266,3.29580020904541,45.79069137573242,-0.008410474989149305,-0.10805079142252604
5770,0.05631278927408856,0.5976564025878907,94.04743957519531,80.52470397949219,-5.627967834472656,89.50576782226562,0.0065695868598090275,0.439,0.26071428571428573,0.028380499945746526,-0.6811319761962906,-0.3405672484130875,45.79069137573242,0.15025261773003473,-0.11259706285264758
5771,0.05631278927408856,0.7171876525878906,88.19645690917969,75.96257019042969,-5.505218505859375,89.40347290039062,-0.028436321682400175,0.43433333333333335,0.26107142857142857,0.028105841742621526,-1.8126913481445328,-4.548205035278322,45.79069137573242,0.1359320746527778,-0.11009657118055556
5772,0.08756278927408856,0.6972657775878907,83.30699157714844,77.80378723144531,-5.3620147705078125,90.569580078125,-0.028436321682400175,0.433,0.26285714285714284,0.030699835883246526,-1.7357889586181656,-5.251309054443361,47.284820556640625,0.061146714952256945,-0.12146216498480902
5773,0.09928153927408856,0.6574220275878906,84.18669128417969,79.80867004394531,-5.627967834472656,89.36256408691406,0.0036145528157552082,0.43033333333333335,0.26357142857142857,0.029082404242621526,-1.527054446289064,-3.559464114257814,47.46059799194336,0.04864468044704861,-0.1110059102376302
5774,0.08756278927408856,0.6574220275878906,86.53935241699219,80.42241668701172,-5.44384765625,91.65385437011719,-0.0059324900309244795,0.426,0.265,0.02395562065972222,-1.2633902006835953,-2.6476274901123062,47.46059799194336,0.06796595255533854,-0.13441891140407985
5775,0.07193778927408856,0.6574220275878906,86.41661071777344,77.61967468261719,-7.039569854736328,88.6056137084961,0.012025070190429688,0.4226666666666667,0.26535714285714285,0.017943827311197917,-2.867346423217775,-2.6915708952636734,47.54848861694336,0.09774373372395834,-0.11827981736924913
5776,0.07584403927408856,0.6175782775878906,85.63920593261719,76.96501159667969,-5.525676727294922,91.06057739257812,-0.005705218844943577,0.419,0.26821428571428574,0.015533023410373263,-2.845373766967775,-3.7462259703369156,47.46059799194336,0.09637993706597223,-0.1287361568874783
5777,0.11490653927408856,0.5777345275878907,84.77996826171875,79.4813461303711,-6.303081512451172,89.66943359375,-0.028890948825412325,0.4166666666666667,0.27,0.01943910386827257,-3.0870672636718766,-3.4825636320800797,47.46059799194336,0.05887357923719618,-0.12191683451334635
5778,0.11881278927408856,0.6175782775878906,87.31675720214844,84.30943298339844,-6.262165069580078,90.2218017578125,0.004296493530273437,0.41,0.2725,0.01977479722764757,-2.900305407592775,-0.7250772886962906,47.46059799194336,0.03341471354166667,-0.1275996314154731
5779,0.09146903927408856,0.5378907394409179,90.89691162109375,75.30791473388672,-6.303081512451172,89.0147705078125,0.02020827399359809,0.4063333333333333,0.27464285714285713,0.01095547146267361,-3.91101707751465,-2.526779788085939,47.46059799194336,0.17321107652452256,-0.11464280022515191
5780,0.08756278927408856,0.6175782775878906,83.5115737915039,76.35127258300781,-5.66888427734375,89.40347290039062,-0.027754380967881943,0.401,0.2789285714285714,0.010253651936848959,-4.097778933593752,-3.0101648741455094,47.46059799194336,0.07955890231662327,-0.11191507975260416
5781,0.09146903927408856,0.5777345275878907,83.90027618408203,80.05416870117188,-5.955295562744141,90.38545989990234,0.01770782470703125,0.397,0.2814285714285714,0.006988355848524305,-3.3836885863037125,-0.8898664885253922,47.46059799194336,0.042734527587890626,-0.1260083940294054
5782,0.09537528927408856,0.5578126525878906,86.17111206054688,75.65570068359375,-6.384914398193359,89.99675750732422,-0.009114880032009548,0.391,0.2839285714285714,0.006103346082899305,-3.229883807250978,-2.0543829375000016,47.46059799194336,0.11683790418836805,-0.12646302117241753
5783,0.12271903927408856,0.5777345275878907,83.98210144042969,80.9543228149414,-6.221248626708984,89.1579818725586,-0.02684512668185764,0.386,0.2860714285714286,0.010253651936848959,-3.3177725249023453,-2.153256075927736,47.46059799194336,0.03364198472764757,-0.11532478332519532
5784,0.13834403927408856,0.5578126525878906,87.72592163085938,80.74974060058594,-5.853004455566406,89.58760070800781,-0.005250591701931423,0.38066666666666665,0.28964285714285715,0.01177944607204861,-2.900305407592775,-2.4059339934082047,47.46059799194336,0.07751312255859374,-0.11600672403971354
5785,0.13053153927408856,0.5777345275878907,87.09172058105469,80.27920532226562,-5.853004455566406,90.48774719238281,0.004523807101779514,0.37566666666666665,0.2914285714285714,0.008666737874348959,-2.559738772460939,-1.8017050200195328,47.46059799194336,0.07569461398654515,-0.12600835164388022
5786,0.09146903927408856,0.6375001525878906,87.03034973144531,80.15646362304688,-6.057586669921875,90.30363464355469,0.009751976860894098,0.37266666666666665,0.2935714285714286,0.000946044921875,-3.1310106688232437,-1.9994532042236344,47.46059799194336,0.0763765123155382,-0.1262357923719618
5787,0.09146903927408856,0.5976564025878907,87.0098876953125,76.10577392578125,-6.057586669921875,91.1219482421875,-0.014797634548611112,0.368,0.29464285714285715,-0.0020445929633246527,-2.9881922178955094,-2.7245279722900406,47.46059799194336,0.12115681966145833,-0.13532816569010417
5788,0.07975028927408856,0.6175782775878906,86.29386138916016,79.64501190185547,-6.773616790771484,90.79461669921875,0.009524663289388021,0.36666666666666664,0.2957142857142857,-0.005187818739149305,-3.1200243406982437,0.4284540116786957,47.46059799194336,0.07387610541449653,-0.13964703877766926
5789,0.06412528927408856,0.6175782775878906,83.38882446289062,81.52714538574219,-6.425830841064453,90.13996887207031,-0.007296371459960938,0.36233333333333334,0.2960714285714286,-0.007995351155598959,-3.273829119750978,1.263390064239502,47.46059799194336,0.020685323079427085,-0.1285088857014974
5790,0.07193778927408856,0.5976564025878907,88.21691131591797,78.72439575195312,-6.773616790771484,91.2242431640625,-0.01547957526312934,0.3596666666666667,0.29678571428571426,-0.004791090223524305,-2.7245279722900406,0.7360620498657227,47.46059799194336,0.10547239515516493,-0.14442066616482205
5791,0.08756278927408856,0.5976564025878907,85.5982894897461,75.9216537475586,-6.528118133544922,90.6309585571289,-0.01252454121907552,0.357,0.29714285714285715,-0.0022276984320746527,-3.0650946074218766,-0.7690206938476578,47.46059799194336,0.10751817491319444,-0.1351008521185981
5792,0.11490653927408856,0.6175782775878906,84.90271759033203,82.59095764160156,-6.1394195556640625,91.75614929199219,-0.02729975382486979,0.3536666666666667,0.2978571428571429,0.0035704718695746527,-2.581711428710939,0.7360620498657227,47.46059799194336,0.025686221652560765,-0.14328409830729166
5793,0.10709403927408856,0.5976564025878907,88.83065795898438,83.36836242675781,-7.203235626220703,90.81507873535156,0.01952633327907986,0.351,0.2978571428571429,0.001953125,-2.3839632445068375,3.218898057937622,47.46059799194336,0.06069217258029514,-0.14464793735080295
5794,0.09928153927408856,0.5378907394409179,89.09660339355469,79.17447662353516,-6.794075012207031,89.85355377197266,-0.01843460930718316,0.3476666666666667,0.2978571428571429,0.0008544921875,-3.240870135375978,1.9445220232009888,47.46059799194336,0.11024585300021701,-0.12941809760199652
5795,0.06803153927408856,0.5777345275878907,88.6056137084961,78.43798828125,-6.384914398193359,90.59004211425781,0.019980960422092013,0.347,0.29892857142857143,-0.0028380499945746527,-3.0541082792968766,1.5270540714263916,47.46059799194336,0.11297361585828992,-0.13305507236056857
5796,0.07193778927408856,0.5777345275878907,86.1097412109375,78.02882385253906,-6.794075012207031,91.04011535644531,-0.02866363525390625,0.3436666666666667,0.3003571428571429,-0.000457763671875,-2.790444033691408,-0.7140909605712906,47.46059799194336,0.08978797064887153,-0.14260211520724828
5797,0.10709403927408856,0.5578126525878906,86.17111206054688,81.07707214355469,-6.8963623046875,90.26271057128906,0.0024779849582248262,0.3413333333333333,0.3007142857142857,0.0036620246039496527,-3.4715773039550797,0.45042601227760315,47.46059799194336,0.05660044352213542,-0.13510080973307292
5798,0.10318778927408856,0.5378907394409179,92.55400848388672,81.26119232177734,-6.528118133544922,89.77172088623047,0.019299019707573785,0.3396666666666667,0.30214285714285716,0.0036620246039496527,-3.526507037231447,2.4718501567840576,47.46059799194336,0.1254757351345486,-0.12555376688639322
5799,0.09537528927408856,0.5378907394409179,86.37569427490234,77.80378723144531,-6.507663726806641,91.38790130615234,-0.0075236850314670135,0.3363333333333333,0.3032142857142857,0.0033263312445746527,-2.955235140869142,0.05493000149726868,47.46059799194336,0.09524341159396701,-0.1432840559217665
5800,0.11490653927408856,0.5578126525878906,86.29386138916016,79.4404296875,-6.834991455078125,91.28561401367188,-0.020480431450737847,0.33166666666666667,0.30392857142857144,0.008483632405598959,-3.185940402099611,0.7580339908599854,47.46059799194336,0.07614924112955729,-0.14578450520833333
5801,0.08365653927408856,0.5777345275878907,87.74638366699219,79.68592834472656,-6.7531585693359375,90.44683837890625,0.01952633327907986,0.331,0.30464285714285716,0.003997717963324653,-3.954960482666017,1.0107120275497437,47.46059799194336,0.08956061469184028,-0.1355555216471354
5802,0.09146903927408856,0.45820323944091795,83.94119262695312,74.42822265625,-6.67132568359375,90.91737365722656,-0.012297227647569445,0.3283333333333333,0.30607142857142855,0.002349853515625,-3.504534380981447,-1.7028299742431656,47.46059799194336,0.10569966634114583,-0.13987443712022568
5803,0.10709403927408856,0.5179688644409179,84.98455047607422,79.19493103027344,-6.650867462158203,90.75370788574219,-0.02093505859375,0.32466666666666666,0.3067857142857143,0.005309889051649305,-3.185940402099611,-0.49437012011718906,47.46059799194336,0.06432910495334201,-0.137828614976671
5804,0.09537528927408856,0.49804698944091796,85.29141998291016,79.93142700195312,-6.5894927978515625,90.81507873535156,0.019299019707573785,0.32366666666666666,0.3082142857142857,0.0027464972601996527,-3.0431219511718766,1.1315580606460571,47.46059799194336,0.05955547756618924,-0.13782857259114584
5805,0.06803153927408856,0.5578126525878906,86.23248291015625,77.02638244628906,-7.407814025878906,90.97874450683594,-0.002750142415364583,0.31866666666666665,0.30892857142857144,0.000335693359375,-3.207913058349611,-0.3185945921630875,47.46059799194336,0.10229000515407986,-0.14873953925238714
5806,0.07975028927408856,0.5578126525878906,82.85691833496094,74.96012878417969,-6.937278747558594,92.06301879882812,-0.015706888834635415,0.31666666666666665,0.3092857142857143,0.0015869140625,-3.6803099089355484,-0.7580343657226578,47.46059799194336,0.08774210611979166,-0.1555588616265191
5807,0.10709403927408856,0.5378907394409179,83.28652954101562,79.56317901611328,-7.469188690185547,92.2266845703125,0.008388095431857638,0.31333333333333335,0.3092857142857143,0.004852210150824653,-3.867073672363283,1.8786060810089111,47.46059799194336,0.04137056138780382,-0.16328748067220053
5808,0.12662528927408856,0.478125114440918,85.84378051757812,79.542724609375,-7.551021575927734,91.32653045654297,-0.014570320977105035,0.31133333333333335,0.31035714285714283,0.008300526936848959,-4.691023486206056,1.8456480503082275,47.46059799194336,0.07001173231336806,-0.15419502258300782
5809,0.13834403927408856,0.478125114440918,85.72103881835938,78.4789047241211,-7.203235626220703,91.04011535644531,-0.006841744316948784,0.30733333333333335,0.31214285714285717,0.01132168240017361,-5.306238787719728,1.6808580160140991,44.91178894042969,0.08046815660264757,-0.14714834425184461
5810,0.13443778927408856,0.478125114440918,85.5982894897461,80.77020263671875,-6.303081512451172,90.18087768554688,0.009524663289388021,0.30333333333333334,0.31357142857142856,0.01113857693142361,-5.51497330004883,3.790170192718506,44.91178894042969,0.0536454094780816,-0.12759954664442275
5811,0.07975028927408856,0.5378907394409179,91.83798217773438,77.23097229003906,-6.67132568359375,92.574462890625,0.019753646850585938,0.2976666666666667,0.31392857142857145,0.007446119520399305,-4.614121096679689,3.163968086242676,44.82389831542969,0.16230010986328125,-0.15828653971354167
5812,0.10318778927408856,0.5578126525878906,84.16622924804688,79.542724609375,-7.816974639892578,90.50820922851562,-0.02866363525390625,0.2926666666666667,0.31285714285714283,0.01336636013454861,-5.547930377075197,0.4064820110797882,44.82389831542969,0.05137227376302083,-0.14805759853786893
5813,0.11490653927408856,0.5578126525878906,86.88714599609375,80.85203552246094,-6.916820526123047,90.75370788574219,-0.0013863033718532986,0.2866666666666667,0.31357142857142856,0.016753641764322917,-5.130463259765627,0.9997260570526123,44.82389831542969,0.06705678304036458,-0.14078364902072482
5814,0.10709403927408856,0.49804698944091796,86.96897888183594,80.60653686523438,-6.957736968994141,90.93782806396484,0.01657129923502604,0.2826666666666667,0.31357142857142856,0.014037662082248263,-5.020601885864259,1.2743760347366333,44.82389831542969,0.07069380018446181,-0.1432840559217665
5815,0.09146903927408856,0.478125114440918,86.90760040283203,80.36103820800781,-6.8963623046875,91.30607604980469,0.006342273288302952,0.2786666666666667,0.3142857142857143,0.01116909450954861,-5.097504275390627,1.0436700582504272,44.82389831542969,0.07273957994249132,-0.14669375949435765
5816,0.07584403927408856,0.478125114440918,86.80531311035156,80.34058380126953,-6.937278747558594,90.1195068359375,0.0015687730577256945,0.275,0.3142857142857143,0.009521230061848959,-5.51497330004883,0.8349360227584839,44.12078094482422,0.07183032565646702,-0.1339642842610677
5817,0.07193778927408856,0.478125114440918,85.70057678222656,78.31524658203125,-6.5894927978515625,89.17843627929688,-0.010933346218532987,0.2703333333333333,0.3142857142857143,0.009032948811848959,-5.075533526489259,-0.2856375151367203,43.153987884521484,0.08205922444661458,-0.11964365641276041
5818,0.08756278927408856,0.45820323944091795,86.04837036132812,80.56562042236328,-5.996212005615234,91.46973419189453,-0.01252454121907552,0.266,0.31464285714285717,0.010711415608723959,-3.6143938475341812,-0.6481748991699234,43.241878509521484,0.06091944376627604,-0.13851051330566405
5819,0.09537528927408856,0.49804698944091796,86.86668395996094,77.4764633178711,-6.5894927978515625,90.569580078125,-0.013661109076605903,0.261,0.31357142857142856,0.01180996365017361,-3.7242552214355484,-1.3293062620849625,43.241878509521484,0.10433578491210938,-0.13510080973307292
5820,0.09537528927408856,0.5179688644409179,85.78240966796875,83.08195495605469,-6.262165069580078,90.48774719238281,-0.006159803602430555,0.25766666666666665,0.31142857142857144,0.01150478786892361,-3.7242552214355484,-0.2636648588867203,43.241878509521484,0.030005052354600693,-0.13055458068847656
5821,0.08365653927408856,0.49804698944091796,90.24225616455078,80.42241668701172,-6.323539733886719,90.91737365722656,-0.009569507175021702,0.25366666666666665,0.31035714285714283,0.008849843343098959,-3.7462259703369156,-0.801977770874025,43.153987884521484,0.1091093275282118,-0.13601014879014756
5822,0.06021903927408856,0.5179688644409179,87.27584838867188,80.19737243652344,-6.323539733886719,89.48530578613281,-0.0022955152723524307,0.25333333333333335,0.3092857142857143,0.004211341010199653,-4.152708666870119,-0.6591612272949234,43.153987884521484,0.0786497328016493,-0.12009828355577257
5823,0.07584403927408856,0.49804698944091796,87.62362670898438,82.01814270019531,-4.952854156494141,92.14485168457031,-0.027754380967881943,0.25166666666666665,0.3082142857142857,0.006286451551649305,-3.196926730224611,-0.845923083374025,43.241878509521484,0.062283155653211804,-0.13441895378960503
5824,0.08756278927408856,0.478125114440918,88.0123291015625,77.3946304321289,-7.346439361572266,90.71278381347656,-0.0013863033718532986,0.249,0.30607142857142855,0.006561109754774305,-3.3067861967773453,-1.1864878111572281,43.241878509521484,0.11797442966037326,-0.14510247972276474
5825,0.09146903927408856,0.478125114440918,85.39370727539062,81.60897827148438,-6.118961334228516,88.29874420166016,0.0015687730577256945,0.24633333333333332,0.3053571428571429,0.006194898817274305,-3.7462259703369156,0.16479000449180603,43.241878509521484,0.042052544487847225,-0.10464117262098524
5826,0.09146903927408856,0.438281364440918,87.5213394165039,77.29234313964844,-6.691783905029297,91.69477844238281,0.006114959716796875,0.24366666666666667,0.30392857142857144,0.005431959364149305,-2.526779788085939,-0.8678938322753922,43.241878509521484,0.11365551418728298,-0.14873958163791232
5827,0.11881278927408856,0.478125114440918,82.79554748535156,78.3970718383789,-6.7531585693359375,90.1195068359375,-0.019343863593207465,0.241,0.30178571428571427,0.009887440999348959,-2.9991785460205094,-1.0216986113281266,43.241878509521484,0.048871951633029515,-0.1319185045030382
5828,0.10709403927408856,0.45820323944091795,85.90515899658203,81.01570129394531,-5.648426055908203,91.10148620605469,0.01952633327907986,0.23633333333333334,0.3003571428571429,0.007598707411024305,-2.856360095092775,1.7138160467147827,43.153987884521484,0.054327307807074655,-0.13055458068847656
5829,0.06412528927408856,0.478125114440918,87.13264465332031,80.27920532226562,-6.425830841064453,90.03767395019531,0.01475279066297743,0.23233333333333334,0.29964285714285716,0.00164794921875,-3.932987826416017,1.4831100702285767,43.153987884521484,0.07614932590060763,-0.12737227545844185
5830,0.05631278927408856,0.5179688644409179,86.6007308959961,77.80378723144531,-5.627967834472656,89.1170654296875,-0.02729975382486979,0.23033333333333333,0.29892857142857143,0.0025023566351996527,-4.4273592406005875,-0.3295809202880875,43.241878509521484,0.09774381849500868,-0.1082781473795573
5831,0.06021903927408856,0.5179688644409179,84.73905181884766,84.26852416992188,-5.689342498779297,90.79461669921875,-0.0022955152723524307,0.226,0.29928571428571427,0.0028685675726996527,-3.6803099089355484,1.4171940088272095,43.241878509521484,0.005228084988064236,-0.12759954664442275
5832,0.036781539274088636,0.5179688644409179,90.30363464355469,77.92654418945312,-6.794075012207031,91.04011535644531,0.0004322052001953125,0.22266666666666668,0.2978571428571429,-0.00048819647894965276,-4.273554461547853,0.17577600479125977,43.241878509521484,0.13752322726779515,-0.14260211520724828
5833,0.05240653927408856,0.5179688644409179,84.96409606933594,76.22852325439453,-7.1418609619140625,90.75370788574219,-0.02866363525390625,0.21966666666666668,0.2978571428571429,0.0020751953125,-4.767923968383791,-0.9887415343017594,43.241878509521484,0.09706192016601563,-0.14328409830729166
5834,0.06412528927408856,0.49804698944091796,84.37080383300781,79.13356018066406,-5.648426055908203,88.38057708740234,-0.001613616943359375,0.216,0.2982142857142857,0.0030821906195746527,-5.4490572386474625,-0.03295769030761875,43.241878509521484,0.05819159613715278,-0.10032225714789497
5835,0.07975028927408856,0.478125114440918,86.15065002441406,79.72684478759766,-5.648426055908203,91.28561401367188,-0.012297227647569445,0.21133333333333335,0.2985714285714286,0.005889723036024305,-3.834114687988283,0.373524010181427,43.241878509521484,0.07137561374240452,-0.13260044521755643
5836,0.10318778927408856,0.45820323944091795,85.94607543945312,79.8905029296875,-6.241706848144531,88.64653015136719,-0.01729808383517795,0.20733333333333334,0.2982142857142857,0.009124501546223959,-3.954960482666017,0.2526780068874359,43.241878509521484,0.06728413899739584,-0.10986929999457465
5837,0.09537528927408856,0.478125114440918,85.84378051757812,77.21051025390625,-4.298198699951172,90.71278381347656,-0.0018409305148654514,0.20266666666666666,0.2982142857142857,0.008331044514973959,-3.174954073974611,-0.4284540587158219,43.241878509521484,0.09592522515190972,-0.11123313903808593
5838,0.09146903927408856,0.5179688644409179,85.25050354003906,80.11553955078125,-5.955295562744141,88.81019592285156,0.0004322052001953125,0.19766666666666666,0.2982142857142857,0.007903883192274306,-2.9772058897705094,1.4281799793243408,43.153987884521484,0.057055155436197914,-0.10850546095106336
5839,0.06803153927408856,0.49804698944091796,89.54668426513672,81.75218200683594,-5.11651611328125,90.18087768554688,0.016116672092013888,0.19466666666666665,0.2982142857142857,0.005920240614149305,-2.878332751342775,1.9005780220031738,43.153987884521484,0.08660558064778646,-0.11441548665364583
5840,0.07584403927408856,0.5179688644409179,85.5164566040039,78.00836944580078,-5.607509613037109,89.83309936523438,-0.0250266604953342,0.19133333333333333,0.29678571428571426,0.008117421468098959,-2.801430361816408,-0.4394403868408219,43.153987884521484,0.0834231906467014,-0.11600676642523872
5841,0.09537528927408856,0.5378907394409179,86.58027648925781,80.81111145019531,-5.484760284423828,89.2193603515625,-0.015706888834635415,0.18733333333333332,0.2960714285714286,0.01159634060329861,-2.559738772460939,0.48338401317596436,43.153987884521484,0.06410183376736112,-0.10782356262207031
5842,0.09537528927408856,0.49804698944091796,86.96897888183594,84.75950622558594,-5.11651611328125,90.52867126464844,0.01066118876139323,0.18566666666666667,0.295,0.01116909450954861,-1.3293062620849625,1.2414180040359497,43.241878509521484,0.024549696180555556,-0.1182798597547743
5843,0.08756278927408856,0.5179688644409179,89.32164001464844,77.3946304321289,-5.8120880126953125,89.62850952148438,-0.011615286933051215,0.183,0.2932142857142857,0.01110805935329861,-1.2963491850585953,-0.6921183043212906,43.241878509521484,0.13252232869466146,-0.1160066392686632
5844,0.09146903927408856,0.49804698944091796,85.65966796875,78.27432250976562,-5.382472991943359,92.49263000488281,-0.0075236850314670135,0.17966666666666667,0.29178571428571426,0.010436757405598959,-1.0107122832031266,-0.6591612272949234,43.241878509521484,0.08205939398871528,-0.14305669996473525
5845,0.09146903927408856,0.438281364440918,86.80531311035156,80.40196228027344,-7.223690032958984,88.99431610107422,0.013843536376953125,0.17833333333333334,0.29035714285714287,0.007720777723524305,-2.3510042601318375,0.6481740474700928,43.241878509521484,0.0711483425564236,-0.12464451260036892
5846,0.06412528927408856,0.45820323944091795,86.64164733886719,80.38150024414062,-4.707359313964844,89.48530578613281,0.011115815904405382,0.177,0.28964285714285715,0.004516516791449653,-2.7465006285400406,1.0876140594482422,43.241878509521484,0.06955718994140625,-0.1021407233344184
5847,0.05631278927408856,0.45820323944091795,86.62118530273438,79.70639038085938,-5.709800720214844,89.58760070800781,-0.009114880032009548,0.17433333333333334,0.29,0.004302893744574653,-2.230158465454103,0.3185940086841583,43.241878509521484,0.0768310546875,-0.11441557142469617
5848,0.07584403927408856,0.45820323944091795,86.64164733886719,81.15890502929688,-5.832546234130859,89.97630310058594,-0.009114880032009548,0.17133333333333334,0.29035714285714287,0.006988355848524305,-2.142269747802736,0.010986000299453735,43.241878509521484,0.06091935899522569,-0.12009832594129774
5849,0.09537528927408856,0.438281364440918,85.39370727539062,79.91096496582031,-4.993770599365234,88.23736572265625,-0.010478719075520834,0.16866666666666666,0.2910714285714286,0.009185536702473959,-2.2960745268554703,0.20873400568962097,43.241878509521484,0.06091935899522569,-0.09145707024468316
5850,0.09146903927408856,0.5179688644409179,88.33966064453125,83.02058410644531,-41.900001525878906,90.71278381347656,-0.014343007405598959,0.16533333333333333,0.2914285714285714,0.01150478786892361,-1.9774805479736344,0.04394400119781494,43.241878509521484,0.05910085042317708,-0.5290309482150608
5851,0.10318778927408856,0.49804698944091796,88.72836303710938,77.14913940429688,-5.873462677001953,90.42637634277344,-0.02320815192328559,0.16233333333333333,0.29214285714285715,0.01229824490017361,-2.0214239531250016,-1.2194467955322281,43.241878509521484,0.12865804036458334,-0.12555376688639322
5852,0.10318778927408856,0.45820323944091795,85.70057678222656,81.91584777832031,-5.791633605957031,89.38301849365234,-0.0002497355143229167,0.15933333333333333,0.2925,0.010741933186848959,-2.6805845671386734,-0.2526785307617203,43.241878509521484,0.042052544487847225,-0.11305168999565972
5853,0.09928153927408856,0.45820323944091795,88.03279113769531,76.8831787109375,-6.630409240722656,90.93782806396484,-0.012069914076063368,0.15666666666666668,0.2935714285714286,0.009734853108723959,-2.7574869566650406,-1.2304331236572281,43.241878509521484,0.12388458251953124,-0.13964708116319444
5854,0.09146903927408856,0.5179688644409179,84.75950622558594,78.60165405273438,-5.730258941650391,88.85111236572266,0.008160781860351563,0.15233333333333332,0.29392857142857143,0.009216054280598959,-3.823128359863283,-0.5712725096435562,43.241878509521484,0.06842057969835069,-0.10645968119303385
5855,0.08756278927408856,0.5179688644409179,86.70301818847656,80.46333312988281,-7.203235626220703,91.10148620605469,0.003387239244249132,0.149,0.295,0.008208974202473959,-2.9991785460205094,0.13183200359344482,43.241878509521484,0.069329833984375,-0.14783024258083768
5856,0.10709403927408856,0.45820323944091795,86.41661071777344,79.41996765136719,-5.566593170166016,91.572021484375,-0.014797634548611112,0.14633333333333334,0.2953571428571429,0.009490712483723959,-2.7025572233886734,-0.3405672484130875,43.241878509521484,0.077740478515625,-0.13487349616156685
5857,0.11881278927408856,0.438281364440918,86.25294494628906,75.49203491210938,-41.900001525878906,88.93293762207031,-0.01320648193359375,0.14266666666666666,0.2960714285714286,0.009795888264973959,-3.284815447875978,-0.9338098936767594,43.241878509521484,0.11956566704644098,-0.509254879421658
5858,0.10318778927408856,0.41835948944091794,86.31431579589844,82.44775390625,-6.343997955322266,90.20133972167969,0.017935138278537325,0.13933333333333334,0.2975,0.007018873426649305,-2.3619905882568375,1.4831100702285767,43.241878509521484,0.042961798773871525,-0.12828152974446613
5859,0.04850028927408856,0.41835948944091794,88.70790100097656,79.21539306640625,-6.814533233642578,91.55156707763672,0.01952633327907986,0.135,0.2978571428571429,0.00042724609375,-1.8786074095459,1.263390064239502,43.241878509521484,0.10547231038411459,-0.14851222568088107
5860,0.036781539274088636,0.438281364440918,84.0434799194336,79.4813461303711,-5.3620147705078125,88.91248321533203,-0.011160659790039062,0.13033333333333333,0.2978571428571429,-0.0007933722601996528,-3.3946749144287125,-0.10986007983398594,43.241878509521484,0.050690375434027775,-0.10304997762044271
5861,0.06412528927408856,0.438281364440918,85.72103881835938,79.542724609375,-7.346439361572266,91.32653045654297,-0.01661614312065972,0.12766666666666668,0.29892857142857143,0.0027159796820746527,-2.559738772460939,-0.4174677305908219,43.417659759521484,0.06864793565538195,-0.15192188686794705
5862,0.06803153927408856,0.45820323944091795,86.70301818847656,81.5066909790039,-4.871021270751953,88.33966064453125,-0.013661109076605903,0.124,0.29892857142857143,0.0038451300726996527,-3.1200243406982437,-0.3076082640380875,43.241878509521484,0.057736968994140624,-0.09122979905870225
5863,0.05631278927408856,0.41835948944091794,89.46485137939453,77.78333282470703,-6.957736968994141,91.83798217773438,0.012707010904947916,0.121,0.29964285714285716,0.00030517578125,-2.0983263426513687,-1.9335371428222672,43.241878509521484,0.1297946506076389,-0.1532857682969835
5864,0.05240653927408856,0.41835948944091794,84.82088470458984,77.45600891113281,-5.484760284423828,88.91248321533203,-0.01775266859266493,0.116,0.3,-0.0023802863226996527,-2.515795367309572,-3.218899386474611,43.241878509521484,0.08183195326063368,-0.104413816663954
5865,0.05631278927408856,0.39843757629394533,85.35279846191406,77.45600891113281,-5.484760284423828,89.0147705078125,-0.00047704908582899306,0.11266666666666666,0.3003571428571429,-0.005096266004774305,-2.548752444335939,-2.559738772460939,43.241878509521484,0.08774210611979166,-0.10555034213595921
5866,0.04850028927408856,0.41835948944091794,85.39370727539062,76.86272430419922,-6.609951019287109,91.51065063476562,-2.242194281684028e-05,0.10966666666666666,0.3007142857142857,-0.0072018941243489586,-1.7467752867431656,-1.6698728972167984,43.417659759521484,0.09478869967990451,-0.14578446282280816
5867,0.06021903927408856,0.41835948944091794,84.554931640625,76.16715240478516,-5.218807220458984,89.34210205078125,0.002705298529730903,0.106,0.3,-0.0074460347493489586,-2.515795367309572,-0.5273291044921891,43.241878509521484,0.09319754706488716,-0.10623232523600261
5868,0.07584403927408856,0.41835948944091794,84.82088470458984,80.23829650878906,-6.016670227050781,90.13996887207031,-0.0066144307454427086,0.10366666666666667,0.3007142857142857,-0.004730055067274305,-2.526779788085939,1.4062080383300781,43.241878509521484,0.05091764662000868,-0.12396265665690104
5869,0.07584403927408856,0.3585938262939453,86.45751953125,80.0337142944336,-5.709800720214844,89.38301849365234,0.0017960866292317708,0.10066666666666667,0.30107142857142855,-0.004821607801649305,-2.263117449829103,2.2411441802978516,43.241878509521484,0.07137561374240452,-0.11214243570963542
5870,0.06803153927408856,0.41835948944091794,86.25294494628906,79.19493103027344,-5.791633605957031,89.38301849365234,-0.009569507175021702,0.097,0.30107142857142855,-0.0028075324164496527,-2.241144793579103,1.6259280443191528,43.241878509521484,0.07842237684461806,-0.11305168999565972
5871,0.06803153927408856,0.45820323944091795,86.27340698242188,80.23829650878906,-6.814533233642578,91.2242431640625,-0.002522828843858507,0.09366666666666666,0.30142857142857143,-0.0007323371039496528,-1.8346620970459,1.9335360527038574,43.241878509521484,0.06705678304036458,-0.1448752933078342
5872,0.06803153927408856,0.39843757629394533,86.58027648925781,80.68836975097656,-6.159877777099609,89.40347290039062,0.004296493530273437,0.091,0.30178571428571427,-0.0007323371039496528,-2.3070608549804703,1.8786060810089111,43.241878509521484,0.06546563042534723,-0.11737056308322483
5873,0.06803153927408856,0.41835948944091794,91.1219482421875,82.07951354980469,-6.916820526123047,90.71278381347656,-0.021389685736762153,0.08766666666666667,0.3028571428571429,0.001434326171875,-2.3290335112304703,0.8898659944534302,43.241878509521484,0.10047149658203125,-0.14032893710666233
5874,0.06412528927408856,0.3785157012939453,88.46240997314453,78.33570098876953,-6.3644561767578125,90.65141296386719,-0.001613616943359375,0.08566666666666667,0.3032142857142857,0.000152587890625,-2.0433966093750016,-0.9228254729003922,43.241878509521484,0.11251898871527778,-0.13350965711805557
5875,0.05631278927408856,0.3585938262939453,86.31431579589844,76.06486511230469,-6.3644561767578125,89.91493225097656,0.002705298529730903,0.083,0.30428571428571427,-0.0024413214789496527,-2.581711428710939,-0.6811319761962906,43.241878509521484,0.11388278537326389,-0.1253265380859375
5876,0.05240653927408856,0.3785157012939453,85.18913269042969,78.76531982421875,-6.425830841064453,89.85355377197266,-0.002068201700846354,0.07966666666666666,0.3053571428571429,-0.0025939093695746527,-2.6256548338623062,0.20873400568962097,43.241878509521484,0.07137569851345486,-0.12532649570041232
5877,0.06803153927408856,0.3785157012939453,82.87738037109375,83.22515869140625,-6.4462890625,90.40591430664062,-0.0168434566921658,0.077,0.30642857142857144,-0.0005187140570746528,-2.6256548338623062,1.2853620052337646,43.241878509521484,-0.0038642035590277777,-0.13169114854600694
5878,0.04850028927408856,0.3785157012939453,90.2218017578125,79.15402221679688,-6.425830841064453,90.36500549316406,-0.0011589898003472221,0.07333333333333333,0.3078571428571429,-0.0015563117133246527,-2.7355143004150406,0.2746500074863434,43.241878509521484,0.12297532823350694,-0.13100929260253907
5879,0.06021903927408856,0.3785157012939453,86.41661071777344,78.37661743164062,-6.282623291015625,89.66943359375,-0.008660252888997395,0.06933333333333333,0.30857142857142855,-0.000457763671875,-3.0541082792968766,-0.5602861815185562,43.241878509521484,0.08933325873480903,-0.12168952094184028
5880,0.06803153927408856,0.3585938262939453,86.45751953125,78.8880615234375,-6.8963623046875,89.87400817871094,-0.006387117173936632,0.06633333333333333,0.31,-0.000457763671875,-2.7684732847900406,-0.04394401843261875,43.241878509521484,0.08410508897569445,-0.13078189425998263
5881,0.04850028927408856,0.39843757629394533,86.90760040283203,79.25630950927734,-6.5894927978515625,89.93538665771484,0.015207417805989583,0.06366666666666666,0.31142857142857144,-0.0024108039008246527,-2.7245279722900406,0.3405660092830658,43.241878509521484,0.08501434326171875,-0.12805421617296006
5882,0.06803153927408856,0.3785157012939453,86.88714599609375,76.94454956054688,-6.998653411865234,91.87889099121094,-0.027072440253363715,0.060333333333333336,0.3125,9.1552734375e-05,-3.0321375303955094,-0.6921183043212906,43.241878509521484,0.11047329372829862,-0.15419493781195748
5883,0.07975028927408856,0.3585938262939453,84.92317199707031,80.60653686523438,-6.098503112792969,89.567138671875,-0.0002497355143229167,0.056666666666666664,0.31285714285714283,0.00054931640625,-3.6473528319091812,0.6921180486679077,43.241878509521484,0.04796261257595486,-0.11850713094075521
5884,0.05240653927408856,0.33867195129394534,88.31919860839844,81.77264404296875,-6.241706848144531,90.30363464355469,0.014980104234483507,0.05333333333333334,0.31357142857142856,-0.0025023566351996527,-3.3617159300537125,0.8678940534591675,43.241878509521484,0.07273949517144097,-0.1282815721299913
5885,0.044594039274088636,0.3785157012939453,84.92317199707031,77.86516571044922,-5.382472991943359,88.72836303710938,-0.001613616943359375,0.04933333333333333,0.31392857142857145,-0.0030821906195746527,-3.3507315092773453,-0.7690206938476578,43.241878509521484,0.07842229207356771,-0.10123151143391927
5886,0.07584403927408856,0.33867195129394534,86.1097412109375,79.41996765136719,-7.244148254394531,92.1243896484375,-0.020025804307725693,0.04633333333333333,0.31464285714285717,-0.0006713019476996528,-2.3290335112304703,-0.4614130430908219,43.241878509521484,0.07433081732855903,-0.15965042114257813
5887,0.07584403927408856,0.3785157012939453,85.88470458984375,80.72928619384766,-5.341556549072266,89.19889831542969,-0.0043413374159071184,0.041666666666666664,0.31392857142857145,6.103515625e-05,-3.526507037231447,-0.14281906420898594,43.241878509521484,0.05728242662217882,-0.1060050540500217
5888,0.09928153927408856,0.3785157012939453,86.82576751708984,81.30210876464844,-5.996212005615234,90.99920654296875,-0.015934202406141493,0.03933333333333333,0.31392857142857145,0.0033263312445746527,-3.284815447875978,-0.3515516691894547,43.241878509521484,0.06137398613823785,-0.13328242831759982
5889,0.10709403927408856,0.3585938262939453,87.91004180908203,80.32012939453125,-5.525676727294922,89.54668426513672,-0.003659396701388889,0.035666666666666666,0.3142857142857143,0.0031737433539496527,-3.0101648741455094,-0.48338379199218906,43.241878509521484,0.08433236016167535,-0.11191512213812935
5890,0.09146903927408856,0.33867195129394534,87.23492431640625,79.84959411621094,-5.546134948730469,90.569580078125,0.008160781860351563,0.03233333333333333,0.31464285714285717,3.0517578125e-05,-2.9991785460205094,-0.5932451658935562,43.241878509521484,0.08205922444661458,-0.12350794474283854
5891,0.07193778927408856,0.33867195129394534,85.92561340332031,79.0312728881836,-5.402931213378906,89.40347290039062,0.004296493530273437,0.029333333333333333,0.31464285714285717,-0.0025633917914496527,-3.1529833250732437,-0.3735243254394547,43.241878509521484,0.0766037835015191,-0.10896004570855035
5892,0.07193778927408856,0.3187500762939453,86.23248291015625,78.60165405273438,-6.569034576416016,92.30851745605469,-0.0059324900309244795,0.026333333333333334,0.31464285714285717,-0.0035398695203993054,-2.0653692656250016,-0.02197326953125156,43.241878509521484,0.0847869873046875,-0.15419502258300782
5893,0.06021903927408856,0.33867195129394534,86.25294494628906,80.93386840820312,-6.118961334228516,91.24469757080078,0.002705298529730903,0.024,0.31285714285714283,-0.004699537489149305,-2.3180471831054703,1.1205720901489258,43.153987884521484,0.05910085042317708,-0.13737398783365887
5894,0.05240653927408856,0.29882820129394533,87.03034973144531,80.93386840820312,-6.180332183837891,92.20622253417969,-0.0022955152723524307,0.02033333333333333,0.31035714285714283,-0.004913160536024305,-1.9225508146972672,0.8239500522613525,42.97821044921875,0.06773868136935764,-0.14873949686686197
5895,0.07193778927408856,0.3187500762939453,86.08927917480469,79.01081848144531,-5.259723663330078,90.32408142089844,-0.018207295735677084,0.015666666666666666,0.3082142857142857,-0.0025023566351996527,-1.9884668760986344,0.1867620050907135,42.89031982421875,0.07864956325954861,-0.11759783426920573
5896,0.08365653927408856,0.3187500762939453,86.5188980102539,81.24073791503906,-5.627967834472656,91.30607604980469,-0.001613616943359375,0.014666666666666666,0.3053571428571429,-0.0010069953070746527,-1.0986010008544937,1.2084600925445557,42.89031982421875,0.05864622328016493,-0.1326004876030816
5897,0.05240653927408856,0.3785157012939453,87.76683807373047,79.542724609375,-4.4209442138671875,89.40347290039062,0.009979248046875,0.011666666666666667,0.3032142857142857,-0.0026854621039496527,-1.1974741392822281,1.0436700582504272,42.89031982421875,0.09137903849283854,-0.09804907904730903
5898,0.044594039274088636,0.33867195129394534,86.80531311035156,80.05416870117188,-4.400489807128906,89.58760070800781,-0.0013863033718532986,0.008666666666666666,0.3,-0.0036314222547743054,-0.834936755249025,0.6152160167694092,41.48408126831055,0.07501271565755209,-0.09986767239040799
5899,0.07975028927408856,0.25898443222045897,86.82576751708984,80.66790771484375,-4.4209442138671875,89.6080551147461,-0.014115693834092882,0.008333333333333333,0.2975,-0.0010985480414496527,0.2526780068874359,0.16479000449180603,40.07783889770508,0.06842066446940104,-0.10032221476236979
5900,0.06803153927408856,0.29882820129394533,86.84622192382812,77.27188110351562,-2.5592689514160156,86.84622192382812,0.0017960866292317708,0.005,0.29392857142857143,-0.0015563117133246527,0.2746500074863434,-0.17577614123535312,39.98994827270508,0.10638156467013889,-0.04894989861382378
5901,0.09146903927408856,0.25898443222045897,84.57539367675781,78.92898559570312,-0.6771316528320312,88.54424285888672,-0.013888380262586805,0.004666666666666667,0.29178571428571426,-0.000152587890625,0.9338099956512451,-0.3076082640380875,39.814170837402344,0.0627378675672743,-0.04690416124131944
5902,0.11100028927408856,0.239062557220459,85.16867065429688,75.59432983398438,0.5912628173828125,86.96897888183594,-0.014570320977105035,0.002,0.28785714285714287,0.000640869140625,1.0766279697418213,-0.5712725096435562,37.17747116088867,0.10638156467013889,-0.015307956271701388
5903,0.11100028927408856,0.239062557220459,83.42974090576172,80.38150024414062,0.01844024658203125,86.19157409667969,0.003841866387261285,0.002,0.28535714285714286,-0.0007323371039496528,2.449877977371216,0.9997260570526123,34.892330169677734,0.03386934068467882,-0.013034820556640625
5904,0.08756278927408856,0.219140682220459,86.39614868164062,80.44287109375,0.89813232421875,82.22271728515625,0.010206561618381077,0.0006666666666666666,0.2810714285714286,-0.0024718390570746527,2.6366400718688965,1.6588860750198364,26.89434051513672,0.06614752875434028,0.04083794487847222
5905,0.08756278927408856,0.219140682220459,87.66455078125,80.79066467285156,4.519199371337891,79.91096496582031,-0.012979168362087673,0.0006666666666666666,0.2782142857142857,-0.0011595831976996527,2.8893179893493652,1.5600121021270752,25.575990676879883,0.0763765123155382,0.10675816006130642
5906,0.08756278927408856,0.19921878814697266,89.34210205078125,83.73661041259766,2.2688217163085938,83.22515869140625,-0.01729808383517795,0.0,0.2732142857142857,-0.000152587890625,3.2518560886383057,1.175502061843872,25.488100051879883,0.06228324042426215,0.044929589165581596
5907,0.06803153927408856,0.25898443222045897,41.900001525878906,79.35859680175781,11.679500579833984,74.34638977050781,-0.024117406209309897,0.0,0.2692857142857143,-0.0,2.2301580905914307,-0.7909933500976578,25.488100051879883,-0.4162066141764323,0.2481456756591797
