,WD,WS,AIL_1,AIL_2,ELEV_1,ELEV_2,RUDD,ALT,GS,TH,PTCH,ROLL,PLA_1,AIL,ELEV
3635,0.10109812418619792,0.17929691314697266,87.27584838867188,84.0434799194336,-5.525676727294922,89.03523254394531,-0.007978312174479167,0.5393333333333333,0.40035714285714286,0.013305240207248263,1.1535300016403198,1.7467740774154663,55.546478271484375,0.03591520521375868,-0.10623232523600261
3636,0.09719187418619792,0.13945316314697265,86.92805480957031,82.75462341308594,-6.303081512451172,90.36500549316406,-0.009114880032009548,0.5383333333333333,0.4017857142857143,0.01263393825954861,1.7797319889068604,-0.12084640795898594,55.810150146484375,0.0463714599609375,-0.12964541117350262
3637,0.13234812418619793,0.13945316314697265,85.53691101074219,80.60653686523438,-5.423389434814453,89.44439697265625,-0.010933346218532987,0.5373333333333333,0.40214285714285714,0.013457828097873263,1.2853620052337646,-1.8126913481445328,54.579689025878906,0.054781934950086805,-0.10964207119411892
3638,0.15187937418619793,0.17929691314697266,85.0459213256836,82.81600189208984,-5.791633605957031,89.62850952148438,-0.012297227647569445,0.5373333333333333,0.4025,0.014007144504123263,1.1315580606460571,-1.9225508146972672,53.52500915527344,0.024776882595486112,-0.11577936808268229
3639,0.19484812418619793,0.13945316314697265,85.557373046875,82.48867797851562,-5.955295562744141,90.1604232788086,-0.011387973361545138,0.538,0.40285714285714286,0.012664371066623263,1.2743760347366333,-2.3510042601318375,53.52500915527344,0.034096611870659724,-0.12350798712836372
3640,0.2065668464084202,0.15937503814697265,85.41416931152344,82.87738037109375,-5.321098327636719,89.38301849365234,-0.014570320977105035,0.538,0.4035714285714286,0.01248135036892361,0.8898659944534302,-2.6695982390136734,53.52500915527344,0.028186543782552084,-0.10782352023654514
3641,0.1987543464084202,0.17929691314697266,85.49600219726562,83.08195495605469,-5.873462677001953,89.64897155761719,-0.012751854790581597,0.537,0.4039285714285714,0.01123012966579861,0.9338099956512451,-2.504809039184572,53.52500915527344,0.026822747124565973,-0.11691593594021267
3642,0.1987543464084202,0.19921878814697266,85.557373046875,82.0385971069336,-5.934837341308594,90.03767395019531,-0.007069057888454861,0.5376666666666666,0.405,0.01000942654079861,1.06564199924469,-2.3729769163818375,53.78868103027344,0.0390975104437934,-0.12191679212782118
3643,0.2065668464084202,0.19921878814697266,85.80287170410156,84.24806213378906,-5.689342498779297,89.79217529296875,-0.009569507175021702,0.5366666666666666,0.40535714285714286,0.009093983968098959,0.8129640221595764,-1.4721247130126969,53.43711853027344,0.01727566189236111,-0.11646130879720053
3644,0.12844187418619793,0.19921878814697266,86.33477783203125,82.22271728515625,-6.098503112792969,89.93538665771484,0.013616265190972223,0.537,0.40535714285714286,0.004241773817274305,0.9228240251541138,-1.8017050200195328,51.151981353759766,0.045689561631944445,-0.12259877522786458
3645,0.15187937418619793,0.17929691314697266,86.0074462890625,83.16378784179688,-5.853004455566406,90.05813598632812,-0.011387973361545138,0.5373333333333333,0.40464285714285714,0.0034484015570746527,0.747048020362854,-2.0433966093750016,50.712528228759766,0.031596204969618055,-0.12123489379882812
3646,0.14016062418619793,0.19921878814697266,86.13019561767578,83.02058410644531,-5.423389434814453,89.62850952148438,-0.0011589898003472221,0.537,0.4039285714285714,0.0015257941351996527,0.32958000898361206,-1.4501520567626969,49.39418029785156,0.034551239013671874,-0.11168776618109809
3647,0.18312937418619793,0.13945316314697265,86.13019561767578,83.14332580566406,-5.607509613037109,89.81263732910156,-0.005705218844943577,0.537,0.4035714285714286,-3.0517578125e-05,0.4284540116786957,-1.3952223234863297,48.427391052246094,0.03318744235568576,-0.11577941046820747
3648,0.17531687418619793,0.17929691314697266,86.15065002441406,82.63188171386719,-5.218807220458984,89.40347290039062,-0.005705218844943577,0.5366666666666666,0.40214285714285714,0.000396728515625,0.6152160167694092,-1.6039568358154312,44.29655838012695,0.039097425672743054,-0.10691422356499566
3649,0.16750437418619793,0.19921878814697266,86.31431579589844,83.57295227050781,-6.303081512451172,90.1604232788086,-0.011387973361545138,0.5363333333333333,0.4,-0.000396728515625,0.7140899896621704,-0.7580343657226578,40.69306945800781,0.0304595947265625,-0.12737227545844185
3650,0.11281687418619792,0.17929691314697266,86.45751953125,81.62944030761719,-5.8120880126953125,89.87400817871094,-0.0022955152723524307,0.5363333333333333,0.395,-0.004821607801649305,-0.02197326953125156,-0.7580343657226578,36.91379928588867,0.05364532470703125,-0.11873440212673611
3651,0.11281687418619792,0.19921878814697266,82.91828918457031,80.38150024414062,-6.998653411865234,90.46729278564453,-0.01616151597764757,0.5373333333333333,0.39,-0.004455396864149305,-0.5383154326171891,-0.812964098999025,34.628658294677734,0.028186543782552084,-0.13851051330566405
3652,0.18703562418619793,0.17929691314697266,84.43218231201172,83.5934066772461,-6.650867462158203,91.04011535644531,-0.01002409193250868,0.5373333333333333,0.3825,-0.000701904296875,-0.3185945921630875,1.8786060810089111,33.39820098876953,0.009319729275173612,-0.14101092020670572
3653,0.14016062418619793,0.15937503814697265,86.80531311035156,84.06393432617188,-6.466747283935547,90.50820922851562,0.014298163519965278,0.538,0.3767857142857143,-0.0025328742133246527,-1.120571749755861,3.867072105407715,33.22241973876953,0.030459764268663196,-0.13305507236056857
3654,0.08547312418619792,0.15937503814697265,86.84622192382812,83.02058410644531,-6.3644561767578125,90.32408142089844,-0.003659396701388889,0.5386666666666666,0.36857142857142855,-0.0029601203070746527,-1.6259294920654312,3.790170192718506,33.22241973876953,0.04250708685980903,-0.12987263997395834
3655,0.12062937418619792,0.15937503814697265,86.70301818847656,84.75950622558594,-6.3644561767578125,90.30363464355469,-0.022980838351779515,0.539,0.36357142857142855,0.0014037238226996527,-1.560013430664064,3.4935481548309326,33.837650299072266,0.021594577365451388,-0.1296454535590278
3656,0.11672312418619792,0.17929691314697266,87.84866333007812,84.43218231201172,-6.466747283935547,91.26515197753906,-0.018207295735677084,0.539,0.3575,0.004333326551649305,-1.4611383848876969,3.3617160320281982,35.6833381652832,0.03796090020073785,-0.1414655473497179
3657,0.10891062418619792,0.13945316314697265,87.31675720214844,89.58760070800781,-6.098503112792969,89.26026916503906,0.0065695868598090275,0.538,0.3539285714285714,0.005309889051649305,-1.6039568358154312,3.779184103012085,36.38645935058594,-0.02523159450954861,-0.11509746975368923
3658,0.12844187418619793,0.13945316314697265,87.03034973144531,82.550048828125,-5.464302062988281,88.91248321533203,-0.021389685736762153,0.537,0.3489285714285714,0.008636220296223959,-1.538040774414064,2.1642420291900635,45.17546081542969,0.049781121148003475,-0.10418650309244791
3659,0.17141062418619793,0.15937503814697265,86.02790832519531,83.73661041259766,-5.505218505859375,89.30118560791016,-0.012069914076063368,0.5353333333333333,0.3457142857142857,0.013610415988498263,-0.9777552061767594,2.449877977371216,45.26335144042969,0.025458865695529513,-0.10896004570855035
3660,0.16750437418619793,0.17929691314697266,87.15309143066406,87.562255859375,-5.5870513916015625,89.81263732910156,0.0004322052001953125,0.5343333333333333,0.34214285714285714,0.016082255045572917,-0.7800070219726578,2.3949480056762695,45.26335144042969,-0.004546271430121528,-0.11555209689670139
3661,0.16750437418619793,0.19921878814697266,90.05813598632812,82.67279052734375,-4.768730163574219,88.50332641601562,-0.02207158406575521,0.532,0.34035714285714286,0.01861512925889757,-0.9667688780517594,-0.16478981311035312,45.17546081542969,0.08205939398871528,-0.09191173977322048
3662,0.2026605964084202,0.17929691314697266,86.13019561767578,78.09020233154297,-5.832546234130859,89.58760070800781,-0.020253117879231772,0.5303333333333333,0.33785714285714286,0.01922548082139757,-0.6042314940185562,-2.153256075927736,45.17546081542969,0.08933325873480903,-0.11577941046820747
3663,0.2260980964084202,0.15937503814697265,86.76439666748047,83.28652954101562,-5.5870513916015625,89.05569458007812,-0.0075236850314670135,0.5283333333333333,0.3364285714285714,0.017150370279947917,-1.175503390380861,-1.2633902006835953,44.99967956542969,0.038642968071831596,-0.10714162190755208
3664,0.19094187418619793,0.15937503814697265,86.19157409667969,83.08195495605469,-5.648426055908203,89.32164001464844,0.006796900431315104,0.5266666666666666,0.335,0.013946109347873263,-1.5929705076904312,-0.6371885710449234,44.99967956542969,0.03455132378472222,-0.11077851189507379
3665,0.19484812418619793,0.13945316314697265,86.19157409667969,82.22271728515625,-3.9913291931152344,88.03279113769531,-0.006159803602430555,0.5236666666666666,0.33464285714285713,0.01205410427517361,-2.0873400145263687,-0.6152159147949234,44.99967956542969,0.04409840901692708,-0.07804578145345052
3666,0.2026605964084202,0.13945316314697265,85.80287170410156,81.4453125,-3.9913291931152344,87.68500518798828,-0.009114880032009548,0.5216666666666666,0.3342857142857143,0.01177944607204861,-1.560013430664064,-0.5053564482421891,44.99967956542969,0.04841732449001736,-0.0741814931233724
3667,0.2026605964084202,0.13945316314697265,85.27096557617188,83.73661041259766,-4.073158264160156,87.68500518798828,-0.003886710272894965,0.5193333333333333,0.3335714285714286,0.01214565700954861,-0.5492998533935562,0.20873400568962097,47.46059799194336,0.017048390706380208,-0.07509070502387152
3668,0.2104730964084202,0.15937503814697265,86.37569427490234,83.53202819824219,-4.093616485595703,87.66455078125,-0.01320648193359375,0.5166666666666667,0.33285714285714285,0.013640933566623263,0.2526780068874359,0.2197200059890747,47.72426986694336,0.0315962897406684,-0.0750907474093967
3669,0.2143793464084202,0.17929691314697266,86.33477783203125,84.35034942626953,-4.1959075927734375,88.17599487304688,-0.011615286933051215,0.5146666666666667,0.3317857142857143,0.015593973795572917,0.790992021560669,0.6701459884643555,47.72426986694336,0.02204920450846354,-0.08191002739800347
3670,0.2143793464084202,0.17929691314697266,86.94851684570312,83.98210144042969,-4.318656921386719,87.93049621582031,-0.0043413374159071184,0.513,0.33071428571428574,0.016356913248697917,1.021697998046875,1.0546560287475586,47.72426986694336,0.03296017116970486,-0.08054614596896702
3671,0.19484812418619793,0.19921878814697266,89.52622985839844,82.34546661376953,-4.257282257080078,88.09416198730469,-0.008205625745985243,0.5113333333333333,0.32857142857142857,0.017211405436197917,1.1205720901489258,0.6701459884643555,47.72426986694336,0.07978625827365451,-0.0816827138264974
3672,0.17531687418619793,0.219140682220459,86.62118530273438,83.40928649902344,-4.3595733642578125,88.564697265625,-0.009342193603515625,0.5103333333333333,0.3271428571428571,0.016906229654947917,1.219446063041687,0.3076080083847046,47.72426986694336,0.035687764485677086,-0.08804745144314235
3673,0.17531687418619793,0.17929691314697266,88.52378845214844,85.57783508300781,-4.441402435302734,88.44195556640625,-0.005705218844943577,0.509,0.3246428571428571,0.015746561686197917,1.4171940088272095,1.0766279697418213,47.81216049194336,0.03273281521267361,-0.08759286668565539
3674,0.11672312418619792,0.19921878814697266,41.900001525878906,82.81600189208984,-5.075603485107422,88.29874420166016,0.0049784342447916664,0.5093333333333333,0.32285714285714284,0.012816958957248263,1.2304320335388184,0.5493000149726868,50.888309478759766,-0.4546222262912326,-0.09304830763075086
3675,0.12844187418619793,0.15937503814697265,89.38301849365234,85.41416931152344,-5.382472991943359,88.97386169433594,-0.011842600504557292,0.5086666666666667,0.3217857142857143,0.01257290310329861,0.7580339908599854,0.09887400269508362,51.151981353759766,0.04409832424587674,-0.10395927429199218
3676,0.15578562418619793,0.15937503814697265,41.900001525878906,83.06149291992188,-5.259723663330078,88.48286437988281,-0.018207295735677084,0.507,0.3217857142857143,0.014342837863498263,0.1867620050907135,-0.5602861815185562,51.151981353759766,-0.45734990437825523,-0.0971398671468099
3677,0.15578562418619793,0.17929691314697266,86.45751953125,86.6007308959961,-5.1983489990234375,88.64653015136719,-0.003886710272894965,0.5056666666666667,0.3225,0.013915591769748263,-0.01098694140625156,-0.4394403868408219,51.151981353759766,-0.0015912373860677083,-0.09827643500434027
3678,0.14797312418619793,0.17929691314697266,88.23736572265625,84.5958480834961,-5.239265441894531,88.52378845214844,-0.01002409193250868,0.5043333333333333,0.32285714285714284,0.013579898410373263,-0.14281906420898594,-0.4504267149658219,51.151981353759766,0.04046130710177952,-0.09736726548936632
3679,0.16359812418619793,0.17929691314697266,86.98943328857422,84.24806213378906,-5.239265441894531,88.58515930175781,-0.012069914076063368,0.502,0.32392857142857145,0.013885074191623263,-0.18676246936035312,-0.8898664885253922,51.151981353759766,0.030459679497612847,-0.09804916381835938
3680,0.16750437418619793,0.19921878814697266,87.50088500976562,84.08439636230469,-5.259723663330078,88.68744659423828,-0.02207158406575521,0.5,0.32392857142857145,0.014525943332248263,-0.2307058745117203,-0.9338098936767594,50.53675079345703,0.037960984971788195,-0.09941300286187066
3681,0.15578562418619793,0.17929691314697266,83.75706481933594,82.63188171386719,-4.993770599365234,88.42149353027344,-0.0034320831298828127,0.49866666666666665,0.325,0.01168789333767361,-0.4504267149658219,-0.5712725096435562,47.284820556640625,0.012502034505208334,-0.09350293477376302
3682,0.14797312418619793,0.15937503814697265,87.23492431640625,85.96653747558594,-4.66644287109375,87.62362670898438,-0.006159803602430555,0.49633333333333335,0.325,0.009063466389973959,-0.7690206938476578,0.5273280143737793,47.196929931640625,0.014093187120225694,-0.08100077311197916
3683,0.13625437418619793,0.15937503814697265,87.64408874511719,82.61141967773438,-5.832546234130859,90.1604232788086,-0.005250591701931423,0.494,0.3246428571428571,0.009551747639973959,-0.18676246936035312,0.9557820558547974,47.196929931640625,0.05591854519314236,-0.12214410569932725
3684,0.15578562418619793,0.15937503814697265,87.31675720214844,83.94119262695312,-5.402931213378906,88.6056137084961,-0.016388829549153647,0.49266666666666664,0.32357142857142857,0.01147427029079861,-0.49437012011718906,0.23070600628852844,47.196929931640625,0.03750627305772569,-0.10009494357638889
3685,0.19484812418619793,0.17929691314697266,86.98943328857422,83.69569396972656,-5.382472991943359,88.54424285888672,-0.02093505859375,0.48966666666666664,0.32357142857142857,0.013549380832248263,-1.0876146727294937,-0.5602861815185562,47.196929931640625,0.03659710354275174,-0.09918573167588976
3686,0.2221918464084202,0.15937503814697265,90.50820922851562,86.33477783203125,-4.645984649658203,88.17599487304688,-0.00775099860297309,0.487,0.32392857142857145,0.014068179660373263,-1.5709978514404312,0.0,47.196929931640625,0.0463714599609375,-0.08691088358561198
3687,0.2221918464084202,0.13945316314697265,84.77996826171875,79.21539306640625,-4.707359313964844,87.80775451660156,-0.011160659790039062,0.4836666666666667,0.3246428571428571,0.012786441379123263,-1.8456484251709,-1.0876146727294937,47.196929931640625,0.06182861328125,-0.08350126478407117
3688,0.2026605964084202,0.13945316314697265,85.14820861816406,82.550048828125,-4.686901092529297,87.74638366699219,-0.003659396701388889,0.48133333333333334,0.32535714285714284,0.01040615505642361,-1.2194467955322281,-0.801977770874025,47.196929931640625,0.02886844211154514,-0.08259205288357205
3689,0.17531687418619793,0.15937503814697265,88.21691131591797,86.23248291015625,-4.768730163574219,88.33966064453125,-0.009114880032009548,0.478,0.32607142857142857,0.009612782796223959,-0.7580343657226578,0.5273280143737793,47.196929931640625,0.02204920450846354,-0.09009323120117188
3690,0.15187937418619793,0.13945316314697265,87.27584838867188,84.5958480834961,-4.830104827880859,88.33966064453125,0.0024779849582248262,0.4736666666666667,0.3264285714285714,0.008025868733723959,-0.812964098999025,0.6371880173683167,47.196929931640625,0.02977778116861979,-0.09077517191569011
3691,0.16750437418619793,0.15937503814697265,87.82821655273438,80.64745330810547,-5.11651611328125,89.2193603515625,-0.018661922878689237,0.4706666666666667,0.32607142857142857,0.008941396077473959,-0.9228254729003922,-0.6591612272949234,47.196929931640625,0.07978625827365451,-0.10373196072048611
3692,0.17141062418619793,0.17929691314697266,85.35279846191406,82.81600189208984,-5.034687042236328,88.44195556640625,-0.012751854790581597,0.4663333333333333,0.32607142857142857,0.01010097927517361,-1.5819841795654312,-0.6481748991699234,47.196929931640625,0.02818662855360243,-0.09418491787380642
3693,0.18312937418619793,0.17929691314697266,86.92805480957031,84.5140151977539,-5.096061706542969,88.52378845214844,-0.012979168362087673,0.46266666666666667,0.3267857142857143,0.01037563747829861,-1.8566347532959,-0.3845106535644547,47.196929931640625,0.026822662353515624,-0.09577611287434896
3694,0.2300043464084202,0.15937503814697265,86.23248291015625,82.42729949951172,-5.11651611328125,88.36012268066406,-0.015934202406141493,0.45966666666666667,0.3271428571428571,0.01123012966579861,-1.7687460356445328,-0.3405672484130875,45.70280075073242,0.042279815673828124,-0.09418487548828125
3695,0.2417230964084202,0.15937503814697265,84.75950622558594,82.0999755859375,-4.543693542480469,87.5213394165039,-0.006159803602430555,0.455,0.3275,0.01095547146267361,-1.8017050200195328,0.02197200059890747,45.70280075073242,0.029550340440538194,-0.0785003662109375
3696,0.2260980964084202,0.15937503814697265,84.92317199707031,80.64745330810547,-4.564151763916016,87.64408874511719,-0.00297745598687066,0.45066666666666666,0.32785714285714285,0.009521230061848959,-1.538040774414064,0.08788800239562988,45.70280075073242,0.047507985432942705,-0.08009156121148003
3697,0.2339105964084202,0.13945316314697265,84.1048583984375,81.69081115722656,-4.523235321044922,87.25538635253906,-0.0059324900309244795,0.447,0.32821428571428574,0.008178456624348959,-1.2084604674072281,0.35155200958251953,45.70280075073242,0.026822747124565973,-0.07531801859537761
3698,0.15578562418619793,0.17929691314697266,86.62118530273438,84.14576721191406,-5.1983489990234375,89.32164001464844,-0.004568650987413194,0.44266666666666665,0.32821428571428574,0.0073849995930989586,-0.9008528166503922,1.4721240997314453,45.70280075073242,0.02750464545355903,-0.10577765570746528
3699,0.15969187418619793,0.15937503814697265,87.62362670898438,85.76194763183594,-5.177890777587891,88.09416198730469,-0.003204769558376736,0.43866666666666665,0.3275,0.008025868733723959,-1.1095873289794937,2.4059340953826904,45.70280075073242,0.020685323079427085,-0.09191169738769531
3700,0.14797312418619793,0.15937503814697265,87.86912536621094,88.27828979492188,-5.136974334716797,88.17599487304688,-0.007069057888454861,0.435,0.3275,0.009795888264973959,-1.3073355131835953,2.8014299869537354,45.70280075073242,-0.004546271430121528,-0.09236632453070746
3701,0.16359812418619793,0.15937503814697265,88.38057708740234,84.37080383300781,-4.8914794921875,87.91004180908203,-0.018889236450195312,0.43133333333333335,0.3271428571428571,0.01245083279079861,-1.2743765288085953,1.5929700136184692,45.70280075073242,0.04455303615993923,-0.0866835700141059
3702,0.17531687418619793,0.17929691314697266,89.32164001464844,87.78729248046875,-4.707359313964844,87.64408874511719,-0.016388829549153647,0.42766666666666664,0.3271428571428571,0.015319400363498263,-1.0766283446044937,1.0107120275497437,45.70280075073242,0.017048305935329862,-0.08168275621202258
3703,0.17531687418619793,0.17929691314697266,87.0712661743164,83.02058410644531,-4.768730163574219,88.95339965820312,-0.01252454121907552,0.425,0.3267857142857143,0.015929667154947917,-0.7470480375976578,-0.834936755249025,46.054359436035156,0.045007578531901044,-0.09691255357530382
3704,0.1987543464084202,0.17929691314697266,87.35768127441406,83.14332580566406,-4.871021270751953,87.95095825195312,-0.010478719075520834,0.42133333333333334,0.32607142857142857,0.015929667154947917,-0.3845106535644547,-1.3402925902099625,47.81216049194336,0.046826171875,-0.08691088358561198
3705,0.19484812418619793,0.17929691314697266,88.1555404663086,84.28897857666016,-4.850563049316406,88.09416198730469,-0.010933346218532987,0.419,0.32535714285714284,0.014709048800998263,-0.12084640795898594,-1.0216986113281266,47.987937927246094,0.042961798773871525,-0.08827472262912327
3706,0.17922312418619793,0.17929691314697266,86.98943328857422,82.93875122070312,-4.830104827880859,88.40103149414062,-0.001613616943359375,0.4156666666666667,0.32535714285714284,0.01196255154079861,0.04394400119781494,-0.5053564482421891,50.27307891845703,0.045007578531901044,-0.09145707024468316
3707,0.12453562418619792,0.15937503814697265,87.50088500976562,84.554931640625,-4.727817535400391,88.42149353027344,0.005887646145290798,0.41333333333333333,0.32535714285714284,0.008178456624348959,-0.08788933093261875,-0.49437012011718906,51.151981353759766,0.03273281521267361,-0.0905479007297092
3708,0.12062937418619792,0.17929691314697266,86.76439666748047,83.69569396972656,-5.075603485107422,89.13752746582031,-0.013433795505099827,0.4106666666666667,0.32571428571428573,0.0071713765462239586,0.09887400269508362,-1.0216986113281266,51.2398681640625,0.03409669664171007,-0.10236812167697483
3709,0.14406687418619793,0.15937503814697265,87.562255859375,83.79798889160156,-5.055145263671875,88.93293762207031,-0.014797634548611112,0.408,0.3264285714285714,0.0075070699055989586,-0.02197326953125156,-0.834936755249025,51.2398681640625,0.041825188530815974,-0.09986758761935764
3710,0.14406687418619793,0.17929691314697266,87.41905212402344,84.30943298339844,-5.075603485107422,88.6056137084961,-0.010933346218532987,0.4053333333333333,0.3267857142857143,0.007903798421223959,-0.3295809202880875,-0.2307058745117203,51.2398681640625,0.03455132378472222,-0.09645796881781685
3711,0.13625437418619793,0.17929691314697266,87.43951416015625,84.35034942626953,-5.505218505859375,89.52622985839844,-0.0054779052734375,0.4033333333333333,0.3271428571428571,0.006957838270399305,-0.5273291044921891,-0.03295769030761875,51.2398681640625,0.03432405259874132,-0.11146053738064236
3712,0.14016062418619793,0.17929691314697266,87.43951416015625,84.63676452636719,-5.259723663330078,89.48530578613281,-0.010933346218532987,0.401,0.32785714285714285,0.006622144911024305,-0.7360617094726578,-0.09887375170898594,51.2398681640625,0.03114166259765625,-0.10827810499403212
3713,0.13625437418619793,0.17929691314697266,87.43951416015625,84.30943298339844,-5.157432556152344,88.52378845214844,-0.010933346218532987,0.39766666666666667,0.32857142857142857,0.006439039442274305,-1.3183199339599625,-0.20873512561035312,51.2398681640625,0.03477867974175347,-0.09645801120334202
3714,0.14797312418619793,0.17929691314697266,87.41905212402344,84.554931640625,-5.259723663330078,88.62606811523438,-0.010933346218532987,0.395,0.3292857142857143,0.006835767957899305,-1.2633902006835953,0.04394400119781494,51.2398681640625,0.03182356092664931,-0.09873101976182726
3715,0.14016062418619793,0.19921878814697266,87.03034973144531,83.24562072753906,-5.382472991943359,89.52622985839844,-0.011842600504557292,0.392,0.33035714285714285,0.0072324117024739586,-0.9447962218017594,0.9887400269508362,50.0094108581543,0.042052544487847225,-0.11009669833713108
3716,0.12062937418619792,0.17929691314697266,91.40835571289062,84.90271759033203,-5.321098327636719,89.40347290039062,0.003841866387261285,0.38866666666666666,0.33107142857142857,0.005889723036024305,-1.549027102539064,2.285088062286377,49.5699577331543,0.07228486802842882,-0.10805079142252604
3717,0.09328562418619792,0.15937503814697265,87.33721923828125,83.38882446289062,-5.177890777587891,88.52378845214844,-0.00775099860297309,0.385,0.3317857142857143,0.005981275770399305,-1.9335371428222672,1.3732500076293945,49.5699577331543,0.04387105305989583,-0.09668532477484809
3718,0.13234812418619793,0.17929691314697266,87.17355346679688,83.24562072753906,-5.177890777587891,88.6056137084961,-0.021389685736762153,0.38266666666666665,0.3325,0.008941396077473959,-1.6698728972167984,0.38451001048088074,49.5699577331543,0.04364369710286458,-0.09759449428982205
3719,0.14016062418619793,0.17929691314697266,87.5213394165039,85.06637573242188,-5.791633605957031,89.95584106445312,-0.0050232781304253475,0.37933333333333336,0.33321428571428574,0.009643300374348959,-1.1974741392822281,0.6921180486679077,48.86684036254883,0.027277374267578126,-0.11941638522677951
3720,0.12062937418619792,0.15937503814697265,87.41905212402344,84.28897857666016,-5.66888427734375,88.99431610107422,-0.009114880032009548,0.37633333333333335,0.33321428571428574,0.008697255452473959,-1.6369139128417984,0.6152160167694092,47.109039306640625,0.034778594970703125,-0.10736889309353298
3721,0.09719187418619792,0.15937503814697265,86.84622192382812,86.72348022460938,-5.525676727294922,88.48286437988281,-0.002068201700846354,0.37266666666666665,0.33285714285714285,0.0073849995930989586,-2.4279066496582047,0.38451001048088074,46.933258056640625,0.0013637966579861111,-0.10009490119086371
3722,0.10109812418619792,0.15937503814697265,87.13264465332031,81.83401489257812,-5.464302062988281,89.1170654296875,-0.014115693834092882,0.36866666666666664,0.33321428571428574,0.0075986226399739586,-2.6036821776123062,-0.5712725096435562,46.933258056640625,0.05887366400824653,-0.10645963880750868
3723,0.12453562418619792,0.15937503814697265,88.29874420166016,85.1072998046875,-5.44384765625,88.85111236572266,-0.014343007405598959,0.36533333333333334,0.33321428571428574,0.008636220296223959,-2.7684732847900406,0.02197200059890747,46.933258056640625,0.03546049329969618,-0.10327733357747396
3724,0.12844187418619793,0.15937503814697265,87.97142028808594,85.16867065429688,-5.44384765625,88.78973388671875,-0.008887566460503472,0.3606666666666667,0.3335714285714286,0.008788808186848959,-2.581711428710939,0.4394400119781494,46.933258056640625,0.03114166259765625,-0.10259535047743056
3725,0.12062937418619792,0.15937503814697265,87.93049621582031,84.71859741210938,-5.402931213378906,88.6669921875,-0.0075236850314670135,0.3566666666666667,0.3339285714285714,0.008208974202473959,-2.4388929777832047,0.07690200209617615,46.933258056640625,0.035687764485677086,-0.10077692667643229
3726,0.10500437418619792,0.17929691314697266,87.62362670898438,83.73661041259766,-5.402931213378906,88.78973388671875,0.0002048916286892361,0.3516666666666667,0.33464285714285713,0.007873280843098959,-2.3400179320068375,-0.4723993712158219,46.933258056640625,0.04318906995985243,-0.1021407233344184
3727,0.12844187418619793,0.15937503814697265,84.92317199707031,83.77752685546875,-5.3620147705078125,88.72836303710938,-0.015706888834635415,0.3476666666666667,0.335,0.008331044514973959,-2.3180471831054703,-0.9887415343017594,46.933258056640625,0.012729390462239584,-0.1010041978624132
3728,0.12844187418619793,0.17929691314697266,89.19889831542969,82.71371459960938,-5.177890777587891,88.23736572265625,-0.01002409193250868,0.3433333333333333,0.33464285714285713,0.007964833577473959,-2.197201388427736,-0.4614130430908219,46.40591812133789,0.07205759684244792,-0.09350285000271268
3729,0.10109812418619792,0.17929691314697266,86.1097412109375,81.8953857421875,-5.648426055908203,88.74882507324219,0.0011141459147135417,0.34,0.335,0.006072828504774305,-1.7687460356445328,-0.14281906420898594,46.318031311035156,0.046826171875,-0.10441390143500434
3730,0.09719187418619792,0.15937503814697265,87.74638366699219,85.0050048828125,-5.1983489990234375,88.21691131591797,-0.003204769558376736,0.3363333333333333,0.3342857142857143,0.005126783582899305,-1.9005781584472672,0.6701459884643555,46.318031311035156,0.030459764268663196,-0.09350289238823785
3731,0.06594187418619792,0.17929691314697266,87.27584838867188,83.67523193359375,-5.259723663330078,88.64653015136719,-0.0011589898003472221,0.3333333333333333,0.3339285714285714,0.003967200385199653,-1.8346620970459,0.8788800239562988,46.142250061035156,0.04000684950086805,-0.0989583757188585
3732,0.054223124186197916,0.15937503814697265,87.33721923828125,83.85935974121094,-5.280181884765625,88.76927947998047,-0.009569507175021702,0.33,0.33321428571428574,0.0036315070258246527,-1.4831110411376969,0.3405660092830658,46.142250061035156,0.03864288330078125,-0.10054957071940104
3733,0.07375437418619792,0.17929691314697266,87.35768127441406,84.37080383300781,-5.259723663330078,89.09660339355469,-0.01616151597764757,0.327,0.3325,0.005218336317274305,-1.4391657286376969,0.04394400119781494,46.142250061035156,0.03318752712673611,-0.10395918952094184
3734,0.07766062418619792,0.17929691314697266,88.99431610107422,84.41172790527344,-5.259723663330078,89.0761489868164,-0.015934202406141493,0.323,0.3317857142857143,0.005737135145399305,-1.6369139128417984,0.1867620050907135,46.142250061035156,0.05091764662000868,-0.10373191833496094
3735,0.042504374186197916,0.15937503814697265,88.46240997314453,85.08683776855469,-5.239265441894531,89.0147705078125,0.0049784342447916664,0.32066666666666666,0.33071428571428574,0.0030516730414496527,-1.7577597075195328,0.16479000449180603,46.142250061035156,0.037506357828776045,-0.10282262166341145
3736,0.034691874186197916,0.17929691314697266,88.17599487304688,83.90027618408203,-5.1983489990234375,88.6669921875,-0.0054779052734375,0.31766666666666665,0.33035714285714285,0.0025328742133246527,-1.7577597075195328,-0.3735243254394547,46.142250061035156,0.047507985432942705,-0.09850379096137153
3737,0.06594187418619792,0.17929691314697266,88.1555404663086,84.30943298339844,-5.1983489990234375,88.6056137084961,-0.016388829549153647,0.314,0.3292857142857143,0.004211256239149305,-1.6918455534667984,-0.3405672484130875,46.142250061035156,0.042734527587890626,-0.09782180786132813
3738,0.07375437418619792,0.17929691314697266,87.82821655273438,84.14576721191406,-5.177890777587891,88.42149353027344,-0.011615286933051215,0.31066666666666665,0.3292857142857143,0.004516432020399305,-1.3732515745849625,-0.3515516691894547,46.142250061035156,0.04091610378689236,-0.09554871453179253
3739,0.08156687418619792,0.13945316314697265,86.39614868164062,83.77752685546875,-5.157432556152344,88.68744659423828,-0.00775099860297309,0.308,0.32821428571428574,0.0035094367133246527,-1.1095873289794937,-0.49437012011718906,46.142250061035156,0.02909579806857639,-0.09827643500434027
3740,0.026879374186197916,0.13945316314697265,85.06637573242188,82.85691833496094,-5.177890777587891,88.6669921875,0.004296493530273437,0.305,0.3275,-0.0003662109375,-1.0436712675781266,-0.5602861815185562,47.54848861694336,0.02454952663845486,-0.09827647738986545
3741,0.007348124186197917,0.15937503814697265,85.43462371826172,82.46821594238281,-5.177890777587891,88.70790100097656,-0.00775099860297309,0.3006666666666667,0.3275,-0.0022276984320746527,-1.4281813078613297,-0.6152159147949234,47.987937927246094,0.03296008639865451,-0.09873101976182726
3742,0.007348124186197917,0.17929691314697266,84.57539367675781,80.23829650878906,-5.157432556152344,88.6056137084961,-0.012069914076063368,0.2976666666666667,0.3275,-0.0026244269476996527,-1.8346620970459,-0.4504267149658219,47.987937927246094,0.04818996853298611,-0.09736718071831597
3743,0.011254374186197917,0.17929691314697266,87.23492431640625,85.20958709716797,-5.177890777587891,88.54424285888672,-0.006841744316948784,0.29433333333333334,0.32821428571428574,-0.0026854621039496527,-1.9884668760986344,0.5822579860687256,47.987937927246094,0.02250374688042535,-0.09691259596082899
3744,0.011254374186197917,0.17929691314697266,84.67768096923828,80.87248992919922,-5.7507171630859375,88.68744659423828,-0.002068201700846354,0.2916666666666667,0.32857142857142857,-0.0022887335883246527,-1.7687460356445328,0.13183200359344482,47.987937927246094,0.04227990044487847,-0.10486848619249133
3745,0.062035624186197916,0.15937503814697265,86.0688247680664,84.14576721191406,-5.730258941650391,90.03767395019531,-0.01797998216417101,0.2876666666666667,0.3292857142857143,0.000518798828125,-2.0433966093750016,0.010986000299453735,47.987937927246094,0.021367306179470486,-0.1196436987982856
3746,0.07375437418619792,0.219140682220459,86.68256378173828,81.11798858642578,-5.505218505859375,88.93293762207031,-0.009342193603515625,0.284,0.3292857142857143,0.0026244269476996527,-3.0321375303955094,0.8129640221595764,47.987937927246094,0.06182861328125,-0.10486840142144097
3747,0.10500437418619792,0.15937503814697265,85.0459213256836,90.05813598632812,-5.464302062988281,88.85111236572266,-0.01547957526312934,0.2803333333333333,0.33,0.0037535773383246527,-2.878332751342775,1.7577600479125977,47.987937927246094,-0.05569127400716146,-0.10350460476345485
3748,0.062035624186197916,0.15937503814697265,87.91004180908203,85.84378051757812,-5.464302062988281,88.78973388671875,-0.001613616943359375,0.2763333333333333,0.33071428571428574,0.0027770148383246527,-2.6805845671386734,1.307334065437317,47.987937927246094,0.022958458794487848,-0.10282262166341145
3749,0.058129374186197916,0.17929691314697266,87.58271789550781,84.26852416992188,-5.3620147705078125,88.58515930175781,-0.010933346218532987,0.27166666666666667,0.3314285714285714,0.0038451300726996527,-2.493822711059572,0.6042300462722778,47.987937927246094,0.03682437472873264,-0.09941304524739583
3750,0.07766062418619792,0.17929691314697266,87.95095825195312,85.557373046875,-5.607509613037109,89.58760070800781,-0.010251405504014757,0.268,0.3317857142857143,0.005126783582899305,-1.9005781584472672,0.32958000898361206,47.987937927246094,0.02659539116753472,-0.1132790035671658
3751,0.10500437418619792,0.13945316314697265,87.58271789550781,84.06393432617188,-5.464302062988281,88.95339965820312,-0.012297227647569445,0.2643333333333333,0.33214285714285713,0.006042310926649305,-1.9225508146972672,-0.5273291044921891,47.987937927246094,0.03909759521484375,-0.10464113023546007
3752,0.15578562418619793,0.1195312786102295,87.562255859375,84.43218231201172,-5.055145263671875,88.17599487304688,-0.020480431450737847,0.26,0.33285714285714285,0.006713697645399305,-2.186215060302736,-0.5712725096435562,47.987937927246094,0.034778594970703125,-0.09145711263020834
3753,0.06594187418619792,0.13945316314697265,87.45996856689453,83.63432312011719,-5.136974334716797,88.42149353027344,0.009979248046875,0.25633333333333336,0.3342857142857143,0.0027159796820746527,-1.9664942198486344,-0.6371885710449234,47.987937927246094,0.042507171630859375,-0.09509408738878038
3754,0.019066874186197916,0.1195312786102295,88.23736572265625,83.65477752685547,-5.300640106201172,88.44195556640625,-0.003204769558376736,0.25333333333333335,0.3342857142857143,-0.00067138671875,-1.7577597075195328,-0.2966219359130875,47.987937927246094,0.05091764662000868,-0.09713995191786025
3755,-0.031714375813802084,0.1195312786102295,87.6031723022461,84.67768096923828,-6.2007904052734375,91.34698486328125,-2.242194281684028e-05,0.25066666666666665,0.3360714285714286,-0.0036009894476996527,-1.5709978514404312,-0.5822588377685562,47.987937927246094,0.03250545925564236,-0.1394197252061632
3756,0.011254374186197917,0.17929691314697266,87.45996856689453,81.15890502929688,-5.730258941650391,89.68988800048828,-0.01797998216417101,0.24666666666666667,0.33535714285714285,-0.0020140753851996527,-2.812416689941408,-1.3293062620849625,47.987937927246094,0.0700118170844184,-0.11577941046820747
3757,0.062035624186197916,0.15937503814697265,87.25538635253906,83.65477752685547,-5.5870513916015625,88.85111236572266,-0.011615286933051215,0.24466666666666667,0.3360714285714286,-0.000335693359375,-3.4056612425537125,-0.812964098999025,47.987937927246094,0.040006764729817706,-0.10486848619249133
3758,0.08547312418619792,0.13945316314697265,85.65966796875,82.61141967773438,-5.566593170166016,88.74882507324219,-0.013888380262586805,0.24266666666666667,0.3364285714285714,0.000244140625,-2.900305407592775,-0.3954969816894547,47.987937927246094,0.033869425455729164,-0.10350464714898003
3759,0.09328562418619792,0.15937503814697265,86.43707275390625,83.20470428466797,-5.934837341308594,89.54668426513672,-0.006841744316948784,0.239,0.33714285714285713,0.001007080078125,-2.3180471831054703,0.6262019872665405,47.987937927246094,0.03591520521375868,-0.1164613511827257
3760,0.11281687418619792,0.1195312786102295,86.80531311035156,85.18913269042969,-4.911937713623047,87.93049621582031,0.0006595187717013889,0.236,0.33714285714285713,0.0015563117133246527,-2.889319079467775,1.4171940088272095,47.987937927246094,0.017957560221354165,-0.08713815477159288
3761,0.10500437418619792,0.13945316314697265,90.54912567138672,86.27340698242188,-4.850563049316406,88.27828979492188,-0.012751854790581597,0.23166666666666666,0.3382142857142857,0.0025328742133246527,-2.7794596129150406,1.966494083404541,47.987937927246094,0.047507985432942705,-0.09032058715820312
3762,0.038598124186197916,0.15937503814697265,87.562255859375,84.67768096923828,-5.402931213378906,89.34210205078125,0.0008868323432074653,0.229,0.3385714285714286,0.00115966796875,-2.0433966093750016,1.307334065437317,47.987937927246094,0.032050832112630205,-0.1082781473795573
3763,0.042504374186197916,0.15937503814697265,87.62362670898438,83.38882446289062,-5.096061706542969,89.0761489868164,-0.012069914076063368,0.22533333333333333,0.3385714285714286,0.0021056281195746527,-2.0214239531250016,0.45042601227760315,47.987937927246094,0.047053358289930555,-0.1019134521484375
3764,0.07375437418619792,0.15937503814697265,86.43707275390625,83.63432312011719,-5.689342498779297,89.567138671875,-0.01797998216417101,0.22166666666666668,0.3385714285714286,0.004333326551649305,-2.241144793579103,0.16479000449180603,47.987937927246094,0.03114166259765625,-0.11396090189615886
3765,0.06594187418619792,0.15937503814697265,88.31919860839844,81.77264404296875,-5.218807220458984,89.89447021484375,-0.0009316762288411458,0.21866666666666668,0.3385714285714286,0.0038451300726996527,-2.4498793059082047,0.08788800239562988,47.987937927246094,0.07273949517144097,-0.11236974928114149
3766,0.042504374186197916,0.15937503814697265,86.43707275390625,82.40684509277344,-5.402931213378906,88.99431610107422,0.003841866387261285,0.21533333333333332,0.3385714285714286,0.0025328742133246527,-2.7574869566650406,-0.14281906420898594,47.987937927246094,0.04478030734592014,-0.10441385904947917
3767,0.011254374186197917,0.17929691314697266,82.85691833496094,83.34790802001953,-5.791633605957031,90.46729278564453,-0.002750142415364583,0.212,0.3389285714285714,0.0003662109375,-2.581711428710939,-1.2743765288085953,47.987937927246094,-0.005455440945095486,-0.12509918212890625
3768,0.019066874186197916,0.17929691314697266,85.53691101074219,83.34790802001953,-5.771175384521484,89.567138671875,-0.010478719075520834,0.208,0.3385714285714286,-0.000732421875,-3.0431219511718766,-1.3293062620849625,47.987937927246094,0.02432225545247396,-0.11487015618218316
3769,0.034691874186197916,0.15937503814697265,85.1072998046875,82.67279052734375,-5.055145263671875,89.32164001464844,-0.013888380262586805,0.20533333333333334,0.3389285714285714,-0.00115966796875,-3.559464114257814,-0.5053564482421891,47.987937927246094,0.02705010308159722,-0.10418650309244791
3770,0.042504374186197916,0.15937503814697265,87.19401550292969,84.82088470458984,-5.321098327636719,89.87400817871094,-0.012297227647569445,0.202,0.33964285714285714,-0.000640869140625,-3.251856463500978,0.6921180486679077,47.81216049194336,0.02636811998155382,-0.11327896118164063
3771,0.034691874186197916,0.17929691314697266,86.82576751708984,83.32745361328125,-5.136974334716797,88.87156677246094,-0.0043413374159071184,0.197,0.34,-0.000335693359375,-3.229883807250978,1.0107120275497437,47.72426986694336,0.038870154486762155,-0.10009490119086371
3772,0.034691874186197916,0.17929691314697266,88.70790100097656,86.74394226074219,-4.952854156494141,89.567138671875,-0.010933346218532987,0.19366666666666665,0.34035714285714286,0.00042724609375,-3.1090380125732437,1.175502061843872,47.72426986694336,0.021821763780381944,-0.10577769809299045
3773,0.022973124186197916,0.17929691314697266,83.61386108398438,80.17691802978516,-4.686901092529297,89.30118560791016,-0.007978312174479167,0.18933333333333333,0.3407142857142857,0.000244140625,-3.251856463500978,0.09887400269508362,46.66958999633789,0.0381882561577691,-0.09986763000488282
3774,0.046410624186197916,0.17929691314697266,87.0098876953125,84.554931640625,-4.768730163574219,88.85111236572266,-0.012297227647569445,0.186,0.3407142857142857,0.0015868292914496527,-3.0211512022705094,0.35155200958251953,46.58169937133789,0.027277289496527777,-0.0957760281032986
3775,0.058129374186197916,0.17929691314697266,86.23248291015625,82.93875122070312,-4.380031585693359,89.66943359375,-0.011615286933051215,0.18266666666666667,0.34035714285714286,0.0025328742133246527,-2.6915708952636734,0.373524010181427,46.40591812133789,0.03659701877170139,-0.10054961310492622
3776,0.046410624186197916,0.219140682220459,87.68500518798828,84.63676452636719,-4.257282257080078,88.95339965820312,-0.004795964558919271,0.17866666666666667,0.33964285714285714,0.0027159796820746527,-2.7574869566650406,0.8678940534591675,46.40591812133789,0.03386934068467882,-0.09122979905870225
3777,0.06594187418619792,0.17929691314697266,88.17599487304688,86.33477783203125,-4.8096466064453125,89.93538665771484,-0.01320648193359375,0.17566666666666667,0.3392857142857143,0.004241773817274305,-2.208185809204103,1.0436700582504272,46.40591812133789,0.020457967122395834,-0.1082781473795573
3778,0.06984812418619792,0.17929691314697266,87.5213394165039,83.06149291992188,-4.625526428222656,89.48530578613281,-0.015706888834635415,0.17166666666666666,0.3382142857142857,0.005004713270399305,-2.482836382934572,0.29662200808525085,46.40591812133789,0.04955384996202257,-0.1012314690483941
3779,0.07766062418619792,0.15937503814697265,88.27828979492188,88.97386169433594,-4.523235321044922,89.32164001464844,-0.007296371459960938,0.16866666666666666,0.3375,0.005157301161024305,-2.6366411619873062,1.06564199924469,46.40591812133789,-0.00772857666015625,-0.0982763926188151
3780,0.038598124186197916,0.15937503814697265,86.58027648925781,82.46821594238281,-4.073158264160156,88.97386169433594,-0.009569507175021702,0.16466666666666666,0.33714285714285713,0.0036620246039496527,-2.889319079467775,0.010986000299453735,46.40591812133789,0.045689561631944445,-0.08941133287217883
3781,0.007348124186197917,0.17929691314697266,85.47554016113281,81.71127319335938,-2.9275131225585938,87.45996856689453,-0.0009316762288411458,0.16166666666666665,0.3364285714285714,0.0014342414008246527,-2.6695982390136734,0.13183200359344482,46.40591812133789,0.041825188530815974,-0.059860907660590275
3782,0.0034418741861979166,0.17929691314697266,88.0737075805664,84.61630249023438,-3.9299545288085938,89.81263732910156,-0.00775099860297309,0.15833333333333333,0.3364285714285714,0.0014342414008246527,-1.6918455534667984,0.8678940534591675,46.40591812133789,0.038415612114800345,-0.09713990953233508
3783,-0.008276875813802083,0.19921878814697266,84.1048583984375,83.08195495605469,-3.3980445861816406,89.62850952148438,-0.005250591701931423,0.155,0.33535714285714285,0.0010986328125,-1.8346620970459,0.17577600479125977,46.40591812133789,0.011365593804253473,-0.0891839345296224
3784,0.007348124186197917,0.19921878814697266,84.39126586914062,84.5958480834961,-2.8047637939453125,88.42149353027344,-0.015706888834635415,0.15233333333333332,0.33464285714285713,0.0023802863226996527,-2.3839632445068375,-0.12084640795898594,46.40591812133789,-0.002273135715060764,-0.06918063693576389
3785,0.034691874186197916,0.17929691314697266,87.13264465332031,85.47554016113281,-2.8252220153808594,89.19889831542969,-0.021616956922743055,0.14933333333333335,0.3335714285714286,0.0039061652289496527,-2.0433966093750016,0.19774800539016724,46.40591812133789,0.018412272135416668,-0.07804578145345052
3786,0.015160624186197917,0.17929691314697266,87.35768127441406,84.16622924804688,-2.743389129638672,88.93293762207031,-0.002522828843858507,0.14733333333333334,0.33321428571428574,0.0028685675726996527,-1.7467752867431656,0.2746500074863434,46.40591812133789,0.035460578070746526,-0.07418140835232205
3787,-0.00046437581380208334,0.15937503814697265,86.29386138916016,83.83889770507812,-3.254840850830078,89.13752746582031,-0.0050232781304253475,0.14433333333333334,0.33214285714285713,0.0016173468695746527,-1.7138163023681656,-0.09887375170898594,46.40591812133789,0.027277374267578126,-0.08213742574055989
3788,0.022973124186197916,0.15937503814697265,88.25782775878906,81.32257080078125,-3.6230850219726562,88.64653015136719,-0.01911655002170139,0.14233333333333334,0.3314285714285714,0.0030821906195746527,-1.6918455534667984,0.10986000299453735,46.40591812133789,0.07705841064453126,-0.08077350192599826
3789,0.030785624186197916,0.219140682220459,85.02546691894531,83.5115737915039,-3.909496307373047,89.81263732910156,-0.00047704908582899306,0.139,0.33107142857142857,0.004546949598524305,-1.9225508146972672,0.19774800539016724,46.40591812133789,0.01682103474934896,-0.09691259596082899
3790,0.058129374186197916,0.17929691314697266,85.96653747558594,84.1048583984375,-3.1730079650878906,88.33966064453125,-0.022980838351779515,0.13633333333333333,0.33071428571428574,0.005401441786024305,-2.7025572233886734,-0.7140909605712906,46.40591812133789,0.020685323079427085,-0.07236298455132378
3791,0.054223124186197916,0.17929691314697266,87.50088500976562,84.22760009765625,-2.8456802368164062,88.83065795898438,-0.00843293931749132,0.13366666666666666,0.33071428571428574,0.004516432020399305,-2.1093126707763687,0.0,47.54848861694336,0.03636983235677083,-0.07418153550889757
3792,0.030785624186197916,0.13945316314697265,88.85111236572266,85.86424255371094,-2.743389129638672,89.19889831542969,0.006114959716796875,0.13066666666666665,0.33071428571428574,0.0025023566351996527,-1.8126913481445328,0.4943700134754181,47.54848861694336,0.03318744235568576,-0.07713652716742622
3793,0.038598124186197916,0.15937503814697265,88.21691131591797,85.53691101074219,-0.6566734313964844,88.70790100097656,-0.01002409193250868,0.127,0.33107142857142857,0.0036925421820746527,-1.9664942198486344,0.35155200958251953,47.54848861694336,0.02977778116861979,-0.04849527147081163
3794,0.054223124186197916,0.15937503814697265,83.20470428466797,87.74638366699219,1.1436309814453125,88.81019592285156,-0.021616956922743055,0.12333333333333334,0.33107142857142857,0.004913160536024305,-2.0653692656250016,-0.01098694140625156,47.72426986694336,-0.050463104248046876,-0.029628499348958334
3795,0.022973124186197916,0.15937503814697265,86.94851684570312,84.554931640625,1.0413398742675781,87.91004180908203,-0.002750142415364583,0.12066666666666667,0.33107142857142857,0.0027770148383246527,-1.9664942198486344,0.10986000299453735,47.72426986694336,0.02659539116753472,-0.020763354831271702
3796,-0.016089375813802084,0.15937503814697265,89.40347290039062,87.68500518798828,-0.6157569885253906,89.09660339355469,-0.002068201700846354,0.11766666666666667,0.3314285714285714,0.00042724609375,-1.8126913481445328,0.7360620498657227,47.72426986694336,0.019094085693359374,-0.05235955980088976
3797,-0.039526875813802084,0.17929691314697266,86.35523986816406,82.16134643554688,-0.9840011596679688,89.1579818725586,-0.014115693834092882,0.115,0.33107142857142857,-0.0008544921875,-1.7357889586181656,-0.6591612272949234,48.427391052246094,0.04659881591796875,-0.05713314480251736
3798,-0.019995625813802084,0.17929691314697266,88.27828979492188,85.0459213256836,-2.2933120727539062,89.1170654296875,-0.01775266859266493,0.111,0.3314285714285714,-0.000518798828125,-1.9225508146972672,-1.0326849394531266,48.427391052246094,0.03591520521375868,-0.0712264166937934
3799,-0.008276875813802083,0.219140682220459,86.84622192382812,83.98210144042969,-2.7843055725097656,89.05569458007812,-0.012069914076063368,0.10766666666666666,0.3314285714285714,-0.000762939453125,-1.9225508146972672,-1.120571749755861,48.427391052246094,0.03182356092664931,-0.07600000169542101
3800,-0.016089375813802084,0.19921878814697266,86.82576751708984,83.61386108398438,-3.3980445861816406,89.03523254394531,-0.0011589898003472221,0.105,0.3314285714285714,-0.0024413214789496527,-1.9664942198486344,-0.9557825499267594,48.427391052246094,0.03568784925672743,-0.0825919681125217
3801,-0.004370625813802083,0.19921878814697266,83.83889770507812,83.67523193359375,-5.423389434814453,91.2242431640625,-0.007978312174479167,0.102,0.3314285714285714,-0.0023802863226996527,-1.8017050200195328,-0.9338098936767594,48.427391052246094,0.001818508572048611,-0.1294181399875217
3802,0.042504374186197916,0.15937503814697265,85.70057678222656,84.43218231201172,-4.502777099609375,88.87156677246094,-0.03275523715549045,0.09933333333333333,0.3314285714285714,-0.00042724609375,-2.955235140869142,-0.3185945921630875,48.427391052246094,0.014093271891276042,-0.09304826524522569
3803,0.019066874186197916,0.1195312786102295,85.70057678222656,83.79798889160156,-4.11407470703125,88.68744659423828,-0.007069057888454861,0.09633333333333334,0.33214285714285713,-0.0018920050726996527,-3.3727022581787125,-0.01098694140625156,48.427391052246094,0.02113986545138889,-0.0866835700141059
3804,-0.019995625813802084,0.1195312786102295,86.25294494628906,83.24562072753906,-4.073158264160156,88.44195556640625,-0.0011589898003472221,0.09266666666666666,0.33321428571428574,-0.0039061652289496527,-3.251856463500978,0.02197200059890747,48.427391052246094,0.03341471354166667,-0.08350126478407117
3805,-0.047339375813802084,0.15937503814697265,84.14576721191406,89.28073120117188,-4.4209442138671875,88.564697265625,-0.009342193603515625,0.089,0.335,-0.005615064832899305,-2.889319079467775,0.9887400269508362,48.427391052246094,-0.057055155436197914,-0.08872934977213541
3806,-0.08249562581380208,0.15937503814697265,88.46240997314453,87.33721923828125,-4.523235321044922,89.03523254394531,-0.005250591701931423,0.084,0.3364285714285714,-0.007201978895399305,-3.1090380125732437,0.2197200059890747,48.427391052246094,0.01250211927625868,-0.09509408738878038
3807,-0.055151875813802084,0.17929691314697266,87.74638366699219,84.16622924804688,-4.543693542480469,89.30118560791016,-0.013661109076605903,0.08,0.33785714285714286,-0.005859205457899305,-3.4276319914550797,-0.04394401843261875,48.427391052246094,0.03977949354383681,-0.09827643500434027
3808,-0.031714375813802084,0.15937503814697265,85.37325286865234,85.98699188232422,-4.482318878173828,89.30118560791016,-0.01002409193250868,0.076,0.3389285714285714,-0.004211341010199653,-3.3397451811523453,-0.4174677305908219,47.987937927246094,-0.006819322374131944,-0.09759449428982205
3809,0.026879374186197916,0.13945316314697265,84.71859741210938,81.75218200683594,-4.461860656738281,90.03767395019531,-0.026390499538845487,0.07366666666666667,0.34035714285714286,-0.0018309699164496527,-3.0650946074218766,-0.9997259550781266,47.81216049194336,0.03296017116970486,-0.10555038452148438
3810,0.046410624186197916,0.13945316314697265,87.33721923828125,87.54179382324219,-4.134532928466797,88.1555404663086,-0.00775099860297309,0.069,0.3410714285714286,-0.0010986328125,-3.0870672636718766,1.2853620052337646,47.72426986694336,-0.0022730509440104167,-0.08100081549750435
3811,-0.031714375813802084,0.1195312786102295,84.61630249023438,85.33233642578125,-4.768730163574219,89.6080551147461,0.011570443047417535,0.06633333333333333,0.34214285714285714,-0.0038451300726996527,-2.548752444335939,1.450152039527893,47.72426986694336,-0.0079559326171875,-0.10418650309244791
3812,-0.06296437581380208,0.09960939407348633,84.61630249023438,81.87493133544922,-4.298198699951172,88.99431610107422,-0.013888380262586805,0.06333333333333334,0.3425,-0.0038146124945746527,-2.6586119108886734,0.9008520245552063,47.72426986694336,0.030459679497612847,-0.09213905334472657
3813,-0.023901875813802084,0.15937503814697265,88.72836303710938,80.29966735839844,-4.686901092529297,89.2193603515625,-0.018207295735677084,0.06,0.34285714285714286,-0.0022276984320746527,-2.6146685057373062,0.5932440161705017,47.72426986694336,0.0936521742078993,-0.09895846048990885
3814,-0.023901875813802084,0.17929691314697266,88.05325317382812,84.41172790527344,-4.66644287109375,89.62850952148438,-0.006159803602430555,0.056666666666666664,0.3425,-0.0018614874945746527,-2.6695982390136734,0.8678940534591675,47.72426986694336,0.04046139187282986,-0.10327724880642361
3815,-0.035620625813802084,0.13945316314697265,86.0074462890625,82.0999755859375,-4.502777099609375,89.71034240722656,-0.0054779052734375,0.05466666666666667,0.34214285714285714,-0.0019530402289496527,-2.5926958494873062,0.1538040041923523,46.66958999633789,0.043416341145833336,-0.10236799452039931
3816,-0.008276875813802083,0.13945316314697265,87.5213394165039,85.12775421142578,-5.321098327636719,91.06057739257812,-0.01752539740668403,0.052,0.3414285714285714,-0.00048828125,-2.559738772460939,0.45042601227760315,46.58169937133789,0.02659539116753472,-0.1264630635579427
3817,-0.023901875813802084,0.17929691314697266,88.17599487304688,85.96653747558594,-5.075603485107422,89.77172088623047,-0.009796820746527778,0.04766666666666667,0.3407142857142857,-0.001251220703125,-3.3836885863037125,0.7690200209617615,46.58169937133789,0.02454952663845486,-0.10941471523708768
3818,-0.031714375813802084,0.13945316314697265,86.72348022460938,82.5091323852539,-4.625526428222656,88.76927947998047,-0.015706888834635415,0.044,0.3407142857142857,-0.0010986328125,-3.954960482666017,-0.05493034655761875,46.58169937133789,0.04682608710394965,-0.09327562120225695
3819,0.011254374186197917,0.17929691314697266,84.47309875488281,87.66455078125,-6.098503112792969,91.26515197753906,-0.019343863593207465,0.041,0.3407142857142857,0.0015563117133246527,-2.933262484619142,0.4284540116786957,46.58169937133789,-0.035460578070746526,-0.1373739454481337
3820,0.007348124186197917,0.17929691314697266,84.90271759033203,82.32501220703125,-7.264606475830078,90.1604232788086,-0.007978312174479167,0.03766666666666667,0.33964285714285714,0.00115966796875,-3.3507315092773453,-0.10986007983398594,45.52701950073242,0.028641170925564237,-0.1380558861626519
3821,0.019066874186197916,0.17929691314697266,86.78485107421875,83.83889770507812,-5.996212005615234,91.40835571289062,-0.015706888834635415,0.033,0.33714285714285713,0.0019530402289496527,-3.812142031738283,0.10986000299453735,45.17546081542969,0.03273281521267361,-0.13782853020562066
3822,0.022973124186197916,0.19921878814697266,86.13019561767578,82.20226287841797,-5.730258941650391,90.69232940673828,-0.011842600504557292,0.029333333333333333,0.3357142857142857,0.0022276984320746527,-3.965946810791017,0.6371880173683167,44.38444900512695,0.04364369710286458,-0.12691764831542968
3823,0.011254374186197917,0.17929691314697266,88.17599487304688,84.57539367675781,-5.607509613037109,90.20133972167969,-0.009114880032009548,0.026,0.3339285714285714,0.0018309699164496527,-3.3507315092773453,1.219446063041687,44.38444900512695,0.04000667995876736,-0.12009832594129774
3824,-0.008276875813802083,0.13945316314697265,88.46240997314453,87.88958740234375,-5.402931213378906,90.34454345703125,-0.009569507175021702,0.022,0.33321428571428574,0.0018309699164496527,-2.955235140869142,0.3185940086841583,44.38444900512695,0.006364695231119792,-0.11941638522677951
3825,-0.00046437581380208334,0.15937503814697265,83.77752685546875,82.16134643554688,-3.8481216430664062,89.19889831542969,-0.03139135572645399,0.01633333333333333,0.3314285714285714,0.0013121710883246527,-2.845373766967775,-1.6369139128417984,44.38444900512695,0.017957560221354165,-0.08941133287217883
3826,0.038598124186197916,0.13945316314697265,88.564697265625,85.37325286865234,-4.727817535400391,89.0147705078125,-0.037528737386067705,0.012333333333333333,0.33035714285714285,0.0017394171820746527,-1.8017050200195328,-0.6042314940185562,44.38444900512695,0.03546049329969618,-0.0971398671468099
3827,-0.008276875813802083,0.15937503814697265,86.35523986816406,88.1146240234375,-2.866138458251953,87.95095825195312,-0.008205625745985243,0.009666666666666667,0.32857142857142857,-0.0015868292914496527,-1.0436712675781266,0.9447960257530212,37.265357971191406,-0.019548712836371527,-0.06463440789116753
3828,-0.06296437581380208,0.15937503814697265,86.90760040283203,82.30455017089844,-3.357128143310547,87.35768127441406,-0.011615286933051215,0.004666666666666667,0.3267857142857143,-0.004577467176649305,-0.04394401843261875,0.35155200958251953,24.433420181274414,0.05114500257703993,-0.06349788241916232
3829,-0.059058125813802084,0.09960939407348633,87.78729248046875,83.02058410644531,-2.3956031799316406,86.5188980102539,-0.05480439927842882,0.0033333333333333335,0.32107142857142856,-0.0031737433539496527,0.747048020362854,0.4614120125770569,24.345529556274414,0.05296342637803819,-0.043494457668728295
3830,-0.059058125813802084,0.13945316314697265,90.69232940673828,82.22271728515625,-0.9635429382324219,83.28652954101562,-0.03343713548448351,0.0016666666666666668,0.3171428571428571,-0.004455396864149305,1.021697998046875,1.0546560287475586,24.169750213623047,0.09410680135091146,0.008332528008355034
3831,-0.11374562581380208,0.1195312786102295,83.06149291992188,79.8905029296875,-1.1476669311523438,85.53691101074219,-0.02866363525390625,-0.001,0.3107142857142857,-0.006652662489149305,1.5600121021270752,0.23070600628852844,24.169750213623047,0.035233222113715275,-0.018717532687717014
3832,-0.059058125813802084,0.1195312786102295,90.03767395019531,80.27920532226562,-0.55438232421875,83.96165466308594,-0.04139302571614583,0.0,0.3067857142857143,-0.004333411322699653,2.0104379653930664,0.4064820110797882,24.169750213623047,0.10842742919921874,0.005377366807725694
3833,-0.012183125813802083,0.09960939407348633,86.62118530273438,83.75706481933594,1.3277511596679688,83.36836242675781,-0.03889261881510417,0.0,0.3003571428571429,-0.001495361328125,2.3290319442749023,1.175502061843872,24.169750213623047,0.03182356092664931,0.03288209703233507
3834,0.007348124186197917,0.07968751907348633,85.90515899658203,86.35523986816406,2.7188949584960938,81.26119232177734,-0.032073296440972225,0.0,0.2960714285714286,-0.0,2.8893179893493652,1.9115641117095947,24.169750213623047,-0.00500089857313368,0.07175225151909723
