,WD,WS,AIL_1,AIL_2,ELEV_1,ELEV_2,RUDD,ALT,GS,TH,PTCH,ROLL,PLA_1,AIL,ELEV
5624,-0.10851575003729927,0.07968751907348633,85.47554016113281,89.38301849365234,-4.380031585693359,88.23736572265625,-0.006841744316948784,0.7836666666666666,0.5217857142857143,0.0012206713358561198,-0.7690206938476578,1.340291976928711,41.83563995361328,-0.04341642591688368,-0.08463774787055121
5625,-0.12804700003729927,0.07968751907348633,86.02790832519531,93.82240295410156,-4.277740478515625,88.19645690917969,-0.006841744316948784,0.7823333333333333,0.5214285714285715,0.0014648013644748264,-1.131558077880861,1.1864880323410034,40.86885070800781,-0.0866054958767361,-0.08304663764105903
5626,-0.14757825003729927,0.07968751907348633,85.61874389648438,100.45079803466797,-4.236824035644531,88.1146240234375,-0.006841744316948784,0.78,0.5210714285714285,0.0012817064921061198,-1.3512789183349625,0.2856360077857971,40.34151077270508,-0.16480060153537326,-0.08168275621202258
5627,-0.13195325003729927,0.07968751907348633,85.61874389648438,95.39767456054688,-4.154991149902344,88.09416198730469,-0.006841744316948784,0.778,0.5207142857142857,0.0014342837863498264,-1.5709978514404312,-0.6042314940185562,39.814170837402344,-0.10865478515625,-0.08054614596896702
5628,-0.10851575003729927,0.05976563930511475,85.5982894897461,96.85018920898438,-4.175449371337891,88.1146240234375,-0.006841744316948784,0.7753333333333333,0.5207142857142857,0.0013732592264811198,-1.8126913481445328,-0.845923083374025,39.28683090209961,-0.12502110799153646,-0.08100081549750435
5629,-0.09289075003729927,0.07968751907348633,85.557373046875,108.44987487792969,-4.1959075927734375,88.1146240234375,-0.006841744316948784,0.772,0.5203571428571429,0.0007018831041124132,-2.0433966093750016,-0.9997259550781266,38.84737777709961,-0.2543611314561632,-0.08122812906901042
5630,-0.06554700003729927,0.07968751907348633,85.53691101074219,106.13812255859375,-4.236824035644531,88.13508605957031,-0.006841744316948784,0.7683333333333333,0.5203571428571429,0.0005798233879937066,-2.252131121704103,-1.2633902006835953,38.583709716796875,-0.22890235053168403,-0.08191011216905382
5631,-0.03429700003729926,0.07968751907348633,85.5164566040039,105.15613555908203,-4.216365814208984,88.13508605957031,-0.006841744316948784,0.764,0.5207142857142857,0.0004577530754937066,-2.493822711059572,-1.0326849394531266,37.704811096191406,-0.2182186550564236,-0.08168279859754775
5632,-0.030390750037299262,0.09960939407348633,85.57783508300781,91.20378112792969,-4.134532928466797,88.13508605957031,-0.007069057888454861,0.7593333333333333,0.5203571428571429,-6.1024559868706596e-05,-2.7574869566650406,-0.6481748991699234,36.91379928588867,-0.06251051161024306,-0.08077354431152343
5633,-0.030390750037299262,0.09960939407348633,85.61874389648438,89.50576782226562,-4.093616485595703,87.93049621582031,-0.006841744316948784,0.7543333333333333,0.5203571428571429,-0.0004882600572374132,-2.812416689941408,-0.4614130430908219,36.1227912902832,-0.043189154730902776,-0.07804569668240018
5634,-0.026484500037299262,0.09960939407348633,85.557373046875,88.17599487304688,-4.073158264160156,87.84866333007812,-0.006841744316948784,0.7496666666666667,0.52,-0.0007629076639811198,-2.6146685057373062,-0.5273291044921891,35.15599822998047,-0.02909579806857639,-0.07690912882486979
5635,-0.006953250037299262,0.09960939407348633,85.5982894897461,88.83065795898438,-4.073158264160156,87.99187469482422,-0.006841744316948784,0.744,0.5196428571428572,-0.0005492952134874132,-2.581711428710939,-0.14281906420898594,34.628658294677734,-0.03591520521375868,-0.0785003662109375
5636,-0.010859500037299262,0.09960939407348633,85.61874389648438,88.81019592285156,-4.073158264160156,88.05325317382812,-0.006841744316948784,0.739,0.5189285714285714,-0.0007018831041124132,-2.856360095092775,-0.08788933093261875,34.364990234375,-0.035460578070746526,-0.0791823493109809
5637,-0.010859500037299262,0.09960939407348633,85.57783508300781,87.64408874511719,-4.073158264160156,88.03279113769531,-0.006841744316948784,0.7336666666666667,0.5185714285714286,-0.0008544603983561198,-3.0211512022705094,-0.15380539233398594,34.101318359375,-0.0229583740234375,-0.07895499335394965
5638,0.0008592499627007379,0.09960939407348633,85.61874389648438,86.90760040283203,-4.073158264160156,87.99187469482422,-0.006841744316948784,0.7286666666666667,0.5185714285714286,-0.0007018831041124132,-3.1090380125732437,0.29662200808525085,34.101318359375,-0.014320627848307291,-0.0785003662109375
5639,-0.010859500037299262,0.09960939407348633,85.61874389648438,87.39859008789062,-4.052700042724609,87.97142028808594,-0.006841744316948784,0.7216666666666667,0.5182142857142857,-0.0008239428202311198,-3.240870135375978,0.7360620498657227,34.101318359375,-0.01977606879340278,-0.07804578145345052
5640,-0.022578250037299262,0.09960939407348633,85.61874389648438,88.564697265625,-4.052700042724609,87.93049621582031,-0.006841744316948784,0.7163333333333334,0.5182142857142857,-0.0008239428202311198,-3.3067861967773453,0.6921180486679077,33.749759674072266,-0.03273281521267361,-0.07759106953938802
5641,-0.018672000037299262,0.1195312786102295,85.53691101074219,92.20622253417969,-4.052700042724609,87.86912536621094,-0.006841744316948784,0.7093333333333334,0.5178571428571429,-0.0007018831041124132,-3.3287588530273453,0.3185940086841583,32.95874786376953,-0.07410346137152778,-0.07690917121039496
5642,-0.003047000037299262,0.1195312786102295,85.455078125,99.91888427734375,-4.032245635986328,87.84866333007812,-0.006841744316948784,0.703,0.5178571428571429,-0.0002136124504937066,-3.284815447875978,0.23070600628852844,32.4314079284668,-0.1607089572482639,-0.07645454406738281
5643,0.016484249962700738,0.13945316314697265,85.57783508300781,90.69232940673828,-4.032245635986328,87.82821655273438,-0.006841744316948784,0.6966666666666667,0.5175,0.0007018831041124132,-3.207913058349611,0.8239500522613525,31.816179275512695,-0.05682771470811632,-0.07622735765245225
5644,-0.006953250037299262,0.13945316314697265,85.98699188232422,91.59248352050781,-4.032245635986328,87.78729248046875,-0.006841744316948784,0.6906666666666667,0.5167857142857143,0.0003356827629937066,-3.1200243406982437,0.9008520245552063,31.46462059020996,-0.06228324042426215,-0.07577264573838975
5645,-0.030390750037299262,0.15937503814697265,85.57783508300781,97.15705871582031,-4.032245635986328,87.76683807373047,-0.006841744316948784,0.6843333333333333,0.5160714285714286,-0.0004577424791124132,-2.9991785460205094,0.1867620050907135,31.28883934020996,-0.12865804036458334,-0.07554537455240885
5646,-0.026484500037299262,0.17929691314697266,85.5164566040039,101.94422912597656,-4.032245635986328,87.82821655273438,-0.006841744316948784,0.6783333333333333,0.5146428571428572,-0.0003967073228624132,-2.878332751342775,0.1538040041923523,31.28883934020996,-0.1825308057996962,-0.07622735765245225
5647,-0.026484500037299262,0.17929691314697266,85.5982894897461,93.08592224121094,-4.032245635986328,87.84866333007812,-0.006841744316948784,0.673,0.5139285714285714,-0.0003967073228624132,-2.790444033691408,0.5053560137748718,31.28883934020996,-0.08319591946072048,-0.07645454406738281
5648,-0.03429700003729926,0.19921878814697266,85.5982894897461,92.1243896484375,-4.032245635986328,87.93049621582031,-0.006841744316948784,0.6673333333333333,0.5121428571428571,-0.0008239428202311198,-2.790444033691408,0.26366400718688965,31.28883934020996,-0.07251222398546008,-0.07736379835340712
5649,-0.026484500037299262,0.19921878814697266,85.557373046875,92.61538696289062,-4.032245635986328,87.97142028808594,-0.006841744316948784,0.663,0.5107142857142857,-0.0003967073228624132,-2.7355143004150406,0.09887400269508362,31.200950622558594,-0.07842237684461806,-0.07781851026746962
5650,-0.030390750037299262,0.19921878814697266,85.49600219726562,94.579345703125,-4.052700042724609,87.99187469482422,-0.006841744316948784,0.6573333333333333,0.5089285714285714,-0.0009460131327311198,-2.6476274901123062,0.45042601227760315,31.200950622558594,-0.10092603895399306,-0.07827305263943142
5651,-0.04992200003729926,0.17929691314697266,85.5164566040039,105.8517074584961,-4.236824035644531,88.1146240234375,-0.007069057888454861,0.6523333333333333,0.5071428571428571,-0.0017699665493435329,-2.581711428710939,0.6152160167694092,31.200950622558594,-0.22594723171657985,-0.08168275621202258
5652,-0.04210950003729926,0.17929691314697266,84.84133911132812,104.23552703857422,-4.236824035644531,88.1555404663086,-0.006841744316948784,0.647,0.505,-0.0015258259243435329,-2.6695982390136734,0.6042300462722778,31.200950622558594,-0.21549097696940103,-0.08213738335503472
5653,-0.003047000037299262,0.17929691314697266,85.23004150390625,103.96957397460938,-4.154991149902344,88.1555404663086,-0.006841744316948784,0.6433333333333333,0.5028571428571429,0.0005493058098687066,-2.7794596129150406,1.2084600925445557,31.200950622558594,-0.20821702745225695,-0.08122812906901042
5654,0.0008592499627007379,0.15937503814697265,85.47554016113281,99.03919982910156,-4.093616485595703,88.13508605957031,-0.006841744316948784,0.638,0.5003571428571428,0.0012206713358561198,-2.7574869566650406,1.4611380100250244,31.200950622558594,-0.15070732964409722,-0.08031891716851128
5655,0.0008592499627007379,0.15937503814697265,85.41416931152344,94.80438995361328,-4.052700042724609,88.0737075805664,-0.006841744316948784,0.6346666666666667,0.4982142857142857,0.0018004841274685329,-2.7574869566650406,1.0876140594482422,31.200950622558594,-0.10433578491210938,-0.07918230692545573
5656,-0.003047000037299262,0.15937503814697265,85.35279846191406,88.25782775878906,-4.052700042724609,88.1146240234375,-0.006841744316948784,0.628,0.495,0.0018920368618435329,-2.6915708952636734,0.7360620498657227,31.200950622558594,-0.03227810329861111,-0.07963693406846788
5657,0.016484249962700738,0.13945316314697265,85.39370727539062,87.95095825195312,-4.032245635986328,88.09416198730469,-0.006841744316948784,0.6226666666666667,0.4925,0.0026854727003309464,-2.6036821776123062,0.9667680263519287,31.200950622558594,-0.028413899739583335,-0.07918230692545573
5658,0.028202999962700738,0.13945316314697265,86.25294494628906,88.564697265625,-4.073158264160156,88.1146240234375,-0.006841744316948784,0.617,0.4875,0.0035399330986870658,-2.4279066496582047,0.9008520245552063,31.200950622558594,-0.025686136881510415,-0.07986424763997396
5659,0.016484249962700738,0.13945316314697265,85.76194763183594,88.38057708740234,-4.134532928466797,88.19645690917969,-0.006841744316948784,0.612,0.4832142857142857,0.0032042503356933595,-2.504809039184572,-0.04394401843261875,31.200950622558594,-0.029095882839626736,-0.08145544264051649
5660,0.04382799996270074,0.13945316314697265,85.49600219726562,85.92561340332031,-4.011787414550781,88.19645690917969,-0.006841744316948784,0.607,0.4782142857142857,0.0038451088799370658,-2.7574869566650406,-0.2966219359130875,31.200950622558594,-0.004773457845052083,-0.0800916035970052
5661,0.06726549996270073,0.15937503814697265,85.57783508300781,87.29630279541016,-3.9913291931152344,88.0123291015625,-0.006841744316948784,0.602,0.47464285714285714,0.004638534122043186,-2.856360095092775,0.17577600479125977,31.200950622558594,-0.019094085693359374,-0.07781842549641928
5662,0.06726549996270073,0.15937503814697265,85.5982894897461,87.76683807373047,-4.011787414550781,87.95095825195312,-0.006841744316948784,0.596,0.46964285714285714,0.004730086856418186,-2.801430361816408,0.16479000449180603,31.200950622558594,-0.024094984266493057,-0.0773638407389323
5663,0.06335924996270073,0.15937503814697265,85.557373046875,87.97142028808594,-3.9504127502441406,87.86912536621094,-0.006841744316948784,0.5903333333333334,0.46714285714285714,0.004424921671549479,-2.7574869566650406,-0.10986007983398594,31.200950622558594,-0.026822747124565973,-0.07577264573838975
5664,0.06335924996270073,0.15937503814697265,85.557373046875,86.70301818847656,-3.9299545288085938,87.78729248046875,-0.007069057888454861,0.585,0.46285714285714286,0.004455439249674479,-2.7355143004150406,0.0,31.200950622558594,-0.012729390462239584,-0.07463607788085938
5665,0.05554674996270074,0.15937503814697265,85.5982894897461,87.23492431640625,-4.073158264160156,88.13508605957031,-0.006841744316948784,0.5793333333333334,0.46,0.0038756158616807725,-2.7135435515136734,0.4614120125770569,31.200950622558594,-0.01818483140733507,-0.0800916035970052
5666,0.04773424996270074,0.15937503814697265,85.68012237548828,87.64408874511719,-4.830104827880859,88.76927947998047,-0.006841744316948784,0.5746666666666667,0.45571428571428574,0.0036925209893120658,-2.9772058897705094,0.5712720155715942,31.200950622558594,-0.02182184855143229,-0.09554871453179253
5667,0.04773424996270074,0.15937503814697265,85.57783508300781,88.09416198730469,-5.382472991943359,89.28073120117188,-0.007069057888454861,0.5706666666666667,0.4521428571428571,0.0037840737236870658,-3.570450442382814,0.3405660092830658,31.200950622558594,-0.027959187825520832,-0.10736893547905815
5668,0.06335924996270073,0.15937503814697265,85.57783508300781,87.66455078125,-5.8939208984375,89.75126647949219,-0.006841744316948784,0.567,0.4467857142857143,0.004424921671549479,-4.174681323120119,0.38451001048088074,31.200950622558594,-0.02318572998046875,-0.1182798597547743
5669,0.07117174996270073,0.13945316314697265,85.72103881835938,88.27828979492188,-6.303081512451172,90.26271057128906,-0.006841744316948784,0.5633333333333334,0.44357142857142856,0.004730086856418186,-4.745953219482423,0.3405660092830658,31.200950622558594,-0.028413899739583335,-0.12850880093044706
5670,0.06335924996270073,0.13945316314697265,85.5982894897461,87.48042297363281,-5.648426055908203,90.03767395019531,-0.006841744316948784,0.5596666666666666,0.4375,0.004302851359049479,-5.207365649291994,0.10986000299453735,31.200950622558594,-0.020912594265407987,-0.11873444451226128
5671,0.07507799996270073,0.13945316314697265,85.557373046875,86.78485107421875,-5.484760284423828,89.71034240722656,-0.006841744316948784,0.554,0.43464285714285716,0.004669051700168186,-5.130463259765627,0.35155200958251953,31.200950622558594,-0.013638644748263888,-0.11327891879611546
5672,0.08679674996270073,0.13945316314697265,85.76194763183594,88.0123291015625,-5.44384765625,89.567138671875,-0.006841744316948784,0.549,0.43107142857142855,0.005554040273030599,-5.009617465087892,0.8349360227584839,31.200950622558594,-0.02500423855251736,-0.1112331814236111
5673,0.07117174996270073,0.15937503814697265,85.74149322509766,88.89202880859375,-5.3620147705078125,89.38301849365234,-0.006841744316948784,0.5443333333333333,0.4278571428571429,0.005401452382405599,-5.009617465087892,0.7031040191650391,31.200950622558594,-0.035005950927734376,-0.1082781473795573
5674,0.07117174996270073,0.15937503814697265,85.70057678222656,87.74638366699219,-5.239265441894531,89.28073120117188,-0.006841744316948784,0.5383333333333333,0.42428571428571427,0.005706617567274305,-4.899756091186525,0.36253800988197327,31.200950622558594,-0.022731187608506946,-0.10577774047851562
5675,0.08289049996270073,0.15937503814697265,85.70057678222656,87.70545959472656,-5.11651611328125,89.13752746582031,-0.006841744316948784,0.5333333333333333,0.42178571428571426,0.006622123718261719,-4.723980563232423,0.6152160167694092,31.200950622558594,-0.022276475694444443,-0.1028227064344618
5676,0.07898424996270073,0.15937503814697265,85.70057678222656,88.33966064453125,-5.055145263671875,88.99431610107422,-0.006841744316948784,0.5283333333333333,0.4182142857142857,0.006744183434380426,-4.493275302001955,0.8569080233573914,31.200950622558594,-0.029323154025607638,-0.10054957071940104
5677,0.07898424996270073,0.15937503814697265,85.68012237548828,88.72836303710938,-5.014228820800781,88.91248321533203,-0.006841744316948784,0.523,0.4160714285714286,0.0072019365098741316,-4.251581805297853,0.8459219932556152,31.200950622558594,-0.03386934068467882,-0.09918568929036459
5678,0.09070299996270073,0.17929691314697266,85.82332611083984,90.91737365722656,-4.9733123779296875,88.87156677246094,-0.006841744316948784,0.519,0.4117857142857143,0.008331055111355252,-4.075806277343752,0.7360620498657227,31.200950622558594,-0.056600528293185765,-0.09827643500434027
5679,0.08679674996270073,0.17929691314697266,85.76194763183594,88.33966064453125,-4.8914794921875,88.74882507324219,-0.006841744316948784,0.5136666666666667,0.4092857142857143,0.008453125423855252,-3.88904442126465,0.373524010181427,31.200950622558594,-0.028641255696614583,-0.09600338406032986
5680,0.08679674996270073,0.17929691314697266,85.70057678222656,87.97142028808594,-4.850563049316406,88.64653015136719,-0.006841744316948784,0.5096666666666667,0.4057142857142857,0.008392090267605252,-3.7352415495605484,-0.03295769030761875,31.200950622558594,-0.02523159450954861,-0.09441214667426215
5681,0.09460924996270073,0.17929691314697266,85.61874389648438,86.94851684570312,-4.727817535400391,88.52378845214844,-0.007069057888454861,0.5053333333333333,0.4032142857142857,0.008788808186848959,-3.6143938475341812,-0.05493034655761875,31.200950622558594,-0.014775254991319445,-0.09168451097276475
5682,0.10632799996270073,0.17929691314697266,85.65966796875,86.94851684570312,-4.543693542480469,88.33966064453125,-0.006841744316948784,0.5003333333333333,0.3992857142857143,0.009368620978461372,-3.4276319914550797,0.45042601227760315,31.200950622558594,-0.014320543077256944,-0.08759282430013021
5683,0.10632799996270073,0.17929691314697266,85.74149322509766,87.86912536621094,-4.441402435302734,88.17599487304688,-0.006841744316948784,0.49666666666666665,0.3967857142857143,0.009887409210205079,-3.207913058349611,0.7580339908599854,31.200950622558594,-0.023640357123480903,-0.08463774787055121
5684,0.09460924996270073,0.17929691314697266,85.84378051757812,88.48286437988281,-4.461860656738281,88.1555404663086,-0.006841744316948784,0.49266666666666664,0.3939285714285714,0.009643268585205079,-2.9772058897705094,0.6042300462722778,34.013431549072266,-0.029323154025607638,-0.08463779025607639
5685,0.09070299996270073,0.17929691314697266,85.74149322509766,88.78973388671875,-4.461860656738281,88.23736572265625,-0.006841744316948784,0.4886666666666667,0.3921428571428571,0.009521208869086372,-2.900305407592775,0.09887400269508362,36.56224060058594,-0.03386934068467882,-0.08554695977105034
5686,0.09851549996270073,0.17929691314697266,85.72103881835938,87.91004180908203,-4.461860656738281,88.29874420166016,-0.006841744316948784,0.48433333333333334,0.39035714285714285,0.009704303741455079,-2.955235140869142,-0.4284540587158219,38.14426040649414,-0.02432225545247396,-0.08622894287109376
5687,0.10632799996270073,0.17929691314697266,85.70057678222656,87.70545959472656,-4.441402435302734,88.21691131591797,-0.006841744316948784,0.48033333333333333,0.3889285714285714,0.009826374053955079,-2.922276156494142,-0.5492998533935562,39.726280212402344,-0.022276475694444443,-0.08509237501356337
5688,0.11023424996270073,0.17929691314697266,85.63920593261719,86.78485107421875,-4.461860656738281,88.27828979492188,-0.006841744316948784,0.4766666666666667,0.38821428571428573,0.009795856475830079,-2.878332751342775,-0.18676246936035312,40.86885070800781,-0.012729390462239584,-0.08600167168511284
5689,0.10632799996270073,0.17929691314697266,85.65966796875,87.54179382324219,-4.441402435302734,88.31919860839844,-0.006841744316948784,0.4723333333333333,0.3875,0.009551726447211372,-2.889319079467775,0.48338401317596436,41.22040939331055,-0.020912509494357637,-0.08622890048556858
5690,0.10632799996270073,0.17929691314697266,86.08927917480469,88.50332641601562,-4.4209442138671875,88.38057708740234,-0.006841744316948784,0.469,0.3867857142857143,0.009582233428955079,-3.0321375303955094,0.8019779920578003,42.099308013916016,-0.026822747124565973,-0.0866835700141059
5691,0.09851549996270073,0.17929691314697266,87.09172058105469,90.69232940673828,-4.400489807128906,88.31919860839844,-0.006841744316948784,0.4643333333333333,0.38642857142857145,0.009551726447211372,-3.196926730224611,0.3185940086841583,42.538761138916016,-0.040006764729817706,-0.0857743157280816
5692,0.09460924996270073,0.17929691314697266,86.53935241699219,89.44439697265625,-4.4209442138671875,88.1146240234375,-0.006841744316948784,0.461,0.3871428571428571,0.008910867902967665,-3.0870672636718766,-1.0216986113281266,42.89031982421875,-0.0322782728407118,-0.08372853597005209
5693,0.11023424996270073,0.19921878814697266,84.35034942626953,88.23736572265625,-4.400489807128906,88.17599487304688,-0.006841744316948784,0.456,0.3875,0.009002420637342665,-2.922276156494142,-1.527054446289064,43.153987884521484,-0.04318906995985243,-0.08418316311306423
5694,0.13757799996270073,0.17929691314697266,84.75950622558594,89.13752746582031,-4.400489807128906,88.36012268066406,-0.006841744316948784,0.4513333333333333,0.3875,0.009521208869086372,-2.878332751342775,-0.5492998533935562,43.417659759521484,-0.04864468044704861,-0.0862290276421441
5695,0.11804674996270073,0.17929691314697266,84.92317199707031,87.48042297363281,-4.441402435302734,88.40103149414062,-0.006841744316948784,0.448,0.3875,0.007507101694742838,-2.911289828369142,0.4614120125770569,43.417659759521484,-0.028413899739583335,-0.08713815477159288
5696,0.09851549996270073,0.15937503814697265,84.94363403320312,87.19401550292969,-4.441402435302734,88.44195556640625,-0.006841744316948784,0.443,0.38785714285714284,0.006316958533393012,-3.1310106688232437,0.7250760197639465,43.505550384521484,-0.02500423855251736,-0.08759286668565539
5697,0.12195299996270073,0.17929691314697266,84.94363403320312,87.43951416015625,-4.3595733642578125,88.23736572265625,-0.006841744316948784,0.43866666666666665,0.38857142857142857,0.008147949642605252,-3.4605909758300797,0.8019779920578003,43.68132781982422,-0.027732001410590276,-0.08441043429904514
5698,0.15320299996270073,0.17929691314697266,85.92561340332031,88.87156677246094,-4.3595733642578125,88.1146240234375,-0.006841744316948784,0.43366666666666664,0.39035714285714285,0.010741869608561197,-3.4825636320800797,0.9557820558547974,44.12078094482422,-0.03273281521267361,-0.08304663764105903
5699,0.16492174996270073,0.17929691314697266,86.29386138916016,89.34210205078125,-4.339115142822266,88.1555404663086,-0.007069057888454861,0.429,0.3914285714285714,0.012725459204779731,-3.4715773039550797,0.9118380546569824,44.12078094482422,-0.03386934068467882,-0.0832739512125651
5700,0.15710924996270073,0.17929691314697266,86.17111206054688,89.567138671875,-4.216365814208984,88.13508605957031,-0.006841744316948784,0.42433333333333334,0.3917857142857143,0.012908554077148438,-3.592423098632814,0.3954960107803345,41.22040939331055,-0.03773362901475694,-0.08168279859754775
5701,0.15710924996270073,0.17929691314697266,86.1097412109375,88.91248321533203,-4.032245635986328,87.97142028808594,-0.006841744316948784,0.41933333333333334,0.39071428571428574,0.012664424048529731,-3.6253801756591812,-0.10986007983398594,35.8591194152832,-0.031141577826605902,-0.07781851026746962
5702,0.15320299996270073,0.19921878814697266,86.0688247680664,87.97142028808594,-3.868579864501953,87.88958740234375,-0.006841744316948784,0.4146666666666667,0.39,0.013335789574517145,-3.526507037231447,-0.13183273608398594,30.40993881225586,-0.021139950222439235,-0.0750907474093967
5703,0.15710924996270073,0.19921878814697266,86.0688247680664,88.38057708740234,-3.4594192504882812,87.62362670898438,-0.006841744316948784,0.4096666666666667,0.38785714285714284,0.013396824730767145,-3.4276319914550797,0.08788800239562988,29.706819534301758,-0.025686136881510415,-0.06758939954969619
5704,0.14929674996270073,0.17929691314697266,86.04837036132812,89.73080444335938,-3.66400146484375,87.76683807373047,-0.007069057888454861,0.4053333333333333,0.38571428571428573,0.012908554077148438,-3.262842791625978,0.13183200359344482,29.706819534301758,-0.04091593424479167,-0.07145377265082466
5705,0.15320299996270073,0.17929691314697266,86.0688247680664,90.24225616455078,-4.339115142822266,88.6056137084961,-0.006841744316948784,0.40166666666666667,0.3821428571428571,0.013061141967773438,-3.537493365356447,0.05493000149726868,29.53104019165039,-0.0463714599609375,-0.08827476501464844
5706,0.15710924996270073,0.17929691314697266,86.02790832519531,90.99920654296875,-4.932395935058594,89.2193603515625,-0.006841744316948784,0.399,0.3792857142857143,0.012939071655273438,-4.295527117797853,0.12084600329399109,29.53104019165039,-0.05523664686414931,-0.1016861809624566
5707,0.16492174996270073,0.15937503814697265,86.02790832519531,99.36652374267578,-5.034687042236328,89.44439697265625,-0.007069057888454861,0.396,0.37607142857142856,0.013061141967773438,-5.240322726318361,0.26366400718688965,29.53104019165039,-0.1482068379720052,-0.10532315572102864
5708,0.18054674996270073,0.15937503814697265,86.0688247680664,88.54424285888672,-4.932395935058594,89.40347290039062,-0.006841744316948784,0.393,0.3707142857142857,0.014129225413004558,-5.976383822509767,0.4284540116786957,29.53104019165039,-0.02750464545355903,-0.10373187594943577
5709,0.16882799996270073,0.15937503814697265,86.29386138916016,89.91493225097656,-4.952854156494141,89.34210205078125,-0.006841744316948784,0.38966666666666666,0.36642857142857144,0.013183201683892145,-6.4707552366943375,0.41746801137924194,29.53104019165039,-0.04023412068684896,-0.10327729119194878
5710,0.16101549996270073,0.13945316314697265,86.08927917480469,89.30118560791016,-4.5846099853515625,89.13752746582031,-0.006841744316948784,0.386,0.3632142857142857,0.012298223707411024,-6.756390231201173,-0.2416922026367203,29.53104019165039,-0.03568784925672743,-0.09691263834635416
5711,0.18445299996270073,0.15937503814697265,85.80287170410156,87.35768127441406,-4.318656921386719,88.42149353027344,-0.006841744316948784,0.38166666666666665,0.35964285714285715,0.013946119944254558,-6.613573687622072,-0.5273291044921891,29.53104019165039,-0.01727566189236111,-0.08600167168511284
5712,0.20398424996270073,0.15937503814697265,85.90515899658203,88.74882507324219,-4.093616485595703,88.25782775878906,-0.006841744316948784,0.377,0.35714285714285715,0.015288850996229383,-6.163147585937502,0.08788800239562988,29.53104019165039,-0.0315962897406684,-0.0816827138264974
5713,0.19226549996270073,0.15937503814697265,86.35523986816406,90.75370788574219,-3.8276634216308594,88.03279113769531,-0.006841744316948784,0.37233333333333335,0.3539285714285714,0.01470903820461697,-5.811594622680666,0.2526780068874359,29.53104019165039,-0.04887186686197917,-0.07622727288140191
5714,0.18445299996270073,0.15937503814697265,86.04837036132812,90.13996887207031,-3.5617103576660156,87.80775451660156,-0.006841744316948784,0.36866666666666664,0.3514285714285714,0.014373355441623263,-5.48201431567383,-0.2746511870117203,29.53104019165039,-0.04546220567491319,-0.07077183193630643
5715,0.19617174996270073,0.15937503814697265,86.0074462890625,91.0810317993164,-3.479877471923828,87.66455078125,-0.007069057888454861,0.36433333333333334,0.34785714285714286,0.015014203389485677,-5.075533526489259,-0.5383154326171891,29.706819534301758,-0.05637317233615451,-0.06827142503526476
5716,0.20789049996270073,0.17929691314697266,85.96653747558594,87.05081176757812,-3.3775863647460938,87.66455078125,-0.006841744316948784,0.3606666666666667,0.3457142857142857,0.016265392303466797,-4.833840029785158,-0.3076082640380875,29.53104019165039,-0.012047492133246528,-0.06713485717773438
5717,0.20789049996270073,0.17929691314697266,85.98699188232422,87.86912536621094,-3.2343826293945312,87.5213394165039,-0.006841744316948784,0.35633333333333334,0.3432142857142857,0.01583815680609809,-4.647078173706056,0.2526780068874359,29.53104019165039,-0.020912594265407987,-0.0639524671766493
5718,0.19226549996270073,0.17929691314697266,86.0074462890625,87.76683807373047,-3.1525497436523438,87.35768127441406,-0.006841744316948784,0.35333333333333333,0.3392857142857143,0.015044720967610677,-4.526232379028322,0.5602860450744629,29.53104019165039,-0.019548797607421876,-0.06122478908962674
5719,0.19226549996270073,0.15937503814697265,86.02790832519531,88.72836303710938,-2.7638473510742188,87.13264465332031,-0.007069057888454861,0.3496666666666667,0.33535714285714285,0.015105756123860677,-4.4053865843505875,0.6042300462722778,29.53104019165039,-0.030005052354600693,-0.054405466715494795
5720,0.19226549996270073,0.17929691314697266,85.98699188232422,88.50332641601562,-2.518352508544922,86.74394226074219,-0.006841744316948784,0.346,0.33321428571428574,0.01568556891547309,-4.185667651245119,0.4394400119781494,29.53104019165039,-0.02795927259657118,-0.04735883076985677
5721,0.19226549996270073,0.17929691314697266,86.0074462890625,88.21691131591797,-2.313770294189453,86.47798156738281,-0.007069057888454861,0.3423333333333333,0.3296428571428571,0.016540039910210504,-3.88904442126465,0.29662200808525085,29.53104019165039,-0.02454961140950521,-0.04213057623969184
5722,0.20007799996270073,0.17929691314697266,86.23248291015625,88.50332641601562,-2.313770294189453,86.45751953125,-0.007069057888454861,0.339,0.32785714285714285,0.017669158511691624,-3.559464114257814,0.36253800988197327,29.53104019165039,-0.02523159450954861,-0.04190322028266059
5723,0.19617174996270073,0.17929691314697266,87.0098876953125,89.75126647949219,-1.9659843444824219,86.23248291015625,-0.006841744316948784,0.33566666666666667,0.32535714285714284,0.01785225338406033,-3.3397451811523453,0.35155200958251953,32.34352111816406,-0.030459764268663196,-0.0355385250515408
5724,0.18445299996270073,0.17929691314697266,86.43707275390625,89.48530578613281,-1.8636970520019531,85.90515899658203,-0.006841744316948784,0.33266666666666667,0.32285714285714284,0.017363993326822917,-2.922276156494142,-0.14281906420898594,37.265357971191406,-0.03386925591362847,-0.030765067206488715
5725,0.18835924996270073,0.17929691314697266,86.15065002441406,88.13508605957031,-2.2114830017089844,86.13019561767578,-0.006841744316948784,0.3293333333333333,0.32142857142857145,0.017638640933566624,-2.4059339934082047,-0.48338379199218906,40.07783889770508,-0.022049289279513887,-0.03712976243760851
5726,0.20398424996270073,0.17929691314697266,86.19157409667969,87.37813568115234,-2.2319412231445312,86.39614868164062,-0.006841744316948784,0.3263333333333333,0.32142857142857145,0.01788277096218533,-2.2850881987304703,-0.07690300280761875,41.83563995361328,-0.013184017605251737,-0.040312110053168405
5727,0.19226549996270073,0.17929691314697266,86.559814453125,89.1579818725586,-2.334228515625,86.68256378173828,-0.006841744316948784,0.324,0.32107142857142856,0.017699676089816624,-2.581711428710939,0.48338401317596436,43.153987884521484,-0.028868526882595485,-0.04463102552625868
5728,0.18054674996270073,0.17929691314697266,86.96897888183594,90.20133972167969,-1.720489501953125,86.02790832519531,-0.006841744316948784,0.321,0.32107142857142856,0.01696727540757921,-2.856360095092775,0.1538040041923523,43.153987884521484,-0.03591512044270833,-0.03053775363498264
5729,0.18054674996270073,0.17929691314697266,86.88714599609375,88.93293762207031,-1.945526123046875,85.39370727539062,-0.006841744316948784,0.31833333333333336,0.32107142857142856,0.01690624025132921,-2.252131121704103,-0.5602861815185562,43.241878509521484,-0.02273101806640625,-0.02599148220486111
5730,0.18835924996270073,0.19921878814697266,86.21202850341797,87.35768127441406,-2.313770294189453,86.94851684570312,-0.006841744316948784,0.31533333333333335,0.32071428571428573,0.017638640933566624,-2.0324102812500016,-0.7140909605712906,43.241878509521484,-0.012729475233289931,-0.04735874599880642
5731,0.19226549996270073,0.19921878814697266,86.29386138916016,87.45996856689453,-2.2319412231445312,86.70301818847656,-0.006841744316948784,0.31266666666666665,0.3196428571428571,0.017425017886691624,-2.7355143004150406,-0.10986007983398594,43.241878509521484,-0.012956746419270833,-0.043721771240234374
5732,0.17664049996270073,0.17929691314697266,87.37813568115234,90.09904479980469,-2.0682754516601562,85.557373046875,-0.006841744316948784,0.31,0.3196428571428571,0.01592970954047309,-2.7355143004150406,0.4064820110797882,43.241878509521484,-0.0302323235405816,-0.02917387220594618
5733,0.16492174996270073,0.17929691314697266,86.78485107421875,88.17599487304688,-2.9684295654296875,87.62362670898438,-0.006841744316948784,0.30666666666666664,0.3192857142857143,0.01583815680609809,-2.548752444335939,-0.07690300280761875,43.241878509521484,-0.0154571533203125,-0.06213395860460069
5734,0.18054674996270073,0.19921878814697266,86.78485107421875,88.29874420166016,-1.3727035522460938,86.04837036132812,-0.006841744316948784,0.30333333333333334,0.3196428571428571,0.017211405436197917,-3.218899386474611,-0.16478981311035312,43.241878509521484,-0.01682103474934896,-0.026900821261935763
5735,0.18054674996270073,0.19921878814697266,86.78485107421875,88.6056137084961,-2.7638473510742188,87.48042297363281,-0.006841744316948784,0.3006666666666667,0.32107142857142856,0.01699779298570421,-2.856360095092775,-0.03295769030761875,43.417659759521484,-0.02023069593641493,-0.05826967027452257
5736,0.17273424996270073,0.17929691314697266,86.74394226074219,88.19645690917969,-2.641101837158203,86.82576751708984,-0.007069057888454861,0.29733333333333334,0.3221428571428571,0.016112804412841797,-3.3507315092773453,-0.04394401843261875,43.417659759521484,-0.016139051649305555,-0.04963188171386719
5737,0.16882799996270073,0.17929691314697266,86.76439666748047,88.21691131591797,-2.5592689514160156,86.23248291015625,-0.006841744316948784,0.29433333333333334,0.32285714285714284,0.01586867438422309,-3.251856463500978,-0.08788933093261875,43.417659759521484,-0.016139051649305555,-0.04213057623969184
5738,0.16882799996270073,0.17929691314697266,86.70301818847656,87.93049621582031,-2.641101837158203,86.90760040283203,-0.006841744316948784,0.2906666666666667,0.3246428571428571,0.01583815680609809,-2.966221468994142,-0.04394401843261875,43.417659759521484,-0.013638644748263888,-0.05054113599989149
5739,0.16882799996270073,0.17929691314697266,86.90760040283203,89.54668426513672,-2.7638473510742188,87.43951416015625,-0.006841744316948784,0.287,0.32571428571428573,0.01589919196234809,-3.284815447875978,-0.17577614123535312,43.417659759521484,-0.029323154025607638,-0.05781512790256076
5740,0.17664049996270073,0.17929691314697266,85.86424255371094,86.68256378173828,-2.6001853942871094,86.43707275390625,-0.006841744316948784,0.2836666666666667,0.3264285714285714,0.016173839569091797,-3.6693254881591812,-0.4394403868408219,43.417659759521484,-0.009092458089192708,-0.044858423868815105
5741,0.18835924996270073,0.17929691314697266,86.6007308959961,87.78729248046875,-2.8865966796875,87.33721923828125,-0.006841744316948784,0.2803333333333333,0.32821428571428574,0.016570557488335504,-3.3727022581787125,0.010986000299453735,43.417659759521484,-0.013184017605251737,-0.05804239908854167
5742,0.17664049996270073,0.17929691314697266,87.6031723022461,90.52867126464844,-2.8047637939453125,87.43951416015625,-0.006841744316948784,0.277,0.3289285714285714,0.01571608649359809,-3.6912962370605484,-0.17577614123535312,43.417659759521484,-0.03250554402669271,-0.05826975504557292
5743,0.16882799996270073,0.17929691314697266,86.84622192382812,88.99431610107422,-3.275299072265625,87.13264465332031,-0.006841744316948784,0.2733333333333333,0.33071428571428574,0.015319368574354383,-3.867073672363283,-0.8898664885253922,43.417659759521484,-0.02386771308051215,-0.060088263617621526
5744,0.17273424996270073,0.17929691314697266,86.86668395996094,88.44195556640625,-3.295757293701172,87.88958740234375,-0.006841744316948784,0.26966666666666667,0.3317857142857143,0.014251285129123263,-4.295527117797853,-0.9008528166503922,43.417659759521484,-0.01750301784939236,-0.0687260521782769
5745,0.17664049996270073,0.17929691314697266,86.74394226074219,88.05325317382812,-2.9479713439941406,87.86912536621094,-0.006841744316948784,0.266,0.33321428571428574,0.013366307152642145,-4.866799014160158,-0.7580343657226578,43.417659759521484,-0.014547899034288195,-0.06463440789116753
5746,0.16882799996270073,0.17929691314697266,86.70301818847656,87.95095825195312,-2.9479713439941406,87.33721923828125,-0.006841744316948784,0.262,0.3342857142857143,0.012237188551161024,-4.526232379028322,-0.6152159147949234,43.417659759521484,-0.013866000705295138,-0.0587243398030599
5747,0.17273424996270073,0.15937503814697265,86.76439666748047,88.23736572265625,-2.9275131225585938,87.64408874511719,-0.007069057888454861,0.25866666666666666,0.33535714285714285,0.011962540944417318,-4.460316317626955,-0.3735243254394547,43.417659759521484,-0.016366322835286457,-0.061906687418619794
5748,0.17664049996270073,0.15937503814697265,86.82576751708984,89.48530578613281,-2.907054901123047,87.45996856689453,-0.006841744316948784,0.254,0.3364285714285714,0.01150478786892361,-4.702007906982423,-0.10986007983398594,43.417659759521484,-0.02955042521158854,-0.0596335940890842
5749,0.15320299996270073,0.15937503814697265,86.78485107421875,88.93293762207031,-2.8865966796875,87.31675720214844,-0.006841744316948784,0.25033333333333335,0.3375,0.009917916191948786,-4.712994235107423,-0.2526785307617203,43.417659759521484,-0.023867628309461805,-0.05781504313151042
5750,0.14929674996270073,0.15937503814697265,86.5188980102539,88.40103149414062,-2.907054901123047,87.48042297363281,-0.006841744316948784,0.246,0.3385714285714286,0.009399138556586372,-4.614121096679689,-0.5273291044921891,43.417659759521484,-0.020912594265407987,-0.0598608652750651
5751,0.16492174996270073,0.15937503814697265,86.62118530273438,87.70545959472656,-2.907054901123047,87.50088500976562,-0.006841744316948784,0.24233333333333335,0.33964285714285714,0.009948433770073786,-4.581162112304689,-0.5273291044921891,43.417659759521484,-0.012047492133246528,-0.06008822123209635
5752,0.16882799996270073,0.15937503814697265,86.70301818847656,89.36256408691406,-3.1934661865234375,87.91004180908203,-0.006841744316948784,0.238,0.34,0.009887409210205079,-4.625107424804689,-0.3515516691894547,43.417659759521484,-0.02955050998263889,-0.06781675550672743
5753,0.15320299996270073,0.17929691314697266,86.70301818847656,89.77172088623047,-3.2343826293945312,87.88958740234375,-0.006841744316948784,0.23466666666666666,0.3410714285714286,0.009307585822211372,-4.943701403686525,-0.7250772886962906,43.417659759521484,-0.03409669664171007,-0.06804411146375867
5754,0.17664049996270073,0.15937503814697265,85.61874389648438,86.31431579589844,-3.2139244079589844,87.88958740234375,-0.006841744316948784,0.231,0.3417857142857143,0.009765338897705079,-5.064547198364259,-0.9777552061767594,43.417659759521484,-0.00772857666015625,-0.0678167978922526
5755,0.18445299996270073,0.15937503814697265,85.65966796875,87.27584838867188,-3.1934661865234375,87.80775451660156,-0.006841744316948784,0.22666666666666666,0.34285714285714286,0.009155008527967665,-5.042574542114259,-0.48338379199218906,43.417659759521484,-0.017957560221354165,-0.06668023003472222
5756,0.16101549996270073,0.15937503814697265,85.68012237548828,87.45996856689453,-3.6230850219726562,88.25782775878906,-0.006841744316948784,0.223,0.3435714285714286,0.007873302035861545,-5.141449587890627,0.12084600329399109,43.417659759521484,-0.01977606879340278,-0.07645458645290798
5757,0.16492174996270073,0.15937503814697265,86.37569427490234,88.72836303710938,-3.3366737365722656,88.19645690917969,-0.006841744316948784,0.21833333333333332,0.3442857142857143,0.007964854770236545,-5.47102798754883,0.5602860450744629,43.417659759521484,-0.02614076402452257,-0.07259034050835503
5758,0.15710924996270073,0.15937503814697265,86.53935241699219,89.77172088623047,-3.3162155151367188,87.76683807373047,-0.006841744316948784,0.21433333333333332,0.34535714285714286,0.008025889926486545,-5.4600435667724625,0.3954960107803345,41.13251876831055,-0.03591520521375868,-0.06758948432074653
5759,0.16101549996270073,0.15937503814697265,86.0074462890625,87.54179382324219,-3.479877471923828,88.19645690917969,-0.006841744316948784,0.21,0.3457142857142857,0.008575185139973959,-5.4160982542724625,0.1538040041923523,41.13251876831055,-0.017048305935329862,-0.0741814931233724
5760,0.16882799996270073,0.15937503814697265,86.02790832519531,88.05325317382812,-3.3162155151367188,87.88958740234375,-0.006841744316948784,0.205,0.34535714285714286,0.008941385481092665,-5.613846438476564,0.48338401317596436,41.13251876831055,-0.022503831651475695,-0.06895336574978299
5761,0.15710924996270073,0.13945316314697265,87.1121826171875,91.1219482421875,-2.518352508544922,86.47798156738281,-0.006841744316948784,0.20066666666666666,0.3457142857142857,0.008971903059217665,-5.48201431567383,0.5053560137748718,41.13251876831055,-0.04455295138888889,-0.0444037119547526
5762,0.14929674996270073,0.13945316314697265,86.15065002441406,86.94851684570312,-2.9479713439941406,87.68500518798828,-0.007069057888454861,0.19633333333333333,0.3457142857142857,0.008727773030598959,-4.526232379028322,0.5822579860687256,41.13251876831055,-0.008865186903211806,-0.06258862813313802
5763,0.13757799996270073,0.13945316314697265,86.19157409667969,88.31919860839844,-3.0093421936035156,87.66455078125,-0.007069057888454861,0.19233333333333333,0.345,0.008544667561848959,-4.4053865843505875,0.7690200209617615,41.13251876831055,-0.023640272352430554,-0.06304325527615018
5764,0.12976549996270073,0.13945316314697265,86.27340698242188,89.09660339355469,-2.9479713439941406,87.6031723022461,-0.006841744316948784,0.189,0.3442857142857143,0.009002420637342665,-4.559191363403322,0.8239500522613525,41.13251876831055,-0.031368849012586804,-0.061679373847113715
5765,0.14539049996270073,0.13945316314697265,86.39614868164062,89.48530578613281,-2.9479713439941406,87.5213394165039,-0.006841744316948784,0.18566666666666667,0.3435714285714286,0.009948433770073786,-4.504261630126955,0.48338401317596436,41.13251876831055,-0.034323967827690975,-0.06077011956108941
5766,0.16492174996270073,0.13945316314697265,86.41661071777344,89.77172088623047,-2.9479713439941406,87.41905212402344,-0.007069057888454861,0.182,0.3435714285714286,0.01162685818142361,-4.32848419482422,-0.13183273608398594,41.13251876831055,-0.037279001871744794,-0.0596335940890842
5767,0.18054674996270073,0.13945316314697265,85.70057678222656,87.97142028808594,-3.3162155151367188,87.78729248046875,-0.006841744316948784,0.179,0.3435714285714286,0.012145635816786024,-4.174681323120119,-0.6042314940185562,41.13251876831055,-0.02523159450954861,-0.06781675550672743
5768,0.17664049996270073,0.13945316314697265,85.74149322509766,86.98943328857422,-3.5412521362304688,88.31919860839844,-0.007069057888454861,0.17533333333333334,0.3435714285714286,0.011687882741292318,-4.449329989501955,-0.09887375170898594,41.13251876831055,-0.013866000705295138,-0.07622723049587674
5769,0.16101549996270073,0.13945316314697265,86.0074462890625,87.31675720214844,-3.1934661865234375,87.54179382324219,-0.006841744316948784,0.17233333333333334,0.3435714285714286,0.010955492655436197,-5.130463259765627,0.9667680263519287,41.13251876831055,-0.014547899034288195,-0.06372511121961806
5770,0.14148424996270073,0.15937503814697265,86.08927917480469,87.48042297363281,-3.254840850830078,87.35768127441406,-0.007069057888454861,0.169,0.3442857142857143,0.011779435475667318,-4.603134768554689,1.450152039527893,41.13251876831055,-0.0154571533203125,-0.062361356947157116
5771,0.12195299996270073,0.15937503814697265,86.88714599609375,90.34454345703125,-3.745830535888672,88.36012268066406,-0.006841744316948784,0.16466666666666666,0.3442857142857143,0.012267706129286024,-4.625107424804689,1.1425440311431885,41.13251876831055,-0.03841552734375,-0.07895503573947482
5772,0.16101549996270073,0.13945316314697265,85.78240966796875,88.78973388671875,-3.4389610290527344,88.31919860839844,-0.006841744316948784,0.16166666666666665,0.3442857142857143,0.01464800304836697,-5.339195864746095,0.20873400568962097,41.13251876831055,-0.03341471354166667,-0.07509066263834635
5773,0.19226549996270073,0.17929691314697266,86.35523986816406,89.567138671875,-2.722930908203125,86.27340698242188,-0.006841744316948784,0.15833333333333333,0.345,0.017455535464816624,-4.789896624633791,-0.10986007983398594,41.13251876831055,-0.035687764485677086,-0.044403754340277775
5774,0.20398424996270073,0.17929691314697266,86.37569427490234,89.68988800048828,-3.5617103576660156,88.31919860839844,-0.007069057888454861,0.154,0.345,0.01879826651679145,-3.90003074938965,-0.4723993712158219,41.13251876831055,-0.03682437472873264,-0.07645454406738281
5775,0.19617174996270073,0.17929691314697266,86.13019561767578,87.97142028808594,-3.7867469787597656,88.64653015136719,-0.006841744316948784,0.15066666666666667,0.3442857142857143,0.017669158511691624,-4.526232379028322,0.05493000149726868,41.13251876831055,-0.02045805189344618,-0.0825919681125217
5776,0.17273424996270073,0.15937503814697265,85.98699188232422,88.76927947998047,-3.9708709716796875,88.6669921875,-0.007069057888454861,0.14866666666666667,0.3439285714285714,0.01562453375922309,-5.273281710693361,0.17577600479125977,41.13251876831055,-0.030914306640625,-0.08486514621310765
5777,0.17664049996270073,0.15937503814697265,85.5164566040039,87.37813568115234,-4.093616485595703,88.76927947998047,-0.006841744316948784,0.14533333333333334,0.3442857142857143,0.01586867438422309,-5.800608294555666,0.3405660092830658,41.13251876831055,-0.020685323079427085,-0.08736551072862413
5778,0.18445299996270073,0.15937503814697265,86.80531311035156,90.34454345703125,-3.6026268005371094,87.5213394165039,-0.006841744316948784,0.14033333333333334,0.345,0.01672313478257921,-6.130188601562502,0.6701459884643555,41.13251876831055,-0.039324781629774305,-0.0680440690782335
5779,0.18054674996270073,0.15937503814697265,86.49844360351562,89.58760070800781,-3.643543243408203,88.03279113769531,-0.007069057888454861,0.13566666666666666,0.3460714285714286,0.017028299967447917,-5.778637545654298,0.4723980128765106,41.13251876831055,-0.034323967827690975,-0.0741814931233724
5780,0.16101549996270073,0.13945316314697265,86.5188980102539,88.99431610107422,-2.4365196228027344,87.70545959472656,-0.006841744316948784,0.131,0.3467857142857143,0.016173839569091797,-5.690748828002931,0.35155200958251953,41.13251876831055,-0.02750464545355903,-0.05713310241699219
5781,0.14929674996270073,0.13945316314697265,86.49844360351562,89.1170654296875,-2.8865966796875,86.559814453125,-0.006841744316948784,0.12666666666666668,0.3482142857142857,0.01580763922797309,-4.482288973876955,0.06591600179672241,41.13251876831055,-0.02909579806857639,-0.04940456814236111
5782,0.13757799996270073,0.15937503814697265,86.31431579589844,87.95095825195312,-2.8865966796875,87.41905212402344,-0.006841744316948784,0.12266666666666666,0.3482142857142857,0.01562453375922309,-3.92200340563965,-0.3185945921630875,41.13251876831055,-0.018184916178385416,-0.058951653374565975
5783,0.16882799996270073,0.13945316314697265,86.41661071777344,89.567138671875,-3.479877471923828,88.27828979492188,-0.007069057888454861,0.11966666666666667,0.3475,0.016601075066460504,-3.91101707751465,-0.3625379973144547,41.13251876831055,-0.03500586615668403,-0.0750907474093967
5784,0.14929674996270073,0.15937503814697265,86.43707275390625,88.78973388671875,-3.8072052001953125,87.68500518798828,-0.006841744316948784,0.118,0.34714285714285714,0.01592970954047309,-4.35045685107422,-0.4174677305908219,41.13251876831055,-0.026140679253472222,-0.07213567097981771
5785,0.17273424996270073,0.13945316314697265,86.43707275390625,88.42149353027344,-4.032245635986328,88.95339965820312,-0.006841744316948784,0.115,0.3464285714285714,0.016417969597710504,-4.625107424804689,-0.7140909605712906,41.13251876831055,-0.022049119737413195,-0.0887293921576606
5786,0.16882799996270073,0.15937503814697265,86.43707275390625,89.44439697265625,-3.7662887573242188,88.83065795898438,-0.006841744316948784,0.11233333333333333,0.3460714285714286,0.01574660407172309,-5.350182192871095,-0.6152159147949234,41.13251876831055,-0.03341471354166667,-0.08441051907009549
5787,0.16882799996270073,0.15937503814697265,84.73905181884766,85.88470458984375,-3.5617103576660156,87.68500518798828,-0.007069057888454861,0.109,0.3464285714285714,0.015441438886854383,-5.383141177246095,-0.812964098999025,41.13251876831055,-0.012729475233289931,-0.06940795050726997
5788,0.18054674996270073,0.15937503814697265,86.90760040283203,89.26026916503906,-3.500335693359375,87.95095825195312,-0.006841744316948784,0.105,0.34714285714285714,0.016234874725341797,-4.866799014160158,-0.4394403868408219,41.13251876831055,-0.02614076402452257,-0.07168104383680556
5789,0.17273424996270073,0.17929691314697266,86.49844360351562,90.99920654296875,-3.4594192504882812,87.64408874511719,-0.007069057888454861,0.10166666666666667,0.3467857142857143,0.016021251678466797,-4.460316317626955,-0.7909933500976578,41.13251876831055,-0.05000847710503472,-0.06781675550672743
5790,0.17273424996270073,0.15937503814697265,85.1072998046875,86.84622192382812,-3.520793914794922,87.70545959472656,-0.006841744316948784,0.098,0.3467857142857143,0.014190249972873263,-3.88904442126465,-0.8788801604003922,41.13251876831055,-0.01932135687934028,-0.06918059455023871
5791,0.17273424996270073,0.13945316314697265,84.61630249023438,86.70301818847656,-4.605068206787109,89.77172088623047,-0.006841744316948784,0.09566666666666666,0.3464285714285714,0.012694941626654731,-4.119751589843752,-0.2856375151367203,41.13251876831055,-0.02318572998046875,-0.1041865454779731
5792,0.15710924996270073,0.13945316314697265,85.70057678222656,87.91004180908203,-4.441402435302734,88.54424285888672,-0.007069057888454861,0.09166666666666666,0.3457142857142857,0.01165737575954861,-5.075533526489259,0.790992021560669,41.13251876831055,-0.02454961140950521,-0.0887293921576606
5793,0.11804674996270073,0.1195312786102295,89.44439697265625,92.14485168457031,-4.380031585693359,88.95339965820312,-0.006841744316948784,0.088,0.3460714285714286,0.01052825715806749,-5.9434267454834,1.2853620052337646,41.13251876831055,-0.030005052354600693,-0.09259368048773872
5794,0.10242174996270073,0.1195312786102295,85.08683776855469,86.74394226074219,-3.254840850830078,87.0098876953125,-0.006841744316948784,0.08533333333333333,0.3460714285714286,0.01031463411119249,-6.37188019091797,-0.4394403868408219,41.13251876831055,-0.018412272135416668,-0.058496983846028645
5795,0.10242174996270073,0.17929691314697266,85.86424255371094,86.27340698242188,-4.1959075927734375,88.62606811523438,-0.007069057888454861,0.08066666666666666,0.34714285714285714,0.01138271755642361,-5.855538027832033,-0.3076082640380875,41.13251876831055,-0.004546271430121528,-0.08691084120008681
5796,0.12976549996270073,0.13945316314697265,87.17355346679688,91.1628646850586,-3.132091522216797,87.35768127441406,-0.006841744316948784,0.07666666666666666,0.34714285714285714,0.011870988210042318,-6.305964129516603,-0.5932451658935562,41.13251876831055,-0.04432568020290799,-0.06099747551812066
5797,0.12976549996270073,0.15937503814697265,86.43707275390625,88.1555404663086,-3.745830535888672,87.09172058105469,-0.006841744316948784,0.072,0.3475,0.01159634060329861,-5.229336398193361,-1.2963491850585953,34.892330169677734,-0.019094085693359374,-0.06486167907714843
5798,0.13367174996270073,0.17929691314697266,84.6572265625,88.33966064453125,-3.5412521362304688,87.82821655273438,-0.006841744316948784,0.06666666666666667,0.3460714285714286,0.01150478786892361,-5.394127505371095,-1.3512789183349625,34.540771484375,-0.04091593424479167,-0.0707718743218316
5799,0.14148424996270073,0.15937503814697265,86.68256378173828,87.23492431640625,-2.0069007873535156,87.21446990966797,-0.006841744316948784,0.06333333333333334,0.3439285714285714,0.01058929231431749,-5.4051119261474625,-0.7580343657226578,34.540771484375,-0.006137339274088541,-0.04690411885579427
5800,0.16882799996270073,0.15937503814697265,86.45751953125,87.74638366699219,-3.4389610290527344,87.84866333007812,-0.006841744316948784,0.06,0.3417857142857143,0.010985999637179904,-4.295527117797853,-1.175503390380861,34.540771484375,-0.01432071261935764,-0.06986249287923177
5801,0.18835924996270073,0.15937503814697265,86.37569427490234,89.68988800048828,-3.295757293701172,87.27584838867188,-0.006841744316948784,0.056,0.33785714285714286,0.010711352030436197,-4.482288973876955,-1.2743765288085953,34.540771484375,-0.03682437472873264,-0.061906729804144967
5802,0.16882799996270073,0.15937503814697265,85.53691101074219,88.03279113769531,-3.704914093017578,87.03034973144531,-0.006841744316948784,0.052,0.3364285714285714,0.009002420637342665,-4.537218707153322,-0.7800070219726578,34.628658294677734,-0.027732001410590276,-0.06372515360514323
5803,0.12976549996270073,0.15937503814697265,84.92317199707031,87.48042297363281,-2.5797271728515625,86.04837036132812,-0.006841744316948784,0.049,0.33321428571428574,0.006469535827636719,-4.855812686035158,-0.3954969816894547,34.628658294677734,-0.028413899739583335,-0.04031219482421875
5804,0.14929674996270073,0.13945316314697265,85.33233642578125,88.95339965820312,-2.743389129638672,86.80531311035156,-0.006841744316948784,0.04533333333333334,0.33214285714285713,0.006316958533393012,-4.35045685107422,0.6262019872665405,34.628658294677734,-0.04023403591579861,-0.05054113599989149
5805,0.12585924996270073,0.13945316314697265,87.39859008789062,91.14241027832031,-2.1705665588378906,85.31187438964844,-0.007069057888454861,0.04133333333333333,0.3296428571428571,0.006133853064643012,-4.185667651245119,0.790992021560669,34.540771484375,-0.041598002115885414,-0.027582677205403645
5806,0.12585924996270073,0.15937503814697265,85.5164566040039,87.15309143066406,-1.8227806091308594,86.62118530273438,-0.006841744316948784,0.037333333333333336,0.32785714285714285,0.0074155595567491316,-4.229611056396486,0.19774800539016724,34.628658294677734,-0.01818483140733507,-0.038266287909613714
5807,0.12976549996270073,0.15937503814697265,86.15065002441406,89.81263732910156,-2.2114830017089844,86.29386138916016,-0.006841744316948784,0.034,0.32535714285714284,0.008147949642605252,-3.6912962370605484,0.7360620498657227,34.628658294677734,-0.04068874782986111,-0.038948271009657115
5808,0.10632799996270073,0.17929691314697266,86.1097412109375,88.64653015136719,-2.641101837158203,86.90760040283203,-0.00297745598687066,0.030666666666666665,0.32321428571428573,0.008208984798855252,-3.7352415495605484,0.9228240251541138,34.540771484375,-0.028186543782552084,-0.05054113599989149
5809,0.12195299996270073,0.15937503814697265,87.88958740234375,92.28805541992188,-1.8841552734375,86.49844360351562,-0.007978312174479167,0.027,0.32071428571428573,0.009856891632080079,-3.943974154541017,0.2746500074863434,34.540771484375,-0.04887186686197917,-0.03758443196614583
5810,0.13757799996270073,0.15937503814697265,85.557373046875,87.58271789550781,-2.0273590087890625,87.80775451660156,-0.0054779052734375,0.023,0.31857142857142856,0.01028411653306749,-3.6143938475341812,-0.4614130430908219,34.628658294677734,-0.022503831651475695,-0.05372348361545139
5811,0.13757799996270073,0.15937503814697265,85.557373046875,88.0123291015625,-3.11163330078125,87.72592163085938,-0.0009316762288411458,0.019,0.31464285714285717,0.009429656134711372,-3.229883807250978,-0.2966219359130875,34.628658294677734,-0.027277289496527777,-0.0648617214626736
5812,0.15320299996270073,0.13945316314697265,86.84622192382812,90.26271057128906,-2.088733673095703,86.82576751708984,-0.005250591701931423,0.015,0.31214285714285717,0.009093973371717665,-3.3507315092773453,-0.06591667468261875,34.628658294677734,-0.037960984971788195,-0.043494457668728295
5813,0.15320299996270073,0.13945316314697265,86.6007308959961,90.42637634277344,-1.1885833740234375,87.29630279541016,-0.0066144307454427086,0.010666666666666666,0.30857142857142855,0.008636220296223959,-2.790444033691408,-0.5273291044921891,34.540771484375,-0.042507171630859375,-0.038720957438151044
5814,0.18835924996270073,0.1195312786102295,84.43218231201172,85.557373046875,0.07981491088867188,83.32745361328125,-0.009342193603515625,0.006666666666666667,0.30714285714285716,0.008605702718098959,-1.3073355131835953,-0.6152159147949234,31.28883934020996,-0.01250211927625868,0.01947068108452691
5815,0.20398424996270073,0.09960939407348633,85.16867065429688,88.68744659423828,0.8776779174804688,82.32501220703125,-0.0013863033718532986,0.0026666666666666666,0.30392857142857144,0.0072629716661241316,0.5053560137748718,0.10986000299453735,23.554519653320312,-0.0390975104437934,0.03947406344943576
5816,0.15710924996270073,0.07968751907348633,84.06393432617188,85.20958709716797,3.4144668579101562,79.68592834472656,0.005887646145290798,0.0,0.3007142857142857,0.005157322353786893,1.263390064239502,0.9447960257530212,23.554519653320312,-0.012729475233289931,0.09698376125759549
5817,0.12976549996270073,0.07968751907348633,85.88470458984375,89.1170654296875,3.250804901123047,80.05416870117188,0.0024779849582248262,-0.001,0.2957142857142857,0.005309899648030599,2.13128399848938,1.922550082206726,23.554519653320312,-0.03591512044270833,0.09107373555501302
5818,0.08289049996270073,0.09960939407348633,85.90515899658203,90.13996887207031,4.723781585693359,80.77020263671875,-0.010251405504014757,-0.0013333333333333333,0.2910714285714286,0.0071103837754991316,1.7138160467147827,1.7028300762176514,23.554519653320312,-0.0470534430609809,0.09948421054416233
5819,0.11804674996270073,0.09960939407348633,86.5188980102539,87.76683807373047,2.3915672302246094,80.13600158691406,-0.014115693834092882,-0.001,0.285,0.010192574395073786,1.8786060810089111,1.175502061843872,23.554519653320312,-0.013866000705295138,0.08061739603678385
5820,0.14929674996270073,0.09960939407348633,87.62362670898438,91.89935302734375,4.723781585693359,80.70883178710938,-0.027754380967881943,-0.001,0.2814285714285714,0.012664424048529731,1.494096040725708,0.4064820110797882,23.554519653320312,-0.04750807020399306,0.10016610887315539
5821,0.08289049996270073,0.1195312786102295,84.32989501953125,86.76439666748047,7.342403411865234,75.41020202636719,-0.010478719075520834,-0.0006666666666666666,0.275,0.01043670442369249,2.120298147201538,-1.3842359953613297,23.554519653320312,-0.027050018310546875,0.1881355709499783
5822,0.012577999962700738,0.15937503814697265,85.80287170410156,90.26271057128906,15.730182647705078,75.65570068359375,-0.05639559427897135,-0.001,0.2692857142857143,0.006072817908393012,0.5053560137748718,-0.5383154326171891,23.554519653320312,-0.049553765190972224,0.2786053551567925
5823,-0.030390750037299262,0.219140682220459,85.80287170410156,89.32164001464844,3.8031692504882812,75.18516540527344,0.0036145528157552082,0.0,0.26142857142857145,-0.0,0.8129640221595764,-0.20873512561035312,23.554519653320312,-0.039097425672743054,0.1513111538357205
