,WD,WS,AIL_1,AIL_2,ELEV_1,ELEV_2,RUDD,ALT,GS,TH,PTCH,ROLL,PLA_1,AIL,ELEV
8308,0.08659368662651912,0.7968751525878907,85.43462371826172,81.24073791503906,-4.134532928466797,87.91004180908203,0.3961808098687066,0.6113333333333333,0.39071428571428574,0.020690282185872395,-0.9447962218017594,-1.2084604674072281,29.706819534301758,0.046598731146918405,-0.07827305263943142
8309,0.09049993662651912,0.8167971038818359,87.562255859375,83.90027618408203,-4.134532928466797,88.0737075805664,0.39777204725477433,0.605,0.3889285714285714,0.021361668904622395,-1.120571749755861,0.2526780068874359,29.706819534301758,0.04068866305881076,-0.08009156121148003
8310,0.07096868662651912,0.7570314025878906,88.1555404663086,84.98455047607422,-4.093616485595703,87.74638366699219,0.40027245415581597,0.6036666666666667,0.38785714285714284,0.01611281500922309,-0.9887415343017594,0.12084600329399109,29.706819534301758,0.035233222113715275,-0.07600000169542101
8311,0.05143743662651911,0.7371095275878906,84.16622924804688,81.36347961425781,-4.073158264160156,87.66455078125,0.3982266743977865,0.599,0.38535714285714284,0.01141323513454861,-1.175503390380861,-2.0763555937500016,29.706819534301758,0.03114166259765625,-0.07486343383789062
8312,0.05534368662651911,0.7769532775878907,82.77508544921875,78.21295166015625,-4.441402435302734,88.19645690917969,0.39754469129774306,0.5946666666666667,0.3825,0.01119961208767361,-1.0546575957031266,-2.0983263426513687,29.706819534301758,0.050690375434027775,-0.08486510382758247
8313,0.05924993662651911,0.7371095275878906,84.57539367675781,81.97721862792969,-5.505218505859375,88.95339965820312,0.39731742011176213,0.591,0.37857142857142856,0.010253609551323786,-1.3293062620849625,0.05493000149726868,29.706819534301758,0.028868611653645834,-0.10509575737847222
8314,0.04362493662651911,0.6972657775878907,85.86424255371094,83.34790802001953,-6.1394195556640625,89.66943359375,0.40459136962890624,0.5876666666666667,0.37464285714285717,0.0071103837754991316,-1.8236757689209,1.0986000299453735,29.706819534301758,0.02795927259657118,-0.12009836832682291
8315,0.04362493662651911,0.6773439025878907,84.1048583984375,81.01570129394531,-6.262165069580078,90.09904479980469,0.40095435248480904,0.5843333333333334,0.3682142857142857,0.0069577958848741316,-2.493822711059572,0.2746500074863434,29.706819534301758,0.034323967827690975,-0.1262356652153863
8316,0.06706243662651912,0.7171876525878906,86.41661071777344,82.79554748535156,-6.732700347900391,90.26271057128906,0.39572618272569443,0.5833333333333334,0.36392857142857143,0.012054061889648438,-3.537493365356447,0.9228240251541138,29.706819534301758,0.04023403591579861,-0.13328234354654947
8317,0.05924993662651911,0.7171876525878906,86.31431579589844,83.4501953125,-6.5894927978515625,90.569580078125,0.40163633558485246,0.583,0.3578571428571429,0.01116909450954861,-4.207638400146486,1.6698720455169678,29.706819534301758,0.03182356092664931,-0.13510080973307292
8318,0.05924993662651911,0.7371095275878906,84.57539367675781,80.21783447265625,-6.078044891357422,89.97630310058594,0.39436238606770835,0.5776666666666667,0.35464285714285715,0.01165737575954861,-3.987919467041017,1.021697998046875,29.706819534301758,0.04841732449001736,-0.12282608879937065
8319,0.07487493662651912,0.7570314025878906,85.65966796875,82.59095764160156,-6.118961334228516,90.18087768554688,0.39754469129774306,0.575,0.34964285714285714,0.016356913248697917,-3.90003074938965,2.0763540267944336,29.706819534301758,0.034096781412760416,-0.12555376688639322
8320,0.07878118662651912,0.7570314025878906,86.92805480957031,83.98210144042969,-5.9757537841796875,89.85355377197266,0.39754469129774306,0.5706666666666667,0.3464285714285714,0.018645689222547744,-4.185667651245119,3.0980520248413086,29.794710159301758,0.03273281521267361,-0.12032563951280383
8321,0.06706243662651912,0.7769532775878907,87.562255859375,85.88470458984375,-5.8120880126953125,89.54668426513672,0.4014089796278212,0.5663333333333334,0.3417857142857143,0.018096372816297744,-4.097778933593752,2.7355141639709473,29.794710159301758,0.018639458550347224,-0.11509746975368923
8322,0.05924993662651911,0.7171876525878906,88.1555404663086,84.67768096923828,-5.730258941650391,89.42393493652344,0.3986813015407986,0.5626666666666666,0.3382142857142857,0.016814676920572917,-3.6583391600341812,1.4721240997314453,29.706819534301758,0.03864288330078125,-0.11282437642415365
8323,0.04753118662651911,0.7371095275878906,85.0050048828125,82.59095764160156,-5.730258941650391,89.46485137939453,0.39959047105577256,0.5573333333333333,0.3342857142857143,0.014800601535373263,-3.6143938475341812,-0.14281906420898594,29.706819534301758,0.026822747124565973,-0.1132790035671658
8324,0.05924993662651911,0.7570314025878906,85.82332611083984,81.32257080078125,-5.525676727294922,89.19889831542969,0.39436238606770835,0.554,0.3314285714285714,0.017150370279947917,-3.504534380981447,-0.7360617094726578,29.706819534301758,0.050008392333984374,-0.10805083380805122
8325,0.06315618662651912,0.7371095275878906,86.43707275390625,83.552490234375,-5.546134948730469,89.40347290039062,0.40231823391384547,0.5493333333333333,0.32785714285714285,0.017608133951822917,-3.4056612425537125,0.14281800389289856,29.706819534301758,0.03205091688368056,-0.1105511983235677
8326,0.06315618662651912,0.7371095275878906,86.5188980102539,83.5115737915039,-5.44384765625,88.99431610107422,0.3991358439127604,0.5446666666666666,0.32535714285714284,0.016997782389322917,-3.3067861967773453,0.5493000149726868,30.673608779907227,0.03341471354166667,-0.10486848619249133
8327,0.07487493662651912,0.7570314025878906,88.99431610107422,82.12042999267578,-5.402931213378906,89.1170654296875,0.3932257758246528,0.5423333333333333,0.32321428571428573,0.021025975545247395,-3.0980535917968766,1.263390064239502,33.39820098876953,0.0763765123155382,-0.10577774047851562
8328,0.07096868662651912,0.7371095275878906,88.21691131591797,85.557373046875,-5.382472991943359,88.91248321533203,0.40163633558485246,0.5373333333333333,0.32142857142857145,0.020568211873372395,-3.3507315092773453,1.1864880323410034,34.980220794677734,0.02955042521158854,-0.10327729119194878
8329,0.05924993662651911,0.7570314025878906,85.88470458984375,83.12287139892578,-5.239265441894531,88.62606811523438,0.39981782701280383,0.5326666666666666,0.3196428571428571,0.018248960706922744,-2.933262484619142,-0.3625379973144547,36.82590866088867,0.030687035454644098,-0.09850370619032119
8330,0.06706243662651912,0.8367189788818359,85.16867065429688,80.15646362304688,-5.239265441894531,88.76927947998047,0.393453131781684,0.529,0.31892857142857145,0.021056493123372395,-2.559738772460939,-0.9447962218017594,38.407928466796875,0.05569118923611111,-0.10009494357638889
8331,0.08659368662651912,0.7769532775878907,85.96653747558594,81.32257080078125,-5.239265441894531,89.05569458007812,0.3948170132107205,0.5253333333333333,0.3171428571428571,0.02322319878472222,-2.252131121704103,-0.5163427763671891,38.583709716796875,0.05159962972005208,-0.10327733357747396
8332,0.08659368662651912,0.7769532775878907,87.17355346679688,84.43218231201172,-4.952854156494141,88.52378845214844,0.3961808098687066,0.5206666666666667,0.3157142857142857,0.02340626186794705,-2.197201388427736,-0.49437012011718906,37.704811096191406,0.030459679497612847,-0.09418491787380642
8333,0.06706243662651912,0.7769532775878907,86.62118530273438,83.67523193359375,-4.871021270751953,88.21691131591797,0.4014089796278212,0.517,0.31357142857142856,0.018004820081922744,-1.3073355131835953,-1.6369139128417984,38.05636978149414,0.03273281521267361,-0.0898659176296658
8334,0.06706243662651912,0.7171876525878906,86.96897888183594,83.57295227050781,-5.136974334716797,89.05569458007812,0.3991358439127604,0.5143333333333333,0.31285714285714283,0.01586867438422309,-0.6042314940185562,-1.2853628569335953,40.69306945800781,0.03773362901475694,-0.10214076571994357
8335,0.05924993662651911,0.7371095275878906,83.32745361328125,82.38638305664062,-4.871021270751953,88.33966064453125,0.4041367424858941,0.5116666666666667,0.31142857142857144,0.013488345675998263,-1.2743765288085953,-1.3622652464599625,42.71453857421875,0.010456339518229166,-0.09122979905870225
8336,0.06315618662651912,0.7769532775878907,85.27096557617188,82.71371459960938,-4.952854156494141,88.81019592285156,0.3970900641547309,0.5076666666666667,0.3117857142857143,0.014464908175998263,-0.9118391447753922,-0.6701475554199234,44.82389831542969,0.028413899739583335,-0.09736722310384115
8337,0.05924993662651911,0.7968751525878907,88.62606811523438,84.32989501953125,-5.280181884765625,89.23981475830078,0.4041367424858941,0.5056666666666667,0.3117857142857143,0.013549380832248263,-1.0986010008544937,0.9338099956512451,44.91178894042969,0.04773525661892361,-0.10577774047851562
8338,0.05534368662651911,0.7570314025878906,85.90515899658203,83.14332580566406,-5.11651611328125,88.93293762207031,0.39959047105577256,0.503,0.31107142857142855,0.01187099880642361,-1.6149431639404312,0.12084600329399109,43.417659759521484,0.030687035454644098,-0.1005494859483507
8339,0.06315618662651912,0.7769532775878907,85.47554016113281,81.547607421875,-5.055145263671875,88.83065795898438,0.3925438774956597,0.5006666666666667,0.30964285714285716,0.013885074191623263,-1.9225508146972672,-0.5053564482421891,36.29856872558594,0.04364369710286458,-0.09873114691840278
8340,0.06706243662651912,0.7371095275878906,88.42149353027344,86.04837036132812,-5.075603485107422,89.03523254394531,0.3993631998697917,0.497,0.3082142857142857,0.014800601535373263,-1.7028299742431656,1.1974740028381348,32.6071891784668,0.026368035210503474,-0.10123151143391927
8341,0.05143743662651911,0.7171876525878906,87.97142028808594,87.13264465332031,-5.014228820800781,88.54424285888672,0.40368211534288195,0.494,0.30464285714285716,0.01196255154079861,-1.7577597075195328,1.8236761093139648,30.146268844604492,0.009319729275173612,-0.09509412977430555
8342,0.04753118662651911,0.7171876525878906,82.73416900634766,81.9567642211914,-4.441402435302734,87.95095825195312,0.3991358439127604,0.48933333333333334,0.30214285714285716,0.01168789333767361,-1.8346620970459,0.20873400568962097,30.146268844604492,0.008637830946180555,-0.08213734096950955
8343,0.08659368662651912,0.6972657775878907,83.69569396972656,80.74974060058594,-4.564151763916016,88.25782775878906,0.3889068603515625,0.48733333333333334,0.2985714285714286,0.01956117418077257,-1.6808592253417984,0.6152160167694092,30.146268844604492,0.03273281521267361,-0.08691088358561198
8344,0.10221868662651912,0.6574220275878906,86.19157409667969,83.67523193359375,-4.625526428222656,88.78973388671875,0.40027245415581597,0.48433333333333334,0.2953571428571429,0.02380299038357205,-1.9445234709472672,2.0214240550994873,30.146268844604492,0.027959357367621528,-0.09350289238823785
8345,0.07878118662651912,0.6574220275878906,90.61050415039062,84.61630249023438,-5.157432556152344,89.1170654296875,0.40231823391384547,0.4826666666666667,0.29035714285714287,0.02023256089952257,-2.581711428710939,2.1532559394836426,30.058380126953125,0.06660224066840278,-0.10304997762044271
8346,0.06706243662651912,0.6375001525878906,86.94851684570312,81.79310607910156,-5.3620147705078125,89.32164001464844,0.39231652153862845,0.4796666666666667,0.2864285714285714,0.018889829847547744,-3.4825636320800797,0.6371880173683167,30.058380126953125,0.057282341851128474,-0.10759616427951389
8347,0.08659368662651912,0.6574220275878906,88.83065795898438,86.29386138916016,-5.11651611328125,89.2193603515625,0.39436238606770835,0.4766666666666667,0.2810714285714286,0.02334526909722222,-4.196652072021486,0.747048020362854,30.058380126953125,0.02818662855360243,-0.10373196072048611
8348,0.05534368662651911,0.7171876525878906,87.03034973144531,85.63920593261719,-4.9733123779296875,88.38057708740234,0.40481864081488717,0.475,0.27714285714285714,0.017363993326822917,-4.273554461547853,-0.4394403868408219,30.058380126953125,0.0154571533203125,-0.0928209940592448
8349,0.05534368662651911,0.5976564025878907,83.20470428466797,80.05416870117188,-5.055145263671875,89.32164001464844,0.39436238606770835,0.4716666666666667,0.2725,0.014648013644748263,-3.273829119750978,-2.3070608549804703,33.13452911376953,0.035005950927734376,-0.10418650309244791
8350,0.06706243662651912,0.6175782775878906,85.88470458984375,83.49111938476562,-3.9504127502441406,87.97142028808594,0.3982266743977865,0.4683333333333333,0.27,0.016417948404947917,-3.4056612425537125,-1.0876146727294937,34.980220794677734,0.02659539116753472,-0.07690925598144531
8351,0.06706243662651912,0.5976564025878907,88.38057708740234,85.57783508300781,-4.052700042724609,87.72592163085938,0.39777204725477433,0.4643333333333333,0.26821428571428574,0.01583815680609809,-3.1090380125732437,0.5932440161705017,39.11104965209961,0.031141577826605902,-0.07531801859537761
8352,0.05924993662651911,0.5976564025878907,87.82821655273438,84.71859741210938,-4.052700042724609,87.99187469482422,0.39572618272569443,0.461,0.26785714285714285,0.014495425754123263,-2.559738772460939,0.2746500074863434,41.39619064331055,0.03455132378472222,-0.07827305263943142
8353,0.05143743662651911,0.6175782775878906,87.58271789550781,83.77752685546875,-4.032245635986328,87.99187469482422,0.3979993184407552,0.458,0.2671428571428571,0.012878036499023438,-2.4169203215332047,-0.4174677305908219,43.241878509521484,0.04227990044487847,-0.07804578145345052
8354,0.05534368662651911,0.6175782775878906,84.63676452636719,83.40928649902344,-4.011787414550781,87.68500518798828,0.39731742011176213,0.45466666666666666,0.2667857142857143,0.013000106811523438,-2.0873400145263687,-0.9887415343017594,44.29655838012695,0.013638644748263888,-0.07440880669487847
8355,0.06315618662651912,0.6972657775878907,85.27096557617188,82.550048828125,-4.175449371337891,87.97142028808594,0.3959535386827257,0.451,0.26607142857142857,0.01513625250922309,-1.7797323637695328,-1.0546575957031266,44.82389831542969,0.030232408311631945,-0.07940966288248698
8356,0.07096868662651912,0.6972657775878907,86.1097412109375,85.23004150390625,-5.914379119873047,89.23981475830078,0.3970900641547309,0.4493333333333333,0.265,0.017302958170572917,-1.4281813078613297,0.010986000299453735,44.91178894042969,0.009774441189236111,-0.11282437642415365
8357,0.07096868662651912,0.6972657775878907,86.27340698242188,82.36592102050781,-5.423389434814453,89.91493225097656,0.39777204725477433,0.44633333333333336,0.2625,0.016906229654947917,-2.7684732847900406,0.010986000299453735,42.97821044921875,0.04341651068793403,-0.1148702409532335
8358,0.06706243662651912,0.6972657775878907,86.64164733886719,83.26608276367188,-4.850563049316406,88.44195556640625,0.3989085727267795,0.444,0.26142857142857145,0.01507521735297309,-3.592423098632814,-0.17577614123535312,42.62664794921875,0.03750627305772569,-0.09213909573025174
8359,0.06315618662651912,0.6972657775878907,84.94363403320312,81.38394165039062,-4.277740478515625,88.44195556640625,0.39731742011176213,0.441,0.26,0.013793521457248263,-3.504534380981447,-0.801977770874025,41.39619064331055,0.03955213758680556,-0.08577440049913194
8360,0.05924993662651911,0.7171876525878906,85.37325286865234,80.79066467285156,-4.236824035644531,88.03279113769531,0.39845394558376734,0.43866666666666665,0.2592857142857143,0.013152694702148438,-2.9991785460205094,-0.48338379199218906,41.39619064331055,0.05091764662000868,-0.08077350192599826
8361,0.05143743662651911,0.6574220275878906,83.06149291992188,82.69325256347656,-4.727817535400391,88.89202880859375,0.3979993184407552,0.436,0.25785714285714284,0.009338082207573786,-3.284815447875978,-0.5163427763671891,41.39619064331055,0.004091559516059028,-0.09577607048882378
8362,0.05534368662651911,0.6773439025878907,87.39859008789062,79.35859680175781,-4.707359313964844,88.52378845214844,0.3889068603515625,0.43266666666666664,0.2567857142857143,0.010314644707573786,-3.4825636320800797,0.10986000299453735,41.22040939331055,0.08933325873480903,-0.09145719740125868
8363,0.07487493662651912,0.6375001525878906,87.09172058105469,84.16622924804688,-4.5846099853515625,88.36012268066406,0.3918618943956163,0.42966666666666664,0.25642857142857145,0.013671451144748263,-2.823403018066408,0.4064820110797882,41.57196807861328,0.03250545925564236,-0.08827480740017361
8364,0.07878118662651912,0.6175782775878906,84.92317199707031,83.75706481933594,-4.277740478515625,87.99187469482422,0.3970900641547309,0.4246666666666667,0.2571428571428571,0.01492262946234809,-2.878332751342775,-0.13183273608398594,45.26335144042969,0.012956746419270833,-0.08077350192599826
8365,0.08268743662651912,0.6773439025878907,84.82088470458984,80.8929443359375,-3.8890380859375,86.90760040283203,0.3932257758246528,0.421,0.25821428571428573,0.01620436774359809,-2.526779788085939,-0.2526785307617203,48.339500427246094,0.04364378187391493,-0.06440709431966146
8366,0.07878118662651912,0.7371095275878906,85.43462371826172,82.61141967773438,-3.909496307373047,87.78729248046875,0.39095272488064237,0.41633333333333333,0.2596428571428571,0.016448465983072917,-2.164242404052736,0.2197200059890747,48.427391052246094,0.03136893378363715,-0.0744087643093533
8367,0.07487493662651912,0.6773439025878907,85.41416931152344,82.5091323852539,-4.502777099609375,87.66455078125,0.40027245415581597,0.41333333333333333,0.26071428571428573,0.014373355441623263,-1.7687460356445328,1.1315580606460571,48.427391052246094,0.032278188069661456,-0.07963697645399305
8368,0.07878118662651912,0.6773439025878907,85.20958709716797,81.83401489257812,-4.011787414550781,88.89202880859375,0.39368040296766493,0.412,0.26142857142857145,0.01620436774359809,-1.6588865690917984,1.1095860004425049,48.427391052246094,0.037506357828776045,-0.08782018025716146
8369,0.09049993662651912,0.6175782775878906,89.23981475830078,83.36836242675781,-4.871021270751953,88.36012268066406,0.3989085727267795,0.409,0.2621428571428571,0.018554136488172744,-1.153530734130861,2.3949480056762695,48.427391052246094,0.06523835923936631,-0.09145715501573351
8370,0.08268743662651912,0.5976564025878907,87.64408874511719,85.78240966796875,-4.298198699951172,88.25782775878906,0.3970900641547309,0.4066666666666667,0.2621428571428571,0.018615171644422744,-1.4940973692626969,2.9552340507507324,48.427391052246094,0.020685323079427085,-0.08395584954155816
8371,0.06706243662651912,0.6375001525878906,84.80043029785156,89.09660339355469,-2.743389129638672,85.02546691894531,0.40231823391384547,0.405,0.26321428571428573,0.018584654066297744,-2.4059339934082047,2.515794038772583,48.427391052246094,-0.04773525661892361,-0.030765067206488715
8372,0.07487493662651912,0.6574220275878906,87.33721923828125,84.22760009765625,-3.500335693359375,90.26271057128906,0.3898161146375868,0.4033333333333333,0.26357142857142857,0.021819432576497395,-2.252131121704103,0.8459219932556152,48.427391052246094,0.03455132378472222,-0.09736718071831597
8373,0.08659368662651912,0.6574220275878906,85.94607543945312,82.87738037109375,-4.993770599365234,89.28073120117188,0.39731742011176213,0.401,0.26357142857142857,0.02481007046169705,-2.197201388427736,0.19774800539016724,48.427391052246094,0.034096611870659724,-0.10305002000596789
8374,0.10221868662651912,0.6972657775878907,87.86912536621094,82.85691833496094,-4.380031585693359,88.97386169433594,0.39095272488064237,0.4,0.26357142857142857,0.028929816351996526,-2.3839632445068375,-0.08788933093261875,48.427391052246094,0.05569118923611111,-0.09282103644476997
8375,0.10612493662651912,0.6574220275878906,89.95584106445312,84.61630249023438,-4.3595733642578125,88.93293762207031,0.3952715555826823,0.39666666666666667,0.2639285714285714,0.029509607950846353,-2.0433966093750016,1.0766279697418213,48.427391052246094,0.05932820638020833,-0.09213901095920139
8376,0.06706243662651912,0.6175782775878906,93.1268310546875,90.42637634277344,-3.357128143310547,87.05081176757812,0.4055006239149306,0.395,0.2642857142857143,0.021361668904622395,-2.493822711059572,2.449877977371216,48.427391052246094,0.030005052354600693,-0.06008822123209635
8377,0.03190618662651911,0.5777345275878907,85.53691101074219,82.46821594238281,-4.257282257080078,88.05325317382812,0.40572789510091145,0.393,0.265,0.014342837863498263,-2.3400179320068375,0.9008520245552063,48.427391052246094,0.034096611870659724,-0.08122817145453559
8378,0.03971868662651911,0.5578126525878906,84.63676452636719,80.64745330810547,-4.216365814208984,87.84866333007812,0.38913421630859374,0.39,0.26571428571428574,0.01556349860297309,-1.9664942198486344,-1.6149431639404312,48.427391052246094,0.04432568020290799,-0.07850032382541233
8379,0.05534368662651911,0.5378907394409179,84.84133911132812,80.64745330810547,-4.4209442138671875,88.91248321533203,0.3941350301106771,0.38666666666666666,0.2671428571428571,0.016906229654947917,-2.219172137329103,-2.482836382934572,48.427391052246094,0.046598731146918405,-0.09259363810221354
8380,0.05143743662651911,0.5578126525878906,85.37325286865234,80.68836975097656,-4.257282257080078,87.39859008789062,0.3989085727267795,0.384,0.26821428571428574,0.014281802707248263,-3.1310106688232437,-1.7907186918945328,48.427391052246094,0.05205425686306424,-0.07395413716634115
8381,0.05534368662651911,0.49804698944091796,84.0025634765625,77.64012145996094,-4.645984649658203,88.72836303710938,0.3979993184407552,0.38366666666666666,0.27285714285714285,0.01168789333767361,-3.0211512022705094,-1.7467752867431656,48.427391052246094,0.07069380018446181,-0.09304830763075086
8382,0.04753118662651911,0.478125114440918,80.97477722167969,77.51737976074219,-3.7867469787597656,88.99431610107422,0.39163462320963544,0.37966666666666665,0.2757142857142857,0.008178456624348959,-3.834114687988283,-1.2304331236572281,48.427391052246094,0.03841552734375,-0.08645625644259983
8383,0.03190618662651911,0.5578126525878906,89.50576782226562,87.17355346679688,-4.482318878173828,89.48530578613281,0.4020909627278646,0.37633333333333335,0.27964285714285714,0.0066831376817491316,-3.976933138916017,1.8346620798110962,48.427391052246094,0.025913492838541666,-0.09964027404785156
8384,0.03581243662651911,0.5777345275878907,84.61630249023438,84.88226318359375,-4.5846099853515625,87.13264465332031,0.3989085727267795,0.37266666666666665,0.28214285714285714,0.008758290608723959,-3.7901712828369156,0.2197200059890747,48.427391052246094,-0.0029551188151041665,-0.07463616265190973
8385,0.06315618662651912,0.5179688644409179,88.93293762207031,86.23248291015625,-5.955295562744141,90.95828247070312,0.39231652153862845,0.37,0.2842857142857143,0.013701968722873263,-3.185940402099611,-0.3295809202880875,48.427391052246094,0.030005052354600693,-0.13237308926052518
8386,0.07487493662651912,0.5179688644409179,87.41905212402344,81.19981384277344,-5.034687042236328,88.31919860839844,0.3970900641547309,0.367,0.28535714285714286,0.01513625250922309,-3.6803099089355484,-0.4394403868408219,48.427391052246094,0.06910264756944444,-0.09282095167371962
8387,0.06315618662651912,0.5777345275878907,86.25294494628906,81.73172760009766,-4.502777099609375,89.44439697265625,0.39640816582573785,0.3626666666666667,0.2875,0.013640933566623263,-3.867073672363283,-0.7800070219726578,48.427391052246094,0.050235748291015625,-0.09941304524739583
8388,0.07096868662651912,0.5179688644409179,84.5958480834961,80.34058380126953,-5.423389434814453,89.71034240722656,0.39549891153971356,0.36,0.2889285714285714,0.012267684936523438,-3.4276319914550797,-0.9557825499267594,48.427391052246094,0.04728071424696181,-0.1125970204671224
8389,0.06315618662651912,0.5777345275878907,87.95095825195312,85.20958709716797,-4.993770599365234,88.87156677246094,0.40095435248480904,0.3556666666666667,0.2907142857142857,0.01159634060329861,-3.7681986265869156,0.1867620050907135,48.427391052246094,0.030459679497612847,-0.09850374857584636
8390,0.05534368662651911,0.5378907394409179,80.58607482910156,89.38301849365234,-5.055145263671875,89.0147705078125,0.40300013224283854,0.3516666666666667,0.29178571428571426,0.010131539238823786,-3.273829119750978,-1.2743765288085953,48.427391052246094,-0.09774381849500868,-0.10077684190538194
8391,0.09440618662651912,0.5179688644409179,88.72836303710938,81.40440368652344,-4.932395935058594,89.52622985839844,0.3898161146375868,0.3486666666666667,0.2932142857142857,0.01586867438422309,-3.0870672636718766,-0.17577614123535312,48.427391052246094,0.08137732611762152,-0.10509584214952257
8392,0.08268743662651912,0.5777345275878907,87.50088500976562,84.26852416992188,-4.8914794921875,88.99431610107422,0.4020909627278646,0.3466666666666667,0.2932142857142857,0.01504469977484809,-3.0211512022705094,1.032684087753296,48.427391052246094,0.03591512044270833,-0.09873106214735243
8393,0.08268743662651912,0.5179688644409179,85.47554016113281,87.93049621582031,-4.9733123779296875,89.2193603515625,0.4007270812988281,0.3436666666666667,0.29464285714285715,0.014129214816623263,-2.7355143004150406,0.373524010181427,48.427391052246094,-0.027277289496527777,-0.10214080810546874
8394,0.06706243662651912,0.49804698944091796,87.15309143066406,82.61141967773438,-5.546134948730469,90.03767395019531,0.39663543701171877,0.341,0.2957142857142857,0.01135219997829861,-3.603409426757814,-0.7140909605712906,48.427391052246094,0.05046301947699653,-0.1175978766547309
8395,0.07096868662651912,0.5378907394409179,88.1146240234375,82.22271728515625,-5.525676727294922,89.40347290039062,0.39368040296766493,0.3396666666666667,0.29678571428571426,0.01177944607204861,-4.306513445922853,-1.0986010008544937,48.427391052246094,0.06546563042534723,-0.11032388475206163
8396,0.06706243662651912,0.6175782775878906,85.80287170410156,81.62944030761719,-5.832546234130859,89.87400817871094,0.39731742011176213,0.3363333333333333,0.2978571428571429,0.01184048122829861,-4.163694994995119,-1.6039568358154312,48.427391052246094,0.0463714599609375,-0.11896171569824218
8397,0.09440618662651912,0.5179688644409179,86.86668395996094,83.22515869140625,-5.402931213378906,90.03767395019531,0.3952715555826823,0.3323333333333333,0.2985714285714286,0.013640933566623263,-4.163694994995119,-1.2853628569335953,48.427391052246094,0.04046139187282986,-0.11600672403971354
8398,0.07487493662651912,0.5578126525878906,86.35523986816406,83.63432312011719,-5.689342498779297,89.85355377197266,0.4052732679578993,0.33,0.29928571428571427,0.009490670098198786,-4.548205035278322,0.1538040041923523,48.427391052246094,0.030232408311631945,-0.11714329189724393
8399,0.04753118662651911,0.5378907394409179,85.35279846191406,81.34302520751953,-4.625526428222656,89.68988800048828,0.40118170844184026,0.3273333333333333,0.29928571428571427,0.004577509562174479,-4.570175784179689,0.17577600479125977,48.427391052246094,0.04455303615993923,-0.10350460476345485
8400,0.04753118662651911,0.5378907394409179,85.65966796875,82.32501220703125,-5.402931213378906,90.59004211425781,0.3982266743977865,0.3243333333333333,0.29964285714285716,0.004821650187174479,-4.592148440429689,0.1867620050907135,48.427391052246094,0.03705173068576389,-0.12214414808485242
8401,0.05143743662651911,0.5378907394409179,85.65966796875,82.0999755859375,-5.464302062988281,89.23981475830078,0.3941350301106771,0.32133333333333336,0.29964285714285716,0.005889723036024305,-4.833840029785158,0.1538040041923523,48.427391052246094,0.03955213758680556,-0.10782352023654514
8402,0.04753118662651911,0.5777345275878907,86.04837036132812,83.40928649902344,-5.525676727294922,89.85355377197266,0.4007270812988281,0.31833333333333336,0.3,0.005706617567274305,-4.767923968383791,0.9667680263519287,48.427391052246094,0.029323154025607638,-0.11532478332519532
8403,0.05143743662651911,0.49804698944091796,84.1048583984375,79.11309814453125,-4.830104827880859,88.0123291015625,0.39686279296875,0.315,0.29892857142857143,0.005950758192274305,-4.537218707153322,1.4171940088272095,48.427391052246094,0.05546400282118055,-0.08713815477159288
8404,0.06315618662651912,0.5976564025878907,86.74394226074219,84.5958480834961,-5.8120880126953125,90.40591430664062,0.39777204725477433,0.31166666666666665,0.29892857142857143,0.01107754177517361,-3.91101707751465,2.186213970184326,48.427391052246094,0.02386771308051215,-0.12464447021484375
8405,0.08268743662651912,0.5976564025878907,86.68256378173828,82.81600189208984,-5.1983489990234375,90.1604232788086,0.39299850463867186,0.30866666666666664,0.2975,0.016936747233072917,-4.306513445922853,2.449877977371216,48.427391052246094,0.042961798773871525,-0.11509746975368923
8406,0.09049993662651912,0.5179688644409179,87.88958740234375,84.18669128417969,-5.8120880126953125,90.34454345703125,0.4041367424858941,0.30466666666666664,0.29714285714285715,0.018218443128797744,-4.800882952758791,3.7132680416107178,48.427391052246094,0.04114329020182292,-0.12396257188585069
8407,0.08659368662651912,0.5578126525878906,90.20133972167969,83.5934066772461,-4.707359313964844,88.74882507324219,0.39549891153971356,0.30033333333333334,0.29714285714285715,0.021056493123372395,-4.954685824462892,2.3180460929870605,47.81216049194336,0.07342147827148438,-0.09395760430230035
8408,0.08659368662651912,0.5777345275878907,85.1072998046875,82.63188171386719,-4.686901092529297,89.19889831542969,0.3970900641547309,0.295,0.2978571428571429,0.02264336480034722,-5.053560870239259,-0.3295809202880875,47.46059799194336,0.02750464545355903,-0.0987311045328776
8409,0.06315618662651912,0.5578126525878906,85.76194763183594,82.30455017089844,-5.464302062988281,90.18087768554688,0.40118170844184026,0.292,0.2975,0.017638651529947917,-5.185392993041994,-1.527054446289064,47.46059799194336,0.03841552734375,-0.11827977498372395
8410,0.05143743662651911,0.5378907394409179,87.86912536621094,77.9469985961914,-5.484760284423828,89.1170654296875,0.39686279296875,0.29,0.2975,0.012969589233398438,-4.998631136962892,-1.2414194517822281,47.46059799194336,0.11024585300021701,-0.10668695237901475
8411,0.05143743662651911,0.5378907394409179,83.71615600585938,81.87493133544922,-5.484760284423828,90.13996887207031,0.4000450981987847,0.2856666666666667,0.29678571428571426,0.01190151638454861,-5.372154849121095,-1.153530734130861,47.46059799194336,0.02045805189344618,-0.11805254618326823
8412,0.06315618662651912,0.5578126525878906,91.0810317993164,87.0098876953125,-4.216365814208984,89.0761489868164,0.3900434705946181,0.281,0.29678571428571426,0.01495314704047309,-5.745678561279298,-0.3954969816894547,47.46059799194336,0.045234934488932295,-0.09213905334472657
8413,0.04753118662651911,0.5378907394409179,87.35768127441406,81.48623657226562,-6.016670227050781,89.09660339355469,0.4034547593858507,0.2783333333333333,0.29714285714285715,0.01086391872829861,-4.756939547607423,-1.0326849394531266,47.46059799194336,0.06523827446831597,-0.11236970689561632
8414,0.05534368662651911,0.5179688644409179,82.24317932128906,78.33570098876953,-4.4209442138671875,88.19645690917969,0.39140726725260416,0.274,0.29678571428571426,0.01074184841579861,-5.50398697192383,-3.515520709106447,47.46059799194336,0.04341642591688368,-0.08463779025607639
8415,0.08659368662651912,0.478125114440918,84.92317199707031,79.21539306640625,-4.482318878173828,88.6669921875,0.39572618272569443,0.2703333333333333,0.29642857142857143,0.01184048122829861,-5.042574542114259,-2.2850881987304703,47.284820556640625,0.06341976589626735,-0.0905479007297092
8416,0.07878118662651912,0.49804698944091796,85.74149322509766,85.5982894897461,-4.523235321044922,89.17843627929688,0.4000450981987847,0.2643333333333333,0.29642857142857143,0.010589302910698786,-4.174681323120119,-0.3295809202880875,47.284820556640625,0.001591152615017361,-0.09668524000379775
8417,0.07487493662651912,0.45820323944091795,86.47798156738281,83.47065734863281,-3.520793914794922,86.62118530273438,0.40572789510091145,0.25966666666666666,0.2960714285714286,0.008941396077473959,-3.932987826416017,1.1315580606460571,47.284820556640625,0.03341471354166667,-0.05713310241699219
8418,0.07096868662651912,0.5179688644409179,86.45751953125,83.40928649902344,-3.500335693359375,87.74638366699219,0.3982266743977865,0.25566666666666665,0.2960714285714286,0.010528267754448786,-3.196926730224611,1.0766279697418213,47.284820556640625,0.03386925591362847,-0.06940799289279515
8419,0.07096868662651912,0.5777345275878907,86.45751953125,83.1024169921875,-3.7662887573242188,88.64653015136719,0.38913421630859374,0.25133333333333335,0.29464285714285715,0.013152694702148438,-2.6586119108886734,0.8569080233573914,47.284820556640625,0.03727891710069445,-0.08236465454101563
8420,0.05534368662651911,0.5578126525878906,87.5213394165039,87.23492431640625,-3.8890380859375,88.40103149414062,0.4034547593858507,0.249,0.29285714285714287,0.01080288357204861,-1.7907186918945328,1.032684087753296,47.284820556640625,0.0031823900010850693,-0.08100077311197916
8421,0.03581243662651911,0.5378907394409179,85.33233642578125,81.01570129394531,-4.5846099853515625,89.19889831542969,0.40231823391384547,0.24666666666666667,0.2907142857142857,0.0066221025254991316,-1.142544406005861,0.1867620050907135,47.284820556640625,0.04796261257595486,-0.09759453667534722
8422,0.03581243662651911,0.5378907394409179,85.80287170410156,82.5091323852539,-4.523235321044922,89.23981475830078,0.3939077589246962,0.24366666666666667,0.2889285714285714,0.0066221025254991316,-2.0104395323486344,-0.19774879748535312,47.196929931640625,0.03659710354275174,-0.09736722310384115
8423,0.03190618662651911,0.5378907394409179,88.50332641601562,80.83157348632812,-4.339115142822266,86.70301818847656,0.39640816582573785,0.24233333333333335,0.2875,0.005950758192274305,-1.8346620970459,-0.04394401843261875,47.196929931640625,0.08524169921875,-0.0671348147922092
8424,0.020187436626519114,0.5378907394409179,87.19401550292969,82.0385971069336,-4.3595733642578125,88.44195556640625,0.39959047105577256,0.24166666666666667,0.2860714285714286,0.0033568488226996527,-1.538040774414064,-0.12084640795898594,47.196929931640625,0.05728242662217882,-0.08668365478515624
8425,0.004562436626519112,0.5578126525878906,87.25538635253906,82.38638305664062,-5.239265441894531,90.71278381347656,0.4007270812988281,0.24033333333333334,0.28464285714285714,-3.0517578125e-05,-1.538040774414064,-0.03295769030761875,47.196929931640625,0.05410003662109375,-0.12168943617078994
8426,0.008468686626519112,0.5777345275878907,85.39370727539062,80.32012939453125,-6.037128448486328,89.77172088623047,0.38936148749457467,0.239,0.2832142857142857,0.0007323794894748264,-1.7357889586181656,-1.3842359953613297,47.196929931640625,0.05637308756510417,-0.12009832594129774
8427,0.03581243662651911,0.5179688644409179,84.53446960449219,79.91096496582031,-4.66644287109375,88.87156677246094,0.39299850463867186,0.23866666666666667,0.2810714285714286,0.0036924997965494793,-2.471850054809572,-1.8676210814209,47.196929931640625,0.05137227376302083,-0.0948667738172743
8428,0.03971868662651911,0.5179688644409179,78.25386810302734,75.51249694824219,-3.8276634216308594,88.27828979492188,0.40163633558485246,0.23733333333333334,0.28035714285714286,0.0022582160101996527,-2.6695982390136734,-2.5926958494873062,47.196929931640625,0.030459679497612847,-0.07895503573947482
8429,0.05143743662651911,0.5179688644409179,85.29141998291016,83.85935974121094,-4.216365814208984,89.54668426513672,0.39981782701280383,0.234,0.28,0.0029601203070746527,-2.845373766967775,-1.131558077880861,47.196929931640625,0.015911780463324653,-0.09736722310384115
8430,0.04753118662651911,0.5578126525878906,84.12531280517578,80.77020263671875,-3.4594192504882812,88.0123291015625,0.39140726725260416,0.23066666666666666,0.28,0.0022887335883246527,-3.6253801756591812,-0.3295809202880875,47.196929931640625,0.037279001871744794,-0.07190831502278645
8431,0.03581243662651911,0.49804698944091796,84.39126586914062,80.44287109375,-2.866138458251953,88.91248321533203,0.40481864081488717,0.229,0.2810714285714286,-0.0007628970675998264,-3.7132688933105484,1.0876140594482422,47.196929931640625,0.04387105305989583,-0.07531801859537761
8432,0.05143743662651911,0.5378907394409179,85.92561340332031,82.59095764160156,-4.8096466064453125,90.26271057128906,0.39231652153862845,0.22633333333333333,0.28214285714285714,0.004119745890299479,-3.251856463500978,1.6259280443191528,47.196929931640625,0.03705173068576389,-0.11191507975260416
8433,0.06315618662651912,0.6375001525878906,84.0434799194336,80.40196228027344,-4.318656921386719,88.58515930175781,0.39663543701171877,0.22333333333333333,0.2832142857142857,0.009032948811848959,-3.91101707751465,1.175502061843872,47.196929931640625,0.04046130710177952,-0.08782018025716146
8434,0.07487493662651912,0.6175782775878906,89.97630310058594,87.15309143066406,-5.1983489990234375,89.93538665771484,0.3982266743977865,0.21966666666666668,0.2839285714285714,0.013335800170898438,-3.6473528319091812,1.8456480503082275,47.196929931640625,0.0313690185546875,-0.11259706285264758
8435,0.08268743662651912,0.5179688644409179,82.18180847167969,77.333251953125,-4.789188385009766,89.64897155761719,0.3979993184407552,0.21766666666666667,0.28535714285714286,0.013518863254123263,-4.196652072021486,-0.09887375170898594,47.196929931640625,0.0538728502061632,-0.10486844380696615
8436,0.09831243662651912,0.5179688644409179,85.92561340332031,82.38638305664062,-4.625526428222656,89.48530578613281,0.39731742011176213,0.21466666666666667,0.2864285714285714,0.01605177985297309,-4.174681323120119,0.48338401317596436,47.196929931640625,0.039324781629774305,-0.1012314690483941
8437,0.12174993662651912,0.49804698944091796,84.6572265625,83.71615600585938,-5.075603485107422,89.77172088623047,0.39663543701171877,0.21133333333333335,0.2882142857142857,0.01971376207139757,-4.185667651245119,0.4943700134754181,47.196929931640625,0.010456339518229166,-0.10941471523708768
8438,0.12174993662651912,0.5179688644409179,89.03523254394531,85.20958709716797,-4.4209442138671875,89.23981475830078,0.40118170844184026,0.207,0.28964285714285715,0.021392186482747395,-5.218350070068361,0.8349360227584839,47.196929931640625,0.042507171630859375,-0.09623065524631076
8439,0.09440618662651912,0.5179688644409179,93.1677474975586,85.80287170410156,-3.9913291931152344,88.91248321533203,0.40368211534288195,0.20233333333333334,0.29178571428571426,0.017608133951822917,-5.888497012207033,1.9115641117095947,47.196929931640625,0.08183195326063368,-0.08782013787163628
8440,0.03581243662651911,0.49804698944091796,82.16134643554688,79.31768798828125,-4.3595733642578125,90.46729278564453,0.40572789510091145,0.20066666666666666,0.29392857142857143,0.0071103837754991316,-5.50398697192383,-0.6481748991699234,47.284820556640625,0.031596204969618055,-0.1091874016655816
8441,0.03581243662651911,0.49804698944091796,86.39614868164062,78.51982116699219,-4.298198699951172,88.89202880859375,0.39640816582573785,0.19566666666666666,0.2957142857142857,0.006225416395399305,-4.756939547607423,-0.5492998533935562,47.284820556640625,0.08751475016276042,-0.09100252787272135
8442,0.05143743662651911,0.5179688644409179,87.27584838867188,80.8929443359375,-4.216365814208984,89.40347290039062,0.3918618943956163,0.19066666666666668,0.2960714285714286,0.009093983968098959,-4.207638400146486,0.8788800239562988,47.284820556640625,0.07092115614149305,-0.09577598571777343
8443,0.03971868662651911,0.5378907394409179,86.23248291015625,84.75950622558594,-3.9913291931152344,89.17843627929688,0.40572789510091145,0.18766666666666668,0.29678571428571426,0.008147939046223959,-5.097504275390627,1.450152039527893,47.284820556640625,0.016366407606336807,-0.09077517191569011
8444,0.04362493662651911,0.49804698944091796,84.20714569091797,81.0361557006836,-4.850563049316406,89.17843627929688,0.3993631998697917,0.184,0.2978571428571429,0.009277047051323786,-3.965946810791017,0.8349360227584839,47.284820556640625,0.035233222113715275,-0.10032221476236979
8445,0.05143743662651911,0.49804698944091796,87.78729248046875,83.38882446289062,-3.9299545288085938,88.89202880859375,0.4004997253417969,0.17933333333333334,0.2978571428571429,0.01119961208767361,-4.064819949218752,1.538040041923523,47.284820556640625,0.04887186686197917,-0.08691092597113716
8446,0.05924993662651911,0.478125114440918,86.72348022460938,82.24317932128906,-3.909496307373047,89.05569458007812,0.3970900641547309,0.17633333333333334,0.2975,0.013335800170898438,-4.086792605468752,1.5160679817199707,47.196929931640625,0.049781121148003475,-0.08850212097167968
8447,0.05924993662651911,0.45820323944091795,84.88226318359375,83.65477752685547,-3.909496307373047,89.50576782226562,0.39640816582573785,0.17333333333333334,0.2975,0.014434390597873263,-4.042849200317384,-0.5932451658935562,47.196929931640625,0.013638729519314236,-0.09350293477376302
8448,0.05924993662651911,0.45820323944091795,89.79217529296875,81.60897827148438,-3.7867469787597656,89.30118560791016,0.4004997253417969,0.16966666666666666,0.2975,0.013000106811523438,-3.6473528319091812,-0.19774879748535312,47.196929931640625,0.09092441134982639,-0.0898659176296658
8449,0.05924993662651911,0.438281364440918,87.41905212402344,86.70301818847656,-3.66400146484375,89.40347290039062,0.39845394558376734,0.16633333333333333,0.2978571428571429,0.012847518920898438,-3.856087344238283,0.3185940086841583,47.196929931640625,0.0079559326171875,-0.08963860405815972
8450,0.07878118662651912,0.478125114440918,92.7176742553711,84.554931640625,-3.3980445861816406,88.33966064453125,0.3939077589246962,0.16233333333333333,0.2982142857142857,0.017028299967447917,-4.152708666870119,0.09887400269508362,47.196929931640625,0.09069714016384549,-0.07486339145236545
8451,0.07878118662651912,0.478125114440918,86.19157409667969,82.0385971069336,-3.1525497436523438,88.50332641601562,0.3982266743977865,0.159,0.2985714285714286,0.016753641764322917,-3.845101016113283,-0.9887415343017594,47.196929931640625,0.046144188774956595,-0.07395417955186633
8452,0.03971868662651911,0.5179688644409179,86.04837036132812,83.42974090576172,-3.1525497436523438,88.40103149414062,0.4055006239149306,0.15633333333333332,0.2985714285714286,0.009368599785698786,-3.284815447875978,-1.2304331236572281,47.196929931640625,0.029095882839626736,-0.07281756930881077
8453,0.03971868662651911,0.5378907394409179,84.90271759033203,80.85203552246094,-4.1959075927734375,90.48774719238281,0.39504428439670136,0.15433333333333332,0.2982142857142857,0.007964833577473959,-3.932987826416017,-2.7025572233886734,47.196929931640625,0.045007578531901044,-0.10759616427951389
8454,0.06315618662651912,0.49804698944091796,86.80531311035156,81.24073791503906,-3.745830535888672,88.70790100097656,0.3932257758246528,0.15133333333333332,0.2975,0.009673775566948786,-4.108765261718752,-2.1202989989013687,47.196929931640625,0.06182861328125,-0.0828192392985026
8455,0.06315618662651912,0.49804698944091796,85.76194763183594,83.85935974121094,-3.745830535888672,89.46485137939453,0.4000450981987847,0.149,0.29642857142857143,0.008331044514973959,-3.6143938475341812,-0.9118391447753922,47.196929931640625,0.02113986545138889,-0.09122979905870225
8456,0.06315618662651912,0.5179688644409179,88.33966064453125,85.06637573242188,-3.5617103576660156,89.32164001464844,0.39504428439670136,0.14566666666666667,0.2960714285714286,0.008086903889973959,-3.3177725249023453,-0.2966219359130875,47.196929931640625,0.03636983235677083,-0.08759278191460504
8457,0.06706243662651912,0.5179688644409179,90.40591430664062,82.28408813476562,-3.6230850219726562,88.52378845214844,0.39504428439670136,0.14233333333333334,0.29464285714285715,0.009063466389973959,-3.3727022581787125,0.5712720155715942,47.196929931640625,0.09024251302083333,-0.07940970526801215
8458,0.05924993662651911,0.49804698944091796,85.02546691894531,84.22760009765625,-3.500335693359375,87.62362670898438,0.39959047105577256,0.14,0.29392857142857143,0.0077512529161241316,-3.273829119750978,-0.06591667468261875,47.196929931640625,0.008865186903211806,-0.06804402669270833
8459,0.06706243662651912,0.438281364440918,85.06637573242188,81.75218200683594,-3.704914093017578,89.36256408691406,0.39572618272569443,0.138,0.2932142857142857,0.0074765947129991316,-3.1310106688232437,-0.845923083374025,47.196929931640625,0.03682437472873264,-0.0896386464436849
8460,0.08659368662651912,0.438281364440918,84.94363403320312,81.05661010742188,-4.216365814208984,88.6056137084961,0.3898161146375868,0.135,0.2925,0.009978951348198786,-3.251856463500978,-1.0876146727294937,47.196929931640625,0.043189154730902776,-0.08691088358561198
8461,0.09831243662651912,0.438281364440918,84.96409606933594,81.547607421875,-2.722930908203125,88.13508605957031,0.39436238606770835,0.13133333333333333,0.29214285714285715,0.01101650661892361,-3.6693254881591812,-1.0216986113281266,47.196929931640625,0.037960984971788195,-0.06508907741970486
8462,0.07878118662651912,0.478125114440918,84.98455047607422,81.69081115722656,-3.254840850830078,88.6056137084961,0.4055006239149306,0.12833333333333333,0.2925,0.008270009358723959,-3.548477786132814,-0.09887375170898594,47.196929931640625,0.03659710354275174,-0.07622727288140191
8463,0.08268743662651912,0.478125114440918,89.62850952148438,82.28408813476562,-3.1730079650878906,88.38057708740234,0.39754469129774306,0.12533333333333332,0.2925,0.008697255452473959,-3.3287588530273453,1.263390064239502,47.196929931640625,0.08160468207465278,-0.07281761169433594
8464,0.08659368662651912,0.45820323944091795,88.48286437988281,83.67523193359375,-2.9888877868652344,88.76927947998047,0.39754469129774306,0.12233333333333334,0.29285714285714287,0.010253609551323786,-3.284815447875978,1.8676199913024902,47.196929931640625,0.053418138292100695,-0.0750907474093967
8465,0.07096868662651912,0.49804698944091796,85.18913269042969,82.46821594238281,-2.9479713439941406,88.25782775878906,0.3945896572536892,0.119,0.2932142857142857,0.009551705254448786,-3.4386183195800797,0.45042601227760315,47.196929931640625,0.030232408311631945,-0.06895332336425782
8466,0.05924993662651911,0.478125114440918,86.17111206054688,83.08195495605469,-3.091175079345703,89.567138671875,0.40572789510091145,0.116,0.2932142857142857,0.0073240068223741316,-3.823128359863283,0.9118380546569824,47.196929931640625,0.034323967827690975,-0.08509237501356337
8467,0.06315618662651912,0.49804698944091796,86.19157409667969,82.79554748535156,-3.0298004150390625,88.95339965820312,0.39572618272569443,0.11333333333333333,0.2935714285714286,0.008971913655598959,-4.141722338745119,0.5712720155715942,47.196929931640625,0.03773362901475694,-0.07759111192491319
8468,0.07487493662651912,0.5179688644409179,86.21202850341797,82.65233612060547,-4.175449371337891,90.40591430664062,0.39731742011176213,0.11066666666666666,0.2935714285714286,0.01193203396267361,-4.218624728271486,0.5822579860687256,47.196929931640625,0.03955213758680556,-0.10645959642198351
8469,0.08659368662651912,0.49804698944091796,86.25294494628906,82.85691833496094,-3.2139244079589844,89.1170654296875,0.39299850463867186,0.10833333333333334,0.2935714285714286,0.014403873019748263,-4.811869280883791,0.4284540116786957,47.196929931640625,0.03773362901475694,-0.08145544264051649
8470,0.09440618662651912,0.49804698944091796,84.26852416992188,85.455078125,-3.357128143310547,90.24225616455078,0.39663543701171877,0.105,0.29428571428571426,0.01599074469672309,-4.504261630126955,0.05493000149726868,47.196929931640625,-0.01318393283420139,-0.09554871453179253
8471,0.09049993662651912,0.45820323944091795,88.99431610107422,80.0337142944336,-3.0707168579101562,88.87156677246094,0.40481864081488717,0.10066666666666667,0.295,0.013915591769748263,-4.504261630126955,1.5050820112228394,47.196929931640625,0.09956224229600695,-0.07713648478190104
8472,0.09440618662651912,0.41835948944091794,88.6056137084961,86.0074462890625,-1.2704124450683594,89.13752746582031,0.39686279296875,0.09633333333333334,0.29642857142857143,0.01577712164984809,-5.119476931640627,2.1642420291900635,47.196929931640625,0.028868526882595485,-0.06008822123209635
8473,0.07878118662651912,0.41835948944091794,87.05081176757812,87.35768127441406,-2.10919189453125,88.91248321533203,0.4041367424858941,0.09266666666666666,0.2982142857142857,0.01513625250922309,-4.756939547607423,0.8239500522613525,47.196929931640625,-0.003409661187065972,-0.06690750122070313
8474,0.06706243662651912,0.438281364440918,86.0688247680664,79.78821563720703,-2.088733673095703,88.68744659423828,0.4014089796278212,0.09,0.29892857142857143,0.013366317749023438,-4.3944002562255875,-0.13183273608398594,47.196929931640625,0.0697845458984375,-0.06417978074815538
8475,0.07878118662651912,0.39843757629394533,88.72836303710938,85.61874389648438,-2.1910247802734375,89.42393493652344,0.39549891153971356,0.08566666666666667,0.3,0.014556460910373263,-3.4825636320800797,0.4064820110797882,47.196929931640625,0.03455132378472222,-0.07349955240885417
8476,0.06315618662651912,0.39843757629394533,84.98455047607422,83.40928649902344,-2.0069007873535156,88.70790100097656,0.39981782701280383,0.08233333333333333,0.3007142857142857,0.012664413452148438,-3.91101707751465,-1.4171949797363297,47.196929931640625,0.017502933078342015,-0.06349779764811198
8477,0.07487493662651912,0.39843757629394533,89.32164001464844,78.56073760986328,-1.495452880859375,87.86912536621094,0.39663543701171877,0.07866666666666666,0.30178571428571427,0.012176132202148438,-4.196652072021486,-1.3293062620849625,47.196929931640625,0.11956558227539063,-0.048495313856336805
8478,0.08268743662651912,0.41835948944091794,84.57539367675781,82.52958679199219,-0.08385086059570312,88.27828979492188,0.3904980977376302,0.07533333333333334,0.3028571428571429,0.013030624389648438,-3.90003074938965,-2.0543829375000016,47.196929931640625,0.022731187608506946,-0.03735711839463976
8479,0.07487493662651912,0.438281364440918,85.96653747558594,79.68592834472656,-3.5617103576660156,88.85111236572266,0.4014089796278212,0.07233333333333333,0.30357142857142855,0.010039986504448786,-2.889319079467775,-0.5932451658935562,47.196929931640625,0.0697845458984375,-0.0823646969265408
8480,0.05924993662651911,0.39843757629394533,87.0098876953125,83.02058410644531,-1.7000312805175781,87.41905212402344,0.4032274881998698,0.06966666666666667,0.3028571428571429,0.0070188310411241316,-3.4056612425537125,0.7140899896621704,47.196929931640625,0.04432559543185764,-0.045767593383789065
8481,0.03581243662651911,0.3785157012939453,86.88714599609375,83.32745361328125,-2.641101837158203,89.28073120117188,0.4018636067708333,0.068,0.3032142857142857,0.003997675577799479,-3.251856463500978,0.1867620050907135,47.196929931640625,0.03955213758680556,-0.07690925598144531
8482,0.04362493662651911,0.41835948944091794,86.45751953125,82.93875122070312,-3.1525497436523438,89.87400817871094,0.39572618272569443,0.064,0.3028571428571429,0.005157301161024305,-3.6143938475341812,-0.5712725096435562,47.196929931640625,0.039097425672743054,-0.08918397691514757
8483,0.05534368662651911,0.39843757629394533,86.70301818847656,83.98210144042969,-2.1705665588378906,88.40103149414062,0.39663543701171877,0.06166666666666667,0.3025,0.0063779619004991316,-3.3836885863037125,-0.7909933500976578,47.196929931640625,0.030232408311631945,-0.06190664503309462
8484,0.05143743662651911,0.41835948944091794,86.5188980102539,83.552490234375,-2.7638473510742188,89.58760070800781,0.3986813015407986,0.059333333333333335,0.3025,0.004699579874674479,-3.4386183195800797,-1.2194467955322281,47.196929931640625,0.03296008639865451,-0.08168275621202258
8485,0.05534368662651911,0.41835948944091794,88.52378845214844,83.06149291992188,-3.275299072265625,88.85111236572266,0.3952715555826823,0.05733333333333333,0.30214285714285716,0.005035230848524305,-3.6143938475341812,-0.8788801604003922,47.196929931640625,0.06069217258029514,-0.0791823493109809
8486,0.08659368662651912,0.3585938262939453,84.20714569091797,76.45356750488281,-1.4545364379882812,87.0098876953125,0.38936148749457467,0.05333333333333334,0.30142857142857143,0.0067441728379991316,-2.900305407592775,-0.7690206938476578,47.196929931640625,0.08615086873372396,-0.03849360148111979
8487,0.09049993662651912,0.3585938262939453,90.46729278564453,89.1170654296875,-1.9250717163085938,88.95339965820312,0.3993631998697917,0.051,0.30142857142857143,0.008056386311848959,-2.3180471831054703,0.9228240251541138,47.196929931640625,0.015002526177300347,-0.06531634860568576
8488,0.08268743662651912,0.39843757629394533,86.0688247680664,82.97966003417969,-2.272857666015625,88.38057708740234,0.3945896572536892,0.04766666666666667,0.3007142857142857,0.007842763264973959,-2.526779788085939,0.3076080083847046,47.196929931640625,0.03432405259874132,-0.0628159417046441
8489,0.07096868662651912,0.39843757629394533,85.37325286865234,87.03034973144531,-2.477436065673828,88.64653015136719,0.39959047105577256,0.045,0.3,0.0068662431504991316,-2.7574869566650406,0.09887400269508362,47.196929931640625,-0.01841218736436632,-0.0680440690782335
8490,0.07878118662651912,0.41835948944091794,86.5188980102539,80.50424194335938,-3.295757293701172,89.50576782226562,0.38936148749457467,0.042666666666666665,0.29892857142857143,0.008910878499348959,-2.966221468994142,0.3076080083847046,47.196929931640625,0.06682951185438368,-0.08668361239963107
8491,0.08659368662651912,0.3785157012939453,88.25782775878906,84.47309875488281,-3.2343826293945312,89.66943359375,0.39959047105577256,0.04133333333333333,0.2982142857142857,0.009155019124348959,-3.7132688933105484,1.1205720901489258,47.196929931640625,0.042052544487847225,-0.08782018025716146
8492,0.08659368662651912,0.3187500762939453,87.6031723022461,85.82332611083984,-3.1934661865234375,89.32164001464844,0.40027245415581597,0.037333333333333336,0.2982142857142857,0.0076597001817491316,-4.163694994995119,1.0436700582504272,47.196929931640625,0.01977606879340278,-0.08350118001302083
8493,0.05924993662651911,0.33867195129394534,92.45172119140625,88.64653015136719,-2.4365196228027344,88.1555404663086,0.4018636067708333,0.035,0.29892857142857143,0.005737135145399305,-4.097778933593752,1.0107120275497437,45.70280075073242,0.04227990044487847,-0.062134000990125865
8494,0.04753118662651911,0.33867195129394534,87.43951416015625,78.92898559570312,-1.9046134948730469,87.17355346679688,0.3982266743977865,0.030333333333333334,0.29964285714285716,0.004455439249674479,-3.537493365356447,0.2856360077857971,45.43912887573242,0.09456142849392361,-0.04531296624077691
8495,0.06706243662651912,0.29882820129394533,91.18331909179688,81.38394165039062,-3.357128143310547,89.46485137939453,0.3904980977376302,0.026333333333333334,0.3,0.0071103837754991316,-2.889319079467775,0.032958000898361206,45.43912887573242,0.10888197157118056,-0.08691088358561198
8496,0.10221868662651912,0.25898443222045897,86.82576751708984,76.31035614013672,-1.8023223876953125,86.74394226074219,0.39095272488064237,0.02266666666666667,0.3003571428571429,0.009155019124348959,-2.9991785460205094,-0.7250772886962906,45.26335144042969,0.11683790418836805,-0.039402940538194445
8497,0.09440618662651912,0.25898443222045897,86.02790832519531,81.9976806640625,-3.295757293701172,87.82821655273438,0.39754469129774306,0.019,0.3003571428571429,0.0074460771348741316,-2.175228732177736,-0.3625379973144547,45.26335144042969,0.04478030734592014,-0.06804415384928385
8498,0.07878118662651912,0.25898443222045897,83.90027618408203,87.43951416015625,-2.477436065673828,88.21691131591797,0.39731742011176213,0.015666666666666666,0.29964285714285716,0.005767652723524305,-1.9994532042236344,-1.0986010008544937,43.153987884521484,-0.03932486640082465,-0.06327052646213108
8499,0.07096868662651912,0.239062557220459,86.86668395996094,84.24806213378906,-2.9888877868652344,87.62362670898438,0.40095435248480904,0.012,0.2978571428571429,0.0029601203070746527,-1.3622652464599625,-0.7360617094726578,42.89031982421875,0.02909579806857639,-0.06236127217610677
8500,0.05143743662651911,0.239062557220459,86.17111206054688,80.68836975097656,-2.4569778442382812,86.62118530273438,0.3986813015407986,0.008666666666666666,0.2960714285714286,0.00067138671875,-0.6921183043212906,-0.18676246936035312,29.267370223999023,0.06091935899522569,-0.045312923855251735
8501,0.04362493662651911,0.239062557220459,82.61141967773438,81.40440368652344,0.059356689453125,86.37569427490234,0.39731742011176213,0.006,0.29392857142857143,-0.000152587890625,-0.14281906420898594,0.2856360077857971,25.136539459228516,0.013411288791232639,-0.014625973171657987
8502,0.04753118662651911,0.239062557220459,86.72348022460938,84.32989501953125,0.8776779174804688,85.455078125,0.3970900641547309,0.0033333333333333335,0.2892857142857143,0.0008544498019748264,0.7140899896621704,1.0876140594482422,24.96076011657715,0.02659539116753472,0.004695553249782986
8503,0.05143743662651911,0.25898443222045897,87.64408874511719,84.1048583984375,-0.16568374633789062,84.06393432617188,0.3948170132107205,0.002,0.285,0.0025633917914496527,1.2743760347366333,0.9008520245552063,24.96076011657715,0.039324781629774305,0.008559799194335938
8504,0.05143743662651911,0.219140682220459,83.1024169921875,84.28897857666016,1.6141624450683594,85.49600219726562,0.3982266743977865,0.001,0.2785714285714286,0.0021971808539496527,1.450152039527893,0.08788800239562988,24.96076011657715,-0.013184017605251737,0.012424002753363715
8505,0.03190618662651911,0.239062557220459,84.61630249023438,80.81111145019531,0.5503463745117188,84.47309875488281,0.39777204725477433,0.001,0.27464285714285713,0.00048828125,2.3290319442749023,-0.4394403868408219,24.96076011657715,0.04227990044487847,0.011969417995876737
8506,0.03190618662651911,0.239062557220459,82.75462341308594,79.78821563720703,4.273704528808594,84.20714569091797,0.39777204725477433,0.0003333333333333333,0.26821428571428574,-0.000244140625,2.66959810256958,-0.5712725096435562,24.96076011657715,0.03296008639865451,0.05629509819878472
8507,0.04362493662651911,0.19921878814697266,87.97142028808594,85.78240966796875,3.475841522216797,82.85691833496094,0.39777204725477433,0.0,0.2642857142857143,-0.0,3.2628421783447266,0.2197200059890747,24.96076011657715,0.024322340223524305,0.062432479858398435
