,WD,WS,AIL_1,AIL_2,ELEV_1,ELEV_2,RUDD,ALT,GS,TH,PTCH,ROLL,PLA_1,AIL,ELEV
7762,-0.060983980609809016,0.478125114440918,87.91004180908203,83.5934066772461,-3.8481216430664062,89.32164001464844,0.011115815904405382,0.8376666666666667,0.37464285714285717,-0.0068052079942491316,-5.547930377075197,-0.845923083374025,23.81818962097168,0.04796261257595486,-0.09077512953016494
7763,-0.057077730609809016,0.45820323944091795,87.86912536621094,83.5115737915039,-4.339115142822266,89.66943359375,0.0065695868598090275,0.8293333333333334,0.37285714285714283,-0.0068662431504991316,-5.668776171752931,-1.6479002409667984,23.993968963623047,0.04841723971896701,-0.10009498596191406
7764,-0.053171480609809016,0.45820323944091795,87.05081176757812,82.36592102050781,-4.441402435302734,90.05813598632812,0.009751976860894098,0.8203333333333334,0.37107142857142855,-0.0075376298692491316,-6.503712313720705,-1.7467752867431656,23.81818962097168,0.052054341634114584,-0.10555042690700955
7765,-0.057077730609809016,0.45820323944091795,87.05081176757812,82.67279052734375,-3.7867469787597656,89.0761489868164,0.010206561618381077,0.8106666666666666,0.37,-0.008849843343098959,-6.822306292602541,-1.8017050200195328,23.81818962097168,0.04864468044704861,-0.08736551072862413
7766,-0.053171480609809016,0.478125114440918,86.70301818847656,81.9976806640625,-3.704914093017578,88.72836303710938,0.008160781860351563,0.8003333333333333,0.36964285714285716,-0.010070504082573786,-6.174132006713869,-1.4721247130126969,23.81818962097168,0.05228152804904514,-0.0825919681125217
7767,-0.049265230609809016,0.49804698944091796,87.09172058105469,83.92073059082031,-3.2343826293945312,88.74882507324219,0.009070036146375868,0.7903333333333333,0.36857142857142855,-0.01068081325954861,-5.383141177246095,-1.7467752867431656,23.81818962097168,0.035233222113715275,-0.07759119669596354
7768,-0.041452730609809016,0.5179688644409179,87.03034973144531,83.552490234375,-3.254840850830078,88.74882507324219,0.0049784342447916664,0.7813333333333333,0.3675,-0.01104702419704861,-5.174406664916994,-2.230158465454103,23.81818962097168,0.03864288330078125,-0.07781851026746962
7769,-0.041452730609809016,0.5179688644409179,86.90760040283203,82.18180847167969,-4.257282257080078,89.13752746582031,0.008842722574869791,0.7733333333333333,0.365,-0.012603378295898438,-5.240322726318361,-1.8676210814209,23.993968963623047,0.05250879923502604,-0.09327566358778212
7770,-0.045358980609809016,0.49804698944091796,86.92805480957031,82.79554748535156,-3.745830535888672,89.44439697265625,0.009070036146375868,0.764,0.3632142857142857,-0.013854556613498263,-6.064272540161134,-1.2963491850585953,23.993968963623047,0.045916748046875,-0.09100252787272135
7771,-0.053171480609809016,0.5179688644409179,86.68256378173828,83.71615600585938,-3.6026268005371094,88.03279113769531,0.014070849948459202,0.7556666666666667,0.36214285714285716,-0.01592970954047309,-5.4270845823974625,-1.4501520567626969,23.993968963623047,0.03296008639865451,-0.07372686598036024
7772,-0.045358980609809016,0.5179688644409179,86.04837036132812,81.71127319335938,-3.5412521362304688,88.81019592285156,0.006796900431315104,0.746,0.3607142857142857,-0.01611281500922309,-5.251309054443361,-1.153530734130861,23.993968963623047,0.04818996853298611,-0.08168275621202258
7773,-0.041452730609809016,0.5179688644409179,86.43707275390625,82.44775390625,-3.4594192504882812,88.85111236572266,0.008615409003363715,0.7373333333333333,0.3585714285714286,-0.01596022711859809,-5.547930377075197,-0.3076082640380875,23.993968963623047,0.044325764973958334,-0.08122812906901042
7774,-0.041452730609809016,0.5179688644409179,86.21202850341797,81.56806182861328,-3.5617103576660156,88.83065795898438,0.00770615471733941,0.729,0.3578571428571429,-0.01592970954047309,-5.4600435667724625,0.45042601227760315,23.993968963623047,0.05159962972005208,-0.08213742574055989
7775,-0.049265230609809016,0.5378907394409179,86.23248291015625,82.36592102050781,-3.9504127502441406,89.71034240722656,0.012934324476453993,0.72,0.3560714285714286,-0.016295878092447917,-5.547930377075197,1.2084600925445557,23.81818962097168,0.042961798773871525,-0.09623061286078559
7776,-0.053171480609809016,0.5179688644409179,86.25294494628906,81.62944030761719,-4.564151763916016,90.36500549316406,0.010206561618381077,0.713,0.3539285714285714,-0.01586867438422309,-6.130188601562502,2.296074151992798,23.81818962097168,0.05137227376302083,-0.11032396952311198
7777,-0.057077730609809016,0.5179688644409179,85.23004150390625,80.46333312988281,-4.154991149902344,89.99675750732422,0.011115815904405382,0.7056666666666667,0.35035714285714287,-0.014739566379123263,-6.976111071655275,3.867072105407715,23.81818962097168,0.05296342637803819,-0.10168609619140626
7778,-0.06879648060980902,0.5179688644409179,87.88958740234375,83.71615600585938,-4.011787414550781,89.58760070800781,0.015889358520507813,0.6986666666666667,0.3485714285714286,-0.013000106811523438,-6.767376559326173,4.877784252166748,23.993968963623047,0.0463714599609375,-0.0955487569173177
7779,-0.07660898060980902,0.5179688644409179,87.562255859375,84.69813537597656,-4.66644287109375,90.40591430664062,0.010888502332899305,0.692,0.345,-0.01113857693142361,-6.657517092773439,3.8890440464019775,23.993968963623047,0.03182356092664931,-0.11191507975260416
7780,-0.08442148060980902,0.49804698944091796,87.39859008789062,84.0025634765625,-5.136974334716797,89.89447021484375,0.01247969733344184,0.6866666666666666,0.34214285714285714,-0.009887398613823786,-6.965124743530275,2.58171010017395,23.81818962097168,0.03773362901475694,-0.11146049499511719
7781,-0.08051523060980902,0.49804698944091796,87.13264465332031,82.44775390625,-4.277740478515625,90.48774719238281,0.00225067138671875,0.68,0.33785714285714286,-0.0074460771348741316,-7.053013461181642,2.2631161212921143,23.81818962097168,0.052054341634114584,-0.10850541856553819
7782,-0.08051523060980902,0.5179688644409179,88.19645690917969,84.1048583984375,-4.768730163574219,90.54912567138672,0.010206561618381077,0.674,0.33535714285714285,-0.006072828504774305,-6.932167666503908,1.8566340208053589,23.81818962097168,0.04546220567491319,-0.11464284261067709
7783,-0.08051523060980902,0.49804698944091796,87.562255859375,84.1048583984375,-4.543693542480469,90.20133972167969,0.0056603749593098955,0.6676666666666666,0.3314285714285714,-0.005096266004774305,-7.085970538208009,0.7580339908599854,23.993968963623047,0.03841552734375,-0.1082781473795573
7784,-0.08442148060980902,0.478125114440918,86.31431579589844,81.83401489257812,-4.154991149902344,89.87400817871094,0.01066118876139323,0.6613333333333333,0.3292857142857143,-0.004974195692274305,-7.042027133056642,1.0876140594482422,23.993968963623047,0.049781121148003475,-0.10032221476236979
7785,-0.09614023060980902,0.478125114440918,87.562255859375,83.81844329833984,-4.543693542480469,89.97630310058594,0.01907170613606771,0.655,0.325,-0.005126783582899305,-7.151886599609377,1.1095860004425049,23.993968963623047,0.04159791734483507,-0.10577774047851562
7786,-0.09223398060980902,0.478125114440918,86.02790832519531,82.61141967773438,-4.380031585693359,90.73324584960938,0.002932612101236979,0.649,0.3221428571428571,-0.004333368937174479,-7.305691378662111,0.5273280143737793,23.81818962097168,0.037960984971788195,-0.11236974928114149
7787,-0.10004648060980902,0.478125114440918,87.84866333007812,81.32257080078125,-3.684459686279297,88.38057708740234,0.01475279066297743,0.6426666666666667,0.31857142857142856,-0.004943678114149305,-7.129913943359377,0.8678940534591675,23.993968963623047,0.07251213921440972,-0.07850040859646268
7788,-0.10004648060980902,0.49804698944091796,87.5213394165039,84.1048583984375,-4.093616485595703,89.1170654296875,0.014298163519965278,0.6366666666666667,0.31642857142857145,-0.005065748426649305,-6.38286651904297,0.0,23.993968963623047,0.03796090020073785,-0.09122979905870225
7789,-0.08442148060980902,0.49804698944091796,85.68012237548828,80.85203552246094,-3.9708709716796875,90.03767395019531,0.0020233578152126738,0.6303333333333333,0.31214285714285717,-0.0035704294840494793,-6.844278948852541,-0.08788933093261875,23.81818962097168,0.0536454094780816,-0.10009494357638889
7790,-0.08442148060980902,0.478125114440918,87.09172058105469,84.26852416992188,-3.9708709716796875,89.79217529296875,0.012252383761935763,0.625,0.30964285714285716,-0.0027159796820746527,-7.382591860839845,0.2197200059890747,23.81818962097168,0.031368849012586804,-0.09736718071831597
7791,-0.09223398060980902,0.478125114440918,87.0712661743164,83.61386108398438,-3.8072052001953125,89.42393493652344,0.01770782470703125,0.617,0.3067857142857143,-0.0038756052652994793,-7.876963275024416,0.4723980128765106,23.81818962097168,0.038415612114800345,-0.09145711263020834
7792,-0.10395273060980902,0.478125114440918,87.0098876953125,83.69569396972656,-3.5821685791015625,88.54424285888672,0.017480553521050348,0.611,0.3053571428571429,-0.005218336317274305,-7.602312701293947,0.4943700134754181,24.169750213623047,0.03682437472873264,-0.0791823493109809
7793,-0.10004648060980902,0.478125114440918,87.0098876953125,83.20470428466797,-3.1934661865234375,89.62850952148438,0.003841866387261285,0.6036666666666667,0.3032142857142857,-0.004577509562174479,-7.294705050537111,0.3954960107803345,25.83966064453125,0.042279815673828124,-0.08691084120008681
7794,-0.09614023060980902,0.49804698944091796,87.72592163085938,83.22515869140625,-3.3775863647460938,88.38057708740234,0.009524663289388021,0.5953333333333334,0.30214285714285716,-0.004058710734049479,-7.129913943359377,0.35155200958251953,29.44314956665039,0.05000847710503472,-0.07509070502387152
7795,-0.09223398060980902,0.49804698944091796,87.86912536621094,84.57539367675781,-3.2139244079589844,88.25782775878906,0.00225067138671875,0.5883333333333334,0.3,-0.0028685675726996527,-6.701460497924806,-0.17577614123535312,30.40993881225586,0.03659701877170139,-0.07190835740831163
7796,-0.09614023060980902,0.478125114440918,87.86912536621094,84.43218231201172,-3.2343826293945312,88.81019592285156,0.0065695868598090275,0.581,0.2982142857142857,-0.0032652960883246527,-6.602587359497072,-0.6701475554199234,30.40993881225586,0.0381882561577691,-0.0782730950249566
7797,-0.09223398060980902,0.5179688644409179,87.76683807373047,83.92073059082031,-1.945526123046875,87.37813568115234,0.012252383761935763,0.5746666666666667,0.2960714285714286,-0.004516474405924479,-6.514698641845705,-1.516068118164064,30.40993881225586,0.042734527587890626,-0.048040686713324655
7798,-0.08832773060980902,0.49804698944091796,87.39859008789062,81.48623657226562,-2.3956031799316406,86.74394226074219,-0.0022955152723524307,0.568,0.2953571428571429,-0.004455439249674479,-5.009617465087892,-1.2853628569335953,30.40993881225586,0.06569281684027778,-0.04599494934082031
7799,-0.09223398060980902,0.49804698944091796,87.37813568115234,84.14576721191406,-2.9684295654296875,87.23492431640625,0.012707010904947916,0.561,0.29214285714285715,-0.0065610673692491316,-4.614121096679689,-0.9008528166503922,30.40993881225586,0.03591520521375868,-0.05781504313151042
7800,-0.11176523060980902,0.49804698944091796,87.33721923828125,84.16622924804688,-2.129650115966797,41.900001525878906,0.02202674018012153,0.556,0.29,-0.010162056816948786,-4.800882952758791,-0.6481748991699234,33.573978424072266,0.035233222113715275,0.45522609286838106
7801,-0.11176523060980902,0.49804698944091796,86.662109375,83.36836242675781,-1.8841552734375,87.58271789550781,0.00225067138671875,0.5516666666666666,0.2875,-0.01113857693142361,-4.31749786669922,-1.131558077880861,35.7712287902832,0.036597188313802084,-0.04963192409939236
7802,-0.10395273060980902,0.5179688644409179,86.70301818847656,83.71615600585938,-2.1501083374023438,41.900001525878906,0.0065695868598090275,0.5463333333333333,0.2857142857142857,-0.01135219997829861,-4.053835528442384,-1.7577597075195328,36.56224060058594,0.03318735758463542,0.454998779296875
7803,-0.09223398060980902,0.49804698944091796,86.72348022460938,82.63188171386719,-2.10919189453125,87.562255859375,-0.0066144307454427086,0.5413333333333333,0.2839285714285714,-0.01074184841579861,-3.7791849547119156,-1.8456484251709,38.05636978149414,0.04546220567491319,-0.05190497504340278
7804,-0.10004648060980902,0.49804698944091796,87.62362670898438,84.75950622558594,-2.10919189453125,87.45996856689453,0.01725323994954427,0.5363333333333333,0.28285714285714286,-0.013579898410373263,-3.7132688933105484,-1.142544406005861,39.19894027709961,0.03182356092664931,-0.05076844957139757
7805,-0.12348398060980902,0.49804698944091796,86.21202850341797,84.22760009765625,-2.129650115966797,86.92805480957031,0.018617078993055557,0.533,0.2817857142857143,-0.017577616373697917,-3.812142031738283,-1.8017050200195328,39.814170837402344,0.02204920450846354,-0.04508561028374566
7806,-0.11176523060980902,0.49804698944091796,87.62362670898438,82.12042999267578,-2.0069007873535156,87.13264465332031,-0.001613616943359375,0.5276666666666666,0.2810714285714286,-0.017425028483072917,-3.493548052856447,-1.3952223234863297,41.13251876831055,0.0611466301812066,-0.04599494934082031
7807,-0.11176523060980902,0.45820323944091795,87.74638366699219,84.71859741210938,-1.6795730590820312,86.86668395996094,0.00225067138671875,0.5233333333333333,0.28035714285714286,-0.017302958170572917,-3.559464114257814,-1.7138163023681656,41.39619064331055,0.03364206949869792,-0.0394028557671441
7808,-0.10004648060980902,0.478125114440918,85.25050354003906,83.40928649902344,-1.6591148376464844,87.29630279541016,0.0004322052001953125,0.519,0.28035714285714286,-0.017760679456922744,-3.240870135375978,-2.1093126707763687,41.48408126831055,0.020457967122395834,-0.04394908481174045
7809,-0.11176523060980902,0.45820323944091795,85.47554016113281,82.550048828125,-1.8227806091308594,87.23492431640625,0.021117528279622395,0.5153333333333333,0.28,-0.020659764607747395,-3.0211512022705094,-0.4394403868408219,41.39619064331055,0.03250545925564236,-0.04508561028374566
7810,-0.11957773060980902,0.49804698944091796,87.66455078125,81.79310607910156,-1.7409477233886719,41.900001525878906,0.022935994466145835,0.51,0.2792857142857143,-0.02282647026909722,-3.174954073974611,0.5602860450744629,41.39619064331055,0.06523827446831597,0.45954500834147133
7811,-0.11957773060980902,0.478125114440918,86.13019561767578,82.83645629882812,-1.4749946594238281,86.64164733886719,0.010433875189887153,0.5063333333333333,0.27964285714285714,-0.02221611870659722,-2.944248812744142,0.4614120125770569,41.39619064331055,0.03659710354275174,-0.03462935553656684
7812,-0.11957773060980902,0.478125114440918,87.91004180908203,85.12775421142578,-1.5159111022949219,86.82576751708984,0.010206561618381077,0.5023333333333333,0.2789285714285714,-0.020842870076497395,-2.548752444335939,0.8569080233573914,41.39619064331055,0.030914306640625,-0.03712976243760851
7813,-0.11567148060980902,0.478125114440918,87.84866333007812,84.86180114746094,-1.495452880859375,86.96897888183594,0.005887646145290798,0.49833333333333335,0.2782142857142857,-0.01995790269639757,-2.164242404052736,0.373524010181427,41.39619064331055,0.03318735758463542,-0.03849368625217014
7814,-0.11567148060980902,0.478125114440918,87.84866333007812,84.61630249023438,-1.4545364379882812,86.25294494628906,0.006796900431315104,0.49466666666666664,0.27785714285714286,-0.02001893785264757,-2.153256075927736,0.2526780068874359,41.48408126831055,0.03591512044270833,-0.030083126491970487
7815,-0.12348398060980902,0.49804698944091796,87.86912536621094,84.47309875488281,-1.1885833740234375,85.39370727539062,0.012025070190429688,0.49066666666666664,0.27714285714285714,-0.021117528279622395,-1.8786074095459,0.010986000299453735,41.57196807861328,0.03773362901475694,-0.017581007215711805
7816,-0.127390230609809,0.478125114440918,87.66455078125,83.28652954101562,-0.5748405456542969,85.27096557617188,0.0031599256727430558,0.4886666666666667,0.2760714285714286,-0.021666844685872395,-0.9887415343017594,-0.5932451658935562,41.57196807861328,0.04864468044704861,-0.009397845798068577
7817,-0.135202730609809,0.478125114440918,87.6031723022461,41.900001525878906,-0.329345703125,85.78240966796875,0.009751976860894098,0.48633333333333334,0.2742857142857143,-0.02358936733669705,0.2197200059890747,-0.10986007983398594,41.74774932861328,0.5078130086263021,-0.012352837456597222
7818,-0.139108980609809,0.49804698944091796,87.62362670898438,83.71615600585938,-0.4316368103027344,85.84378051757812,0.014980104234483507,0.48533333333333334,0.27285714285714285,-0.025054168701171876,0.7580339908599854,0.35155200958251953,45.43912887573242,0.043416341145833336,-0.01417130364312066
7819,-0.135202730609809,0.5179688644409179,87.64408874511719,83.87982177734375,-0.3907203674316406,85.92561340332031,0.016343985663519967,0.4846666666666667,0.2710714285714286,-0.025054168701171876,1.0546560287475586,0.3076080083847046,46.84537124633789,0.041825188530815974,-0.014625930786132812
7820,-0.139108980609809,0.49804698944091796,87.19401550292969,81.79310607910156,-0.4316368103027344,89.36256408691406,0.0049784342447916664,0.4846666666666667,0.27035714285714285,-0.024871063232421876,1.8566340208053589,-0.2746511870117203,47.46059799194336,0.06001010470920139,-0.05326889885796441
7821,-0.139108980609809,0.5179688644409179,86.27340698242188,82.18180847167969,-2.518352508544922,87.66455078125,0.013388951619466146,0.4836666666666667,0.26821428571428574,-0.025450897216796876,1.494096040725708,-0.2636648588867203,47.81216049194336,0.04546220567491319,-0.057587814331054685
7822,-0.131296480609809,0.49804698944091796,86.29386138916016,84.02302551269531,-2.1705665588378906,88.42149353027344,-0.00047704908582899306,0.48433333333333334,0.2671428571428571,-0.02352833218044705,0.3076080083847046,-0.3295809202880875,47.54848861694336,0.025231509738498265,-0.062134000990125865
7823,-0.11957773060980902,0.49804698944091796,86.64164733886719,81.8953857421875,-2.1705665588378906,89.28073120117188,0.004751120673285591,0.484,0.2664285714285714,-0.021849950154622395,-0.4064833098144547,0.04394400119781494,47.109039306640625,0.05273623996310764,-0.07168108622233073
7824,-0.12348398060980902,0.49804698944091796,86.21202850341797,84.75950622558594,-2.6001853942871094,86.25294494628906,0.009979248046875,0.4816666666666667,0.26607142857142857,-0.021727879842122395,-1.6039568358154312,0.8349360227584839,47.109039306640625,0.0161391364203559,-0.04281255933973524
7825,-0.131296480609809,0.49804698944091796,87.31675720214844,83.1024169921875,-1.2908706665039062,88.38057708740234,0.017935138278537325,0.48033333333333333,0.2671428571428571,-0.02224663628472222,-1.7357889586181656,1.5270540714263916,46.933258056640625,0.046826002332899304,-0.05190497504340278
7826,-0.135202730609809,0.49804698944091796,86.47798156738281,82.42729949951172,-2.0069007873535156,87.19401550292969,0.01247969733344184,0.477,0.26785714285714285,-0.021544774373372395,-1.9115644865722672,1.2963480949401855,47.54848861694336,0.045007578531901044,-0.046676847669813365
7827,-0.127390230609809,0.49804698944091796,86.96897888183594,85.02546691894531,-1.5363693237304688,86.559814453125,0.007024214002821181,0.4736666666666667,0.2689285714285714,-0.01931703355577257,-2.4279066496582047,1.2084600925445557,47.72426986694336,0.021594577365451388,-0.03440204196506076
7828,-0.12348398060980902,0.49804698944091796,87.93049621582031,85.0050048828125,-1.2704124450683594,87.48042297363281,0.00543306138780382,0.4683333333333333,0.2710714285714286,-0.017547098795572917,-2.0763555937500016,0.8569080233573914,47.72426986694336,0.03250545925564236,-0.04167594909667969
7829,-0.127390230609809,0.478125114440918,87.93049621582031,84.5958480834961,-1.3727035522460938,86.78485107421875,0.012707010904947916,0.4646666666666667,0.27285714285714285,-0.017333475748697917,-2.197201388427736,0.1867620050907135,47.196929931640625,0.03705164591471354,-0.03508394029405382
7830,-0.131296480609809,0.478125114440918,87.93049621582031,41.900001525878906,-1.3931617736816406,86.72348022460938,0.0031599256727430558,0.4603333333333333,0.2742857142857143,-0.017608133951822917,-2.4169203215332047,-0.5273291044921891,46.84537124633789,0.5114499409993489,-0.03462935553656684
7831,-0.139108980609809,0.478125114440918,87.84866333007812,81.13844299316406,-1.331787109375,86.96897888183594,0.01657129923502604,0.45666666666666667,0.2757142857142857,-0.02020204332139757,-2.1312853270263687,-1.2633902006835953,46.66958999633789,0.07455800374348959,-0.036675177680121525
7832,-0.131296480609809,0.49804698944091796,85.72103881835938,84.98455047607422,-1.4749946594238281,87.37813568115234,-0.003886710272894965,0.45166666666666666,0.2764285714285714,-0.020537694295247395,-1.8895918303222672,-0.812964098999025,45.70280075073242,0.008183203803168403,-0.04281255933973524
7833,-0.139108980609809,0.49804698944091796,88.33966064453125,82.97966003417969,-1.3931617736816406,86.86668395996094,0.01952633327907986,0.4483333333333333,0.2767857142857143,-0.021849950154622395,-2.3290335112304703,-0.08788933093261875,43.85710906982422,0.05955556233723958,-0.0362205081515842
7834,-0.143015230609809,0.478125114440918,86.82576751708984,85.47554016113281,-1.3727035522460938,86.74394226074219,0.004523807101779514,0.44433333333333336,0.2760714285714286,-0.02200249565972222,-2.3070608549804703,-0.4284540587158219,43.85710906982422,0.015002526177300347,-0.03462939792209201
7835,-0.139108980609809,0.49804698944091796,87.80775451660156,84.22760009765625,-1.3522453308105469,86.49844360351562,0.005887646145290798,0.44,0.2760714285714286,-0.02218560112847222,-1.9115644865722672,-0.3515516691894547,44.03289031982422,0.03977949354383681,-0.03167432149251302
7836,-0.150827730609809,0.478125114440918,87.91004180908203,81.62944030761719,-1.3113288879394531,87.31675720214844,0.0072515275743272566,0.43666666666666665,0.2760714285714286,-0.02325371636284722,-1.549027102539064,-0.4064833098144547,44.99967956542969,0.06978446112738715,-0.04031206766764323
7837,-0.166452730609809,0.438281364440918,84.53446960449219,81.17935943603516,-1.4340782165527344,87.0098876953125,0.011570443047417535,0.43366666666666664,0.2764285714285714,-0.025542449951171876,-1.3512789183349625,-0.3735243254394547,45.17546081542969,0.037279001871744794,-0.038266287909613714
7838,-0.178171480609809,0.438281364440918,84.69813537597656,82.79554748535156,-1.4340782165527344,86.84622192382812,0.01475279066297743,0.43,0.2760714285714286,-0.027037768893771703,-1.8676210814209,0.08788800239562988,45.79069137573242,0.02113986545138889,-0.03644777933756511
7839,-0.162546480609809,0.45820323944091795,87.35768127441406,82.97966003417969,-1.3727035522460938,87.33721923828125,0.003841866387261285,0.4266666666666667,0.2775,-0.025634002685546876,-1.9555078917236344,0.7031040191650391,46.66958999633789,0.04864468044704861,-0.041221364339192705
7840,-0.154733980609809,0.49804698944091796,86.29386138916016,83.06149291992188,-1.6181983947753906,87.31675720214844,0.010888502332899305,0.422,0.2782142857142857,-0.024993133544921876,-2.4388929777832047,0.7360620498657227,46.84537124633789,0.03591520521375868,-0.0437217288547092
7841,-0.158640230609809,0.45820323944091795,86.33477783203125,83.71615600585938,-1.7614059448242188,87.88958740234375,-0.0018409305148654514,0.41833333333333333,0.28035714285714286,-0.02319268120659722,-2.7684732847900406,0.5712720155715942,46.84537124633789,0.02909579806857639,-0.051677703857421875
7842,-0.154733980609809,0.45820323944091795,86.76439666748047,85.23004150390625,-2.3956031799316406,87.76683807373047,0.009524663289388021,0.41533333333333333,0.2814285714285714,-0.02282647026909722,-2.878332751342775,0.3954960107803345,46.58169937133789,0.017048390706380208,-0.05736045837402344
7843,-0.158640230609809,0.45820323944091795,87.1121826171875,81.52714538574219,-2.0478172302246094,87.33721923828125,0.010206561618381077,0.4103333333333333,0.28285714285714286,-0.02258232964409722,-3.196926730224611,-0.01098694140625156,45.79069137573242,0.06205596923828125,-0.048722627427842884
7844,-0.170358980609809,0.438281364440918,85.86424255371094,81.87493133544922,-1.9046134948730469,87.72592163085938,0.011343129475911458,0.4053333333333333,0.2839285714285714,-0.02319268120659722,-3.273829119750978,0.1867620050907135,45.43912887573242,0.04432568020290799,-0.0514503902859158
7845,-0.182077730609809,0.41835948944091794,88.81019592285156,83.49111938476562,-2.0273590087890625,86.04837036132812,0.012025070190429688,0.40166666666666667,0.28535714285714286,-0.02371143764919705,-3.6803099089355484,1.450152039527893,45.17546081542969,0.05910085042317708,-0.03417477077907986
7846,-0.182077730609809,0.45820323944091795,86.68256378173828,83.24562072753906,-0.9021682739257812,86.92805480957031,0.024754503038194445,0.396,0.2867857142857143,-0.024932098388671876,-3.4825636320800797,0.7360620498657227,45.17546081542969,0.0381882561577691,-0.0314469231499566
7847,-0.162546480609809,0.45820323944091795,86.90760040283203,81.97721862792969,-1.1681251525878906,88.21691131591797,0.0004322052001953125,0.392,0.2882142857142857,-0.021239598592122395,-2.6476274901123062,-0.08788933093261875,45.17546081542969,0.05478201972113715,-0.048722627427842884
7848,-0.146921480609809,0.41835948944091794,86.23248291015625,82.42729949951172,-1.945526123046875,87.68500518798828,-0.005250591701931423,0.388,0.2889285714285714,-0.017943784925672744,-2.3070608549804703,-1.1864878111572281,45.17546081542969,0.042279815673828124,-0.051450347900390624
7849,-0.143015230609809,0.39843757629394533,87.58271789550781,83.87982177734375,-1.8227806091308594,87.05081176757812,0.007024214002821181,0.38366666666666666,0.2892857142857143,-0.017150370279947917,-2.922276156494142,-0.08788933093261875,44.29655838012695,0.04114329020182292,-0.04303991529676649
7850,-0.150827730609809,0.41835948944091794,84.84133911132812,81.42485809326172,-1.7614059448242188,87.58271789550781,0.016116672092013888,0.37933333333333336,0.28964285714285715,-0.01953065660264757,-2.9991785460205094,-0.3954969816894547,43.76921844482422,0.03796090020073785,-0.0482680426703559
7851,-0.154733980609809,0.39843757629394533,88.81019592285156,84.69813537597656,-1.9250717163085938,88.76927947998047,0.0004322052001953125,0.37466666666666665,0.2892857142857143,-0.018889829847547744,-2.911289828369142,-0.4504267149658219,43.68132781982422,0.045689561631944445,-0.06327056884765625
7852,-0.158640230609809,0.39843757629394533,88.70790100097656,82.01814270019531,-2.1910247802734375,87.50088500976562,0.009524663289388021,0.37033333333333335,0.2889285714285714,-0.01992738511827257,-3.6253801756591812,-0.6591612272949234,43.68132781982422,0.07433064778645833,-0.052132331000434025
7853,-0.162546480609809,0.39843757629394533,85.25050354003906,84.06393432617188,-2.0273590087890625,86.35523986816406,0.002932612101236979,0.36466666666666664,0.2892857142857143,-0.021209081013997395,-3.965946810791017,-0.9008528166503922,43.68132781982422,0.013184102376302083,-0.03758443196614583
7854,-0.174265230609809,0.39843757629394533,88.76927947998047,82.30455017089844,-1.2294998168945312,86.0074462890625,0.016798612806532116,0.35933333333333334,0.29035714285714287,-0.02246025933159722,-3.7462259703369156,0.48338401317596436,43.68132781982422,0.07183032565646702,-0.024854956732855902
7855,-0.189890230609809,0.3785157012939453,85.92561340332031,86.23248291015625,-0.9021682739257812,85.68012237548828,0.010206561618381077,0.35633333333333334,0.2914285714285714,-0.02328423394097222,-2.6586119108886734,1.021697998046875,43.68132781982422,-0.003409661187065972,-0.017581007215711805
7856,-0.170358980609809,0.41835948944091794,88.95339965820312,82.18180847167969,-0.9021682739257812,86.5188980102539,0.009070036146375868,0.3506666666666667,0.2914285714285714,-0.021117528279622395,-1.8566347532959,0.14281800389289856,43.68132781982422,0.07523990207248264,-0.026900736490885417
7857,-0.166452730609809,0.39843757629394533,87.0712661743164,80.38150024414062,-0.4111785888671875,86.78485107421875,-0.0054779052734375,0.3446666666666667,0.2910714285714286,-0.01998842027452257,-1.175503390380861,0.29662200808525085,43.68132781982422,0.07433073255750867,-0.02440032958984375
7858,-0.182077730609809,0.438281364440918,85.68012237548828,84.67768096923828,-0.8817138671875,86.5188980102539,0.029300732082790798,0.3423333333333333,0.2910714285714286,-0.02383350796169705,-1.1974741392822281,0.9118380546569824,43.68132781982422,0.011138237847222222,-0.026673465304904515
7859,-0.182077730609809,0.41835948944091794,87.562255859375,82.28408813476562,-0.9840011596679688,89.6080551147461,0.008615409003363715,0.34,0.28964285714285715,-0.02233818901909722,-0.823950427124025,0.02197200059890747,43.68132781982422,0.058646308051215276,-0.06213395860460069
7860,-0.166452730609809,0.3785157012939453,86.43707275390625,88.09416198730469,-3.0093421936035156,85.5164566040039,-0.006841744316948784,0.33766666666666667,0.28785714285714287,-0.017394510904947917,-1.2743765288085953,1.06564199924469,43.68132781982422,-0.018412102593315972,-0.03917554219563802
7861,-0.185983980609809,0.3585938262939453,91.04011535644531,80.66790771484375,-0.55438232421875,85.92561340332031,0.01884439256456163,0.334,0.28714285714285714,-0.017791197035047744,-2.515795367309572,0.4614120125770569,43.68132781982422,0.1152467515733507,-0.01644439697265625
7862,-0.197702730609809,0.33867195129394534,85.43462371826172,83.552490234375,-0.6975898742675781,85.65966796875,0.01475279066297743,0.33066666666666666,0.2875,-0.018737241956922744,-1.7248026304931656,-0.2416922026367203,43.68132781982422,0.020912594265407987,-0.015080642700195313
7863,-0.178171480609809,0.3585938262939453,87.86912536621094,84.69813537597656,-0.5748405456542969,87.03034973144531,0.0004322052001953125,0.3283333333333333,0.2875,-0.017577616373697917,-1.0107122832031266,-0.4394403868408219,44.99967956542969,0.035233222113715275,-0.028946558634440105
7864,-0.193796480609809,0.3585938262939453,87.54179382324219,83.42974090576172,-1.0453758239746094,86.39614868164062,0.01316163804796007,0.32466666666666666,0.2882142857142857,-0.01977479722764757,-0.9447962218017594,-0.19774879748535312,44.99967956542969,0.0456894768608941,-0.027128050062391492
7865,-0.185983980609809,0.41835948944091794,86.74394226074219,81.91584777832031,-0.9635429382324219,86.84622192382812,0.02089021470811632,0.32033333333333336,0.2882142857142857,-0.02255181206597222,-1.3402925902099625,-1.153530734130861,44.99967956542969,0.053645494249131946,-0.031219609578450522
7866,-0.178171480609809,0.39843757629394533,86.17111206054688,82.9592056274414,-0.9840011596679688,86.58027648925781,-0.0050232781304253475,0.31733333333333336,0.28785714285714287,-0.021666844685872395,-1.0656420164794937,-1.175503390380861,44.91178894042969,0.03568784925672743,-0.028491973876953125
7867,-0.174265230609809,0.438281364440918,85.72103881835938,82.44775390625,-1.1885833740234375,87.03034973144531,0.015662044949001735,0.31466666666666665,0.2875,-0.02368092007107205,-0.9228254729003922,-0.9228254729003922,44.82389831542969,0.03636983235677083,-0.035765923394097225
7868,-0.189890230609809,0.39843757629394533,85.57783508300781,80.38150024414062,-1.4136199951171875,88.62606811523438,0.015662044949001735,0.31233333333333335,0.2864285714285714,-0.02410816616482205,-1.120571749755861,-0.3295809202880875,44.82389831542969,0.05773705376519097,-0.055996534559461804
7869,-0.197702730609809,0.3585938262939453,83.96165466308594,83.96165466308594,-1.8636970520019531,85.96653747558594,-0.0002497355143229167,0.30833333333333335,0.2864285714285714,-0.02377247280544705,-1.5929705076904312,0.032958000898361206,44.82389831542969,0.0,-0.031447050306532116
7870,-0.182077730609809,0.39843757629394533,86.5188980102539,86.94851684570312,-1.0658340454101562,86.78485107421875,0.019753646850585938,0.30566666666666664,0.2860714285714286,-0.02337574428982205,-1.527054446289064,0.9777539968490601,44.82389831542969,-0.004773542616102431,-0.03167427910698785
7871,-0.178171480609809,0.41835948944091794,88.70790100097656,83.67523193359375,-1.0862922668457031,87.41905212402344,0.02020827399359809,0.303,0.2860714285714286,-0.02297905815972222,-1.120571749755861,0.5383139848709106,44.82389831542969,0.05591854519314236,-0.038948271009657115
7872,-0.178171480609809,0.39843757629394533,87.5213394165039,80.81111145019531,-1.3931617736816406,87.21446990966797,0.0004322052001953125,0.2996666666666667,0.2857142857142857,-0.021575291951497395,-0.9667688780517594,-0.16478981311035312,44.82389831542969,0.07455808851453993,-0.04008479648166233
7873,-0.185983980609809,0.3585938262939453,85.61874389648438,83.38882446289062,-1.2704124450683594,86.5188980102539,0.0015687730577256945,0.297,0.28535714285714286,-0.020903905232747395,-1.2743765288085953,-0.3295809202880875,44.82389831542969,0.024776882595486112,-0.030992338392469617
7874,-0.193796480609809,0.33867195129394534,87.1121826171875,81.36347961425781,-1.2294998168945312,86.5188980102539,0.00770615471733941,0.294,0.2857142857142857,-0.020629247029622395,-1.3952223234863297,0.032958000898361206,44.82389831542969,0.06387447781032986,-0.03053775363498264
7875,-0.201608980609809,0.33867195129394534,85.61874389648438,83.42974090576172,-1.2704124450683594,86.49844360351562,0.011343129475911458,0.29133333333333333,0.2864285714285714,-0.02191094292534722,-1.2963491850585953,-0.08788933093261875,44.82389831542969,0.02432225545247396,-0.030765067206488715
7876,-0.232858980609809,0.3187500762939453,87.1121826171875,84.73905181884766,-1.2294998168945312,85.27096557617188,0.01543473137749566,0.288,0.2867857142857143,-0.02294854058159722,-1.2304331236572281,0.9887400269508362,46.66958999633789,0.02636811998155382,-0.016671837700737848
7877,-0.209421480609809,0.3585938262939453,87.0712661743164,83.67523193359375,-0.5952987670898438,85.31187438964844,0.02179942660861545,0.2836666666666667,0.2885714285714286,-0.02401661343044705,-0.9667688780517594,0.6591600179672241,47.196929931640625,0.03773371378580729,-0.010079701741536459
7878,-0.221140230609809,0.33867195129394534,87.39859008789062,80.9543228149414,-0.2475128173828125,86.35523986816406,0.007024214002821181,0.2796666666666667,0.29,-0.02297905815972222,-0.19774879748535312,-0.08788933093261875,47.284820556640625,0.07160296969943576,-0.017808363172743057
7879,-0.197702730609809,0.3785157012939453,86.41661071777344,83.40928649902344,-0.8817138671875,86.21202850341797,0.0031599256727430558,0.276,0.2910714285714286,-0.02273491753472222,0.2856360077857971,0.3185940086841583,47.46059799194336,0.03341471354166667,-0.02326380411783854
7880,-0.221140230609809,0.3187500762939453,86.27340698242188,83.40928649902344,-0.718048095703125,85.37325286865234,-0.014343007405598959,0.2743333333333333,0.2914285714285714,-0.02200249565972222,0.3076080083847046,-0.3515516691894547,47.46059799194336,0.03182356092664931,-0.01212556627061632
7881,-0.244577730609809,0.3187500762939453,86.5188980102539,82.87738037109375,-0.5952987670898438,86.58027648925781,0.02248136732313368,0.27366666666666667,0.29285714285714287,-0.025084686279296876,0.6042300462722778,0.4723980128765106,47.46059799194336,0.04046130710177952,-0.024173058403862847
7882,-0.248483980609809,0.33867195129394534,86.47798156738281,82.63188171386719,-1.4136199951171875,87.1121826171875,0.014298163519965278,0.27166666666666667,0.2932142857142857,-0.026518970065646703,0.4943700134754181,0.6371880173683167,47.54848861694336,0.04273444281684028,-0.03917558458116319
7883,-0.244577730609809,0.33867195129394534,87.0098876953125,84.47309875488281,-1.7818641662597656,87.86912536621094,0.01543473137749566,0.27,0.2935714285714286,-0.025389862060546876,0.13183200359344482,0.9777539968490601,47.54848861694336,0.028186543782552084,-0.0516776614718967
7884,-0.205515230609809,0.3585938262939453,86.27340698242188,82.40684509277344,-1.8636970520019531,88.25782775878906,-0.014115693834092882,0.26866666666666666,0.29428571428571426,-0.021636327107747395,-0.6371885710449234,-0.2966219359130875,47.54848861694336,0.042961798773871525,-0.056905831231011283
7885,-0.178171480609809,0.3585938262939453,86.37569427490234,84.90271759033203,-2.0478172302246094,87.86912536621094,-0.010933346218532987,0.2663333333333333,0.29464285714285715,-0.018920347425672744,-1.8456484251709,-0.06591667468261875,47.284820556640625,0.016366407606336807,-0.05463269551595052
7886,-0.185983980609809,0.3785157012939453,87.41905212402344,84.0025634765625,-1.945526123046875,88.23736572265625,0.02316330803765191,0.2643333333333333,0.2957142857142857,-0.020781834920247395,-2.4388929777832047,0.2197200059890747,46.66958999633789,0.037960984971788195,-0.057587687174479166
7887,-0.209421480609809,0.3785157012939453,87.41905212402344,81.9976806640625,-2.9479713439941406,88.6669921875,0.023617935180664063,0.2613333333333333,0.2960714285714286,-0.02328423394097222,-2.7355143004150406,0.010986000299453735,45.70280075073242,0.06023746066623264,-0.07349959479437934
7888,-0.217233980609809,0.3785157012939453,85.31187438964844,83.30699157714844,-2.641101837158203,86.64164733886719,0.007478841145833333,0.25733333333333336,0.2960714285714286,-0.02429127163357205,-3.526507037231447,0.12084600329399109,45.26335144042969,0.022276475694444443,-0.04758610195583767
7889,-0.221140230609809,0.33867195129394534,84.57539367675781,83.30699157714844,-1.5159111022949219,87.39859008789062,0.006342273288302952,0.253,0.2978571428571429,-0.02304009331597222,-3.207913058349611,0.29662200808525085,45.26335144042969,0.01409335666232639,-0.043494457668728295
7890,-0.201608980609809,0.33867195129394534,88.1146240234375,84.92317199707031,-1.5772857666015625,88.03279113769531,-2.242194281684028e-05,0.24933333333333332,0.29892857142857143,-0.018615171644422744,-2.4279066496582047,1.5050820112228394,45.26335144042969,0.035460578070746526,-0.051223076714409725
7891,-0.205515230609809,0.33867195129394534,86.02790832519531,81.9976806640625,-1.945526123046875,86.96897888183594,0.007933468288845487,0.24466666666666667,0.3003571428571429,-0.017699644300672744,-3.0101648741455094,0.5822579860687256,45.26335144042969,0.04478030734592014,-0.043494500054253475
7892,-0.221140230609809,0.3187500762939453,86.33477783203125,80.9952392578125,-1.5772857666015625,88.64653015136719,0.0036145528157552082,0.24066666666666667,0.30142857142857143,-0.018065855238172744,-3.6473528319091812,-0.13183273608398594,45.26335144042969,0.05932820638020833,-0.05804239908854167
7893,-0.26801523060980903,0.2789063262939453,87.45996856689453,80.62699890136719,-2.641101837158203,86.39614868164062,0.022708680894639757,0.23533333333333334,0.30357142857142855,-0.01965272691514757,-3.91101707751465,-0.4504267149658219,44.99967956542969,0.07592188517252604,-0.04485833909776476
7894,-0.201608980609809,0.29882820129394533,84.88226318359375,82.9592056274414,-1.5363693237304688,86.15065002441406,-0.01547957526312934,0.23033333333333333,0.305,-0.016448465983072917,-4.196652072021486,-0.823950427124025,44.56023025512695,0.021367306179470486,-0.029855770534939235
7895,-0.205515230609809,0.29882820129394533,86.19157409667969,84.47309875488281,-1.1885833740234375,86.96897888183594,0.012025070190429688,0.22466666666666665,0.30714285714285716,-0.016845194498697917,-3.3617159300537125,0.373524010181427,44.56023025512695,0.019094170464409723,-0.03508402506510417
7896,-0.213327730609809,0.33867195129394534,85.455078125,80.77020263671875,-1.2704124450683594,88.21691131591797,0.029982630411783853,0.22033333333333333,0.3078571428571429,-0.02007997300889757,-2.6915708952636734,-0.2307058745117203,44.38444900512695,0.05205417209201389,-0.04985915289984809
7897,-0.213327730609809,0.3187500762939453,85.455078125,81.30210876464844,-2.518352508544922,87.31675720214844,0.007933468288845487,0.21533333333333332,0.3082142857142857,-0.02011049058702257,-2.834389346191408,-0.801977770874025,44.38444900512695,0.04614410400390625,-0.053723441229926214
7898,-0.205515230609809,0.29882820129394533,85.39370727539062,82.12042999267578,-2.0478172302246094,87.78729248046875,0.004751120673285591,0.21066666666666667,0.30857142857142855,-0.018798277113172744,-3.185940402099611,-0.10986007983398594,44.38444900512695,0.03636974758572049,-0.053723441229926214
7899,-0.221140230609809,0.3187500762939453,85.61874389648438,83.79798889160156,-2.5388107299804688,87.43951416015625,0.027027596367730035,0.20733333333333334,0.30857142857142855,-0.021270116170247395,-3.284815447875978,1.2304320335388184,44.38444900512695,0.020230611165364582,-0.055314721001519095
7900,-0.240671480609809,0.3187500762939453,86.70301818847656,84.32989501953125,-2.1705665588378906,87.27584838867188,0.010206561618381077,0.203,0.30892857142857144,-0.02218560112847222,-3.6143938475341812,0.4723980128765106,44.03289031982422,0.026368035210503474,-0.049404610527886285
7901,-0.27582773060980903,0.29882820129394533,87.39859008789062,81.69081115722656,-2.0273590087890625,87.5213394165039,0.019753646850585938,0.19866666666666666,0.30964285714285716,-0.02410816616482205,-3.3507315092773453,-0.4064833098144547,43.417659759521484,0.06341976589626735,-0.05054109361436632
7902,-0.26801523060980903,0.2789063262939453,85.5982894897461,82.59095764160156,-2.0069007873535156,86.19157409667969,-0.01002409193250868,0.19433333333333333,0.31,-0.02209404839409722,-3.570450442382814,-1.131558077880861,43.417659759521484,0.033414798312717015,-0.03553860982259115
7903,-0.27973398060980903,0.2789063262939453,86.0688247680664,82.63188171386719,-1.0453758239746094,86.94851684570312,0.017480553521050348,0.19,0.3107142857142857,-0.02398609585232205,-3.185940402099611,-0.14281906420898594,43.417659759521484,0.0381882561577691,-0.033265474107530384
7904,-0.27192148060980903,0.29882820129394533,86.84622192382812,83.1024169921875,-1.331787109375,86.82576751708984,0.024072562323676217,0.185,0.31142857142857144,-0.025176239013671876,-2.955235140869142,-0.09887375170898594,43.417659759521484,0.04159783257378472,-0.03508394029405382
7905,-0.228952730609809,0.3187500762939453,86.80531311035156,85.65966796875,-1.2499542236328125,85.72103881835938,-0.0066144307454427086,0.18166666666666667,0.31142857142857144,-0.02328423394097222,-2.900305407592775,0.19774800539016724,43.417659759521484,0.012729390462239584,-0.021899922688802084
7906,-0.29535898060980903,0.2789063262939453,88.44195556640625,85.43462371826172,-0.9021682739257812,87.37813568115234,0.01543473137749566,0.17833333333333334,0.31142857142857144,-0.02438282436794705,-2.4279066496582047,1.1974740028381348,43.417659759521484,0.033414798312717015,-0.03644782172309028
7907,-0.28754648060980903,0.2789063262939453,88.1555404663086,84.71859741210938,-1.5568275451660156,87.13264465332031,0.0017960866292317708,0.17466666666666666,0.31142857142857144,-0.02218560112847222,-1.5819841795654312,0.06591600179672241,43.417659759521484,0.0381882561577691,-0.04099413553873698
7908,-0.31098398060980903,0.219140682220459,88.1146240234375,84.96409606933594,-1.495452880859375,86.68256378173828,-0.007296371459960938,0.17166666666666666,0.31107142857142855,-0.01928651597764757,-1.5709978514404312,-0.09887375170898594,43.505550384521484,0.03500586615668403,-0.03531129625108507
7909,-0.29535898060980903,0.219140682220459,87.68500518798828,82.32501220703125,-1.4340782165527344,86.90760040283203,0.010433875189887153,0.16833333333333333,0.3107142857142857,-0.019042417738172744,-1.4721247130126969,-1.0216986113281266,44.29655838012695,0.05955547756618924,-0.03712976243760851
7910,-0.221140230609809,0.25898443222045897,86.25294494628906,87.6031723022461,-1.2704124450683594,87.0098876953125,-0.003886710272894965,0.16433333333333333,0.31107142857142855,-0.017852232191297744,-1.6808592253417984,-1.2084604674072281,44.91178894042969,-0.015002526177300347,-0.03644777933756511
7911,-0.232858980609809,0.25898443222045897,90.569580078125,84.80043029785156,-1.331787109375,87.68500518798828,-0.0059324900309244795,0.16133333333333333,0.3107142857142857,-0.01919496324327257,-1.2853628569335953,0.2746500074863434,44.91178894042969,0.06410166422526041,-0.04463102552625868
7912,-0.26410898060980903,0.3187500762939453,84.06393432617188,80.64745330810547,-1.9864425659179688,88.03279113769531,0.03089188469780816,0.15866666666666668,0.31035714285714283,-0.026580005221896703,-1.3183199339599625,-0.6811319761962906,44.91178894042969,0.03796090020073785,-0.055769263373480905
7913,-0.26020273060980903,0.3187500762939453,85.1072998046875,84.1048583984375,-2.0682754516601562,86.662109375,0.0006595187717013889,0.15633333333333332,0.30964285714285716,-0.026854663425021703,-1.9445234709472672,0.12084600329399109,44.91178894042969,0.011138237847222222,-0.041448720296223956
7914,-0.248483980609809,0.33867195129394534,88.40103149414062,81.9567642211914,-1.6795730590820312,88.78973388671875,0.017025926378038195,0.15366666666666667,0.3092857142857143,-0.026763110690646703,-2.3510042601318375,0.2856360077857971,44.82389831542969,0.07160296969943576,-0.060770077175564235
7915,-0.25629648060980903,0.2789063262939453,84.08439636230469,80.46333312988281,-2.518352508544922,88.1555404663086,-0.005250591701931423,0.152,0.30892857142857144,-0.02358936733669705,-2.3290335112304703,-0.6591612272949234,44.56023025512695,0.04023403591579861,-0.06304325527615018
7916,-0.25239023060980903,0.239062557220459,86.1097412109375,83.75706481933594,-2.3751449584960938,87.64408874511719,-0.0007043626573350694,0.149,0.30857142857142855,-0.02020204332139757,-2.570725100585939,1.1315580606460571,44.12078094482422,0.026140848795572918,-0.055769263373480905
7917,-0.240671480609809,0.25898443222045897,86.86668395996094,82.81600189208984,-2.1501083374023438,87.1121826171875,0.016343985663519967,0.144,0.30892857142857144,-0.01986634996202257,-2.7355143004150406,1.7907180786132812,44.03289031982422,0.045007578531901044,-0.0473587883843316
7918,-0.232858980609809,0.239062557220459,87.48042297363281,87.1121826171875,-2.088733673095703,87.13264465332031,0.006342273288302952,0.14033333333333334,0.3092857142857143,-0.01592970954047309,-3.0980535917968766,2.0214240550994873,43.85710906982422,0.004091559516059028,-0.046904203626844616
7919,-0.25629648060980903,0.219140682220459,90.44683837890625,84.39126586914062,-2.0682754516601562,87.21446990966797,0.009524663289388021,0.13533333333333333,0.3107142857142857,-0.012725448608398438,-3.0650946074218766,2.7245280742645264,43.85710906982422,0.06728413899739584,-0.0475860595703125
7920,-0.30707773060980903,0.239062557220459,84.63676452636719,84.43218231201172,-1.7818641662597656,86.84622192382812,0.03157382541232639,0.13233333333333333,0.3117857142857143,-0.01605177985297309,-3.1310106688232437,0.29662200808525085,43.85710906982422,0.002273135715060764,-0.04031206766764323
7921,-0.27192148060980903,0.239062557220459,87.29630279541016,86.43707275390625,-1.4340782165527344,86.90760040283203,0.006796900431315104,0.128,0.31285714285714283,-0.014648013644748263,-2.790444033691408,-0.16478981311035312,44.03289031982422,0.009547000461154514,-0.03712976243760851
7922,-0.25629648060980903,0.219140682220459,85.08683776855469,85.47554016113281,-1.3522453308105469,86.41661071777344,0.005205747816297743,0.12466666666666666,0.31357142857142856,-0.012939071655273438,-2.482836382934572,-0.4064833098144547,43.85710906982422,-0.0043189154730902775,-0.030765067206488715
7923,-0.209421480609809,0.239062557220459,88.21691131591797,84.61630249023438,-1.1885833740234375,86.47798156738281,0.0024779849582248262,0.11966666666666667,0.3142857142857143,-0.01080288357204861,-2.4279066496582047,-0.4284540587158219,43.85710906982422,0.040006764729817706,-0.029628499348958334
7924,-0.178171480609809,0.2789063262939453,86.662109375,83.71615600585938,-1.2090415954589844,87.17355346679688,-0.0002497355143229167,0.11566666666666667,0.31464285714285717,-0.01107754177517361,-1.9445234709472672,-1.142544406005861,43.85710906982422,0.03273281521267361,-0.03758438958062066
7925,-0.217233980609809,0.2789063262939453,85.08683776855469,83.26608276367188,-1.3113288879394531,87.54179382324219,0.03316502041286892,0.11366666666666667,0.31392857142857145,-0.01577712164984809,-1.3842359953613297,-0.7909933500976578,43.85710906982422,0.020230611165364582,-0.042812474568684894
7926,-0.240671480609809,0.239062557220459,85.39370727539062,81.64989471435547,-2.497894287109375,88.52378845214844,0.009070036146375868,0.11033333333333334,0.31285714285714283,-0.016265360514322917,-1.2414194517822281,-1.6259294920654312,43.85710906982422,0.04159791734483507,-0.06690758599175348
7927,-0.248483980609809,0.239062557220459,85.74149322509766,80.15646362304688,-2.641101837158203,87.33721923828125,0.009751976860894098,0.10766666666666666,0.3117857142857143,-0.017699644300672744,-2.3290335112304703,-1.7907186918945328,43.85710906982422,0.062055884467230905,-0.05531467861599392
7928,-0.25239023060980903,0.219140682220459,84.71859741210938,81.52714538574219,-1.5977401733398438,86.49844360351562,0.002932612101236979,0.10466666666666667,0.3117857142857143,-0.017577616373697917,-3.0650946074218766,-1.9664942198486344,43.85710906982422,0.035460578070746526,-0.03440204196506076
7929,-0.217233980609809,0.219140682220459,84.41172790527344,86.17111206054688,-1.4136199951171875,86.80531311035156,0.009524663289388021,0.10033333333333333,0.31285714285714283,-0.017577616373697917,-2.801430361816408,-0.5712725096435562,43.85710906982422,-0.019548712836371527,-0.035765923394097225
7930,-0.27192148060980903,0.19921878814697266,88.17599487304688,79.21539306640625,-0.7589645385742188,87.74638366699219,0.018389765421549478,0.097,0.3132142857142857,-0.01934755113389757,-2.0653692656250016,0.48338401317596436,43.85710906982422,0.09956224229600695,-0.038948313395182295
7931,-0.27582773060980903,0.219140682220459,84.16622924804688,84.75950622558594,-1.6591148376464844,86.19157409667969,0.020435587565104166,0.09366666666666666,0.3132142857142857,-0.020751317342122395,-1.7248026304931656,1.6588860750198364,43.85710906982422,-0.006591966417100695,-0.03167432149251302
7932,-0.30317148060980903,0.219140682220459,87.91004180908203,83.14332580566406,-0.7794227600097656,88.27828979492188,0.0006595187717013889,0.089,0.3132142857142857,-0.018706724378797744,-1.8456484251709,2.0763540267944336,43.85710906982422,0.052963511149088545,-0.04508569505479601
7933,-0.33051523060980903,0.219140682220459,86.43707275390625,79.41996765136719,-1.3727035522460938,85.94607543945312,0.023390621609157985,0.08466666666666667,0.3142857142857143,-0.01956117418077257,-2.504809039184572,1.3622640371322632,43.85710906982422,0.07796783447265625,-0.02576421101888021
7934,-0.32270273060980903,0.219140682220459,84.16622924804688,88.48286437988281,-1.0249176025390625,86.559814453125,-0.0018409305148654514,0.08166666666666667,0.315,-0.018218443128797744,-2.0433966093750016,1.9994521141052246,44.03289031982422,-0.04796261257595486,-0.028719245062934027
7935,-0.36567148060980903,0.219140682220459,89.1579818725586,84.71859741210938,-0.9226264953613281,87.13264465332031,0.027709537082248263,0.07733333333333334,0.31642857142857145,-0.017882749769422744,-1.538040774414064,2.296074151992798,44.12078094482422,0.04932649400499132,-0.033947457207573785
7936,-0.36176523060980903,0.219140682220459,87.72592163085938,83.87982177734375,-1.2704124450683594,87.09172058105469,0.0008868323432074653,0.07366666666666667,0.3171428571428571,-0.01559401618109809,-1.5929705076904312,0.9228240251541138,44.12078094482422,0.04273444281684028,-0.03735703362358941
7937,-0.3852027306098089,0.219140682220459,89.38301849365234,86.58027648925781,-1.331787109375,86.88714599609375,0.02861879136827257,0.07066666666666667,0.3182142857142857,-0.01589919196234809,-2.3290335112304703,1.1205720901489258,44.12078094482422,0.031141577826605902,-0.035765923394097225
7938,-0.35785898060980903,0.19921878814697266,90.13996887207031,84.1048583984375,-1.2704124450683594,86.88714599609375,-0.0050232781304253475,0.06533333333333333,0.3192857142857143,-0.012847518920898438,-2.801430361816408,0.23070600628852844,44.12078094482422,0.06705678304036458,-0.03508398267957899
7939,-0.28364023060980903,0.17929691314697266,86.62118530273438,84.06393432617188,-1.8023223876953125,87.1121826171875,-0.014115693834092882,0.06266666666666666,0.32035714285714284,-0.0069272783067491316,-2.790444033691408,-1.7248026304931656,44.12078094482422,0.028413899739583335,-0.043494500054253475
7940,-0.182077730609809,0.19921878814697266,86.90760040283203,83.5934066772461,-1.6181983947753906,86.662109375,-0.009114880032009548,0.059,0.32071428571428573,-0.005645582411024305,-2.900305407592775,-1.505081790039064,44.12078094482422,0.03682437472873264,-0.03644786410861545
7941,-0.244577730609809,0.219140682220459,87.1121826171875,82.32501220703125,-1.5772857666015625,86.21202850341797,0.01907170613606771,0.054,0.32107142857142856,-0.011993026733398438,-2.515795367309572,-1.8236757689209,44.12078094482422,0.05319078233506944,-0.03099238077799479
7942,-0.248483980609809,0.2789063262939453,88.564697265625,81.5066909790039,-1.4340782165527344,87.39859008789062,0.02861879136827257,0.051,0.32107142857142856,-0.017547098795572917,-1.7028299742431656,-1.3073355131835953,44.12078094482422,0.07842229207356771,-0.042585203382703996
7943,-0.25239023060980903,0.25898443222045897,85.0459213256836,83.40928649902344,-1.7818641662597656,88.23736572265625,0.0011141459147135417,0.04666666666666667,0.32071428571428573,-0.018584654066297744,-1.3952223234863297,-2.0653692656250016,44.12078094482422,0.01818483140733507,-0.05576922098795573
7944,-0.26801523060980903,0.239062557220459,87.05081176757812,81.36347961425781,-2.702472686767578,87.82821655273438,0.016116672092013888,0.043,0.3196428571428571,-0.018950865003797744,-1.8895918303222672,-2.1312853270263687,44.12078094482422,0.0631925794813368,-0.06145210266113281
7945,-0.232858980609809,0.219140682220459,85.37325286865234,79.37905883789062,-2.252399444580078,87.41905212402344,0.004296493530273437,0.03966666666666667,0.3192857142857143,-0.017211405436197917,-2.6146685057373062,-1.9555078917236344,43.417659759521484,0.06660215589735242,-0.05190501742892795
7946,-0.244577730609809,0.17929691314697266,83.42974090576172,80.0950927734375,-1.9659843444824219,87.33721923828125,-0.0018409305148654514,0.035666666666666666,0.31857142857142856,-0.01608229743109809,-2.7355143004150406,-0.16478981311035312,42.01142120361328,0.03705164591471354,-0.04781337314181858
7947,-0.25239023060980903,0.19921878814697266,89.93538665771484,87.25538635253906,-1.9046134948730469,86.68256378173828,0.025891028510199653,0.030666666666666665,0.3182142857142857,-0.016997782389322917,-2.6915708952636734,2.120298147201538,41.48408126831055,0.02977778116861979,-0.03985752529568142
7948,-0.31879648060980903,0.17929691314697266,91.572021484375,85.02546691894531,-0.6362152099609375,87.17355346679688,0.019753646850585938,0.027,0.31785714285714284,-0.016326395670572917,-2.208185809204103,2.372976064682007,40.34151077270508,0.07273949517144097,-0.031219651963975695
7949,-0.27973398060980903,0.17929691314697266,92.98362731933594,76.45356750488281,-1.2908706665039062,88.31919860839844,0.00770615471733941,0.023,0.3167857142857143,-0.013305282592773438,-1.8786074095459,1.1205720901489258,39.550498962402344,0.1836673312717014,-0.05122299194335937
7950,-0.162546480609809,0.19921878814697266,85.08683776855469,85.14820861816406,-2.3751449584960938,85.20958709716797,-0.015024948120117187,0.018666666666666668,0.315,-0.0065610673692491316,-1.7248026304931656,0.24169200658798218,35.41967010498047,-0.0006818983289930556,-0.028719245062934027
7951,-0.26410898060980903,0.1195312786102295,92.61538696289062,84.02302551269531,-0.6362152099609375,87.33721923828125,-0.0013863033718532986,0.014333333333333333,0.31285714285714283,-0.005981275770399305,-1.7907186918945328,1.1425440311431885,34.364990234375,0.09547068277994791,-0.033038160536024305
7952,-0.28754648060980903,0.15937503814697265,92.79949951171875,80.70883178710938,-1.0658340454101562,82.24317932128906,0.027027596367730035,0.011,0.31035714285714283,-0.009612740410698786,-0.7580343657226578,0.38451001048088074,34.013431549072266,0.13434075249565972,0.01878874037000868
7953,-0.240671480609809,0.17929691314697266,85.68012237548828,87.78729248046875,0.7344703674316406,84.94363403320312,0.005205747816297743,0.007,0.30607142857142855,-0.009185494316948786,0.6262019872665405,-0.9447962218017594,33.837650299072266,-0.023413001166449652,0.00878707038031684
7954,-0.27973398060980903,0.17929691314697266,91.572021484375,80.36103820800781,0.9185905456542969,85.53691101074219,0.0254364013671875,0.006,0.3003571428571429,-0.010070504082573786,2.274101972579956,-1.2524038725585953,32.4314079284668,0.1245664808485243,0.0042408837212456595
7955,-0.221140230609809,0.15937503814697265,91.61294555664062,87.50088500976562,1.2254638671875,80.34058380126953,0.0336196051703559,0.002,0.2960714285714286,-0.0074155595567491316,2.0104379653930664,-1.8017050200195328,30.146268844604492,0.045689561631944445,0.06538755628797743
7956,-0.31879648060980903,0.1195312786102295,88.13508605957031,80.27920532226562,3.8850021362304688,83.77752685546875,0.031119198269314235,0.003,0.29035714285714287,-0.0074155595567491316,2.8563599586486816,-2.3510042601318375,28.65213966369629,0.08728756374782987,0.056749725341796876
7957,-0.29926523060980903,0.1195312786102295,87.74638366699219,81.19981384277344,1.1845474243164062,75.86028289794922,0.11567891438802083,0.0033333333333333335,0.28535714285714286,-0.008971913655598959,2.614668130874634,-2.504809039184572,27.68535041809082,0.07273966471354167,0.11471405029296874
7958,-0.236765230609809,0.03984375953674316,81.30210876464844,88.68744659423828,4.028209686279297,76.94454956054688,0.07817259894476997,0.0016666666666666668,0.28035714285714286,-0.000274658203125,4.141722202301025,-1.4831110411376969,26.367000579833984,-0.08205930921766492,0.1342628902859158
7959,0.044484769390190984,0.05976563930511475,98.63003540039062,82.48867797851562,5.194313049316406,75.34883117675781,0.012025070190429688,-0.0006666666666666666,0.2767857142857143,0.0077207353379991316,4.493274211883545,0.04394400119781494,24.87286949157715,0.1793484157986111,0.16494979858398437
7960,-0.057077730609809016,0.09960939407348633,74.79646301269531,93.43370056152344,8.610801696777344,66.47006225585938,0.0336196051703559,0.0003333333333333333,0.27,0.0038450876871744793,4.053833961486816,0.24169200658798218,24.60919952392578,-0.2070804172092014,0.3015637715657552
7961,-0.10004648060980902,0.13945316314697265,94.80438995361328,92.34942626953125,17.100868225097656,65.50852966308594,0.13113606770833333,0.0,0.265,-0.0,1.6039559841156006,-0.801977770874025,24.345529556274414,0.027277374267578126,0.406581539577908
