,WD,WS,AIL_1,AIL_2,ELEV_1,ELEV_2,RUDD,ALT,GS,TH,PTCH,ROLL,PLA_1,AIL,ELEV
1924,-0.06513214599473739,0.219140682220459,85.76194763183594,84.554931640625,-5.177890777587891,89.19889831542969,-0.030254787868923612,0.6173333333333333,0.4810714285714286,-0.10805950164794922,0.4064820110797882,0.2197200059890747,24.169750213623047,0.013411288791232639,-0.1041865454779731
1925,-0.06903839599473739,0.219140682220459,85.68012237548828,87.76683807373047,-5.423389434814453,88.97386169433594,-0.030254787868923612,0.6143333333333333,0.47714285714285715,-0.10833415985107422,-0.02197326953125156,0.12084600329399109,24.081859588623047,-0.02318572998046875,-0.10441390143500434
1926,-0.1276321459947374,0.219140682220459,86.13019561767578,84.88226318359375,-5.096061706542969,88.68744659423828,-0.030254787868923612,0.6136666666666667,0.4717857142857143,-0.11196566687689888,-0.19774879748535312,0.38451001048088074,24.081859588623047,0.013865915934244792,-0.09759453667534722
1927,-0.1510696459947374,0.17929691314697266,85.12775421142578,85.78240966796875,-4.707359313964844,88.6669921875,-0.030254787868923612,0.6126666666666667,0.4689285714285714,-0.11263701121012369,0.0,0.2746500074863434,24.081859588623047,-0.0072739495171440975,-0.09304835001627604
1928,-0.1784133959947374,0.17929691314697266,86.45751953125,87.25538635253906,-4.686901092529297,88.44195556640625,-0.030254787868923612,0.6096666666666667,0.465,-0.11364404890272352,0.010986000299453735,1.1645159721374512,24.081859588623047,-0.008865186903211806,-0.0903206295437283
1929,-0.1979446459947374,0.17929691314697266,86.02790832519531,84.92317199707031,-4.523235321044922,88.40103149414062,-0.030482101440429687,0.6066666666666667,0.46214285714285713,-0.11397974226209852,-0.17577614123535312,0.9008520245552063,24.081859588623047,0.012274848090277778,-0.08804740905761718
1930,-0.1588821459947374,0.19921878814697266,85.96653747558594,86.62118530273438,-4.441402435302734,88.50332641601562,-0.030254787868923612,0.605,0.4585714285714286,-0.11153842078314888,-0.3185945921630875,1.175502061843872,24.081859588623047,-0.00727386474609375,-0.08827476501464844
1931,-0.1979446459947374,0.239062557220459,86.70301818847656,86.04837036132812,-4.4209442138671875,88.38057708740234,-0.030482101440429687,0.602,0.4567857142857143,-0.11370508405897352,-0.4723993712158219,1.5050820112228394,24.081859588623047,0.00727386474609375,-0.0866835700141059
1932,-0.2291946459947374,0.17929691314697266,85.23004150390625,86.27340698242188,-4.400489807128906,88.19645690917969,-0.030482101440429687,0.5993333333333334,0.45321428571428574,-0.11330839792887369,-0.20873512561035312,1.1645159721374512,24.081859588623047,-0.011592949761284723,-0.08441051907009549
1933,-0.1901321459947374,0.17929691314697266,84.88226318359375,86.662109375,-4.380031585693359,88.44195556640625,-0.030482101440429687,0.5976666666666667,0.45071428571428573,-0.11074496375189888,0.032958000898361206,0.35155200958251953,24.081859588623047,-0.01977606879340278,-0.08691096835666233
1934,-0.1666946459947374,0.15937503814697265,86.92805480957031,85.27096557617188,-4.3595733642578125,87.82821655273438,-0.030482101440429687,0.5946666666666667,0.44785714285714284,-0.10873088836669922,-0.3295809202880875,0.6591600179672241,24.081859588623047,0.018412102593315972,-0.07986433241102431
1935,-0.1745071459947374,0.13945316314697265,84.63676452636719,85.5164566040039,-4.257282257080078,88.1146240234375,-0.030482101440429687,0.5926666666666667,0.44607142857142856,-0.10873088836669922,0.2746500074863434,-0.08788933093261875,24.081859588623047,-0.009774356418185763,-0.08191006978352865
1936,-0.1784133959947374,0.17929691314697266,85.84378051757812,87.70545959472656,-4.277740478515625,87.76683807373047,-0.030254787868923612,0.588,0.44392857142857145,-0.10928016238742405,-0.4394403868408219,0.8129640221595764,24.081859588623047,-0.020685323079427085,-0.0782730950249566
1937,-0.2370071459947374,0.17929691314697266,86.0688247680664,87.5213394165039,-4.134532928466797,87.91004180908203,-0.030254787868923612,0.5873333333333334,0.44285714285714284,-0.11159945593939888,-0.6921183043212906,0.5383139848709106,24.081859588623047,-0.016139051649305555,-0.07827305263943142
1938,-0.2331008959947374,0.19921878814697266,86.02790832519531,87.35768127441406,-4.1959075927734375,88.33966064453125,-0.030254787868923612,0.5856666666666667,0.44107142857142856,-0.11169100867377388,-0.5602861815185562,0.1538040041923523,24.081859588623047,-0.014775254991319445,-0.08372853597005209
1939,-0.2643508959947374,0.19921878814697266,86.0074462890625,87.0712661743164,-4.339115142822266,87.80775451660156,-0.030254787868923612,0.5833333333333334,0.4392857142857143,-0.11297270456949869,-0.9008528166503922,-0.04394401843261875,24.081859588623047,-0.011820220947265625,-0.07940966288248698
1940,-0.3073196459947374,0.17929691314697266,85.98699188232422,86.31431579589844,-4.154991149902344,87.78729248046875,-0.030254787868923612,0.5816666666666667,0.4375,-0.11394922468397352,-0.6701475554199234,-0.3185945921630875,24.433420181274414,-0.003636932373046875,-0.07713648478190104
1941,-0.2799758959947374,0.17929691314697266,85.96653747558594,85.5982894897461,-4.1959075927734375,87.68500518798828,-0.030254787868923612,0.579,0.43607142857142855,-0.11355249616834852,-0.5822588377685562,-1.0876146727294937,24.433420181274414,0.004091644287109375,-0.07645458645290798
1942,-0.2760696459947374,0.15937503814697265,85.86424255371094,85.06637573242188,-4.093616485595703,88.05325317382812,-0.030482101440429687,0.576,0.4342857142857143,-0.11315581003824869,-0.7909933500976578,-0.8898664885253922,24.433420181274414,0.008865186903211806,-0.07940966288248698
1943,-0.2213821459947374,0.19921878814697266,85.88470458984375,84.69813537597656,-4.11407470703125,87.95095825195312,-0.030482101440429687,0.573,0.43357142857142855,-0.11254545847574869,-1.2743765288085953,-1.175503390380861,24.433420181274414,0.013184102376302083,-0.0785003662109375
1944,-0.1549758959947374,0.19921878814697266,85.88470458984375,87.37813568115234,-4.3595733642578125,88.85111236572266,-0.030254787868923612,0.572,0.4317857142857143,-0.10931067996554905,-1.4940973692626969,-0.2856375151367203,24.433420181274414,-0.01659367879231771,-0.09122984144422742
1945,-0.10419464599473739,0.15937503814697265,85.96653747558594,88.40103149414062,-5.055145263671875,89.09660339355469,-0.02980016072591146,0.5696666666666667,0.42964285714285716,-0.10610646141899957,-1.9005781584472672,0.747048020362854,24.433420181274414,-0.02704993353949653,-0.10168609619140626
1946,-0.12372589599473739,0.19921878814697266,89.0761489868164,86.13019561767578,-4.993770599365234,89.19889831542969,-0.030254787868923612,0.565,0.42607142857142855,-0.10592335595024957,-2.504809039184572,1.5270540714263916,24.433420181274414,0.03273281521267361,-0.10214076571994357
1947,-0.08856964599473739,0.13945316314697265,86.33477783203125,84.96409606933594,-5.1983489990234375,90.69232940673828,-0.030482101440429687,0.564,0.4228571428571429,-0.10345151689317492,-1.8786074095459,-0.08788933093261875,24.433420181274414,0.01522979736328125,-0.12100753784179688
1948,-0.0221633959947374,0.1195312786102295,86.47798156738281,89.73080444335938,-6.4462890625,89.58760070800781,-0.030254787868923612,0.5596666666666666,0.41714285714285715,-0.10073549482557509,-2.1312853270263687,0.10986000299453735,24.87286949157715,-0.03614247639973958,-0.12259877522786458
1949,-0.1315383959947374,0.1195312786102295,87.41905212402344,88.25782775878906,-5.9757537841796875,90.52867126464844,-0.030482101440429687,0.5593333333333333,0.4132142857142857,-0.10497731102837457,-1.8126913481445328,0.7360620498657227,25.312320709228516,-0.009319729275173612,-0.12782694498697916
1950,-0.1666946459947374,0.1195312786102295,86.96897888183594,89.58760070800781,-6.487205505371094,89.71034240722656,-0.030027474297417533,0.5556666666666666,0.4075,-0.10546559227837457,-1.9005781584472672,1.450152039527893,32.8708610534668,-0.02909579806857639,-0.12441719902886285
1951,-0.1315383959947374,0.13945316314697265,87.27584838867188,84.88226318359375,-6.118961334228516,90.73324584960938,-0.030482101440429687,0.555,0.4035714285714286,-0.10281064775254992,-2.219172137329103,0.032958000898361206,32.95874786376953,0.02659539116753472,-0.13169119093153211
1952,-0.0456008959947374,0.1195312786102295,85.82332611083984,88.58515930175781,-7.162319183349609,90.13996887207031,-0.029572847154405384,0.5523333333333333,0.3982142857142857,-0.09954535166422526,-2.7245279722900406,-0.2966219359130875,32.95874786376953,-0.030687035454644098,-0.1366920895046658
1953,-0.09638214599473739,0.15937503814697265,86.49844360351562,88.44195556640625,-6.507663726806641,90.44683837890625,-0.030482101440429687,0.549,0.395,-0.10131532880995009,-3.812142031738283,0.14281800389289856,32.95874786376953,-0.021594577365451388,-0.13282780117458767
1954,-0.1666946459947374,0.17929691314697266,86.96897888183594,86.58027648925781,-6.548576354980469,90.20133972167969,-0.030254787868923612,0.5443333333333333,0.3921428571428571,-0.10461114247639974,-3.7462259703369156,0.1538040041923523,32.95874786376953,0.0043189154730902775,-0.13055462307400173
1955,-0.2565383959947374,0.15937503814697265,86.21202850341797,85.49600219726562,-6.4462890625,90.28317260742188,-0.030027474297417533,0.5416666666666666,0.39,-0.10921912723117405,-3.987919467041017,-0.6701475554199234,32.95874786376953,0.007955847846137152,-0.13032735188802083
1956,-0.2135696459947374,0.13945316314697265,86.19157409667969,84.94363403320312,-6.3644561767578125,89.28073120117188,-0.030482101440429687,0.5373333333333333,0.3871428571428571,-0.1071440166897244,-4.284540789672853,-1.516068118164064,32.95874786376953,0.013866000705295138,-0.1182798597547743
1957,-0.1666946459947374,0.17929691314697266,86.25294494628906,85.41416931152344,-6.098503112792969,89.42393493652344,-0.030254787868923612,0.531,0.38607142857142857,-0.10628956688774957,-3.965946810791017,-1.3842359953613297,35.7712287902832,0.009319729275173612,-0.11691597832573784
1958,-0.1627883959947374,0.19921878814697266,85.74149322509766,85.29141998291016,-6.016670227050781,89.54668426513672,-0.030254787868923612,0.5263333333333333,0.38321428571428573,-0.1072660870022244,-3.493548052856447,-1.527054446289064,36.0349006652832,0.0050008138020833336,-0.11737060546875
1959,-0.1979446459947374,0.17929691314697266,85.94607543945312,86.0074462890625,-5.8939208984375,89.1579818725586,-0.030254787868923612,0.522,0.3817857142857143,-0.11037879519992405,-2.801430361816408,-0.6811319761962906,35.8591194152832,-0.0006818983289930556,-0.11168780856662326
1960,-0.2135696459947374,0.219140682220459,86.0074462890625,85.88470458984375,-5.955295562744141,89.52622985839844,-0.030482101440429687,0.517,0.3792857142857143,-0.11257597605387369,-2.482836382934572,-1.120571749755861,36.0349006652832,0.0013637966579861111,-0.11646139356825087
1961,-0.1979446459947374,0.219140682220459,85.35279846191406,83.94119262695312,-5.853004455566406,89.17843627929688,-0.030482101440429687,0.5126666666666667,0.37785714285714284,-0.11278959910074869,-2.515795367309572,-1.5709978514404312,35.8591194152832,0.01568450927734375,-0.11146045260959202
1962,-0.1979446459947374,0.219140682220459,85.86424255371094,84.86180114746094,-5.607509613037109,89.30118560791016,-0.030254787868923612,0.5096666666666667,0.375,-0.11358301374647352,-2.263117449829103,-0.9997259550781266,35.8591194152832,0.011138237847222222,-0.11009661356608073
1963,-0.2018508959947374,0.219140682220459,85.82332611083984,83.83889770507812,-5.627967834472656,89.30118560791016,-0.030254787868923612,0.5053333333333333,0.3725,-0.11434595319959852,-1.9335371428222672,-1.0436712675781266,35.8591194152832,0.02204920450846354,-0.1103239271375868
1964,-0.1862258959947374,0.219140682220459,85.0459213256836,85.92561340332031,-5.607509613037109,89.34210205078125,-0.030482101440429687,0.502,0.3692857142857143,-0.11385767194959852,-1.560013430664064,-0.6921183043212906,35.8591194152832,-0.009774356418185763,-0.11055124070909288
1965,-0.1784133959947374,0.19921878814697266,85.18913269042969,88.29874420166016,-5.566593170166016,89.0761489868164,-0.030254787868923612,0.498,0.36678571428571427,-0.11349146101209852,-1.7138163023681656,0.07690200209617615,36.65013122558594,-0.034551239013671874,-0.10714157952202691
1966,-0.1979446459947374,0.19921878814697266,86.27340698242188,85.27096557617188,-5.546134948730469,88.95339965820312,-0.030254787868923612,0.494,0.36392857142857143,-0.11462061140272352,-1.7907186918945328,-0.2416922026367203,38.14426040649414,0.011138237847222222,-0.10555038452148438
1967,-0.1745071459947374,0.19921878814697266,85.57783508300781,84.6572265625,-5.525676727294922,89.30118560791016,-0.030482101440429687,0.491,0.36214285714285716,-0.11339995066324869,-1.6698728972167984,-0.7800070219726578,38.320037841796875,0.010228983561197917,-0.10918735928005642
1968,-0.1588821459947374,0.219140682220459,85.65966796875,85.27096557617188,-5.607509613037109,89.0761489868164,-0.030482101440429687,0.48633333333333334,0.35964285714285715,-0.11309477488199869,-1.7687460356445328,-0.2856375151367203,38.320037841796875,0.0043189154730902775,-0.10759620666503907
1969,-0.1588821459947374,0.219140682220459,85.65966796875,85.557373046875,-5.546134948730469,88.99431610107422,-0.030482101440429687,0.4816666666666667,0.3585714285714286,-0.11300322214762369,-1.7577597075195328,-0.04394401843261875,38.320037841796875,0.0011366102430555556,-0.10600501166449652
1970,-0.1706008959947374,0.239062557220459,85.70057678222656,87.21446990966797,-5.484760284423828,88.85111236572266,-0.030027474297417533,0.47733333333333333,0.35678571428571426,-0.11431543562147352,-1.7577597075195328,0.5493000149726868,38.320037841796875,-0.01682103474934896,-0.10373191833496094
1971,-0.1706008959947374,0.25898443222045897,85.70057678222656,87.33721923828125,-5.484760284423828,89.05569458007812,-0.030027474297417533,0.4726666666666667,0.35535714285714287,-0.11364404890272352,-1.8126913481445328,0.10986000299453735,38.320037841796875,-0.018184916178385416,-0.1060050540500217
1972,-0.1823196459947374,0.219140682220459,85.74149322509766,87.27584838867188,-5.505218505859375,88.83065795898438,-0.030254787868923612,0.468,0.3532142857142857,-0.11361353132459852,-1.8236757689209,0.4614120125770569,40.42940139770508,-0.017048390706380208,-0.10373196072048611
1973,-0.2096633959947374,0.219140682220459,85.68012237548828,85.29141998291016,-5.689342498779297,89.09660339355469,-0.030254787868923612,0.46266666666666667,0.35214285714285715,-0.11581075456407335,-1.9884668760986344,-0.04394401843261875,42.62664794921875,0.0043189154730902775,-0.10873273213704428
1974,-0.2018508959947374,0.239062557220459,85.70057678222656,85.47554016113281,-5.464302062988281,90.48774719238281,-0.030254787868923612,0.459,0.35035714285714287,-0.11611593034532335,-2.0653692656250016,0.05493000149726868,44.29655838012695,0.0025004069010416668,-0.12168943617078994
1975,-0.2057571459947374,0.219140682220459,85.65966796875,84.77996826171875,-6.466747283935547,91.0810317993164,-0.030482101440429687,0.4573333333333333,0.3489285714285714,-0.11550557878282335,-2.570725100585939,-0.5822588377685562,44.29655838012695,0.009774441189236111,-0.13941976759168836
1976,-0.2213821459947374,0.17929691314697266,85.65966796875,84.69813537597656,-6.650867462158203,91.79705810546875,-0.030482101440429687,0.454,0.3460714285714286,-0.11593282487657335,-3.240870135375978,-0.2856375151367203,44.38444900512695,0.010683695475260416,-0.14942139519585504
1977,-0.2487258959947374,0.19921878814697266,85.63920593261719,84.39126586914062,-7.387355804443359,90.69232940673828,-0.030254787868923612,0.453,0.345,-0.118679322136773,-4.482288973876955,0.07690200209617615,44.29655838012695,0.013866000705295138,-0.14532983567979602
1978,-0.2370071459947374,0.17929691314697266,85.63920593261719,82.97966003417969,-6.650867462158203,90.671875,-0.030482101440429687,0.4513333333333333,0.3432142857142857,-0.11724503835042317,-5.4600435667724625,-0.5383154326171891,44.29655838012695,0.02955050998263889,-0.1369193606906467
1979,-0.1823196459947374,0.19921878814697266,84.98455047607422,85.63920593261719,-6.609951019287109,90.32408142089844,-0.030254787868923612,0.44733333333333336,0.34214285714285714,-0.11465112898084852,-5.174406664916994,-0.12084640795898594,44.29655838012695,-0.0072739495171440975,-0.13260036044650608
1980,-0.1940383959947374,0.25898443222045897,85.39370727539062,86.6007308959961,-6.507663726806641,90.09904479980469,-0.030027474297417533,0.44433333333333336,0.34,-0.11706193288167317,-4.833840029785158,0.6262019872665405,44.29655838012695,-0.013411373562282987,-0.1289634280734592
1981,-0.2291946459947374,0.219140682220459,86.559814453125,85.80287170410156,-6.466747283935547,90.54912567138672,-0.030482101440429687,0.43966666666666665,0.3389285714285714,-0.118282593621148,-4.185667651245119,0.9997260570526123,44.29655838012695,0.008410474989149305,-0.13350969950358074
1982,-0.2526321459947374,0.219140682220459,86.39614868164062,86.662109375,-6.5894927978515625,90.18087768554688,-0.030254787868923612,0.438,0.33714285714285713,-0.11959480709499783,-4.3944002562255875,1.4062080383300781,44.29655838012695,-0.0029551188151041665,-0.13078189425998263
1983,-0.2370071459947374,0.219140682220459,86.43707275390625,85.84378051757812,-6.466747283935547,90.26271057128906,-0.030482101440429687,0.435,0.3357142857142857,-0.11693986256917317,-4.141722338745119,1.3842360973358154,44.29655838012695,0.006592135959201389,-0.13032730950249566
1984,-0.2291946459947374,0.19921878814697266,86.43707275390625,86.25294494628906,-6.425830841064453,90.09904479980469,-0.030482101440429687,0.43233333333333335,0.3339285714285714,-0.11474268171522352,-3.6693254881591812,1.735788106918335,44.29655838012695,0.002045864529079861,-0.1280541737874349
1985,-0.2018508959947374,0.19921878814697266,86.43707275390625,87.17355346679688,-6.343997955322266,90.1604232788086,-0.030482101440429687,0.429,0.3325,-0.11150790320502388,-3.3727022581787125,1.7138160467147827,44.29655838012695,-0.008183119032118056,-0.127826902601454
1986,-0.1784133959947374,0.219140682220459,86.45751953125,86.92805480957031,-6.384914398193359,90.2218017578125,-0.030254787868923612,0.4256666666666667,0.3296428571428571,-0.10879192352294922,-3.251856463500978,1.2414180040359497,44.29655838012695,-0.005228169759114583,-0.12896351284450955
1987,-0.1666946459947374,0.219140682220459,86.43707275390625,88.33966064453125,-41.900001525878906,90.13996887207031,-0.030027474297417533,0.422,0.32821428571428574,-0.1070829815334744,-3.1419969969482437,1.252403974533081,45.17546081542969,-0.02113986545138889,-0.5226663377549913
1988,-0.1588821459947374,0.219140682220459,86.70301818847656,90.38545989990234,-6.343997955322266,89.50576782226562,-0.030254787868923612,0.418,0.32607142857142857,-0.10528248680962457,-3.240870135375978,2.58171010017395,45.79069137573242,-0.04091601901584201,-0.1205529530843099
1989,-0.1745071459947374,0.219140682220459,87.78729248046875,90.42637634277344,-6.1394195556640625,89.73080444335938,-0.02980016072591146,0.415,0.325,-0.10433648427327474,-3.1310106688232437,1.966494083404541,46.933258056640625,-0.029323154025607638,-0.12078026665581597
1990,-0.1706008959947374,0.19921878814697266,87.64408874511719,87.35768127441406,-6.262165069580078,90.13996887207031,-0.029572847154405384,0.412,0.3242857142857143,-0.10296323564317492,-2.7574869566650406,0.7800060510635376,47.46059799194336,0.003182305230034722,-0.12669037712944878
1991,-0.1940383959947374,0.239062557220459,86.76439666748047,86.68256378173828,-6.159877777099609,89.71034240722656,-0.030254787868923612,0.4086666666666667,0.32321428571428573,-0.10534352196587457,-2.812416689941408,0.6262019872665405,47.46059799194336,0.0009092542860243056,-0.1207802242702908
1992,-0.2135696459947374,0.219140682220459,86.80531311035156,86.74394226074219,-41.900001525878906,89.48530578613281,-0.030254787868923612,0.4046666666666667,0.3221428571428571,-0.10604542626274957,-2.856360095092775,0.12084600329399109,47.46059799194336,0.0006818983289930556,-0.5153923034667969
1993,-0.2096633959947374,0.219140682220459,86.70301818847656,86.19157409667969,-6.057586669921875,89.48530578613281,-0.030482101440429687,0.40166666666666667,0.3217857142857143,-0.10574025048149957,-3.185940402099611,-0.01098694140625156,47.46059799194336,0.005682712131076389,-0.11714324951171876
1994,-0.2057571459947374,0.219140682220459,86.53935241699219,86.33477783203125,-5.791633605957031,89.19889831542969,-0.030254787868923612,0.39766666666666667,0.3221428571428571,-0.10552662743462457,-3.4166475706787125,-0.03295769030761875,48.339500427246094,0.0022730509440104167,-0.1110059102376302
1995,-0.2018508959947374,0.219140682220459,86.68256378173828,86.37569427490234,-5.771175384521484,88.85111236572266,-0.030254787868923612,0.3943333333333333,0.3225,-0.10561818016899957,-3.4605909758300797,0.38451001048088074,48.339500427246094,0.003409661187065972,-0.10691430833604601
1996,-0.2096633959947374,0.219140682220459,86.74394226074219,88.54424285888672,-41.900001525878906,88.72836303710938,-0.030254787868923612,0.39066666666666666,0.32357142857142857,-0.10580128563774957,-3.1419969969482437,0.8678940534591675,48.339500427246094,-0.02000333997938368,-0.5069818284776476
1997,-0.2213821459947374,0.239062557220459,86.70301818847656,83.69569396972656,-5.730258941650391,89.38301849365234,-0.030482101440429687,0.3873333333333333,0.32392857142857145,-0.1064115948147244,-2.6366411619873062,0.35155200958251953,48.339500427246094,0.03341471354166667,-0.11236974928114149
1998,-0.2096633959947374,0.19921878814697266,85.70057678222656,83.26608276367188,-5.66888427734375,88.95339965820312,-0.030254787868923612,0.38466666666666666,0.3246428571428571,-0.10427544911702474,-2.7574869566650406,0.7140899896621704,48.339500427246094,0.02704993353949653,-0.10691426595052084
1999,-0.2174758959947374,0.19921878814697266,85.23004150390625,89.36256408691406,-5.648426055908203,89.1579818725586,-0.030254787868923612,0.38066666666666665,0.3246428571428571,-0.10415337880452474,-3.1419969969482437,1.5600121021270752,48.339500427246094,-0.045916917588975696,-0.10896008809407552
2000,-0.2252883959947374,0.219140682220459,87.54179382324219,89.05569458007812,-5.730258941650391,89.34210205078125,-0.030027474297417533,0.37833333333333335,0.32535714285714284,-0.10378716786702474,-3.262842791625978,1.8676199913024902,48.339500427246094,-0.016821119520399306,-0.11191512213812935
2001,-0.2448196459947374,0.19921878814697266,87.39859008789062,85.94607543945312,-5.771175384521484,89.1579818725586,-0.030482101440429687,0.37566666666666665,0.32571428571428573,-0.10326841142442492,-3.218899386474611,1.5929700136184692,48.339500427246094,0.016139051649305555,-0.11032396952311198
2002,-0.2331008959947374,0.19921878814697266,86.23248291015625,89.0761489868164,-5.791633605957031,89.64897155761719,-0.030482101440429687,0.37233333333333335,0.3267857142857143,-0.10052191416422526,-3.0101648741455094,1.647900104522705,48.339500427246094,-0.0315962897406684,-0.11600672403971354
2003,-0.2135696459947374,0.239062557220459,85.96653747558594,85.90515899658203,-5.648426055908203,89.13752746582031,-0.030254787868923612,0.369,0.3267857142857143,-0.09985052744547526,-3.6363665037841812,1.494096040725708,48.339500427246094,0.0006819831000434028,-0.10873281690809462
2004,-0.2213821459947374,0.17929691314697266,85.98699188232422,89.28073120117188,-5.791633605957031,89.44439697265625,-0.030254787868923612,0.36666666666666664,0.32785714285714285,-0.09679885440402561,-3.570450442382814,1.2414180040359497,48.339500427246094,-0.03659710354275174,-0.11373367309570312
2005,-0.1549758959947374,0.29882820129394533,87.0098876953125,87.35768127441406,-5.8939208984375,90.05813598632812,-0.030254787868923612,0.362,0.32821428571428574,-0.09368614620632595,-3.515520709106447,0.1538040041923523,48.339500427246094,-0.0038643731011284723,-0.12168952094184028
2006,-0.1471633959947374,0.29882820129394533,86.88714599609375,85.49600219726562,-6.057586669921875,89.99675750732422,-0.030482101440429687,0.36,0.32821428571428574,-0.09344204796685113,-3.965946810791017,0.4064820110797882,48.339500427246094,0.0154571533203125,-0.12282604641384548
2007,-0.1588821459947374,0.29882820129394533,86.27340698242188,85.90515899658203,-5.955295562744141,90.26271057128906,-0.030482101440429687,0.358,0.32857142857142857,-0.09402183956570095,-4.207638400146486,0.41746801137924194,48.339500427246094,0.004091644287109375,-0.12464451260036892
2008,-0.1549758959947374,0.3187500762939453,86.31431579589844,86.70301818847656,-5.8939208984375,89.75126647949219,-0.030254787868923612,0.3546666666666667,0.32857142857142857,-0.09341153038872613,-4.295527117797853,0.8129640221595764,48.075828552246094,-0.0043189154730902775,-0.1182798597547743
2009,-0.1706008959947374,0.25898443222045897,86.35523986816406,85.02546691894531,-5.771175384521484,90.26271057128906,-0.030482101440429687,0.3536666666666667,0.32857142857142857,-0.09316738976372613,-4.086792605468752,0.41746801137924194,45.26335144042969,0.014775254991319445,-0.12259873284233941
2010,-0.11591339599473739,0.2789063262939453,85.90515899658203,88.62606811523438,-5.771175384521484,89.54668426513672,-0.029572847154405384,0.3506666666666667,0.32785714285714285,-0.08718611399332682,-4.295527117797853,0.5383139848709106,45.26335144042969,-0.0302323235405816,-0.11464288499620226
2011,-0.1784133959947374,0.25898443222045897,86.559814453125,83.32745361328125,-6.262165069580078,90.0785903930664,-0.030482101440429687,0.348,0.32785714285714285,-0.09274014366997613,-3.9989038878173844,-0.2416922026367203,45.17546081542969,0.03591512044270833,-0.1260083940294054
2012,-0.2057571459947374,0.29882820129394533,84.96409606933594,80.83157348632812,-6.67132568359375,90.87644958496094,-0.030482101440429687,0.347,0.32607142857142857,-0.09698195987277561,-3.87805809313965,-1.131558077880861,44.82389831542969,0.045916917588975696,-0.1394197252061632
2013,-0.1666946459947374,0.25898443222045897,84.57539367675781,87.13264465332031,-6.323539733886719,90.81507873535156,-0.030254787868923612,0.3463333333333333,0.3242857142857143,-0.09280117882622613,-3.6912962370605484,-0.17577614123535312,44.38444900512695,-0.028413899739583335,-0.13487353854709203
2014,-0.1315383959947374,0.2789063262939453,85.90515899658203,85.70057678222656,-7.1418609619140625,91.51065063476562,-0.030482101440429687,0.3443333333333333,0.32142857142857145,-0.08904764387342665,-3.0431219511718766,0.4614120125770569,44.29655838012695,0.002273135715060764,-0.15169457329644098
2015,-0.09638214599473739,0.29882820129394533,87.05081176757812,85.14820861816406,-6.9781951904296875,90.99920654296875,-0.030254787868923612,0.3436666666666667,0.31892857142857145,-0.08508044348822699,-3.3067861967773453,0.5932440161705017,44.29655838012695,0.021140034993489584,-0.14419335259331598
2016,-0.08075714599473739,0.2789063262939453,86.23248291015625,87.72592163085938,-6.855449676513672,91.24469757080078,-0.030027474297417533,0.3426666666666667,0.31607142857142856,-0.08273067474365234,-3.251856463500978,1.2414180040359497,44.29655838012695,-0.016593763563368055,-0.14555719163682726
2017,-0.09638214599473739,0.25898443222045897,86.47798156738281,88.6669921875,-6.466747283935547,90.71278381347656,-0.030027474297417533,0.3416666666666667,0.31392857142857145,-0.08263912200927734,-3.196926730224611,1.7138160467147827,44.29655838012695,-0.024322340223524305,-0.135328123304579
2018,-0.08856964599473739,0.219140682220459,86.53935241699219,85.5164566040039,-6.4462890625,90.65141296386719,-0.030254787868923612,0.34,0.31142857142857144,-0.08007573021782768,-2.6586119108886734,1.0986000299453735,44.29655838012695,0.011365509033203125,-0.13441891140407985
2019,-0.10028839599473739,0.25898443222045897,85.90515899658203,91.26515197753906,-6.7531585693359375,90.75370788574219,-0.030254787868923612,0.335,0.31035714285714283,-0.07989262474907768,-2.6805845671386734,2.592696189880371,44.29655838012695,-0.05955547756618924,-0.1389651828342014
2020,-0.1823196459947374,0.25898443222045897,88.36012268066406,88.6669921875,-6.650867462158203,90.40591430664062,-0.030254787868923612,0.3353333333333333,0.30892857142857144,-0.08624011145697699,-3.240870135375978,2.4059340953826904,44.29655838012695,-0.003409661187065972,-0.13396424187554254
2021,-0.2018508959947374,0.25898443222045897,85.84378051757812,85.16867065429688,-6.4462890625,90.75370788574219,-0.030482101440429687,0.33366666666666667,0.3078571428571429,-0.08569079505072699,-3.2957998686523453,0.32958000898361206,44.29655838012695,0.007501220703125,-0.1355555216471354
2022,-0.1510696459947374,0.239062557220459,84.6572265625,83.77752685546875,-6.303081512451172,90.38545989990234,-0.030254787868923612,0.3313333333333333,0.30642857142857144,-0.08001469506157768,-3.570450442382814,-0.7800070219726578,44.29655838012695,0.009774441189236111,-0.12987268235948352
2023,-0.1315383959947374,0.25898443222045897,87.43951416015625,88.93293762207031,-6.180332183837891,89.91493225097656,-0.030254787868923612,0.32866666666666666,0.3057142857142857,-0.07916024525960287,-3.581436770507814,0.45042601227760315,44.29655838012695,-0.016593594021267363,-0.12328071594238281
2024,-0.1588821459947374,0.219140682220459,87.54179382324219,84.61630249023438,-6.282623291015625,90.1195068359375,-0.030709415011935765,0.32566666666666666,0.30464285714285716,-0.08035038842095268,-3.196926730224611,0.16479000449180603,44.29655838012695,0.03250545925564236,-0.1266903347439236
2025,-0.1588821459947374,0.219140682220459,85.57783508300781,89.03523254394531,-6.241706848144531,90.36500549316406,-0.030482101440429687,0.32233333333333336,0.30428571428571427,-0.07983158959282768,-2.944248812744142,0.8019779920578003,44.29655838012695,-0.03841552734375,-0.12896347045898438
2026,-0.1745071459947374,0.239062557220459,86.76439666748047,88.76927947998047,-6.262165069580078,90.13996887207031,-0.030254787868923612,0.31933333333333336,0.3032142857142857,-0.08047245873345268,-3.1310106688232437,1.1205720901489258,44.29655838012695,-0.022276475694444443,-0.12669037712944878
2027,-0.1588821459947374,0.239062557220459,86.70301818847656,88.19645690917969,-6.221248626708984,90.18087768554688,-0.030482101440429687,0.31533333333333335,0.3025,-0.07830575307210287,-3.3177725249023453,0.5383139848709106,44.29655838012695,-0.016593763563368055,-0.12669029235839843
2028,-0.11981964599473739,0.219140682220459,86.13019561767578,86.90760040283203,-6.078044891357422,89.64897155761719,-0.030482101440429687,0.311,0.30178571428571427,-0.07360621558295356,-3.493548052856447,0.2856360077857971,44.29655838012695,-0.008637830946180555,-0.11918907165527344
2029,-0.1315383959947374,0.19921878814697266,86.1097412109375,87.48042297363281,-5.934837341308594,89.32164001464844,-0.02980016072591146,0.30633333333333335,0.30214285714285716,-0.07342311011420356,-3.6693254881591812,1.1095860004425049,44.29655838012695,-0.01522979736328125,-0.11396085951063369
2030,-0.1901321459947374,0.25898443222045897,86.1097412109375,87.0098876953125,-5.934837341308594,89.09660339355469,-0.030254787868923612,0.30333333333333334,0.3028571428571429,-0.07879403432210287,-3.3287588530273453,2.065368175506592,44.29655838012695,-0.010001627604166667,-0.11146045260959202
2031,-0.2018508959947374,0.2789063262939453,85.35279846191406,88.0123291015625,-5.873462677001953,89.58760070800781,-0.030027474297417533,0.29833333333333334,0.3032142857142857,-0.07943486107720268,-3.3287588530273453,2.6915700435638428,44.29655838012695,-0.029550340440538194,-0.11623403761121961
2032,-0.2057571459947374,0.2789063262939453,86.0074462890625,87.80775451660156,-5.914379119873047,89.6080551147461,-0.030027474297417533,0.2946666666666667,0.3025,-0.07665784623887804,-2.878332751342775,3.6583380699157715,44.29655838012695,-0.020003424750434026,-0.11691593594021267
2033,-0.2135696459947374,0.25898443222045897,86.80531311035156,90.46729278564453,-5.955295562744141,89.62850952148438,-0.030482101440429687,0.2916666666666667,0.30178571428571427,-0.07299586402045356,-2.3949495726318375,4.405385971069336,44.29655838012695,-0.04068866305881076,-0.11759783426920573
2034,-0.2135696459947374,0.25898443222045897,83.38882446289062,81.01570129394531,-5.934837341308594,89.6080551147461,-0.030709415011935765,0.2876666666666667,0.3007142857142857,-0.06887611813015408,-2.164242404052736,3.922002077102661,44.29655838012695,0.026368035210503474,-0.11714324951171876
2035,-0.2057571459947374,0.239062557220459,83.83889770507812,89.50576782226562,-5.955295562744141,89.26026916503906,-0.030254787868923612,0.284,0.3,-0.06307794782850477,-2.1202989989013687,5.361167907714844,44.29655838012695,-0.06296522352430556,-0.1135062747531467
2036,-0.2057571459947374,0.239062557220459,86.88714599609375,86.92805480957031,-5.8939208984375,89.66943359375,-0.030482101440429687,0.2803333333333333,0.29964285714285716,-0.05804267459445529,-1.8566347532959,5.998356342315674,44.29655838012695,-0.00045454237196180554,-0.11737060546875
2037,-0.2135696459947374,0.239062557220459,86.6007308959961,88.38057708740234,-5.8120880126953125,89.26026916503906,-0.030254787868923612,0.27566666666666667,0.29928571428571427,-0.05410603417290582,-2.2850881987304703,5.723706245422363,44.82389831542969,-0.01977606879340278,-0.11191507975260416
2038,-0.1862258959947374,0.239062557220459,86.82576751708984,84.94363403320312,-5.7507171630859375,89.26026916503906,-0.030482101440429687,0.27166666666666667,0.29928571428571427,-0.04632430606418186,-2.6146685057373062,4.27355432510376,45.43912887573242,0.020912594265407987,-0.1112331814236111
2039,-0.1432571459947374,0.219140682220459,85.41416931152344,90.1195068359375,-5.791633605957031,89.44439697265625,-0.030027474297417533,0.2683333333333333,0.29928571428571427,-0.0380237791273329,-2.548752444335939,3.8780581951141357,46.054359436035156,-0.05228152804904514,-0.11373367309570312
2040,-0.1393508959947374,0.25898443222045897,87.66455078125,86.82576751708984,-5.873462677001953,89.64897155761719,-0.030254787868923612,0.2643333333333333,0.29964285714285716,-0.03558243645562066,-2.4498793059082047,3.680310010910034,46.142250061035156,0.009319814046223958,-0.11691593594021267
2041,-0.1549758959947374,0.25898443222045897,86.58027648925781,87.33721923828125,-5.8939208984375,89.68988800048828,-0.030254787868923612,0.261,0.29928571428571427,-0.03320212894015842,-2.4498793059082047,3.7242541313171387,46.318031311035156,-0.008410474989149305,-0.1175978766547309
2042,-0.1666946459947374,0.29882820129394533,86.64164733886719,87.19401550292969,-5.955295562744141,90.2218017578125,-0.030254787868923612,0.25733333333333336,0.29964285714285716,-0.03277490403917101,-2.6256548338623062,3.790170192718506,46.40591812133789,-0.006137424045138889,-0.12418997022840712
2043,-0.1706008959947374,0.3187500762939453,86.43707275390625,86.72348022460938,-5.955295562744141,89.44439697265625,-0.030254787868923612,0.25366666666666665,0.29928571428571427,-0.03079130384657118,-2.889319079467775,3.5155200958251953,46.40591812133789,-0.003182305230034722,-0.11555213928222656
2044,-0.1471633959947374,0.2789063262939453,41.900001525878906,87.70545959472656,-5.873462677001953,89.79217529296875,-0.030482101440429687,0.25066666666666665,0.29928571428571427,-0.024413320753309462,-2.6695982390136734,3.603408098220825,46.40591812133789,-0.5089495340983073,-0.11850708855523004
2045,-0.1276321459947374,0.2789063262939453,88.74882507324219,90.91737365722656,-5.8120880126953125,89.42393493652344,-0.030254787868923612,0.24733333333333332,0.29892857142857143,-0.018279478285047744,-2.526779788085939,3.845100164413452,46.40591812133789,-0.024094984266493057,-0.11373358832465277
2046,-0.1510696459947374,0.239062557220459,41.900001525878906,87.23492431640625,-5.791633605957031,89.30118560791016,-0.030027474297417533,0.243,0.2985714285714286,-0.01538039313422309,-2.1312853270263687,3.383687973022461,46.40591812133789,-0.5037213643391927,-0.11214243570963542
2047,-0.1549758959947374,0.25898443222045897,86.94851684570312,85.12775421142578,-5.66888427734375,89.32164001464844,-0.030254787868923612,0.239,0.2985714285714286,-0.014251285129123263,-1.7357889586181656,2.2521300315856934,46.40591812133789,0.02023069593641493,-0.11100582546657986
2048,-0.1549758959947374,0.25898443222045897,86.0688247680664,87.17355346679688,-5.832546234130859,89.54668426513672,-0.030254787868923612,0.235,0.2985714285714286,-0.012481307983398438,-1.538040774414064,2.4059340953826904,46.40591812133789,-0.01227476331922743,-0.11532478332519532
2049,-0.1510696459947374,0.25898443222045897,87.25538635253906,91.87889099121094,-5.771175384521484,89.91493225097656,-0.030254787868923612,0.23133333333333334,0.2985714285714286,-0.009124480353461372,-1.5929705076904312,2.7025561332702637,46.40591812133789,-0.05137227376302083,-0.11873452928331163
2050,-0.1432571459947374,0.25898443222045897,41.900001525878906,86.53935241699219,-6.037128448486328,90.44683837890625,-0.030482101440429687,0.22766666666666666,0.2978571428571429,-0.005615064832899305,-2.197201388427736,1.4171940088272095,46.40591812133789,-0.4959927876790365,-0.1275996314154731
2051,-0.1627883959947374,0.25898443222045897,86.72348022460938,86.64164733886719,-5.914379119873047,90.20133972167969,-0.029345575968424478,0.22466666666666665,0.2978571428571429,-0.0068967607286241316,-2.966221468994142,1.307334065437317,46.40591812133789,0.0009092542860243056,-0.12350798712836372
2052,-0.2370071459947374,0.239062557220459,41.900001525878906,82.44775390625,-5.914379119873047,89.83309936523438,-0.030482101440429687,0.222,0.2982142857142857,-0.010162035624186197,-3.4386183195800797,-0.08788933093261875,46.40591812133789,-0.45053058200412327,-0.11941642761230468
2053,-0.2409133959947374,0.219140682220459,82.44775390625,75.65570068359375,-5.771175384521484,89.48530578613281,-0.030482101440429687,0.219,0.29928571428571427,-0.010741869608561197,-3.4605909758300797,-1.9555078917236344,46.40591812133789,0.07546725802951389,-0.11396090189615886
2054,-0.1823196459947374,0.219140682220459,84.14576721191406,81.24073791503906,-5.300640106201172,88.42149353027344,-0.030254787868923612,0.21366666666666667,0.30107142857142855,-0.007873302035861545,-3.3836885863037125,-1.1974741392822281,46.40591812133789,0.03227810329861111,-0.09691259596082899
2055,-0.1276321459947374,0.17929691314697266,87.05081176757812,89.79217529296875,-5.648426055908203,90.1604232788086,-0.030254787868923612,0.21066666666666667,0.30214285714285716,-0.0026854621039496527,-2.922276156494142,0.29662200808525085,46.40591812133789,-0.0304595947265625,-0.12009832594129774
2056,-0.12372589599473739,0.17929691314697266,41.900001525878906,91.79705810546875,-5.648426055908203,89.36256408691406,-0.030027474297417533,0.206,0.30392857142857144,-0.0011596255832248264,-2.7794596129150406,2.13128399848938,46.40591812133789,-0.5544117397732204,-0.11123322380913628
2057,-0.1627883959947374,0.17929691314697266,86.70301818847656,86.0074462890625,-5.546134948730469,89.19889831542969,-0.030254787868923612,0.20266666666666666,0.305,-0.0013732486300998264,-3.0650946074218766,1.4831100702285767,46.40591812133789,0.00772857666015625,-0.1082781473795573
2058,-0.1315383959947374,0.17929691314697266,87.09172058105469,89.44439697265625,-5.709800720214844,89.6080551147461,-0.030254787868923612,0.19733333333333333,0.30607142857142855,0.0022582372029622396,-2.9991785460205094,1.2963480949401855,46.40591812133789,-0.026140848795572918,-0.11464284261067709
2059,-0.1706008959947374,0.19921878814697266,87.62362670898438,90.1604232788086,-5.832546234130859,90.13996887207031,-0.030254787868923612,0.195,0.30607142857142855,-6.103515625e-05,-3.0321375303955094,1.450152039527893,46.40591812133789,-0.02818662855360243,-0.12191683451334635
2060,-0.1823196459947374,0.17929691314697266,87.82821655273438,90.569580078125,-5.689342498779297,89.81263732910156,-0.030027474297417533,0.19166666666666668,0.30714285714285716,0.0008544709947374132,-3.1310106688232437,1.1535300016403198,46.40591812133789,-0.0304595947265625,-0.11668866475423177
2061,-0.1706008959947374,0.19921878814697266,88.33966064453125,90.48774719238281,-5.689342498779297,89.54668426513672,-0.030027474297417533,0.187,0.3075,0.0016173892550998264,-3.3067861967773453,0.5712720155715942,46.40591812133789,-0.023867628309461805,-0.11373363071017795
2062,-0.1745071459947374,0.25898443222045897,84.84133911132812,92.1653060913086,-5.648426055908203,89.54668426513672,-0.02980016072591146,0.18266666666666667,0.30857142857142855,-0.0015258365207248264,-3.229883807250978,0.4723980128765106,46.40591812133789,-0.08137741088867187,-0.1132790035671658
2063,-0.2135696459947374,0.25898443222045897,87.25538635253906,85.43462371826172,-5.607509613037109,89.75126647949219,-0.030482101440429687,0.179,0.3082142857142857,-0.004730076260036893,-2.9881922178955094,-1.0546575957031266,46.40591812133789,0.02023069593641493,-0.1150975121392144
2064,-0.1940383959947374,0.239062557220459,87.48042297363281,89.44439697265625,-5.66888427734375,90.05813598632812,-0.030254787868923612,0.17533333333333334,0.3078571428571429,-0.0027159796820746527,-2.537766116210939,-1.4062086516113297,46.40591812133789,-0.02182193332248264,-0.11918911404079861
2065,-0.1706008959947374,0.239062557220459,84.75950622558594,88.81019592285156,-5.627967834472656,89.91493225097656,-0.030254787868923612,0.17133333333333334,0.3075,-0.0015563540988498264,-2.1093126707763687,-2.3400179320068375,46.40591812133789,-0.04500766330295139,-0.1171433342827691
2066,-0.1549758959947374,0.219140682220459,84.35034942626953,81.547607421875,-5.484760284423828,90.13996887207031,-0.030709415011935765,0.167,0.3057142857142857,-0.0023192511664496527,-1.7577597075195328,-3.526507037231447,46.40591812133789,0.031141577826605902,-0.11805254618326823
2067,-0.1666946459947374,0.19921878814697266,85.68012237548828,87.43951416015625,-5.464302062988281,88.97386169433594,-0.030027474297417533,0.162,0.3057142857142857,-0.004424900478786893,-1.505081790039064,-2.3949495726318375,46.40591812133789,-0.019548797607421876,-0.10486848619249133
2068,-0.1901321459947374,0.19921878814697266,84.554931640625,85.29141998291016,-5.464302062988281,89.36256408691406,-0.030482101440429687,0.159,0.30464285714285716,-0.007903819613986545,-1.2194467955322281,-1.7577597075195328,46.40591812133789,-0.008183203803168403,-0.1091874016655816
2069,-0.1862258959947374,0.19921878814697266,85.557373046875,86.25294494628906,-5.505218505859375,88.99431610107422,-0.030254787868923612,0.15533333333333332,0.30464285714285716,-0.009460152520073786,-1.1974741392822281,-0.9338098936767594,46.40591812133789,-0.00772857666015625,-0.10555038452148438
2070,-0.1745071459947374,0.239062557220459,85.78240966796875,83.98210144042969,-5.914379119873047,89.1579818725586,-0.030254787868923612,0.15266666666666667,0.30392857142857144,-0.011748907301161024,-0.9777552061767594,-0.4174677305908219,46.40591812133789,0.020003424750434026,-0.11191512213812935
2071,-0.1627883959947374,0.239062557220459,85.84378051757812,86.94851684570312,-5.730258941650391,89.28073120117188,-0.030027474297417533,0.14933333333333335,0.3025,-0.01098598904079861,-1.142544406005861,0.6152160167694092,47.284820556640625,-0.012274848090277778,-0.11123322380913628
2072,-0.1510696459947374,0.239062557220459,86.35523986816406,88.44195556640625,-5.791633605957031,90.1604232788086,-0.030254787868923612,0.148,0.30107142857142855,-0.008636220296223959,-1.2414194517822281,0.9667680263519287,47.284820556640625,-0.02318572998046875,-0.12168952094184028
2073,-0.12372589599473739,0.2789063262939453,86.29386138916016,87.82821655273438,-6.159877777099609,89.97630310058594,-0.030027474297417533,0.146,0.3003571428571429,-0.0066221025254991316,-1.3952223234863297,1.4171940088272095,47.81216049194336,-0.017048390706380208,-0.12373534308539497
2074,-0.1276321459947374,0.2789063262939453,89.95584106445312,88.564697265625,-5.689342498779297,88.91248321533203,-0.030254787868923612,0.143,0.29892857142857143,-0.006042289733886719,-1.3842359953613297,1.7467740774154663,47.81216049194336,0.0154571533203125,-0.10668695237901475
2075,-0.1276321459947374,0.25898443222045897,89.36256408691406,90.97874450683594,-5.7507171630859375,90.1195068359375,-0.030027474297417533,0.14033333333333334,0.2982142857142857,-0.0031432045830620658,-1.0326849394531266,1.9005780220031738,47.81216049194336,-0.017957560221354165,-0.12078026665581597
2076,-0.1276321459947374,0.219140682220459,87.33721923828125,88.29874420166016,-5.627967834472656,89.66943359375,-0.029572847154405384,0.13833333333333334,0.29678571428571426,-9.1552734375e-05,-1.0326849394531266,0.9228240251541138,47.81216049194336,-0.01068361070421007,-0.11441557142469617
2077,-0.1354446459947374,0.239062557220459,86.19157409667969,85.33233642578125,-5.566593170166016,89.44439697265625,-0.030482101440429687,0.13466666666666666,0.29642857142857143,-0.0011596255832248264,-1.142544406005861,0.5932440161705017,48.95473098754883,0.009547085232204862,-0.11123322380913628
2078,-0.1588821459947374,0.239062557220459,86.27340698242188,87.99187469482422,-5.689342498779297,89.87400817871094,-0.029572847154405384,0.132,0.29642857142857143,-0.0027159796820746527,-0.9118391447753922,1.0876140594482422,49.21839904785156,-0.019094085693359374,-0.11737056308322483
2079,-0.1823196459947374,0.219140682220459,86.25294494628906,88.36012268066406,-5.484760284423828,89.62850952148438,-0.030482101440429687,0.12866666666666668,0.29678571428571426,-0.0024413214789496527,-1.164517062255861,0.4723980128765106,49.21839904785156,-0.0234130859375,-0.11236966451009114
2080,-0.1549758959947374,0.219140682220459,85.80287170410156,88.72836303710938,-5.136974334716797,88.36012268066406,-0.030254787868923612,0.12466666666666666,0.29714285714285715,-0.0006408479478624132,-1.6918455534667984,-0.7031046324462906,49.21839904785156,-0.03250545925564236,-0.09441218905978732
2081,-0.11981964599473739,0.25898443222045897,85.88470458984375,85.43462371826172,-6.098503112792969,90.05813598632812,-0.030709415011935765,0.12066666666666667,0.2975,-6.103515625e-05,-1.0216986113281266,-1.3842359953613297,49.21839904785156,0.00500089857313368,-0.12396265665690104
2082,-0.1588821459947374,0.25898443222045897,86.29386138916016,86.27340698242188,-5.566593170166016,89.23981475830078,-0.030482101440429687,0.11833333333333333,0.2975,-0.005523512098524305,-1.0656420164794937,-0.6262022429199234,49.21839904785156,0.00022727118598090277,-0.10896008809407552
2083,-0.1979446459947374,0.25898443222045897,85.98699188232422,85.20958709716797,-5.627967834472656,89.75126647949219,-0.030482101440429687,0.11566666666666667,0.2975,-0.009460152520073786,-1.0107122832031266,-0.5492998533935562,49.21839904785156,0.008637830946180555,-0.11532482571072049
2084,-0.2096633959947374,0.25898443222045897,85.29141998291016,84.24806213378906,-5.5870513916015625,89.75126647949219,-0.030254787868923612,0.11233333333333333,0.29678571428571426,-0.01113857693142361,-0.8898664885253922,-0.6371885710449234,49.21839904785156,0.011592864990234375,-0.11487019856770833
2085,-0.2057571459947374,0.25898443222045897,85.16867065429688,83.92073059082031,-5.566593170166016,89.73080444335938,-0.030254787868923612,0.10933333333333334,0.29678571428571426,-0.011932012769911024,-0.9008528166503922,-0.812964098999025,49.21839904785156,0.013866000705295138,-0.114415529039171
2086,-0.2057571459947374,0.239062557220459,87.68500518798828,88.40103149414062,-5.566593170166016,89.54668426513672,-0.030254787868923612,0.10533333333333333,0.29678571428571426,-0.010741869608561197,-1.3073355131835953,-0.05493034655761875,49.21839904785156,-0.007955847846137152,-0.11236974928114149
2087,-0.2096633959947374,0.219140682220459,86.29386138916016,86.0074462890625,-5.44384765625,89.93538665771484,-0.030027474297417533,0.10233333333333333,0.29678571428571426,-0.009887398613823786,-1.2853628569335953,-0.06591667468261875,49.21839904785156,0.0031823900010850693,-0.11532482571072049
2088,-0.2174758959947374,0.219140682220459,86.53935241699219,89.93538665771484,-5.259723663330078,88.83065795898438,-0.030254787868923612,0.09933333333333333,0.29714285714285715,-0.010772387186686197,-1.164517062255861,-0.5163427763671891,49.21839904785156,-0.03773371378580729,-0.10100424024793837
2089,-0.2487258959947374,0.219140682220459,86.0688247680664,90.09904479980469,-5.259723663330078,88.93293762207031,-0.030254787868923612,0.09533333333333334,0.2978571428571429,-0.014037662082248263,-0.7140909605712906,-0.14281906420898594,49.21839904785156,-0.04478022257486979,-0.10214068094889323
2090,-0.2370071459947374,0.219140682220459,84.6572265625,84.71859741210938,-5.341556549072266,89.28073120117188,-0.030482101440429687,0.09233333333333334,0.2982142857142857,-0.013335778978135851,-0.7031046324462906,-0.9887415343017594,49.7457389831543,-0.0006818983289930556,-0.10691430833604601
2091,-0.2096633959947374,0.19921878814697266,84.35034942626953,82.48867797851562,-5.341556549072266,89.73080444335938,-0.030482101440429687,0.08866666666666667,0.29892857142857143,-0.011809942457411024,-0.8678938322753922,-1.2743765288085953,49.7457389831543,0.020685238308376735,-0.11191512213812935
2092,-0.1979446459947374,0.219140682220459,85.08683776855469,83.42974090576172,-5.055145263671875,88.62606811523438,-0.030482101440429687,0.08566666666666667,0.29928571428571427,-0.013671451144748263,-1.2194467955322281,-0.4394403868408219,49.8336296081543,0.01841218736436632,-0.09645792643229166
2093,-0.2174758959947374,0.239062557220459,85.12775421142578,84.28897857666016,-5.218807220458984,89.40347290039062,-0.030482101440429687,0.08233333333333333,0.29964285714285716,-0.016631571451822917,-0.7470480375976578,0.010986000299453735,50.09729766845703,0.009319729275173612,-0.10691422356499566
2094,-0.2291946459947374,0.25898443222045897,85.41416931152344,87.03034973144531,-5.607509613037109,90.2218017578125,-0.030482101440429687,0.079,0.29964285714285716,-0.018798255920410158,-0.3185945921630875,0.7031040191650391,50.09729766845703,-0.017957560221354165,-0.120325681898329
2095,-0.2565383959947374,0.25898443222045897,83.24562072753906,81.40440368652344,-5.44384765625,90.0172119140625,-0.030482101440429687,0.076,0.29964285714285716,-0.02056823306613498,-0.6481748991699234,0.6262019872665405,50.09729766845703,0.020457967122395834,-0.11623399522569444
2096,-0.2760696459947374,0.239062557220459,85.39370727539062,87.1121826171875,-5.157432556152344,88.74882507324219,-0.030254787868923612,0.07333333333333333,0.29964285714285716,-0.02029357486300998,-0.9887415343017594,1.2963480949401855,50.09729766845703,-0.019094170464409723,-0.09895841810438367
2097,-0.2370071459947374,0.25898443222045897,85.92561340332031,88.1555404663086,-5.402931213378906,90.28317260742188,-0.030482101440429687,0.07033333333333333,0.3003571428571429,-0.016875712076822917,-0.5602861815185562,1.8236761093139648,50.09729766845703,-0.024776967366536458,-0.11873448689778646
2098,-0.2409133959947374,0.239062557220459,87.39859008789062,89.91493225097656,-5.177890777587891,88.91248321533203,-0.030254787868923612,0.06733333333333333,0.3003571428571429,-0.014983685811360677,-0.834936755249025,2.768472194671631,50.09729766845703,-0.027959357367621528,-0.10100415547688803
2099,-0.2721633959947374,0.219140682220459,87.35768127441406,89.71034240722656,-5.136974334716797,89.64897155761719,-0.030027474297417533,0.06433333333333334,0.30142857142857143,-0.012145635816786024,-0.9667688780517594,2.8563599586486816,50.09729766845703,-0.026140679253472222,-0.10873273213704428
2100,-0.2409133959947374,0.19921878814697266,90.65141296386719,91.2242431640625,-4.993770599365234,88.99431610107422,-0.02980016072591146,0.06233333333333333,0.30214285714285716,-0.0067441728379991316,-1.1974741392822281,2.0983259677886963,50.09729766845703,-0.006364780002170139,-0.09986763000488282
2101,-0.2370071459947374,0.17929691314697266,81.24073791503906,72.97570037841797,-5.055145263671875,90.13996887207031,-0.030254787868923612,0.059,0.3032142857142857,-0.0037230173746744793,-1.1864878111572281,0.5273280143737793,50.09729766845703,0.09183375040690105,-0.11327904595269098
2102,-0.1901321459947374,0.219140682220459,89.83309936523438,92.41080474853516,-4.7482757568359375,88.87156677246094,-0.030027474297417533,0.05533333333333333,0.30357142857142855,-0.003967157999674479,-1.4281813078613297,0.8019779920578003,50.09729766845703,-0.028641170925564237,-0.0957760281032986
2103,-0.2057571459947374,0.239062557220459,85.68012237548828,80.05416870117188,-6.405372619628906,91.34698486328125,-0.030254787868923612,0.053,0.30464285714285716,-0.004730076260036893,-1.3732515745849625,0.2526780068874359,50.09729766845703,0.0625105963812934,-0.14169286092122396
2104,-0.2448196459947374,0.19921878814697266,88.0123291015625,89.2193603515625,-5.11651611328125,89.17843627929688,-0.029572847154405384,0.05,0.30464285714285716,-0.005096287197536893,-2.153256075927736,0.13183200359344482,50.09729766845703,-0.013411458333333333,-0.10327724880642361
2105,-0.2526321459947374,0.17929691314697266,88.46240997314453,91.44927978515625,-5.075603485107422,89.23981475830078,-0.030027474297417533,0.047,0.30642857142857144,-0.003967157999674479,-2.3180471831054703,-0.5163427763671891,50.09729766845703,-0.03318744235568576,-0.10350464714898003
2106,-0.2448196459947374,0.19921878814697266,84.61630249023438,84.63676452636719,-5.11651611328125,89.46485137939453,-0.030027474297417533,0.043666666666666666,0.30714285714285716,-0.006316947937011719,-1.8786074095459,-1.7467752867431656,50.09729766845703,-0.00022735595703125,-0.10645963880750868
2107,-0.2721633959947374,0.19921878814697266,83.77752685546875,75.8807373046875,-5.075603485107422,89.36256408691406,-0.030254787868923612,0.04033333333333333,0.30857142857142855,-0.009673775566948786,-1.516068118164064,-1.9774805479736344,49.7457389831543,0.08774210611979166,-0.1048685285780165
2108,-0.2721633959947374,0.19921878814697266,86.86668395996094,87.15309143066406,-5.096061706542969,89.19889831542969,-0.030482101440429687,0.037,0.30857142857142855,-0.012267684936523438,-1.2304331236572281,-0.9228254729003922,49.48207092285156,-0.003182305230034722,-0.10327733357747396
2109,-0.2877883959947374,0.19921878814697266,85.57783508300781,90.65141296386719,-5.771175384521484,90.89691162109375,-0.030027474297417533,0.03333333333333333,0.30892857142857144,-0.013976626925998263,-1.1095873289794937,-0.49437012011718906,49.39418029785156,-0.05637308756510417,-0.12964541117350262
2110,-0.2995071459947374,0.19921878814697266,84.24806213378906,83.1024169921875,-5.321098327636719,89.36256408691406,-0.030482101440429687,0.03,0.30892857142857144,-0.014403851826985677,-1.8346620970459,-1.2853628569335953,48.86684036254883,0.012729390462239584,-0.10759624905056424
2111,-0.2643508959947374,0.19921878814697266,85.1072998046875,81.9976806640625,-5.300640106201172,90.1604232788086,-0.030482101440429687,0.02666666666666667,0.30964285714285716,-0.013854556613498263,-1.9225508146972672,-0.6921183043212906,46.84537124633789,0.03455132378472222,-0.11623403761121961
2112,-0.2760696459947374,0.17929691314697266,83.87982177734375,77.23097229003906,-5.034687042236328,90.09904479980469,-0.030254787868923612,0.023,0.30964285714285716,-0.013183191087510851,-1.6918455534667984,0.3185940086841583,46.318031311035156,0.07387610541449653,-0.1125970204671224
2113,-0.2838821459947374,0.17929691314697266,89.52622985839844,87.562255859375,-4.625526428222656,88.29874420166016,-0.02980016072591146,0.019,0.30964285714285716,-0.013366296556260851,-1.6259294920654312,1.4062080383300781,45.966468811035156,0.02182193332248264,-0.08804745144314235
2114,-0.3268508959947374,0.17929691314697266,84.30943298339844,81.67034912109375,-4.093616485595703,88.1146240234375,-0.030709415011935765,0.015,0.3092857142857143,-0.012725448608398438,-1.3402925902099625,0.8239500522613525,43.417659759521484,0.029323154025607638,-0.08009156121148003
2115,-0.2995071459947374,0.15937503814697265,84.82088470458984,86.0074462890625,-3.9504127502441406,87.82821655273438,-0.030254787868923612,0.011666666666666667,0.3082142857142857,-0.009002410040961372,-1.0326849394531266,0.6152160167694092,42.97821044921875,-0.013184017605251737,-0.07531810336642795
2116,-0.2370071459947374,0.17929691314697266,89.1170654296875,87.19401550292969,-2.1705665588378906,88.31919860839844,-0.030482101440429687,0.007666666666666666,0.30714285714285716,-0.008117421468098959,-0.9667688780517594,0.5822579860687256,34.277099609375,0.02136722140842014,-0.060997390747070314
2117,-0.2487258959947374,0.17929691314697266,91.30607604980469,94.92713928222656,-1.495452880859375,85.90515899658203,-0.030027474297417533,0.005333333333333333,0.30428571428571427,-0.0069577958848741316,-0.4064833098144547,0.4723980128765106,24.69709014892578,-0.04023403591579861,-0.026673465304904515
2118,-0.2448196459947374,0.13945316314697265,89.54668426513672,87.43951416015625,-1.3522453308105469,86.1097412109375,-0.030027474297417533,0.003,0.30142857142857143,-0.0020751317342122396,1.5270540714263916,-1.0436712675781266,24.345529556274414,0.023413001166449652,-0.027355406019422743
2119,-0.2487258959947374,0.1195312786102295,90.83554077148438,77.25142669677734,-0.2679710388183594,84.32989501953125,-0.030482101440429687,0.0013333333333333333,0.2960714285714286,-0.0018309911092122396,2.0873401165008545,-1.2853628569335953,24.169750213623047,0.15093460083007812,0.004468154907226562
2120,-0.2096633959947374,0.13945316314697265,85.29141998291016,94.6407241821289,-0.5748405456542969,84.35034942626953,-0.029345575968424478,0.0,0.2932142857142857,-0.0019225438435872396,1.8346620798110962,-0.8678938322753922,24.169750213623047,-0.10388115776909722,0.0008312225341796875
2121,-0.1510696459947374,0.13945316314697265,90.89691162109375,94.10881805419922,-0.2679710388183594,86.47798156738281,-0.028890948825412325,0.0,0.28714285714285714,0.00054931640625,1.8236761093139648,-1.2853628569335953,24.169750213623047,-0.03568784925672743,-0.019399473402235242
2122,-0.1471633959947374,0.13945316314697265,90.65141296386719,71.66638946533203,0.32530975341796875,85.0459213256836,-0.030482101440429687,0.0003333333333333333,0.2835714285714286,-0.0003051545884874132,1.7467740774154663,-1.6698728972167984,24.169750213623047,0.21094470553927952,0.003104315863715278
2123,-0.1276321459947374,0.15937503814697265,84.82088470458984,82.28408813476562,-0.2475128173828125,83.85935974121094,-0.030254787868923612,0.0,0.2782142857142857,-0.0,2.109312057495117,-0.9228254729003922,24.169750213623047,0.02818662855360243,0.009923638237847223
