,WD,WS,AIL_1,AIL_2,ELEV_1,ELEV_2,RUDD,ALT,GS,TH,PTCH,ROLL,PLA_1,AIL,ELEV
4013,-0.023676326123046782,0.39843757629394533,85.98699188232422,85.18913269042969,-3.500335693359375,87.41905212402344,-0.006841744316948784,0.7086666666666667,0.44035714285714284,0.0023802863226996527,-1.8126913481445328,0.1867620050907135,30.673608779907227,0.008865102132161459,-0.06577097574869792
4014,-0.019770076123046782,0.39843757629394533,86.84622192382812,87.74638366699219,-4.482318878173828,88.1146240234375,-0.006841744316948784,0.7036666666666667,0.4367857142857143,0.0027770148383246527,-1.6918455534667984,0.6152160167694092,30.849390029907227,-0.01000179714626736,-0.08441047668457032
4015,-0.027582576123046782,0.39843757629394533,86.559814453125,87.70545959472656,-5.484760284423828,89.05569458007812,-0.006841744316948784,0.6996666666666667,0.4328571428571429,0.0019225226508246527,-1.9994532042236344,-0.14281906420898594,30.673608779907227,-0.012729390462239584,-0.1060050540500217
4016,-0.023676326123046782,0.39843757629394533,86.15065002441406,85.96653747558594,-6.016670227050781,89.567138671875,-0.006841744316948784,0.6963333333333334,0.42607142857142855,0.0018004523383246527,-2.6915708952636734,-0.9338098936767594,30.673608779907227,0.0020456949869791666,-0.1175978766547309
4017,-0.015863826123046782,0.39843757629394533,86.13019561767578,83.98210144042969,-6.630409240722656,90.1195068359375,-0.006841744316948784,0.6946666666666667,0.42142857142857143,0.0020445929633246527,-3.3067861967773453,-0.21972145373535312,30.673608779907227,0.02386771308051215,-0.13055462307400173
4018,-0.03148882612304678,0.3785157012939453,87.25538635253906,85.39370727539062,-7.387355804443359,90.81507873535156,-0.006841744316948784,0.6916666666666667,0.4142857142857143,0.000762939453125,-4.053835528442384,0.6591600179672241,30.673608779907227,0.020685323079427085,-0.14669371710883247
4019,-0.04711382612304678,0.3785157012939453,86.92805480957031,85.76194763183594,-7.080486297607422,90.95828247070312,-0.006841744316948784,0.6886666666666666,0.40964285714285714,-0.000885009765625,-4.921728747436525,0.07690200209617615,30.673608779907227,0.012956746419270833,-0.14487520853678384
4020,-0.05492632612304678,0.3187500762939453,86.88714599609375,86.33477783203125,-6.650867462158203,90.44683837890625,-0.006841744316948784,0.6843333333333333,0.4039285714285714,-0.001312255859375,-5.262295382568361,-0.9777552061767594,30.673608779907227,0.006137424045138889,-0.13441895378960503
4021,-0.03930132612304678,0.3785157012939453,86.37569427490234,83.69569396972656,-6.548576354980469,89.87400817871094,-0.006841744316948784,0.679,0.4007142857142857,-0.00146484375,-5.141449587890627,-1.6369139128417984,30.673608779907227,0.02977778116861979,-0.1269176059299045
4022,-0.019770076123046782,0.3785157012939453,86.5188980102539,84.53446960449219,-6.241706848144531,89.62850952148438,-0.006841744316948784,0.673,0.3964285714285714,-0.0003662109375,-5.086517947265627,-0.9338098936767594,30.849390029907227,0.02204920450846354,-0.12078018188476562
4023,-0.023676326123046782,0.3785157012939453,86.559814453125,86.74394226074219,-6.098503112792969,89.38301849365234,-0.006841744316948784,0.668,0.3942857142857143,-0.001312255859375,-4.965672152587892,0.09887400269508362,30.849390029907227,-0.002045864529079861,-0.1164613511827257
4024,-0.03148882612304678,0.3785157012939453,86.559814453125,87.91004180908203,-6.037128448486328,89.34210205078125,-0.006841744316948784,0.6616666666666666,0.39035714285714285,-0.0019835578070746527,-4.745953219482423,0.7140899896621704,30.849390029907227,-0.015002526177300347,-0.11532478332519532
4025,-0.03539507612304678,0.3785157012939453,86.6007308959961,87.82821655273438,-5.8939208984375,89.2193603515625,-0.006841744316948784,0.6566666666666666,0.3875,-0.0018614874945746527,-4.493275302001955,0.8678940534591675,30.849390029907227,-0.013638729519314236,-0.11236979166666666
4026,-0.03930132612304678,0.3785157012939453,86.6007308959961,88.17599487304688,-5.9757537841796875,89.23981475830078,-0.006841744316948784,0.6513333333333333,0.38357142857142856,-0.0020140753851996527,-4.163694994995119,0.6481740474700928,30.849390029907227,-0.017502933078342015,-0.11350631713867188
4027,-0.03930132612304678,0.3785157012939453,86.6007308959961,86.5188980102539,-5.996212005615234,89.36256408691406,-0.006841744316948784,0.6466666666666666,0.3807142857142857,-0.0017088996039496527,-4.020876544067384,0.35155200958251953,30.849390029907227,0.0009092542860243056,-0.1150975121392144
4028,-0.04320757612304678,0.3585938262939453,86.6007308959961,88.6056137084961,-5.8939208984375,89.38301849365234,-0.006841744316948784,0.6413333333333333,0.37607142857142856,-0.0018004523383246527,-3.943974154541017,-0.01098694140625156,30.849390029907227,-0.022276475694444443,-0.11418821546766493
4029,-0.03930132612304678,0.3785157012939453,86.559814453125,89.46485137939453,-5.157432556152344,88.85111236572266,-0.0066144307454427086,0.637,0.37285714285714283,-0.0018004523383246527,-3.845101016113283,-0.6042314940185562,30.673608779907227,-0.032278188069661456,-0.10009494357638889
4030,-0.03148882612304678,0.3785157012939453,86.559814453125,88.78973388671875,-5.177890777587891,88.564697265625,-0.006841744316948784,0.6323333333333333,0.36892857142857144,-0.0016478644476996527,-3.2957998686523453,-0.7470480375976578,30.673608779907227,-0.024776882595486112,-0.0971398671468099
4031,-0.03539507612304678,0.39843757629394533,86.6007308959961,88.83065795898438,-5.423389434814453,88.87156677246094,-0.006841744316948784,0.6273333333333333,0.3657142857142857,-0.0027464972601996527,-3.1090380125732437,-0.4504267149658219,30.673608779907227,-0.024776967366536458,-0.10327729119194878
4032,-0.03539507612304678,0.39843757629394533,86.559814453125,88.564697265625,-5.853004455566406,89.75126647949219,-0.006841744316948784,0.624,0.35964285714285715,-0.0032652960883246527,-3.526507037231447,-0.2966219359130875,30.673608779907227,-0.022276475694444443,-0.11782523261176216
4033,-0.03148882612304678,0.3585938262939453,86.53935241699219,88.6056137084961,-6.4462890625,90.38545989990234,-0.006841744316948784,0.6213333333333333,0.3557142857142857,-0.0025633917914496527,-4.196652072021486,0.5383139848709106,30.673608779907227,-0.022958458794487848,-0.13146387736002604
4034,-0.04320757612304678,0.33867195129394534,86.6007308959961,89.03523254394531,-6.609951019287109,90.65141296386719,-0.0066144307454427086,0.6186666666666667,0.3492857142857143,-0.0031432257758246527,-4.844826357910158,1.252403974533081,30.673608779907227,-0.027050018310546875,-0.1362373775906033
4035,-0.06273882612304678,0.33867195129394534,86.70301818847656,90.79461669921875,-6.425830841064453,90.6309585571289,-0.006841744316948784,0.615,0.34535714285714286,-0.004669019911024305,-5.833567278930666,1.1535300016403198,30.673608779907227,-0.04546220567491319,-0.13396432664659289
4036,-0.05883257612304678,0.33867195129394534,86.68256378173828,91.24469757080078,-6.078044891357422,90.18087768554688,-0.006841744316948784,0.6123333333333333,0.34,-0.0034178839789496527,-6.844278948852541,0.6481740474700928,30.673608779907227,-0.050690375434027775,-0.12509913974338108
4037,-0.03930132612304678,0.33867195129394534,86.6007308959961,92.98362731933594,-5.464302062988281,89.17843627929688,-0.006841744316948784,0.608,0.3364285714285714,-0.001190185546875,-7.009068148681642,0.6371880173683167,30.673608779907227,-0.0709210713704427,-0.10714153713650174
4038,-0.04711382612304678,0.33867195129394534,86.68256378173828,106.17903900146484,-4.707359313964844,88.42149353027344,-0.0066144307454427086,0.6023333333333334,0.33321428571428574,-0.001556396484375,-6.4707552366943375,0.790992021560669,30.673608779907227,-0.21662750244140624,-0.09032058715820312
4039,-0.04711382612304678,0.3585938262939453,86.662109375,106.01537322998047,-4.339115142822266,88.0737075805664,-0.0066144307454427086,0.5976666666666667,0.33071428571428574,-0.0016783820258246527,-5.987370150634767,0.41746801137924194,30.673608779907227,-0.21503626505533854,-0.0823646969265408
4040,-0.04320757612304678,0.3785157012939453,86.662109375,103.82637023925781,-4.400489807128906,88.0737075805664,-0.006841744316948784,0.593,0.32785714285714285,-0.001190185546875,-5.569903033325197,0.13183200359344482,30.673608779907227,-0.19071400960286458,-0.08304663764105903
4041,-0.03930132612304678,0.3585938262939453,86.662109375,104.13323974609375,-4.318656921386719,88.05325317382812,-0.006841744316948784,0.589,0.325,-0.00048828125,-5.306238787719728,0.17577600479125977,30.673608779907227,-0.19412367078993056,-0.08191011216905382
4042,-0.04320757612304678,0.3585938262939453,87.1121826171875,105.52438354492188,-3.745830535888672,87.54179382324219,-0.0066144307454427086,0.5853333333333334,0.32107142857142856,-0.000823974609375,-4.921728747436525,0.1867620050907135,30.673608779907227,-0.20458001030815973,-0.06986249287923177
4043,-0.04711382612304678,0.3585938262939453,86.76439666748047,108.12254333496094,-3.684459686279297,87.35768127441406,-0.006841744316948784,0.5806666666666667,0.31892857142857145,-0.00103759765625,-4.35045685107422,-0.05493034655761875,30.673608779907227,-0.23731274074978298,-0.06713489956325955
4044,-0.04320757612304678,0.3585938262939453,87.25538635253906,106.83369445800781,-3.3980445861816406,87.17355346679688,-0.006841744316948784,0.5773333333333334,0.315,-0.000885009765625,-4.031862872192384,-0.3515516691894547,30.673608779907227,-0.21753675672743056,-0.06190664503309462
4045,-0.04320757612304678,0.3585938262939453,86.86668395996094,108.83857727050781,-3.3366737365722656,86.98943328857422,-0.006841744316948784,0.5743333333333334,0.3125,-0.00140380859375,-3.6583391600341812,-0.9777552061767594,30.673608779907227,-0.2441321478949653,-0.05917896694607205
4046,-0.03930132612304678,0.3585938262939453,86.78485107421875,109.73873138427734,-3.0502586364746094,86.80531311035156,-0.006841744316948784,0.5706666666666667,0.3082142857142857,-0.0023192511664496527,-3.504534380981447,-1.1974741392822281,30.673608779907227,-0.2550431145562066,-0.053950797186957465
4047,-0.04711382612304678,0.33867195129394534,88.27828979492188,107.63155364990234,-2.9479713439941406,86.53935241699219,-0.0066144307454427086,0.5676666666666667,0.3057142857142857,-0.0037535773383246527,-3.185940402099611,-0.7690206938476578,30.673608779907227,-0.21503626505533854,-0.04985915289984809
4048,-0.06664507612304678,0.33867195129394534,87.95095825195312,107.9588851928711,-2.907054901123047,86.5188980102539,-0.0066144307454427086,0.564,0.30178571428571427,-0.007201978895399305,-3.0321375303955094,-1.1095873289794937,31.28883934020996,-0.222310299343533,-0.049177254570855033
4049,-0.06664507612304678,0.33867195129394534,85.47554016113281,107.12010192871094,-2.334228515625,86.0688247680664,-0.0066144307454427086,0.5613333333333334,0.29964285714285716,-0.007995351155598959,-2.955235140869142,-1.5819841795654312,37.265357971191406,-0.24049513075086806,-0.03781170315212674
4050,-0.05102007612304678,0.3585938262939453,85.74149322509766,105.52438354492188,-2.1501083374023438,85.61874389648438,-0.006841744316948784,0.5583333333333333,0.29714285714285715,-0.0073544820149739586,-2.548752444335939,-0.7690206938476578,39.98994827270508,-0.21980989244249133,-0.030765024820963542
4051,-0.03930132612304678,0.33867195129394534,86.27340698242188,107.20193481445312,-2.7843055725097656,85.96653747558594,-0.006841744316948784,0.5546666666666666,0.29642857142857143,-0.006408521864149305,-2.0104395323486344,0.5493000149726868,41.57196807861328,-0.23253919813368057,-0.041676033867730035
4052,-0.05102007612304678,0.33867195129394534,87.23492431640625,108.59307861328125,-2.8865966796875,86.21202850341797,-0.006841744316948784,0.552,0.295,-0.007110426161024305,-2.0763555937500016,0.9997260570526123,42.89031982421875,-0.23731282552083333,-0.04554027981228299
4053,-0.05102007612304678,0.33867195129394534,87.0098876953125,98.97782135009766,-2.866138458251953,86.31431579589844,-0.006841744316948784,0.5493333333333333,0.29464285714285715,-0.006286451551649305,-2.4059339934082047,0.790992021560669,43.85710906982422,-0.13297704060872395,-0.04644949171278212
4054,-0.04711382612304678,0.33867195129394534,87.37813568115234,95.09080505371094,-2.866138458251953,86.17111206054688,-0.006841744316948784,0.5463333333333333,0.29428571428571426,-0.005370924207899305,-2.5926958494873062,0.9338099956512451,44.56023025512695,-0.08569632636176215,-0.04485833909776476
4055,-0.05102007612304678,0.33867195129394534,86.96897888183594,107.99980163574219,-2.9275131225585938,86.15065002441406,-0.006841744316948784,0.543,0.29428571428571426,-0.004913160536024305,-2.6695982390136734,0.7690200209617615,44.64812088012695,-0.2336758083767361,-0.045312923855251735
4056,-0.04320757612304678,0.3187500762939453,87.03034973144531,108.26575469970703,-2.702472686767578,86.13019561767578,-0.006841744316948784,0.5386666666666666,0.29464285714285715,-0.0033263312445746527,-2.6146685057373062,0.5493000149726868,44.64812088012695,-0.23594894409179687,-0.042585203382703996
4057,-0.06273882612304678,0.3187500762939453,87.15309143066406,89.66943359375,-1.5977401733398438,85.455078125,-0.006841744316948784,0.536,0.295,-0.005462476942274305,-2.3400179320068375,0.8898659944534302,45.26335144042969,-0.027959357367621528,-0.02280909220377604
4058,-0.10961382612304678,0.3187500762939453,87.45996856689453,91.6333999633789,-2.334228515625,85.25050354003906,-0.006841744316948784,0.5326666666666666,0.2960714285714286,-0.01098598904079861,-1.4391657286376969,1.0986000299453735,45.79069137573242,-0.0463714599609375,-0.028719245062934027
4059,-0.12133257612304678,0.29882820129394533,86.21202850341797,90.59004211425781,-2.3956031799316406,86.43707275390625,-0.006841744316948784,0.5296666666666666,0.29678571428571426,-0.01086391872829861,-2.0433966093750016,0.16479000449180603,46.40591812133789,-0.04864459567599826,-0.04258528815375434
4060,-0.10961382612304678,0.3187500762939453,86.80531311035156,95.39767456054688,-2.354686737060547,85.86424255371094,-0.0066144307454427086,0.5256666666666666,0.2985714285714286,-0.01065029568142361,-2.867346423217775,0.3954960107803345,46.40591812133789,-0.09547068277994791,-0.035765881008572045
4061,-0.1291450761230468,0.2789063262939453,87.84866333007812,91.65385437011719,-2.313770294189453,85.90515899658203,-0.006841744316948784,0.523,0.3003571428571429,-0.01138271755642361,-3.0211512022705094,0.2856360077857971,46.84537124633789,-0.04227990044487847,-0.035765881008572045
4062,-0.1369575761230468,0.2789063262939453,87.76683807373047,91.1628646850586,-2.10919189453125,85.57783508300781,-0.0066144307454427086,0.519,0.3025,-0.01235928005642361,-2.4608656340332047,-0.2416922026367203,46.84537124633789,-0.03773362901475694,-0.029855855305989585
4063,-0.10570757612304678,0.3187500762939453,86.41661071777344,92.02210235595703,-1.8023223876953125,85.20958709716797,-0.006841744316948784,0.515,0.30357142857142855,-0.01077236599392361,-1.8786074095459,-0.6262022429199234,46.84537124633789,-0.06228324042426215,-0.022354549831814237
4064,-0.07055132612304678,0.33867195129394534,86.6007308959961,92.73812866210938,-2.4569778442382812,86.08927917480469,-0.006841744316948784,0.5116666666666667,0.30464285714285716,-0.007201978895399305,-1.3512789183349625,-0.3405672484130875,46.84537124633789,-0.0681933085123698,-0.0394028557671441
4065,-0.05883257612304678,0.3187500762939453,86.70301818847656,91.81752014160156,-2.9888877868652344,87.0712661743164,-0.0066144307454427086,0.509,0.30428571428571427,-0.005950758192274305,-1.9005781584472672,0.1867620050907135,44.99967956542969,-0.05682779947916667,-0.05622393290201823
4066,-0.05883257612304678,0.3187500762939453,86.68256378173828,93.08592224121094,-2.8865966796875,87.05081176757812,-0.0066144307454427086,0.506,0.30392857142857144,-0.005950758192274305,-2.6805845671386734,0.04394400119781494,44.64812088012695,-0.07114842732747396,-0.054860093858506945
4067,-0.04320757612304678,0.33867195129394534,88.6056137084961,90.69232940673828,-2.907054901123047,86.78485107421875,-0.006841744316948784,0.503,0.30357142857142855,-0.004180823432074653,-2.922276156494142,0.3405660092830658,44.56023025512695,-0.02318572998046875,-0.05213228861490885
4068,-0.06273882612304678,0.3785157012939453,88.97386169433594,93.14729309082031,-3.4185028076171875,87.64408874511719,-0.006841744316948784,0.49866666666666665,0.3028571428571429,-0.007293531629774305,-3.1310106688232437,0.5822579860687256,42.62664794921875,-0.0463714599609375,-0.06736212836371527
4069,-0.10180132612304678,0.3187500762939453,87.70545959472656,89.95584106445312,-2.9888877868652344,86.72348022460938,-0.006841744316948784,0.49533333333333335,0.30178571428571427,-0.01046719021267361,-3.526507037231447,-0.7031046324462906,41.22040939331055,-0.02500423855251736,-0.0523596445719401
4070,-0.12133257612304678,0.29882820129394533,84.84133911132812,86.19157409667969,-2.6820144653320312,85.74149322509766,-0.006841744316948784,0.49233333333333335,0.30178571428571427,-0.01260342068142361,-3.0980535917968766,-1.2853628569335953,40.60517883300781,-0.015002610948350694,-0.03803897433810764
4071,-0.09789507612304678,0.33867195129394534,85.29141998291016,88.62606811523438,-2.7843055725097656,86.15065002441406,-0.007069057888454861,0.488,0.30142857142857143,-0.01242031521267361,-3.240870135375978,-0.3735243254394547,41.22040939331055,-0.03705164591471354,-0.0437217288547092
4072,-0.08617632612304678,0.33867195129394534,86.0074462890625,89.28073120117188,-2.7843055725097656,86.39614868164062,-0.006841744316948784,0.485,0.30178571428571427,-0.01098598904079861,-3.4825636320800797,0.41746801137924194,43.153987884521484,-0.03636983235677083,-0.04644949171278212
4073,-0.06273882612304678,0.3187500762939453,88.13508605957031,89.13752746582031,-2.7638473510742188,86.33477783203125,-0.006841744316948784,0.4816666666666667,0.30178571428571427,-0.007171461317274305,-3.251856463500978,1.0546560287475586,43.153987884521484,-0.011138237847222222,-0.04554027981228299
4074,-0.07055132612304678,0.33867195129394534,88.29874420166016,91.40835571289062,-2.6001853942871094,86.27340698242188,-0.006841744316948784,0.47733333333333333,0.30142857142857143,-0.007232496473524305,-3.0101648741455094,1.032684087753296,41.13251876831055,-0.034551239013671874,-0.04303991529676649
4075,-0.09008257612304678,0.33867195129394534,88.1555404663086,89.30118560791016,-2.4160614013671875,85.80287170410156,-0.006841744316948784,0.474,0.30107142857142855,-0.009826405843098959,-2.6586119108886734,0.05493000149726868,40.95674133300781,-0.012729390462239584,-0.035765923394097225
4076,-0.08617632612304678,0.33867195129394534,87.29630279541016,88.6056137084961,-2.497894287109375,85.90515899658203,-0.006841744316948784,0.4703333333333333,0.3003571428571429,-0.009338124593098959,-2.175228732177736,-0.5053564482421891,40.86885070800781,-0.014547899034288195,-0.03781170315212674
4077,-0.07445757612304678,0.33867195129394534,87.50088500976562,88.76927947998047,-2.6820144653320312,86.1097412109375,-0.006841744316948784,0.4673333333333333,0.29964285714285716,-0.008147939046223959,-2.0104395323486344,-0.17577614123535312,42.01142120361328,-0.014093271891276042,-0.04213061862521701
4078,-0.07445757612304678,0.3187500762939453,87.48042297363281,88.74882507324219,-2.6820144653320312,86.41661071777344,-0.006841744316948784,0.464,0.2985714285714286,-0.0075986226399739586,-2.164242404052736,-0.2856375151367203,43.417659759521484,-0.01409335666232639,-0.04554027981228299
4079,-0.07445757612304678,0.29882820129394533,88.1146240234375,90.26271057128906,-2.6615562438964844,85.96653747558594,-0.006841744316948784,0.461,0.2982142857142857,-0.006927320692274305,-2.197201388427736,0.26366400718688965,44.03289031982422,-0.023867628309461805,-0.04031215243869358
4080,-0.07836382612304678,0.3187500762939453,87.74638366699219,90.42637634277344,-2.702472686767578,85.98699188232422,-0.006841744316948784,0.458,0.2985714285714286,-0.007873280843098959,-2.0214239531250016,0.06591600179672241,44.91178894042969,-0.029777696397569445,-0.040994050767686634
4081,-0.07836382612304678,0.3187500762939453,87.29630279541016,89.03523254394531,-2.6820144653320312,86.15065002441406,-0.006841744316948784,0.4543333333333333,0.29964285714285716,-0.007903798421223959,-2.0433966093750016,-0.17577614123535312,45.26335144042969,-0.019321441650390625,-0.04258516099717882
4082,-0.07445757612304678,0.3187500762939453,87.41905212402344,89.17843627929688,-2.722930908203125,86.43707275390625,-0.006841744316948784,0.45166666666666666,0.3,-0.007201978895399305,-2.3949495726318375,0.24169200658798218,45.43912887573242,-0.019548712836371527,-0.04622226291232639
4083,-0.08227007612304678,0.3187500762939453,87.72592163085938,91.55156707763672,-2.8456802368164062,86.33477783203125,-0.006841744316948784,0.448,0.3003571428571429,-0.0075986226399739586,-2.3839632445068375,0.6371880173683167,45.43912887573242,-0.042507171630859375,-0.046449534098307294
4084,-0.09008257612304678,0.3187500762939453,87.70545959472656,91.79705810546875,-2.7843055725097656,86.53935241699219,-0.006841744316948784,0.44433333333333336,0.30107142857142855,-0.008605702718098959,-2.867346423217775,0.17577600479125977,45.43912887573242,-0.04546220567491319,-0.04804064432779948
4085,-0.07836382612304678,0.29882820129394533,87.58271789550781,92.02210235595703,-2.5388107299804688,86.04837036132812,-0.006841744316948784,0.44066666666666665,0.30178571428571427,-0.006530592176649305,-3.207913058349611,-0.4394403868408219,44.82389831542969,-0.04932649400499132,-0.039857567681206595
4086,-0.03930132612304678,0.29882820129394533,87.62362670898438,96.788818359375,-2.334228515625,85.98699188232422,-0.006841744316948784,0.437,0.3028571428571429,-0.0022582160101996527,-2.933262484619142,-0.16478981311035312,44.03289031982422,-0.10183546278211805,-0.03690244886610243
4087,-0.05102007612304678,0.2789063262939453,88.40103149414062,96.50240325927734,-2.6206436157226562,86.13019561767578,-0.006841744316948784,0.434,0.30357142857142855,-0.0025939093695746527,-2.6476274901123062,-0.15380539233398594,43.76921844482422,-0.09001524183485243,-0.04167599148220486
4088,-0.07055132612304678,0.3187500762939453,88.29874420166016,97.68896484375,-2.6615562438964844,86.1097412109375,-0.006841744316948784,0.42933333333333334,0.30392857142857144,-0.006347486707899305,-2.3619905882568375,-0.5822588377685562,43.76921844482422,-0.10433578491210938,-0.04190330505371094
4089,-0.07055132612304678,0.33867195129394534,86.76439666748047,96.44102478027344,-2.702472686767578,86.13019561767578,-0.0066144307454427086,0.427,0.30392857142857144,-0.0076291402180989586,-2.3949495726318375,-0.9118391447753922,43.76921844482422,-0.1075180901421441,-0.042585203382703996
4090,-0.06664507612304678,0.33867195129394534,86.39614868164062,94.31340026855469,-2.8252220153808594,86.559814453125,-0.006841744316948784,0.42333333333333334,0.3032142857142857,-0.0077817281087239586,-2.4279066496582047,-0.5712725096435562,43.76921844482422,-0.08796946207682292,-0.048722627427842884
4091,-0.07445757612304678,0.2789063262939453,86.68256378173828,92.88133239746094,-2.8047637939453125,86.559814453125,-0.006841744316948784,0.42033333333333334,0.3025,-0.0078122456868489586,-2.6146685057373062,0.373524010181427,42.62664794921875,-0.06887520684136285,-0.048495313856336805
4092,-0.10180132612304678,0.29882820129394533,87.82821655273438,95.76591491699219,-2.2319412231445312,85.90515899658203,-0.006841744316948784,0.418,0.3025,-0.01028408474392361,-2.7684732847900406,0.5493000149726868,41.83563995361328,-0.08819664849175347,-0.03485666910807292
4093,-0.10961382612304678,0.3187500762939453,87.80775451660156,94.37477111816406,-2.641101837158203,85.92561340332031,-0.006841744316948784,0.4136666666666667,0.3028571428571429,-0.01208462185329861,-2.3619905882568375,-0.16478981311035312,44.03289031982422,-0.07296685112847222,-0.03963016933865017
4094,-0.09789507612304678,0.29882820129394533,86.0688247680664,93.33141326904297,-2.641101837158203,86.27340698242188,-0.006841744316948784,0.4103333333333333,0.3032142857142857,-0.01077236599392361,-2.3290335112304703,-1.0107122832031266,44.82389831542969,-0.08069542778862847,-0.04349454243977865
4095,-0.06273882612304678,0.2789063262939453,85.92561340332031,91.40835571289062,-2.6206436157226562,86.15065002441406,-0.006841744316948784,0.408,0.3032142857142857,-0.007018873426649305,-2.471850054809572,-1.175503390380861,44.82389831542969,-0.06091935899522569,-0.04190326266818577
4096,-0.03539507612304678,0.29882820129394533,86.25294494628906,92.96316528320312,-2.6001853942871094,86.31431579589844,-0.006841744316948784,0.4043333333333333,0.30357142857142855,-0.004699537489149305,-2.7355143004150406,-0.10986007983398594,44.12078094482422,-0.07455800374348959,-0.043494457668728295
4097,-0.05492632612304678,0.3187500762939453,86.80531311035156,93.31095886230469,-2.7638473510742188,86.33477783203125,-0.006841744316948784,0.40166666666666667,0.30357142857142855,-0.0075681050618489586,-2.6695982390136734,0.3954960107803345,44.03289031982422,-0.07228495279947916,-0.04554027981228299
4098,-0.07445757612304678,0.3187500762939453,86.45751953125,93.1268310546875,-2.702472686767578,86.15065002441406,-0.006841744316948784,0.398,0.30357142857142855,-0.010009511311848959,-2.834389346191408,0.4284540116786957,43.85710906982422,-0.07410346137152778,-0.042812474568684894
4099,-0.07836382612304678,0.3187500762939453,86.58027648925781,92.69721984863281,-2.6820144653320312,86.13019561767578,-0.006841744316948784,0.395,0.3032142857142857,-0.009734853108723959,-2.5926958494873062,0.7031040191650391,43.153987884521484,-0.0679660373263889,-0.04235788981119792
4100,-0.07836382612304678,0.3187500762939453,87.09172058105469,94.94759368896484,-2.722930908203125,86.68256378173828,-0.006841744316948784,0.3913333333333333,0.3025,-0.009155019124348959,-2.526779788085939,1.0766279697418213,42.362979888916016,-0.08728747897677952,-0.048949940999348955
4101,-0.08227007612304678,0.3187500762939453,87.31675720214844,96.01141357421875,-2.702472686767578,86.5188980102539,-0.006841744316948784,0.3883333333333333,0.30214285714285716,-0.008208974202473959,-2.867346423217775,0.4943700134754181,42.275089263916016,-0.09660729302300347,-0.04690411885579427
4102,-0.07445757612304678,0.29882820129394533,87.78729248046875,96.37965393066406,-2.1501083374023438,86.0074462890625,-0.006841744316948784,0.38466666666666666,0.30214285714285716,-0.006866285536024305,-2.812416689941408,0.3076080083847046,42.099308013916016,-0.09547068277994791,-0.03508394029405382
4103,-0.07836382612304678,0.29882820129394533,87.562255859375,95.74545288085938,-2.0069007873535156,85.61874389648438,-0.006841744316948784,0.38,0.3025,-0.006591627332899305,-2.3070608549804703,0.19774800539016724,43.153987884521484,-0.09092441134982639,-0.029173829820421007
4104,-0.10570757612304678,0.29882820129394533,87.6031723022461,88.13508605957031,-2.5592689514160156,86.0688247680664,-0.006841744316948784,0.378,0.3028571428571429,-0.009368642171223959,-1.9555078917236344,-0.03295769030761875,43.417659759521484,-0.005910152859157986,-0.04031215243869358
4105,-0.10961382612304678,0.3187500762939453,86.74394226074219,86.49844360351562,-2.477436065673828,86.559814453125,-0.006841744316948784,0.374,0.3032142857142857,-0.01092495388454861,-2.7245279722900406,-0.5163427763671891,43.505550384521484,0.002727762858072917,-0.04485833909776476
4106,-0.08617632612304678,0.3187500762939453,86.90760040283203,85.5982894897461,-2.477436065673828,86.0688247680664,-0.006841744316948784,0.371,0.30357142857142855,-0.008636220296223959,-3.0431219511718766,-0.4504267149658219,44.82389831542969,0.014547899034288195,-0.03940289815266927
4107,-0.06273882612304678,0.29882820129394533,86.88714599609375,86.23248291015625,-2.6001853942871094,86.53935241699219,-0.006841744316948784,0.367,0.30428571428571427,-0.005645582411024305,-2.944248812744142,0.3405660092830658,44.99967956542969,0.007274034288194444,-0.045994864569769964
4108,-0.07055132612304678,0.33867195129394534,87.21446990966797,88.13508605957031,-2.477436065673828,86.53935241699219,-0.006841744316948784,0.3636666666666667,0.30428571428571427,-0.006713697645399305,-3.262842791625978,1.0107120275497437,44.99967956542969,-0.010229068332248265,-0.04463098314073351
4109,-0.08227007612304678,0.3187500762939453,87.15309143066406,89.30118560791016,-2.2933120727539062,85.31187438964844,-0.006841744316948784,0.36033333333333334,0.305,-0.007232496473524305,-2.6805845671386734,0.9557820558547974,44.99967956542969,-0.02386771308051215,-0.02894651624891493
4110,-0.08227007612304678,0.3187500762939453,87.19401550292969,90.69232940673828,-2.5592689514160156,86.31431579589844,-0.006841744316948784,0.3566666666666667,0.305,-0.006866285536024305,-1.9115644865722672,0.8788800239562988,45.26335144042969,-0.038870154486762155,-0.043039830525716145
4111,-0.07836382612304678,0.3187500762939453,87.19401550292969,87.91004180908203,-2.722930908203125,87.03034973144531,-0.006841744316948784,0.35433333333333333,0.30464285714285716,-0.005157301161024305,-2.0324102812500016,0.6921180486679077,45.17546081542969,-0.007955847846137152,-0.05281422932942708
4112,-0.07445757612304678,0.29882820129394533,87.21446990966797,88.564697265625,-2.6820144653320312,86.90760040283203,-0.006841744316948784,0.35033333333333333,0.30464285714285716,-0.004424964057074653,-2.6476274901123062,0.05493000149726868,45.17546081542969,-0.015002526177300347,-0.050995720757378474
4113,-0.07836382612304678,0.3187500762939453,86.64164733886719,88.23736572265625,-2.6206436157226562,86.49844360351562,-0.006841744316948784,0.3466666666666667,0.3057142857142857,-0.005492994520399305,-3.0211512022705094,-0.7909933500976578,45.17546081542969,-0.017730204264322917,-0.04576763576931424
4114,-0.08617632612304678,0.29882820129394533,87.86912536621094,87.35768127441406,-2.743389129638672,86.76439666748047,-0.006841744316948784,0.3436666666666667,0.30607142857142855,-0.006408521864149305,-2.7135435515136734,-0.08788933093261875,45.17546081542969,0.005682712131076389,-0.05008650885687934
4115,-0.10961382612304678,0.29882820129394533,84.28897857666016,89.17843627929688,-2.8456802368164062,86.70301818847656,-0.006841744316948784,0.3393333333333333,0.30714285714285716,-0.009460194905598959,-2.6695982390136734,-0.7470480375976578,45.17546081542969,-0.054327307807074655,-0.05054109361436632
4116,-0.10570757612304678,0.3187500762939453,84.86180114746094,83.28652954101562,-2.743389129638672,86.53935241699219,-0.006841744316948784,0.336,0.30714285714285716,-0.01043667263454861,-3.3836885863037125,-0.7470480375976578,45.17546081542969,0.01750301784939236,-0.047586017184787326
4117,-0.09398882612304678,0.3187500762939453,86.35523986816406,85.82332611083984,-2.702472686767578,86.43707275390625,-0.006841744316948784,0.33266666666666667,0.3082142857142857,-0.009460194905598959,-2.933262484619142,-0.3405672484130875,45.17546081542969,0.005910152859157986,-0.04599494934082031
4118,-0.09008257612304678,0.29882820129394533,86.33477783203125,89.50576782226562,-2.702472686767578,86.53935241699219,-0.006841744316948784,0.32866666666666666,0.30857142857142855,-0.008636220296223959,-2.5926958494873062,0.04394400119781494,45.17546081542969,-0.035233222113715275,-0.047131390041775176
4119,-0.09398882612304678,0.2789063262939453,87.50088500976562,92.49263000488281,-2.8865966796875,86.92805480957031,-0.006841744316948784,0.32566666666666666,0.30892857142857144,-0.008300526936848959,-2.823403018066408,0.14281800389289856,45.17546081542969,-0.05546383327907986,-0.05349612765842014
4120,-0.09789507612304678,0.2789063262939453,87.37813568115234,89.99675750732422,-2.866138458251953,87.23492431640625,-0.006841744316948784,0.32133333333333336,0.31,-0.009093983968098959,-3.504534380981447,-0.2746511870117203,45.17546081542969,-0.02909579806857639,-0.05667847527398003
4121,-0.09789507612304678,0.2789063262939453,86.6007308959961,88.21691131591797,-2.7638473510742188,86.92805480957031,-0.006841744316948784,0.31833333333333336,0.3107142857142857,-0.009216054280598959,-3.932987826416017,-0.21972145373535312,45.17546081542969,-0.017957560221354165,-0.05213224622938368
4122,-0.12133257612304678,0.29882820129394533,86.58027648925781,88.13508605957031,-2.5797271728515625,86.49844360351562,-0.0066144307454427086,0.314,0.31214285714285717,-0.01220669216579861,-3.6473528319091812,0.26366400718688965,45.26335144042969,-0.01727566189236111,-0.04531300862630208
4123,-0.16039504834526908,0.25898443222045897,84.88226318359375,82.9592056274414,-2.6001853942871094,86.72348022460938,-0.006841744316948784,0.31066666666666665,0.31357142857142856,-0.015136294894748263,-3.196926730224611,-0.17577614123535312,45.26335144042969,0.021367306179470486,-0.04804072909884983
4124,-0.17992629834526908,0.239062557220459,84.92317199707031,85.35279846191406,-2.6820144653320312,86.559814453125,-0.006841744316948784,0.30666666666666664,0.31464285714285717,-0.015990702311197917,-3.3507315092773453,0.41746801137924194,45.26335144042969,-0.004773627387152778,-0.04713143242730035
4125,-0.1486763261230468,0.25898443222045897,86.80531311035156,87.70545959472656,-2.7638473510742188,86.47798156738281,-0.006841744316948784,0.30366666666666664,0.31642857142857145,-0.013732486300998263,-3.9989038878173844,0.6371880173683167,45.26335144042969,-0.010001627604166667,-0.04713143242730035
4126,-0.17602004834526908,0.219140682220459,86.5188980102539,87.35768127441406,-2.8047637939453125,86.15065002441406,-0.006841744316948784,0.301,0.31785714285714284,-0.013610415988498263,-4.4053865843505875,-0.07690300280761875,45.26335144042969,-0.009319814046223958,-0.04394904242621528
4127,-0.1291450761230468,0.239062557220459,84.22760009765625,83.67523193359375,-2.6206436157226562,85.98699188232422,-0.006841744316948784,0.29633333333333334,0.3192857142857143,-0.01104702419704861,-3.185940402099611,-1.2194467955322281,45.17546081542969,0.006137424045138889,-0.0400848388671875
4128,-0.07445757612304678,0.219140682220459,86.43707275390625,85.35279846191406,-2.641101837158203,86.27340698242188,-0.006841744316948784,0.29333333333333333,0.32,-0.0074765523274739586,-2.3290335112304703,-0.18676246936035312,45.17546081542969,0.012047492133246528,-0.04349454243977865
4129,-0.07836382612304678,0.219140682220459,86.53935241699219,94.681640625,-2.6820144653320312,86.72348022460938,-0.0066144307454427086,0.2896666666666667,0.32,-0.0075681050618489586,-2.581711428710939,0.1538040041923523,45.17546081542969,-0.09046986897786459,-0.048949940999348955
4130,-0.06664507612304678,0.25898443222045897,86.37569427490234,94.70210266113281,-2.907054901123047,87.35768127441406,-0.006841744316948784,0.2856666666666667,0.32,-0.006957838270399305,-3.0431219511718766,0.1867620050907135,45.17546081542969,-0.0925156487358941,-0.05849706861707899
4131,-0.06273882612304678,0.239062557220459,88.05325317382812,94.14973449707031,-2.907054901123047,86.98943328857422,-0.006841744316948784,0.2826666666666667,0.32035714285714284,-0.006011793348524305,-3.262842791625978,0.7140899896621704,45.17546081542969,-0.06773868136935764,-0.054405424329969615
4132,-0.09398882612304678,0.239062557220459,90.48774719238281,97.36163330078125,-2.9275131225585938,86.86668395996094,-0.006841744316948784,0.279,0.32071428571428573,-0.0074765523274739586,-3.174954073974611,0.5822579860687256,45.17546081542969,-0.0763765123155382,-0.05326885647243924
4133,-0.10180132612304678,0.25898443222045897,81.24073791503906,89.26026916503906,-2.7638473510742188,86.70301818847656,-0.006841744316948784,0.276,0.32107142857142856,-0.009948476155598959,-2.955235140869142,-3.88904442126465,45.17546081542969,-0.08910590277777777,-0.04963183932834202
4134,-0.07445757612304678,0.239062557220459,81.8953857421875,92.0834732055664,-2.0273590087890625,86.53935241699219,-0.006841744316948784,0.272,0.32107142857142856,-0.01107754177517361,-2.878332751342775,-1.9994532042236344,45.17546081542969,-0.11320097181532118,-0.039630126953125
4135,-0.08227007612304678,0.219140682220459,87.91004180908203,100.14392852783203,-2.9479713439941406,86.96897888183594,-0.006841744316948784,0.268,0.32142857142857145,-0.01184048122829861,-2.3619905882568375,-0.05493034655761875,45.17546081542969,-0.1359320746527778,-0.054632780287000866
4136,-0.06273882612304678,0.239062557220459,87.82821655273438,99.01873779296875,-3.684459686279297,88.1555404663086,-0.006841744316948784,0.2653333333333333,0.32107142857142856,-0.01055874294704861,-2.856360095092775,0.6481740474700928,45.17546081542969,-0.12433912489149306,-0.07600000169542101
4137,-0.09398882612304678,0.17929691314697266,90.91737365722656,102.23064422607422,-3.745830535888672,88.0737075805664,-0.004795964558919271,0.2623333333333333,0.3217857142857143,-0.01086391872829861,-4.152708666870119,0.9008520245552063,45.17546081542969,-0.12570300632052953,-0.07577264573838975
4138,-0.08227007612304678,0.17929691314697266,84.98455047607422,94.06790161132812,-3.3980445861816406,88.13508605957031,-0.006841744316948784,0.26033333333333336,0.3225,-0.009612782796223959,-5.196379321166994,-0.21972145373535312,45.17546081542969,-0.1009261237250434,-0.07259034050835503
4139,-0.10570757612304678,0.219140682220459,86.96897888183594,93.80194854736328,-2.8252220153808594,86.96897888183594,-0.006841744316948784,0.25566666666666665,0.325,-0.01257290310329861,-4.174681323120119,1.06564199924469,45.17546081542969,-0.07592188517252604,-0.05326889885796441
4140,-0.1291450761230468,0.25898443222045897,88.0123291015625,95.62271118164062,-2.8047637939453125,87.05081176757812,-0.006841744316948784,0.25133333333333335,0.32535714285714284,-0.014800601535373263,-3.493548052856447,1.8017040491104126,45.17546081542969,-0.08455980088975694,-0.05395083957248264
4141,-0.16820754834526908,0.219140682220459,84.67768096923828,99.73477172851562,-2.866138458251953,87.21446990966797,-0.007069057888454861,0.24733333333333332,0.3264285714285714,-0.015563540988498263,-3.2957998686523453,1.1974740028381348,45.17546081542969,-0.16730100843641493,-0.056451204087999134
4142,-0.1564888261230468,0.19921878814697266,88.99431610107422,97.99583435058594,-3.0502586364746094,87.41905212402344,-0.006841744316948784,0.24433333333333335,0.3271428571428571,-0.01193203396267361,-3.7572122984619156,0.5273280143737793,45.17546081542969,-0.1000168694390191,-0.06077011956108941
4143,-0.12133257612304678,0.19921878814697266,88.87156677246094,99.7552261352539,-2.702472686767578,87.27584838867188,-0.0066144307454427086,0.24033333333333334,0.32821428571428574,-0.009948476155598959,-4.130736010620119,-0.05493034655761875,45.17546081542969,-0.12092954847547743,-0.05531467861599392
4144,-0.10570757612304678,0.219140682220459,88.85111236572266,93.53599548339844,-4.318656921386719,86.88714599609375,-0.007069057888454861,0.237,0.3289285714285714,-0.009277089436848959,-3.9989038878173844,-0.5492998533935562,45.17546081542969,-0.05205425686306424,-0.06895336574978299
4145,-0.1486763261230468,0.15937503814697265,87.25538635253906,93.18820190429688,-3.479877471923828,87.39859008789062,-0.006841744316948784,0.23266666666666666,0.3296428571428571,-0.010070546468098959,-4.295527117797853,-0.16478981311035312,43.153987884521484,-0.06592017279730902,-0.06531630622016059
4146,-0.17602004834526908,0.219140682220459,85.23004150390625,91.89935302734375,-3.5617103576660156,87.50088500976562,-0.006841744316948784,0.228,0.33035714285714285,-0.015563540988498263,-4.32848419482422,-0.9887415343017594,42.97821044921875,-0.07410346137152778,-0.06736217074924045
4147,-0.1564888261230468,0.17929691314697266,85.27096557617188,91.24469757080078,-2.4569778442382812,87.62362670898438,-0.006841744316948784,0.22433333333333333,0.33071428571428574,-0.013244205050998263,-5.075533526489259,-0.4284540587158219,41.39619064331055,-0.06637479994032118,-0.05645116170247396
4148,-0.09789507612304678,0.19921878814697266,88.23736572265625,93.6382827758789,-2.6615562438964844,87.25538635253906,-0.006841744316948784,0.22,0.3314285714285714,-0.010131581624348959,-4.559191363403322,0.2197200059890747,40.86885070800781,-0.06001018948025173,-0.05463269551595052
4149,-0.12133257612304678,0.219140682220459,88.25782775878906,94.19064331054688,-2.5388107299804688,86.47798156738281,-0.006841744316948784,0.21533333333333332,0.33035714285714285,-0.01232876247829861,-4.262568133422853,0.4614120125770569,40.86885070800781,-0.06592017279730902,-0.04463102552625868
4150,-0.1369575761230468,0.239062557220459,87.62362670898438,93.1677474975586,-2.6206436157226562,87.13264465332031,-0.006841744316948784,0.211,0.33,-0.013793521457248263,-4.075806277343752,0.36253800988197327,40.86885070800781,-0.061601342095269095,-0.05281431410047743
4151,-0.17992629834526908,0.17929691314697266,85.92561340332031,101.94422912597656,-2.907054901123047,87.88958740234375,-0.0066144307454427086,0.20733333333333334,0.3289285714285714,-0.014281802707248263,-4.4273592406005875,-0.21972145373535312,40.86885070800781,-0.177984619140625,-0.06440713670518664
4152,-0.1525825761230468,0.17929691314697266,86.43707275390625,89.75126647949219,-2.313770294189453,85.94607543945312,-0.006841744316948784,0.20366666666666666,0.32857142857142857,-0.01284756130642361,-4.811869280883791,0.5273280143737793,40.86885070800781,-0.03682437472873264,-0.0362205081515842
4153,-0.1525825761230468,0.15937503814697265,88.40103149414062,95.1930923461914,-2.6001853942871094,86.6007308959961,-0.006841744316948784,0.19933333333333333,0.3289285714285714,-0.01083340115017361,-3.9989038878173844,1.1425440311431885,40.86885070800781,-0.07546734280056423,-0.046676847669813365
4154,-0.11352007612304678,0.17929691314697266,85.35279846191406,97.07522583007812,-3.0502586364746094,87.45996856689453,-0.0066144307454427086,0.19533333333333333,0.3289285714285714,-0.008514149983723959,-3.812142031738283,0.36253800988197327,40.86885070800781,-0.1302491929796007,-0.061224746704101565
4155,-0.08617632612304678,0.15937503814697265,87.21446990966797,99.77568054199219,-2.088733673095703,86.662109375,-0.006841744316948784,0.19066666666666668,0.32821428571428574,-0.006133863661024305,-4.35045685107422,0.9447960257530212,40.95674133300781,-0.13956900702582464,-0.041676033867730035
4156,-0.10180132612304678,0.15937503814697265,84.5958480834961,99.87797546386719,-2.8456802368164062,87.13264465332031,-0.006841744316948784,0.18733333333333332,0.32857142857142857,-0.006500074598524305,-4.262568133422853,0.38451001048088074,41.57196807861328,-0.1698014153374566,-0.055314721001519095
4157,-0.10570757612304678,0.19921878814697266,88.42149353027344,94.76347351074219,-2.313770294189453,86.5188980102539,-0.006841744316948784,0.183,0.32857142857142857,-0.0073544820149739586,-4.570175784179689,1.219446063041687,41.57196807861328,-0.07046644422743055,-0.042585203382703996
4158,-0.1369575761230468,0.239062557220459,86.76439666748047,98.71186828613281,-3.132091522216797,86.58027648925781,-0.006841744316948784,0.17966666666666667,0.32857142857142857,-0.01052822536892361,-3.867073672363283,1.5160679817199707,41.57196807861328,-0.1327496846516927,-0.0523596445719401
4159,-0.1369575761230468,0.239062557220459,87.37813568115234,94.7225570678711,-2.9684295654296875,87.86912536621094,-0.0066144307454427086,0.17533333333333334,0.32785714285714285,-0.009490712483723959,-4.35045685107422,1.1425440311431885,41.57196807861328,-0.08160468207465278,-0.0648617214626736
4160,-0.1408638261230468,0.239062557220459,87.19401550292969,97.15705871582031,-3.1730079650878906,87.05081176757812,-0.006841744316948784,0.17133333333333334,0.32785714285714285,-0.009307607014973959,-4.163694994995119,0.9447960257530212,41.57196807861328,-0.11070048014322917,-0.05804244147406684
4161,-0.1408638261230468,0.219140682220459,88.1146240234375,92.04255676269531,-3.295757293701172,87.09172058105469,-0.006841744316948784,0.168,0.3267857142857143,-0.006683180067274305,-3.7022825651855484,1.3512780666351318,41.57196807861328,-0.04364369710286458,-0.0598608652750651
4162,-0.11352007612304678,0.19921878814697266,88.58515930175781,93.1268310546875,-3.295757293701172,86.98943328857422,-0.0066144307454427086,0.16433333333333333,0.3264285714285714,-0.0032958136664496527,-3.6253801756591812,1.1535300016403198,41.57196807861328,-0.05046301947699653,-0.0587243398030599
4163,-0.09398882612304678,0.219140682220459,88.21691131591797,91.10148620605469,-3.1730079650878906,87.0098876953125,-0.006841744316948784,0.15966666666666668,0.32607142857142857,-0.001495361328125,-3.834114687988283,0.10986000299453735,41.57196807861328,-0.032050832112630205,-0.05758772956000434
4164,-0.10961382612304678,0.219140682220459,88.17599487304688,91.32653045654297,-2.9684295654296875,87.03034973144531,-0.006841744316948784,0.157,0.32571428571428573,-0.0028075324164496527,-3.954960482666017,-0.3845106535644547,41.57196807861328,-0.035005950927734376,-0.0555419921875
4165,-0.1291450761230468,0.219140682220459,87.21446990966797,91.51065063476562,-2.8456802368164062,86.96897888183594,-0.006841744316948784,0.153,0.325,-0.005187818739149305,-3.6693254881591812,-1.2633902006835953,41.57196807861328,-0.047735341389973956,-0.05349621242947049
4166,-0.10180132612304678,0.219140682220459,87.25538635253906,89.93538665771484,-2.6820144653320312,87.25538635253906,-0.006841744316948784,0.14966666666666667,0.3242857142857143,-0.004119788275824653,-3.4715773039550797,-1.7028299742431656,41.57196807861328,-0.02977778116861979,-0.0548600090874566
4167,-0.07445757612304678,0.219140682220459,86.80531311035156,89.66943359375,-2.2933120727539062,86.37569427490234,-0.006841744316948784,0.14666666666666667,0.32357142857142857,-0.0034789191351996527,-3.570450442382814,-1.2633902006835953,41.57196807861328,-0.03182356092664931,-0.040766737196180555
4168,-0.08617632612304678,0.19921878814697266,86.94851684570312,90.65141296386719,-2.4569778442382812,86.5188980102539,-0.006841744316948784,0.14233333333333334,0.32321428571428573,-0.004791090223524305,-3.3177725249023453,-0.3076082640380875,41.57196807861328,-0.04114329020182292,-0.04417639838324653
4169,-0.1252388261230468,0.239062557220459,86.78485107421875,91.85843658447266,-2.5592689514160156,86.6007308959961,-0.006841744316948784,0.13866666666666666,0.3225,-0.009490712483723959,-2.900305407592775,0.07690200209617615,41.57196807861328,-0.05637317233615451,-0.046222220526801215
4170,-0.1486763261230468,0.219140682220459,86.1097412109375,90.87644958496094,-2.5592689514160156,86.68256378173828,-0.006841744316948784,0.13533333333333333,0.32142857142857145,-0.01028408474392361,-2.7794596129150406,-0.5822588377685562,41.57196807861328,-0.05296342637803819,-0.04713147481282552
4171,-0.1252388261230468,0.219140682220459,85.57783508300781,90.671875,-2.6820144653320312,87.09172058105469,-0.006841744316948784,0.13266666666666665,0.32071428571428573,-0.009368642171223959,-2.955235140869142,-0.3625379973144547,41.57196807861328,-0.05660044352213542,-0.053041500515407985
4172,-0.1291450761230468,0.19921878814697266,86.53935241699219,93.55644989013672,-2.743389129638672,87.05081176757812,-0.006841744316948784,0.12866666666666668,0.32,-0.008941396077473959,-3.240870135375978,0.7690200209617615,41.57196807861328,-0.0779677497016059,-0.05326889885796441
4173,-0.10961382612304678,0.19921878814697266,90.99920654296875,96.56378173828125,-2.4365196228027344,86.04837036132812,-0.006841744316948784,0.12633333333333333,0.3196428571428571,-0.006286451551649305,-2.7135435515136734,1.4281799793243408,41.57196807861328,-0.06182861328125,-0.038720999823676217
4174,-0.11352007612304678,0.13945316314697265,92.10392761230469,101.18728637695312,-2.5797271728515625,87.09172058105469,-0.006841744316948784,0.12266666666666666,0.3192857142857143,-0.0028380499945746527,-2.6476274901123062,1.2304320335388184,41.57196807861328,-0.10092620849609375,-0.05190497504340278
4175,-0.09008257612304678,0.15937503814697265,86.72348022460938,93.92469787597656,-2.1705665588378906,85.82332611083984,-0.006841744316948784,0.11966666666666667,0.3196428571428571,-0.0019530402289496527,-3.262842791625978,-0.3845106535644547,41.57196807861328,-0.08001352945963541,-0.033265474107530384
4176,-0.10570757612304678,0.1195312786102295,86.04837036132812,93.10637664794922,-1.7000312805175781,85.41416931152344,-0.006841744316948784,0.11666666666666667,0.3196428571428571,-0.0016783820258246527,-3.4056612425537125,-0.4614130430908219,41.57196807861328,-0.07842229207356771,-0.02349111768934462
4177,-0.07836382612304678,0.15937503814697265,87.31675720214844,96.58423614501953,-2.0069007873535156,85.49600219726562,-0.006841744316948784,0.11166666666666666,0.32035714285714284,-0.001495361328125,-2.812416689941408,0.17577600479125977,41.57196807861328,-0.10297198825412326,-0.027810033162434897
4178,-0.1408638261230468,0.15937503814697265,87.39859008789062,90.18087768554688,-0.9840011596679688,86.08927917480469,-0.0066144307454427086,0.109,0.32035714285714284,-0.004760572645399305,-2.7245279722900406,1.0986000299453735,41.57196807861328,-0.030914306640625,-0.023036448160807292
4179,-0.1564888261230468,0.17929691314697266,88.0123291015625,89.97630310058594,-1.495452880859375,86.53935241699219,-0.006841744316948784,0.106,0.32035714285714284,-0.006133863661024305,-2.4388929777832047,0.19774800539016724,41.57196807861328,-0.02182193332248264,-0.03372005886501736
4180,-0.10180132612304678,0.239062557220459,87.15309143066406,89.97630310058594,-1.4749946594238281,86.559814453125,-0.007069057888454861,0.10233333333333333,0.32,-0.004516432020399305,-2.933262484619142,0.3954960107803345,42.538761138916016,-0.0313690185546875,-0.033720101250542533
4181,-0.10570757612304678,0.239062557220459,86.90760040283203,90.93782806396484,-2.8252220153808594,88.42149353027344,-0.006841744316948784,0.099,0.3192857142857143,-0.004485914442274305,-3.284815447875978,-0.2636648588867203,42.538761138916016,-0.04478030734592014,-0.06940795050726997
4182,-0.1291450761230468,0.219140682220459,87.93049621582031,90.28317260742188,-2.8252220153808594,87.45996856689453,-0.006841744316948784,0.096,0.31892857142857145,-0.005584547254774305,-4.020876544067384,0.1538040041923523,42.538761138916016,-0.026140848795572918,-0.0587243398030599
4183,-0.19164504834526908,0.19921878814697266,87.88958740234375,90.13996887207031,-0.45209503173828125,85.72103881835938,-0.006841744316948784,0.093,0.31892857142857145,-0.009246571858723959,-3.7352415495605484,-0.3185945921630875,42.538761138916016,-0.02500423855251736,-0.013034820556640625
4184,-0.17992629834526908,0.219140682220459,85.76194763183594,88.1146240234375,-2.8865966796875,87.91004180908203,-0.006841744316948784,0.08966666666666667,0.32,-0.01034511990017361,-2.6586119108886734,-0.834936755249025,42.538761138916016,-0.026140848795572918,-0.06440709431966146
4185,-0.18383254834526908,0.19921878814697266,85.82332611083984,88.83065795898438,-2.7843055725097656,86.53935241699219,-0.006841744316948784,0.085,0.3196428571428571,-0.01086391872829861,-3.229883807250978,-0.5273291044921891,42.538761138916016,-0.033414798312717015,-0.04804064432779948
4186,-0.1486763261230468,0.19921878814697266,86.78485107421875,89.17843627929688,-2.354686737060547,86.58027648925781,-0.006841744316948784,0.08233333333333333,0.32,-0.008910878499348959,-3.4715773039550797,-0.13183273608398594,42.538761138916016,-0.02659539116753472,-0.04372181362575955
4187,-0.1291450761230468,0.219140682220459,86.49844360351562,90.50820922851562,-2.8047637939453125,86.33477783203125,-0.006841744316948784,0.07866666666666666,0.3196428571428571,-0.008453114827473959,-3.0541082792968766,-0.9887415343017594,42.538761138916016,-0.04455295138888889,-0.04599490695529514
4188,-0.09008257612304678,0.219140682220459,86.76439666748047,89.0761489868164,-2.6615562438964844,85.72103881835938,-0.006841744316948784,0.07533333333333334,0.3192857142857143,-0.006591627332899305,-2.790444033691408,-1.2194467955322281,42.538761138916016,-0.025686136881510415,-0.03758438958062066
4189,-0.07836382612304678,0.19921878814697266,86.559814453125,89.79217529296875,-2.8252220153808594,86.47798156738281,-0.006841744316948784,0.07266666666666667,0.31857142857142856,-0.005950758192274305,-2.263117449829103,-1.3512789183349625,42.538761138916016,-0.03591512044270833,-0.04781337314181858
4190,-0.07445757612304678,0.17929691314697266,86.39614868164062,88.40103149414062,-2.8865966796875,86.98943328857422,-0.006841744316948784,0.06933333333333333,0.31785714285714284,-0.006133863661024305,-2.2850881987304703,-0.5822588377685562,42.538761138916016,-0.022276475694444443,-0.054178110758463544
4191,-0.09789507612304678,0.15937503814697265,87.80775451660156,89.81263732910156,-2.7843055725097656,87.03034973144531,-0.006841744316948784,0.06633333333333333,0.3171428571428571,-0.007842763264973959,-2.537766116210939,0.2856360077857971,42.538761138916016,-0.022276475694444443,-0.053496170043945315
4192,-0.10570757612304678,0.15937503814697265,86.86668395996094,88.87156677246094,-3.1525497436523438,87.93049621582031,-0.006841744316948784,0.06366666666666666,0.3171428571428571,-0.0075070699055989586,-3.273829119750978,0.48338401317596436,42.538761138916016,-0.022276475694444443,-0.06758939954969619
4193,-0.11352007612304678,0.15937503814697265,87.15309143066406,90.0172119140625,-3.1730079650878906,87.15309143066406,-0.006841744316948784,0.059333333333333335,0.3175,-0.007873280843098959,-4.251581805297853,0.7690200209617615,41.13251876831055,-0.03182356092664931,-0.0591788821750217
4194,-0.1408638261230468,0.19921878814697266,86.23248291015625,88.42149353027344,-3.254840850830078,86.70301818847656,-0.006841744316948784,0.05566666666666667,0.3182142857142857,-0.01022304958767361,-4.32848419482422,0.4723980128765106,40.42940139770508,-0.024322340223524305,-0.05508732265896267
4195,-0.1408638261230468,0.19921878814697266,85.47554016113281,88.54424285888672,-2.354686737060547,86.37569427490234,-0.006841744316948784,0.051333333333333335,0.31892857142857145,-0.01071133083767361,-4.196652072021486,0.6042300462722778,40.25362014770508,-0.03409669664171007,-0.041448677910698783
4196,-0.16430129834526908,0.17929691314697266,89.28073120117188,87.97142028808594,-2.272857666015625,85.25050354003906,-0.006841744316948784,0.04733333333333333,0.31892857142857145,-0.01028408474392361,-3.0760809355468766,1.4171940088272095,39.98994827270508,0.014547899034288195,-0.02803734673394097
4197,-0.1525825761230468,0.17929691314697266,90.1604232788086,92.06301879882812,-2.0478172302246094,86.0688247680664,-0.006841744316948784,0.042333333333333334,0.31857142857142856,-0.008636220296223959,-3.0541082792968766,0.8129640221595764,39.98994827270508,-0.021139950222439235,-0.03462935553656684
4198,-0.1447700761230468,0.13945316314697265,85.39370727539062,88.58515930175781,-2.354686737060547,86.27340698242188,-0.006841744316948784,0.03966666666666667,0.31857142857142856,-0.006011793348524305,-3.262842791625978,-0.9008528166503922,39.98994827270508,-0.035460578070746526,-0.04031215243869358
4199,-0.1291450761230468,0.15937503814697265,84.39126586914062,88.13508605957031,-2.6206436157226562,85.90515899658203,-0.006841744316948784,0.035666666666666666,0.3182142857142857,-0.007201978895399305,-3.207913058349611,-0.834936755249025,39.98994827270508,-0.041598002115885414,-0.03917558458116319
4200,-0.11352007612304678,0.15937503814697265,84.37080383300781,87.74638366699219,-2.4569778442382812,85.94607543945312,-0.006841744316948784,0.03133333333333333,0.31785714285714284,-0.006744215223524305,-3.6912962370605484,-0.05493034655761875,36.91379928588867,-0.03750644259982639,-0.03781170315212674
4201,-0.11742632612304678,0.15937503814697265,87.39859008789062,91.0810317993164,-2.641101837158203,85.5982894897461,-0.006841744316948784,0.027333333333333334,0.3171428571428571,-0.006988355848524305,-3.185940402099611,1.4171940088272095,35.6833381652832,-0.04091601901584201,-0.0359932369656033
4202,-0.1525825761230468,0.15937503814697265,88.23736572265625,91.0196533203125,-2.2933120727539062,86.23248291015625,-0.006841744316948784,0.023333333333333334,0.3157142857142857,-0.007934315999348959,-3.0321375303955094,0.6921180486679077,35.6833381652832,-0.030914306640625,-0.03917549981011285
4203,-0.1252388261230468,0.15937503814697265,86.0074462890625,88.95339965820312,-2.6615562438964844,86.559814453125,-0.006841744316948784,0.018666666666666668,0.3132142857142857,-0.006072828504774305,-2.834389346191408,-0.08788933093261875,33.573978424072266,-0.03273281521267361,-0.04690411885579427
4204,-0.09398882612304678,0.15937503814697265,88.03279113769531,91.10148620605469,-2.9888877868652344,87.05081176757812,-0.006841744316948784,0.015333333333333332,0.3107142857142857,-0.004577467176649305,-2.2850881987304703,-0.2526785307617203,31.552509307861328,-0.034096611870659724,-0.05599666171603733
4205,-0.09398882612304678,0.15937503814697265,86.5188980102539,93.1677474975586,-3.1730079650878906,84.82088470458984,-0.006841744316948784,0.010666666666666666,0.30642857142857144,-0.004913160536024305,-1.4940973692626969,-0.16478981311035312,29.179479598999023,-0.07387610541449653,-0.033265474107530384
4206,-0.10570757612304678,0.15937503814697265,88.54424285888672,91.83798217773438,-0.8817138671875,83.77752685546875,-0.006841744316948784,0.007666666666666666,0.3032142857142857,-0.005737135145399305,-0.7250772886962906,-0.7140909605712906,28.56424903869629,-0.03659710354275174,0.0037862141927083332
4207,-0.07836382612304678,0.13945316314697265,88.50332641601562,90.59004211425781,-1.2908706665039062,83.4501953125,-0.0066144307454427086,0.0033333333333333335,0.2975,-0.0034178839789496527,0.5383139848709106,-1.7028299742431656,28.388469696044922,-0.02318572998046875,0.002877044677734375
4208,0.04663617387695322,0.13945316314697265,88.1555404663086,88.05325317382812,1.9619483947753906,81.19981384277344,-0.0066144307454427086,0.0,0.29392857142857143,0.004058668348524305,1.4611380100250244,-1.4062086516113297,28.300579071044922,0.0011365254720052083,0.06402371724446615
4209,0.07397992387695322,0.15937503814697265,82.20226287841797,92.0834732055664,4.294162750244141,79.23585510253906,-0.006841744316948784,-0.0026666666666666666,0.2882142857142857,0.006652662489149305,2.7904441356658936,-2.219172137329103,28.300579071044922,-0.10979122585720485,0.11175897386338976
4210,0.08569867387695322,0.13945316314697265,89.99675750732422,87.88958740234375,4.805610656738281,80.93386840820312,-0.0066144307454427086,-0.0023333333333333335,0.2842857142857143,0.005218336317274305,2.8783321380615234,-0.7909933500976578,28.300579071044922,0.023413001166449652,0.09857491387261284
4211,0.00757367387695322,0.13945316314697265,90.79461669921875,91.96072387695312,3.8850021362304688,78.66302490234375,-0.0066144307454427086,-0.0013333333333333333,0.27785714285714286,0.0016173468695746527,3.131010055541992,-0.03295769030761875,28.300579071044922,-0.012956746419270833,0.11357752482096355
4212,-0.019770076123046782,0.1195312786102295,78.78577423095703,85.33233642578125,2.7393531799316406,76.08531951904297,-0.0066144307454427086,0.0,0.2742857142857143,-0.0,3.867072105407715,-3.185940402099611,28.300579071044922,-0.07273957994249132,0.12948926289876303
