,WD,WS,AIL_1,AIL_2,ELEV_1,ELEV_2,RUDD,ALT,GS,TH,PTCH,ROLL,PLA_1,AIL,ELEV
4274,0.07381606143663196,0.7171876525878906,87.70545959472656,89.567138671875,-3.5412521362304688,87.62362670898438,-0.0066144307454427086,0.6146666666666667,0.38142857142857145,0.02688518100314672,0.19774800539016724,-3.6583391600341812,30.322050094604492,-0.020685323079427085,-0.06849865383572049
4275,0.06990981143663196,0.6972657775878907,87.74638366699219,89.91493225097656,-3.8072052001953125,88.25782775878906,-0.0066144307454427086,0.615,0.3782142857142857,0.023314730326334656,-0.10986007983398594,-3.6583391600341812,30.322050094604492,-0.024094984266493057,-0.0785003662109375
4276,0.06990981143663196,0.7171876525878906,86.21202850341797,80.17691802978516,-4.339115142822266,88.38057708740234,-0.0066144307454427086,0.6143333333333333,0.3717857142857143,0.02081237369113498,-0.6481748991699234,-2.4608656340332047,30.322050094604492,0.06705678304036458,-0.08577435811360677
4277,0.07381606143663196,0.7171876525878906,86.0688247680664,87.09172058105469,-5.3620147705078125,89.77172088623047,-0.0066144307454427086,0.6143333333333333,0.3678571428571429,0.02087340884738498,-1.4062086516113297,0.17577600479125977,30.322050094604492,-0.011365509033203125,-0.11259706285264758
4278,0.05819106143663196,0.6773439025878907,86.43707275390625,88.44195556640625,-5.136974334716797,90.44683837890625,-0.0066144307454427086,0.6146666666666667,0.3607142857142857,0.017302958170572917,-2.581711428710939,1.6698720455169678,30.322050094604492,-0.022276475694444443,-0.11759791904025607
4279,0.04647231143663196,0.6574220275878906,86.35523986816406,89.36256408691406,-5.055145263671875,89.26026916503906,-0.0066144307454427086,0.614,0.3575,0.015960205925835504,-2.537766116210939,1.4171940088272095,30.322050094604492,-0.03341471354166667,-0.10350460476345485
4280,0.05037856143663196,0.7171876525878906,88.78973388671875,91.77660369873047,-4.707359313964844,88.58515930175781,-0.0066144307454427086,0.6116666666666667,0.3525,0.018248960706922744,-2.0873400145263687,-0.6371885710449234,30.322050094604492,-0.03318744235568576,-0.09213909573025174
4281,0.06990981143663196,0.6972657775878907,84.14576721191406,84.63676452636719,-4.932395935058594,89.50576782226562,-0.006841744316948784,0.6103333333333333,0.3489285714285714,0.02038512759738498,-1.7028299742431656,-2.6695982390136734,30.322050094604492,-0.005455525716145834,-0.10486848619249133
4282,0.06600356143663196,0.7371095275878906,87.37813568115234,90.81507873535156,-4.686901092529297,88.50332641601562,-0.0066144307454427086,0.608,0.3439285714285714,0.018493101331922744,-2.7355143004150406,-1.0436712675781266,30.322050094604492,-0.0381882561577691,-0.09100252787272135
4283,0.05037856143663196,0.7171876525878906,85.557373046875,86.49844360351562,-5.566593170166016,89.6080551147461,-0.006841744316948784,0.606,0.3410714285714286,0.014159732394748263,-2.6146685057373062,-0.20873512561035312,28.388469696044922,-0.010456339518229166,-0.11305164761013455
4284,0.06209731143663196,0.6972657775878907,86.49844360351562,89.03523254394531,-4.11407470703125,87.95095825195312,-0.0066144307454427086,0.6033333333333334,0.3364285714285714,0.016631592644585504,-3.196926730224611,0.41746801137924194,24.69709014892578,-0.028186543782552084,-0.0785003662109375
4285,0.06600356143663196,0.6972657775878907,85.80287170410156,90.09904479980469,-4.154991149902344,88.33966064453125,-0.0066144307454427086,0.6003333333333334,0.3342857142857143,0.01751656002468533,-2.4059339934082047,0.8678940534591675,24.69709014892578,-0.04773525661892361,-0.08327390882703993
4286,0.06209731143663196,0.7171876525878906,87.1121826171875,89.6080551147461,-4.339115142822266,89.17843627929688,-0.004795964558919271,0.5963333333333334,0.33071428571428574,0.01769966549343533,-2.537766116210939,1.252403974533081,24.69709014892578,-0.02773191663953993,-0.09463946024576823
4287,0.05819106143663196,0.6972657775878907,86.64164733886719,88.21691131591797,-4.134532928466797,87.97142028808594,-0.0066144307454427086,0.5926666666666667,0.32857142857142857,0.017211405436197917,-3.493548052856447,1.5709980726242065,24.69709014892578,-0.017502933078342015,-0.07895503573947482
4288,0.05428481143663196,0.7371095275878906,84.96409606933594,86.96897888183594,-4.175449371337891,88.83065795898438,-0.0066144307454427086,0.5876666666666667,0.32571428571428573,0.018187925550672744,-3.4386183195800797,1.0107120275497437,24.69709014892578,-0.022276475694444443,-0.08895674811469184
4289,0.06600356143663196,0.7371095275878906,88.03279113769531,90.18087768554688,-4.11407470703125,88.31919860839844,-0.0066144307454427086,0.582,0.32357142857142857,0.02075133853488498,-3.3177725249023453,1.5600121021270752,24.69709014892578,-0.023867628309461805,-0.08259192572699653
4290,0.06209731143663196,0.7371095275878906,87.19401550292969,88.62606811523438,-3.3366737365722656,87.48042297363281,-0.0066144307454427086,0.5776666666666667,0.32071428571428573,0.021483739217122415,-3.4825636320800797,0.790992021560669,24.69709014892578,-0.015911695692274304,-0.06463440789116753
4291,0.05819106143663196,0.6972657775878907,88.6669921875,91.46973419189453,-3.500335693359375,87.5213394165039,-0.0066144307454427086,0.5716666666666667,0.3196428571428571,0.021025975545247395,-2.6695982390136734,1.4391660690307617,24.69709014892578,-0.031141577826605902,-0.06690750122070313
4292,0.04256606143663196,0.6972657775878907,88.42149353027344,91.36744689941406,-3.4389610290527344,87.86912536621094,-0.0066144307454427086,0.5666666666666667,0.3175,0.01800484127468533,-2.9772058897705094,0.29662200808525085,24.69709014892578,-0.03273281521267361,-0.07008984883626303
4293,0.04256606143663196,0.7171876525878906,87.93049621582031,90.48774719238281,-3.3775863647460938,87.562255859375,-0.0066144307454427086,0.5613333333333334,0.31607142857142856,0.01782173580593533,-3.251856463500978,-1.4721247130126969,24.69709014892578,-0.028413899739583335,-0.06599824693467882
4294,0.03475356143663196,0.7171876525878906,84.84133911132812,85.65966796875,-2.9888877868652344,86.86668395996094,-0.0066144307454427086,0.5566666666666666,0.3142857142857143,0.015044720967610677,-2.801430361816408,-0.6591612272949234,24.69709014892578,-0.009092542860243056,-0.053950797186957465
4295,0.03084731143663196,0.7171876525878906,87.03034973144531,90.09904479980469,-3.0502586364746094,87.37813568115234,-0.0066144307454427086,0.5513333333333333,0.31285714285714283,0.013335778978135851,-2.4608656340332047,0.09887400269508362,24.69709014892578,-0.034096611870659724,-0.06031549241807726
4296,0.03475356143663196,0.6773439025878907,86.84622192382812,88.27828979492188,-2.8252220153808594,87.50088500976562,-0.0066144307454427086,0.5463333333333333,0.3107142857142857,0.014373355441623263,-2.4169203215332047,-0.01098694140625156,24.69709014892578,-0.015911865234375,-0.05917896694607205
4297,0.04256606143663196,0.6773439025878907,86.84622192382812,88.19645690917969,-2.4569778442382812,86.35523986816406,-0.006387117173936632,0.5423333333333333,0.30892857142857144,0.01556349860297309,-1.9774805479736344,-0.5712725096435562,24.69709014892578,-0.015002610948350694,-0.04235797458224826
4298,0.05428481143663196,0.6972657775878907,86.82576751708984,88.23736572265625,-2.5592689514160156,86.78485107421875,-0.0066144307454427086,0.5376666666666666,0.30714285714285716,0.017302958170572917,-1.2524038725585953,-0.6042314940185562,25.575990676879883,-0.015684424506293402,-0.04826800028483073
4299,0.05819106143663196,0.7171876525878906,86.82576751708984,88.25782775878906,-2.5592689514160156,86.88714599609375,-0.0066144307454427086,0.533,0.305,0.018645689222547744,-1.2194467955322281,-0.21972145373535312,28.827919006347656,-0.015911780463324653,-0.049404610527886285
4300,0.06990981143663196,0.7171876525878906,86.84622192382812,88.44195556640625,-2.6206436157226562,87.0098876953125,-0.0066144307454427086,0.529,0.3003571428571429,0.021056493123372415,-0.6042314940185562,0.0,31.46462059020996,-0.017730373806423613,-0.051450347900390624
4301,0.07381606143663196,0.7171876525878906,87.21446990966797,88.89202880859375,-3.520793914794922,88.6669921875,-0.0066144307454427086,0.5263333333333333,0.29678571428571426,0.02215510474310983,-1.3402925902099625,1.5160679817199707,33.13452911376953,-0.01863954332139757,-0.07986429002549914
4302,0.06209731143663196,0.6972657775878907,88.29874420166016,90.69232940673828,-3.9299545288085938,89.28073120117188,-0.0066144307454427086,0.5253333333333333,0.29178571428571426,0.02004945543077257,-2.3290335112304703,2.3949480056762695,34.277099609375,-0.02659539116753472,-0.09122984144422742
4303,0.04647231143663196,0.6972657775878907,87.78729248046875,90.91737365722656,-3.8890380859375,88.99431610107422,-0.006841744316948784,0.5233333333333333,0.28785714285714287,0.018126890394422744,-3.251856463500978,0.9338099956512451,35.8591194152832,-0.03477867974175347,-0.08759282430013021
4304,0.06209731143663196,0.6972657775878907,87.37813568115234,88.81019592285156,-4.298198699951172,88.564697265625,-0.0066144307454427086,0.523,0.2825,0.022368706597222242,-3.2957998686523453,-0.7360617094726578,37.79269790649414,-0.015911780463324653,-0.08736551072862413
4305,0.07381606143663196,0.6972657775878907,87.33721923828125,88.36012268066406,-3.7662887573242188,89.13752746582031,-0.0066144307454427086,0.5196666666666667,0.2789285714285714,0.024504873487684483,-3.6253801756591812,-0.3405672484130875,39.11104965209961,-0.011365593804253473,-0.08782018025716146
4306,0.06990981143663196,0.7171876525878906,87.37813568115234,89.19889831542969,-3.11163330078125,87.64408874511719,-0.0066144307454427086,0.5156666666666667,0.27535714285714286,0.022856987847222242,-3.6583391600341812,0.41746801137924194,40.42940139770508,-0.02023069593641493,-0.0639524671766493
4307,0.05037856143663196,0.6972657775878907,87.70545959472656,90.24225616455078,-2.743389129638672,87.35768127441406,-0.0066144307454427086,0.5133333333333333,0.27285714285714285,0.018859291076660158,-2.9991785460205094,0.7031040191650391,41.48408126831055,-0.02818662855360243,-0.056678560045030385
4308,0.04256606143663196,0.7171876525878906,87.41905212402344,88.52378845214844,-2.702472686767578,87.33721923828125,-0.0066144307454427086,0.5103333333333333,0.27035714285714285,0.01745552486843533,-1.9005781584472672,0.9008520245552063,42.97821044921875,-0.012274848090277778,-0.05599657694498698
4309,0.03084731143663196,0.6773439025878907,87.84866333007812,90.38545989990234,-2.6820144653320312,87.72592163085938,-0.0066144307454427086,0.5066666666666667,0.26821428571428574,0.014770062764485677,-1.0107122832031266,0.6701459884643555,43.76921844482422,-0.02818662855360243,-0.06008817884657118
4310,0.03865981143663196,0.6773439025878907,87.17355346679688,88.21691131591797,-3.2343826293945312,87.97142028808594,-0.0066144307454427086,0.5036666666666667,0.26535714285714285,0.016479004753960504,-0.8898664885253922,-0.5822588377685562,43.76921844482422,-0.011592864990234375,-0.06895336574978299
4311,0.05037856143663196,0.6574220275878906,87.21446990966797,88.6056137084961,-3.132091522216797,88.78973388671875,-0.006841744316948784,0.501,0.2639285714285714,0.018737241956922744,-2.6586119108886734,-0.9557825499267594,43.76921844482422,-0.0154571533203125,-0.07690917121039496
4312,0.05037856143663196,0.5976564025878907,86.15065002441406,87.0098876953125,-2.0069007873535156,88.29874420166016,-0.0066144307454427086,0.49933333333333335,0.26321428571428573,0.016814676920572917,-3.987919467041017,-1.6259294920654312,43.76921844482422,-0.009547085232204862,-0.058951610989040795
4313,0.04647231143663196,0.5578126525878906,86.19157409667969,87.1121826171875,-1.8023223876953125,86.53935241699219,-0.0066144307454427086,0.495,0.2639285714285714,0.014251285129123263,-3.262842791625978,-1.7797323637695328,43.76921844482422,-0.010228983561197917,-0.037129720052083336
4314,0.03084731143663196,0.5378907394409179,86.19157409667969,88.0737075805664,-1.7409477233886719,86.62118530273438,-0.0066144307454427086,0.492,0.265,0.008880339728461372,-2.845373766967775,-1.0546575957031266,45.17546081542969,-0.020912594265407987,-0.03735703362358941
4315,0.01522231143663196,0.5578126525878906,85.61874389648438,87.21446990966797,-1.331787109375,86.08927917480469,-0.0066144307454427086,0.487,0.26571428571428574,0.005218357510036893,-2.197201388427736,-0.9557825499267594,46.66958999633789,-0.017730289035373263,-0.026900736490885417
4316,0.02303481143663196,0.5777345275878907,85.5982894897461,86.04837036132812,-1.2908706665039062,86.47798156738281,-0.0066144307454427086,0.48233333333333334,0.2667857142857143,0.005645582411024305,-1.7687460356445328,-0.13183273608398594,48.075828552246094,-0.00500089857313368,-0.030765024820963542
4317,0.01131606143663196,0.5777345275878907,85.72103881835938,88.1555404663086,-1.2704124450683594,86.13019561767578,-0.0066144307454427086,0.47933333333333333,0.2675,0.0029906378851996527,-1.0656420164794937,0.4284540116786957,49.13050842285156,-0.027050018310546875,-0.02667342291937934
4318,0.02694106143663196,0.5976564025878907,85.72103881835938,87.17355346679688,-1.2704124450683594,86.70301818847656,-0.0066144307454427086,0.47533333333333333,0.26821428571428574,0.0072019365098741316,-0.04394401843261875,-0.5492998533935562,49.13050842285156,-0.016139051649305555,-0.03303811815049913
4319,0.05428481143663196,0.5976564025878907,87.0098876953125,88.36012268066406,-1.2704124450683594,87.0712661743164,-0.0066144307454427086,0.4716666666666667,0.2689285714285714,0.012267706129286024,-0.06591667468261875,0.41746801137924194,49.13050842285156,-0.015002610948350694,-0.03712976243760851
4320,0.03084731143663196,0.6375001525878906,87.68500518798828,90.569580078125,-1.2908706665039062,87.05081176757812,-0.0066144307454427086,0.4686666666666667,0.2689285714285714,0.007690196567111545,-0.2746511870117203,1.0766279697418213,49.13050842285156,-0.032050832112630205,-0.03712980482313368
4321,0.01522231143663196,0.6574220275878906,84.94363403320312,84.22760009765625,-1.3727035522460938,86.86668395996094,-0.0066144307454427086,0.4673333333333333,0.26821428571428574,0.004943699306911893,-0.02197326953125156,0.9228240251541138,49.13050842285156,0.0079559326171875,-0.035993194580078124
4322,0.03865981143663196,0.6574220275878906,89.28073120117188,91.51065063476562,-1.3727035522460938,87.19401550292969,-0.0066144307454427086,0.4646666666666667,0.2671428571428571,0.010894457499186197,0.747048020362854,1.1425440311431885,49.13050842285156,-0.024776882595486112,-0.03963021172417535
4323,0.05819106143663196,0.5976564025878907,86.33477783203125,88.33966064453125,-1.2704124450683594,87.50088500976562,-0.0066144307454427086,0.46266666666666667,0.26571428571428574,0.01550246344672309,0.9557820558547974,-0.4723993712158219,49.13050842285156,-0.022276475694444443,-0.04190330505371094
4324,0.05819106143663196,0.5578126525878906,86.29386138916016,88.99431610107422,-1.1885833740234375,87.33721923828125,-0.0066144307454427086,0.4613333333333333,0.2642857142857143,0.014098697238498263,0.8678940534591675,-0.5492998533935562,49.13050842285156,-0.030005052354600693,-0.03917558458116319
4325,0.02303481143663196,0.5179688644409179,87.43951416015625,89.99675750732422,-0.943084716796875,86.70301818847656,-0.006841744316948784,0.461,0.2639285714285714,0.005615064832899305,0.4284540116786957,0.8459219932556152,49.13050842285156,-0.028413814968532985,-0.029401143391927082
4326,-0.004308938563368041,0.49804698944091796,86.70301818847656,88.6669921875,-0.943084716796875,86.96897888183594,-0.006387117173936632,0.45966666666666667,0.2642857142857143,0.0011596255832248264,0.20873400568962097,-0.2746511870117203,49.13050842285156,-0.02182193332248264,-0.03235626220703125
4327,0.007409811436631959,0.49804698944091796,86.41661071777344,87.66455078125,-0.6566734313964844,86.80531311035156,-0.0066144307454427086,0.4563333333333333,0.2646428571428571,0.0030516730414496527,-0.5492998533935562,-0.7580343657226578,50.27307891845703,-0.013866000705295138,-0.027355406019422743
4328,0.03084731143663196,0.478125114440918,86.82576751708984,87.66455078125,-0.6362152099609375,86.82576751708984,-0.006387117173936632,0.45366666666666666,0.26607142857142857,0.006530570983886719,-0.9228254729003922,0.7580339908599854,50.62464141845703,-0.009319814046223958,-0.02735536363389757
4329,0.007409811436631959,0.45820323944091795,87.15309143066406,89.44439697265625,-0.4316368103027344,86.1097412109375,-0.006841744316948784,0.45166666666666666,0.2675,0.0033568276299370658,-0.4614130430908219,2.5597381591796875,50.62464141845703,-0.025458950466579863,-0.017126422458224825
4330,-0.02384018856336804,0.478125114440918,87.13264465332031,88.36012268066406,-0.18613815307617188,86.5188980102539,-0.0066144307454427086,0.4483333333333333,0.2689285714285714,-0.0001220703125,-0.4394403868408219,3.1090381145477295,50.712528228759766,-0.013638644748263888,-0.01894484625922309
4331,-0.01993393856336804,0.438281364440918,87.93049621582031,88.72836303710938,-1.6181983947753906,86.1097412109375,-0.0066144307454427086,0.446,0.27071428571428574,0.0029906378851996527,-0.03295769030761875,2.2301580905914307,51.151981353759766,-0.008865186903211806,-0.030310440063476562
4332,-0.01212143856336804,0.438281364440918,87.70545959472656,90.1604232788086,-1.8841552734375,86.27340698242188,-0.0066144307454427086,0.44333333333333336,0.2725,0.006347465515136719,0.29662200808525085,1.9994521141052246,51.151981353759766,-0.027277374267578126,-0.03508402506510417
4333,-0.01212143856336804,0.41835948944091794,86.27340698242188,89.71034240722656,-1.7614059448242188,86.13019561767578,-0.0066144307454427086,0.44066666666666665,0.2735714285714286,0.007446055942111545,0.35155200958251953,0.2197200059890747,51.2398681640625,-0.03818817138671875,-0.03212890625
4334,-0.01212143856336804,0.41835948944091794,87.13264465332031,88.74882507324219,-1.9659843444824219,86.559814453125,-0.0066144307454427086,0.437,0.2764285714285714,0.0071714189317491316,-0.06591667468261875,-0.3295809202880875,51.2398681640625,-0.017957560221354165,-0.03917554219563802
4335,0.007409811436631959,0.45820323944091795,87.64408874511719,89.19889831542969,-1.6386566162109375,86.62118530273438,-0.0066144307454427086,0.43366666666666664,0.2775,0.009307585822211372,-0.7580343657226578,-1.153530734130861,51.2398681640625,-0.01727566189236111,-0.03622046576605903
4336,0.01522231143663196,0.41835948944091794,88.33966064453125,90.93782806396484,-1.945526123046875,86.41661071777344,-0.0066144307454427086,0.432,0.27964285714285714,0.010192574395073786,-0.3735243254394547,-0.4504267149658219,51.2398681640625,-0.028868526882595485,-0.03735707600911458
4337,0.01131606143663196,0.45820323944091795,85.0050048828125,89.99675750732422,-2.497894287109375,87.80775451660156,-0.0066144307454427086,0.42966666666666664,0.2810714285714286,0.008514149983723959,0.032958000898361206,-0.7909933500976578,51.2398681640625,-0.055463918050130206,-0.058951653374565975
4338,0.01131606143663196,0.41835948944091794,85.70057678222656,87.74638366699219,-2.0273590087890625,87.62362670898438,-0.0066144307454427086,0.427,0.28285714285714286,0.008239491780598959,-0.834936755249025,-0.3735243254394547,51.2398681640625,-0.022731187608506946,-0.05167761908637153
4339,0.01131606143663196,0.39843757629394533,89.44439697265625,90.28317260742188,-2.4569778442382812,87.13264465332031,-0.0066144307454427086,0.42433333333333334,0.2839285714285714,0.007995372348361545,-1.0656420164794937,0.08788800239562988,51.2398681640625,-0.009319729275173612,-0.05099580552842882
4340,0.01131606143663196,0.438281364440918,84.69813537597656,88.81019592285156,-2.497894287109375,87.72592163085938,-0.0066144307454427086,0.4226666666666667,0.2864285714285714,0.0073850419786241316,-1.516068118164064,0.373524010181427,51.2398681640625,-0.045689561631944445,-0.05804239908854167
4341,0.00350356143663196,0.41835948944091794,88.38057708740234,90.99920654296875,-2.5388107299804688,87.37813568115234,-0.0066144307454427086,0.419,0.2875,0.0072019365098741316,-2.197201388427736,1.2414180040359497,51.2398681640625,-0.029095882839626736,-0.05463273790147569
4342,0.01131606143663196,0.39843757629394533,89.1170654296875,91.77660369873047,-2.702472686767578,87.99187469482422,-0.0066144307454427086,0.417,0.29,0.009368620978461372,-2.241144793579103,0.8569080233573914,51.2398681640625,-0.02955042521158854,-0.06327052646213108
4343,0.01131606143663196,0.41835948944091794,84.35034942626953,84.57539367675781,-2.6820144653320312,87.93049621582031,-0.0066144307454427086,0.4126666666666667,0.29178571428571426,0.009277068244086372,-2.0433966093750016,-1.1974741392822281,51.2398681640625,-0.002500491672092014,-0.0623612297905816
4344,0.007409811436631959,0.478125114440918,86.31431579589844,89.19889831542969,-2.477436065673828,87.76683807373047,-0.0066144307454427086,0.409,0.29428571428571426,0.0073240068223741316,-2.559738772460939,-2.0873400145263687,51.2398681640625,-0.03205091688368056,-0.05826971266004774
4345,0.007409811436631959,0.45820323944091795,85.25050354003906,86.0688247680664,-2.5797271728515625,87.70545959472656,-0.006387117173936632,0.4056666666666667,0.2960714285714286,0.005401441786024305,-2.6915708952636734,-1.3183199339599625,51.2398681640625,-0.009092458089192708,-0.058724297417534724
4346,-0.004308938563368041,0.438281364440918,85.78240966796875,88.78973388671875,-3.6230850219726562,89.13752746582031,-0.0066144307454427086,0.4026666666666667,0.2982142857142857,0.0030211554633246527,-3.0870672636718766,-0.09887375170898594,51.2398681640625,-0.03341471354166667,-0.0862290276421441
4347,-0.004308938563368041,0.438281364440918,86.74394226074219,89.40347290039062,-3.4594192504882812,88.50332641601562,-0.0066144307454427086,0.39966666666666667,0.3,0.0033263100518120658,-3.90003074938965,0.45042601227760315,51.2398681640625,-0.029550340440538194,-0.0773638407389323
4348,-0.01602768856336804,0.45820323944091795,86.74394226074219,89.2193603515625,-3.745830535888672,88.68744659423828,-0.006387117173936632,0.3963333333333333,0.3032142857142857,0.0015258365207248264,-4.218624728271486,0.5712720155715942,48.69105911254883,-0.02750464545355903,-0.0825919681125217
4349,-0.01602768856336804,0.478125114440918,86.90760040283203,89.34210205078125,-3.500335693359375,88.6669921875,-0.0066144307454427086,0.393,0.30428571428571427,0.0019530614217122396,-4.800882952758791,0.0,47.987937927246094,-0.027050018310546875,-0.07963697645399305
4350,-0.01993393856336804,0.478125114440918,86.82576751708984,89.38301849365234,-3.5412521362304688,88.87156677246094,-0.0066144307454427086,0.389,0.3067857142857143,0.0005187776353624132,-4.932715075561525,-0.3845106535644547,46.054359436035156,-0.028413899739583335,-0.08236465454101563
4351,-0.02384018856336804,0.478125114440918,86.33477783203125,88.91248321533203,-3.500335693359375,88.25782775878906,-0.0066144307454427086,0.38466666666666666,0.3078571428571429,-0.0008544709947374132,-4.844826357910158,-1.0986010008544937,45.26335144042969,-0.028641170925564237,-0.07509070502387152
4352,-0.01993393856336804,0.45820323944091795,86.1097412109375,86.94851684570312,-3.479877471923828,88.6056137084961,-0.0066144307454427086,0.38,0.30857142857142855,-0.0011291080050998264,-4.570175784179689,-1.2524038725585953,44.99967956542969,-0.009319729275173612,-0.07872767978244358
4353,-0.01212143856336804,0.478125114440918,86.13019561767578,88.09416198730469,-3.4594192504882812,88.6056137084961,-0.0066144307454427086,0.37566666666666665,0.30857142857142855,-0.0005492952134874132,-4.537218707153322,-1.0986010008544937,44.99967956542969,-0.02182184855143229,-0.0785003662109375
4354,-0.0004026885633680403,0.45820323944091795,87.78729248046875,86.62118530273438,-3.4389610290527344,88.91248321533203,-0.0066144307454427086,0.372,0.30892857142857144,0.0003967073228624132,-4.581162112304689,0.5712720155715942,44.99967956542969,0.012956746419270833,-0.0816827138264974
4355,-0.004308938563368041,0.45820323944091795,91.2242431640625,92.574462890625,-3.132091522216797,87.6031723022461,-0.0066144307454427086,0.368,0.3092857142857143,0.0008544709947374132,-4.108765261718752,0.3405660092830658,44.99967956542969,-0.01500244140625,-0.06372515360514323
4356,0.01131606143663196,0.478125114440918,83.69569396972656,85.557373046875,-3.520793914794922,88.91248321533203,-0.0066144307454427086,0.36433333333333334,0.31,0.0021972020467122396,-3.7572122984619156,-2.3729769163818375,44.91178894042969,-0.020685323079427085,-0.0825919681125217
4357,0.00350356143663196,0.41835948944091794,86.35523986816406,85.90515899658203,-3.3775863647460938,88.6056137084961,-0.0066144307454427086,0.362,0.30964285714285716,-0.0010070588853624133,-4.537218707153322,-1.0766283446044937,44.91178894042969,0.00500089857313368,-0.07759111192491319
4358,-0.004308938563368041,0.49804698944091796,84.14576721191406,84.41172790527344,-3.500335693359375,88.95339965820312,-0.0066144307454427086,0.3576666666666667,0.3092857142857143,-0.0034178627861870658,-4.712994235107423,-0.7360617094726578,44.91178894042969,-0.0029551188151041665,-0.08281928168402777
4359,0.007409811436631959,0.45820323944091795,85.33233642578125,87.562255859375,-3.4389610290527344,88.6056137084961,-0.0066144307454427086,0.353,0.30964285714285716,-0.0009460237291124132,-4.691023486206056,0.8678940534591675,44.91178894042969,-0.024776882595486112,-0.07827305263943142
4360,0.01131606143663196,0.3785157012939453,86.92805480957031,89.91493225097656,-3.295757293701172,88.1146240234375,-0.0066144307454427086,0.3506666666666667,0.31,-0.000274658203125,-4.3944002562255875,1.4721240997314453,44.91178894042969,-0.03318752712673611,-0.07122645907931857
4361,-0.0004026885633680403,0.45820323944091795,89.09660339355469,88.93293762207031,-3.254840850830078,88.19645690917969,-0.0066144307454427086,0.3453333333333333,0.3107142857142857,0.00018310546875,-3.7681986265869156,3.2848141193389893,44.03289031982422,0.001818508572048611,-0.07168108622233073
4362,-0.02384018856336804,0.39843757629394533,89.19889831542969,91.96072387695312,-3.0502586364746094,88.1555404663086,-0.0066144307454427086,0.3436666666666667,0.31107142857142855,-0.000213623046875,-3.867073672363283,1.6808580160140991,43.85710906982422,-0.03068695068359375,-0.06895332336425782
4363,-0.00821518856336804,0.438281364440918,83.42974090576172,86.76439666748047,-3.66400146484375,89.28073120117188,-0.0066144307454427086,0.33866666666666667,0.3107142857142857,0.0018615086873372396,-3.8011576109619156,-0.3845106535644547,43.85710906982422,-0.03705173068576389,-0.08827480740017361
4364,0.01912856143663196,0.41835948944091794,86.49844360351562,88.46240997314453,-3.357128143310547,88.68744659423828,-0.0066144307454427086,0.336,0.31,0.005431959364149305,-4.163694994995119,-0.10986007983398594,43.85710906982422,-0.02182184855143229,-0.07827305263943142
4365,0.01912856143663196,0.45820323944091795,87.76683807373047,90.09904479980469,-3.275299072265625,88.33966064453125,-0.006841744316948784,0.332,0.30964285714285716,0.005981275770399305,-4.042849200317384,0.6811320185661316,43.85710906982422,-0.02591340806749132,-0.07349955240885417
4366,0.00350356143663196,0.45820323944091795,86.23248291015625,90.30363464355469,-3.4594192504882812,88.46240997314453,-0.006841744316948784,0.3293333333333333,0.30964285714285716,0.0033263100518120658,-3.92200340563965,0.07690200209617615,43.85710906982422,-0.04523501925998264,-0.07690921359592014
4367,0.01522231143663196,0.45820323944091795,85.96653747558594,87.64408874511719,-3.479877471923828,88.93293762207031,-0.006841744316948784,0.3263333333333333,0.30892857142857144,0.005187839931911893,-4.196652072021486,0.32958000898361206,43.85710906982422,-0.018639458550347224,-0.08236461215549046
4368,0.02303481143663196,0.45820323944091795,86.72348022460938,89.03523254394531,-3.132091522216797,87.78729248046875,-0.0066144307454427086,0.3233333333333333,0.30857142857142855,0.0072324540879991316,-4.4163729124755875,1.1535300016403198,43.85710906982422,-0.025686136881510415,-0.06577093336317275
4369,0.01522231143663196,0.438281364440918,87.86912536621094,90.48774719238281,-3.132091522216797,88.58515930175781,-0.006387117173936632,0.32,0.3082142857142857,0.0069272783067491316,-4.559191363403322,1.1315580606460571,43.85710906982422,-0.02909579806857639,-0.07463612026638455
4370,0.01522231143663196,0.45820323944091795,89.58760070800781,91.53111267089844,-3.11163330078125,88.29874420166016,-0.0066144307454427086,0.31666666666666665,0.3078571428571429,0.007598643832736545,-4.31749786669922,0.6591600179672241,43.85710906982422,-0.021594577365451388,-0.0712264166937934
4371,0.007409811436631959,0.49804698944091796,85.31187438964844,87.76683807373047,-3.091175079345703,88.72836303710938,-0.0066144307454427086,0.31266666666666665,0.3075,0.006530570983886719,-4.240597384521486,-0.7580343657226578,43.85710906982422,-0.027277374267578126,-0.07577264573838975
4372,0.01912856143663196,0.478125114440918,86.31431579589844,86.84622192382812,-3.0502586364746094,88.68744659423828,-0.0066144307454427086,0.309,0.3067857142857143,0.0073240068223741316,-4.31749786669922,-0.801977770874025,43.85710906982422,-0.0059100680881076385,-0.07486339145236545
4373,0.02694106143663196,0.45820323944091795,84.94363403320312,85.70057678222656,-3.0502586364746094,88.0737075805664,-0.0066144307454427086,0.30533333333333335,0.30642857142857144,0.007781749301486545,-3.823128359863283,-0.6811319761962906,43.85710906982422,-0.008410474989149305,-0.0680440690782335
4374,0.03475356143663196,0.41835948944091794,86.13019561767578,86.37569427490234,-3.0707168579101562,88.97386169433594,-0.0066144307454427086,0.302,0.3057142857142857,0.007842784457736545,-3.7242552214355484,0.9118380546569824,43.85710906982422,-0.002727762858072917,-0.0782730950249566
4375,0.00350356143663196,0.438281364440918,88.6669921875,90.54912567138672,-3.0298004150390625,88.54424285888672,-0.0066144307454427086,0.29833333333333334,0.3057142857142857,0.004760593838161893,-4.130736010620119,2.592696189880371,43.85710906982422,-0.020912594265407987,-0.07304492526584201
4376,-0.02384018856336804,0.438281364440918,88.27828979492188,91.06057739257812,-2.9479713439941406,88.0123291015625,-0.0066144307454427086,0.296,0.3053571428571429,0.0024108250935872396,-4.240597384521486,1.4611380100250244,43.76921844482422,-0.030914306640625,-0.0662255605061849
4377,-0.01602768856336804,0.45820323944091795,86.45751953125,86.33477783203125,-3.0298004150390625,88.25782775878906,-0.006841744316948784,0.29233333333333333,0.3053571428571429,0.0038145913018120658,-3.8011576109619156,0.7580339908599854,43.76921844482422,0.0013637966579861111,-0.06986253526475694
4378,0.007409811436631959,0.39843757629394533,88.05325317382812,90.52867126464844,-3.0298004150390625,88.81019592285156,-0.0066144307454427086,0.2896666666666667,0.305,0.008208974202473959,-4.097778933593752,0.7690200209617615,43.76921844482422,-0.02750464545355903,-0.07599995930989584
4379,0.02303481143663196,0.41835948944091794,87.78729248046875,90.44683837890625,-2.907054901123047,88.52378845214844,-0.0066144307454427086,0.285,0.305,0.010833422342936197,-4.734966891357423,0.04394400119781494,43.76921844482422,-0.02955050998263889,-0.07145381503634983
4380,0.02694106143663196,0.45820323944091795,86.92805480957031,86.68256378173828,-2.477436065673828,87.58271789550781,-0.0066144307454427086,0.281,0.305,0.01104702419704861,-4.460316317626955,0.10986000299453735,43.85710906982422,0.0027276780870225696,-0.05622393290201823
4381,0.01131606143663196,0.49804698944091796,88.27828979492188,90.54912567138672,-2.518352508544922,87.62362670898438,-0.0066144307454427086,0.277,0.3053571428571429,0.008727773030598959,-3.8011576109619156,0.4284540116786957,43.85710906982422,-0.025231509738498265,-0.05713310241699219
4382,0.01912856143663196,0.5179688644409179,88.0737075805664,90.59004211425781,-2.6206436157226562,88.05325317382812,-0.0066144307454427086,0.273,0.30428571428571427,0.010375658671061197,-3.196926730224611,-0.07690300280761875,43.85710906982422,-0.02795927259657118,-0.06304329766167535
4383,0.02303481143663196,0.49804698944091796,89.93538665771484,90.75370788574219,-2.641101837158203,88.6056137084961,-0.0066144307454427086,0.2703333333333333,0.3032142857142857,0.01123012966579861,-3.4715773039550797,0.3185940086841583,43.85710906982422,-0.009092458089192708,-0.06940795050726997
4384,0.01131606143663196,0.5179688644409179,85.88470458984375,91.75614929199219,-2.641101837158203,88.19645690917969,-0.0066144307454427086,0.268,0.30214285714285716,0.009368620978461372,-3.493548052856447,-2.526779788085939,43.85710906982422,-0.06523827446831597,-0.06486176384819878
4385,0.03084731143663196,0.49804698944091796,82.36592102050781,81.79310607910156,-3.0502586364746094,89.23981475830078,-0.0066144307454427086,0.266,0.30142857142857143,0.009734810723198786,-4.240597384521486,-3.4715773039550797,43.85710906982422,0.006364610460069444,-0.08100081549750435
4386,0.03475356143663196,0.478125114440918,85.86424255371094,89.13752746582031,-3.1730079650878906,89.05569458007812,-0.0066144307454427086,0.26466666666666666,0.30107142857142855,0.008086925082736545,-4.899756091186525,-1.2633902006835953,43.85710906982422,-0.03636983235677083,-0.08031891716851128
4387,0.03475356143663196,0.49804698944091796,86.39614868164062,89.66943359375,-2.9888877868652344,88.85111236572266,-0.0066144307454427086,0.262,0.3007142857142857,0.007690196567111545,-4.965672152587892,-0.6152159147949234,43.85710906982422,-0.03636983235677083,-0.07600000169542101
4388,0.04256606143663196,0.49804698944091796,86.25294494628906,88.42149353027344,-2.9479713439941406,88.85111236572266,-0.0066144307454427086,0.25866666666666666,0.30107142857142855,0.008727773030598959,-4.822855609008791,-0.2307058745117203,43.85710906982422,-0.024094984266493057,-0.07554537455240885
4389,0.03475356143663196,0.49804698944091796,88.1555404663086,89.62850952148438,-2.8865966796875,88.64653015136719,-0.0066144307454427086,0.25533333333333336,0.3007142857142857,0.0069883134629991316,-5.031588213989259,0.13183200359344482,43.85710906982422,-0.016366322835286457,-0.07259029812282985
4390,0.01131606143663196,0.478125114440918,85.88470458984375,86.96897888183594,-2.8252220153808594,88.27828979492188,-0.0066144307454427086,0.25166666666666665,0.3003571428571429,0.0024718390570746527,-4.647078173706056,-0.12084640795898594,43.85710906982422,-0.012047492133246528,-0.0678167978922526
4391,0.007409811436631959,0.45820323944091795,84.80043029785156,84.80043029785156,-2.8252220153808594,88.50332641601562,-0.0066144307454427086,0.248,0.3003571428571429,0.0013122134738498264,-4.295527117797853,0.010986000299453735,43.85710906982422,0.0,-0.07031720479329427
4392,0.00350356143663196,0.41835948944091794,88.17599487304688,89.87400817871094,-2.5388107299804688,87.82821655273438,-0.0066144307454427086,0.24266666666666667,0.3003571428571429,0.0008239534166124132,-4.218624728271486,1.1645159721374512,43.76921844482422,-0.01886681450737847,-0.059633636474609376
4393,-0.01212143856336804,0.438281364440918,88.70790100097656,91.0196533203125,-2.088733673095703,87.35768127441406,-0.006387117173936632,0.23866666666666667,0.3003571428571429,-0.000274658203125,-3.90003074938965,1.6698720455169678,43.76921844482422,-0.025686136881510415,-0.049404610527886285
4394,-0.01993393856336804,0.438281364440918,88.19645690917969,89.58760070800781,-1.945526123046875,87.13264465332031,-0.0066144307454427086,0.23433333333333334,0.30107142857142855,-0.0008849885728624132,-3.1419969969482437,-0.6371885710449234,43.85710906982422,-0.0154571533203125,-0.04531300862630208
4395,-0.01212143856336804,0.45820323944091795,86.08927917480469,85.49600219726562,-2.088733673095703,88.46240997314453,-0.006387117173936632,0.23033333333333333,0.3007142857142857,-0.0007934358384874132,-2.856360095092775,-0.856909411499025,43.85710906982422,0.006591966417100695,-0.061679373847113715
4396,0.007409811436631959,0.5578126525878906,87.72592163085938,89.32164001464844,-2.1705665588378906,87.93049621582031,-0.0066144307454427086,0.226,0.29964285714285716,0.0019530614217122396,-2.790444033691408,0.2197200059890747,43.85710906982422,-0.017730204264322917,-0.05667847527398003
4397,-0.0004026885633680403,0.49804698944091796,88.97386169433594,91.67431640625,-2.8047637939453125,88.19645690917969,-0.0066144307454427086,0.22233333333333333,0.29892857142857143,0.0005492952134874132,-3.0211512022705094,0.5932440161705017,43.85710906982422,-0.030005052354600693,-0.06668023003472222
4398,0.01912856143663196,0.49804698944091796,87.35768127441406,88.46240997314453,-2.4569778442382812,88.0737075805664,-0.0066144307454427086,0.222,0.2978571428571429,0.004546991984049479,-3.6912962370605484,-0.9997259550781266,43.85710906982422,-0.01227476331922743,-0.06145206027560764
4399,0.03475356143663196,0.5179688644409179,88.52378845214844,88.87156677246094,-2.477436065673828,88.54424285888672,-0.0066144307454427086,0.22033333333333333,0.29714285714285715,0.006103324890136719,-3.7132688933105484,-0.6152159147949234,43.85710906982422,-0.0038642035590277777,-0.0669075436062283
4400,0.03475356143663196,0.5378907394409179,82.75462341308594,83.5115737915039,-2.497894287109375,88.44195556640625,-0.0066144307454427086,0.21833333333333332,0.29642857142857143,0.005492994520399305,-3.987919467041017,-1.2524038725585953,43.85710906982422,-0.008410559760199653,-0.06599833170572916
4401,0.05037856143663196,0.45820323944091795,82.16134643554688,86.559814453125,-2.477436065673828,88.6669921875,-0.0066144307454427086,0.214,0.2960714285714286,0.0070493486192491316,-3.9989038878173844,-1.4501520567626969,43.85710906982422,-0.04887186686197917,-0.06827142503526476
4402,0.03084731143663196,0.45820323944091795,88.0737075805664,83.22515869140625,-2.334228515625,87.99187469482422,-0.0066144307454427086,0.21066666666666667,0.2953571428571429,0.0014037662082248264,-3.987919467041017,0.6701459884643555,43.85710906982422,0.053872765435112845,-0.059178924560546874
4403,0.007409811436631959,0.478125114440918,87.43951416015625,89.97630310058594,-2.1910247802734375,87.43951416015625,-0.0066144307454427086,0.207,0.2953571428571429,-0.0006713655259874132,-3.548477786132814,1.1315580606460571,43.85710906982422,-0.028186543782552084,-0.05145043267144097
4404,0.02694106143663196,0.49804698944091796,87.33721923828125,88.87156677246094,-2.334228515625,87.45996856689453,-0.0066144307454427086,0.20333333333333334,0.295,0.0033568276299370658,-3.1200243406982437,2.361989974975586,43.76921844482422,-0.017048305935329862,-0.05326885647243924
4405,0.03475356143663196,0.45820323944091795,89.0761489868164,95.07034301757812,-2.313770294189453,87.31675720214844,-0.0066144307454427086,0.199,0.29464285714285715,0.007690196567111545,-1.7467752867431656,0.790992021560669,43.76921844482422,-0.06660215589735242,-0.05145030551486545
4406,0.05428481143663196,0.45820323944091795,86.33477783203125,80.93386840820312,-2.354686737060547,88.31919860839844,-0.0066144307454427086,0.19333333333333333,0.2932142857142857,0.010192574395073786,-1.9884668760986344,0.4284540116786957,43.76921844482422,0.06001010470920139,-0.06304317050509983
4407,0.01912856143663196,0.438281364440918,88.27828979492188,90.93782806396484,-2.0273590087890625,86.92805480957031,-0.0066144307454427086,0.19166666666666668,0.2925,0.005035252041286893,-2.4169203215332047,2.351004123687744,43.76921844482422,-0.02955042521158854,-0.04394904242621528
4408,-0.01212143856336804,0.3785157012939453,88.27828979492188,90.73324584960938,-2.10919189453125,86.92805480957031,-0.0066144307454427086,0.18933333333333333,0.29285714285714287,0.0021666844685872396,-2.1093126707763687,2.680583953857422,43.76921844482422,-0.027277289496527777,-0.044858296712239586
4409,-0.02384018856336804,0.39843757629394533,88.31919860839844,90.89691162109375,-2.2319412231445312,87.68500518798828,-0.006387117173936632,0.186,0.29285714285714287,0.0031432257758246527,-2.6586119108886734,2.3839621543884277,43.85710906982422,-0.028641255696614583,-0.05463273790147569
4410,-0.03165268856336804,0.41835948944091794,89.32164001464844,90.89691162109375,-2.252399444580078,87.562255859375,-0.0066144307454427086,0.18266666666666667,0.2925,0.0030516730414496527,-3.196926730224611,1.8017040491104126,43.85710906982422,-0.01750301784939236,-0.053496170043945315
4411,-0.02774643856336804,0.438281364440918,89.13752746582031,91.89935302734375,-2.10919189453125,87.0098876953125,-0.0066144307454427086,0.179,0.29285714285714287,0.004791111416286893,-2.834389346191408,0.02197200059890747,44.29655838012695,-0.03068695068359375,-0.04576755099826389
4412,-0.01993393856336804,0.41835948944091794,79.27676391601562,82.40684509277344,-2.2114830017089844,87.62362670898438,-0.0066144307454427086,0.17733333333333334,0.2932142857142857,0.004516474405924479,-2.241144793579103,-1.7797323637695328,44.56023025512695,-0.03477867974175347,-0.053723441229926214
4413,-0.01212143856336804,0.45820323944091795,89.81263732910156,91.44927978515625,-2.2319412231445312,87.62362670898438,-0.0066144307454427086,0.174,0.2935714285714286,0.004913181728786893,-2.0763555937500016,0.7360620498657227,44.82389831542969,-0.018184916178385416,-0.05395075480143229
4414,-0.01993393856336804,0.438281364440918,84.5958480834961,87.93049621582031,-2.641101837158203,87.72592163085938,-0.0066144307454427086,0.17133333333333334,0.29285714285714287,0.004272333780924479,-2.471850054809572,-0.3954969816894547,44.82389831542969,-0.03705164591471354,-0.0596335940890842
4415,-0.00821518856336804,0.41835948944091794,88.83065795898438,88.74882507324219,-2.5388107299804688,88.09416198730469,-0.0066144307454427086,0.16966666666666666,0.2925,0.005645582411024305,-2.812416689941408,0.4394400119781494,44.82389831542969,0.0009092542860243056,-0.06258858574761285
4416,-0.004308938563368041,0.41835948944091794,87.45996856689453,88.564697265625,-2.5592689514160156,87.86912536621094,-0.0066144307454427086,0.167,0.29214285714285715,0.006591606140136719,-2.911289828369142,0.35155200958251953,44.82389831542969,-0.01227476331922743,-0.06031549241807726
4417,-0.01212143856336804,0.45820323944091795,90.05813598632812,92.49263000488281,-2.5388107299804688,87.29630279541016,-0.0066144307454427086,0.16466666666666666,0.29214285714285715,0.006133842468261719,-2.493822711059572,-0.08788933093261875,44.82389831542969,-0.02704993353949653,-0.05372348361545139
4418,0.00350356143663196,0.45820323944091795,82.48867797851562,81.17935943603516,-2.5388107299804688,87.97142028808594,-0.0066144307454427086,0.16133333333333333,0.29285714285714287,0.0070188310411241316,-2.6146685057373062,-0.7250772886962906,44.82389831542969,0.014547983805338541,-0.06122478908962674
4419,-0.00821518856336804,0.438281364440918,88.58515930175781,93.84286499023438,-2.8865966796875,88.29874420166016,-0.0066144307454427086,0.159,0.2925,0.005676099989149305,-2.878332751342775,-2.6695982390136734,44.82389831542969,-0.058418952094184025,-0.06872600979275173
4420,0.02694106143663196,0.45820323944091795,80.52470397949219,75.79890441894531,-2.866138458251953,88.64653015136719,-0.006841744316948784,0.15633333333333332,0.29285714285714287,0.0071103837754991316,-2.823403018066408,-3.1090380125732437,44.82389831542969,0.05250888400607639,-0.07236298455132378
4421,0.02303481143663196,0.45820323944091795,90.0785903930664,92.14485168457031,-2.8456802368164062,88.27828979492188,-0.0066144307454427086,0.152,0.29285714285714287,0.006377983093261719,-3.603409426757814,1.021697998046875,44.82389831542969,-0.022958458794487848,-0.06804411146375867
4422,-0.004308938563368041,0.45820323944091795,82.26363372802734,85.5164566040039,-3.1934661865234375,88.64653015136719,-0.0066144307454427086,0.149,0.2935714285714286,0.0023497899373372396,-3.7022825651855484,-0.6481748991699234,44.82389831542969,-0.03614247639973958,-0.07599995930989584
4423,0.007409811436631959,0.45820323944091795,86.29386138916016,85.08683776855469,-2.9684295654296875,88.23736572265625,-0.0066144307454427086,0.14466666666666667,0.2935714285714286,0.0033873452080620658,-4.075806277343752,0.3076080083847046,44.82389831542969,0.013411373562282987,-0.06895328097873264
4424,0.02694106143663196,0.49804698944091796,88.64653015136719,89.0147705078125,-2.5797271728515625,87.43951416015625,-0.0066144307454427086,0.142,0.29428571428571426,0.0067441728379991316,-3.7791849547119156,0.6481740474700928,44.82389831542969,-0.004091559516059028,-0.05576934814453125
4425,0.03084731143663196,0.438281364440918,88.72836303710938,91.32653045654297,-2.641101837158203,87.562255859375,-0.006841744316948784,0.13833333333333334,0.29464285714285715,0.007873302035861545,-2.7684732847900406,0.3405660092830658,44.82389831542969,-0.028868526882595485,-0.05781508551703559
4426,0.01522231143663196,0.478125114440918,83.81844329833984,88.89202880859375,-3.1934661865234375,88.09416198730469,-0.0066144307454427086,0.13433333333333333,0.29464285714285715,0.005554029676649305,-2.7355143004150406,-0.4504267149658219,44.82389831542969,-0.05637317233615451,-0.06986253526475694
4427,-0.004308938563368041,0.478125114440918,88.13508605957031,88.85111236572266,-3.643543243408203,89.28073120117188,-0.0066144307454427086,0.13133333333333333,0.29464285714285715,0.0016173892550998264,-3.7901712828369156,0.9667680263519287,44.82389831542969,-0.007955847846137152,-0.08804749382866753
4428,-0.02774643856336804,0.49804698944091796,88.44195556640625,90.6309585571289,-3.5412521362304688,88.68744659423828,-0.0066144307454427086,0.12933333333333333,0.29464285714285715,-0.0012511783175998264,-4.493275302001955,1.06564199924469,44.12078094482422,-0.02432225545247396,-0.0803188747829861
4429,-0.03946518856336804,0.438281364440918,87.93049621582031,90.91737365722656,-3.357128143310547,88.42149353027344,-0.0066144307454427086,0.12666666666666668,0.295,-0.0022887547810872396,-4.581162112304689,0.07690200209617615,44.03289031982422,-0.03318752712673611,-0.07531801859537761
4430,-0.01993393856336804,0.438281364440918,87.562255859375,89.38301849365234,-3.275299072265625,87.91004180908203,-0.006387117173936632,0.122,0.2957142857142857,-0.0001220703125,-4.009890215942384,-0.5383154326171891,43.85710906982422,-0.02023069593641493,-0.06872600979275173
4431,0.007409811436631959,0.438281364440918,90.34454345703125,92.92225646972656,-3.254840850830078,88.17599487304688,-0.0066144307454427086,0.119,0.2960714285714286,0.004577488369411893,-3.7462259703369156,-1.164517062255861,43.85710906982422,-0.028641255696614583,-0.07145373026529948
4432,0.01912856143663196,0.438281364440918,82.59095764160156,84.0434799194336,-3.254840850830078,88.31919860839844,-0.0066144307454427086,0.11433333333333333,0.2960714285714286,0.004241816202799479,-3.8011576109619156,-2.6915708952636734,43.85710906982422,-0.0161391364203559,-0.07304488288031684
4433,-0.0004026885633680403,0.41835948944091794,86.90760040283203,89.44439697265625,-3.091175079345703,87.88958740234375,-0.0066144307454427086,0.11133333333333334,0.29678571428571426,-0.0007934358384874132,-3.7242552214355484,-0.5822588377685562,43.85710906982422,-0.02818662855360243,-0.06645291646321615
4434,-0.01602768856336804,0.478125114440918,81.62944030761719,88.91248321533203,-2.722930908203125,87.5213394165039,-0.0066144307454427086,0.10766666666666666,0.2975,-0.0036009682549370658,-3.603409426757814,0.07690200209617615,43.85710906982422,-0.08092269897460938,-0.05826967027452257
4435,-0.0004026885633680403,0.41835948944091794,91.0810317993164,91.14241027832031,-3.1525497436523438,87.82821655273438,-0.006841744316948784,0.105,0.2975,-0.00018310546875,-3.581436770507814,1.6259280443191528,43.85710906982422,-0.0006819831000434028,-0.06645295884874132
4436,0.007409811436631959,0.438281364440918,79.4404296875,89.26026916503906,-3.254840850830078,88.1555404663086,-0.0066144307454427086,0.10166666666666667,0.2978571428571429,0.0014953189425998264,-3.1200243406982437,-1.5709978514404312,43.85710906982422,-0.1091093275282118,-0.07122645907931857
4437,-0.0004026885633680403,0.45820323944091795,89.23981475830078,89.99675750732422,-2.8865966796875,88.36012268066406,-0.0066144307454427086,0.098,0.2975,-0.0010986116197374133,-3.9989038878173844,0.5273280143737793,43.85710906982422,-0.008410474989149305,-0.06940799289279515
4438,-0.01212143856336804,0.5378907394409179,85.47554016113281,88.83065795898438,-3.132091522216797,89.13752746582031,-0.006387117173936632,0.09366666666666666,0.2975,-0.0028380499945746527,-4.3944002562255875,0.07690200209617615,43.85710906982422,-0.03727908664279514,-0.08077354431152343
4439,0.007409811436631959,0.438281364440918,87.76683807373047,88.76927947998047,-3.8890380859375,88.50332641601562,-0.0066144307454427086,0.09166666666666666,0.2975,0.0009765413072374132,-3.7352415495605484,-0.13183273608398594,43.85710906982422,-0.011138237847222222,-0.08213738335503472
4440,0.02303481143663196,0.41835948944091794,86.94851684570312,88.33966064453125,-3.500335693359375,89.40347290039062,-0.0066144307454427086,0.08766666666666667,0.29714285714285715,0.0030211554633246527,-4.064819949218752,-0.5602861815185562,42.275089263916016,-0.0154571533203125,-0.08782009548611111
4441,0.03865981143663196,0.39843757629394533,86.53935241699219,84.37080383300781,-2.9684295654296875,88.46240997314453,-0.006387117173936632,0.08466666666666667,0.29714285714285715,0.004852146572536893,-4.119751589843752,0.4614120125770569,42.099308013916016,0.024094984266493057,-0.07145377265082466
4442,0.04647231143663196,0.41835948944091794,87.76683807373047,90.34454345703125,-2.3751449584960938,87.29630279541016,-0.0066144307454427086,0.08,0.29678571428571426,0.0068357255723741316,-3.8011576109619156,1.6588860750198364,42.01142120361328,-0.028641170925564237,-0.05190497504340278
4443,0.02694106143663196,0.438281364440918,88.97386169433594,85.18913269042969,-2.1501083374023438,88.48286437988281,-0.0066144307454427086,0.076,0.29714285714285715,0.005462476942274305,-3.932987826416017,2.658612012863159,42.01142120361328,0.042052544487847225,-0.06258858574761285
4444,0.007409811436631959,0.41835948944091794,85.0050048828125,91.18331909179688,-2.518352508544922,88.0123291015625,-0.0066144307454427086,0.07433333333333333,0.29678571428571426,0.004485956827799479,-3.493548052856447,1.340291976928711,42.01142120361328,-0.06864793565538195,-0.061452017890082464
4445,-0.004308938563368041,0.3785157012939453,82.89783477783203,85.16867065429688,-2.6206436157226562,88.03279113769531,-0.0066144307454427086,0.07066666666666667,0.29642857142857143,0.0035399330986870658,-3.2957998686523453,1.4062080383300781,42.01142120361328,-0.025231509738498265,-0.0628159417046441
4446,-0.01993393856336804,0.41835948944091794,92.39035034179688,93.82240295410156,-2.5797271728515625,87.5213394165039,-0.006387117173936632,0.06666666666666667,0.29642857142857143,0.0032042397393120658,-2.933262484619142,0.7690200209617615,42.01142120361328,-0.015911695692274304,-0.056678517659505205
4447,-0.03165268856336804,0.41835948944091794,78.66302490234375,73.01661682128906,-2.3956031799316406,87.33721923828125,-0.0066144307454427086,0.06333333333333334,0.2960714285714286,-0.00030517578125,-2.4498793059082047,-0.9228254729003922,42.01142120361328,0.0627378675672743,-0.05258691575792101
4448,-0.04337143856336804,0.41835948944091794,92.14485168457031,91.61294555664062,-2.4160614013671875,87.1121826171875,-0.0066144307454427086,0.060333333333333336,0.2953571428571429,-0.0012206607394748264,-2.175228732177736,4.284540176391602,42.01142120361328,0.0059100680881076385,-0.05031382242838542
4449,-0.07852768856336804,0.39843757629394533,84.61630249023438,91.0196533203125,-2.4569778442382812,87.19401550292969,-0.0066144307454427086,0.056666666666666664,0.29464285714285715,-0.0023192723592122396,-1.6479002409667984,0.10986000299453735,42.01142120361328,-0.0711483425564236,-0.051677703857421875
4450,-0.03946518856336804,0.478125114440918,84.6572265625,85.06637573242188,-2.518352508544922,88.42149353027344,-0.0066144307454427086,0.054,0.2935714285714286,0.0010070588853624133,-2.252131121704103,-1.6808592253417984,42.01142120361328,-0.004546101888020833,-0.06599828932020399
4451,-0.01993393856336804,0.41835948944091794,85.43462371826172,82.79554748535156,-2.866138458251953,87.86912536621094,-0.0066144307454427086,0.052333333333333336,0.29214285714285715,0.0031432257758246527,-2.252131121704103,-0.801977770874025,42.01142120361328,0.029323069254557292,-0.06372515360514323
4452,-0.03555893856336804,0.478125114440918,83.4501953125,88.78973388671875,-3.1934661865234375,88.76927947998047,-0.0066144307454427086,0.05,0.2907142857142857,-0.0008239534166124132,-2.9991785460205094,-1.142544406005861,42.01142120361328,-0.05932820638020833,-0.0773638407389323
4453,-0.02384018856336804,0.41835948944091794,92.30851745605469,81.19981384277344,-2.4569778442382812,87.66455078125,-0.0066144307454427086,0.048,0.2889285714285714,0.0006408479478624132,-2.7574869566650406,1.0546560287475586,42.01142120361328,0.12343004014756945,-0.056905873616536456
4454,-0.01993393856336804,0.45820323944091795,77.35371398925781,93.24958038330078,-2.5388107299804688,87.54179382324219,-0.0066144307454427086,0.044,0.2885714285714286,0.0020140965779622396,-1.9225508146972672,-2.6036821776123062,42.01142120361328,-0.17662073771158854,-0.05645116170247396
4455,-0.004308938563368041,0.45820323944091795,92.6358413696289,80.85203552246094,-2.477436065673828,87.54179382324219,-0.0066144307454427086,0.041,0.28714285714285714,0.0021972020467122396,-1.6259294920654312,1.1535300016403198,42.01142120361328,0.1309311760796441,-0.05576922098795573
4456,-0.01993393856336804,0.49804698944091796,80.50424194335938,91.572021484375,-2.3956031799316406,87.0098876953125,-0.0066144307454427086,0.03766666666666667,0.2857142857142857,0.000213623046875,-1.5929705076904312,-1.3293062620849625,42.01142120361328,-0.12297532823350694,-0.04894989861382378
4457,-0.004308938563368041,0.3785157012939453,89.1579818725586,88.1146240234375,-2.4160614013671875,87.23492431640625,-0.0066144307454427086,0.036,0.2839285714285714,0.0023192723592122396,-1.4062086516113297,1.5160679817199707,42.01142120361328,0.011592864990234375,-0.05167761908637153
4458,-0.01212143856336804,0.45820323944091795,90.54912567138672,92.92225646972656,-2.4569778442382812,87.23492431640625,-0.0066144307454427086,0.03266666666666666,0.28285714285714286,0.0030516730414496527,-1.0766283446044937,1.2743760347366333,42.01142120361328,-0.02636811998155382,-0.05213224622938368
4459,-0.01212143856336804,0.438281364440918,85.27096557617188,86.39614868164062,-2.5592689514160156,87.68500518798828,-0.0066144307454427086,0.030333333333333334,0.2810714285714286,0.0037230385674370658,-1.1974741392822281,-0.6921183043212906,42.01142120361328,-0.012502034505208334,-0.05826971266004774
4460,-0.01993393856336804,0.41835948944091794,83.0410385131836,87.27584838867188,-2.518352508544922,87.78729248046875,-0.0066144307454427086,0.027333333333333334,0.27964285714285714,0.0010985904269748264,-2.0324102812500016,-1.175503390380861,42.01142120361328,-0.0470534430609809,-0.058951610989040795
4461,-0.01993393856336804,0.39843757629394533,84.63676452636719,85.76194763183594,-2.497894287109375,87.25538635253906,-0.0066144307454427086,0.025333333333333333,0.27964285714285714,0.0004882600572374132,-2.482836382934572,-0.3185945921630875,42.01142120361328,-0.012502034505208334,-0.05281422932942708
4462,-0.01993393856336804,0.3785157012939453,88.97386169433594,90.03767395019531,-1.495452880859375,86.559814453125,-0.0066144307454427086,0.022,0.2792857142857143,0.0006713655259874132,-2.7465006285400406,0.8678940534591675,42.01142120361328,-0.011820136176215277,-0.03394741482204861
4463,-0.03555893856336804,0.3785157012939453,82.20226287841797,92.55400848388672,-2.252399444580078,87.45996856689453,-0.0066144307454427086,0.017333333333333333,0.2792857142857143,-0.0009460237291124132,-1.3183199339599625,-1.6149431639404312,42.01142120361328,-0.11501939561631945,-0.0523596445719401
4464,-0.004308938563368041,0.438281364440918,86.15065002441406,77.64012145996094,-2.2933120727539062,87.562255859375,-0.0066144307454427086,0.013333333333333334,0.27785714285714286,0.0008544709947374132,-0.9667688780517594,0.2856360077857971,42.01142120361328,0.09456142849392361,-0.05395075480143229
4465,-0.04337143856336804,0.39843757629394533,92.92225646972656,92.43125915527344,-2.6206436157226562,87.21446990966797,-0.0066144307454427086,0.009,0.2757142857142857,-0.004485956827799479,-0.7470480375976578,1.9115641117095947,42.01142120361328,0.005455525716145834,-0.05372348361545139
4466,-0.08634018856336804,0.41835948944091794,79.05172729492188,75.45112609863281,-0.6362152099609375,85.41416931152344,-0.0066144307454427086,0.005,0.2742857142857143,-0.012755966186523438,-0.06591667468261875,-0.2416922026367203,42.01142120361328,0.04000667995876736,-0.011670939127604167
4467,-0.07462143856336804,0.3785157012939453,85.61874389648438,90.91737365722656,3.844085693359375,86.17111206054688,-0.0066144307454427086,0.002,0.27285714285714285,-0.010223091973198786,1.0436700582504272,0.08788800239562988,39.28683090209961,-0.05887366400824653,0.02969970703125
4468,-0.04727768856336804,0.3585938262939453,90.75370788574219,85.76194763183594,-0.6975898742675781,84.0025634765625,-0.0066144307454427086,0.0003333333333333333,0.2710714285714286,-0.004882664150661893,1.9115641117095947,0.9228240251541138,34.628658294677734,0.05546400282118055,0.003331629435221354
4469,-0.01602768856336804,0.3785157012939453,76.14669799804688,81.67034912109375,2.289276123046875,81.19981384277344,-0.006841744316948784,-0.0003333333333333333,0.2671428571428571,-0.0007629182603624132,1.8566340208053589,-0.19774879748535312,32.6071891784668,-0.0613739013671875,0.06766069200303819
4470,-0.00821518856336804,0.3585938262939453,83.08195495605469,93.33141326904297,4.7646942138671875,81.19981384277344,-0.0066144307454427086,-0.0016666666666666668,0.2639285714285714,0.0014953189425998264,1.8456480503082275,-0.9887415343017594,31.113059997558594,-0.11388287014431424,0.09516533745659722
4471,0.00350356143663196,0.3585938262939453,90.97874450683594,78.27432250976562,3.7213363647460938,74.48959350585938,-0.0066144307454427086,-0.0006666666666666666,0.26035714285714284,0.0017699559529622396,2.0873401165008545,1.219446063041687,30.849390029907227,0.14116024441189237,0.15813047620985243
4472,-0.01993393856336804,0.2789063262939453,83.42974090576172,85.20958709716797,9.449577331542969,75.51249694824219,-0.0066144307454427086,0.0,0.25357142857142856,-0.0004882600572374132,0.6042300462722778,-1.2194467955322281,24.87286949157715,-0.01977606879340278,0.21041200425889756
4473,-0.01212143856336804,0.33867195129394534,83.1024169921875,84.5958480834961,5.255687713623047,41.900001525878906,-0.006841744316948784,0.0,0.24642857142857144,-0.0,0.8898659944534302,0.1538040041923523,24.69709014892578,-0.01659367879231771,0.537285402086046
