,WD,WS,AIL_1,AIL_2,ELEV_1,ELEV_2,RUDD,ALT,GS,TH,PTCH,ROLL,PLA_1,AIL,ELEV
2297,0.3084460576375326,0.01992187976837158,86.35523986816406,90.24225616455078,-2.743389129638672,86.70301818847656,-0.0066144307454427086,0.761,0.4807142857142857,0.0069577958848741316,-0.5602861815185562,-0.6152159147949234,29.179479598999023,-0.04318906995985243,-0.04940452575683594
2298,0.3084460576375326,0.01992187976837158,86.90760040283203,90.24225616455078,-2.702472686767578,86.72348022460938,-0.006841744316948784,0.7576666666666667,0.48,0.0068967607286241316,-0.801977770874025,-0.48338379199218906,29.179479598999023,-0.03705173068576389,-0.049177254570855033
2299,0.2615710576375326,0.01992187976837158,87.27584838867188,90.2218017578125,-2.641101837158203,86.49844360351562,-0.006841744316948784,0.753,0.47928571428571426,0.006561077965630426,-0.9887415343017594,-0.6701475554199234,29.179479598999023,-0.03273281521267361,-0.04599494934082031
2300,0.04282105763753255,0.01992187976837158,86.90760040283203,90.24225616455078,-2.8865966796875,86.76439666748047,-0.006841744316948784,0.7476666666666667,0.47785714285714287,0.004730076260036893,-0.9887415343017594,-1.7577597075195328,29.179479598999023,-0.03705173068576389,-0.051677703857421875
2301,-0.17202272014024522,0.0,86.82576751708984,90.24225616455078,-4.441402435302734,87.48042297363281,-0.007069057888454861,0.7423333333333333,0.4760714285714286,0.0021666738722059464,-0.9667688780517594,-2.7025572233886734,29.179479598999023,-0.037960984971788195,-0.07690917121039496
2302,-0.12124144236246745,0.01992187976837158,86.78485107421875,90.24225616455078,-5.075603485107422,88.76927947998047,-0.006841744316948784,0.738,0.4725,0.0001830948723687066,-1.5819841795654312,-3.3617159300537125,29.179479598999023,-0.038415612114800345,-0.09827647738986545
2303,-0.12905394236246745,0.0,86.72348022460938,90.2218017578125,-5.3620147705078125,89.30118560791016,-0.0066144307454427086,0.734,0.4692857142857143,-0.0013427416483561198,-2.9772058897705094,-3.0431219511718766,29.179479598999023,-0.0388702392578125,-0.10736889309353298
2304,-0.19546022014024522,0.01992187976837158,86.70301818847656,90.2218017578125,-5.157432556152344,89.23981475830078,-0.006841744316948784,0.7313333333333333,0.46535714285714286,-0.0033568382263183595,-3.976933138916017,-2.845373766967775,29.003700256347656,-0.03909759521484375,-0.10441385904947917
2305,-0.17202272014024522,0.0,86.70301818847656,90.24225616455078,-5.1983489990234375,89.17843627929688,-0.0066144307454427086,0.727,0.4625,-0.004608016543918186,-4.152708666870119,-2.801430361816408,24.87286949157715,-0.03932486640082465,-0.10418650309244791
2306,0.05453980763753255,0.0,86.70301818847656,90.20133972167969,-6.118961334228516,89.75126647949219,-0.006841744316948784,0.722,0.4589285714285714,-0.005065769619411893,-4.196652072021486,-2.4498793059082047,24.60919952392578,-0.0388702392578125,-0.12078030904134114
2307,0.13266480763753255,0.01992187976837158,86.72348022460938,90.2218017578125,-5.402931213378906,88.97386169433594,-0.0066144307454427086,0.7156666666666667,0.4567857142857143,-0.005309899648030599,-5.042574542114259,-1.6698728972167984,24.60919952392578,-0.0388702392578125,-0.10418658786349827
2308,0.2811023076375326,0.0,86.72348022460938,90.2218017578125,-5.402931213378906,89.32164001464844,-0.006841744316948784,0.7096666666666667,0.4542857142857143,-0.005676099989149305,-5.097504275390627,-0.7690206938476578,24.60919952392578,-0.0388702392578125,-0.10805079142252604
2309,0.05844605763753255,0.01992187976837158,86.74394226074219,90.24225616455078,-5.239265441894531,88.62606811523438,-0.006841744316948784,0.703,0.4525,-0.006591606140136719,-5.295252459594728,-0.6921183043212906,24.60919952392578,-0.038870154486762155,-0.09850370619032119
2310,0.13657105763753255,0.03984375953674316,86.74394226074219,90.24225616455078,-5.1983489990234375,88.48286437988281,-0.006841744316948784,0.696,0.45035714285714284,-0.005676099989149305,-5.097504275390627,-1.3622652464599625,24.60919952392578,-0.038870154486762155,-0.09645792643229166
2311,0.19907105763753255,0.03984375953674316,86.76439666748047,90.2218017578125,-4.830104827880859,88.27828979492188,-0.0066144307454427086,0.6883333333333334,0.4492857142857143,-0.005004734463161893,-4.866799014160158,-2.0873400145263687,24.60919952392578,-0.038415612114800345,-0.09009327358669705
2312,0.22250855763753255,0.05976563930511475,84.45263671875,90.24225616455078,-4.952854156494141,88.03279113769531,-0.006841744316948784,0.682,0.4471428571428571,-0.004913192325168186,-4.35045685107422,-2.5926958494873062,24.60919952392578,-0.06432910495334201,-0.0887293921576606
2313,0.23032105763753255,0.07968751907348633,84.82088470458984,90.2218017578125,-4.871021270751953,88.27828979492188,-0.0066144307454427086,0.675,0.44571428571428573,-0.005340417226155599,-4.119751589843752,-1.120571749755861,24.60919952392578,-0.06001018948025173,-0.0905479007297092
2314,0.20297730763753255,0.07968751907348633,84.94363403320312,90.2218017578125,-4.932395935058594,88.19645690917969,-0.006841744316948784,0.6696666666666666,0.44357142857142856,-0.005676099989149305,-4.141722338745119,1.3622640371322632,24.60919952392578,-0.058646308051215276,-0.09032058715820312
2315,0.20688355763753255,0.07968751907348633,85.84378051757812,90.2218017578125,-4.911937713623047,88.54424285888672,-0.006841744316948784,0.6633333333333333,0.4407142857142857,-0.0036925209893120658,-4.141722338745119,2.9662201404571533,24.60919952392578,-0.04864468044704861,-0.09395756191677518
2316,0.19516480763753255,0.07968751907348633,85.88470458984375,90.26271057128906,-4.8914794921875,88.27828979492188,-0.0066144307454427086,0.6573333333333333,0.4392857142857143,-0.0014342837863498264,-4.229611056396486,3.5814361572265625,24.60919952392578,-0.04864451090494792,-0.09077521430121528
2317,0.19907105763753255,0.09960939407348633,85.88470458984375,90.24225616455078,-4.8914794921875,88.33966064453125,-0.0066144307454427086,0.6516666666666666,0.43642857142857144,0.0019835789998372396,-4.108765261718752,3.5924220085144043,24.60919952392578,-0.04841723971896701,-0.09145711263020834
2318,0.19125855763753255,0.09960939407348633,89.23981475830078,90.2218017578125,-4.911937713623047,88.19645690917969,-0.006841744316948784,0.6456666666666667,0.43464285714285716,0.004150263468424479,-4.064819949218752,3.2408699989318848,24.60919952392578,-0.01091096666124132,-0.09009327358669705
2319,0.18735230763753255,0.09960939407348633,88.17599487304688,90.24225616455078,-4.707359313964844,87.74638366699219,-0.0066144307454427086,0.6393333333333333,0.43214285714285716,0.006713665856255426,-4.042849200317384,0.6591600179672241,24.60919952392578,-0.022958458794487848,-0.08281936645507812
2320,0.19516480763753255,0.1195312786102295,88.05325317382812,90.2218017578125,-4.871021270751953,87.76683807373047,-0.0066144307454427086,0.634,0.4307142857142857,0.007873291439480252,-3.6583391600341812,-0.7031046324462906,24.60919952392578,-0.024094984266493057,-0.08486510382758247
2321,0.18735230763753255,0.13945316314697265,86.94851684570312,90.2218017578125,-4.66644287109375,87.95095825195312,-0.006841744316948784,0.629,0.4282142857142857,0.008178467220730252,-3.493548052856447,-1.538040774414064,24.60919952392578,-0.03636983235677083,-0.08463779025607639
2322,0.20297730763753255,0.13945316314697265,86.02790832519531,90.24225616455078,-4.7482757568359375,87.93049621582031,-0.006841744316948784,0.623,0.42642857142857143,0.008208974202473959,-3.251856463500978,-1.3732515745849625,24.60919952392578,-0.04682608710394965,-0.08531968858506944
2323,0.21469605763753255,0.13945316314697265,86.35523986816406,90.2218017578125,-4.7482757568359375,88.38057708740234,-0.006841744316948784,0.6183333333333333,0.4235714285714286,0.007903809017605252,-2.9991785460205094,-0.19774879748535312,24.60919952392578,-0.042961798773871525,-0.09032058715820312
2324,0.18344605763753255,0.13945316314697265,86.5188980102539,90.24225616455078,-4.727817535400391,87.68500518798828,-0.006841744316948784,0.6136666666666667,0.4210714285714286,0.0068967607286241316,-3.174954073974611,0.9667680263519287,24.60919952392578,-0.04137064615885417,-0.0823646969265408
2325,0.15219605763753255,0.15937503814697265,86.76439666748047,90.24225616455078,-4.093616485595703,87.58271789550781,-0.006841744316948784,0.6093333333333333,0.4185714285714286,0.007934326595730252,-2.966221468994142,0.9777539968490601,24.60919952392578,-0.03864288330078125,-0.0741814931233724
2326,0.16782105763753255,0.17929691314697266,86.68256378173828,90.2218017578125,-4.134532928466797,87.0098876953125,-0.006841744316948784,0.605,0.41678571428571426,0.01013152864244249,-2.3619905882568375,0.09887400269508362,24.60919952392578,-0.03932486640082465,-0.06827134026421441
2327,0.17172730763753255,0.19921878814697266,86.19157409667969,90.2218017578125,-4.400489807128906,87.78729248046875,-0.006841744316948784,0.601,0.4132142857142857,0.011443742116292318,-1.538040774414064,-0.5273291044921891,24.60919952392578,-0.04478030734592014,-0.07986424763997396
2328,0.19125855763753255,0.19921878814697266,86.5188980102539,90.24225616455078,-4.441402435302734,88.31919860839844,-0.0066144307454427086,0.598,0.41035714285714286,0.011779424879286024,-1.8017050200195328,-0.17577614123535312,24.60919952392578,-0.04137064615885417,-0.08622890048556858
2329,0.19907105763753255,0.17929691314697266,86.6007308959961,90.2218017578125,-4.482318878173828,88.36012268066406,-0.0066144307454427086,0.5943333333333334,0.4064285714285714,0.012298213111029731,-2.515795367309572,0.8019779920578003,24.60919952392578,-0.04023412068684896,-0.08713823954264323
2330,0.17563355763753255,0.17929691314697266,86.6007308959961,90.24225616455078,-4.441402435302734,87.88958740234375,-0.006841744316948784,0.5916666666666667,0.4042857142857143,0.011932012769911024,-2.812416689941408,1.0107120275497437,24.60919952392578,-0.04046139187282986,-0.08145544264051649
2331,0.16000855763753255,0.19921878814697266,87.09172058105469,90.2218017578125,-4.461860656738281,87.72592163085938,-0.006841744316948784,0.5873333333333334,0.4007142857142857,0.012572860717773438,-2.790444033691408,0.6591600179672241,24.60919952392578,-0.03477867974175347,-0.07986424763997396
2332,0.15219605763753255,0.219140682220459,88.58515930175781,90.2218017578125,-4.400489807128906,87.68500518798828,-0.006841744316948784,0.5826666666666667,0.3985714285714286,0.013579919603135851,-2.955235140869142,0.05493000149726868,24.60919952392578,-0.018184916178385416,-0.07872772216796875
2333,0.14438355763753255,0.19921878814697266,87.0712661743164,90.24225616455078,-4.482318878173828,88.0737075805664,-0.006841744316948784,0.5776666666666667,0.39571428571428574,0.012725448608398438,-2.955235140869142,-0.7580343657226578,24.60919952392578,-0.035233222113715275,-0.08395584954155816
2334,0.13657105763753255,0.19921878814697266,87.15309143066406,90.24225616455078,-5.034687042236328,89.36256408691406,-0.006841744316948784,0.574,0.39285714285714285,0.011443742116292318,-3.4056612425537125,-1.3512789183349625,24.60919952392578,-0.03432405259874132,-0.10441390143500434
2335,0.16000855763753255,0.17929691314697266,86.80531311035156,90.20133972167969,-5.7507171630859375,89.13752746582031,-0.0066144307454427086,0.5723333333333334,0.38857142857142857,0.011535294850667318,-4.504261630126955,-1.2524038725585953,24.60919952392578,-0.03773362901475694,-0.109869384765625
2336,0.14438355763753255,0.17929691314697266,86.94851684570312,90.2218017578125,-5.566593170166016,89.05569458007812,-0.0066144307454427086,0.568,0.38571428571428573,0.009856881035698786,-5.251309054443361,-0.5712725096435562,24.60919952392578,-0.03636983235677083,-0.10691430833604601
2337,0.13266480763753255,0.15937503814697265,87.05081176757812,90.2218017578125,-5.259723663330078,89.1579818725586,-0.006841744316948784,0.5646666666666667,0.38142857142857145,0.009032927619086372,-6.086245196411134,-0.6921183043212906,24.60919952392578,-0.035233222113715275,-0.10464117262098524
2338,0.12875855763753255,0.15937503814697265,87.03034973144531,90.2218017578125,-5.300640106201172,88.85111236572266,-0.006841744316948784,0.561,0.3782142857142857,0.008453114827473959,-6.251034396240236,-1.164517062255861,24.60919952392578,-0.035460578070746526,-0.10168613857693143
2339,0.12485230763753255,0.15937503814697265,87.0098876953125,90.20133972167969,-5.218807220458984,88.54424285888672,-0.0066144307454427086,0.5563333333333333,0.3742857142857143,0.007323996225992838,-5.833567278930666,-1.7357889586181656,24.60919952392578,-0.035460578070746526,-0.09736722310384115
2340,0.14047730763753255,0.15937503814697265,87.0098876953125,90.20133972167969,-5.218807220458984,88.64653015136719,-0.006841744316948784,0.5516666666666666,0.37142857142857144,0.007140890757242838,-5.48201431567383,-1.6698728972167984,24.60919952392578,-0.035460578070746526,-0.09850374857584636
2341,0.10532105763753255,0.15937503814697265,85.1072998046875,90.2218017578125,-5.157432556152344,88.58515930175781,-0.0066144307454427086,0.547,0.3675,0.0039061334398057725,-5.624832766601564,-0.9997259550781266,24.60919952392578,-0.05682779947916667,-0.09713990953233508
2342,0.11703980763753255,0.15937503814697265,85.41416931152344,90.20133972167969,-4.932395935058594,87.88958740234375,-0.006841744316948784,0.5423333333333333,0.3653571428571429,0.004272333780924479,-5.668776171752931,-0.49437012011718906,24.60919952392578,-0.05319078233506944,-0.08691092597113716
2343,0.13657105763753255,0.15937503814697265,88.38057708740234,90.20133972167969,-3.9913291931152344,87.21446990966797,-0.006841744316948784,0.5383333333333333,0.36142857142857143,0.005706617567274305,-5.141449587890627,0.8349360227584839,24.433420181274414,-0.02023069593641493,-0.06895332336425782
2344,0.13657105763753255,0.15937503814697265,88.6669921875,90.20133972167969,-4.216365814208984,87.58271789550781,-0.006841744316948784,0.5336666666666666,0.35928571428571426,0.006500042809380426,-4.306513445922853,1.4062080383300781,24.433420181274414,-0.017048305935329862,-0.07554537455240885
2345,0.09750855763753255,0.15937503814697265,86.68256378173828,90.2218017578125,-4.175449371337891,87.62362670898438,-0.006841744316948784,0.5293333333333333,0.35535714285714287,0.005981265174018012,-4.141722338745119,-0.2307058745117203,28.827919006347656,-0.03932486640082465,-0.07554528978135851
2346,0.11313355763753255,0.15937503814697265,85.68012237548828,90.2218017578125,-4.236824035644531,87.68500518798828,-0.006841744316948784,0.525,0.3532142857142857,0.006591595543755426,-4.284540789672853,-0.4614130430908219,31.816179275512695,-0.050463104248046876,-0.07690921359592014
2347,0.09750855763753255,0.13945316314697265,86.31431579589844,90.20133972167969,-4.11407470703125,87.29630279541016,-0.006841744316948784,0.5213333333333333,0.3492857142857143,0.004791111416286893,-4.36144317919922,0.5822579860687256,32.6071891784668,-0.043189154730902776,-0.0712264166937934
2348,0.06625855763753255,0.1195312786102295,86.74394226074219,90.18087768554688,-4.175449371337891,87.23492431640625,-0.006841744316948784,0.518,0.3475,0.0038756158616807725,-4.185667651245119,1.494096040725708,36.56224060058594,-0.03818817138671875,-0.07122637430826823
2349,0.06625855763753255,0.09960939407348633,88.81019592285156,90.2218017578125,-4.175449371337891,87.29630279541016,-0.006841744316948784,0.5136666666666667,0.34535714285714286,0.005065759023030599,-4.020876544067384,1.1974740028381348,42.01142120361328,-0.01568450927734375,-0.07190835740831163
2350,0.09360230763753255,0.09960939407348633,87.64408874511719,90.20133972167969,-3.725372314453125,87.03034973144531,-0.006841744316948784,0.5083333333333333,0.34464285714285714,0.0069272783067491316,-3.976933138916017,-0.2746511870117203,43.68132781982422,-0.028413899739583335,-0.0639524671766493
2351,0.11703980763753255,0.1195312786102295,87.80775451660156,90.2218017578125,-2.9684295654296875,85.82332611083984,-0.006841744316948784,0.503,0.34535714285714286,0.007995361751980252,-3.87805809313965,-1.2304331236572281,44.64812088012695,-0.026822747124565973,-0.04213061862521701
2352,0.10141480763753255,0.13945316314697265,86.88714599609375,90.2218017578125,-3.2343826293945312,86.25294494628906,-0.006841744316948784,0.498,0.3457142857142857,0.007232443491617838,-3.0980535917968766,-1.2853628569335953,45.966468811035156,-0.03705173068576389,-0.04985919528537326
2353,0.08188355763753255,0.13945316314697265,86.02790832519531,90.20133972167969,-3.357128143310547,86.80531311035156,-0.006841744316948784,0.494,0.3467857142857143,0.005401441786024305,-2.6146685057373062,-0.6481748991699234,46.054359436035156,-0.0463714599609375,-0.05736045837402344
2354,0.08969605763753255,0.13945316314697265,86.13019561767578,90.18087768554688,-3.357128143310547,86.88714599609375,-0.006841744316948784,0.489,0.3467857142857143,0.005889712439643012,-2.6366411619873062,-0.3405672484130875,43.241878509521484,-0.045007578531901044,-0.05826971266004774
2355,0.09750855763753255,0.13945316314697265,89.567138671875,90.20133972167969,-3.479877471923828,87.48042297363281,-0.0066144307454427086,0.48533333333333334,0.3460714285714286,0.005920230017768012,-2.7135435515136734,0.4064820110797882,42.362979888916016,-0.007046678331163195,-0.0662255605061849
2356,0.07407105763753255,0.1195312786102295,88.85111236572266,90.2218017578125,-3.479877471923828,87.39859008789062,-0.006841744316948784,0.48233333333333334,0.34535714285714286,0.005401441786024305,-3.0980535917968766,-0.20873512561035312,42.275089263916016,-0.015229882134331598,-0.06531630622016059
2357,0.08969605763753255,0.1195312786102295,88.83065795898438,90.2218017578125,-3.3980445861816406,86.662109375,-0.006841744316948784,0.4786666666666667,0.34464285714285714,0.005950747595893012,-3.581436770507814,-1.6039568358154312,42.275089263916016,-0.0154571533203125,-0.05622393290201823
2358,0.13266480763753255,0.13945316314697265,86.17111206054688,90.2218017578125,-3.500335693359375,86.74394226074219,-0.006841744316948784,0.47533333333333333,0.3442857142857143,0.0070798661973741316,-3.229883807250978,-2.570725100585939,42.275089263916016,-0.04500766330295139,-0.05826975504557292
2359,0.17172730763753255,0.13945316314697265,85.5164566040039,90.20133972167969,-3.357128143310547,86.6007308959961,-0.006841744316948784,0.471,0.3439285714285714,0.006744183434380426,-3.0321375303955094,-1.8456484251709,42.275089263916016,-0.05205425686306424,-0.05508732265896267
2360,0.18735230763753255,0.1195312786102295,86.53935241699219,90.2218017578125,-3.3980445861816406,86.70301818847656,-0.006841744316948784,0.4676666666666667,0.3432142857142857,0.006347465515136719,-2.878332751342775,-0.48338379199218906,42.275089263916016,-0.04091610378689236,-0.05667847527398003
2361,0.15219605763753255,0.13945316314697265,86.53935241699219,90.2218017578125,-3.1934661865234375,86.27340698242188,-0.006841744316948784,0.4633333333333333,0.34214285714285714,0.005584547254774305,-2.6915708952636734,0.7360620498657227,42.275089263916016,-0.04091610378689236,-0.04963192409939236
2362,0.13266480763753255,0.1195312786102295,87.68500518798828,90.20133972167969,-3.357128143310547,86.43707275390625,-0.0066144307454427086,0.45966666666666667,0.3414285714285714,0.005340417226155599,-2.3070608549804703,1.175502061843872,42.275089263916016,-0.02795927259657118,-0.05326889885796441
2363,0.10532105763753255,0.13945316314697265,89.28073120117188,90.2218017578125,-3.0707168579101562,86.6007308959961,-0.006841744316948784,0.456,0.34035714285714286,0.006286430358886719,-2.3400179320068375,0.373524010181427,42.275089263916016,-0.010456339518229166,-0.05190497504340278
2364,0.13657105763753255,0.1195312786102295,89.0761489868164,90.20133972167969,-2.6820144653320312,85.18913269042969,-0.0066144307454427086,0.45266666666666666,0.33964285714285714,0.0070493486192491316,-2.1202989989013687,-1.9225508146972672,42.275089263916016,-0.01250211927625868,-0.0319016350640191
2365,0.15219605763753255,0.15937503814697265,87.91004180908203,90.2218017578125,-2.866138458251953,86.72348022460938,-0.0066144307454427086,0.44866666666666666,0.3382142857142857,0.007171408335367838,-1.4171949797363297,-4.053835528442384,42.275089263916016,-0.025686221652560765,-0.05099576314290365
2366,0.21469605763753255,0.15937503814697265,82.46821594238281,90.2218017578125,-2.8252220153808594,86.37569427490234,-0.006841744316948784,0.44533333333333336,0.33714285714285713,0.006622113121880426,-1.6479002409667984,-4.888771670410158,42.275089263916016,-0.08615095350477431,-0.046676847669813365
2367,0.23813355763753255,0.13945316314697265,85.29141998291016,90.2218017578125,-2.866138458251953,86.37569427490234,-0.0066144307454427086,0.44233333333333336,0.3360714285714286,0.0034483803643120658,-1.9005781584472672,-1.9774805479736344,42.275089263916016,-0.05478201972113715,-0.04713147481282552
2368,0.14047730763753255,0.15937503814697265,85.16867065429688,90.2218017578125,-2.866138458251953,86.6007308959961,-0.0066144307454427086,0.43933333333333335,0.335,-0.0008239534166124132,-2.252131121704103,1.6039559841156006,42.275089263916016,-0.05614590115017361,-0.04963188171386719
2369,0.11703980763753255,0.13945316314697265,90.42637634277344,90.20133972167969,-2.907054901123047,86.37569427490234,-0.006841744316948784,0.43566666666666665,0.3339285714285714,-0.0001220703125,-2.482836382934572,3.076080083847046,42.275089263916016,0.0025004069010416668,-0.04758610195583767
2370,0.09360230763753255,0.15937503814697265,89.81263732910156,90.20133972167969,-2.9275131225585938,86.49844360351562,-0.006841744316948784,0.43266666666666664,0.3335714285714286,0.0022582266065809464,-2.570725100585939,2.1752281188964844,42.275089263916016,-0.0043189154730902775,-0.049177296956380206
2371,0.12485230763753255,0.13945316314697265,89.32164001464844,90.2218017578125,-2.866138458251953,86.19157409667969,-0.006841744316948784,0.429,0.33285714285714285,0.004882664150661893,-2.6586119108886734,-0.7800070219726578,42.275089263916016,-0.01000179714626736,-0.04508569505479601
2372,0.17172730763753255,0.13945316314697265,83.26608276367188,90.2218017578125,-2.8252220153808594,86.15065002441406,-0.0066144307454427086,0.4246666666666667,0.3325,0.006042300330268012,-2.4608656340332047,-2.219172137329103,42.275089263916016,-0.0772857666015625,-0.04417635599772136
2373,0.17172730763753255,0.13945316314697265,84.47309875488281,90.20133972167969,-2.866138458251953,86.19157409667969,-0.006841744316948784,0.42033333333333334,0.33214285714285713,0.004089228312174479,-2.208185809204103,-0.3735243254394547,42.275089263916016,-0.06364712185329861,-0.04508569505479601
2374,0.12094605763753255,0.1195312786102295,88.64653015136719,90.2218017578125,-2.5592689514160156,85.47554016113281,-0.0066144307454427086,0.417,0.3317857142857143,0.0017089313930935329,-2.208185809204103,1.1645159721374512,42.275089263916016,-0.01750301784939236,-0.033720101250542533
2375,0.09360230763753255,0.1195312786102295,88.38057708740234,90.20133972167969,-2.7638473510742188,85.80287170410156,-0.006841744316948784,0.413,0.3317857142857143,0.0018309911092122396,-1.9555078917236344,0.9008520245552063,42.275089263916016,-0.02023069593641493,-0.03963021172417535
2376,0.10141480763753255,0.13945316314697265,88.0737075805664,90.20133972167969,-2.7638473510742188,85.70057678222656,-0.0066144307454427086,0.4086666666666667,0.3314285714285714,0.0035704506768120658,-1.7907186918945328,-0.3295809202880875,42.275089263916016,-0.023640357123480903,-0.03849360148111979
2377,0.12094605763753255,0.15937503814697265,85.61874389648438,90.20133972167969,-2.743389129638672,85.82332611083984,-0.006841744316948784,0.4043333333333333,0.33035714285714285,0.004730076260036893,-1.8456484251709,-1.2963491850585953,42.275089263916016,-0.050917731391059026,-0.03963016933865017
2378,0.14047730763753255,0.13945316314697265,85.0050048828125,90.20133972167969,-2.7843055725097656,85.98699188232422,-0.006841744316948784,0.40066666666666667,0.3296428571428571,0.004180781046549479,-1.8456484251709,-1.6259294920654312,42.275089263916016,-0.05773705376519097,-0.04190330505371094
2379,0.13657105763753255,0.15937503814697265,84.69813537597656,90.2218017578125,-2.8047637939453125,86.1097412109375,-0.006841744316948784,0.397,0.3292857142857143,0.0036009576585557725,-1.8456484251709,-0.9008528166503922,42.275089263916016,-0.061374070909288196,-0.043494500054253475
2380,0.14438355763753255,0.13945316314697265,85.0050048828125,90.18087768554688,-2.8252220153808594,86.0688247680664,-0.006841744316948784,0.3933333333333333,0.3289285714285714,0.0035704506768120658,-1.9225508146972672,1.1645159721374512,42.275089263916016,-0.057509697808159725,-0.0432671864827474
2381,0.10532105763753255,0.13945316314697265,87.03034973144531,90.20133972167969,-2.743389129638672,85.76194763183594,-0.0066144307454427086,0.39,0.32821428571428574,0.0026854621039496527,-2.1093126707763687,2.900304079055786,42.275089263916016,-0.035233222113715275,-0.03894818623860677
2382,0.08188355763753255,0.13945316314697265,88.33966064453125,90.20133972167969,-2.5797271728515625,85.63920593261719,-0.006841744316948784,0.386,0.34535714285714286,0.004760593838161893,-2.0653692656250016,2.75748610496521,42.275089263916016,-0.020685323079427085,-0.035765923394097225
2383,0.08969605763753255,0.13945316314697265,88.27828979492188,90.20133972167969,-2.6206436157226562,85.68012237548828,-0.0066144307454427086,0.38133333333333336,0.3275,0.007598643832736545,-1.9115644865722672,1.5709980726242065,42.275089263916016,-0.02136722140842014,-0.036675177680121525
2384,0.09750855763753255,0.13945316314697265,88.27828979492188,90.20133972167969,-2.6615562438964844,85.86424255371094,-0.006841744316948784,0.378,0.3271428571428571,0.009185515509711372,-1.8456484251709,0.6262019872665405,42.275089263916016,-0.02136722140842014,-0.03917554219563802
2385,0.10922730763753255,0.13945316314697265,88.29874420166016,90.20133972167969,-2.7843055725097656,85.94607543945312,-0.0066144307454427086,0.374,0.3267857142857143,0.010711341434054904,-1.7797323637695328,-0.20873512561035312,42.275089263916016,-0.021139950222439235,-0.041448677910698783
2386,0.12094605763753255,0.15937503814697265,87.99187469482422,90.20133972167969,-2.722930908203125,85.88470458984375,-0.006841744316948784,0.371,0.3264285714285714,0.011626847585042318,-1.9445234709472672,-0.8898664885253922,42.275089263916016,-0.02454961140950521,-0.0400848388671875
2387,0.10141480763753255,0.13945316314697265,87.64408874511719,90.18087768554688,-2.518352508544922,85.65966796875,-0.006841744316948784,0.36733333333333335,0.32571428571428573,0.009368610382080079,-1.9774805479736344,-1.0656420164794937,42.275089263916016,-0.028186543782552084,-0.03531133863661024
2388,0.07797730763753255,0.13945316314697265,87.5213394165039,90.20133972167969,-2.3751449584960938,85.53691101074219,-0.006841744316948784,0.364,0.32571428571428573,0.007537608676486545,-1.7028299742431656,-1.2853628569335953,42.275089263916016,-0.02977778116861979,-0.032356177435980904
2389,0.07797730763753255,0.15937503814697265,86.0074462890625,90.18087768554688,-2.5797271728515625,85.5164566040039,-0.006841744316948784,0.36033333333333334,0.325,0.006561077965630426,-1.3732515745849625,-1.2524038725585953,42.275089263916016,-0.0463714599609375,-0.03440204196506076
2390,0.08188355763753255,0.15937503814697265,86.08927917480469,90.20133972167969,-2.6001853942871094,85.70057678222656,-0.006841744316948784,0.35733333333333334,0.3242857142857143,0.006011782752143012,-1.175503390380861,-0.5932451658935562,42.275089263916016,-0.045689561631944445,-0.03667513529459635
2391,0.08578980763753255,0.13945316314697265,86.1097412109375,90.18087768554688,-2.5797271728515625,85.63920593261719,-0.006841744316948784,0.354,0.32321428571428573,0.005981265174018012,-1.131558077880861,-0.21972145373535312,42.275089263916016,-0.04523484971788194,-0.035765923394097225
2392,0.08578980763753255,0.15937503814697265,87.88958740234375,90.1604232788086,-2.702472686767578,85.61874389648438,-0.0066144307454427086,0.3506666666666667,0.3225,0.006561077965630426,-1.164517062255861,0.13183200359344482,42.362979888916016,-0.025231509738498265,-0.03690240648057726
2393,0.09750855763753255,0.15937503814697265,88.19645690917969,90.20133972167969,-2.6820144653320312,85.82332611083984,-0.006841744316948784,0.347,0.32142857142857145,0.007690196567111545,-1.1864878111572281,-0.17577614123535312,42.362979888916016,-0.022276475694444443,-0.03894822862413194
2394,0.08188355763753255,0.17929691314697266,88.1146240234375,90.18087768554688,-2.5797271728515625,85.63920593261719,-0.006841744316948784,0.3436666666666667,0.32107142857142856,0.007323996225992838,-1.2304331236572281,-0.9667688780517594,42.275089263916016,-0.0229583740234375,-0.035765923394097225
2395,0.05844605763753255,0.13945316314697265,88.13508605957031,90.1604232788086,-2.641101837158203,85.5982894897461,-0.006841744316948784,0.341,0.32071428571428573,0.004028193155924479,-1.0656420164794937,-0.9997259550781266,42.362979888916016,-0.02250374688042535,-0.0359932369656033
2396,0.03500855763753255,0.17929691314697266,88.09416198730469,90.18087768554688,-2.702472686767578,85.80287170410156,-0.006841744316948784,0.338,0.32,0.0022887441847059464,-0.9887415343017594,-1.6918455534667984,42.362979888916016,-0.02318572998046875,-0.038948271009657115
2397,0.04282105763753255,0.15937503814697265,85.43462371826172,90.18087768554688,-2.743389129638672,85.76194763183594,-0.006841744316948784,0.335,0.3196428571428571,0.0009154955546061198,-0.9887415343017594,-2.6695982390136734,42.362979888916016,-0.052736155192057294,-0.03894818623860677
2398,0.07797730763753255,0.15937503814697265,85.557373046875,90.13996887207031,-2.6820144653320312,85.82332611083984,-0.006841744316948784,0.33166666666666667,0.3192857142857143,0.0013122134738498264,-1.0216986113281266,-2.3070608549804703,42.362979888916016,-0.050917731391059026,-0.03894822862413194
2399,0.08969605763753255,0.17929691314697266,85.23004150390625,90.13996887207031,-2.743389129638672,85.80287170410156,-0.006841744316948784,0.328,0.31857142857142856,0.0007018831041124132,-1.1974741392822281,-1.527054446289064,42.362979888916016,-0.05455474853515625,-0.03940289815266927
2400,0.10141480763753255,0.15937503814697265,85.29141998291016,90.1604232788086,-2.7843055725097656,86.08927917480469,-0.0066144307454427086,0.325,0.31857142857142856,9.15421379937066e-05,-1.4281813078613297,-0.4723993712158219,42.362979888916016,-0.05410003662109375,-0.043039830525716145
2401,0.09360230763753255,0.17929691314697266,86.90760040283203,90.13996887207031,-2.743389129638672,85.98699188232422,-0.006841744316948784,0.32166666666666666,0.3175,0.0004882600572374132,-1.7248026304931656,0.5273280143737793,42.362979888916016,-0.03591520521375868,-0.041448677910698783
2402,0.08188355763753255,0.17929691314697266,87.09172058105469,90.1195068359375,-2.5797271728515625,85.63920593261719,-0.006841744316948784,0.318,0.3175,0.0006713655259874132,-1.7907186918945328,0.8239500522613525,42.362979888916016,-0.03364206949869792,-0.035765923394097225
2403,0.08578980763753255,0.15937503814697265,87.1121826171875,90.1195068359375,-2.5592689514160156,85.5982894897461,-0.0066144307454427086,0.31333333333333335,0.31785714285714284,0.0011291080050998264,-1.7248026304931656,0.2526780068874359,42.362979888916016,-0.03341471354166667,-0.03508398267957899
2404,0.07797730763753255,0.19921878814697266,87.1121826171875,90.1195068359375,-2.518352508544922,85.63920593261719,-0.007069057888454861,0.30966666666666665,0.31785714285714284,0.0015563435024685329,-1.7138163023681656,-0.5712725096435562,42.362979888916016,-0.03341471354166667,-0.03508398267957899
2405,0.10922730763753255,0.17929691314697266,84.77996826171875,90.0785903930664,-2.4365196228027344,85.82332611083984,-0.007069057888454861,0.30633333333333335,0.3182142857142857,0.0029601097106933595,-1.4281813078613297,-1.131558077880861,42.362979888916016,-0.05887357923719618,-0.0362205081515842
2406,0.09750855763753255,0.19921878814697266,84.32989501953125,90.0785903930664,-2.3956031799316406,85.5164566040039,-0.006159803602430555,0.30266666666666664,0.3182142857142857,0.0018920262654622396,-1.6039568358154312,-0.6481748991699234,42.362979888916016,-0.06387439303927951,-0.03235621982150608
2407,0.09360230763753255,0.19921878814697266,86.27340698242188,90.0785903930664,-2.8047637939453125,85.96653747558594,-0.006841744316948784,0.2996666666666667,0.31857142857142856,0.0015258259243435329,-1.6259294920654312,0.2856360077857971,42.362979888916016,-0.042279815673828124,-0.04190334743923611
2408,0.10141480763753255,0.17929691314697266,86.25294494628906,90.05813598632812,-2.8865966796875,86.559814453125,-0.0066144307454427086,0.2966666666666667,0.3182142857142857,0.0026244269476996527,-1.8346620970459,0.5932440161705017,42.362979888916016,-0.04227990044487847,-0.04940456814236111
2409,0.09750855763753255,0.17929691314697266,87.23492431640625,90.03767395019531,-2.722930908203125,85.98699188232422,-0.006841744316948784,0.2926666666666667,0.31785714285714284,0.0032042503356933595,-2.3949495726318375,0.7690200209617615,42.362979888916016,-0.03114166259765625,-0.041221364339192705
2410,0.10141480763753255,0.19921878814697266,87.0098876953125,90.03767395019531,-2.743389129638672,85.94607543945312,-0.006841744316948784,0.288,0.31785714285714284,0.005004723866780599,-2.3070608549804703,0.24169200658798218,42.362979888916016,-0.03364206949869792,-0.040994050767686634
2411,0.10141480763753255,0.19921878814697266,84.94363403320312,90.0172119140625,-2.8252220153808594,86.33477783203125,-0.006841744316948784,0.2843333333333333,0.3182142857142857,0.005279382069905599,-2.153256075927736,-0.2526785307617203,42.362979888916016,-0.05637308756510417,-0.046222220526801215
2412,0.08578980763753255,0.15937503814697265,85.14820861816406,89.99675750732422,-2.641101837158203,85.39370727539062,-0.006841744316948784,0.2813333333333333,0.31892857142857145,0.0025023672315809464,-2.3290335112304703,0.05493000149726868,42.362979888916016,-0.053872765435112845,-0.033720101250542533
2413,0.07016480763753255,0.17929691314697266,85.23004150390625,89.99675750732422,-2.722930908203125,85.80287170410156,-0.006841744316948784,0.277,0.3192857142857143,0.0023497793409559464,-1.9994532042236344,0.3954960107803345,42.362979888916016,-0.052963511149088545,-0.03917558458116319
2414,0.08969605763753255,0.17929691314697266,87.13264465332031,89.97630310058594,-2.7843055725097656,86.21202850341797,-0.006841744316948784,0.27366666666666667,0.3192857142857143,0.004363875918918186,-1.8895918303222672,0.7800060510635376,42.362979888916016,-0.031596204969618055,-0.0444037119547526
2415,0.10922730763753255,0.17929691314697266,87.93049621582031,89.99675750732422,-2.5797271728515625,85.49600219726562,-0.006841744316948784,0.2693333333333333,0.3196428571428571,0.0069577958848741316,-2.0433966093750016,1.307334065437317,42.362979888916016,-0.022958458794487848,-0.03417477077907986
2416,0.10141480763753255,0.17929691314697266,85.14820861816406,89.95584106445312,-2.5388107299804688,85.53691101074219,-0.006841744316948784,0.2653333333333333,0.3196428571428571,0.007690196567111545,-1.8126913481445328,0.06591600179672241,42.362979888916016,-0.053418138292100695,-0.03417468600802952
2417,0.12094605763753255,0.17929691314697266,86.33477783203125,89.97630310058594,-2.5797271728515625,85.5982894897461,-0.006841744316948784,0.262,0.32,0.009124480353461372,-1.7138163023681656,-0.18676246936035312,42.362979888916016,-0.04046139187282986,-0.03531129625108507
2418,0.12485230763753255,0.19921878814697266,87.62362670898438,89.95584106445312,-2.7638473510742188,85.90515899658203,-0.0066144307454427086,0.25766666666666665,0.3196428571428571,0.010558764139811197,-1.4831110411376969,0.06591600179672241,42.362979888916016,-0.025913492838541666,-0.040766737196180555
2419,0.13657105763753255,0.19921878814697266,87.62362670898438,89.93538665771484,-2.743389129638672,86.02790832519531,-0.006841744316948784,0.25466666666666665,0.3196428571428571,0.01110805935329861,-1.6039568358154312,0.2526780068874359,42.362979888916016,-0.025686221652560765,-0.04190330505371094
2420,0.14047730763753255,0.15937503814697265,87.562255859375,89.93538665771484,-2.743389129638672,85.74149322509766,-0.006841744316948784,0.252,0.3196428571428571,0.010680823855929904,-1.7028299742431656,0.10986000299453735,42.362979888916016,-0.02636811998155382,-0.03872091505262587
2421,0.13266480763753255,0.19921878814697266,87.5213394165039,89.91493225097656,-2.7638473510742188,85.88470458984375,-0.0066144307454427086,0.249,0.3192857142857143,0.01138271755642361,-1.5929705076904312,-0.16478981311035312,42.362979888916016,-0.02659547593858507,-0.04053946601019965
2422,0.16782105763753255,0.17929691314697266,87.50088500976562,89.89447021484375,-2.8047637939453125,86.1097412109375,-0.0066144307454427086,0.24533333333333332,0.3192857142857143,0.012878025902642145,-1.516068118164064,-0.17577614123535312,42.362979888916016,-0.02659539116753472,-0.043494500054253475
2423,0.16782105763753255,0.15937503814697265,87.5213394165039,89.89447021484375,-2.8047637939453125,85.82332611083984,-0.006841744316948784,0.242,0.3192857142857143,0.012206660376654731,-1.8236757689209,-0.19774879748535312,42.362979888916016,-0.02636811998155382,-0.040312110053168405
2424,0.15219605763753255,0.15937503814697265,87.5213394165039,89.87400817871094,-2.6820144653320312,85.74149322509766,-0.006841744316948784,0.23833333333333334,0.3192857142857143,0.01119961208767361,-2.0214239531250016,-0.6921183043212906,42.362979888916016,-0.02614076402452257,-0.03803897433810764
2425,0.16782105763753255,0.15937503814697265,86.41661071777344,89.87400817871094,-2.2114830017089844,85.29141998291016,-0.0066144307454427086,0.23366666666666666,0.3196428571428571,0.011443742116292318,-2.0104395323486344,-0.8788801604003922,42.362979888916016,-0.03841552734375,-0.027810033162434897
2426,0.16000855763753255,0.15937503814697265,86.6007308959961,89.87400817871094,-2.313770294189453,85.49600219726562,-0.006841744316948784,0.23066666666666666,0.32,0.010650316874186197,-1.4281813078613297,-0.4504267149658219,42.362979888916016,-0.03636974758572049,-0.03121969434950087
2427,0.09750855763753255,0.17929691314697266,86.58027648925781,89.83309936523438,-2.518352508544922,85.43462371826172,-0.006841744316948784,0.227,0.32035714285714284,0.007873291439480252,-1.3512789183349625,-0.19774879748535312,42.362979888916016,-0.03614247639973958,-0.03281084696451823
2428,0.09750855763753255,0.15937503814697265,86.33477783203125,89.81263732910156,-2.477436065673828,85.47554016113281,-0.006841744316948784,0.22366666666666668,0.32035714285714284,0.007201925913492838,-1.4721247130126969,-0.5602861815185562,42.362979888916016,-0.03864288330078125,-0.03281084696451823
2429,0.13266480763753255,0.15937503814697265,86.41661071777344,89.83309936523438,-2.641101837158203,85.57783508300781,-0.0066144307454427086,0.21966666666666668,0.32,0.009429645538330079,-1.1095873289794937,-0.6152159147949234,42.362979888916016,-0.037960984971788195,-0.0357659657796224
2430,0.11313355763753255,0.17929691314697266,86.47798156738281,89.83309936523438,-2.6615562438964844,85.92561340332031,-0.0066144307454427086,0.21633333333333332,0.3196428571428571,0.008086914486355252,-0.8898664885253922,0.26366400718688965,42.362979888916016,-0.03727908664279514,-0.039857440524631076
2431,0.04282105763753255,0.13945316314697265,84.84133911132812,89.79217529296875,-2.6615562438964844,85.68012237548828,-0.006841744316948784,0.21366666666666667,0.3192857142857143,0.0030821800231933595,-1.131558077880861,-0.3515516691894547,42.362979888916016,-0.05500929090711806,-0.03712976243760851
2432,0.06235230763753255,0.19921878814697266,85.1072998046875,89.71034240722656,-2.641101837158203,85.74149322509766,-0.006841744316948784,0.21033333333333334,0.31857142857142856,0.005065759023030599,-1.3952223234863297,-1.0766283446044937,42.362979888916016,-0.051144917805989586,-0.03758438958062066
2433,0.10922730763753255,0.19921878814697266,85.31187438964844,89.81263732910156,-2.6615562438964844,85.68012237548828,-0.007296371459960938,0.20733333333333334,0.3182142857142857,0.008178467220730252,-1.3512789183349625,-0.3515516691894547,42.362979888916016,-0.05000847710503472,-0.03712976243760851
2434,0.11313355763753255,0.19921878814697266,87.35768127441406,89.85355377197266,-2.8456802368164062,86.39614868164062,-0.0066144307454427086,0.204,0.31785714285714284,0.009002410040961372,-1.0326849394531266,0.5383139848709106,43.153987884521484,-0.02773191663953993,-0.04713143242730035
2435,0.09750855763753255,0.219140682220459,86.19157409667969,89.62850952148438,-2.8456802368164062,86.0074462890625,-0.006841744316948784,0.20166666666666666,0.3167857142857143,0.008727762434217665,-1.0436712675781266,0.12084600329399109,43.153987884521484,-0.03818817138671875,-0.04281251695421007
2436,0.09750855763753255,0.219140682220459,86.31431579589844,90.20133972167969,-2.7843055725097656,86.25294494628906,-0.0066144307454427086,0.19866666666666666,0.31642857142857145,0.009460163116455079,-1.3842359953613297,0.32958000898361206,43.153987884521484,-0.043189154730902776,-0.04485833909776476
2437,0.11313355763753255,0.19921878814697266,86.29386138916016,91.1628646850586,-2.7843055725097656,85.92561340332031,-0.006841744316948784,0.19633333333333333,0.31607142857142856,0.010467211405436197,-1.538040774414064,0.19774800539016724,43.153987884521484,-0.05410003662109375,-0.04122132195366753
2438,0.12094605763753255,0.219140682220459,86.29386138916016,90.05813598632812,-2.8047637939453125,86.0074462890625,-0.006841744316948784,0.19233333333333333,0.3157142857142857,0.011993047926161024,-1.4391657286376969,0.06591600179672241,43.153987884521484,-0.04182527330186632,-0.04235788981119792
2439,0.12485230763753255,0.239062557220459,87.15309143066406,91.6333999633789,-2.7843055725097656,86.08927917480469,-0.007069057888454861,0.19,0.3157142857142857,0.013396814134385851,-1.3622652464599625,-0.01098694140625156,43.153987884521484,-0.04978120591905382,-0.043039830525716145
2440,0.12485230763753255,0.239062557220459,87.13264465332031,90.69232940673828,-3.0093421936035156,86.90760040283203,-0.006841744316948784,0.18633333333333332,0.31535714285714284,0.014007144504123263,-1.4940973692626969,-0.03295769030761875,43.153987884521484,-0.03955205281575521,-0.05463269551595052
2441,0.13266480763753255,0.239062557220459,87.31675720214844,91.36744689941406,-3.1934661865234375,87.29630279541016,-0.0066144307454427086,0.18366666666666667,0.31464285714285717,0.014678510030110677,-2.175228732177736,0.3076080083847046,43.153987884521484,-0.04500766330295139,-0.06099743313259549
2442,0.12875855763753255,0.25898443222045897,87.25538635253906,92.41080474853516,-2.7843055725097656,85.68012237548828,-0.0066144307454427086,0.17966666666666667,0.31464285714285717,0.01577712164984809,-2.867346423217775,0.20873400568962097,43.153987884521484,-0.05728242662217882,-0.038493643866644965
2443,0.13657105763753255,0.25898443222045897,87.23492431640625,91.32653045654297,-2.8865966796875,86.45751953125,-0.006841744316948784,0.17566666666666667,0.315,0.016906229654947917,-2.6146685057373062,-0.2636648588867203,43.153987884521484,-0.04546229044596354,-0.048267957899305554
2444,0.14438355763753255,0.25898443222045897,87.54179382324219,92.49263000488281,-3.0093421936035156,87.23492431640625,-0.0066144307454427086,0.17233333333333334,0.31464285714285717,0.018371031019422744,-2.482836382934572,-0.6481748991699234,43.153987884521484,-0.05500929090711806,-0.058269627888997394
2445,0.17172730763753255,0.239062557220459,88.48286437988281,92.77904510498047,-3.0298004150390625,86.25294494628906,-0.0066144307454427086,0.16733333333333333,0.315,0.019194984436035158,-2.559738772460939,-0.7250772886962906,43.153987884521484,-0.047735341389973956,-0.0475860595703125
2446,0.16782105763753255,0.219140682220459,85.0459213256836,88.36012268066406,-2.9684295654296875,86.08927917480469,-0.006841744316948784,0.164,0.315,0.01736397213406033,-2.3839632445068375,-1.8786074095459,42.97821044921875,-0.03682445949978298,-0.04508565266927083
2447,0.16391480763753255,0.25898443222045897,85.65966796875,90.18087768554688,-3.0093421936035156,86.04837036132812,-0.007296371459960938,0.15966666666666668,0.3157142857142857,0.017180887858072917,-2.4059339934082047,-1.8895918303222672,42.97821044921875,-0.05023566351996528,-0.04508569505479601
2448,0.17953980763753255,0.25898443222045897,85.68012237548828,90.03767395019531,-2.9275131225585938,85.96653747558594,-0.0066144307454427086,0.15566666666666668,0.31535714285714284,0.01730293697781033,-2.3180471831054703,-1.2524038725585953,42.97821044921875,-0.04841723971896701,-0.04326722886827257
2449,0.17953980763753255,0.219140682220459,85.72103881835938,89.91493225097656,-2.9684295654296875,85.82332611083984,-0.0066144307454427086,0.15166666666666667,0.3157142857142857,0.01531935797797309,-1.9445234709472672,-0.3625379973144547,42.97821044921875,-0.04659881591796875,-0.04213061862521701
2450,0.16782105763753255,0.19921878814697266,86.33477783203125,91.32653045654297,-1.6181983947753906,85.78240966796875,-0.006841744316948784,0.148,0.31535714285714284,0.013396814134385851,-1.9994532042236344,0.16479000449180603,42.97821044921875,-0.055463918050130206,-0.02667342291937934
2451,0.16782105763753255,0.19921878814697266,86.23248291015625,91.14241027832031,-2.313770294189453,85.65966796875,-0.006841744316948784,0.144,0.3157142857142857,0.013152684105767145,-1.6039568358154312,0.032958000898361206,42.97821044921875,-0.05455474853515625,-0.03303820292154948
2452,0.17953980763753255,0.15937503814697265,86.21202850341797,91.20378112792969,-2.3751449584960938,85.84378051757812,-0.006841744316948784,0.13933333333333334,0.3157142857142857,0.012389765845404731,-1.1974741392822281,0.3405660092830658,42.97821044921875,-0.055463918050130206,-0.03576583862304687
2453,0.12094605763753255,0.15937503814697265,86.27340698242188,91.32653045654297,-2.3751449584960938,85.557373046875,-0.006841744316948784,0.13733333333333334,0.31535714285714284,0.009704293145073786,-1.2084604674072281,0.4394400119781494,42.97821044921875,-0.05614581637912326,-0.032583533393012155
2454,0.08578980763753255,0.17929691314697266,86.08927917480469,89.58760070800781,-2.3956031799316406,85.80287170410156,-0.006841744316948784,0.133,0.31535714285714284,0.007690196567111545,-0.7250772886962906,-1.2194467955322281,43.241878509521484,-0.0388702392578125,-0.03553860982259115
2455,0.11313355763753255,0.17929691314697266,85.96653747558594,88.6669921875,-2.0478172302246094,85.47554016113281,-0.0066144307454427086,0.12866666666666668,0.3157142857142857,0.008575174543592665,-1.3293062620849625,-1.7248026304931656,43.417659759521484,-0.030005052354600693,-0.0280373043484158
2456,0.10922730763753255,0.19921878814697266,85.96653747558594,88.6056137084961,-2.2933120727539062,84.94363403320312,-0.0066144307454427086,0.12533333333333332,0.31535714285714284,0.007720714145236545,-1.2194467955322281,-1.6149431639404312,44.82389831542969,-0.029323069254557292,-0.024854956732855902
2457,0.15610230763753255,0.1195312786102295,83.75706481933594,85.53691101074219,-2.2319412231445312,86.04837036132812,-0.006841744316948784,0.12266666666666666,0.31535714285714284,0.005187829335530599,-0.4394403868408219,-2.7684732847900406,45.17546081542969,-0.01977606879340278,-0.036447906494140626
2458,0.15610230763753255,0.1195312786102295,83.69569396972656,84.92317199707031,-1.9864425659179688,85.0050048828125,-0.006841744316948784,0.12,0.31642857142857145,0.0029906272888183595,-0.48338379199218906,-2.0873400145263687,45.26335144042969,-0.013638644748263888,-0.022127193874782985
2459,0.07407105763753255,0.17929691314697266,84.37080383300781,87.97142028808594,-2.0273590087890625,84.94363403320312,-0.006841744316948784,0.11633333333333333,0.3175,-0.0003356827629937066,-0.7360617094726578,-0.07690300280761875,45.26335144042969,-0.04000684950086805,-0.021899922688802084
2460,0.10141480763753255,0.13945316314697265,84.45263671875,87.93049621582031,-2.6615562438964844,85.88470458984375,-0.0066144307454427086,0.11433333333333333,0.3175,0.0004272249009874132,-0.4723993712158219,0.05493000149726868,45.26335144042969,-0.03864288330078125,-0.03940289815266927
2461,0.14438355763753255,0.19921878814697266,87.43951416015625,91.51065063476562,-2.497894287109375,86.17111206054688,-0.006841744316948784,0.111,0.31785714285714284,0.006744183434380426,-0.9118391447753922,1.0546560287475586,45.26335144042969,-0.04523484971788194,-0.040766737196180555
2462,0.24203980763753255,0.15937503814697265,87.15309143066406,92.26759338378906,-2.5797271728515625,86.1097412109375,-0.006841744316948784,0.10866666666666666,0.31785714285714284,0.010711341434054904,-0.9557825499267594,1.4611380100250244,45.26335144042969,-0.05682779947916667,-0.04099409315321181
2463,0.23422730763753255,0.15937503814697265,89.19889831542969,90.93782806396484,-2.3956031799316406,86.37569427490234,-0.0066144307454427086,0.10566666666666667,0.3182142857142857,0.012847508324517145,-1.2084604674072281,1.6039559841156006,45.26335144042969,-0.019321441650390625,-0.04190330505371094
2464,0.19907105763753255,0.15937503814697265,87.62362670898438,91.59248352050781,-2.6206436157226562,86.29386138916016,-0.0066144307454427086,0.103,0.31857142857142856,0.012420283423529731,-1.164517062255861,1.0986000299453735,45.26335144042969,-0.04409840901692708,-0.043494500054253475
2465,0.17172730763753255,0.17929691314697266,91.14241027832031,94.80438995361328,-2.866138458251953,86.84622192382812,-0.006841744316948784,0.09933333333333333,0.31857142857142856,0.013061131371392145,-1.0326849394531266,1.9994521141052246,45.26335144042969,-0.04068866305881076,-0.05235955980088976
2466,0.13266480763753255,0.13945316314697265,81.79310607910156,83.98210144042969,-1.6795730590820312,84.82088470458984,-0.006841744316948784,0.096,0.3192857142857143,0.01019256379869249,-1.7248026304931656,-1.142544406005861,45.26335144042969,-0.024322170681423613,-0.0166717529296875
2467,0.24985230763753255,0.1195312786102295,87.0098876953125,92.574462890625,-2.272857666015625,85.72103881835938,-0.006841744316948784,0.09433333333333334,0.32035714285714284,0.012359248267279731,-0.823950427124025,-0.5712725096435562,45.26335144042969,-0.06182861328125,-0.03326551649305556
2468,0.14828980763753255,0.219140682220459,90.75370788574219,94.82484436035156,-2.3956031799316406,85.86424255371094,-0.0066144307454427086,0.08833333333333333,0.32107142857142856,0.014098697238498263,-1.0436712675781266,1.3732500076293945,45.26335144042969,-0.04523484971788194,-0.0362205081515842
2469,0.12094605763753255,0.219140682220459,88.36012268066406,92.1653060913086,-2.4569778442382812,86.02790832519531,-0.006841744316948784,0.085,0.32107142857142856,0.013305261400010851,-1.3293062620849625,1.3293060064315796,45.17546081542969,-0.042279815673828124,-0.038720957438151044
2470,0.14438355763753255,0.19921878814697266,88.27828979492188,93.74057006835938,-3.0093421936035156,86.21202850341797,-0.006841744316948784,0.08266666666666667,0.32107142857142856,0.016204346550835504,-1.2524038725585953,0.6811320185661316,45.17546081542969,-0.06069200303819444,-0.04690411885579427
2471,0.14047730763753255,0.17929691314697266,88.46240997314453,92.61538696289062,-3.0298004150390625,86.662109375,-0.006841744316948784,0.079,0.32107142857142856,0.01528884039984809,-1.5819841795654312,0.1538040041923523,45.17546081542969,-0.046144188774956595,-0.052132331000434025
2472,0.11313355763753255,0.17929691314697266,86.25294494628906,88.19645690917969,-2.9888877868652344,86.96897888183594,-0.0066144307454427086,0.07633333333333334,0.32142857142857145,0.014190249972873263,-2.4498793059082047,-0.8788801604003922,44.91178894042969,-0.021594577365451388,-0.05508740743001302
2473,0.16000855763753255,0.17929691314697266,88.72836303710938,90.38545989990234,-2.9888877868652344,87.05081176757812,-0.006841744316948784,0.07333333333333333,0.32142857142857145,0.016173828972710504,-2.5926958494873062,-1.0436712675781266,44.03289031982422,-0.01841218736436632,-0.05599666171603733
2474,0.19125855763753255,0.15937503814697265,89.13752746582031,92.47217559814453,-3.0707168579101562,85.78240966796875,-0.0066144307454427086,0.06933333333333333,0.3217857142857143,0.016784159342447917,-2.7684732847900406,-1.175503390380861,44.03289031982422,-0.03705164591471354,-0.04281251695421007
2475,0.15610230763753255,0.17929691314697266,86.6007308959961,88.64653015136719,-2.4160614013671875,84.77996826171875,-0.0066144307454427086,0.066,0.3221428571428571,0.014983685811360677,-2.9772058897705094,-2.142269747802736,43.85710906982422,-0.022731102837456597,-0.02440032958984375
2476,0.16391480763753255,0.19921878814697266,86.19157409667969,85.12775421142578,-2.6001853942871094,86.0688247680664,-0.006841744316948784,0.062,0.32321428571428573,0.014800580342610677,-2.3839632445068375,-2.4279066496582047,43.85710906982422,0.011820220947265625,-0.04076677958170573
2477,0.17953980763753255,0.19921878814697266,86.27340698242188,89.44439697265625,-2.641101837158203,85.76194763183594,-0.0066144307454427086,0.05633333333333333,0.32357142857142857,0.014525922139485677,-2.3290335112304703,-1.7357889586181656,43.85710906982422,-0.035233222113715275,-0.037811660766601564
2478,0.17563355763753255,0.19921878814697266,85.76194763183594,49.03984451293945,-2.5797271728515625,85.82332611083984,-0.0066144307454427086,0.05266666666666667,0.32357142857142857,0.013488366868760851,-2.0653692656250016,-1.2524038725585953,43.85710906982422,0.4080233679877387,-0.03781170315212674
2479,0.17953980763753255,0.19921878814697266,86.98943328857422,49.244422912597656,-2.722930908203125,86.64164733886719,-0.0066144307454427086,0.04933333333333333,0.32357142857142857,0.013244226243760851,-1.8566347532959,-0.8898664885253922,43.85710906982422,0.41938900417751734,-0.048495313856336805
2480,0.18735230763753255,0.19921878814697266,86.80531311035156,48.97846984863281,-3.0093421936035156,86.98943328857422,-0.0066144307454427086,0.04533333333333334,0.32321428571428573,0.013427331712510851,-2.3290335112304703,-0.5383154326171891,43.85710906982422,0.4202982584635417,-0.05554194980197483
2481,0.17563355763753255,0.219140682220459,86.80531311035156,49.14213180541992,-2.9684295654296875,86.1097412109375,-0.0066144307454427086,0.042,0.32321428571428573,0.013366296556260851,-2.526779788085939,0.02197200059890747,43.85710906982422,0.4184797922770182,-0.04531300862630208
2482,0.18735230763753255,0.19921878814697266,86.78485107421875,49.121673583984375,-3.0298004150390625,86.49844360351562,-0.0066144307454427086,0.03833333333333333,0.32285714285714284,0.013274743821885851,-2.142269747802736,0.19774800539016724,43.85710906982422,0.41847974989149306,-0.05031382242838542
2483,0.19907105763753255,0.17929691314697266,87.76683807373047,49.57175064086914,-2.9479713439941406,86.33477783203125,-0.0066144307454427086,0.035333333333333335,0.32321428571428573,0.013122166527642145,-1.9664942198486344,0.6042300462722778,43.85710906982422,0.4243898603651259,-0.04758610195583767
2484,0.15610230763753255,0.17929691314697266,87.72592163085938,49.40808868408203,-3.0298004150390625,86.64164733886719,-0.0066144307454427086,0.030666666666666665,0.32321428571428573,0.012206660376654731,-2.1093126707763687,0.3185940086841583,43.85710906982422,0.42575369940863717,-0.05190497504340278
2485,0.17172730763753255,0.17929691314697266,85.82332611083984,49.20350646972656,-2.9684295654296875,86.35523986816406,-0.006841744316948784,0.027666666666666666,0.32285714285714284,0.012725448608398438,-2.4059339934082047,-0.5822588377685562,43.85710906982422,0.4068868849012587,-0.048040771484375
2486,0.23422730763753255,0.15937503814697265,88.50332641601562,49.36717224121094,-2.9888877868652344,86.43707275390625,-0.0066144307454427086,0.023333333333333334,0.32285714285714284,0.01553298102484809,-2.4279066496582047,-0.5822588377685562,43.85710906982422,0.43484615749782984,-0.04917733934190538
2487,0.2576648076375326,0.13945316314697265,89.73080444335938,48.016944885253906,-2.9888877868652344,86.13019561767578,-0.0066144307454427086,0.018666666666666668,0.32285714285714284,0.014403873019748263,-2.153256075927736,-0.3845106535644547,43.85710906982422,0.4634873284233941,-0.045767593383789065
2488,0.17953980763753255,0.13945316314697265,86.58027648925781,48.93755340576172,-2.743389129638672,85.27096557617188,-0.0066144307454427086,0.016,0.3225,0.010924964480929904,-1.6918455534667984,0.6811320185661316,43.85710906982422,0.41825247870551213,-0.033492830064561635
2489,0.16782105763753255,0.1195312786102295,87.70545959472656,49.449005126953125,-2.743389129638672,85.86424255371094,-0.0066144307454427086,0.012,0.32142857142857145,0.01025359895494249,-0.6701475554199234,0.4394400119781494,43.85710906982422,0.42507171630859375,-0.04008479648166233
2490,0.15219605763753255,0.13945316314697265,86.13019561767578,48.835262298583984,-1.6181983947753906,84.12531280517578,-0.0066144307454427086,0.007333333333333333,0.32035714285714284,0.009887398613823786,0.010986000299453735,-0.21972145373535312,42.538761138916016,0.41438814798990886,-0.00826123555501302
2491,0.10532105763753255,0.13945316314697265,88.1555404663086,49.387630462646484,-1.6591148376464844,84.554931640625,-0.0066144307454427086,0.004333333333333333,0.31857142857142856,0.0068662431504991316,0.8349360227584839,-0.3405672484130875,41.13251876831055,0.43075455559624565,-0.013489405314127604
2492,0.07407105763753255,0.09960939407348633,81.79310607910156,48.323814392089844,-1.0862922668457031,83.92073059082031,-0.0066144307454427086,0.003,0.31642857142857145,0.0031126976013183595,1.0436700582504272,-1.2084604674072281,35.50756072998047,0.37188101874457463,-7.803175184461806e-05
2493,0.027196057637532554,0.1195312786102295,84.92317199707031,48.958011627197266,-0.9840011596679688,83.38882446289062,-0.0066144307454427086,0.0013333333333333333,0.3117857142857143,-0.0005187882317437066,1.0546560287475586,0.4723980128765106,29.44314956665039,0.39961289299858943,0.006968604193793403
2494,-0.019678942362467446,0.1195312786102295,84.24806213378906,48.40564727783203,-1.1885833740234375,84.75950622558594,-0.006841744316948784,0.001,0.30857142857142855,-0.0026854727003309464,1.0546560287475586,0.9887400269508362,25.224430084228516,0.39824905395507815,-0.01053432888454861
2495,-0.007960192362467448,0.09960939407348633,86.04837036132812,48.34427261352539,1.45050048828125,81.05661010742188,-0.0066144307454427086,0.0,0.30178571428571427,-0.0016173892550998264,1.0766279697418213,1.2853620052337646,25.224430084228516,0.4189344194200304,0.059932115342881946
2496,0.011571057637532552,0.09960939407348633,85.96653747558594,48.97846984863281,2.2688217163085938,80.0337142944336,-0.0066144307454427086,0.0,0.2982142857142857,-0.0,2.208186149597168,1.0766279697418213,25.136539459228516,0.4109785291883681,0.08039008246527778
