,WD,WS,AIL_1,AIL_2,ELEV_1,ELEV_2,RUDD,ALT,GS,TH,PTCH,ROLL,PLA_1,AIL,ELEV
2885,-0.013575177305772476,1.753125457763672,82.59095764160156,82.81600189208984,25.222694396972656,60.61907196044922,-0.0066144307454427086,0.001,0.0,-0.01043667263454861,0.516342043876648,0.2856360077857971,24.60919952392578,-0.002500491672092014,0.551151360405816
2886,-0.013575177305772476,1.753125457763672,82.65233612060547,82.9592056274414,25.26361083984375,60.61907196044922,-0.0066144307454427086,0.0006666666666666666,0.0,-0.00970425075954861,0.6811320185661316,0.2526780068874359,24.60919952392578,-0.003409661187065972,0.5516059875488282
2887,-0.009668927305772476,1.753125457763672,82.63188171386719,83.08195495605469,25.24315643310547,60.578155517578125,-0.0066144307454427086,0.0006666666666666666,0.0,-0.008178456624348959,0.5712720155715942,0.2746500074863434,24.60919952392578,-0.0050008138020833336,0.5518333435058593
2888,-0.009668927305772476,1.753125457763672,82.69325256347656,83.12287139892578,25.284072875976562,60.61907196044922,-0.0066144307454427086,0.001,0.0,-0.0077512105305989586,0.5383139848709106,0.19774800539016724,24.60919952392578,-0.004773542616102431,0.5518333435058593
2889,-0.009668927305772476,1.753125457763672,82.69325256347656,83.12287139892578,25.324989318847656,60.59861373901367,-0.006841744316948784,0.0013333333333333333,0.0,-0.008392079671223959,0.5273280143737793,0.2197200059890747,24.60919952392578,-0.004773542616102431,0.5525152842203777
2890,-0.013575177305772476,1.7730473327636718,82.57050323486328,83.12287139892578,25.324989318847656,60.59861373901367,-0.006841744316948784,0.0013333333333333333,0.0,-0.009155019124348959,0.4614120125770569,0.23070600628852844,24.60919952392578,-0.006137424045138889,0.5525152842203777
2891,-0.013575177305772476,1.7730473327636718,81.42485809326172,82.73416900634766,25.345443725585938,60.59861373901367,-0.006841744316948784,0.0013333333333333333,0.0,-0.00976528591579861,0.48338401317596436,0.24169200658798218,24.60919952392578,-0.014547899034288195,0.5527425554063585
2892,-0.013575177305772476,1.7730473327636718,79.50180053710938,75.04196166992188,25.345443725585938,60.55769729614258,-0.006841744316948784,0.0003333333333333333,0.0,-0.01013149685329861,0.5273280143737793,0.3076080083847046,24.60919952392578,0.049553765190972224,0.5531971825493707
2893,-0.013575177305772476,1.7730473327636718,79.52226257324219,75.26699829101562,25.447731018066406,60.59861373901367,-0.006841744316948784,0.002,0.0,-0.01019253200954861,0.4943700134754181,0.2526780068874359,24.60919952392578,0.04728071424696181,0.5538790808783637
2894,-0.013575177305772476,1.7730473327636718,79.27676391601562,75.12379455566406,25.4886474609375,60.578155517578125,-0.0066144307454427086,0.0006666666666666666,0.0,-0.00994839138454861,0.5053560137748718,0.19774800539016724,24.60919952392578,0.04614410400390625,0.5545610215928819
2895,-0.013575177305772476,1.7730473327636718,79.33814239501953,74.67372131347656,25.509109497070312,60.59861373901367,-0.006841744316948784,0.0006666666666666666,0.0,-0.009277089436848959,0.4943700134754181,0.23070600628852844,24.60919952392578,0.05182690090603299,0.5545610639784071
2896,-0.009668927305772476,1.7730473327636718,78.8880615234375,72.85295104980469,25.550025939941406,60.55769729614258,-0.0066144307454427086,0.0013333333333333333,0.0,-0.007995351155598959,0.5273280143737793,0.13183200359344482,24.60919952392578,0.06705678304036458,0.5554703182644314
2897,-0.009668927305772476,1.7730473327636718,78.96989440917969,73.3848648071289,25.5909423828125,60.578155517578125,-0.0066144307454427086,0.0003333333333333333,0.0,-0.006255933973524305,0.4943700134754181,0.373524010181427,24.60919952392578,0.062055884467230905,0.5556976318359375
2898,-0.009668927305772476,1.7730473327636718,79.0312728881836,73.89631652832031,25.672775268554688,60.55769729614258,-0.006841744316948784,0.0003333333333333333,0.0,-0.004241773817274305,0.6811320185661316,0.41746801137924194,24.60919952392578,0.05705507066514757,0.5568341996934679
2899,-0.005762677305772475,1.7730473327636718,78.86760711669922,73.58944702148438,25.775062561035156,60.578155517578125,-0.0066144307454427086,0.0006666666666666666,0.0,-0.0033568488226996527,0.7031040191650391,0.32958000898361206,24.60919952392578,0.05864622328016493,0.557743411593967
2900,-0.005762677305772475,1.7730473327636718,79.13356018066406,73.8758544921875,25.897811889648438,60.55769729614258,-0.0066144307454427086,0.0003333333333333333,0.0,-0.0035399542914496527,0.6811320185661316,0.06591600179672241,24.60919952392578,0.058418952094184025,0.5593346065945095
2901,-0.005762677305772475,1.7730473327636718,79.11309814453125,74.05998229980469,25.93872833251953,60.55769729614258,-0.0066144307454427086,0.0006666666666666666,0.0,-0.003936682807074653,0.5712720155715942,0.19774800539016724,24.60919952392578,0.056145731608072916,0.5597892337375217
2902,-0.005762677305772475,1.7730473327636718,79.09264373779297,74.18272399902344,25.959182739257812,60.59861373901367,-0.0066144307454427086,0.0003333333333333333,0.0,-0.004546949598524305,0.5602860450744629,0.16479000449180603,24.60919952392578,0.0545546637641059,0.5595618777804905
2903,-0.009668927305772476,1.753125457763672,79.13356018066406,74.16226196289062,26.06147003173828,60.578155517578125,-0.006841744316948784,0.0,0.0,-0.005096266004774305,0.5493000149726868,0.14281800389289856,24.60919952392578,0.05523664686414931,0.5609257168240017
2904,-0.009668927305772476,1.753125457763672,79.19493103027344,74.12135314941406,26.16376495361328,60.59861373901367,-0.006841744316948784,0.0003333333333333333,0.0,-0.005859205457899305,0.6042300462722778,0.17577600479125977,24.60919952392578,0.05637308756510417,0.5618350134955512
2905,-0.009668927305772476,1.753125457763672,79.19493103027344,74.28501892089844,26.286514282226562,60.55769729614258,-0.0066144307454427086,0.0,0.0,-0.006774732801649305,0.6042300462722778,0.1538040041923523,24.60919952392578,0.054554578993055554,0.5636535220675998
2906,-0.009668927305772476,1.753125457763672,79.01081848144531,74.22364044189453,27.186660766601562,60.59861373901367,-0.006841744316948784,0.0006666666666666666,0.0,-0.0075681050618489586,0.5932440161705017,0.12084600329399109,24.60919952392578,0.05319086710611979,0.5732005225287543
2907,-0.009668927305772476,1.753125457763672,79.09264373779297,74.01905822753906,23.15644073486328,60.578155517578125,-0.0066144307454427086,0.0013333333333333333,0.0,-0.008422597249348959,0.6152160167694092,0.2197200059890747,24.60919952392578,0.05637317233615451,0.5286476135253906
2908,-0.013575177305772476,1.7332035827636718,79.13356018066406,74.20318603515625,23.15644073486328,60.61907196044922,-0.0066144307454427086,0.0013333333333333333,0.0,-0.00991787380642361,0.5383139848709106,0.1538040041923523,24.60919952392578,0.054781934950086805,0.5281929863823784
2909,-0.013575177305772476,1.7332035827636718,79.15402221679688,74.16226196289062,23.15644073486328,60.578155517578125,-0.006841744316948784,0.0013333333333333333,0.0,-0.01238979763454861,0.5493000149726868,0.13183200359344482,24.60919952392578,0.05546400282118055,0.5286476135253906
2910,-0.017481427305772474,1.7332035827636718,79.13356018066406,74.20318603515625,23.15644073486328,60.59861373901367,-0.006841744316948784,0.0016666666666666668,0.0,-0.014678531222873263,0.5932440161705017,0.32958000898361206,24.60919952392578,0.054781934950086805,0.5284202999538845
2911,-0.021387677305772474,1.7332035827636718,78.41752624511719,73.3644027709961,23.176895141601562,60.59861373901367,-0.006841744316948784,0.0,0.0,-0.017058817545572917,0.5932440161705017,0.20873400568962097,24.60919952392578,0.05614581637912326,0.5286475711398655
2912,-0.021387677305772474,1.7332035827636718,78.70394134521484,72.64837646484375,23.15644073486328,60.55769729614258,-0.0066144307454427086,0.0003333333333333333,0.0,-0.017852274576822917,0.6152160167694092,0.1538040041923523,24.60919952392578,0.06728405422634548,0.5288749270968967
2913,-0.021387677305772474,1.713281707763672,78.70394134521484,72.79158020019531,23.13597869873047,60.578155517578125,-0.0066144307454427086,0.0003333333333333333,0.0,-0.016662089029947917,0.5932440161705017,0.16479000449180603,24.60919952392578,0.06569290161132812,0.5284202575683594
2914,-0.017481427305772474,1.713281707763672,78.92898559570312,73.13936614990234,23.095062255859375,60.59861373901367,-0.006841744316948784,0.0003333333333333333,0.0,-0.015227847629123263,0.5712720155715942,0.14281800389289856,24.60919952392578,0.06432910495334201,0.5277383168538411
2915,-0.017481427305772474,1.713281707763672,78.96989440917969,73.8349380493164,23.13597869873047,60.59861373901367,-0.006841744316948784,0.0006666666666666666,0.0,-0.014739566379123263,0.4614120125770569,0.12084600329399109,24.60919952392578,0.05705507066514757,0.5281929439968533
2916,-0.017481427305772474,1.7332035827636718,79.01081848144531,74.03952026367188,23.15644073486328,60.59861373901367,-0.0066144307454427086,0.0003333333333333333,0.0,-0.014586978488498263,0.38451001048088074,0.12084600329399109,24.60919952392578,0.05523664686414931,0.5284202999538845
2917,-0.013575177305772476,1.7730473327636718,78.9903564453125,74.01905822753906,23.197357177734375,60.578155517578125,-0.0066144307454427086,0.0006666666666666666,0.0,-0.01086391872829861,0.3954960107803345,0.010986000299453735,24.60919952392578,0.05523664686414931,0.5291022406684027
2918,-0.009668927305772476,1.812891082763672,78.41752624511719,73.26211547851562,23.197357177734375,60.55769729614258,-0.0066144307454427086,0.0016666666666666668,0.0,-0.006774732801649305,0.3954960107803345,0.010986000299453735,24.60919952392578,0.057282341851128474,0.5293295542399089
2919,-0.005762677305772475,1.852734832763672,78.43798828125,72.42333984375,23.197357177734375,60.49632263183594,-0.0066144307454427086,0.0006666666666666666,0.0,-0.0030211554633246527,0.35155200958251953,0.0,24.60919952392578,0.06682942708333334,0.5300114949544271
2920,-0.005762677305772475,1.912500457763672,78.4789047241211,72.3619613647461,23.238265991210938,60.49632263183594,-0.0066144307454427086,0.002,0.0,-0.000762939453125,0.3405660092830658,0.02197200059890747,24.60919952392578,0.0679660373263889,0.5304660373263889
2921,-0.0018564273057724752,1.952344207763672,78.540283203125,72.2801284790039,23.238265991210938,60.49632263183594,-0.006841744316948784,0.0016666666666666668,0.0,0.0001220703125,0.38451001048088074,0.0,24.60919952392578,0.0695572747124566,0.5304660373263889
2922,-0.0018564273057724752,1.952344207763672,78.43798828125,71.93234252929688,23.25872802734375,60.47586441040039,-0.006841744316948784,0.001,0.0,0.000152587890625,0.5932440161705017,0.06591600179672241,24.60919952392578,0.07228495279947916,0.5309207068549262
2923,-0.0018564273057724752,1.952344207763672,78.43798828125,72.13692474365234,23.238265991210938,60.49632263183594,-0.006841744316948784,0.0,0.0,0.00018310546875,0.5712720155715942,0.032958000898361206,24.60919952392578,0.0700118170844184,0.5304660373263889
2924,-0.0018564273057724752,1.952344207763672,78.4789047241211,72.21875762939453,23.25872802734375,60.47586441040039,-0.0066144307454427086,0.0,0.0,0.0001220703125,0.5712720155715942,0.032958000898361206,24.60919952392578,0.06955718994140625,0.5309207068549262
2925,-0.0018564273057724752,1.952344207763672,78.51982116699219,72.3824234008789,23.238265991210938,60.455406188964844,-0.006841744316948784,0.0,0.0,9.1552734375e-05,0.5602860450744629,0.04394400119781494,24.60919952392578,0.0681933085123698,0.530920664469401
2926,-0.0018564273057724752,1.952344207763672,78.68348693847656,72.60746002197266,23.27918243408203,60.43495178222656,-0.006841744316948784,0.0003333333333333333,0.0,9.1552734375e-05,0.5602860450744629,0.04394400119781494,24.60919952392578,0.06751141018337674,0.5316025627983941
2927,-0.0018564273057724752,1.952344207763672,80.15646362304688,74.9805908203125,23.320098876953125,60.455406188964844,-0.0066144307454427086,0.0,0.0,6.103515625e-05,0.5602860450744629,0.04394400119781494,24.60919952392578,0.057509697808159725,0.5318299187554254
2928,-0.0018564273057724752,1.952344207763672,81.67034912109375,84.73905181884766,23.340560913085938,60.49632263183594,-0.0066144307454427086,0.0003333333333333333,0.0,9.1552734375e-05,0.5602860450744629,0.04394400119781494,24.60919952392578,-0.03409669664171007,0.5316026475694444
2929,-0.0018564273057724752,1.952344207763672,79.78821563720703,81.28164672851562,23.320098876953125,60.47586441040039,-0.0066144307454427086,-0.0003333333333333333,0.0,9.1552734375e-05,0.5602860450744629,0.032958000898361206,24.60919952392578,-0.01659367879231771,0.5316026051839192
2930,-0.0018564273057724752,1.952344207763672,79.56317901611328,74.16226196289062,23.340560913085938,60.43495178222656,-0.006841744316948784,0.0,0.0,0.0001220703125,0.5602860450744629,0.032958000898361206,24.60919952392578,0.06001018948025173,0.5322845458984375
2931,-0.0018564273057724752,1.952344207763672,81.56806182861328,84.08439636230469,23.36101531982422,60.516780853271484,-0.006841744316948784,0.0,0.0,9.1552734375e-05,0.5712720155715942,0.04394400119781494,24.60919952392578,-0.02795927259657118,0.5316026051839192
2932,-0.0018564273057724752,1.952344207763672,92.43125915527344,92.51309204101562,23.401931762695312,60.47586441040039,-0.006841744316948784,0.0003333333333333333,0.0,9.1552734375e-05,0.5712720155715942,0.032958000898361206,24.60919952392578,-0.0009092542860243056,0.5325118594699436
2933,-0.0018564273057724752,1.952344207763672,91.87889099121094,96.788818359375,23.422393798828125,60.455406188964844,-0.0066144307454427086,0.0,0.0,3.0517578125e-05,0.5712720155715942,0.032958000898361206,24.60919952392578,-0.05455474853515625,0.5329665289984808
2934,-0.0018564273057724752,1.952344207763672,91.81752014160156,96.21598815917969,23.36101531982422,60.47586441040039,-0.0066144307454427086,-0.0003333333333333333,0.0,-0.0,0.5712720155715942,0.032958000898361206,24.60919952392578,-0.04887186686197917,0.5320572323269315
2935,-0.0018564273057724752,1.952344207763672,91.81752014160156,96.42057037353516,23.401931762695312,60.455406188964844,-0.0066144307454427086,0.0,0.0,3.0517578125e-05,0.5602860450744629,0.04394400119781494,24.60919952392578,-0.05114500257703993,0.5327391730414497
2936,-0.0018564273057724752,1.952344207763672,91.83798217773438,96.44102478027344,23.401931762695312,60.47586441040039,-0.0066144307454427086,0.0003333333333333333,0.0,6.103515625e-05,0.5712720155715942,0.032958000898361206,24.60919952392578,-0.051144917805989586,0.5325118594699436
2937,-0.0018564273057724752,1.952344207763672,91.81752014160156,96.40011596679688,23.401931762695312,60.455406188964844,-0.006841744316948784,0.0,0.0,3.0517578125e-05,0.5712720155715942,0.04394400119781494,24.60919952392578,-0.050917731391059026,0.5327391730414497
2938,-0.0018564273057724752,1.952344207763672,91.83798217773438,96.42057037353516,23.401931762695312,60.455406188964844,-0.0066144307454427086,0.0,0.0,3.0517578125e-05,0.5712720155715942,0.032958000898361206,24.60919952392578,-0.05091764662000868,0.5327391730414497
2939,-0.0018564273057724752,1.952344207763672,91.77660369873047,96.46148681640625,23.422393798828125,60.455406188964844,-0.0066144307454427086,0.0006666666666666666,0.0,6.103515625e-05,0.5712720155715942,0.032958000898361206,24.60919952392578,-0.05205425686306424,0.5329665289984808
2940,-0.0018564273057724752,1.952344207763672,91.77660369873047,96.01141357421875,23.422393798828125,60.47586441040039,-0.006841744316948784,0.001,0.0,6.103515625e-05,0.5712720155715942,0.032958000898361206,24.60919952392578,-0.0470534430609809,0.5327392154269748
2941,-0.0018564273057724752,1.952344207763672,91.77660369873047,95.97048950195312,23.422393798828125,60.455406188964844,-0.0066144307454427086,0.0006666666666666666,0.0,6.103515625e-05,0.5712720155715942,0.032958000898361206,24.60919952392578,-0.046598731146918405,0.5329665289984808
2942,-0.0018564273057724752,1.952344207763672,91.77660369873047,96.58423614501953,23.442848205566406,60.455406188964844,-0.0066144307454427086,0.0,0.0,3.0517578125e-05,0.5712720155715942,0.032958000898361206,24.60919952392578,-0.053418138292100695,0.5331938001844618
2943,-0.0018564273057724752,1.952344207763672,91.79705810546875,96.50240325927734,23.422393798828125,60.455406188964844,-0.006387117173936632,0.001,0.0,3.0517578125e-05,0.5712720155715942,0.032958000898361206,24.60919952392578,-0.05228161282009548,0.5329665289984808
2944,-0.0018564273057724752,1.952344207763672,91.81752014160156,96.56378173828125,23.46331024169922,60.47586441040039,-0.0066144307454427086,0.0006666666666666666,0.0,3.0517578125e-05,0.5712720155715942,0.032958000898361206,24.60919952392578,-0.05273623996310764,0.533193842569987
2945,-0.0018564273057724752,1.952344207763672,91.79705810546875,96.54331970214844,23.422393798828125,60.47586441040039,-0.0066144307454427086,0.0006666666666666666,0.0,3.0517578125e-05,0.5712720155715942,0.04394400119781494,24.60919952392578,-0.05273623996310764,0.5327392154269748
2946,-0.0018564273057724752,1.952344207763672,91.81752014160156,96.52285766601562,23.46331024169922,60.47586441040039,-0.006841744316948784,0.0006666666666666666,0.0,3.0517578125e-05,0.5712720155715942,0.04394400119781494,24.60919952392578,-0.05228152804904514,0.533193842569987
2947,-0.0018564273057724752,1.952344207763672,91.79705810546875,96.48194885253906,23.4837646484375,60.47586441040039,-0.006841744316948784,0.0006666666666666666,0.0,9.1552734375e-05,0.5712720155715942,0.032958000898361206,24.60919952392578,-0.052054341634114584,0.5334211137559679
2948,-0.0018564273057724752,1.952344207763672,91.79705810546875,96.46148681640625,23.4837646484375,60.47586441040039,-0.0066144307454427086,0.001,0.0,6.103515625e-05,0.5712720155715942,0.032958000898361206,24.60919952392578,-0.05182698567708333,0.5334211137559679
2949,-0.0018564273057724752,1.952344207763672,91.79705810546875,96.29782104492188,23.46331024169922,60.455406188964844,-0.006841744316948784,0.001,0.0,-0.0,0.5712720155715942,0.032958000898361206,24.60919952392578,-0.05000847710503472,0.5334211561414931
2950,-0.0018564273057724752,1.952344207763672,91.77660369873047,96.25691223144531,23.46331024169922,60.455406188964844,-0.0066144307454427086,0.001,0.0,-0.0,0.5712720155715942,0.032958000898361206,24.60919952392578,-0.04978120591905382,0.5334211561414931
2951,-0.0018564273057724752,1.952344207763672,91.79705810546875,96.1341552734375,23.4837646484375,60.455406188964844,-0.0066144307454427086,0.001,0.0,-3.0517578125e-05,0.5712720155715942,0.04394400119781494,24.60919952392578,-0.04818996853298611,0.533648427327474
2952,-0.0018564273057724752,1.952344207763672,91.75614929199219,96.05232238769531,23.4837646484375,60.455406188964844,-0.006387117173936632,0.0006666666666666666,0.0,-0.0,0.5712720155715942,0.032958000898361206,24.60919952392578,-0.04773525661892361,0.533648427327474
2953,-0.0018564273057724752,1.952344207763672,82.75462341308594,89.64897155761719,23.442848205566406,60.49632263183594,-0.0066144307454427086,0.001,0.0,6.103515625e-05,0.5712720155715942,0.032958000898361206,24.60919952392578,-0.07660386827256944,0.5327391730414497
2954,-0.0018564273057724752,1.952344207763672,77.82424926757812,70.07066345214844,23.422393798828125,60.47586441040039,-0.0066144307454427086,0.001,0.0,3.0517578125e-05,0.5712720155715942,0.032958000898361206,24.60919952392578,0.08615095350477431,0.5327392154269748
2955,-0.0018564273057724752,1.952344207763672,77.68104553222656,69.94792175292969,23.442848205566406,60.455406188964844,-0.006841744316948784,0.0006666666666666666,0.0,3.0517578125e-05,0.5712720155715942,0.032958000898361206,24.60919952392578,0.08592359754774305,0.5331938001844618
2956,-0.0018564273057724752,1.952344207763672,77.68104553222656,68.84318542480469,23.422393798828125,60.47586441040039,-0.006841744316948784,0.001,0.0,-0.0,0.5712720155715942,0.032958000898361206,24.60919952392578,0.09819844563802084,0.5327392154269748
2957,-0.0018564273057724752,1.952344207763672,77.72195434570312,70.2752456665039,23.442848205566406,60.47586441040039,-0.006841744316948784,0.001,0.0,-0.0,0.5712720155715942,0.032958000898361206,24.60919952392578,0.08274120754665798,0.5329664866129558
2958,-0.0018564273057724752,1.952344207763672,77.76287841796875,70.13204193115234,23.4837646484375,60.455406188964844,-0.006841744316948784,0.001,0.0,3.0517578125e-05,0.5712720155715942,0.032958000898361206,24.60919952392578,0.08478707207573785,0.533648427327474
2959,-0.0018564273057724752,1.952344207763672,77.76287841796875,69.47738647460938,23.524681091308594,60.455406188964844,-0.006841744316948784,0.0006666666666666666,0.0,3.0517578125e-05,0.5712720155715942,0.032958000898361206,24.60919952392578,0.09206102159288194,0.5341030544704861
2960,-0.0018564273057724752,1.952344207763672,77.74241638183594,69.45692443847656,23.504226684570312,60.47586441040039,-0.0066144307454427086,0.0006666666666666666,0.0,6.103515625e-05,0.5712720155715942,0.032958000898361206,24.60919952392578,0.09206102159288194,0.5336484697129992
2961,-0.0018564273057724752,1.952344207763672,77.45600891113281,70.33662414550781,23.524681091308594,60.47586441040039,-0.006841744316948784,0.0,0.0,3.0517578125e-05,0.5712720155715942,0.032958000898361206,24.60919952392578,0.07910427517361111,0.53387574089898
2962,-0.0018564273057724752,1.952344207763672,75.45112609863281,65.40624237060547,23.545143127441406,60.47586441040039,-0.006841744316948784,0.0003333333333333333,0.0,6.103515625e-05,0.5712720155715942,0.02197200059890747,24.60919952392578,0.11160981920030381,0.5341030968560113
2963,-0.0018564273057724752,1.952344207763672,75.51249694824219,65.303955078125,23.565597534179688,60.455406188964844,-0.0066144307454427086,0.0003333333333333333,0.0,3.0517578125e-05,0.5712720155715942,0.032958000898361206,24.60919952392578,0.11342824300130208,0.5345576816134983
2964,-0.0018564273057724752,1.952344207763672,75.49203491210938,65.38578796386719,23.5860595703125,60.455406188964844,-0.0066144307454427086,0.0003333333333333333,0.0,3.0517578125e-05,0.5712720155715942,0.032958000898361206,24.60919952392578,0.11229163275824652,0.5347850375705295
2965,-0.0018564273057724752,1.952344207763672,75.41020202636719,65.18120574951172,23.5860595703125,60.455406188964844,-0.0066144307454427086,0.0003333333333333333,0.0,3.0517578125e-05,0.5712720155715942,0.032958000898361206,24.60919952392578,0.11365551418728298,0.5347850375705295
2966,-0.0018564273057724752,1.952344207763672,75.45112609863281,65.20166015625,23.626968383789062,60.455406188964844,-0.0066144307454427086,0.0,0.0,3.0517578125e-05,0.5712720155715942,0.032958000898361206,24.60919952392578,0.11388295491536458,0.5352395799424913
2967,-0.0018564273057724752,1.952344207763672,75.49203491210938,65.3448715209961,23.647430419921875,60.455406188964844,-0.0066144307454427086,0.0006666666666666666,0.0,6.103515625e-05,0.5712720155715942,0.032958000898361206,24.60919952392578,0.11274625990125868,0.5354669358995225
2968,-0.0018564273057724752,1.952344207763672,75.51249694824219,65.18120574951172,23.647430419921875,60.455406188964844,-0.0066144307454427086,0.0,0.0,6.103515625e-05,0.5712720155715942,0.032958000898361206,24.60919952392578,0.11479212443033854,0.5354669358995225
2969,-0.0018564273057724752,1.952344207763672,75.51249694824219,65.28349304199219,23.647430419921875,60.43495178222656,-0.0066144307454427086,0.0003333333333333333,0.0,-0.0,0.5712720155715942,0.032958000898361206,24.60919952392578,0.11365559895833334,0.5356942070855035
2970,-0.0018564273057724752,1.952344207763672,75.57386779785156,65.2630386352539,23.68834686279297,60.455406188964844,-0.006841744316948784,0.0003333333333333333,0.0,6.103515625e-05,0.5712720155715942,0.032958000898361206,24.60919952392578,0.1145647684733073,0.5359215630425347
2971,-0.0018564273057724752,1.952344207763672,75.57386779785156,65.2630386352539,23.70880126953125,60.455406188964844,-0.0066144307454427086,0.0006666666666666666,0.0,3.0517578125e-05,0.5712720155715942,0.032958000898361206,24.60919952392578,0.1145647684733073,0.5361488342285157
2972,-0.0018564273057724752,1.952344207763672,75.59432983398438,65.3448715209961,23.70880126953125,60.47586441040039,-0.006841744316948784,0.0,0.0,-3.0517578125e-05,0.5712720155715942,0.04394400119781494,24.60919952392578,0.11388287014431424,0.5359215206570096
2973,-0.0018564273057724752,1.952344207763672,75.59432983398438,65.32440948486328,23.68834686279297,60.43495178222656,-0.006841744316948784,0.0003333333333333333,0.0,-0.0,0.5712720155715942,0.04394400119781494,24.60919952392578,0.11411022610134548,0.5361488342285157
2974,-0.0018564273057724752,1.952344207763672,75.9830322265625,65.83586120605469,23.749717712402344,60.455406188964844,-0.0066144307454427086,0.0003333333333333333,0.0,3.0517578125e-05,0.5712720155715942,0.04394400119781494,24.60919952392578,0.11274634467230903,0.5366034613715278
2975,-0.0018564273057724752,1.952344207763672,75.34883117675781,65.89723205566406,23.729263305664062,60.43495178222656,-0.006841744316948784,0.0,0.0,9.1552734375e-05,0.5712720155715942,0.032958000898361206,24.60919952392578,0.10501776801215278,0.5366034613715278
2976,-0.0018564273057724752,1.952344207763672,75.4306640625,65.07891845703125,23.749717712402344,60.47586441040039,-0.0066144307454427086,-0.0003333333333333333,0.0,9.1552734375e-05,0.5712720155715942,0.032958000898361206,24.60919952392578,0.11501939561631945,0.5363761478000217
2977,-0.0018564273057724752,1.952344207763672,75.63523864746094,65.56990814208984,23.790634155273438,60.47586441040039,-0.0066144307454427086,0.0003333333333333333,0.0,3.0517578125e-05,0.5712720155715942,0.04394400119781494,24.60919952392578,0.11183700561523438,0.5368307749430339
2978,-0.0018564273057724752,1.952344207763672,75.65570068359375,65.65174102783203,23.81109619140625,60.43495178222656,-0.0066144307454427086,0.0003333333333333333,0.0,6.103515625e-05,0.5712720155715942,0.032958000898361206,24.60919952392578,0.11115510728624133,0.5375127156575521
2979,-0.0018564273057724752,1.952344207763672,75.65570068359375,65.63127899169922,23.852012634277344,60.47586441040039,-0.006841744316948784,0.0003333333333333333,0.0,3.0517578125e-05,0.5712720155715942,0.032958000898361206,24.60919952392578,0.11138246324327257,0.5375127580430773
2980,-0.0018564273057724752,1.952344207763672,75.75799560546875,65.67219543457031,23.852012634277344,60.455406188964844,-0.006841744316948784,0.0,0.0,-0.0,0.5712720155715942,0.04394400119781494,24.60919952392578,0.11206444634331597,0.5377400716145834
2981,-0.0018564273057724752,1.952344207763672,75.79890441894531,65.65174102783203,23.892929077148438,60.47586441040039,-0.0066144307454427086,0.0,0.0,3.0517578125e-05,0.5712720155715942,0.032958000898361206,24.60919952392578,0.11274625990125868,0.5379673851860894
2982,-0.0018564273057724752,1.952344207763672,75.77845001220703,65.61082458496094,23.91338348388672,60.47586441040039,-0.006841744316948784,0.0003333333333333333,0.0,3.0517578125e-05,0.5712720155715942,0.032958000898361206,24.60919952392578,0.11297361585828992,0.5381946563720703
2983,-0.0018564273057724752,1.952344207763672,75.77845001220703,65.67219543457031,23.91338348388672,60.455406188964844,-0.0066144307454427086,0.0003333333333333333,0.0,3.0517578125e-05,0.5712720155715942,0.04394400119781494,24.60919952392578,0.11229171752929687,0.5384219699435764
2984,-0.0018564273057724752,1.952344207763672,75.4306640625,65.52899169921875,23.954299926757812,60.455406188964844,-0.0066144307454427086,0.0003333333333333333,0.0,3.0517578125e-05,0.5712720155715942,0.04394400119781494,24.60919952392578,0.11001858181423611,0.5388765970865885
2985,-0.0018564273057724752,1.952344207763672,75.24653625488281,65.44715881347656,23.995216369628906,60.49632263183594,-0.0066144307454427086,0.0003333333333333333,0.0,-0.0,0.5712720155715942,0.032958000898361206,24.60919952392578,0.10888197157118056,0.5388765970865885
2986,-0.0018564273057724752,1.952344207763672,75.4306640625,65.22212219238281,24.15888214111328,60.49632263183594,-0.0066144307454427086,0.0006666666666666666,0.0,-0.0,0.5712720155715942,0.032958000898361206,24.60919952392578,0.11342824300130208,0.5406951056586371
2987,-0.0018564273057724752,1.952344207763672,75.75799560546875,65.7949447631836,24.281631469726562,60.47586441040039,-0.006841744316948784,0.0003333333333333333,0.0,-0.0,0.5712720155715942,0.04394400119781494,24.60919952392578,0.11070056491427951,0.5422863006591797
2988,-0.0018564273057724752,1.952344207763672,75.79890441894531,65.69265747070312,24.404373168945312,60.47586441040039,-0.006841744316948784,0.001,0.0,6.103515625e-05,0.5712720155715942,0.032958000898361206,24.60919952392578,0.11229163275824652,0.5436500973171658
2989,-0.0018564273057724752,1.952344207763672,75.77845001220703,65.54945373535156,24.527122497558594,60.47586441040039,-0.0066144307454427086,0.0006666666666666666,0.0,6.103515625e-05,0.5712720155715942,0.032958000898361206,24.60919952392578,0.11365551418728298,0.5450139787462023
2990,-0.0018564273057724752,1.952344207763672,75.04196166992188,64.36288452148438,24.527122497558594,60.43495178222656,-0.0066144307454427086,0.0003333333333333333,0.0,6.103515625e-05,0.5712720155715942,0.032958000898361206,24.60919952392578,0.11865641276041666,0.5454685635036892
2991,-0.0018564273057724752,1.952344207763672,75.10333251953125,64.50608825683594,24.5885009765625,60.455406188964844,-0.0066144307454427086,0.0006666666666666666,0.0,6.103515625e-05,0.5712720155715942,0.032958000898361206,24.60919952392578,0.11774715847439236,0.5459232754177518
2992,-0.0018564273057724752,1.952344207763672,75.30791473388672,65.16075134277344,24.670326232910156,60.455406188964844,-0.0066144307454427086,0.001,0.0,3.0517578125e-05,0.5712720155715942,0.032958000898361206,24.60919952392578,0.11274625990125868,0.5468324449327256
2993,-0.0018564273057724752,1.952344207763672,75.73753356933594,67.02242279052734,24.752159118652344,60.455406188964844,-0.0066144307454427086,0.0013333333333333333,0.0,-0.0,0.5712720155715942,0.032958000898361206,24.60919952392578,0.09683456420898437,0.54774169921875
2994,-0.0018564273057724752,1.952344207763672,75.79890441894531,67.08380126953125,24.81353759765625,60.455406188964844,-0.006841744316948784,0.0013333333333333333,0.0,-0.0,0.5712720155715942,0.032958000898361206,24.60919952392578,0.09683447943793402,0.5484236823187933
2995,-0.0018564273057724752,1.952344207763672,75.81936645507812,66.59280395507812,24.895370483398438,60.455406188964844,-0.0066144307454427086,0.0013333333333333333,0.0,-3.0517578125e-05,0.5712720155715942,0.032958000898361206,24.60919952392578,0.10251736111111111,0.5493329366048177
2996,-0.0018564273057724752,1.952344207763672,75.81936645507812,66.83830261230469,24.997657775878906,60.43495178222656,-0.0066144307454427086,0.0016666666666666668,0.0,-3.0517578125e-05,0.5712720155715942,0.032958000898361206,24.60919952392578,0.0997895982530382,0.5506967332628038
2997,-0.0018564273057724752,1.952344207763672,75.81936645507812,66.96105194091797,25.16132354736328,60.455406188964844,-0.006841744316948784,0.001,0.0,-0.0,0.5712720155715942,0.032958000898361206,24.60919952392578,0.09842571682400174,0.5522879706488715
2998,-0.0018564273057724752,1.952344207763672,75.83982849121094,67.06333923339844,39.993370056152344,60.455406188964844,-0.0066144307454427086,0.0003333333333333333,0.0,-0.0,0.5712720155715942,0.032958000898361206,24.60919952392578,0.09751654730902778,0.7170884874131944
2999,-0.0018564273057724752,1.952344207763672,75.83982849121094,66.96105194091797,39.993370056152344,60.43495178222656,-0.0066144307454427086,0.0003333333333333333,0.0,-0.0,0.5712720155715942,0.032958000898361206,24.60919952392578,0.09865307278103298,0.7173157585991754
3000,-0.0018564273057724752,1.952344207763672,75.86028289794922,66.55189514160156,23.401931762695312,60.455406188964844,-0.006841744316948784,0.0,0.0,3.0517578125e-05,0.5712720155715942,0.032958000898361206,24.60919952392578,0.10342653062608508,0.5327391730414497
3001,-0.0018564273057724752,1.952344207763672,75.83982849121094,66.47006225585938,23.401931762695312,60.43495178222656,-0.006841744316948784,-0.0003333333333333333,0.0,6.103515625e-05,0.5712720155715942,0.032958000898361206,24.60919952392578,0.10410851372612848,0.5329664442274306
3002,-0.0018564273057724752,1.952344207763672,75.86028289794922,66.7973861694336,23.442848205566406,60.455406188964844,-0.006841744316948784,0.0,0.0,3.0517578125e-05,0.5712720155715942,0.032958000898361206,24.60919952392578,0.1006988525390625,0.5331938001844618
3003,-0.0018564273057724752,1.952344207763672,75.86028289794922,66.53143310546875,23.46331024169922,60.455406188964844,-0.006841744316948784,0.0,0.0,-0.0,0.5712720155715942,0.032958000898361206,24.60919952392578,0.10365388658311632,0.5334211561414931
3004,-0.0018564273057724752,1.952344207763672,76.35127258300781,67.22700500488281,23.4837646484375,60.455406188964844,-0.006841744316948784,0.001,0.0,3.0517578125e-05,0.5712720155715942,0.032958000898361206,24.60919952392578,0.10138075086805555,0.533648427327474
3005,-0.0018564273057724752,1.952344207763672,84.94363403320312,89.26026916503906,23.565597534179688,60.59861373901367,-0.006841744316948784,0.0006666666666666666,0.0,3.0517578125e-05,0.5712720155715942,0.032958000898361206,24.60919952392578,-0.04796261257595486,0.5329664866129558
3006,-0.0018564273057724752,1.952344207763672,81.15890502929688,81.19981384277344,23.46331024169922,60.516780853271484,-0.00775099860297309,0.0003333333333333333,0.0,-0.0,0.5712720155715942,0.032958000898361206,24.60919952392578,-0.00045454237196180554,0.5327392154269748
3007,-0.0018564273057724752,1.952344207763672,80.83157348632812,80.85203552246094,23.422393798828125,60.43495178222656,-0.012297227647569445,0.0006666666666666666,0.0,-0.0,0.5712720155715942,0.032958000898361206,24.60919952392578,-0.00022735595703125,0.5331938001844618
3008,-0.0018564273057724752,1.952344207763672,80.83157348632812,79.4813461303711,23.504226684570312,60.516780853271484,-0.012297227647569445,0.0003333333333333333,0.0,-0.0,0.5712720155715942,0.032958000898361206,24.60919952392578,0.015002526177300347,0.533193842569987
3009,-0.0018564273057724752,1.952344207763672,80.83157348632812,81.75218200683594,23.5860595703125,60.53723907470703,-0.00775099860297309,0.0003333333333333333,0.0,3.0517578125e-05,0.5712720155715942,0.032958000898361206,24.60919952392578,-0.010228983561197917,0.5338757832845052
3010,-0.0018564273057724752,1.952344207763672,88.09416198730469,80.46333312988281,23.647430419921875,60.455406188964844,-0.007069057888454861,0.0003333333333333333,0.0,3.0517578125e-05,0.5712720155715942,0.032958000898361206,24.60919952392578,0.0847869873046875,0.5354669358995225
3011,-0.0018564273057724752,1.952344207763672,102.21018981933594,105.62667083740234,23.565597534179688,60.455406188964844,-0.006841744316948784,0.0,0.0,-3.0517578125e-05,0.5712720155715942,0.032958000898361206,24.60919952392578,-0.03796090020073785,0.5345576816134983
3012,-0.0018564273057724752,1.952344207763672,102.10789489746094,105.56529235839844,23.83155059814453,60.41448974609375,-0.0066144307454427086,0.0003333333333333333,0.0,-0.0,0.5712720155715942,0.04394400119781494,24.60919952392578,-0.03841552734375,0.5379673428005642
3013,-0.0018564273057724752,1.952344207763672,102.2510986328125,105.79033660888672,23.872467041015625,60.41448974609375,-0.006841744316948784,0.0006666666666666666,0.0,-0.0,0.5712720155715942,0.04394400119781494,24.60919952392578,-0.03932486640082465,0.5384219699435764
3014,-0.0018564273057724752,1.952344207763672,102.04652404785156,105.70850372314453,24.077049255371094,60.41448974609375,-0.006387117173936632,0.0,0.0,3.0517578125e-05,0.5712720155715942,0.032958000898361206,24.60919952392578,-0.04068866305881076,0.5406951056586371
3015,-0.0018564273057724752,1.952344207763672,102.04652404785156,105.70850372314453,24.26116943359375,60.39403533935547,-0.006387117173936632,-0.0003333333333333333,0.0,-3.0517578125e-05,0.5712720155715942,0.04394400119781494,24.60919952392578,-0.04068866305881076,0.5429681566026475
3016,-0.0018564273057724752,1.952344207763672,102.04652404785156,105.79033660888672,24.46575164794922,60.39403533935547,-0.0066144307454427086,0.0003333333333333333,0.0,-3.0517578125e-05,0.5712720155715942,0.032958000898361206,24.60919952392578,-0.04159791734483507,0.5452412923177083
3017,-0.0018564273057724752,1.952344207763672,102.04652404785156,105.3198013305664,27.02300262451172,60.39403533935547,-0.006387117173936632,0.0006666666666666666,0.0,3.0517578125e-05,0.5712720155715942,0.032958000898361206,24.60919952392578,-0.03636974758572049,0.5736551920572917
3018,-0.0018564273057724752,1.952344207763672,102.06697845458984,105.29934692382812,24.343002319335938,60.41448974609375,-0.0066144307454427086,0.0006666666666666666,0.0,3.0517578125e-05,0.5712720155715942,0.032958000898361206,24.60919952392578,-0.03591520521375868,0.5436501397026909
3019,-0.0018564273057724752,1.952344207763672,102.10789489746094,105.29934692382812,24.36345672607422,60.41448974609375,-0.0066144307454427086,0.0003333333333333333,0.0,-0.0,0.5712720155715942,0.032958000898361206,24.60919952392578,-0.035460578070746526,0.5438774108886719
3020,-0.0018564273057724752,1.952344207763672,101.96469116210938,105.27888488769531,24.404373168945312,60.39403533935547,-0.0066144307454427086,0.0003333333333333333,0.0,-0.0,0.5712720155715942,0.032958000898361206,24.60919952392578,-0.03682437472873264,0.5445593092176649
3021,-0.0018564273057724752,1.952344207763672,100.36896514892578,103.7649917602539,24.568038940429688,60.41448974609375,-0.0066144307454427086,0.0003333333333333333,0.0,3.0517578125e-05,0.5712720155715942,0.032958000898361206,24.60919952392578,-0.03773362901475694,0.5461505466037326
3022,-0.0018564273057724752,1.952344207763672,100.47125244140625,103.39674377441406,24.05658721923828,60.41448974609375,-0.0066144307454427086,0.0006666666666666666,0.0,3.0517578125e-05,0.5712720155715942,0.032958000898361206,24.60919952392578,-0.03250545925564236,0.5404677497016059
3023,-0.0018564273057724752,1.952344207763672,100.51217651367188,103.53995513916016,24.05658721923828,60.39403533935547,-0.0066144307454427086,0.0006666666666666666,0.0,3.0517578125e-05,0.5712720155715942,0.032958000898361206,24.60919952392578,-0.03364198472764757,0.5406950208875868
3024,-0.0018564273057724752,1.952344207763672,100.47125244140625,102.803466796875,24.077049255371094,60.41448974609375,-0.0066144307454427086,0.0006666666666666666,0.0,6.103515625e-05,0.5712720155715942,0.032958000898361206,24.60919952392578,-0.025913492838541666,0.5406951056586371
3025,-0.0018564273057724752,1.952344207763672,100.18484497070312,102.78300476074219,23.995216369628906,60.41448974609375,-0.0066144307454427086,0.001,0.0,6.103515625e-05,0.5712720155715942,0.032958000898361206,24.60919952392578,-0.02886844211154514,0.5397858513726128
3026,-0.0018564273057724752,1.952344207763672,82.73416900634766,100.38941955566406,23.93384552001953,60.43495178222656,-0.0066144307454427086,0.0006666666666666666,0.0,6.103515625e-05,0.5712720155715942,0.02197200059890747,24.60919952392578,-0.19616945054796006,0.5388765970865885
3027,-0.0018564273057724752,1.952344207763672,66.57234954833984,57.509456634521484,23.872467041015625,60.39403533935547,-0.0066144307454427086,0.0003333333333333333,0.0,9.1552734375e-05,0.5712720155715942,0.02197200059890747,24.60919952392578,0.10069881015353732,0.5386492411295573
3028,-0.0018564273057724752,1.952344207763672,66.61326599121094,57.509456634521484,23.892929077148438,60.39403533935547,-0.0066144307454427086,0.0003333333333333333,0.0,9.1552734375e-05,0.5712720155715942,0.032958000898361206,24.60919952392578,0.10115343729654948,0.5388765970865885
3029,-0.0018564273057724752,1.952344207763672,66.63372802734375,57.591285705566406,23.790634155273438,60.41448974609375,-0.0066144307454427086,0.0006666666666666666,0.0,9.1552734375e-05,0.5712720155715942,0.032958000898361206,24.60919952392578,0.1004715813530816,0.5375127156575521
3030,-0.0018564273057724752,1.952344207763672,66.7564697265625,57.304874420166016,23.770179748535156,60.43495178222656,-0.0066144307454427086,0.0006666666666666666,0.0,9.1552734375e-05,0.5712720155715942,0.032958000898361206,24.60919952392578,0.1050177256266276,0.53705808851454
3031,-0.0018564273057724752,1.952344207763672,66.69509887695312,57.6322021484375,23.70880126953125,60.41448974609375,-0.0066144307454427086,0.0003333333333333333,0.0,3.0517578125e-05,0.5712720155715942,0.032958000898361206,24.60919952392578,0.1006988525390625,0.5366034613715278
3032,-0.0018564273057724752,1.952344207763672,66.67463684082031,57.509456634521484,23.70880126953125,60.41448974609375,-0.0066144307454427086,0.0003333333333333333,0.0,6.103515625e-05,0.5712720155715942,0.032958000898361206,24.60919952392578,0.10183533562554253,0.5366034613715278
3033,-0.0018564273057724752,1.952344207763672,66.7973861694336,57.61174774169922,23.68834686279297,60.41448974609375,-0.0066144307454427086,0.0003333333333333333,0.0,3.0517578125e-05,0.5712720155715942,0.032958000898361206,24.60919952392578,0.1020626491970486,0.5363761901855468
3034,-0.0018564273057724752,1.952344207763672,66.81784057617188,57.591285705566406,23.68834686279297,60.41448974609375,-0.0066144307454427086,0.0003333333333333333,0.0,9.1552734375e-05,0.5712720155715942,0.032958000898361206,24.60919952392578,0.10251727634006076,0.5363761901855468
3035,-0.0018564273057724752,1.952344207763672,66.87921905517578,57.673118591308594,23.647430419921875,60.41448974609375,-0.0066144307454427086,0.0003333333333333333,0.0,9.1552734375e-05,0.5712720155715942,0.032958000898361206,24.60919952392578,0.10229000515407986,0.5359215630425347
3036,-0.0018564273057724752,1.952344207763672,66.89967346191406,57.69357681274414,23.647430419921875,60.41448974609375,-0.006841744316948784,0.0006666666666666666,0.0,6.103515625e-05,0.5712720155715942,0.032958000898361206,24.60919952392578,0.10228996276855469,0.5359215630425347
3037,-0.0018564273057724752,1.952344207763672,66.87921905517578,57.69357681274414,23.60651397705078,60.41448974609375,-0.0066144307454427086,0.001,0.0,6.103515625e-05,0.5712720155715942,0.032958000898361206,24.60919952392578,0.10206269158257378,0.5354669358995225
3038,-0.0018564273057724752,1.952344207763672,66.8587646484375,57.673118591308594,23.626968383789062,60.41448974609375,-0.0066144307454427086,0.0003333333333333333,0.0,9.1552734375e-05,0.5712720155715942,0.02197200059890747,24.60919952392578,0.10206273396809896,0.5356942070855035
3039,-0.0018564273057724752,1.952344207763672,66.87921905517578,57.673118591308594,23.5860595703125,60.39403533935547,-0.0066144307454427086,0.0003333333333333333,0.0,6.103515625e-05,0.5712720155715942,0.02197200059890747,24.60919952392578,0.10229000515407986,0.5354669358995225
3040,-0.0018564273057724752,1.952344207763672,66.7564697265625,57.570831298828125,23.60651397705078,60.41448974609375,-0.0066144307454427086,0.0006666666666666666,0.0,0.0001220703125,0.5712720155715942,0.02197200059890747,24.60919952392578,0.1020626491970486,0.5354669358995225
3041,-0.0018564273057724752,1.952344207763672,66.7564697265625,57.48899841308594,23.565597534179688,60.41448974609375,-0.0066144307454427086,0.0013333333333333333,0.0,6.103515625e-05,0.5712720155715942,0.02197200059890747,24.60919952392578,0.10297190348307292,0.5350123087565104
3042,-0.0018564273057724752,1.952344207763672,66.73601531982422,57.52991485595703,23.504226684570312,60.43495178222656,-0.006841744316948784,0.0006666666666666666,0.0,6.103515625e-05,0.5712720155715942,0.02197200059890747,24.60919952392578,0.10229000515407986,0.5341030544704861
3043,-0.0018564273057724752,1.952344207763672,66.7564697265625,57.61174774169922,23.4837646484375,60.43495178222656,-0.0066144307454427086,0.0006666666666666666,0.0,3.0517578125e-05,0.5712720155715942,0.032958000898361206,24.60919952392578,0.10160802205403646,0.5338756985134548
3044,-0.0018564273057724752,1.952344207763672,66.7564697265625,57.52991485595703,23.504226684570312,60.41448974609375,-0.0066144307454427086,0.0003333333333333333,0.0,6.103515625e-05,0.5712720155715942,0.032958000898361206,24.60919952392578,0.10251727634006076,0.5343304104275174
3045,-0.0018564273057724752,1.952344207763672,66.73601531982422,57.570831298828125,23.504226684570312,60.41448974609375,-0.006841744316948784,0.0,0.0,9.1552734375e-05,0.5712720155715942,0.032958000898361206,24.60919952392578,0.1018353780110677,0.5343304104275174
3046,-0.0018564273057724752,1.952344207763672,66.73601531982422,57.6322021484375,23.4837646484375,60.41448974609375,-0.0066144307454427086,0.0003333333333333333,0.0,9.1552734375e-05,0.5712720155715942,0.032958000898361206,24.60919952392578,0.10115347968207465,0.5341030544704861
3047,-0.0018564273057724752,1.952344207763672,66.73601531982422,57.591285705566406,23.442848205566406,60.41448974609375,-0.006841744316948784,0.001,0.0,3.0517578125e-05,0.5712720155715942,0.032958000898361206,24.60919952392578,0.10160810682508681,0.533648427327474
3048,-0.0018564273057724752,1.952344207763672,66.7564697265625,57.591285705566406,23.46331024169922,60.43495178222656,-0.006841744316948784,0.0006666666666666666,0.0,-0.0,0.5712720155715942,0.032958000898361206,24.60919952392578,0.1018353780110677,0.533648427327474
3049,-0.0018564273057724752,1.952344207763672,66.73601531982422,57.570831298828125,23.442848205566406,60.41448974609375,-0.0066144307454427086,0.0006666666666666666,0.0,-0.0,0.5712720155715942,0.032958000898361206,24.60919952392578,0.1018353780110677,0.533648427327474
3050,-0.0018564273057724752,1.952344207763672,66.7564697265625,57.591285705566406,23.38147735595703,60.41448974609375,-0.006841744316948784,0.001,0.0,-6.103515625e-05,0.5712720155715942,0.04394400119781494,24.60919952392578,0.1018353780110677,0.5329665289984808
3051,-0.0018564273057724752,1.952344207763672,66.81784057617188,57.6322021484375,23.38147735595703,60.43495178222656,-0.006841744316948784,0.0006666666666666666,0.0,-3.0517578125e-05,0.5712720155715942,0.04394400119781494,24.60919952392578,0.1020626491970486,0.5327391730414497
3052,-0.0018564273057724752,1.952344207763672,66.81784057617188,57.65266036987305,23.299644470214844,60.39403533935547,-0.0066144307454427086,0.0016666666666666668,0.0,-0.0,0.5712720155715942,0.032958000898361206,24.60919952392578,0.10183533562554253,0.5322845458984375
3053,-0.0018564273057724752,1.952344207763672,66.81784057617188,57.6322021484375,23.25872802734375,60.41448974609375,-0.006841744316948784,0.0006666666666666666,0.0,3.0517578125e-05,0.5712720155715942,0.02197200059890747,24.60919952392578,0.1020626491970486,0.5316026475694444
3054,-0.0018564273057724752,1.952344207763672,66.7973861694336,57.6322021484375,23.299644470214844,60.41448974609375,-0.006841744316948784,0.001,0.0,-0.0,0.5712720155715942,0.032958000898361206,24.60919952392578,0.1018353780110677,0.5320572747124566
3055,-0.0018564273057724752,1.952344207763672,66.77693176269531,57.6322021484375,23.340560913085938,60.39403533935547,-0.0066144307454427086,0.001,0.0,-0.0,0.5712720155715942,0.02197200059890747,24.60919952392578,0.10160810682508681,0.5327391730414497
3056,-0.0018564273057724752,1.952344207763672,66.77693176269531,57.6322021484375,23.299644470214844,60.39403533935547,-0.0066144307454427086,0.0006666666666666666,0.0,3.0517578125e-05,0.5712720155715942,0.032958000898361206,24.60919952392578,0.10160810682508681,0.5322845458984375
3057,-0.0018564273057724752,1.952344207763672,66.7973861694336,57.6322021484375,23.299644470214844,60.39403533935547,-0.0066144307454427086,0.0006666666666666666,0.0,-3.0517578125e-05,0.5712720155715942,0.032958000898361206,24.60919952392578,0.1018353780110677,0.5322845458984375
3058,-0.0018564273057724752,1.952344207763672,66.77693176269531,57.61174774169922,23.299644470214844,60.41448974609375,-0.006841744316948784,0.0,0.0,6.103515625e-05,0.5712720155715942,0.02197200059890747,24.60919952392578,0.1018353780110677,0.5320572747124566
3059,-0.0018564273057724752,1.952344207763672,66.81784057617188,57.673118591308594,23.299644470214844,60.41448974609375,-0.0066144307454427086,0.001,0.0,9.1552734375e-05,0.5712720155715942,0.02197200059890747,24.60919952392578,0.10160802205403646,0.5320572747124566
3060,-0.0018564273057724752,1.952344207763672,66.81784057617188,57.6322021484375,23.320098876953125,60.39403533935547,-0.0066144307454427086,0.0003333333333333333,0.0,-0.0,0.5712720155715942,0.032958000898361206,24.60919952392578,0.1020626491970486,0.5325118170844184
3061,-0.0018564273057724752,1.952344207763672,66.7564697265625,57.55036926269531,23.340560913085938,60.39403533935547,-0.0066144307454427086,0.0003333333333333333,0.0,3.0517578125e-05,0.5712720155715942,0.032958000898361206,24.60919952392578,0.10229000515407986,0.5327391730414497
3062,-0.0018564273057724752,1.952344207763672,66.73601531982422,57.6322021484375,23.340560913085938,60.39403533935547,-0.006387117173936632,0.0016666666666666668,0.0,-0.0,0.5712720155715942,0.032958000898361206,24.60919952392578,0.10115347968207465,0.5327391730414497
3063,-0.0018564273057724752,1.952344207763672,66.77693176269531,57.65266036987305,23.320098876953125,60.39403533935547,-0.006387117173936632,0.0006666666666666666,0.0,6.103515625e-05,0.5712720155715942,0.032958000898361206,24.60919952392578,0.10138079325358072,0.5325118170844184
3064,-0.0018564273057724752,1.952344207763672,66.7564697265625,57.591285705566406,23.299644470214844,60.39403533935547,-0.0066144307454427086,0.001,0.0,9.1552734375e-05,0.5712720155715942,0.02197200059890747,24.60919952392578,0.1018353780110677,0.5322845458984375
3065,-0.0018564273057724752,1.952344207763672,66.7564697265625,57.591285705566406,23.299644470214844,60.373573303222656,-0.0066144307454427086,0.001,0.0,6.103515625e-05,0.5712720155715942,0.02197200059890747,24.60919952392578,0.1018353780110677,0.5325119018554687
3066,-0.0018564273057724752,1.952344207763672,66.7564697265625,57.52991485595703,23.320098876953125,60.39403533935547,-0.0066144307454427086,0.0013333333333333333,0.0,9.1552734375e-05,0.5712720155715942,0.02197200059890747,24.60919952392578,0.10251727634006076,0.5325118170844184
3067,-0.0018564273057724752,1.952344207763672,66.73601531982422,57.52991485595703,23.299644470214844,60.41448974609375,-0.0066144307454427086,0.0003333333333333333,0.0,9.1552734375e-05,0.5712720155715942,0.02197200059890747,24.60919952392578,0.10229000515407986,0.5320572747124566
3068,-0.0018564273057724752,1.952344207763672,66.77693176269531,57.61174774169922,23.27918243408203,60.39403533935547,-0.006841744316948784,0.0006666666666666666,0.0,6.103515625e-05,0.5712720155715942,0.02197200059890747,24.60919952392578,0.1018353780110677,0.5320571899414063
3069,-0.0018564273057724752,1.952344207763672,66.77693176269531,57.65266036987305,23.27918243408203,60.39403533935547,-0.0066144307454427086,0.0006666666666666666,0.0,6.103515625e-05,0.5712720155715942,0.032958000898361206,24.60919952392578,0.10138079325358072,0.5320571899414063
3070,-0.0018564273057724752,1.952344207763672,66.7973861694336,57.65266036987305,23.27918243408203,60.39403533935547,-0.006387117173936632,0.0003333333333333333,0.0,3.0517578125e-05,0.5712720155715942,0.032958000898361206,24.60919952392578,0.10160806443956164,0.5320571899414063
3071,-0.0018564273057724752,1.952344207763672,66.7973861694336,57.6322021484375,23.25872802734375,60.39403533935547,-0.0066144307454427086,0.0006666666666666666,0.0,-0.0,0.5712720155715942,0.032958000898361206,24.60919952392578,0.1018353780110677,0.5318299187554254
3072,-0.0018564273057724752,1.952344207763672,66.7973861694336,57.6322021484375,23.27918243408203,60.39403533935547,-0.0066144307454427086,0.0016666666666666668,0.0,-0.0,0.5712720155715942,0.032958000898361206,24.60919952392578,0.1018353780110677,0.5320571899414063
3073,-0.0018564273057724752,1.952344207763672,66.81784057617188,57.6322021484375,23.299644470214844,60.39403533935547,-0.0066144307454427086,0.0013333333333333333,0.0,-0.0,0.5712720155715942,0.032958000898361206,24.60919952392578,0.1020626491970486,0.5322845458984375
3074,-0.0018564273057724752,1.952344207763672,66.81784057617188,57.6322021484375,23.25872802734375,60.373573303222656,-0.0066144307454427086,0.0026666666666666666,0.0,3.0517578125e-05,0.5712720155715942,0.02197200059890747,24.60919952392578,0.1020626491970486,0.5320572747124566
3075,-0.0018564273057724752,1.952344207763672,66.83830261230469,57.591285705566406,23.27918243408203,60.39403533935547,-0.0066144307454427086,0.0013333333333333333,0.0,-0.0,0.5712720155715942,0.02197200059890747,24.60919952392578,0.10274463229709202,0.5320571899414063
3076,-0.0018564273057724752,1.952344207763672,66.81784057617188,57.61174774169922,23.238265991210938,60.41448974609375,-0.0066144307454427086,0.002,0.0,-0.0,0.5712720155715942,0.02197200059890747,24.60919952392578,0.10228992038302952,0.5313752916124131
3077,-0.0018564273057724752,1.952344207763672,66.81784057617188,57.61174774169922,23.27918243408203,60.39403533935547,-0.0066144307454427086,0.001,0.0,-6.103515625e-05,0.5712720155715942,0.04394400119781494,24.60919952392578,0.10228992038302952,0.5320571899414063
3078,-0.0018564273057724752,1.952344207763672,66.7973861694336,57.61174774169922,23.27918243408203,60.39403533935547,-0.0066144307454427086,0.0006666666666666666,0.0,-0.0,0.5712720155715942,0.032958000898361206,24.60919952392578,0.1020626491970486,0.5320571899414063
3079,-0.0018564273057724752,1.952344207763672,66.81784057617188,57.65266036987305,23.25872802734375,60.39403533935547,-0.006841744316948784,0.0006666666666666666,0.0,3.0517578125e-05,0.5712720155715942,0.04394400119781494,24.60919952392578,0.10183533562554253,0.5318299187554254
3080,-0.0018564273057724752,1.952344207763672,66.81784057617188,57.65266036987305,23.27918243408203,60.39403533935547,-0.0066144307454427086,0.001,0.0,6.103515625e-05,0.5712720155715942,0.032958000898361206,24.60919952392578,0.10183533562554253,0.5320571899414063
3081,-0.0018564273057724752,1.952344207763672,66.81784057617188,57.6322021484375,23.27918243408203,60.39403533935547,-0.0066144307454427086,0.0006666666666666666,0.0,3.0517578125e-05,0.5712720155715942,0.032958000898361206,24.60919952392578,0.1020626491970486,0.5320571899414063
3082,-0.0018564273057724752,1.952344207763672,66.83830261230469,57.673118591308594,23.299644470214844,60.39403533935547,-0.0066144307454427086,0.0006666666666666666,0.0,3.0517578125e-05,0.5712720155715942,0.032958000898361206,24.60919952392578,0.1018353780110677,0.5322845458984375
3083,-0.0018564273057724752,1.952344207763672,66.87921905517578,57.734493255615234,23.27918243408203,60.39403533935547,-0.006841744316948784,0.0003333333333333333,0.0,3.0517578125e-05,0.5712720155715942,0.032958000898361206,24.60919952392578,0.10160806443956164,0.5320571899414063
3084,-0.0018564273057724752,1.952344207763672,66.89967346191406,57.69357681274414,23.299644470214844,60.39403533935547,-0.006841744316948784,0.0,0.0,-0.0,0.5712720155715942,0.032958000898361206,24.60919952392578,0.10228996276855469,0.5322845458984375
