,WD,WS,AIL_1,AIL_2,ELEV_1,ELEV_2,RUDD,ALT,GS,TH,PTCH,ROLL,PLA_1,AIL,ELEV
4694,0.49298686493055555,0.5179688644409179,85.68012237548828,82.36592102050781,-2.2319412231445312,87.78729248046875,0.0004322052001953125,0.7923333333333333,0.49714285714285716,0.03326322767469618,1.1535300016403198,-1.2853628569335953,44.38444900512695,0.03682445949978298,-0.055769263373480905
4695,0.49298686493055555,0.5179688644409179,85.57783508300781,82.26363372802734,-2.272857666015625,87.80775451660156,0.0015687730577256945,0.7923333333333333,0.49714285714285716,0.03216459486219618,1.1974740028381348,-1.7467752867431656,44.38444900512695,0.03682445949978298,-0.05645124647352431
4696,0.48517436493055555,0.5179688644409179,85.53691101074219,81.91584777832031,-2.0069007873535156,87.86912536621094,-0.0007043626573350694,0.7923333333333333,0.49714285714285716,0.031005011664496526,1.2084600925445557,-2.164242404052736,44.56023025512695,0.04023403591579861,-0.05417806837293837
4697,0.48908061493055555,0.5179688644409179,85.5164566040039,81.19981384277344,-1.8841552734375,87.80775451660156,0.0031599256727430558,0.7926666666666666,0.49785714285714283,0.029967414008246526,1.219446063041687,-1.8786074095459,44.56023025512695,0.04796269734700521,-0.052132331000434025
4698,0.48517436493055555,0.5179688644409179,85.47554016113281,81.24073791503906,-1.8432388305664062,87.84866333007812,0.00543306138780382,0.7923333333333333,0.49785714285714283,0.028868781195746526,1.219446063041687,-1.2194467955322281,44.56023025512695,0.047053358289930555,-0.05213224622938368
4699,0.49298686493055555,0.5179688644409179,85.57783508300781,84.84133911132812,-1.495452880859375,87.84866333007812,0.00543306138780382,0.7923333333333333,0.4982142857142857,0.028319464789496526,1.219446063041687,-0.4394403868408219,44.03289031982422,0.00818328857421875,-0.048267957899305554
4700,0.49298686493055555,0.5179688644409179,85.5982894897461,85.5164566040039,-4.441402435302734,88.03279113769531,0.005205747816297743,0.7923333333333333,0.49857142857142855,0.028105926513671876,1.175502061843872,0.373524010181427,43.85710906982422,0.0009092542860243056,-0.08304659525553386
4701,0.49689311493055555,0.49804698944091796,85.61874389648438,86.96897888183594,-4.8914794921875,88.17599487304688,0.0031599256727430558,0.7916666666666666,0.49785714285714283,0.027953338623046876,0.790992021560669,0.6591600179672241,43.76921844482422,-0.015002610948350694,-0.08963860405815972
4702,0.48908061493055555,0.49804698944091796,85.5982894897461,85.84378051757812,-4.993770599365234,88.31919860839844,0.0017960866292317708,0.791,0.4975,0.027922821044921876,0.23070600628852844,0.2197200059890747,43.76921844482422,-0.0027276780870225696,-0.09236632453070746
4703,0.49689311493055555,0.49804698944091796,85.61874389648438,87.19401550292969,-4.7482757568359375,88.1146240234375,0.0024779849582248262,0.79,0.49785714285714283,0.027739715576171876,-0.2307058745117203,0.10986000299453735,43.76921844482422,-0.01750301784939236,-0.0873655531141493
4704,0.49689311493055555,0.49804698944091796,85.5982894897461,86.23248291015625,-4.625526428222656,88.0737075805664,0.002932612101236979,0.7873333333333333,0.49857142857142855,0.027098846435546876,-0.4394403868408219,-0.49437012011718906,43.76921844482422,-0.007046593560112847,-0.0855470445421007
4705,0.49689311493055555,0.49804698944091796,85.57783508300781,85.12775421142578,-4.543693542480469,88.09416198730469,0.0015687730577256945,0.7853333333333333,0.49964285714285717,0.027312469482421876,-0.6591612272949234,-0.7250772886962906,43.241878509521484,0.00500089857313368,-0.08486506144205729
4706,0.49689311493055555,0.5179688644409179,85.5982894897461,85.23004150390625,-4.523235321044922,88.05325317382812,0.002705298529730903,0.7813333333333333,0.5007142857142857,0.027739715576171876,-0.8678938322753922,-0.2856375151367203,39.11104965209961,0.004091644287109375,-0.0841832054985894
4707,0.49689311493055555,0.5179688644409179,85.557373046875,84.5958480834961,-4.482318878173828,88.0123291015625,0.004523807101779514,0.778,0.5017857142857143,0.027800750732421876,-1.0876146727294937,0.32958000898361206,37.265357971191406,0.01068361070421007,-0.08327386644151476
4708,0.49689311493055555,0.5179688644409179,85.5982894897461,86.53935241699219,-4.277740478515625,87.93049621582031,0.0049784342447916664,0.7733333333333333,0.5017857142857143,0.027983856201171876,-1.3183199339599625,1.032684087753296,34.716548919677734,-0.010456254747178819,-0.08009151882595486
4709,0.5007993649305555,0.49804698944091796,85.61874389648438,86.62118530273438,-4.154991149902344,87.91004180908203,0.004523807101779514,0.7696666666666667,0.5017857142857143,0.027953338623046876,-1.4062086516113297,1.0436700582504272,32.8708610534668,-0.011138237847222222,-0.0785003662109375
4710,0.5047056149305555,0.49804698944091796,85.5982894897461,86.17111206054688,-4.073158264160156,87.78729248046875,0.002705298529730903,0.7646666666666667,0.5017857142857143,0.028227912055121526,-1.4281813078613297,0.6701459884643555,25.224430084228516,-0.006364695231119792,-0.07622723049587674
4711,0.5047056149305555,0.49804698944091796,85.5982894897461,86.27340698242188,-4.073158264160156,87.78729248046875,0.0011141459147135417,0.76,0.5010714285714286,0.028746710883246526,-1.4501520567626969,0.38451001048088074,24.60919952392578,-0.007501305474175347,-0.07622723049587674
4712,0.5047056149305555,0.49804698944091796,85.557373046875,85.76194763183594,-4.052700042724609,87.82821655273438,0.0020233578152126738,0.7553333333333333,0.5007142857142857,0.029082404242621526,-1.516068118164064,0.20873400568962097,24.60919952392578,-0.0022730509440104167,-0.07645462883843315
4713,0.5047056149305555,0.5179688644409179,85.37325286865234,84.20714569091797,-4.011787414550781,87.80775451660156,0.003387239244249132,0.7503333333333333,0.5003571428571428,0.029692755805121526,-1.5709978514404312,0.45042601227760315,24.69709014892578,0.012956746419270833,-0.07577268812391492
4714,0.5047056149305555,0.5179688644409179,85.49600219726562,86.49844360351562,-3.8890380859375,87.54179382324219,0.0031599256727430558,0.7446666666666667,0.5,0.030516730414496526,-1.6039568358154312,1.0986000299453735,24.69709014892578,-0.011138237847222222,-0.07145368787977431
4715,0.5047056149305555,0.5179688644409179,85.49600219726562,86.39614868164062,-3.8890380859375,87.37813568115234,0.003841866387261285,0.74,0.5,0.030882941351996526,-1.2524038725585953,1.032684087753296,24.69709014892578,-0.010001627604166667,-0.06963526407877604
4716,0.5047056149305555,0.5179688644409179,85.37325286865234,85.61874389648438,-4.1959075927734375,87.70545959472656,0.0017960866292317708,0.7356666666666667,0.49964285714285717,0.03167631361219618,-0.8678938322753922,0.7360620498657227,24.69709014892578,-0.0027276780870225696,-0.07668185763888889
4717,0.5047056149305555,0.5179688644409179,85.455078125,85.33233642578125,-4.318656921386719,88.0123291015625,0.002705298529730903,0.731,0.49857142857142855,0.03265287611219618,-1.120571749755861,1.0436700582504272,24.69709014892578,0.0013637966579861111,-0.08145540025499132
4718,0.5047056149305555,0.5179688644409179,85.88470458984375,87.25538635253906,-4.1959075927734375,87.97142028808594,0.003387239244249132,0.7256666666666667,0.4982142857142857,0.03320219251844618,-1.5709978514404312,1.3732500076293945,24.69709014892578,-0.01522979736328125,-0.07963697645399305
4719,0.5007993649305555,0.5179688644409179,85.80287170410156,87.62362670898438,-4.011787414550781,87.80775451660156,0.0015687730577256945,0.721,0.49714285714285716,0.03326322767469618,-1.7797323637695328,0.8129640221595764,24.69709014892578,-0.020230611165364582,-0.07577268812391492
4720,0.5047056149305555,0.5179688644409179,85.78240966796875,87.23492431640625,-3.9708709716796875,87.68500518798828,0.0011141459147135417,0.716,0.49714285714285716,0.03311063978407118,-1.7907186918945328,-0.13183273608398594,24.60919952392578,-0.016139051649305555,-0.07395417955186633
4721,0.5007993649305555,0.5179688644409179,85.70057678222656,85.63920593261719,-4.093616485595703,87.74638366699219,0.0008868323432074653,0.7106666666666667,0.49714285714285716,0.03289701673719618,-1.7907186918945328,-0.812964098999025,24.60919952392578,0.0006818983289930556,-0.07600000169542101
4722,0.5047056149305555,0.5179688644409179,85.0050048828125,83.08195495605469,-4.032245635986328,87.68500518798828,0.003841866387261285,0.7053333333333334,0.4975,0.03292753431532118,-1.8346620970459,-0.6921183043212906,24.60919952392578,0.02136722140842014,-0.07463612026638455
4723,0.5047056149305555,0.5378907394409179,85.20958709716797,84.5140151977539,-4.011787414550781,87.74638366699219,0.0056603749593098955,0.6996666666666667,0.4975,0.03350736829969618,-1.8895918303222672,0.4723980128765106,24.60919952392578,0.00772857666015625,-0.07509078979492187
4724,0.5007993649305555,0.5378907394409179,86.29386138916016,87.64408874511719,-4.052700042724609,87.76683807373047,0.003841866387261285,0.6933333333333334,0.4975,0.033873494466145834,-1.9225508146972672,1.2853620052337646,24.60919952392578,-0.015002526177300347,-0.07577264573838975
4725,0.5047056149305555,0.5179688644409179,86.08927917480469,87.88958740234375,-4.032245635986328,87.74638366699219,0.002705298529730903,0.688,0.4975,0.03347685072157118,-1.9555078917236344,0.6701459884643555,24.60919952392578,-0.020003424750434026,-0.07531810336642795
4726,0.5086118649305555,0.5179688644409179,85.98699188232422,86.27340698242188,-3.9504127502441406,87.68500518798828,0.0008868323432074653,0.6826666666666666,0.4975,0.03314115736219618,-1.9335371428222672,-0.49437012011718906,24.60919952392578,-0.0031823900010850693,-0.07372686598036024
4727,0.5007993649305555,0.5179688644409179,86.0074462890625,86.68256378173828,-3.9504127502441406,87.66455078125,-0.0009316762288411458,0.6766666666666666,0.49785714285714283,0.03308012220594618,-1.9335371428222672,-1.175503390380861,24.69709014892578,-0.007501305474175347,-0.07349959479437934
4728,0.5086118649305555,0.5179688644409179,85.98699188232422,87.48042297363281,-4.032245635986328,87.70545959472656,0.0004322052001953125,0.671,0.4982142857142857,0.03222563001844618,-1.9445234709472672,-1.7138163023681656,24.69709014892578,-0.01659367879231771,-0.07486339145236545
4729,0.5086118649305555,0.5179688644409179,84.63676452636719,83.5934066772461,-3.9913291931152344,87.74638366699219,0.0031599256727430558,0.6653333333333333,0.49892857142857144,0.030974494086371526,-1.9884668760986344,-2.219172137329103,24.60919952392578,0.011592864990234375,-0.0748634762234158
4730,0.5125181149305555,0.5378907394409179,85.08683776855469,83.61386108398438,-3.9913291931152344,87.62362670898438,0.0056603749593098955,0.6593333333333333,0.4992857142857143,0.030577765570746526,-2.0324102812500016,-1.2963491850585953,24.60919952392578,0.016366407606336807,-0.073499510023329
4731,0.5125181149305555,0.5378907394409179,85.23004150390625,85.96653747558594,-3.9504127502441406,87.70545959472656,0.00543306138780382,0.654,0.49964285714285717,0.030181037055121526,-2.0873400145263687,-0.13183273608398594,24.60919952392578,-0.00818328857421875,-0.07395413716634115
4732,0.5125181149305555,0.5179688644409179,85.76194763183594,87.23492431640625,-3.9504127502441406,87.68500518798828,0.0031599256727430558,0.6476666666666666,0.5,0.029601203070746526,-2.0763555937500016,0.07690200209617615,24.60919952392578,-0.016366407606336807,-0.07372686598036024
4733,0.5125181149305555,0.5179688644409179,85.5164566040039,85.41416931152344,-3.909496307373047,87.5213394165039,0.0020233578152126738,0.642,0.5,0.029234992133246526,-1.9664942198486344,-0.5053564482421891,24.60919952392578,0.0011365254720052083,-0.07145373026529948
4734,0.5164243649305555,0.5179688644409179,85.455078125,84.69813537597656,-3.9299545288085938,87.62362670898438,0.0031599256727430558,0.6363333333333333,0.5003571428571428,0.029234992133246526,-1.8786074095459,-0.3845106535644547,24.60919952392578,0.008410474989149305,-0.07281756930881077
4735,0.5164243649305555,0.5378907394409179,85.80287170410156,86.27340698242188,-3.868579864501953,87.54179382324219,0.0031599256727430558,0.6303333333333333,0.5007142857142857,0.029326544867621526,-1.7797323637695328,0.14281800389289856,24.60919952392578,-0.005228169759114583,-0.07122637430826823
4736,0.5164243649305555,0.5179688644409179,85.65966796875,89.0761489868164,-3.868579864501953,87.68500518798828,0.003387239244249132,0.625,0.5007142857142857,0.028899298773871526,-1.7138163023681656,0.02197200059890747,24.60919952392578,-0.03796090020073785,-0.07281761169433594
4737,0.5125181149305555,0.5179688644409179,84.98455047607422,84.88226318359375,-3.8890380859375,87.6031723022461,0.0024779849582248262,0.6193333333333333,0.5010714285714286,0.028624640570746526,-1.6698728972167984,-0.5492998533935562,24.60919952392578,0.0011365254720052083,-0.07213567097981771
4738,0.5164243649305555,0.5378907394409179,85.25050354003906,83.552490234375,-3.868579864501953,87.74638366699219,0.00225067138671875,0.615,0.5010714285714286,0.029296027289496526,-1.6369139128417984,-0.05493034655761875,24.60919952392578,0.01886681450737847,-0.07349959479437934
4739,0.5125181149305555,0.5378907394409179,85.33233642578125,85.39370727539062,-3.8890380859375,87.74638366699219,0.0049784342447916664,0.61,0.5010714285714286,0.029784308539496526,-1.6039568358154312,1.06564199924469,24.60919952392578,-0.0006818983289930556,-0.07372690836588541
4740,0.5164243649305555,0.5378907394409179,85.41416931152344,86.43707275390625,-3.909496307373047,87.76683807373047,0.004751120673285591,0.604,0.5007142857142857,0.029967414008246526,-1.549027102539064,1.5929700136184692,24.60919952392578,-0.011365593804253473,-0.0741814931233724
4741,0.5125181149305555,0.5179688644409179,85.74149322509766,87.48042297363281,-3.9299545288085938,87.82821655273438,0.0008868323432074653,0.5996666666666667,0.5,0.030486212836371526,-1.560013430664064,1.5160679817199707,24.60919952392578,-0.019321441650390625,-0.07509078979492187
4742,0.5125181149305555,0.5179688644409179,85.65966796875,86.98943328857422,-3.9504127502441406,87.84866333007812,0.001341459486219618,0.594,0.4992857142857143,0.030669318305121526,-1.6479002409667984,0.9228240251541138,24.60919952392578,-0.014775170220269097,-0.07554528978135851
4743,0.5086118649305555,0.5179688644409179,85.65966796875,86.74394226074219,-3.9299545288085938,87.74638366699219,0.0008868323432074653,0.5893333333333334,0.49892857142857144,0.030760871039496526,-1.7248026304931656,0.3076080083847046,24.60919952392578,-0.012047492133246528,-0.07418153550889757
4744,0.5086118649305555,0.5179688644409179,85.35279846191406,86.662109375,-3.9504127502441406,87.82821655273438,0.00225067138671875,0.5836666666666667,0.49857142857142855,0.030486212836371526,-1.7357889586181656,-0.06591667468261875,24.60919952392578,-0.014547899034288195,-0.07531810336642795
4745,0.5086118649305555,0.5179688644409179,85.29141998291016,83.73661041259766,-3.868579864501953,87.78729248046875,0.004751120673285591,0.5786666666666667,0.49857142857142855,0.030547247992621526,-1.7138163023681656,0.04394400119781494,24.60919952392578,0.01727566189236111,-0.07395413716634115
4746,0.5086118649305555,0.5179688644409179,85.39370727539062,85.63920593261719,-3.9504127502441406,87.78729248046875,0.0036145528157552082,0.574,0.4982142857142857,0.03112699720594618,-1.6698728972167984,0.8239500522613525,24.69709014892578,-0.002727762858072917,-0.07486339145236545
4747,0.5125181149305555,0.5179688644409179,85.43462371826172,86.80531311035156,-3.909496307373047,87.82821655273438,0.004751120673285591,0.5683333333333334,0.4982142857142857,0.03124906751844618,-1.6698728972167984,1.1864880323410034,24.60919952392578,-0.015229882134331598,-0.0748634762234158
4748,0.5164243649305555,0.5179688644409179,85.70057678222656,87.45996856689453,-3.909496307373047,87.74638366699219,0.0011141459147135417,0.563,0.49785714285714283,0.03149320814344618,-1.6698728972167984,0.9118380546569824,24.60919952392578,-0.019548797607421876,-0.0739542219373915
4749,0.5203306149305555,0.49804698944091796,85.5982894897461,87.09172058105469,-3.868579864501953,87.82821655273438,0.0006595187717013889,0.5576666666666666,0.49714285714285716,0.03134062025282118,-1.7357889586181656,0.2746500074863434,24.60919952392578,-0.01659367879231771,-0.07440884908040364
4750,0.5164243649305555,0.49804698944091796,85.49600219726562,84.86180114746094,-3.8481216430664062,87.80775451660156,0.0020233578152126738,0.5526666666666666,0.49714285714285716,0.03137113783094618,-1.8017050200195328,-0.18676246936035312,24.60919952392578,0.007046678331163195,-0.07395417955186633
4751,0.5125181149305555,0.5179688644409179,85.557373046875,86.35523986816406,-3.8276634216308594,87.58271789550781,0.0008868323432074653,0.547,0.4967857142857143,0.03198148939344618,-1.8346620970459,0.05493000149726868,24.60919952392578,-0.008865186903211806,-0.07122645907931857
4752,0.5125181149305555,0.5179688644409179,85.65966796875,87.13264465332031,-3.868579864501953,87.82821655273438,0.002705298529730903,0.5416666666666666,0.49714285714285716,0.03185941908094618,-1.7907186918945328,0.12084600329399109,24.60919952392578,-0.016366407606336807,-0.07440884908040364
4753,0.5086118649305555,0.5179688644409179,85.557373046875,86.88714599609375,-4.052700042724609,87.86912536621094,0.001341459486219618,0.5373333333333333,0.49642857142857144,0.03173734876844618,-1.7907186918945328,-0.3845106535644547,24.60919952392578,-0.014775254991319445,-0.07690917121039496
4754,0.5125181149305555,0.5179688644409179,85.49600219726562,84.86180114746094,-5.423389434814453,88.72836303710938,0.0024779849582248262,0.5326666666666666,0.4953571428571429,0.03155424329969618,-1.8017050200195328,-0.5383154326171891,24.60919952392578,0.007046678331163195,-0.10168613857693143
4755,0.5164243649305555,0.5179688644409179,85.53691101074219,86.5188980102539,-5.914379119873047,89.05569458007812,0.006342273288302952,0.527,0.4928571428571429,0.030699835883246526,-2.4059339934082047,-0.01098694140625156,24.60919952392578,-0.01091096666124132,-0.11077859666612414
4756,0.5164243649305555,0.49804698944091796,85.49600219726562,86.15065002441406,-6.916820526123047,89.97630310058594,0.002705298529730903,0.5233333333333333,0.4903571428571429,0.030028449164496526,-2.9991785460205094,0.06591600179672241,24.60919952392578,-0.00727386474609375,-0.13214581807454426
4757,0.5242368649305555,0.49804698944091796,85.47554016113281,77.49691772460938,-7.019111633300781,90.42637634277344,-2.242194281684028e-05,0.5193333333333333,0.4857142857142857,0.029570685492621526,-4.031862872192384,0.24169200658798218,24.60919952392578,0.08865136040581598,-0.13828319973415798
4758,0.5203306149305555,0.49804698944091796,85.49600219726562,77.41508483886719,-7.816974639892578,90.93782806396484,0.0017960866292317708,0.5166666666666667,0.48142857142857143,0.029387580023871526,-4.691023486206056,0.6042300462722778,24.60919952392578,0.08978797064887153,-0.15283114115397137
4759,0.5242368649305555,0.49804698944091796,85.5164566040039,77.45600891113281,-7.44873046875,91.36744689941406,0.003387239244249132,0.5123333333333333,0.47785714285714287,0.029112921820746526,-5.394127505371095,0.6811320185661316,24.60919952392578,0.08956052992078993,-0.15351308186848958
4760,0.5320493649305555,0.49804698944091796,85.37325286865234,77.59921264648438,-7.182777404785156,90.77416229248047,0.004523807101779514,0.5073333333333333,0.4739285714285714,0.029967414008246526,-5.976383822509767,0.4614120125770569,24.60919952392578,0.0863782246907552,-0.14396599663628473
4761,0.5320493649305555,0.5179688644409179,85.49600219726562,77.64012145996094,-7.100944519042969,90.81507873535156,-0.002068201700846354,0.5016666666666667,0.4714285714285714,0.03185941908094618,-5.789621966430666,0.5712720155715942,24.60919952392578,0.08728756374782987,-0.14351136949327256
4762,0.5203306149305555,0.5179688644409179,85.78240966796875,77.19004821777344,-7.100944519042969,90.89691162109375,-0.0043413374159071184,0.49466666666666664,0.4685714285714286,0.03341581556532118,-5.899483340332033,0.9887400269508362,24.60919952392578,0.09547068277994791,-0.14442062377929688
4763,0.5164243649305555,0.5179688644409179,85.57783508300781,77.16959381103516,-7.060028076171875,90.71278381347656,0.00543306138780382,0.488,0.4667857142857143,0.03323271009657118,-6.283993380615236,1.1315580606460571,24.60919952392578,0.0934249030219184,-0.14192013210720486
4764,0.5164243649305555,0.5179688644409179,85.557373046875,77.31279754638672,-6.855449676513672,90.61050415039062,0.0011141459147135417,0.48133333333333334,0.46464285714285714,0.03381254408094618,-6.4268099241943375,0.9557820558547974,24.60919952392578,0.09160639444986979,-0.1385105980767144
4765,0.5203306149305555,0.5179688644409179,86.58027648925781,77.27188110351562,-6.630409240722656,90.13996887207031,-0.002522828843858507,0.47333333333333333,0.46285714285714286,0.035307820638020834,-6.086245196411134,1.0107120275497437,24.60919952392578,0.10342661539713542,-0.13078197903103297
4766,0.5164243649305555,0.49804698944091796,87.03034973144531,76.55585479736328,-6.609951019287109,90.24225616455078,0.002932612101236979,0.467,0.46,0.034453328450520834,-5.218350070068361,1.1205720901489258,24.60919952392578,0.1163832770453559,-0.13169119093153211
4767,0.5047056149305555,0.49804698944091796,84.24806213378906,77.12867736816406,-6.487205505371094,90.09904479980469,0.010888502332899305,0.45966666666666667,0.4575,0.03347685072157118,-4.756939547607423,-0.07690300280761875,24.60919952392578,0.07910427517361111,-0.12873611450195313
4768,0.5086118649305555,0.5179688644409179,85.20958709716797,77.3946304321289,-6.466747283935547,90.42637634277344,-0.012297227647569445,0.4553333333333333,0.4546428571428571,0.035643513997395834,-4.3944002562255875,-0.10986007983398594,24.60919952392578,0.08683285183376736,-0.13214581807454426
4769,0.49689311493055555,0.5179688644409179,85.72103881835938,77.06730651855469,-6.487205505371094,90.6309585571289,-0.00047704908582899306,0.449,0.4521428571428571,0.035826619466145834,-4.196652072021486,0.6371880173683167,24.60919952392578,0.09615258110894097,-0.1346462673611111
4770,0.49689311493055555,0.5179688644409179,86.74394226074219,76.4740219116211,-6.425830841064453,90.50820922851562,0.0024779849582248262,0.44333333333333336,0.4475,0.035490926106770834,-4.251581805297853,0.7690200209617615,24.60919952392578,0.11411022610134548,-0.13260044521755643
4771,0.49298686493055555,0.49804698944091796,86.39614868164062,77.333251953125,-6.4462890625,90.1604232788086,0.001341459486219618,0.439,0.4446428571428571,0.035277303059895834,-4.284540789672853,0.09887400269508362,24.60919952392578,0.1006988525390625,-0.12896347045898438
4772,0.49298686493055555,0.478125114440918,86.662109375,76.63768005371094,-6.323539733886719,90.42637634277344,-0.008660252888997395,0.43466666666666665,0.44107142857142856,0.033965047200520834,-4.196652072021486,-0.2856375151367203,24.60919952392578,0.11138254801432292,-0.13055462307400173
4773,0.48517436493055555,0.478125114440918,84.554931640625,78.15158081054688,-6.262165069580078,90.32408142089844,0.008160781860351563,0.42966666666666664,0.43857142857142856,0.03219511244032118,-3.92200340563965,-1.538040774414064,24.60919952392578,0.0711483425564236,-0.12873607211642796
4774,0.49689311493055555,0.49804698944091796,85.16867065429688,77.51737976074219,-6.241706848144531,89.95584106445312,-0.006841744316948784,0.425,0.435,0.03268339369032118,-3.7681986265869156,-1.1864878111572281,24.60919952392578,0.08501434326171875,-0.12441719902886285
4775,0.48126811493055555,0.478125114440918,85.16867065429688,77.76287841796875,-6.221248626708984,90.32408142089844,0.004751120673285591,0.4196666666666667,0.43214285714285716,0.030882941351996526,-3.3287588530273453,-0.2636648588867203,24.60919952392578,0.08228658040364584,-0.1282814449734158
4776,0.49298686493055555,0.45820323944091795,85.61874389648438,77.04684448242188,-6.241706848144531,90.20133972167969,0.003387239244249132,0.4156666666666667,0.4278571428571429,0.029296027289496526,-3.1419969969482437,1.0436700582504272,24.60919952392578,0.09524332682291667,-0.12714496188693578
4777,0.48517436493055555,0.438281364440918,85.57783508300781,77.45600891113281,-6.159877777099609,90.09904479980469,0.016798612806532116,0.41233333333333333,0.42464285714285716,0.027953338623046876,-2.7355143004150406,1.0876140594482422,24.60919952392578,0.09024251302083333,-0.12509913974338108
4778,0.48908061493055555,0.45820323944091795,86.58027648925781,76.41264343261719,-5.934837341308594,89.73080444335938,-0.009342193603515625,0.4086666666666667,0.41892857142857143,0.03103544447157118,-2.845373766967775,0.9667680263519287,24.60919952392578,0.11297370062934028,-0.11850713094075521
4779,0.46954936493055555,0.45820323944091795,86.64164733886719,77.70149993896484,-6.712242126464844,91.18331909179688,0.008160781860351563,0.4033333333333333,0.4157142857142857,0.030821906195746526,-2.823403018066408,0.6591600179672241,24.60919952392578,0.09933497111002604,-0.14328401353624132
4780,0.46564311493055555,0.45820323944091795,86.39614868164062,77.72195434570312,-6.1394195556640625,90.71278381347656,-0.004795964558919271,0.3993333333333333,0.41,0.03103544447157118,-3.6253801756591812,0.4284540116786957,24.60919952392578,0.09637993706597223,-0.13169114854600694
4781,0.46954936493055555,0.438281364440918,86.19157409667969,77.72195434570312,-6.691783905029297,90.6309585571289,-0.0022955152723524307,0.3963333333333333,0.4067857142857143,0.030882941351996526,-3.7901712828369156,0.4614120125770569,24.60919952392578,0.0941068861219618,-0.1369193606906467
4782,0.46564311493055555,0.45820323944091795,85.49600219726562,77.68104553222656,-6.2007904052734375,91.0196533203125,0.009070036146375868,0.39366666666666666,0.4017857142857143,0.03121854994032118,-4.471302645751955,0.7250760197639465,26.103330612182617,0.08683285183376736,-0.13578270806206597
4783,0.48126811493055555,0.45820323944091795,85.78240966796875,77.64012145996094,-6.855449676513672,91.77660369873047,-0.0075236850314670135,0.3913333333333333,0.3982142857142857,0.03314115736219618,-5.020601885864259,1.0107120275497437,30.673608779907227,0.09046986897786459,-0.15146725972493488
4784,0.48908061493055555,0.45820323944091795,86.19157409667969,77.12867736816406,-6.016670227050781,90.65141296386719,0.00225067138671875,0.38866666666666666,0.39285714285714285,0.03362943861219618,-5.877510684082033,1.4611380100250244,33.837650299072266,0.1006988525390625,-0.12964536878797744
4785,0.49689311493055555,0.438281364440918,86.0688247680664,77.61967468261719,-5.873462677001953,90.36500549316406,0.0072515275743272566,0.38466666666666666,0.39,0.03353788587782118,-5.822580950805666,0.9228240251541138,35.41967010498047,0.09387944539388021,-0.12487186855740018
4786,0.5007993649305555,0.45820323944091795,87.29630279541016,77.66058349609375,-5.771175384521484,90.99920654296875,0.0008868323432074653,0.381,0.38571428571428573,0.035307820638020834,-5.4490572386474625,1.1205720901489258,35.7712287902832,0.10706354777018229,-0.13078202141655815
4787,0.48517436493055555,0.438281364440918,87.35768127441406,76.3921890258789,-5.66888427734375,90.73324584960938,0.0015687730577256945,0.37666666666666665,0.38285714285714284,0.035002644856770834,-5.547930377075197,1.6588860750198364,35.8591194152832,0.12183880276150173,-0.1266903347439236
4788,0.46954936493055555,0.41835948944091794,85.53691101074219,77.25142669677734,-5.402931213378906,90.44683837890625,0.010206561618381077,0.373,0.37857142857142856,0.033965047200520834,-5.745678561279298,-0.19774879748535312,35.8591194152832,0.0920609368218316,-0.12055299546983507
4789,0.46954936493055555,0.45820323944091795,85.70057678222656,77.29234313964844,-5.259723663330078,90.6309585571289,-0.010251405504014757,0.36933333333333335,0.37642857142857145,0.035765584309895834,-5.800608294555666,-1.1095873289794937,36.29856872558594,0.09342481825086806,-0.12100758022732205
4790,0.47345561493055555,0.45820323944091795,85.68012237548828,77.70149993896484,-5.157432556152344,90.54912567138672,-0.00047704908582899306,0.36533333333333334,0.37357142857142855,0.035521443684895834,-5.756664889404298,-0.9667688780517594,37.704811096191406,0.08865136040581598,-0.11896175808376735
4791,0.47345561493055555,0.45820323944091795,86.82576751708984,76.82180786132812,-5.11651611328125,91.04011535644531,-0.004568650987413194,0.3606666666666667,0.37214285714285716,0.036284383138020834,-5.767651217529298,0.08788800239562988,38.320037841796875,0.11115510728624133,-0.12396257188585069
4792,0.46954936493055555,0.438281364440918,86.08927917480469,77.8856201171875,-4.993770599365234,90.13996887207031,0.004751120673285591,0.3546666666666667,0.3703571428571429,0.03323271009657118,-6.031315463134767,0.7360620498657227,39.11104965209961,0.09115176730685765,-0.11259710523817275
4793,0.5007993649305555,0.39843757629394533,85.557373046875,77.9879150390625,-4.625526428222656,89.91493225097656,0.02202674018012153,0.352,0.36892857142857144,0.030150519476996526,-6.4707552366943375,0.6042300462722778,39.462608337402344,0.08410508897569445,-0.10600509643554687
4794,0.5125181149305555,0.3785157012939453,85.61874389648438,85.557373046875,-4.154991149902344,89.36256408691406,-0.003886710272894965,0.3463333333333333,0.36857142857142855,0.029936896430121526,-6.36089386279297,1.1205720901489258,39.814170837402344,0.0006818983289930556,-0.0946395026312934
4795,0.46564311493055555,0.39843757629394533,85.33233642578125,85.78240966796875,-3.7662887573242188,88.87156677246094,0.011797756618923612,0.3393333333333333,0.3682142857142857,0.030943976508246526,-5.976383822509767,0.8898659944534302,40.42940139770508,-0.0050008138020833336,-0.08486506144205729
4796,0.45783061493055555,0.438281364440918,86.5188980102539,87.45996856689453,-3.868579864501953,88.87156677246094,-0.013661109076605903,0.334,0.3682142857142857,0.035857137044270834,-4.954685824462892,1.021697998046875,40.60517883300781,-0.010456339518229166,-0.08600162929958767
4797,0.46173686493055555,0.45820323944091795,87.41905212402344,90.81507873535156,-3.8481216430664062,89.13752746582031,-0.018207295735677084,0.32866666666666666,0.3675,0.03829845852322049,-4.3944002562255875,1.06564199924469,40.69306945800781,-0.03773362901475694,-0.08872943454318577
4798,0.44611186493055555,0.41835948944091794,85.88470458984375,88.74882507324219,-3.745830535888672,89.66943359375,0.009524663289388021,0.3253333333333333,0.36607142857142855,0.035368855794270834,-3.856087344238283,0.5932440161705017,40.69306945800781,-0.03182356092664931,-0.09350293477376302
4799,0.44220561493055555,0.39843757629394533,85.47554016113281,85.61874389648438,-4.277740478515625,91.24469757080078,0.020435587565104166,0.32233333333333336,0.36464285714285716,0.03271391126844618,-3.7901712828369156,-0.4064833098144547,40.69306945800781,-0.001591152615017361,-0.11691597832573784
4800,0.48517436493055555,0.41835948944091794,86.49844360351562,86.88714599609375,-3.295757293701172,89.58760070800781,-0.021616956922743055,0.31966666666666665,0.3625,0.036436971028645834,-4.086792605468752,-0.3185945921630875,40.86885070800781,-0.0043189154730902775,-0.08759286668565539
4801,0.45783061493055555,0.438281364440918,88.72836303710938,91.53111267089844,-3.8072052001953125,89.75126647949219,-0.003659396701388889,0.31566666666666665,0.36178571428571427,0.03787121242947049,-3.954960482666017,1.175502061843872,40.69306945800781,-0.03114166259765625,-0.09509412977430555
4802,0.46954936493055555,0.39843757629394533,84.24806213378906,86.5188980102539,-4.134532928466797,90.34454345703125,0.011343129475911458,0.31366666666666665,0.35964285714285715,0.035185750325520834,-4.097778933593752,0.12084600329399109,40.69306945800781,-0.025231509738498265,-0.1053230709499783
4803,0.45783061493055555,0.3785157012939453,85.06637573242188,86.47798156738281,-4.073158264160156,89.48530578613281,0.007478841145833333,0.311,0.35892857142857143,0.03304960462782118,-4.306513445922853,0.032958000898361206,40.69306945800781,-0.01568450927734375,-0.0950940450032552
4804,0.43829936493055555,0.39843757629394533,85.1072998046875,87.03034973144531,-4.1959075927734375,89.73080444335938,0.005205747816297743,0.30666666666666664,0.3578571428571429,0.03338529798719618,-4.218624728271486,0.09887400269508362,40.69306945800781,-0.02136722140842014,-0.09918568929036459
4805,0.45392436493055555,0.438281364440918,86.5188980102539,86.53935241699219,-4.236824035644531,89.79217529296875,-0.02207158406575521,0.304,0.35714285714285715,0.03909191555447049,-3.954960482666017,-0.2966219359130875,40.69306945800781,-0.00022727118598090277,-0.10032221476236979
4806,0.46564311493055555,0.45820323944091795,87.62362670898438,90.13996887207031,-4.093616485595703,90.32408142089844,-0.0018409305148654514,0.29933333333333334,0.3560714285714286,0.04089236789279514,-3.867073672363283,0.2197200059890747,40.69306945800781,-0.027959357367621528,-0.1046410878499349
4807,0.47345561493055555,0.41835948944091794,87.43951416015625,88.91248321533203,-4.257282257080078,89.13752746582031,0.01657129923502604,0.296,0.355,0.03759655422634549,-3.91101707751465,0.48338401317596436,40.69306945800781,-0.016366322835286457,-0.09327566358778212
4808,0.44611186493055555,0.39843757629394533,86.25294494628906,87.54179382324219,-4.380031585693359,89.71034240722656,0.0056603749593098955,0.293,0.3532142857142857,0.035948689778645834,-3.7462259703369156,0.02197200059890747,42.099308013916016,-0.014320543077256944,-0.10100415547688803
4809,0.45001811493055555,0.41835948944091794,86.68256378173828,87.1121826171875,-4.645984649658203,90.09904479980469,-0.002068201700846354,0.289,0.3525,0.03671154446072049,-3.932987826416017,0.07690200209617615,42.275089263916016,-0.004773542616102431,-0.10827810499403212
4810,0.43829936493055555,0.41835948944091794,86.53935241699219,89.34210205078125,-4.686901092529297,89.66943359375,0.011343129475911458,0.2853333333333333,0.3510714285714286,0.036498006184895834,-4.295527117797853,0.24169200658798218,42.275089263916016,-0.03114166259765625,-0.10395927429199218
4811,0.44220561493055555,0.39843757629394533,86.5188980102539,88.05325317382812,-4.768730163574219,89.68988800048828,-0.015252261691623263,0.2806666666666667,0.3507142857142857,0.036192830403645834,-4.196652072021486,-0.12084640795898594,42.275089263916016,-0.017048390706380208,-0.10509575737847222
4812,0.41486186493055555,0.3785157012939453,86.84622192382812,90.2218017578125,-4.993770599365234,89.68988800048828,0.007933468288845487,0.27666666666666667,0.35035714285714287,0.03292753431532118,-4.3834139281005875,0.9777539968490601,42.275089263916016,-0.03750644259982639,-0.10759620666503907
4813,0.46173686493055555,0.33867195129394534,88.27828979492188,89.85355377197266,-5.300640106201172,89.79217529296875,0.009070036146375868,0.27266666666666667,0.35035714285714287,0.03118803236219618,-4.636091845581056,1.538040041923523,42.275089263916016,-0.017502933078342015,-0.11214239332411025
4814,0.45001811493055555,0.3585938262939453,83.20470428466797,89.46485137939453,-4.605068206787109,88.62606811523438,-0.0066144307454427086,0.2683333333333333,0.35035714285714287,0.03359892103407118,-4.691023486206056,0.20873400568962097,42.275089263916016,-0.06955718994140625,-0.09145707024468316
4815,0.41095561493055555,0.3785157012939453,85.84378051757812,87.50088500976562,-4.952854156494141,89.38301849365234,-0.009342193603515625,0.2643333333333333,0.35035714285714287,0.03378202650282118,-4.460316317626955,-0.6591612272949234,42.275089263916016,-0.018412272135416668,-0.10373191833496094
4816,0.46173686493055555,0.3585938262939453,87.74638366699219,89.71034240722656,-4.830104827880859,89.05569458007812,-0.002068201700846354,0.26,0.3507142857142857,0.034209187825520834,-4.240597384521486,0.032958000898361206,42.275089263916016,-0.021821763780381944,-0.0987311045328776
4817,0.43439311493055555,0.33867195129394534,85.90515899658203,87.1121826171875,-4.932395935058594,89.05569458007812,0.01770782470703125,0.257,0.3507142857142857,0.030394660101996526,-3.856087344238283,0.09887400269508362,42.275089263916016,-0.013411373562282987,-0.09986767239040799
4818,0.42658061493055555,0.3187500762939453,86.23248291015625,88.05325317382812,-5.014228820800781,89.28073120117188,0.015889358520507813,0.25233333333333335,0.35035714285714287,0.028990851508246526,-3.6583391600341812,-0.09887375170898594,42.275089263916016,-0.020230780707465278,-0.10327733357747396
4819,0.42658061493055555,0.3785157012939453,86.08927917480469,88.64653015136719,-5.627967834472656,90.2218017578125,-0.022298897637261283,0.24866666666666667,0.34964285714285714,0.034697469075520834,-3.6473528319091812,-0.856909411499025,42.275089263916016,-0.028413899739583335,-0.12055299546983507
4820,0.44220561493055555,0.41835948944091794,86.1097412109375,88.64653015136719,-5.3620147705078125,89.09660339355469,-0.022753524780273437,0.245,0.3489285714285714,0.03842052883572049,-4.086792605468752,-1.2963491850585953,42.275089263916016,-0.028186543782552084,-0.10509575737847222
4821,0.46564311493055555,0.39843757629394533,86.08927917480469,87.78729248046875,-5.627967834472656,89.567138671875,0.012025070190429688,0.23966666666666667,0.3489285714285714,0.036314900716145834,-3.7681986265869156,-0.3405672484130875,42.275089263916016,-0.01886681450737847,-0.11327896118164063
4822,0.44220561493055555,0.3785157012939453,86.88714599609375,89.58760070800781,-5.607509613037109,89.48530578613281,0.016343985663519967,0.237,0.3485714285714286,0.03301908704969618,-4.119751589843752,0.7690200209617615,42.275089263916016,-0.030005052354600693,-0.11214239332411025
4823,0.41095561493055555,0.3585938262939453,87.54179382324219,90.34454345703125,-5.648426055908203,89.36256408691406,0.009297349717881945,0.232,0.3482142857142857,0.03213407728407118,-3.932987826416017,0.6371880173683167,42.275089263916016,-0.03114166259765625,-0.11123322380913628
4824,0.41486186493055555,0.3785157012939453,87.43951416015625,89.46485137939453,-5.689342498779297,89.83309936523438,0.0004322052001953125,0.22866666666666666,0.34714285714285714,0.033965047200520834,-3.87805809313965,-0.09887375170898594,42.275089263916016,-0.02250374688042535,-0.11691602071126302
4825,0.43439311493055555,0.39843757629394533,87.39859008789062,90.0172119140625,-5.66888427734375,89.42393493652344,-0.013888380262586805,0.22333333333333333,0.34714285714285714,0.03707775539822049,-3.867073672363283,-1.4611383848876969,42.275089263916016,-0.02909579806857639,-0.11214243570963542
4826,0.40704936493055555,0.39843757629394533,84.67768096923828,86.19157409667969,-5.648426055908203,89.0761489868164,0.006114959716796875,0.22033333333333333,0.3464285714285714,0.03378202650282118,-4.108765261718752,-2.7465006285400406,42.275089263916016,-0.01682103474934896,-0.10805083380805122
4827,0.40704936493055555,0.3785157012939453,87.72592163085938,87.41905212402344,-5.648426055908203,89.30118560791016,0.0065695868598090275,0.216,0.3464285714285714,0.029875861273871526,-3.6253801756591812,-2.559738772460939,42.275089263916016,0.003409661187065972,-0.11055124070909288
4828,0.37970561493055555,0.3585938262939453,84.92317199707031,88.76927947998047,-6.159877777099609,90.1604232788086,0.011115815904405382,0.21366666666666667,0.3457142857142857,0.02432183159722222,-3.537493365356447,-2.6366411619873062,42.275089263916016,-0.042734527587890626,-0.1257811228434245
4829,0.39142436493055555,0.33867195129394534,83.85935974121094,84.30943298339844,-5.9757537841796875,89.95584106445312,0.0040691799587673615,0.209,0.34535714285714286,0.02075135972764757,-3.987919467041017,-3.273829119750978,42.275089263916016,-0.0050008138020833336,-0.12146216498480902
4830,0.46954936493055555,0.3187500762939453,76.73997497558594,78.82669067382812,-6.037128448486328,89.40347290039062,-0.0011589898003472221,0.206,0.34535714285714286,0.018493143717447917,-4.36144317919922,-3.932987826416017,42.01142120361328,-0.02318572998046875,-0.11600668165418837
4831,0.44611186493055555,0.3785157012939453,84.96409606933594,77.51737976074219,-5.955295562744141,89.46485137939453,-0.022753524780273437,0.20233333333333334,0.3460714285714286,0.02151429918077257,-4.4273592406005875,-0.9887415343017594,41.74774932861328,0.08274129231770834,-0.11577941046820747
4832,0.45001811493055555,0.3785157012939453,88.40103149414062,75.63523864746094,-5.791633605957031,89.2193603515625,0.0004322052001953125,0.19766666666666666,0.3460714285714286,0.02139222886827257,-4.4163729124755875,1.8786060810089111,41.74774932861328,0.1418421427408854,-0.11123326619466146
4833,0.42267436493055555,0.3585938262939453,85.70057678222656,77.64012145996094,-5.505218505859375,88.89202880859375,0.015889358520507813,0.19366666666666665,0.3460714285714286,0.019347635904947917,-4.251581805297853,1.2084600925445557,41.57196807861328,0.08956061469184028,-0.10441385904947917
4834,0.43439311493055555,0.3585938262939453,86.04837036132812,77.59921264648438,-5.546134948730469,89.34210205078125,-0.005250591701931423,0.18866666666666668,0.3457142857142857,0.02249077690972222,-3.954960482666017,0.7250760197639465,41.57196807861328,0.09387953016493056,-0.10986929999457465
4835,0.43829936493055555,0.3785157012939453,90.95828247070312,76.43310546875,-5.484760284423828,89.05569458007812,-0.0066144307454427086,0.184,0.3457142857142857,0.02477959526909722,-3.834114687988283,2.0763540267944336,41.57196807861328,0.16139085557725694,-0.1060050540500217
4836,0.42267436493055555,0.33867195129394534,85.80287170410156,76.8831787109375,-4.850563049316406,88.64653015136719,0.025891028510199653,0.18033333333333335,0.345,0.02194154527452257,-3.7681986265869156,0.9667680263519287,41.57196807861328,0.09910769992404514,-0.09441214667426215
4837,0.41876811493055555,0.33867195129394534,85.88470458984375,77.66058349609375,-5.11651611328125,88.97386169433594,-0.006159803602430555,0.17633333333333334,0.345,0.02334526909722222,-3.3507315092773453,-0.4284540587158219,41.57196807861328,0.09137912326388889,-0.1010041978624132
4838,0.42658061493055555,0.3585938262939453,87.21446990966797,76.94454956054688,-5.1983489990234375,89.32164001464844,-0.007978312174479167,0.17266666666666666,0.3442857142857143,0.02514580620659722,-2.944248812744142,-0.08788933093261875,41.57196807861328,0.11411022610134548,-0.10577765570746528
4839,0.37189311493055555,0.39843757629394533,86.19157409667969,77.41508483886719,-5.218807220458984,89.30118560791016,-0.0007043626573350694,0.169,0.3435714285714286,0.02526787651909722,-3.0870672636718766,-0.6701475554199234,41.57196807861328,0.09751654730902778,-0.10577769809299045
4840,0.39533061493055555,0.3785157012939453,86.76439666748047,76.69905853271484,-5.382472991943359,89.567138671875,0.0006595187717013889,0.166,0.34214285714285714,0.02471856011284722,-2.900305407592775,-0.13183273608398594,41.57196807861328,0.11183709038628473,-0.11055124070909288
4841,0.40704936493055555,0.33867195129394534,85.39370727539062,76.57630920410156,-5.996212005615234,90.46729278564453,0.014298163519965278,0.16333333333333333,0.3414285714285714,0.02151429918077257,-2.570725100585939,0.12084600329399109,41.57196807861328,0.09797108968098958,-0.12737227545844185
4842,0.43048686493055555,0.3187500762939453,83.67523193359375,78.540283203125,-5.832546234130859,89.34210205078125,0.006796900431315104,0.161,0.34,0.02044618394639757,-2.966221468994142,-0.8788801604003922,41.57196807861328,0.05705498589409722,-0.11305164761013455
4843,0.45783061493055555,0.3585938262939453,85.41416931152344,77.333251953125,-5.832546234130859,89.62850952148438,-0.02320815192328559,0.158,0.3392857142857143,0.02514580620659722,-3.0101648741455094,-0.7250772886962906,41.48408126831055,0.08978797064887153,-0.11623395284016927
4844,0.47736186493055555,0.3785157012939453,87.45996856689453,77.06730651855469,-5.505218505859375,89.44439697265625,-0.016388829549153647,0.15566666666666668,0.3385714285714286,0.028044891357421876,-2.911289828369142,0.6481740474700928,41.48408126831055,0.1154740227593316,-0.11055128309461805
4845,0.45392436493055555,0.33867195129394534,87.5213394165039,76.26943969726562,-4.850563049316406,88.23736572265625,0.019299019707573785,0.15166666666666667,0.3382142857142857,0.02361992730034722,-2.7465006285400406,0.9777539968490601,41.39619064331055,0.12502110799153646,-0.08986587524414062
4846,0.45392436493055555,0.29882820129394533,86.39614868164062,77.25142669677734,-5.341556549072266,89.83309936523438,0.02020827399359809,0.14866666666666667,0.33714285714285713,0.019164530436197917,-2.493822711059572,0.32958000898361206,41.39619064331055,0.10160802205403646,-0.11305173238118489
4847,0.43048686493055555,0.29882820129394533,86.31431579589844,77.35371398925781,-5.096061706542969,88.40103149414062,-0.013661109076605903,0.14466666666666667,0.3364285714285714,0.019561258951822917,-2.6915708952636734,-0.02197326953125156,41.39619064331055,0.09956224229600695,-0.09441214667426215
4848,0.42658061493055555,0.2789063262939453,86.39614868164062,77.25142669677734,-5.096061706542969,88.40103149414062,0.011570443047417535,0.141,0.3357142857142857,0.016753726535373263,-2.933262484619142,0.35155200958251953,41.39619064331055,0.10160802205403646,-0.09441214667426215
4849,0.46954936493055555,0.29882820129394533,84.14576721191406,77.90608215332031,-5.11651611328125,88.42149353027344,0.0020233578152126738,0.139,0.335,0.018645731608072917,-2.7025572233886734,-1.2414194517822281,41.74774932861328,0.069329833984375,-0.0948667738172743
4850,0.41095561493055555,0.3585938262939453,84.84133911132812,77.80378723144531,-5.157432556152344,88.95339965820312,-0.023435465494791665,0.134,0.33464285714285713,0.02413872612847222,-2.4608656340332047,-1.153530734130861,42.362979888916016,0.0781950208875868,-0.1012314690483941
4851,0.43439311493055555,0.3785157012939453,85.78240966796875,77.90608215332031,-5.1983489990234375,88.87156677246094,-0.006159803602430555,0.13033333333333333,0.33464285714285713,0.026366424560546876,-2.3619905882568375,-0.9228254729003922,42.538761138916016,0.08751475016276042,-0.10077684190538194
4852,0.45392436493055555,0.3785157012939453,84.5958480834961,77.31279754638672,-4.952854156494141,88.33966064453125,-0.014797634548611112,0.12666666666666668,0.3342857142857143,0.026457977294921876,-2.6256548338623062,-0.2746511870117203,42.538761138916016,0.08092278374565973,-0.09213905334472657
4853,0.44220561493055555,0.3585938262939453,86.23248291015625,77.4764633178711,-4.871021270751953,88.0123291015625,0.017025926378038195,0.12333333333333334,0.3339285714285714,0.02297905815972222,-2.6476274901123062,1.263390064239502,42.538761138916016,0.09728910658094618,-0.08759278191460504
4854,0.44220561493055555,0.33867195129394534,86.96897888183594,77.27188110351562,-5.034687042236328,88.6669921875,-0.0034320831298828127,0.119,0.3335714285714286,0.02316216362847222,-1.9445234709472672,1.9774800539016724,42.538761138916016,0.10774553087022569,-0.09668532477484809
4855,0.48517436493055555,0.29882820129394533,85.72103881835938,77.537841796875,-4.257282257080078,89.2193603515625,0.02202674018012153,0.116,0.33321428571428574,0.02011049058702257,-2.3839632445068375,1.9555079936981201,42.538761138916016,0.09092441134982639,-0.09418491787380642
4856,0.42658061493055555,0.2789063262939453,85.84378051757812,77.59921264648438,-5.075603485107422,89.77172088623047,0.003387239244249132,0.112,0.3335714285714286,0.019500223795572917,-2.6805845671386734,1.450152039527893,42.538761138916016,0.09160630967881944,-0.10941471523708768
4857,0.40704936493055555,0.29882820129394533,87.31675720214844,76.55585479736328,-4.993770599365234,88.89202880859375,-0.008205625745985243,0.10833333333333334,0.3339285714285714,0.02264336480034722,-3.0321375303955094,1.6259280443191528,42.538761138916016,0.11956558227539063,-0.0987311045328776
4858,0.41876811493055555,0.29882820129394533,86.04837036132812,77.06730651855469,-4.932395935058594,89.38301849365234,-0.002068201700846354,0.10633333333333334,0.3339285714285714,0.02346733940972222,-3.0321375303955094,1.812690019607544,42.538761138916016,0.0997895982530382,-0.10350460476345485
4859,0.5007993649305555,0.2789063262939453,86.25294494628906,76.67860412597656,-4.236824035644531,88.36012268066406,0.01066118876139323,0.10166666666666667,0.3339285714285714,0.02377251519097222,-3.3617159300537125,1.307334065437317,42.538761138916016,0.10638156467013889,-0.08441051907009549
4860,0.46564311493055555,0.3187500762939453,91.96072387695312,77.08776092529297,-4.5846099853515625,89.50576782226562,-0.022753524780273437,0.097,0.3342857142857143,0.03103544447157118,-2.933262484619142,1.1095860004425049,42.538761138916016,0.16525514390733506,-0.1010041978624132
4861,0.45001811493055555,0.33867195129394534,88.33966064453125,76.41264343261719,-3.8890380859375,87.82821655273438,-0.008660252888997395,0.09433333333333334,0.33464285714285713,0.03222563001844618,-3.0650946074218766,0.8898659944534302,42.538761138916016,0.1325224134657118,-0.07463616265190973
4862,0.44220561493055555,0.29882820129394533,87.99187469482422,76.8831787109375,-4.564151763916016,89.48530578613281,0.023617935180664063,0.09,0.335,0.029143439398871526,-2.6476274901123062,-0.812964098999025,42.538761138916016,0.1234299553765191,-0.10054952833387587
4863,0.43829936493055555,0.3187500762939453,88.29874420166016,77.72195434570312,-3.9708709716796875,88.52378845214844,-0.02207158406575521,0.085,0.335,0.03140165540907118,-2.6476274901123062,-2.263117449829103,42.538761138916016,0.11751988728841146,-0.08327399359809028
4864,0.41876811493055555,0.3187500762939453,83.49111938476562,78.78577423095703,-4.216365814208984,89.6080551147461,-0.005705218844943577,0.08066666666666666,0.33535714285714285,0.027892303466796876,-2.471850054809572,-1.7687460356445328,42.538761138916016,0.05228161282009548,-0.0980491214328342
4865,0.40314311493055555,0.25898443222045897,84.88226318359375,77.00592803955078,-4.5846099853515625,88.83065795898438,0.0254364013671875,0.078,0.33535714285714285,0.018920389811197917,-2.955235140869142,-0.5163427763671891,42.538761138916016,0.08751483493381076,-0.0935029771592882
4866,0.46173686493055555,0.239062557220459,86.33477783203125,76.96501159667969,-3.520793914794922,87.86912536621094,0.007478841145833333,0.075,0.33535714285714285,0.018432108561197917,-3.0431219511718766,0.02197200059890747,42.538761138916016,0.10410851372612848,-0.07099910312228733
4867,0.43439311493055555,0.29882820129394533,88.74882507324219,76.24897766113281,-3.1934661865234375,88.83065795898438,-0.022980838351779515,0.07133333333333333,0.33535714285714285,0.02441338433159722,-2.5926958494873062,0.04394400119781494,42.538761138916016,0.13888719346788195,-0.0780458238389757
4868,0.47345561493055555,0.29882820129394533,85.53691101074219,77.72195434570312,-2.641101837158203,88.09416198730469,-0.003659396701388889,0.06766666666666667,0.33535714285714285,0.02484063042534722,-2.252131121704103,-0.5163427763671891,42.362979888916016,0.08683285183376736,-0.06372515360514323
4869,0.46173686493055555,0.29882820129394533,88.17599487304688,77.49691772460938,-2.354686737060547,89.1170654296875,-0.007069057888454861,0.063,0.33535714285714285,0.026122283935546876,-1.7687460356445328,0.08788800239562988,42.362979888916016,0.11865641276041666,-0.07190835740831163
4870,0.41876811493055555,0.29882820129394533,86.02790832519531,88.93293762207031,-1.945526123046875,88.33966064453125,0.010206561618381077,0.060333333333333336,0.33535714285714285,0.02392510308159722,-1.8236757689209,-0.4504267149658219,42.362979888916016,-0.03227810329861111,-0.058724297417534724
4871,0.41095561493055555,0.29882820129394533,86.68256378173828,88.72836303710938,-5.505218505859375,89.567138671875,-0.009114880032009548,0.058,0.335,0.02282647026909722,-1.6259294920654312,-1.3622652464599625,42.362979888916016,-0.022731102837456597,-0.11191507975260416
4872,0.38361186493055555,0.29882820129394533,84.37080383300781,84.84133911132812,-5.791633605957031,89.93538665771484,-0.0034320831298828127,0.055,0.3342857142857143,0.02218568589952257,-1.8236757689209,-2.2960745268554703,42.362979888916016,-0.005228169759114583,-0.11918911404079861
4873,0.39923686493055555,0.3187500762939453,87.09172058105469,87.66455078125,-4.789188385009766,86.82576751708984,0.0017960866292317708,0.051666666666666666,0.3335714285714286,0.02206361558702257,-1.9884668760986344,-1.3402925902099625,42.362979888916016,-0.006364780002170139,-0.073499510023329
4874,0.49689311493055555,0.25898443222045897,80.79066467285156,83.90027618408203,-5.157432556152344,88.31919860839844,0.009979248046875,0.050666666666666665,0.33321428571428574,0.017608133951822917,-1.3402925902099625,-0.6701475554199234,42.362979888916016,-0.034551239013671874,-0.0941847907172309
4875,0.43829936493055555,0.2789063262939453,84.6572265625,79.8905029296875,-8.246593475341797,89.26026916503906,0.01475279066297743,0.04833333333333333,0.33285714285714285,0.018310038248697917,-0.7140909605712906,-0.15380539233398594,42.362979888916016,0.05296359592013889,-0.13896514044867622
4876,0.48126811493055555,0.3585938262939453,96.40011596679688,92.43125915527344,-4.3595733642578125,89.75126647949219,-0.02320815192328559,0.042666666666666665,0.3317857142857143,0.028380499945746526,-1.7467752867431656,2.1752281188964844,42.362979888916016,0.04409840901692708,-0.10123155381944444
4877,0.48908061493055555,0.33867195129394534,86.64164733886719,93.45416259765625,-5.7507171630859375,86.90760040283203,-0.009569507175021702,0.04066666666666666,0.3317857142857143,0.029906378851996526,-2.3180471831054703,1.5050820112228394,42.362979888916016,-0.07569461398654515,-0.08509241739908854
4878,0.49689311493055555,0.2789063262939453,88.85111236572266,93.31095886230469,-5.8120880126953125,89.28073120117188,0.02248136732313368,0.037333333333333336,0.3317857142857143,0.02319268120659722,-2.0214239531250016,-0.02197326953125156,42.362979888916016,-0.04955384996202257,-0.11214243570963542
4879,0.39923686493055555,0.239062557220459,84.06393432617188,84.77996826171875,-4.932395935058594,87.39859008789062,0.025663714938693575,0.033,0.33214285714285713,0.015533023410373263,-2.7465006285400406,-2.4279066496582047,42.362979888916016,-0.0079559326171875,-0.08145540025499132
4880,0.45392436493055555,0.25898443222045897,85.65966796875,86.86668395996094,-7.182777404785156,88.72836303710938,-0.009796820746527778,0.030666666666666665,0.33285714285714285,0.016448550754123263,-1.8786074095459,-2.801430361816408,42.275089263916016,-0.013411288791232639,-0.12123489379882812
4881,0.43829936493055555,0.29882820129394533,83.94119262695312,84.49356079101562,-6.057586669921875,90.2218017578125,-0.020480431450737847,0.025333333333333333,0.3325,0.018859354654947917,-2.153256075927736,-1.4281813078613297,42.01142120361328,-0.006137424045138889,-0.1253265380859375
4882,0.43829936493055555,0.29882820129394533,87.6031723022461,88.81019592285156,-6.548576354980469,89.52622985839844,-0.006159803602430555,0.02033333333333333,0.33214285714285713,0.019408671061197917,-2.482836382934572,0.06591600179672241,42.01142120361328,-0.013411373562282987,-0.12305340237087674
4883,0.45001811493055555,0.25898443222045897,92.30851745605469,92.84042358398438,-4.830104827880859,89.32164001464844,0.004296493530273437,0.015333333333333332,0.3314285714285714,0.014922671847873263,-2.801430361816408,1.8017040491104126,42.01142120361328,-0.0059100680881076385,-0.10168605380588108
4884,0.40704936493055555,0.17929691314697266,88.36012268066406,88.89202880859375,-5.239265441894531,88.09416198730469,0.023617935180664063,0.014,0.33071428571428574,0.006103346082899305,-1.7248026304931656,1.6039559841156006,29.794710159301758,-0.0059100680881076385,-0.09259363810221354
4885,0.37189311493055555,0.17929691314697266,80.91340637207031,77.537841796875,-5.259723663330078,86.90760040283203,0.007478841145833333,0.011,0.3292857142857143,0.005187903510199653,-0.5602861815185562,-0.2636648588867203,24.69709014892578,0.03750627305772569,-0.07963693406846788
4886,0.40314311493055555,0.219140682220459,86.6007308959961,87.93049621582031,-3.2343826293945312,88.31919860839844,-0.030709415011935765,0.007333333333333333,0.32392857142857145,0.009978993733723959,-0.48338379199218906,0.4064820110797882,24.69709014892578,-0.014775170220269097,-0.07281756930881077
4887,0.49689311493055555,0.17929691314697266,84.98455047607422,87.93049621582031,-3.684459686279297,86.27340698242188,-0.00775099860297309,0.005,0.32071428571428573,0.008514149983723959,0.29662200808525085,0.6262019872665405,24.69709014892578,-0.03273273044162327,-0.05508740743001302
4888,0.38751811493055555,0.15937503814697265,84.88226318359375,86.559814453125,-1.5568275451660156,87.43951416015625,0.002705298529730903,0.0023333333333333335,0.31464285714285717,0.004516516791449653,0.9118380546569824,0.6921180486679077,24.69709014892578,-0.018639458550347224,-0.044403796725802955
4889,0.46954936493055555,0.15937503814697265,83.42974090576172,77.04684448242188,-0.718048095703125,83.47065734863281,-0.050485483805338544,0.0013333333333333333,0.31,0.005462476942274305,1.647900104522705,0.2197200059890747,24.69709014892578,0.0709210713704427,0.009014383951822916
4890,0.45001811493055555,0.15937503814697265,82.07951354980469,90.1195068359375,-2.1910247802734375,86.92805480957031,-0.0477577633327908,-0.0013333333333333333,0.30428571428571427,0.003997717963324653,2.58171010017395,0.6701459884643555,24.69709014892578,-0.08933325873480903,-0.04576755099826389
4891,0.5203306149305555,0.15937503814697265,82.79554748535156,78.74485778808594,3.1485137939453125,80.74974060058594,-0.06685189141167534,-0.0006666666666666666,0.3,0.0036009894476996527,2.526780128479004,0.48338401317596436,24.69709014892578,0.04500766330295139,0.08220859103732639
4892,0.46173686493055555,0.15937503814697265,85.86424255371094,89.34210205078125,1.7982864379882812,81.05661010742188,-0.07412584092881945,-0.0006666666666666666,0.295,0.0036315070258246527,3.7132680416107178,1.6149420738220215,24.69709014892578,-0.03864288330078125,0.06379640367296006
4893,0.44611186493055555,0.1195312786102295,83.67523193359375,78.31524658203125,2.3711090087890625,79.9518814086914,-0.06230566236707899,0.0,0.2910714285714286,-0.0,4.196651935577393,0.8349360227584839,24.69709014892578,0.05955539279513889,0.08243586222330729
