,WD,WS,AIL_1,AIL_2,ELEV_1,ELEV_2,RUDD,ALT,GS,TH,PTCH,ROLL,PLA_1,AIL,ELEV
6581,-0.798792803249783,0.03984375953674316,86.31431579589844,80.0337142944336,-4.461860656738281,92.10392761230469,-0.0009316762288411458,0.7866666666666666,0.5096428571428572,-0.0008239534166124132,1.8566340208053589,-2.3839632445068375,47.72426986694336,0.06978446112738715,-0.12850875854492189
6582,-0.826136553249783,0.03984375953674316,86.94851684570312,80.81111145019531,-4.461860656738281,92.02210235595703,-0.0007043626573350694,0.7866666666666666,0.5096428571428572,-0.0022582372029622396,1.8676199913024902,-3.0650946074218766,47.72426986694336,0.06819339328342014,-0.12759958902994792
6583,-0.841761553249783,0.01992187976837158,86.68256378173828,78.17203521728516,-4.461860656738281,92.10392761230469,-0.0043413374159071184,0.7863333333333333,0.5096428571428572,-0.004272333780924479,1.9884660243988037,-4.625107424804689,47.72426986694336,0.09456142849392361,-0.12850875854492189
6584,-0.943324053249783,0.01992187976837158,86.15065002441406,78.60165405273438,-4.482318878173828,92.1243896484375,-0.0018409305148654514,0.7866666666666666,0.5092857142857142,-0.006500053405761719,2.04339599609375,-4.4273592406005875,47.72426986694336,0.08387773301866319,-0.1289634280734592
6585,-0.943324053249783,0.03984375953674316,86.23248291015625,77.06730651855469,-4.461860656738281,92.02210235595703,-2.242194281684028e-05,0.7863333333333333,0.5089285714285714,-0.009338103400336372,1.9994521141052246,-3.548477786132814,47.72426986694336,0.10183529324001736,-0.12759958902994792
6586,-0.896449053249783,0.01992187976837158,85.455078125,78.3970718383789,-4.441402435302734,92.06301879882812,0.003387239244249132,0.7863333333333333,0.5089285714285714,-0.01168789333767361,2.04339599609375,-2.0324102812500016,47.72426986694336,0.07842229207356771,-0.127826902601454
6587,-0.892542803249783,0.03984375953674316,85.57783508300781,79.31768798828125,-4.4209442138671875,92.00164794921875,0.0017960866292317708,0.7853333333333333,0.5082142857142857,-0.013183201683892145,2.120298147201538,-1.0986010008544937,47.72426986694336,0.06955718994140625,-0.12691769070095485
6588,-0.900355303249783,0.01992187976837158,85.68012237548828,79.21539306640625,-4.400489807128906,92.00164794921875,-0.003204769558376736,0.7856666666666666,0.5082142857142857,-0.013793542650010851,2.1752281188964844,-0.9338098936767594,47.72426986694336,0.07183032565646702,-0.12669041951497395
6589,-0.939417803249783,0.01992187976837158,41.900001525878906,77.92654418945312,-4.482318878173828,92.0834732055664,-0.0054779052734375,0.786,0.5082142857142857,-0.014190249972873263,2.285088062286377,-0.845923083374025,47.72426986694336,-0.400294918484158,-0.12850880093044706
6590,-0.943324053249783,0.01992187976837158,85.61874389648438,77.78333282470703,-4.339115142822266,91.94026947021484,-0.003204769558376736,0.7853333333333333,0.5075,-0.01480059093899197,2.142270088195801,0.07690200209617615,47.72426986694336,0.08706012301974826,-0.12532649570041232
6591,-0.923792803249783,0.01992187976837158,41.900001525878906,78.3970718383789,-4.461860656738281,91.96072387695312,-0.0007043626573350694,0.7853333333333333,0.5071428571428571,-0.015044720967610677,2.120298147201538,1.5270540714263916,47.72426986694336,-0.4055230034722222,-0.1269176059299045
6592,-0.892542803249783,0.03984375953674316,85.72103881835938,78.8880615234375,-4.8914794921875,92.30851745605469,-0.0002497355143229167,0.7853333333333333,0.5067857142857143,-0.01467852062649197,2.1752281188964844,2.6476261615753174,47.72426986694336,0.07592196994357639,-0.1355555216471354
6593,-0.904261553249783,0.03984375953674316,85.70057678222656,79.56317901611328,-4.543693542480469,92.34942626953125,-0.0009316762288411458,0.785,0.5064285714285715,-0.013366307152642145,1.581984043121338,2.999178171157837,47.72426986694336,0.0681933085123698,-0.13214577568901908
6594,-0.931605303249783,0.03984375953674316,85.68012237548828,79.4813461303711,-4.11407470703125,92.0834732055664,-0.003659396701388889,0.785,0.5064285714285715,-0.01156582302517361,1.0436700582504272,2.911290168762207,47.72426986694336,0.0688752916124132,-0.12441719902886285
6595,-0.951136553249783,0.03984375953674316,85.68012237548828,79.4404296875,-4.011787414550781,92.0834732055664,-0.002750142415364583,0.783,0.5071428571428571,-0.009948433770073786,1.0436700582504272,2.8783321380615234,47.72426986694336,0.06932991875542535,-0.12328067355685764
6596,-0.955042803249783,0.03984375953674316,85.70057678222656,79.46089172363281,-3.9504127502441406,92.04255676269531,-0.002068201700846354,0.7813333333333333,0.5078571428571429,-0.008453125423855252,1.0876140594482422,2.7794580459594727,47.72426986694336,0.069329833984375,-0.12214410569932725
6597,-0.982386553249783,0.03984375953674316,85.68012237548828,79.46089172363281,-4.032245635986328,92.1243896484375,-0.002522828843858507,0.7793333333333333,0.5082142857142857,-0.006866253746880426,1.021697998046875,2.66959810256958,47.72426986694336,0.0691025627983941,-0.12396261427137586
6598,-0.990199053249783,0.03984375953674316,41.900001525878906,79.4404296875,-4.1959075927734375,92.1653060913086,-0.002750142415364583,0.778,0.5092857142857142,-0.005554040273030599,0.8569080233573914,2.6366400718688965,47.72426986694336,-0.4171158684624566,-0.12623570760091146
6599,-0.974574053249783,0.03984375953674316,85.63920593261719,79.3995132446289,-4.5846099853515625,92.41080474853516,-0.002522828843858507,0.7753333333333333,0.51,-0.004424921671549479,0.5712720155715942,2.6366400718688965,47.72426986694336,0.06932991875542535,-0.13328238593207464
6600,-0.978480303249783,0.03984375953674316,85.65966796875,78.17203521728516,-4.502777099609375,92.41080474853516,-0.0018409305148654514,0.7726666666666666,0.5107142857142857,-0.0032347679138183595,0.032958000898361206,3.054108142852783,47.72426986694336,0.08319591946072048,-0.13237313164605036
6601,-0.962855303249783,0.03984375953674316,85.65966796875,78.45845031738281,-4.154991149902344,92.0834732055664,0.0008868323432074653,0.7703333333333333,0.5114285714285715,-0.0018310017055935329,-0.4394403868408219,4.053833961486816,47.72426986694336,0.08001352945963541,-0.124871826171875
6602,-0.974574053249783,0.03984375953674316,85.63920593261719,78.540283203125,-4.502777099609375,92.2266845703125,0.00225067138671875,0.7666666666666667,0.5121428571428571,0.0004577424791124132,-0.2856375151367203,4.976658344268799,47.72426986694336,0.07887691921657985,-0.13032735188802083
6603,-0.994105303249783,0.03984375953674316,85.88470458984375,79.66546630859375,-4.850563049316406,92.55400848388672,0.0015687730577256945,0.7623333333333333,0.5125,0.0035399330986870658,-0.2416922026367203,5.767650127410889,47.72426986694336,0.06910264756944444,-0.13782857259114584
6604,0.966832196750217,0.03984375953674316,86.0688247680664,80.01325988769531,-5.464302062988281,93.29049682617188,0.0006595187717013889,0.7586666666666667,0.5121428571428571,0.007262961069742838,-0.7140909605712906,5.811594009399414,47.72426986694336,0.06728405422634548,-0.1528310987684462
6605,0.978550946750217,0.05976563930511475,87.95095825195312,81.62944030761719,-4.952854156494141,92.79949951171875,0.0006595187717013889,0.754,0.5110714285714286,0.01000945832994249,-1.7687460356445328,5.1634202003479,47.72426986694336,0.0702390882703993,-0.1416928185356988
6606,0.955113446750217,0.05976563930511475,87.15309143066406,82.0999755859375,-6.078044891357422,93.24958038330078,-0.00297745598687066,0.75,0.5103571428571428,0.012908543480767145,-1.6479002409667984,2.823402166366577,47.72426986694336,0.056145731608072916,-0.15919583638509113
6607,0.876988446750217,0.05976563930511475,87.03034973144531,78.96989440917969,-6.323539733886719,93.98606872558594,-0.007978312174479167,0.7463333333333333,0.5096428571428572,0.01534987555609809,-1.9555078917236344,0.5053560137748718,47.72426986694336,0.08956061469184028,-0.1701067606608073
6608,0.837925946750217,0.07968751907348633,87.05081176757812,80.13600158691406,-6.569034576416016,94.1292724609375,-0.0059324900309244795,0.7436666666666667,0.5075,0.016753641764322917,-2.7135435515136734,0.5273280143737793,47.72426986694336,0.07683122422960069,-0.1744256337483724
6609,0.841832196750217,0.07968751907348633,87.05081176757812,80.29966735839844,-7.571479797363281,94.70210266113281,-0.0022955152723524307,0.7416666666666667,0.5060714285714286,0.016723124186197917,-2.9881922178955094,0.4394400119781494,47.72426986694336,0.07501271565755209,-0.19192869398328993
6610,0.857457196750217,0.07968751907348633,87.05081176757812,80.19737243652344,-7.5305633544921875,95.04988098144531,-0.0054779052734375,0.7383333333333333,0.5039285714285714,0.016845194498697917,-3.7462259703369156,0.17577600479125977,47.72426986694336,0.07614932590060763,-0.19533827039930557
6611,0.861363446750217,0.09960939407348633,87.05081176757812,80.07463073730469,-6.67132568359375,94.47706604003906,-0.0054779052734375,0.7353333333333333,0.5021428571428571,0.016845194498697917,-4.734966891357423,-0.15380539233398594,47.72426986694336,0.07751312255859374,-0.17942657470703124
6612,0.849644696750217,0.09960939407348633,87.15309143066406,80.29966735839844,-6.937278747558594,93.7201156616211,-0.0034320831298828127,0.7306666666666667,0.5017857142857143,0.016662089029947917,-4.33947052294922,-0.5053564482421891,47.72426986694336,0.07614915635850694,-0.17397104899088542
6613,0.8183947245279948,0.09960939407348633,87.39859008789062,82.24317932128906,-6.998653411865234,94.55889129638672,-0.003886710272894965,0.725,0.5010714285714286,0.016784159342447917,-3.4715773039550797,-1.4721247130126969,47.72426986694336,0.057282341851128474,-0.18397271898057727
6614,0.7832384745279948,0.09960939407348633,87.31675720214844,79.87004852294922,-6.957736968994141,94.59980773925781,-0.005705218844943577,0.721,0.5,0.016814676920572917,-4.196652072021486,-3.4825636320800797,47.72426986694336,0.08274120754665798,-0.18397271898057727
6615,0.7324572245279948,0.1195312786102295,87.31675720214844,79.4813461303711,-6.875904083251953,94.41568756103516,-0.003886710272894965,0.716,0.5,0.016234864128960504,-4.811869280883791,-3.6143938475341812,47.72426986694336,0.08706012301974826,-0.18101768493652343
6616,0.7598009745279948,0.1195312786102295,87.27584838867188,79.17447662353516,-6.8963623046875,94.08836364746094,0.004523807101779514,0.711,0.49964285714285717,0.013457849290635851,-4.910742419311525,-3.0211512022705094,47.72426986694336,0.09001524183485243,-0.17760806613498265
6617,0.7558947245279948,0.09960939407348633,87.27584838867188,79.15402221679688,-6.916820526123047,94.21110534667969,0.0020233578152126738,0.705,0.49964285714285717,0.01113857693142361,-4.559191363403322,-2.4498793059082047,47.72426986694336,0.09024251302083333,-0.17919917636447483
6618,0.7168322245279948,0.1195312786102295,87.27584838867188,79.15402221679688,-6.957736968994141,94.17019653320312,0.0020233578152126738,0.699,0.49964285714285717,0.010894446902804904,-4.482288973876955,-1.7467752867431656,47.72426986694336,0.09024251302083333,-0.17919926113552517
6619,0.7129259745279948,0.1195312786102295,87.33721923828125,80.68836975097656,-7.510105133056641,94.74301147460938,0.006796900431315104,0.6943333333333334,0.49964285714285717,0.01025359895494249,-4.4163729124755875,-0.5602861815185562,47.72426986694336,0.07387610541449653,-0.19170129564073352
6620,0.7207384745279948,0.09960939407348633,87.29630279541016,79.9927978515625,-7.080486297607422,94.41568756103516,0.003841866387261285,0.689,0.4992857142857143,0.009307575225830079,-5.042574542114259,0.10986000299453735,47.72426986694336,0.08115005493164062,-0.1832908206515842
6621,0.7402697245279948,0.09960939407348633,87.35768127441406,80.91340637207031,-7.060028076171875,94.08836364746094,0.0065695868598090275,0.6833333333333333,0.4992857142857143,0.008636209699842665,-5.130463259765627,0.45042601227760315,47.72426986694336,0.07160305447048611,-0.17942657470703124
6622,0.7207384745279948,0.07968751907348633,87.35768127441406,81.11798858642578,-7.3668975830078125,94.62026977539062,0.0065695868598090275,0.6766666666666666,0.49964285714285717,0.008331044514973959,-4.767923968383791,-0.2307058745117203,47.72426986694336,0.06932991875542535,-0.18874630398220485
6623,0.6894884745279948,0.09960939407348633,87.29630279541016,80.05416870117188,-7.080486297607422,94.37477111816406,0.0036145528157552082,0.6713333333333333,0.4992857142857143,0.008941374884711372,-5.196379321166994,-1.4391657286376969,47.72426986694336,0.08046815660264757,-0.18283619350857205
6624,0.6660509745279948,0.09960939407348633,87.29630279541016,79.93142700195312,-7.060028076171875,94.25202178955078,0.002705298529730903,0.666,0.49964285714285717,0.008605692121717665,-5.394127505371095,-1.7467752867431656,47.72426986694336,0.08183195326063368,-0.18124499850802953
6625,0.6660509745279948,0.07968751907348633,87.29630279541016,79.60409545898438,-6.957736968994141,93.7201156616211,0.009751976860894098,0.6593333333333333,0.49964285714285717,0.006713665856255426,-5.119476931640627,-1.7577597075195328,47.72426986694336,0.0854689704047309,-0.1741983625623915
6626,0.5996447245279948,0.07968751907348633,87.29630279541016,79.62455749511719,-6.998653411865234,93.94515228271484,0.008842722574869791,0.653,0.5,0.005431959364149305,-4.295527117797853,-1.7248026304931656,47.72426986694336,0.08524161444769965,-0.1771533966064453
6627,0.6308947245279948,0.07968751907348633,87.29630279541016,79.50180053710938,-7.039569854736328,93.84286499023438,0.01247969733344184,0.6476666666666666,0.5,0.004638534122043186,-3.8011576109619156,-1.2304331236572281,47.72426986694336,0.08660558064778646,-0.17647149827745226
6628,0.5683947245279948,0.07968751907348633,87.1121826171875,78.84715270996094,-8.062469482421875,95.07034301757812,0.011797756618923612,0.6426666666666667,0.49892857142857144,0.0034178627861870658,-3.592423098632814,-0.5273291044921891,47.72426986694336,0.0918336656358507,-0.20147569444444444
6629,0.5801134745279948,0.07968751907348633,87.21446990966797,79.46089172363281,-7.9192657470703125,94.96804809570312,0.013616265190972223,0.6383333333333333,0.49714285714285716,0.0035094155205620658,-4.866799014160158,0.6481740474700928,47.72426986694336,0.08615086873372396,-0.19874793158637152
6630,0.6465197245279948,0.05976563930511475,87.23492431640625,79.76776123046875,-8.021553039550781,94.98851013183594,0.029073418511284723,0.6363333333333333,0.4953571428571429,0.0025633917914496527,-5.734692233154298,1.7577600479125977,47.72426986694336,0.08296847873263889,-0.20011181301540798
6631,0.7441759745279948,0.05976563930511475,87.23492431640625,79.9518814086914,-8.471630096435547,95.37721252441406,0.05089526706271701,0.6323333333333333,0.49392857142857144,0.0022582266065809464,-5.976383822509767,1.768746018409729,47.72426986694336,0.08092269897460938,-0.20943158467610676
6632,0.7285509745279948,0.07968751907348633,87.25538635253906,79.93142700195312,-8.533004760742188,95.52041625976562,0.03930240207248264,0.629,0.49178571428571427,0.0037535455491807725,-6.4597689085693375,0.9557820558547974,47.72426986694336,0.08137732611762152,-0.21170467800564235
6633,0.6777697245279948,0.09960939407348633,87.25538635253906,79.84959411621094,-8.492088317871094,95.56134033203125,0.030664571126302085,0.626,0.48892857142857143,0.006530560387505426,-6.910195010253908,0.0,47.72426986694336,0.08228658040364584,-0.2117047627766927
6634,0.7012072245279948,0.09960939407348633,87.25538635253906,79.76776123046875,-8.410255432128906,95.45904541015625,0.030437257554796007,0.6226666666666667,0.4860714285714286,0.006042300330268012,-6.954138415405275,0.07690200209617615,47.72426986694336,0.08319583468967014,-0.20965889824761286
6635,0.6387072245279948,0.07968751907348633,87.25538635253906,79.76776123046875,-8.307964324951172,95.47950744628906,0.012934324476453993,0.6173333333333333,0.48392857142857143,0.005889712439643012,-6.954138415405275,0.14281800389289856,47.72426986694336,0.08319583468967014,-0.20874968634711372
6636,0.6660509745279948,0.05976563930511475,87.23492431640625,79.68592834472656,-8.22613525390625,95.45904541015625,0.019753646850585938,0.6126666666666667,0.48142857142857143,0.004089228312174479,-7.074984210083009,0.6591600179672241,47.72426986694336,0.08387773301866319,-0.20761311848958333
6637,0.6973009745279948,0.05976563930511475,87.23492431640625,79.66546630859375,-8.22613525390625,95.47950744628906,0.01952633327907986,0.6073333333333333,0.48,0.0035399330986870658,-7.140900271484377,1.2853620052337646,47.72426986694336,0.08410508897569445,-0.20784047444661458
6638,0.6582384745279948,0.05976563930511475,87.27584838867188,80.9543228149414,-8.246593475341797,95.47950744628906,0.017025926378038195,0.6026666666666667,0.47785714285714287,0.004028193155924479,-7.360621111938478,2.0763540267944336,47.72426986694336,0.07023917304144965,-0.20806778801812065
6639,0.3223009745279948,0.03984375953674316,87.74638366699219,81.52714538574219,-8.103385925292969,95.54087829589844,0.018389765421549478,0.5986666666666667,0.4767857142857143,0.004699558681911893,-7.712172167846681,1.6698720455169678,47.72426986694336,0.06910264756944444,-0.2071584913465712
6640,0.3066759745279948,0.01992187976837158,87.35768127441406,81.0361557006836,-8.042011260986328,95.33629608154297,0.04453057183159722,0.593,0.4742857142857143,0.003997675577799479,-7.931893008300783,0.4723980128765106,47.72426986694336,0.07023917304144965,-0.20420341491699218
6641,0.06058222452799479,0.03984375953674316,87.33721923828125,80.44287109375,-8.185218811035156,95.54087829589844,0.03384691874186198,0.587,0.4732142857142857,0.0019225438435872396,-7.909920352050783,-1.4062086516113297,47.72426986694336,0.07660386827256944,-0.20806774563259547
6642,0.2480822245279948,0.05976563930511475,87.29630279541016,80.05416870117188,-8.001094818115234,95.58179473876953,-0.0050232781304253475,0.5816666666666667,0.4710714285714286,0.0038450982835557725,-8.195557253906252,-3.0211512022705094,47.72426986694336,0.08046815660264757,-0.20647655063205295
6643,0.1973009745279948,0.03984375953674316,87.09172058105469,79.87004852294922,-7.878349304199219,95.43858337402344,0.02202674018012153,0.575,0.47,0.0001525772942437066,-8.151611941406252,-2.4279066496582047,47.72426986694336,0.08024080064561633,-0.20352147420247396
6644,0.1933947245279948,0.05976563930511475,86.25294494628906,77.84471130371094,-7.551021575927734,95.21354675292969,-0.0009316762288411458,0.5683333333333334,0.4689285714285714,-0.0010375658671061198,-8.041752474853517,-1.7357889586181656,47.72426986694336,0.09342481825086806,-0.19738409254286024
6645,0.2832384745279948,0.03984375953674316,86.27340698242188,78.43798828125,-7.735141754150391,95.2340087890625,0.009751976860894098,0.5616666666666666,0.4685714285714286,-0.0017699665493435329,-7.646256106445314,0.4064820110797882,47.72426986694336,0.08706020779079861,-0.199657228257921
6646,-0.248011553249783,0.01992187976837158,86.37569427490234,78.49935913085938,-7.551021575927734,95.09080505371094,0.021572113037109375,0.557,0.46714285714285714,-0.006286440955268012,-7.5034395628662125,2.197200059890747,47.72426986694336,0.08751483493381076,-0.19602029588487413
6647,-0.189417803249783,0.01992187976837158,87.43951416015625,81.58851623535156,-7.816974639892578,95.27491760253906,0.0004322052001953125,0.55,0.4660714285714286,-0.004638534122043186,-7.173859255859377,2.7355141639709473,47.72426986694336,0.06501108805338542,-0.20102102491590712
6648,-0.40426155324978297,0.01992187976837158,87.05081176757812,79.84959411621094,-7.735141754150391,95.37721252441406,-0.0043413374159071184,0.5443333333333333,0.4642857142857143,-0.0038451088799370658,-7.162872927734377,0.9997260570526123,47.72426986694336,0.08001352945963541,-0.20124838087293836
6649,0.869175946750217,0.0,87.05081176757812,80.01325988769531,-7.551021575927734,95.29537963867188,-0.003204769558376736,0.5403333333333333,0.4635714285714286,-0.0011596361796061198,-7.272732394287111,1.1974740028381348,47.72426986694336,0.0781950208875868,-0.19829334682888455
6650,-0.04098027547200521,0.0,87.13264465332031,81.11798858642578,-7.612392425537109,95.29537963867188,0.004296493530273437,0.535,0.4625,-0.0007324006822374132,-7.415550845214845,1.9884660243988037,47.72426986694336,0.06682951185438368,-0.1989752451578776
6651,-0.01754277547200521,0.03984375953674316,87.13264465332031,81.15890502929688,-7.5305633544921875,95.37721252441406,0.0015687730577256945,0.5296666666666666,0.4610714285714286,0.0003356827629937066,-7.635271685668947,1.3732500076293945,47.72426986694336,0.06637488471137153,-0.19897528754340277
6652,-0.41207405324978297,0.0,87.05081176757812,80.85203552246094,-7.387355804443359,95.1930923461914,0.009524663289388021,0.5243333333333333,0.46,-0.0004272354973687066,-7.591326373168947,0.1867620050907135,47.72426986694336,0.0688752916124132,-0.19533831278483074
6653,-0.30269905324978297,0.01992187976837158,87.03034973144531,80.32012939453125,-7.264606475830078,95.27491760253906,-0.001613616943359375,0.517,0.4589285714285714,-0.0014342837863498264,-7.4594942503662125,-1.4501520567626969,47.72426986694336,0.07455800374348959,-0.19488360087076823
6654,0.03323847452799479,0.03984375953674316,86.96897888183594,79.23585510253906,-7.182777404785156,94.90667724609375,-0.01070603264702691,0.5113333333333333,0.45821428571428574,-0.0005187882317437066,-7.250761645385744,-2.241144793579103,47.72426986694336,0.08592359754774305,-0.18988282945421006
6655,0.04495722452799479,0.05976563930511475,86.17111206054688,77.86516571044922,-7.44873046875,94.82484436035156,-0.0075236850314670135,0.5053333333333333,0.4567857142857143,-0.0017089419894748264,-6.712446826049806,-1.7907186918945328,47.72426986694336,0.09228829277886284,-0.1919286092122396
6656,0.03323847452799479,0.05976563930511475,86.08927917480469,77.70149993896484,-7.837432861328125,95.56134033203125,0.0002048916286892361,0.5006666666666667,0.45571428571428574,-0.0031737327575683595,-6.4597689085693375,-0.2526785307617203,47.72426986694336,0.09319754706488716,-0.20443081325954862
6657,-0.02144902547200521,0.05976563930511475,86.6007308959961,78.17203521728516,-7.5305633544921875,95.47950744628906,0.009070036146375868,0.496,0.4539285714285714,-0.004302851359049479,-6.910195010253908,1.0766279697418213,47.72426986694336,0.0936521742078993,-0.20011189778645833
6658,-0.06832402547200521,0.07968751907348633,86.92805480957031,80.50424194335938,-7.407814025878906,95.31584167480469,0.011797756618923612,0.491,0.4521428571428571,-0.004577509562174479,-7.294705050537111,2.372976064682007,47.72426986694336,0.07137569851345486,-0.19692950778537327
6659,-0.04098027547200521,0.07968751907348633,86.58027648925781,80.545166015625,-7.223690032958984,95.27491760253906,-0.01661614312065972,0.486,0.45107142857142857,-0.0025328848097059464,-7.338648455688478,1.8676199913024902,47.72426986694336,0.06705678304036458,-0.19442897372775608
6660,-0.03316777547200521,0.05976563930511475,86.62118530273438,80.64745330810547,-7.223690032958984,95.21354675292969,-0.009114880032009548,0.48,0.45,-0.0013122240702311198,-7.020054476806642,1.5270540714263916,47.72426986694336,0.06637479994032118,-0.193747075398763
6661,-0.11519902547200521,0.05976563930511475,86.76439666748047,80.70883178710938,-7.121402740478516,95.17263793945312,0.0008868323432074653,0.47533333333333333,0.4492857142857143,-0.0025634023878309464,-6.965124743530275,1.2743760347366333,47.72426986694336,0.06728405422634548,-0.192156007554796
6662,-0.189417803249783,0.07968751907348633,86.559814453125,80.38150024414062,-7.223690032958984,95.2340087890625,0.004523807101779514,0.47,0.44785714285714284,-0.0037535561455620658,-6.789349215576173,0.6921180486679077,47.72426986694336,0.06864793565538195,-0.19397443135579426
6663,-0.169886553249783,0.07968751907348633,86.559814453125,80.32012939453125,-7.325981140136719,95.37721252441406,-0.005250591701931423,0.4653333333333333,0.44642857142857145,-0.0033263206481933595,-6.690474169799806,0.09887400269508362,47.72426986694336,0.069329833984375,-0.19670215182834203
6664,-0.08394902547200521,0.05976563930511475,86.559814453125,80.77020263671875,-7.305522918701172,95.33629608154297,-0.008887566460503472,0.46066666666666667,0.4446428571428571,-0.0013122240702311198,-6.767376559326173,-0.6262022429199234,47.72426986694336,0.06432902018229167,-0.19602021111382378
6665,-0.09957402547200521,0.01992187976837158,86.5188980102539,79.11309814453125,-7.264606475830078,95.35675048828125,0.0006595187717013889,0.45566666666666666,0.4442857142857143,-0.0014342837863498264,-6.954138415405275,-1.120571749755861,47.72426986694336,0.08228666517469618,-0.19579285515679254
6666,-0.04098027547200521,0.01992187976837158,86.49844360351562,79.27676391601562,-7.182777404785156,95.1930923461914,-0.00843293931749132,0.45066666666666666,0.4432142857142857,-0.0015868716769748264,-7.217802661010744,-0.812964098999025,47.72426986694336,0.08024088541666667,-0.19306521945529515
6667,-0.26754280324978297,0.03984375953674316,86.47798156738281,78.62211608886719,-7.039569854736328,95.09080505371094,0.011797756618923612,0.44533333333333336,0.44285714285714284,-0.005096287197536893,-7.51442398364258,-0.06591667468261875,47.72426986694336,0.08728739420572916,-0.1903374989827474
6668,-0.26363655324978297,0.07968751907348633,86.45751953125,78.64257049560547,-6.855449676513672,94.31340026855469,0.010433875189887153,0.43866666666666665,0.4421428571428571,-0.008331055111355252,-7.382591860839845,1.1315580606460571,47.72426986694336,0.08683276706271702,-0.17965388827853732
6669,-0.31832405324978297,0.1195312786102295,86.559814453125,78.70394134521484,-7.019111633300781,94.35430908203125,0.008388095431857638,0.43233333333333335,0.4421428571428571,-0.01055877473619249,-6.40483917529297,1.768746018409729,47.72426986694336,0.08728747897677952,-0.18192689683702257
6670,-0.25191780324978297,0.09960939407348633,86.86668395996094,81.15890502929688,-6.957736968994141,95.25446319580078,-0.008660252888997395,0.4266666666666667,0.4407142857142857,-0.0070798661973741316,-5.701735156127931,1.581984043121338,47.72426986694336,0.06341976589626735,-0.19124666849772134
6671,-0.240199053249783,0.09960939407348633,86.80531311035156,79.87004852294922,-6.875904083251953,94.86576843261719,0.0002048916286892361,0.42433333333333334,0.43964285714285717,-0.005798170301649305,-6.020329135009767,1.021697998046875,47.72426986694336,0.0770584954155816,-0.1860185835096571
6672,-0.25191780324978297,0.09960939407348633,87.0098876953125,81.15890502929688,-7.039569854736328,94.94759368896484,0.005887646145290798,0.4196666666666667,0.4382142857142857,-0.006439018249511719,-5.745678561279298,0.9447960257530212,47.72426986694336,0.06501091851128472,-0.18874626159667968
6673,-0.25191780324978297,0.09960939407348633,86.80531311035156,80.42241668701172,-6.9781951904296875,95.2340087890625,0.0015687730577256945,0.4146666666666667,0.4367857142857143,-0.006042300330268012,-5.52595962817383,0.13183200359344482,47.72426986694336,0.0709210713704427,-0.19124671088324652
6674,-0.27535530324978297,0.09960939407348633,86.76439666748047,79.66546630859375,-6.834991455078125,94.92713928222656,0.0056603749593098955,0.41133333333333333,0.43464285714285716,-0.006408500671386719,-5.789621966430666,-0.15380539233398594,47.72426986694336,0.07887700398763021,-0.18624589708116318
6675,-0.25973030324978297,0.09960939407348633,86.76439666748047,78.80622863769531,-6.814533233642578,94.88622283935547,0.0002048916286892361,0.4063333333333333,0.43357142857142855,-0.006316958533393012,-5.646805422851564,-0.03295769030761875,47.72426986694336,0.08842408921983506,-0.18556395636664497
6676,-0.26754280324978297,0.07968751907348633,86.74394226074219,79.3995132446289,-6.9781951904296875,95.17263793945312,0.0049784342447916664,0.4033333333333333,0.43214285714285716,-0.005676099989149305,-5.48201431567383,0.373524010181427,47.72426986694336,0.08160476684570313,-0.19056481255425348
6677,-0.201136553249783,0.07968751907348633,86.74394226074219,79.542724609375,-6.834991455078125,95.21354675292969,0.0006595187717013889,0.3993333333333333,0.4307142857142857,-0.0041502740648057725,-5.745678561279298,0.9118380546569824,47.72426986694336,0.08001352945963541,-0.18942820231119792
6678,-0.29488655324978297,0.07968751907348633,86.74394226074219,79.41996765136719,-6.773616790771484,94.82484436035156,0.023617935180664063,0.39566666666666667,0.42892857142857144,-0.005523522694905599,-5.9434267454834,1.5600121021270752,47.72426986694336,0.08137749565972222,-0.1844273461235894
6679,-0.30660530324978297,0.07968751907348633,86.84622192382812,80.74974060058594,-6.691783905029297,94.39523315429688,0.008615409003363715,0.391,0.4282142857142857,-0.004821639590793186,-5.558916705200197,1.4831100702285767,47.72426986694336,0.06773868136935764,-0.17874463399251303
6680,-0.31051155324978297,0.07968751907348633,86.90760040283203,81.46577453613281,-7.121402740478516,95.41812896728516,0.003387239244249132,0.386,0.42714285714285716,-0.0038451088799370658,-4.899756091186525,0.7800060510635376,47.72426986694336,0.060464731852213544,-0.19488368564181857
6681,-0.1620740254720052,0.07968751907348633,86.82576751708984,80.29966735839844,-6.794075012207031,95.27491760253906,-0.00047704908582899306,0.38166666666666665,0.4257142857142857,-0.0014953189425998264,-5.701735156127931,0.26366400718688965,47.72426986694336,0.07251222398546008,-0.18965547349717882
6682,-0.212855303249783,0.05976563930511475,87.41905212402344,82.30455017089844,-6.773616790771484,94.51797485351562,0.004751120673285591,0.37866666666666665,0.42464285714285716,-0.0013122240702311198,-6.251034396240236,0.747048020362854,47.72426986694336,0.05682779947916667,-0.18101768493652343
6683,-0.30660530324978297,0.07968751907348633,87.33721923828125,81.0975341796875,-6.8963623046875,94.94759368896484,0.008842722574869791,0.37333333333333335,0.42428571428571427,-0.0035704506768120658,-5.4160982542724625,0.09887400269508362,47.72426986694336,0.069329833984375,-0.18715506659613715
6684,-0.228480303249783,0.09960939407348633,87.45996856689453,81.01570129394531,-6.9781951904296875,95.11125946044922,0.0065695868598090275,0.36833333333333335,0.4232142857142857,-0.0034483909606933595,-5.317225115844728,-0.8678938322753922,47.72426986694336,0.07160296969943576,-0.18988282945421006
6685,-0.07613652547200521,0.07968751907348633,87.27584838867188,80.0950927734375,-7.019111633300781,95.15217590332031,-0.006159803602430555,0.365,0.42214285714285715,-0.00018310546875,-5.855538027832033,-1.6259294920654312,47.72426986694336,0.07978617350260417,-0.19079208374023438
6686,-0.06441777547200521,0.07968751907348633,87.23492431640625,79.74729919433594,-7.1418609619140625,95.15217590332031,0.003387239244249132,0.361,0.4210714285714286,-0.0011901537577311198,-6.536671298095705,-1.5819841795654312,47.72426986694336,0.08319583468967014,-0.19215596516927083
6687,-0.1386365254720052,0.07968751907348633,87.23492431640625,79.56317901611328,-7.1418609619140625,95.04988098144531,0.018389765421549478,0.3576666666666667,0.42,-0.004455439249674479,-6.800335543701173,-1.175503390380861,47.72426986694336,0.08524161444769965,-0.19101935492621527
6688,-0.1347302754720052,0.07968751907348633,87.19401550292969,79.58363342285156,-7.182777404785156,95.04988098144531,0.0006595187717013889,0.352,0.4185714285714286,-0.005157322353786893,-6.569628375122072,-0.7360617094726578,47.72426986694336,0.08455980088975694,-0.19147398206922744
6689,-0.216761553249783,0.05976563930511475,87.21446990966797,79.542724609375,-7.162319183349609,95.15217590332031,0.010888502332899305,0.3466666666666667,0.4175,-0.007018841637505426,-6.668503420898439,-0.8788801604003922,47.72426986694336,0.08524161444769965,-0.1923832787407769
6690,-0.11129277547200521,0.07968751907348633,87.19401550292969,79.52226257324219,-7.080486297607422,94.7225570678711,0.004296493530273437,0.3426666666666667,0.4160714285714286,-0.005950758192274305,-7.096956866333009,-1.2853628569335953,47.72426986694336,0.08524169921875,-0.18670048183865018
6691,-0.03316777547200521,0.05976563930511475,87.21446990966797,79.4404296875,-7.080486297607422,94.62026977539062,0.004751120673285591,0.33766666666666667,0.4157142857142857,-0.005035252041286893,-6.712446826049806,-1.2084604674072281,47.72426986694336,0.0863782246907552,-0.18556395636664497
6692,-0.02144902547200521,0.05976563930511475,87.19401550292969,79.4404296875,-7.080486297607422,94.59980773925781,0.0056603749593098955,0.33266666666666667,0.415,-0.005676099989149305,-6.174132006713869,-0.21972145373535312,47.72426986694336,0.08615095350477431,-0.18533660040961372
6693,-0.09566777547200521,0.05976563930511475,87.19401550292969,79.76776123046875,-7.080486297607422,94.62026977539062,0.01247969733344184,0.3293333333333333,0.4142857142857143,-0.006713676452636719,-5.987370150634767,1.812690019607544,47.72426986694336,0.08251393636067708,-0.18556395636664497
6694,-0.224574053249783,0.05976563930511475,87.80775451660156,82.69325256347656,-7.060028076171875,94.84530639648438,0.025209130181206598,0.3253333333333333,0.41285714285714287,-0.008422607845730252,-5.723705905029298,2.75748610496521,47.72426986694336,0.05682779947916667,-0.18783704969618056
6695,-0.216761553249783,0.07968751907348633,87.78729248046875,79.9518814086914,-6.998653411865234,94.94759368896484,-2.242194281684028e-05,0.322,0.4117857142857143,-0.008117442660861545,-5.811594622680666,0.9338099956512451,47.72426986694336,0.08706012301974826,-0.18829163445366753
6696,-0.232386553249783,0.07968751907348633,87.74638366699219,79.91096496582031,-6.916820526123047,94.94759368896484,0.006114959716796875,0.31866666666666665,0.40964285714285714,-0.0073240068223741316,-5.899483340332033,-0.21972145373535312,47.72426986694336,0.08706020779079861,-0.18738238016764322
6697,-0.201136553249783,0.03984375953674316,87.54179382324219,79.56317901611328,-6.855449676513672,95.00897216796875,0.003841866387261285,0.31433333333333335,0.4089285714285714,-0.006469535827636719,-6.075258868286134,-1.4062086516113297,47.72426986694336,0.08865127563476563,-0.18738246493869357
6698,-0.1542615254720052,0.07968751907348633,87.6031723022461,79.46089172363281,-6.732700347900391,94.84530639648438,0.01725323994954427,0.31033333333333335,0.40785714285714286,-0.007751242319742838,-6.41582550341797,0.010986000299453735,47.72426986694336,0.09046978420681423,-0.1842000749376085
6699,-0.28707405324978297,0.05976563930511475,87.62362670898438,80.07463073730469,-6.630409240722656,94.681640625,0.012934324476453993,0.307,0.4075,-0.008910867902967665,-6.591601031372072,1.1425440311431885,47.72426986694336,0.08387773301866319,-0.18124499850802953
6700,-0.26754280324978297,0.07968751907348633,87.66455078125,81.4453125,-6.528118133544922,94.88622283935547,0.013388951619466146,0.302,0.4075,-0.009490691290961372,-6.39385284716797,1.4391660690307617,47.72426986694336,0.06910264756944444,-0.18238156636555988
6701,-0.27535530324978297,0.05976563930511475,87.66455078125,81.05661010742188,-6.425830841064453,95.02942657470703,0.0065695868598090275,0.29733333333333334,0.4067857142857143,-0.008147949642605252,-6.657517092773439,0.6042300462722778,47.72426986694336,0.07342156304253472,-0.18283619350857205
6702,-0.1425427754720052,0.07968751907348633,87.66455078125,81.0975341796875,-6.343997955322266,94.88622283935547,0.0040691799587673615,0.2926666666666667,0.4064285714285714,-0.005401452382405599,-7.118929522583009,0.2197200059890747,47.72426986694336,0.07296685112847222,-0.18033578660753039
6703,-0.1386365254720052,0.03984375953674316,87.66455078125,81.4453125,-6.282623291015625,94.70210266113281,0.0040691799587673615,0.2886666666666667,0.4064285714285714,-0.004638534122043186,-7.4924532347412125,0.29662200808525085,47.72426986694336,0.06910264756944444,-0.17760806613498265
6704,-0.1581677754720052,0.03984375953674316,87.6031723022461,79.62455749511719,-6.282623291015625,94.70210266113281,-0.00047704908582899306,0.2836666666666667,0.4067857142857143,-0.005004734463161893,-7.360621111938478,-0.812964098999025,47.72426986694336,0.08865127563476563,-0.17760806613498265
6705,-0.06441777547200521,0.03984375953674316,87.6031723022461,79.58363342285156,-6.262165069580078,94.70210266113281,0.0015687730577256945,0.2796666666666667,0.40714285714285714,-0.0041197564866807725,-7.162872927734377,-0.9228254729003922,47.72426986694336,0.08910598754882812,-0.17738075256347657
6706,-0.06441777547200521,0.05976563930511475,87.62362670898438,79.52226257324219,-6.241706848144531,94.70210266113281,0.013843536376953125,0.274,0.4067857142857143,-0.005370934804280599,-6.778362887451173,-0.21972145373535312,47.72426986694336,0.09001515706380209,-0.17715343899197047
6707,-0.09566777547200521,0.03984375953674316,87.43951416015625,79.46089172363281,-6.221248626708984,94.66117858886719,0.0040691799587673615,0.267,0.4064285714285714,-0.005828687879774305,-6.338923113891603,0.6811320185661316,47.72426986694336,0.08865136040581598,-0.17647141350640191
6708,-0.06051152547200521,0.03984375953674316,87.48042297363281,79.33814239501953,-6.016670227050781,94.6407241821289,0.0006595187717013889,0.2633333333333333,0.4060714285714286,-0.004424921671549479,-6.39385284716797,1.2304320335388184,47.72426986694336,0.09046978420681423,-0.17397104899088542
6709,-0.10348027547200521,0.03984375953674316,87.6031723022461,79.41996765136719,-5.996212005615234,94.17019653320312,0.02429987589518229,0.25733333333333336,0.4057142857142857,-0.004394404093424479,-6.053286212036134,2.2301580905914307,47.72426986694336,0.09092449612087673,-0.1685156504313151
6710,-0.013636525472005208,0.05976563930511475,89.73080444335938,83.90027618408203,-5.9757537841796875,94.19064331054688,-0.002522828843858507,0.252,0.405,-0.0011901537577311198,-5.053560870239259,2.6915700435638428,47.72426986694336,0.06478364732530383,-0.1685155232747396
6711,-0.10738652547200521,0.05976563930511475,87.86912536621094,79.66546630859375,-5.9757537841796875,94.08836364746094,0.02316330803765191,0.24633333333333332,0.40464285714285714,-0.0013732592264811198,-4.504261630126955,1.175502061843872,47.72426986694336,0.09115176730685765,-0.16737908257378473
6712,-0.11129277547200521,0.05976563930511475,88.19645690917969,79.74729919433594,-6.3644561767578125,94.41568756103516,0.014980104234483507,0.24266666666666667,0.4035714285714286,-0.0009460237291124132,-4.800882952758791,1.0766279697418213,47.72426986694336,0.09387953016493056,-0.17533493041992188
6713,-0.1503552754720052,0.07968751907348633,89.83309936523438,83.61386108398438,-6.466747283935547,94.7225570678711,0.0254364013671875,0.241,0.4025,-0.0014037662082248264,-5.273281710693361,2.999178171157837,47.72426986694336,0.06910264756944444,-0.17988115946451824
6714,-0.25191780324978297,0.07968751907348633,87.58271789550781,79.60409545898438,-6.405372619628906,94.74301147460938,0.02089021470811632,0.23866666666666667,0.4010714285714286,-0.0022277196248372396,-5.811594622680666,0.5602860450744629,47.72426986694336,0.08865136040581598,-0.1794264899359809
6715,-0.27926155324978297,0.05976563930511475,87.6031723022461,79.68592834472656,-6.4462890625,94.51797485351562,0.01475279066297743,0.23566666666666666,0.4,-0.0022582372029622396,-5.624832766601564,-1.4391657286376969,47.72426986694336,0.08796937730577258,-0.1773807101779514
6716,-0.1425427754720052,0.07968751907348633,86.19157409667969,77.78333282470703,-6.4462890625,94.59980773925781,0.009979248046875,0.23133333333333334,0.3989285714285714,-0.0016479068332248264,-5.361168520996095,-1.6369139128417984,47.72426986694336,0.0934249030219184,-0.1782899644639757
6717,-0.08394902547200521,0.07968751907348633,86.49844360351562,80.68836975097656,-6.4462890625,94.70210266113281,0.01543473137749566,0.22866666666666666,0.39785714285714285,-0.0010680834452311198,-5.339195864746095,-0.4394403868408219,47.81216049194336,0.06455637613932291,-0.17942657470703124
6718,-0.05660527547200521,0.09960939407348633,86.47798156738281,79.66546630859375,-6.466747283935547,94.62026977539062,0.012252383761935763,0.224,0.3967857142857143,-0.0008849885728624132,-5.4490572386474625,-0.04394401843261875,47.72426986694336,0.07569461398654515,-0.17874463399251303
6719,-0.06051152547200521,0.09960939407348633,86.49844360351562,79.52226257324219,-6.466747283935547,94.59980773925781,0.02861879136827257,0.221,0.3960714285714286,-0.0012817064921061198,-5.51497330004883,0.2856360077857971,47.72426986694336,0.07751312255859374,-0.17851727803548176
6720,-0.02535527547200521,0.09960939407348633,87.25538635253906,80.83157348632812,-6.466747283935547,94.88622283935547,0.01770782470703125,0.21733333333333332,0.395,0.0003051651848687066,-5.591875689575197,1.1425440311431885,47.72426986694336,0.07137569851345486,-0.18169966803656684
6721,-0.04488652547200521,0.1195312786102295,87.27584838867188,81.40440368652344,-6.425830841064453,94.80438995361328,0.03407423231336806,0.21366666666666667,0.3942857142857143,0.0001525772942437066,-5.899483340332033,1.0546560287475586,47.72426986694336,0.06523827446831597,-0.18033578660753039
6722,-0.02144902547200521,0.09960939407348633,86.92805480957031,80.40196228027344,-6.384914398193359,94.579345703125,0.020435587565104166,0.20966666666666667,0.39321428571428574,0.0015868610805935329,-6.218077319213869,-0.20873512561035312,47.72426986694336,0.07251213921440972,-0.17738066779242623
6723,0.04105097452799479,0.09960939407348633,86.92805480957031,80.52470397949219,-6.303081512451172,94.51797485351562,0.024754503038194445,0.20633333333333334,0.39285714285714285,0.0032347573174370658,-6.031315463134767,-0.9008528166503922,47.72426986694336,0.0711483425564236,-0.17578951517740884
6724,0.04886347452799479,0.09960939407348633,86.92805480957031,80.34058380126953,-6.221248626708984,94.51797485351562,0.0377112070719401,0.201,0.3921428571428571,0.0027159796820746527,-5.602860110351564,-0.812964098999025,47.72426986694336,0.07319412231445313,-0.17488026089138456
6725,0.04495722452799479,0.09960939407348633,86.88714599609375,79.70639038085938,-6.1394195556640625,94.51797485351562,0.031801138983832467,0.19633333333333333,0.3914285714285714,0.0016478962368435329,-5.317225115844728,-0.7690206938476578,47.72426986694336,0.07978617350260417,-0.17397104899088542
6726,0.10745722452799479,0.03984375953674316,86.88714599609375,80.07463073730469,-6.078044891357422,94.51797485351562,0.03020994398328993,0.19133333333333333,0.39071428571428574,0.0015563435024685329,-5.383141177246095,-0.4064833098144547,47.72426986694336,0.07569461398654515,-0.17328910827636718
6727,0.2285509745279948,0.01992187976837158,87.93049621582031,80.97477722167969,-5.934837341308594,94.29293823242188,0.02975531684027778,0.18733333333333332,0.39035714285714285,0.0017089313930935329,-5.734692233154298,1.263390064239502,47.72426986694336,0.0772857666015625,-0.16919750637478298
6728,-0.05269902547200521,0.05976563930511475,90.1195068359375,84.28897857666016,-5.873462677001953,94.29293823242188,0.052941046820746525,0.184,0.39071428571428574,-0.00018310546875,-5.9544130736084,2.526780128479004,47.72426986694336,0.06478364732530383,-0.16851556566026477
6729,-0.208949053249783,0.03984375953674316,88.21691131591797,79.70639038085938,-5.853004455566406,94.49752044677734,0.032255766126844616,0.179,0.39071428571428574,-0.000244140625,-5.51497330004883,-0.3515516691894547,47.72426986694336,0.09456134372287327,-0.17056138780381944
6730,-0.01754277547200521,0.03984375953674316,87.50088500976562,79.29722595214844,-5.771175384521484,94.29293823242188,-0.0059324900309244795,0.17433333333333334,0.39107142857142857,0.0007018831041124132,-5.822580950805666,-2.0324102812500016,47.72426986694336,0.09115176730685765,-0.16737904018825955
6731,0.09964472452799479,0.09960939407348633,87.35768127441406,79.3995132446289,-5.7507171630859375,94.27247619628906,-0.0059324900309244795,0.17066666666666666,0.39107142857142857,0.0029906272888183595,-5.866524355957033,-1.8346620970459,47.72426986694336,0.08842408921983506,-0.1669243706597222
6732,0.1348009745279948,0.09960939407348633,87.93049621582031,80.83157348632812,-5.8120880126953125,94.29293823242188,-0.0059324900309244795,0.16733333333333333,0.39107142857142857,0.0030211448669433595,-5.52595962817383,-0.6371885710449234,47.72426986694336,0.07887691921657985,-0.16783362494574652
6733,0.1426134745279948,0.07968751907348633,88.36012268066406,81.5066909790039,-5.832546234130859,94.53843688964844,0.047940233018663195,0.16133333333333333,0.39071428571428574,0.0019225438435872396,-5.174406664916994,0.38451001048088074,47.72426986694336,0.07614924112955729,-0.1707887013753255
6734,0.09183222452799479,0.07968751907348633,88.17599487304688,82.36592102050781,-5.832546234130859,94.59980773925781,0.06203350490993924,0.158,0.39,0.0013732486300998264,-5.624832766601564,1.0546560287475586,47.72426986694336,0.06455637613932291,-0.17147059970431858
6735,-0.03316777547200521,0.03984375953674316,87.95095825195312,79.68592834472656,-5.853004455566406,94.49752044677734,0.031801138983832467,0.15533333333333332,0.39,-0.0014648013644748264,-5.910469668457033,0.7360620498657227,47.72426986694336,0.0918336656358507,-0.17056138780381944
6736,-0.09957402547200521,0.03984375953674316,87.78729248046875,79.97233581542969,-5.853004455566406,94.59980773925781,0.029982630411783853,0.15166666666666667,0.39,-0.0021361668904622396,-6.185118334838869,-0.03295769030761875,47.72426986694336,0.08683285183376736,-0.17169791327582465
6737,0.09964472452799479,0.07968751907348633,87.21446990966797,79.11309814453125,-5.853004455566406,94.47706604003906,0.002932612101236979,0.14733333333333334,0.39,0.0014953083462185329,-6.196104662963869,-0.6591612272949234,47.72426986694336,0.09001524183485243,-0.17033411661783854
6738,0.1738634745279948,0.03984375953674316,87.39859008789062,79.15402221679688,-5.873462677001953,94.37477111816406,0.024754503038194445,0.14333333333333334,0.39,0.0009460131327311198,-6.020329135009767,0.6042300462722778,47.72426986694336,0.09160630967881944,-0.16942481994628905
6739,0.08792597452799479,0.05976563930511475,87.86912536621094,81.75218200683594,-5.8939208984375,94.47706604003906,0.03725657992892795,0.138,0.39035714285714285,0.0010375658671061198,-6.042299883911134,1.6039559841156006,47.72426986694336,0.0679660373263889,-0.17078874376085068
6740,0.12308222452799479,0.05976563930511475,87.88958740234375,80.9952392578125,-5.832546234130859,94.55889129638672,0.025209130181206598,0.13333333333333333,0.39071428571428574,0.0031126976013183595,-6.503712313720705,1.1535300016403198,47.72426986694336,0.07660386827256944,-0.17101597256130643
6741,0.0019884745279947916,0.03984375953674316,89.81263732910156,85.557373046875,-5.955295562744141,94.10881805419922,0.047940233018663195,0.12933333333333333,0.39107142857142857,0.0012816958957248264,-6.558642046997072,2.3400180339813232,47.72426986694336,0.04728071424696181,-0.16737904018825955
6742,-0.33004280324978297,0.05976563930511475,84.90271759033203,79.8905029296875,-5.607509613037109,94.29293823242188,0.08044569227430555,0.12566666666666668,0.3921428571428571,-0.0042113092210557725,-6.866251605102541,-0.6481748991699234,47.284820556640625,0.05569127400716146,-0.16556053161621093
6743,-0.04879277547200521,0.1195312786102295,84.69813537597656,76.4740219116211,-5.239265441894531,93.84286499023438,0.013388951619466146,0.12,0.3921428571428571,-0.0009155061509874132,-6.789349215576173,-3.3617159300537125,47.109039306640625,0.09137903849283854,-0.1564681159125434
6744,0.12308222452799479,0.1195312786102295,86.62118530273438,78.90852355957031,-5.996212005615234,94.19064331054688,0.02680028279622396,0.11366666666666667,0.39285714285714285,0.0032957924736870658,-5.51497330004883,-1.560013430664064,45.43912887573242,0.0856962415907118,-0.16874283684624566
6745,0.005894724527994792,0.09960939407348633,86.31431579589844,80.79066467285156,-5.8120880126953125,94.84530639648438,0.0756721920437283,0.11,0.3921428571428571,-0.0021666844685872396,-5.163420336791994,1.307334065437317,45.43912887573242,0.0613739013671875,-0.17397104899088542
6746,-0.06051152547200521,0.09960939407348633,86.19157409667969,79.78821563720703,-5.402931213378906,93.92469787597656,0.08044569227430555,0.106,0.3914285714285714,-0.0032652854919433595,-5.218350070068361,1.4611380100250244,45.43912887573242,0.07114842732747396,-0.1591958787706163
6747,-0.02535527547200521,0.07968751907348633,88.03279113769531,82.26363372802734,-5.382472991943359,94.2315673828125,0.009297349717881945,0.10333333333333333,0.39035714285714285,-0.0008544709947374132,-4.581162112304689,1.966494083404541,45.43912887573242,0.06410174899631077,-0.16237822638617622
6748,-0.02144902547200521,0.09960939407348633,87.99187469482422,81.71127319335938,-5.914379119873047,94.80438995361328,0.010888502332899305,0.09866666666666667,0.38857142857142857,0.0004882600572374132,-3.6473528319091812,1.2304320335388184,45.43912887573242,0.06978446112738715,-0.17465298970540363
6749,-0.02535527547200521,0.09960939407348633,87.78729248046875,81.42485809326172,-5.055145263671875,94.7225570678711,0.014980104234483507,0.09566666666666666,0.3871428571428571,0.0010375658671061198,-3.7572122984619156,0.13183200359344482,45.43912887573242,0.07069371541341146,-0.16419669257269964
6750,-0.01754277547200521,0.07968751907348633,87.74638366699219,79.76776123046875,-5.382472991943359,93.94515228271484,0.016116672092013888,0.09266666666666666,0.3842857142857143,0.0007629076639811198,-3.548477786132814,-0.4064833098144547,45.43912887573242,0.08865136040581598,-0.15919583638509113
6751,-0.0019177754720052084,0.09960939407348633,88.0123291015625,82.26363372802734,-5.423389434814453,94.579345703125,0.023390621609157985,0.09066666666666667,0.38321428571428573,0.0010985904269748264,-2.790444033691408,0.0,45.43912887573242,0.06387439303927951,-0.16669705708821614
6752,-0.013636525472005208,0.07968751907348633,87.78729248046875,82.05905151367188,-6.159877777099609,95.33629608154297,0.019753646850585938,0.088,0.38035714285714284,0.0004577424791124132,-3.1310106688232437,-1.0216986113281266,45.43912887573242,0.06364712185329861,-0.1832908206515842
6753,0.009800974527994792,0.07968751907348633,87.48042297363281,79.8905029296875,-5.873462677001953,95.07034301757812,0.015662044949001735,0.08566666666666667,0.37857142857142856,0.0001830948723687066,-4.196652072021486,-1.8456484251709,45.26335144042969,0.0843324449327257,-0.1771533966064453
6754,0.02542597452799479,0.07968751907348633,86.19157409667969,78.21295166015625,-5.8120880126953125,94.39523315429688,0.03089188469780816,0.08266666666666667,0.3767857142857143,-0.0009765413072374132,-5.031588213989259,-1.4281813078613297,45.26335144042969,0.08865136040581598,-0.16897023518880208
6755,0.04495722452799479,0.07968751907348633,86.84622192382812,80.66790771484375,-5.832546234130859,94.06790161132812,0.023845248752170138,0.07966666666666666,0.37607142857142856,-0.0012817064921061198,-5.042574542114259,0.14281800389289856,45.26335144042969,0.06864793565538195,-0.16556053161621093
6756,0.013707224527994792,0.07968751907348633,86.98943328857422,79.4404296875,-5.853004455566406,94.37477111816406,0.034301545884874135,0.076,0.37535714285714283,-0.0017089419894748264,-4.31749786669922,0.8349360227584839,45.26335144042969,0.08387781778971354,-0.16919750637478298
6757,0.013707224527994792,0.07968751907348633,87.03034973144531,81.28164672851562,-5.8939208984375,94.45660400390625,0.03566542731391059,0.072,0.37464285714285717,-0.0011901537577311198,-4.119751589843752,1.2963480949401855,45.26335144042969,0.06387447781032986,-0.17056138780381944
6758,0.005894724527994792,0.07968751907348633,86.96897888183594,81.30210876464844,-5.934837341308594,94.59980773925781,0.03793852064344618,0.068,0.3732142857142857,-0.0005187882317437066,-4.053835528442384,1.1095860004425049,45.26335144042969,0.06296522352430556,-0.17260716756184896
6759,0.06839472452799479,0.05976563930511475,87.09172058105469,81.69081115722656,-5.853004455566406,94.21110534667969,0.04157549540201823,0.064,0.3725,0.0014953083462185329,-3.90003074938965,0.6701459884643555,45.26335144042969,0.06001010470920139,-0.16737899780273438
6760,0.07230097452799479,0.07968751907348633,86.72348022460938,78.82669067382812,-5.730258941650391,93.96560668945312,0.034756173027886285,0.059666666666666666,0.3717857142857143,0.0021056493123372396,-3.7462259703369156,0.3954960107803345,45.26335144042969,0.08774210611979166,-0.16328739590115018
6761,0.02933222452799479,0.03984375953674316,86.92805480957031,79.27676391601562,-5.914379119873047,94.10881805419922,0.04134818183051215,0.055,0.37107142857142855,0.0006103303697374132,-3.4715773039550797,1.538040041923523,45.26335144042969,0.08501434326171875,-0.16692441304524738
6762,-0.173792803249783,0.01992187976837158,91.10148620605469,83.98210144042969,-5.914379119873047,94.04743957519531,0.006796900431315104,0.052,0.3707142857142857,0.0002746476067437066,-3.2957998686523453,2.8783321380615234,45.26335144042969,0.07910427517361111,-0.166242429945204
6763,-0.1308240254720052,0.07968751907348633,86.82576751708984,79.70639038085938,-5.464302062988281,93.92469787597656,0.007478841145833333,0.048,0.3703571428571429,0.0001525772942437066,-3.559464114257814,0.4614120125770569,45.26335144042969,0.07910419040256077,-0.15987777709960938
6764,-0.05660527547200521,0.05976563930511475,87.33721923828125,79.9518814086914,-5.505218505859375,93.74057006835938,-0.015706888834635415,0.04466666666666667,0.36964285714285716,0.0023192617628309464,-3.284815447875978,-0.3405672484130875,45.26335144042969,0.08205930921766492,-0.15828653971354167
6765,-0.08004277547200521,0.05976563930511475,87.19401550292969,82.38638305664062,-5.8120880126953125,94.43614196777344,0.0002048916286892361,0.041,0.36892857142857144,0.0014342837863498264,-2.6695982390136734,-0.3625379973144547,45.26335144042969,0.053418138292100695,-0.16942477756076388
6766,-0.1425427754720052,0.05976563930511475,86.559814453125,78.35615539550781,-6.221248626708984,95.00897216796875,0.004751120673285591,0.03833333333333333,0.36678571428571427,-0.0007934358384874132,-2.7684732847900406,-0.5273291044921891,45.26335144042969,0.09115176730685765,-0.18033578660753039
6767,-0.10348027547200521,0.03984375953674316,89.44439697265625,81.48623657226562,-6.262165069580078,94.88622283935547,-0.0018409305148654514,0.034666666666666665,0.365,0.0001830948723687066,-2.823403018066408,0.4614120125770569,45.26335144042969,0.08842400444878472,-0.17942653232150607
6768,-0.04879277547200521,0.03984375953674316,88.64653015136719,81.69081115722656,-6.773616790771484,95.35675048828125,-0.006387117173936632,0.03266666666666666,0.36214285714285716,0.0017699665493435329,-2.493822711059572,-0.834936755249025,45.26335144042969,0.0772857666015625,-0.19033741421169706
6769,0.09573847452799479,0.01992187976837158,86.559814453125,78.68348693847656,-6.303081512451172,95.31584167480469,-0.008660252888997395,0.028,0.3603571428571429,0.0020140965779622396,-2.9991785460205094,-2.4388929777832047,45.26335144042969,0.08751475016276042,-0.18465470208062065
6770,0.10745722452799479,0.01992187976837158,85.96653747558594,77.72195434570312,-5.9757537841796875,94.19064331054688,-0.004795964558919271,0.023333333333333334,0.3582142857142857,0.0001525772942437066,-3.504534380981447,-1.7577597075195328,45.26335144042969,0.09160647922092013,-0.1685155232747396
6771,-0.04098027547200521,0.03984375953674316,85.12775421142578,82.12042999267578,-6.1394195556640625,94.90667724609375,0.019753646850585938,0.02,0.3578571428571429,-0.0025939199659559464,-3.1200243406982437,-0.5163427763671891,44.82389831542969,0.03341471354166667,-0.1782899644639757
6772,0.005894724527994792,0.05976563930511475,89.46485137939453,77.29234313964844,-5.709800720214844,93.576904296875,-0.01252454121907552,0.01633333333333333,0.3557142857142857,-0.0025023672315809464,-2.7355143004150406,0.010986000299453735,42.89031982421875,0.13525009155273438,-0.15874116685655382
6773,-0.03316777547200521,0.05976563930511475,86.6007308959961,78.90852355957031,-4.1959075927734375,92.81996154785156,0.00770615471733941,0.012,0.35428571428571426,-0.0027159902784559464,-1.9994532042236344,1.0876140594482422,39.814170837402344,0.0854689704047309,-0.13350965711805557
6774,-0.09176152547200521,0.07968751907348633,87.562255859375,81.75218200683594,-4.605068206787109,92.98362731933594,0.008615409003363715,0.008333333333333333,0.3507142857142857,-0.0040587213304307725,-1.0986010008544937,1.647900104522705,36.29856872558594,0.06455637613932291,-0.1398743947347005
6775,-0.236292803249783,0.05976563930511475,89.26026916503906,82.71371459960938,-3.9299545288085938,93.576904296875,0.012025070190429688,0.005333333333333333,0.34714285714285714,-0.005340417226155599,-0.4174677305908219,1.7028300762176514,30.146268844604492,0.07273949517144097,-0.13896509806315105
6776,-0.240199053249783,0.07968751907348633,88.72836303710938,82.81600189208984,-3.643543243408203,92.61538696289062,-0.008660252888997395,0.0023333333333333335,0.3414285714285714,-0.005523522694905599,-0.5163427763671891,0.07690200209617615,24.96076011657715,0.06569290161132812,-0.12509922451443142
6777,-0.212855303249783,0.13945316314697265,85.1072998046875,76.84226989746094,-2.4365196228027344,92.04255676269531,0.0049784342447916664,0.0006666666666666666,0.33714285714285713,-0.009368620978461372,-0.2966219359130875,-1.8895918303222672,24.96076011657715,0.0918336656358507,-0.1053230709499783
6778,-0.193324053249783,0.09960939407348633,85.72103881835938,77.435546875,-2.641101837158203,91.89935302734375,-0.004568650987413194,-0.0003333333333333333,0.33035714285714285,-0.008239502376980252,-0.04394401843261875,-1.7907186918945328,24.96076011657715,0.09206102159288194,-0.1060050540500217
6779,-0.02144902547200521,0.09960939407348633,88.44195556640625,82.01814270019531,-1.8636970520019531,91.06057739257812,-0.00775099860297309,-0.0003333333333333333,0.32571428571428573,-0.0024718496534559464,-0.06591667468261875,-0.06591667468261875,24.87286949157715,0.07137569851345486,-0.08804749382866753
6780,0.02542597452799479,0.07968751907348633,86.78485107421875,81.81356048583984,-0.4725532531738281,89.19889831542969,0.008388095431857638,0.0,0.32035714285714284,-0.0,0.41746801137924194,0.05493000149726868,24.87286949157715,0.055236562093098955,-0.05190501742892795
