,WD,WS,AIL_1,AIL_2,ELEV_1,ELEV_2,RUDD,ALT,GS,TH,PTCH,ROLL,PLA_1,AIL,ELEV
6550,-0.5778511047363282,0.01992187976837158,85.84378051757812,78.51982116699219,0.284393310546875,83.26608276367188,0.011115815904405382,0.689,0.6603571428571429,0.03759519618598088,2.274101972579956,-2.922276156494142,25.136539459228516,0.08137732611762152,0.022425672743055555
6551,-0.13253860473632811,0.05976563930511475,86.23248291015625,80.27920532226562,1.061798095703125,83.32745361328125,0.02725490993923611,0.6836666666666666,0.6592857142857143,0.03506232197265623,2.1752281188964844,-3.0650946074218766,25.136539459228516,0.06614752875434028,0.030381605360243057
6552,-0.20285110473632811,0.09960939407348633,86.04837036132812,79.64501190185547,1.7982864379882812,82.67279052734375,0.034301545884874135,0.6786666666666666,0.6589285714285714,0.03136977979058157,2.351004123687744,-4.284540789672853,25.136539459228516,0.07114842732747396,0.0458388434516059
6553,-0.17550735473632811,0.09960939407348633,86.04837036132812,78.76531982421875,1.7982864379882812,82.61141967773438,0.011797756618923612,0.672,0.6585714285714286,0.02953880987413192,3.0321359634399414,-5.031588213989259,25.136539459228516,0.08092278374565973,0.04652074178059896
6554,-0.21066360473632811,0.09960939407348633,86.04837036132812,79.87004852294922,1.5323333740234375,82.61141967773438,0.034301545884874135,0.6673333333333333,0.6564285714285715,0.02639558409830727,3.5594639778137207,-5.4600435667724625,25.136539459228516,0.0686480204264323,0.04356570773654514
6555,-0.24581985473632811,0.1195312786102295,86.0074462890625,78.8880615234375,1.286834716796875,82.91828918457031,-0.007296371459960938,0.664,0.655,0.022977700119357614,3.680310010910034,-5.998356478759767,25.136539459228516,0.07910427517361111,0.03742828369140625
6556,-0.19503860473632811,0.1195312786102295,85.98699188232422,78.60165405273438,1.9414901733398438,82.97966003417969,-0.004568650987413194,0.6606666666666666,0.6532142857142857,0.020292238015407964,3.6693241596221924,-6.844278948852541,25.136539459228516,0.08205930921766492,0.04402033487955729
6557,-0.14425735473632811,0.1195312786102295,85.41416931152344,77.25142669677734,2.5143165588378906,82.89783477783203,-0.0034320831298828127,0.658,0.6514285714285715,0.01833919778645831,3.207911968231201,-7.107943194458009,25.136539459228516,0.09069714016384549,0.051294242011176217
6558,-0.08175735473632813,0.1195312786102295,84.53446960449219,77.14913940429688,4.375995635986328,82.65233612060547,-0.002522828843858507,0.6536666666666666,0.6496428571428572,0.016294604823133656,3.5045340061187744,-7.624285357543947,25.136539459228516,0.08205922444661458,0.07470732794867621
6559,-0.16378860473632811,0.05976563930511475,87.03034973144531,80.68836975097656,0.3048515319824219,82.71371459960938,0.010206561618381077,0.6523333333333333,0.6482142857142857,0.013303966937934003,3.6693241596221924,-5.646805422851564,25.224430084228516,0.07046644422743055,0.028790410359700522
6560,-0.19503860473632811,0.09960939407348633,86.27340698242188,78.27432250976562,-0.37026214599609375,83.22515869140625,0.027027596367730035,0.6496666666666666,0.6457142857142857,0.008879002880859351,3.5924220085144043,-6.042299883911134,25.224430084228516,0.08887871636284722,0.015606435139973958
6561,-0.08175735473632813,0.1195312786102295,86.0688247680664,78.17203521728516,-0.6362152099609375,83.34790802001953,-0.0002497355143229167,0.6466666666666666,0.6439285714285714,0.008451841558159699,3.2628421783447266,-5.778637545654298,25.224430084228516,0.08774210611979166,0.011287519666883681
6562,-0.12472610473632813,0.09960939407348633,85.27096557617188,78.72439575195312,-0.6975898742675781,83.47065734863281,0.008615409003363715,0.6436666666666667,0.6414285714285715,0.005674741948784698,3.141996145248413,-5.811594622680666,25.224430084228516,0.07273966471354167,0.009241697523328993
6563,-0.15206985473632811,0.09960939407348633,84.77996826171875,77.00592803955078,-0.6362152099609375,83.47065734863281,0.020435587565104166,0.64,0.6396428571428572,0.0027464972601996527,2.7135419845581055,-5.657789843627931,25.136539459228516,0.0863782246907552,0.009923638237847223
6564,-0.13644485473632811,0.07968751907348633,84.96409606933594,79.07218933105469,-0.5952987670898438,83.36836242675781,0.02202674018012153,0.6343333333333333,0.6382142857142857,0.0015869140625,2.3180460929870605,-4.218624728271486,25.136539459228516,0.06546563042534723,0.011514875623914931
6565,-0.11300735473632813,0.09960939407348633,85.02546691894531,79.01081848144531,-0.5952987670898438,83.20470428466797,0.02839147779676649,0.631,0.6375,0.0001220703125,2.109312057495117,-2.823403018066408,25.136539459228516,0.06682942708333334,0.013333299424913195
6566,-0.15206985473632811,0.13945316314697265,85.90515899658203,79.84959411621094,0.1411895751953125,82.61141967773438,0.018617078993055557,0.6236666666666667,0.6375,-0.0028075324164496527,1.6039559841156006,-2.263117449829103,25.136539459228516,0.06728405422634548,0.02810855441623264
6567,-0.20285110473632811,0.07968751907348633,84.88226318359375,77.8856201171875,0.07981491088867188,82.34546661376953,0.01952633327907986,0.6206666666666667,0.6378571428571429,-0.0032346937391493054,2.2631161212921143,-2.7684732847900406,25.136539459228516,0.077740478515625,0.03038164774576823
6568,-0.07785110473632813,0.07968751907348633,85.41416931152344,78.49935913085938,-0.37026214599609375,82.67279052734375,0.02793685065375434,0.6123333333333333,0.6375,-0.0021666632758246527,2.66959810256958,-1.9445234709472672,25.136539459228516,0.07683122422960069,0.021743859185112846
6569,-0.14035110473632811,0.13945316314697265,85.47554016113281,79.35859680175781,-0.6566734313964844,82.91828918457031,0.0065695868598090275,0.6093333333333333,0.6367857142857143,-0.005309889051649305,2.768472194671631,-1.3952223234863297,25.136539459228516,0.0679660373263889,0.015833748711480036
6570,-0.23019485473632811,0.1195312786102295,85.41416931152344,78.60165405273438,-0.7385063171386719,82.93875122070312,0.003841866387261285,0.605,0.6357142857142857,-0.0070798238118489586,2.6366400718688965,-1.4062086516113297,25.136539459228516,0.07569461398654515,0.01469713846842448
6571,-0.17941360473632811,0.09960939407348633,85.43462371826172,78.64257049560547,-0.718048095703125,83.02058410644531,0.0006595187717013889,0.599,0.6346428571428572,-0.0063779195149739586,2.6476261615753174,-1.2414194517822281,25.136539459228516,0.07546725802951389,0.01401519775390625
6572,-0.12863235473632811,0.1195312786102295,85.49600219726562,78.19248962402344,-0.3498039245605469,82.73416900634766,-0.004568650987413194,0.5936666666666667,0.6335714285714286,-0.005767652723524305,2.911290168762207,-0.3625379973144547,25.136539459228516,0.08115013970269097,0.02128918965657552
6573,-0.13253860473632811,0.17929691314697266,85.1072998046875,78.8880615234375,-0.2679710388183594,82.48867797851562,0.0056603749593098955,0.5923333333333334,0.6328571428571429,-0.0073239644368489586,3.306786060333252,-0.6921183043212906,25.136539459228516,0.06910264756944444,0.024926122029622397
6574,-0.07394485473632813,0.17929691314697266,84.80043029785156,78.25386810302734,-0.12476730346679688,82.42729949951172,-0.00297745598687066,0.5823333333333334,0.6317857142857143,-0.005492994520399305,2.911290168762207,0.41746801137924194,25.136539459228516,0.07273957994249132,0.02719925774468316
6575,-0.14035110473632811,0.09960939407348633,84.82088470458984,78.17203521728516,-0.45209503173828125,82.5091323852539,-0.0007043626573350694,0.5826666666666667,0.6314285714285715,-0.005645582411024305,3.603408098220825,0.9887400269508362,25.136539459228516,0.07387610541449653,0.022653028700086807
6576,-0.23800735473632811,0.09960939407348633,84.84133911132812,78.09020233154297,-0.28842926025390625,82.67279052734375,0.00225067138671875,0.5803333333333334,0.6296428571428572,-0.0063168843587239586,3.7242541313171387,1.175502061843872,25.136539459228516,0.07501263088650173,0.022653113471137153
6577,-0.3317573547363281,0.05976563930511475,84.24806213378906,77.19004821777344,-0.18613815307617188,82.59095764160156,0.0024779849582248262,0.5766666666666667,0.6282142857142857,-0.005676099989149305,3.932988166809082,0.5273280143737793,25.136539459228516,0.07842237684461806,0.02469893561469184
6578,0.000273895263671875,0.03984375953674316,84.71859741210938,77.333251953125,0.12073135375976562,82.30455017089844,-0.002068201700846354,0.574,0.6260714285714286,-0.0013732062445746527,4.306511878967285,1.3732500076293945,25.136539459228516,0.08205939398871528,0.031290902031792536
6579,0.12136761748589417,0.07968751907348633,84.88226318359375,78.23341369628906,-0.16568374633789062,82.63188171386719,-0.00047704908582899306,0.5743333333333334,0.6232142857142857,0.0023193359375,5.207364082336426,2.515794038772583,25.136539459228516,0.07387610541449653,0.024471494886610243
6580,0.03933636748589417,0.07968751907348633,84.84133911132812,78.35615539550781,-0.06339263916015625,83.24562072753906,0.0049784342447916664,0.5683333333333334,0.6203571428571428,0.002288818359375,4.866797924041748,3.0431220531463623,25.136539459228516,0.07205759684244792,0.01878874037000868
6581,-0.023163604736328124,0.07968751907348633,84.82088470458984,78.51982116699219,-0.3907203674316406,84.20714569091797,0.0002048916286892361,0.5673333333333334,0.6157142857142858,0.0028075324164496527,5.295252323150635,2.911290168762207,25.136539459228516,0.0700118170844184,0.004468154907226562
6582,-0.11691360473632813,0.1195312786102295,85.20958709716797,79.35859680175781,-1.2704124450683594,85.0459213256836,0.004523807101779514,0.5666666666666667,0.6117857142857143,0.00164794921875,4.614120006561279,2.4059340953826904,25.136539459228516,0.06501100328233507,-0.014625930786132812
6583,-0.10910110473632813,0.1195312786102295,84.75950622558594,77.41508483886719,-2.334228515625,85.43462371826172,-0.004568650987413194,0.5683333333333334,0.6057142857142858,0.002532958984375,4.306511878967285,1.2304320335388184,25.136539459228516,0.08160468207465278,-0.030765024820963542
6584,-0.12863235473632811,0.07968751907348633,85.0459213256836,78.90852355957031,-2.9684295654296875,86.21202850341797,0.0004322052001953125,0.5703333333333334,0.6014285714285714,0.0036620246039496527,3.5704500675201416,1.538040041923523,25.136539459228516,0.0681933085123698,-0.046449534098307294
6585,-0.20675735473632811,0.07968751907348633,84.24806213378906,78.33570098876953,-3.3162155151367188,86.78485107421875,-0.001613616943359375,0.5703333333333334,0.5953571428571428,0.0032958136664496527,2.4169201850891113,0.36253800988197327,25.136539459228516,0.06569290161132812,-0.056678517659505205
6586,-0.12863235473632811,0.09960939407348633,84.90271759033203,78.19248962402344,-3.868579864501953,87.0098876953125,0.002705298529730903,0.5716666666666667,0.5921428571428572,0.0035399542914496527,1.8676199913024902,0.7031040191650391,25.224430084228516,0.07455808851453993,-0.06531630622016059
6587,-0.09347610473632813,0.13945316314697265,84.90271759033203,77.90608215332031,-3.9299545288085938,87.15309143066406,-0.0013863033718532986,0.5716666666666667,0.5871428571428572,0.0036009894476996527,1.4171940088272095,-0.09887375170898594,25.224430084228516,0.07774039374457466,-0.06758939954969619
6588,-0.07394485473632813,0.09960939407348633,84.90271759033203,77.66058349609375,-3.6230850219726562,87.29630279541016,-0.009114880032009548,0.5733333333333334,0.5839285714285715,0.004576193907335046,1.4171940088272095,-0.5602861815185562,25.224430084228516,0.08046815660264757,-0.06577097574869792
6589,-0.07785110473632813,0.17929691314697266,84.84133911132812,78.19248962402344,-3.2139244079589844,86.74394226074219,-0.0018409305148654514,0.5726666666666667,0.5796428571428571,0.0029601203070746527,1.494096040725708,-0.9667688780517594,25.224430084228516,0.07387610541449653,-0.05508740743001302
6590,-0.07003860473632813,0.19921878814697266,84.90271759033203,78.31524658203125,-3.0093421936035156,86.78485107421875,-0.004568650987413194,0.573,0.5767857142857142,0.002288818359375,1.5160679817199707,-0.8898664885253922,25.224430084228516,0.07319412231445313,-0.053268814086914064
6591,-0.05441360473632813,0.17929691314697266,84.90271759033203,78.09020233154297,-2.7843055725097656,86.96897888183594,-0.002750142415364583,0.5736666666666667,0.5728571428571428,0.0025634765625,0.9997260570526123,-0.7470480375976578,25.224430084228516,0.07569461398654515,-0.05281427171495226
6592,-0.03488235473632813,0.1195312786102295,86.27340698242188,79.46089172363281,-3.3980445861816406,87.74638366699219,-0.001613616943359375,0.5756666666666667,0.5703571428571429,0.0034789191351996527,0.516342043876648,-0.2307058745117203,25.224430084228516,0.07569461398654515,-0.06827142503526476
6593,-0.003632354736328125,0.1195312786102295,85.65966796875,78.78577423095703,-3.0093421936035156,87.72592163085938,-0.005705218844943577,0.5753333333333334,0.5667857142857143,0.004362570860460046,-0.4284540587158219,-0.4614130430908219,25.224430084228516,0.07637659708658855,-0.06372515360514323
6594,-0.03878860473632813,0.17929691314697266,85.5982894897461,78.90852355957031,-2.518352508544922,87.80775451660156,-0.0007043626573350694,0.574,0.565,0.002685546875,-0.6481748991699234,-0.7250772886962906,25.224430084228516,0.07433073255750867,-0.05917896694607205
6595,-0.10910110473632813,0.13945316314697265,85.61874389648438,79.27676391601562,-1.3931617736816406,87.48042297363281,0.009070036146375868,0.574,0.5625,0.0003662109375,-0.8678938322753922,-0.6152159147949234,25.224430084228516,0.07046644422743055,-0.043039830525716145
6596,-0.12081985473632813,0.09960939407348633,83.38882446289062,76.82180786132812,-3.3980445861816406,87.95095825195312,-0.001613616943359375,0.5716666666666667,0.5610714285714286,0.00018310546875,-1.9335371428222672,-1.9115644865722672,25.224430084228516,0.07296685112847222,-0.07054447597927517
6597,-0.04660110473632813,0.1195312786102295,85.02546691894531,78.21295166015625,-3.1730079650878906,87.95095825195312,-0.0066144307454427086,0.568,0.5592857142857143,0.001434326171875,-2.3839632445068375,-0.2966219359130875,25.224430084228516,0.07569461398654515,-0.0680440690782335
6598,-0.24581985473632811,0.1195312786102295,85.25050354003906,79.56317901611328,-3.1934661865234375,88.05325317382812,0.0065695868598090275,0.5653333333333334,0.5582142857142857,-0.0038145277235243054,-2.142269747802736,-0.9228254729003922,25.224430084228516,0.06319249471028646,-0.06940799289279515
6599,-0.2731636047363281,0.09960939407348633,84.1048583984375,76.57630920410156,-2.9275131225585938,88.23736572265625,-0.002522828843858507,0.56,0.5557142857142857,-0.004913160536024305,-2.153256075927736,-1.2194467955322281,25.224430084228516,0.08365054660373264,-0.06849865383572049
6600,-0.19503860473632811,0.07968751907348633,84.67768096923828,77.84471130371094,-1.1885833740234375,88.54424285888672,-0.0066144307454427086,0.5563333333333333,0.5542857142857143,-0.0029905531141493054,-2.537766116210939,-0.6042314940185562,25.224430084228516,0.07592188517252604,-0.05258695814344618
6601,-0.15988235473632811,0.09960939407348633,84.82088470458984,77.82424926757812,-4.380031585693359,88.23736572265625,-0.002068201700846354,0.551,0.5525,-0.0031736585828993054,-2.4169203215332047,0.20873400568962097,25.224430084228516,0.07774039374457466,-0.08463774787055121
6602,-0.19113235473632811,0.1195312786102295,83.90027618408203,78.09020233154297,-4.052700042724609,87.80775451660156,0.0008868323432074653,0.5443333333333333,0.5514285714285714,-0.003967115614149305,-2.0324102812500016,0.45042601227760315,25.224430084228516,0.06455637613932291,-0.07622727288140191
6603,-0.13253860473632811,0.13945316314697265,85.98699188232422,78.82669067382812,-3.9504127502441406,87.68500518798828,-0.001613616943359375,0.5386666666666666,0.55,-0.0029296027289496527,-1.3512789183349625,2.032410144805908,25.224430084228516,0.07955890231662327,-0.07372686598036024
6604,-0.14035110473632811,0.1195312786102295,86.27340698242188,80.52470397949219,-4.154991149902344,88.09416198730469,-0.005250591701931423,0.5326666666666666,0.5478571428571428,-0.0015257941351996527,-1.2084604674072281,1.7028300762176514,25.224430084228516,0.06387447781032986,-0.08054614596896702
6605,-0.09347610473632813,0.09960939407348633,85.74149322509766,78.58119201660156,-4.175449371337891,88.23736572265625,-0.008660252888997395,0.5286666666666666,0.5453571428571429,0.00079345703125,-1.7577597075195328,-0.01098694140625156,25.224430084228516,0.07955890231662327,-0.08236461215549046
6606,-0.06222610473632813,0.05976563930511475,83.81844329833984,77.70149993896484,-3.909496307373047,88.1146240234375,-0.0034320831298828127,0.523,0.5439285714285714,0.001861572265625,-1.8895918303222672,-0.5163427763671891,25.224430084228516,0.0679660373263889,-0.07804578145345052
6607,-0.13644485473632811,0.07968751907348633,85.25050354003906,79.17447662353516,-3.725372314453125,87.78729248046875,0.004296493530273437,0.5196666666666667,0.5417857142857143,0.000457763671875,-1.4501520567626969,0.8239500522613525,25.224430084228516,0.06751141018337674,-0.07236294216579861
6608,-0.17941360473632811,0.09960939407348633,85.14820861816406,79.07218933105469,-3.745830535888672,87.68500518798828,0.001341459486219618,0.5136666666666667,0.5403571428571429,-0.0012816535101996527,-1.2633902006835953,0.5053560137748718,25.224430084228516,0.06751132541232639,-0.07145373026529948
6609,-0.2926948547363281,0.07968751907348633,85.72103881835938,78.96989440917969,-3.745830535888672,87.86912536621094,-0.0013863033718532986,0.5093333333333333,0.5382142857142858,-0.0020140753851996527,-1.0766283446044937,0.516342043876648,25.224430084228516,0.07501271565755209,-0.073499510023329
6610,-0.2536323547363281,0.07968751907348633,85.47554016113281,78.92898559570312,-4.093616485595703,87.86912536621094,-0.0009316762288411458,0.5033333333333333,0.5371428571428571,-0.0017394171820746527,-1.505081790039064,0.02197200059890747,25.224430084228516,0.07273949517144097,-0.07736379835340712
6611,-0.18722610473632811,0.03984375953674316,85.33233642578125,77.84471130371094,-4.093616485595703,87.82821655273438,-0.01002409193250868,0.5006666666666667,0.5357142857142857,0.001220703125,-1.9884668760986344,-0.04394401843261875,25.224430084228516,0.08319583468967014,-0.07690925598144531
6612,-0.06222610473632813,0.03984375953674316,85.39370727539062,77.82424926757812,-4.175449371337891,87.74638366699219,-0.002522828843858507,0.49566666666666664,0.5346428571428572,0.002685546875,-2.252131121704103,0.2197200059890747,25.224430084228516,0.08410508897569445,-0.07690925598144531
6613,-0.08175735473632813,0.01992187976837158,85.41416931152344,79.01081848144531,-4.441402435302734,88.17599487304688,-0.002068201700846354,0.49333333333333335,0.5328571428571428,0.0029906378851996527,-2.4388929777832047,0.8459219932556152,25.224430084228516,0.0711483425564236,-0.08463774787055121
6614,-0.07003860473632813,0.07968751907348633,85.41416931152344,79.07218933105469,-4.339115142822266,87.99187469482422,-0.0002497355143229167,0.4866666666666667,0.5307142857142857,0.00244140625,-2.504809039184572,1.032684087753296,25.224430084228516,0.07046644422743055,-0.08145544264051649
6615,-0.11691360473632813,0.05976563930511475,85.41416931152344,78.96989440917969,-4.318656921386719,87.99187469482422,-0.007296371459960938,0.48,0.5278571428571428,0.002655029296875,-1.9994532042236344,0.6701459884643555,25.224430084228516,0.07160305447048611,-0.08122812906901042
6616,-0.2653511047363281,0.03984375953674316,85.41416931152344,79.09264373779297,-4.298198699951172,87.95095825195312,0.007478841145833333,0.47333333333333333,0.5253571428571429,0.001495361328125,-2.208185809204103,1.581984043121338,25.224430084228516,0.07023917304144965,-0.08054618835449219
6617,-0.18331985473632811,0.1195312786102295,85.43462371826172,79.17447662353516,-4.298198699951172,87.88958740234375,0.0004322052001953125,0.465,0.5214285714285715,0.000244140625,-2.164242404052736,2.0763540267944336,25.224430084228516,0.06955718994140625,-0.07986429002549914
6618,-0.2887886047363281,0.13945316314697265,85.43462371826172,79.76776123046875,-4.175449371337891,86.80531311035156,0.015889358520507813,0.4603333333333333,0.5185714285714286,-0.0022887335883246527,-1.4831110411376969,1.5160679817199707,25.224430084228516,0.06296513875325521,-0.06645291646321615
6619,-0.22238235473632811,0.13945316314697265,85.86424255371094,79.9927978515625,-4.11407470703125,87.0098876953125,-0.008205625745985243,0.4553333333333333,0.5146428571428572,-0.00027457343207465276,-0.5273291044921891,-0.3954969816894547,25.224430084228516,0.06523827446831597,-0.06804402669270833
6620,-0.16769485473632811,0.1195312786102295,85.557373046875,79.25630950927734,-4.461860656738281,88.17599487304688,-0.002522828843858507,0.4513333333333333,0.5107142857142857,0.00152587890625,-0.48338379199218906,-0.6811319761962906,25.224430084228516,0.0700118170844184,-0.08486506144205729
6621,-0.17941360473632811,0.07968751907348633,85.5164566040039,79.50180053710938,-5.321098327636719,88.97386169433594,-0.006387117173936632,0.44666666666666666,0.5042857142857143,0.002532958984375,-1.2084604674072281,-0.5712725096435562,25.224430084228516,0.06682951185438368,-0.10327733357747396
6622,-0.19503860473632811,0.07968751907348633,85.53691101074219,80.01325988769531,-4.952854156494141,87.58271789550781,-0.003204769558376736,0.44266666666666665,0.5003571428571428,0.00238037109375,-1.6039568358154312,-1.2524038725585953,25.224430084228516,0.0613739013671875,-0.08372857835557726
6623,-0.07394485473632813,0.07968751907348633,85.53691101074219,79.52226257324219,-5.505218505859375,89.73080444335938,-0.015706888834635415,0.43766666666666665,0.4942857142857143,0.004028235541449653,-1.8456484251709,-2.0324102812500016,25.224430084228516,0.06682942708333334,-0.11373358832465277
6624,-0.15597610473632811,0.07968751907348633,85.5164566040039,79.05172729492188,-4.461860656738281,41.900001525878906,0.006342273288302952,0.43566666666666665,0.49,0.001129150390625,-3.0870672636718766,-1.8346620970459,25.224430084228516,0.07183032565646702,0.4293126424153646
6625,-0.12863235473632811,0.07968751907348633,85.53691101074219,79.05172729492188,-3.5821685791015625,90.61050415039062,-0.011842600504557292,0.43333333333333335,0.48392857142857143,0.000701904296875,-2.9772058897705094,-2.252131121704103,25.224430084228516,0.07205759684244792,-0.10214080810546874
6626,-0.03488235473632813,0.09960939407348633,85.49600219726562,79.27676391601562,-6.2007904052734375,90.0785903930664,-0.007296371459960938,0.42966666666666664,0.47964285714285715,0.001068115234375,-3.2957998686523453,-2.856360095092775,25.224430084228516,0.06910264756944444,-0.12532645331488715
6627,0.07449261748589417,0.09960939407348633,85.1072998046875,76.92410278320312,-4.277740478515625,90.03767395019531,-0.007978312174479167,0.42633333333333334,0.4732142857142857,0.002410888671875,-3.6803099089355484,-2.208185809204103,25.224430084228516,0.09092441134982639,-0.10350460476345485
6628,0.023711367485894166,0.09960939407348633,85.18913269042969,77.66058349609375,-6.1394195556640625,89.91493225097656,0.008842722574869791,0.4226666666666667,0.46964285714285714,0.00018310546875,-3.6803099089355484,-0.3295809202880875,25.224430084228516,0.08365054660373264,-0.12282613118489584
6629,-0.03488235473632813,0.07968751907348633,85.23004150390625,77.70149993896484,-5.771175384521484,89.13752746582031,0.009070036146375868,0.418,0.4642857142857143,-0.0010375128851996527,-4.031862872192384,1.0876140594482422,25.224430084228516,0.0836504618326823,-0.11009669833713108
6630,-0.14816360473632811,0.05976563930511475,86.29386138916016,78.58119201660156,-3.3366737365722656,88.78973388671875,0.009751976860894098,0.414,0.4614285714285714,-0.0019835578070746527,-3.504534380981447,1.6369140148162842,25.224430084228516,0.08569632636176215,-0.07918230692545573
6631,-0.09347610473632813,0.07968751907348633,85.65966796875,79.62455749511719,-5.771175384521484,41.900001525878906,-0.002750142415364583,0.4083333333333333,0.45714285714285713,-0.0007018195258246528,-3.218899386474611,0.9228240251541138,25.224430084228516,0.06705678304036458,0.41476470099555124
6632,-0.10519485473632813,0.1195312786102295,85.61874389648438,79.21539306640625,-5.566593170166016,89.0147705078125,0.004296493530273437,0.404,0.4539285714285714,-0.0013121710883246527,-3.6803099089355484,0.23070600628852844,25.224430084228516,0.0711483425564236,-0.10645959642198351
6633,-0.11691360473632813,0.09960939407348633,85.5982894897461,77.80378723144531,-5.259723663330078,88.23736572265625,-0.0054779052734375,0.3993333333333333,0.4496428571428571,-0.0007933722601996528,-3.6912962370605484,-0.03295769030761875,25.224430084228516,0.08660558064778646,-0.09441210428873698
6634,-0.14425735473632811,0.07968751907348633,85.53691101074219,78.09020233154297,-4.8914794921875,88.17599487304688,0.014298163519965278,0.3943333333333333,0.4467857142857143,-0.0007628546820746528,-3.3617159300537125,1.0436700582504272,28.65213966369629,0.08274120754665798,-0.08963860405815972
6635,-0.06222610473632813,0.07968751907348633,85.63920593261719,78.70394134521484,-4.400489807128906,41.900001525878906,-0.0009316762288411458,0.389,0.4432142857142857,0.002105712890625,-2.7684732847900406,1.2743760347366333,29.44314956665039,0.0770584954155816,0.4299945407443576
6636,0.027617617485894166,0.07968751907348633,85.65966796875,79.64501190185547,-3.8890380859375,88.6056137084961,0.0004322052001953125,0.384,0.44035714285714284,0.005186545469835046,-2.471850054809572,0.5602860450744629,29.44314956665039,0.06682951185438368,-0.08327390882703993
6637,0.06668011748589417,0.07968751907348633,85.65966796875,79.56317901611328,-3.132091522216797,88.50332641601562,0.009070036146375868,0.37866666666666665,0.43642857142857144,0.006559751714409698,-3.0431219511718766,-0.06591667468261875,29.44314956665039,0.06773876614040798,-0.07372686598036024
6638,0.22293011748589417,0.01992187976837158,85.63920593261719,79.4404296875,-4.298198699951172,88.85111236572266,0.022935994466145835,0.37533333333333335,0.4342857142857143,0.006040952886284698,-3.4496046477050797,-0.16478981311035312,29.44314956665039,0.0688752916124132,-0.0905479007297092
6639,-0.023163604736328124,0.05976563930511475,85.57783508300781,78.540283203125,-3.0093421936035156,88.64653015136719,0.014298163519965278,0.36866666666666664,0.43142857142857144,0.0038756476508246527,-4.4273592406005875,-0.5712725096435562,29.44314956665039,0.0781950208875868,-0.07395413716634115
6640,-0.15988235473632811,0.03984375953674316,85.5982894897461,41.900001525878906,-4.789188385009766,87.82821655273438,0.007478841145833333,0.36533333333333334,0.42928571428571427,0.001068115234375,-4.932715075561525,-0.2526785307617203,29.44314956665039,0.4855365329318576,-0.08463783264160156
6641,-0.04269485473632813,0.07968751907348633,85.47554016113281,77.64012145996094,-4.5846099853515625,90.48774719238281,-0.012297227647569445,0.36133333333333334,0.4253571428571429,0.0030211554633246527,-4.3944002562255875,-0.7360617094726578,29.44314956665039,0.08706020779079861,-0.11191507975260416
6642,0.03933636748589417,0.13945316314697265,85.455078125,80.87248992919922,-6.732700347900391,89.99675750732422,-0.012297227647569445,0.3576666666666667,0.4225,0.005308615782335046,-4.207638400146486,0.790992021560669,29.44314956665039,0.05091764662000868,-0.13032730950249566
6643,-0.030976104736328124,0.1195312786102295,87.31675720214844,82.67279052734375,-6.118961334228516,89.87400817871094,0.022708680894639757,0.3556666666666667,0.41535714285714287,0.0033873664008246527,-5.800608294555666,3.8890440464019775,29.44314956665039,0.05159962972005208,-0.12214410569932725
6644,-0.04660110473632813,0.05976563930511475,87.54179382324219,79.80867004394531,-6.262165069580078,90.671875,-0.009342193603515625,0.35333333333333333,0.4114285714285714,0.006925962651909698,-5.877510684082033,2.592696189880371,29.44314956665039,0.08592359754774305,-0.13260044521755643
6645,0.10183636748589417,0.07968751907348633,87.62362670898438,41.900001525878906,-5.914379119873047,90.36500549316406,-0.011615286933051215,0.3516666666666667,0.4057142857142857,0.011503429828559003,-6.141174929687502,1.3622640371322632,29.44314956665039,0.508040279812283,-0.12532649570041232
6646,0.07058636748589417,0.1195312786102295,87.80775451660156,81.62944030761719,-5.689342498779297,90.0785903930664,-2.242194281684028e-05,0.3463333333333333,0.4017857142857143,0.012327404437934003,-6.41582550341797,1.1974740028381348,29.44314956665039,0.06864793565538195,-0.1196436987982856
6647,0.23074261748589417,0.01992187976837158,87.80775451660156,41.900001525878906,-5.546134948730469,88.70790100097656,0.0020233578152126738,0.343,0.3967857142857143,0.012632580219184003,-6.756390231201173,-0.10986007983398594,29.44314956665039,0.5100861443413629,-0.10282262166341145
6648,0.09011761748589417,0.09960939407348633,87.70545959472656,79.72684478759766,-5.66888427734375,88.17599487304688,0.005205747816297743,0.3363333333333333,0.39464285714285713,0.012724132953559003,-6.723433154174806,-1.4721247130126969,29.44314956665039,0.08865127563476563,-0.09827643500434027
6649,0.11746136748589417,0.07968751907348633,87.23492431640625,79.05172729492188,-4.134532928466797,88.76927947998047,-0.0011589898003472221,0.3323333333333333,0.39107142857142857,0.011869640766059003,-7.031040804931642,-2.834389346191408,29.53104019165039,0.09092441134982639,-0.08782013787163628
6650,0.027617617485894166,0.05976563930511475,86.43707275390625,77.02638244628906,-1.8023223876953125,88.83065795898438,0.015662044949001735,0.327,0.38857142857142857,0.007292173589409698,-6.40483917529297,-3.262842791625978,29.44314956665039,0.10456322564019097,-0.0625886705186632
6651,-0.023163604736328124,0.09960939407348633,84.84133911132812,77.68104553222656,-5.218807220458984,86.6007308959961,0.008842722574869791,0.32033333333333336,0.3846428571428571,0.0032958136664496527,-5.976383822509767,-3.0211512022705094,29.44314956665039,0.07955881754557291,-0.07577264573838975
6652,-0.07394485473632813,0.09960939407348633,85.455078125,77.70149993896484,-3.684459686279297,86.74394226074219,0.007024214002821181,0.31466666666666665,0.3821428571428571,-0.00048819647894965276,-5.009617465087892,-1.9225508146972672,29.44314956665039,0.08615086873372396,-0.060315577189127605
6653,-0.07785110473632813,0.1195312786102295,85.455078125,77.76287841796875,-4.134532928466797,87.1121826171875,0.0011141459147135417,0.30933333333333335,0.37857142857142856,-0.0022887335883246527,-3.4166475706787125,-1.2084604674072281,29.44314956665039,0.08546888563368056,-0.06940795050726997
6654,-0.04269485473632813,0.1195312786102295,85.49600219726562,78.35615539550781,-4.257282257080078,87.13264465332031,-0.0054779052734375,0.30466666666666664,0.37535714285714283,-0.0017699347601996527,-2.3510042601318375,-0.3845106535644547,34.716548919677734,0.07933163113064236,-0.07099918789333767
6655,-0.04660110473632813,0.09960939407348633,85.5164566040039,78.00836944580078,-4.625526428222656,85.53691101074219,-0.0050232781304253475,0.30033333333333334,0.36964285714285716,-0.0018004523383246527,-1.8676210814209,-0.6701475554199234,44.91178894042969,0.0834231906467014,-0.05736041598849827
6656,-0.023163604736328124,0.1195312786102295,85.49600219726562,77.86516571044922,-3.745830535888672,88.46240997314453,0.005205747816297743,0.2976666666666667,0.36607142857142855,-0.0017088996039496527,-1.3622652464599625,-0.48338379199218906,45.26335144042969,0.08478707207573785,-0.08009156121148003
6657,-0.019257354736328124,0.13945316314697265,85.5164566040039,78.64257049560547,-4.789188385009766,87.09172058105469,0.0008868323432074653,0.29533333333333334,0.3628571428571429,-0.0018920050726996527,-0.9777552061767594,0.45042601227760315,46.66958999633789,0.0763765123155382,-0.07645454406738281
6658,-0.06222610473632813,0.09960939407348633,85.557373046875,78.49935913085938,-4.4209442138671875,88.54424285888672,0.0072515275743272566,0.293,0.3610714285714286,-0.0027159796820746527,-1.0546575957031266,0.747048020362854,46.66958999633789,0.07842237684461806,-0.08850207858615451
6659,-0.019257354736328124,0.1195312786102295,85.557373046875,78.58119201660156,-4.932395935058594,87.45996856689453,-0.012069914076063368,0.29,0.35892857142857143,-0.00039664374457465276,-1.3732515745849625,0.2197200059890747,46.84537124633789,0.07751312255859374,-0.08213738335503472
6660,0.03152386748589417,0.1195312786102295,85.53691101074219,78.58119201660156,-4.789188385009766,88.36012268066406,-0.0075236850314670135,0.2876666666666667,0.3575,0.00177001953125,-1.7028299742431656,0.13183200359344482,51.2398681640625,0.0772857666015625,-0.0905479007297092
6661,0.05496136748589417,0.09960939407348633,85.557373046875,79.23585510253906,-4.8914794921875,87.37813568115234,-0.006159803602430555,0.285,0.35714285714285715,0.0027770148383246527,-1.7577597075195328,0.41746801137924194,51.2398681640625,0.0702390882703993,-0.08077350192599826
6662,0.05105511748589417,0.09960939407348633,85.557373046875,80.05416870117188,-4.605068206787109,86.90760040283203,0.002705298529730903,0.2816666666666667,0.3575,0.0030211554633246527,-1.7907186918945328,1.032684087753296,51.2398681640625,0.061146714952256945,-0.07236298455132378
6663,0.05496136748589417,0.05976563930511475,87.15309143066406,81.52714538574219,-4.645984649658203,88.1555404663086,-0.0002497355143229167,0.279,0.3578571428571429,0.0036925421820746527,-1.3512789183349625,1.7577600479125977,51.2398681640625,0.06251051161024306,-0.08668361239963107
6664,-0.003632354736328125,0.05976563930511475,86.80531311035156,79.19493103027344,-4.789188385009766,87.27584838867188,0.0011141459147135417,0.2753333333333333,0.3578571428571429,0.0036315070258246527,-1.505081790039064,1.0986000299453735,51.4156494140625,0.08455980088975694,-0.07850040859646268
6665,-0.003632354736328125,0.09960939407348633,86.64164733886719,79.78821563720703,-4.727817535400391,88.36012268066406,-0.005250591701931423,0.272,0.3582142857142857,0.004271018126085046,-1.6369139128417984,0.02197200059890747,52.29454803466797,0.07614924112955729,-0.08986600240071614
6666,0.04714886748589417,0.09960939407348633,86.64164733886719,79.33814239501953,-4.768730163574219,87.62362670898438,-0.014570320977105035,0.26866666666666666,0.35892857142857143,0.005918882573784698,-2.0763555937500016,-0.9228254729003922,52.29454803466797,0.08115005493164062,-0.08213729858398437
6667,0.04714886748589417,0.13945316314697265,86.64164733886719,79.41996765136719,-4.236824035644531,87.05081176757812,-0.006387117173936632,0.26366666666666666,0.3603571428571429,0.005766294683159698,-2.3400179320068375,-0.856909411499025,52.29454803466797,0.08024088541666667,-0.06986262003580729
6668,0.008086367485894167,0.07968751907348633,86.64164733886719,79.3995132446289,-4.605068206787109,88.31919860839844,-0.002068201700846354,0.26,0.3607142857142857,0.0034484015570746527,-1.8346620970459,-0.6591612272949234,52.29454803466797,0.08046815660264757,-0.08804740905761718
6669,-0.13644485473632811,0.07968751907348633,86.62118530273438,78.64257049560547,-5.280181884765625,88.1146240234375,0.009751976860894098,0.25766666666666665,0.36142857142857143,-0.0015563117133246527,-1.8786074095459,-0.16478981311035312,48.075828552246094,0.08865127563476563,-0.09327562120225695
6670,-0.21847610473632811,0.09960939407348633,86.53935241699219,79.4813461303711,-3.745830535888672,86.559814453125,0.004296493530273437,0.253,0.36178571428571427,-0.005035230848524305,-2.834389346191408,0.17577600479125977,48.075828552246094,0.07842229207356771,-0.058951610989040795
6671,-0.23410110473632811,0.09960939407348633,86.5188980102539,78.29478454589844,-4.154991149902344,87.25538635253906,-0.003659396701388889,0.251,0.36214285714285716,-0.005615064832899305,-2.2960745268554703,-0.10986007983398594,47.987937927246094,0.09137903849283854,-0.0712264166937934
6672,-0.18722610473632811,0.09960939407348633,86.02790832519531,78.31524658203125,-4.298198699951172,87.19401550292969,-0.012069914076063368,0.24833333333333332,0.3625,-0.004546949598524305,-1.8126913481445328,-0.4284540587158219,47.987937927246094,0.0856962415907118,-0.07213571336534289
6673,-0.14425735473632811,0.13945316314697265,86.21202850341797,78.92898559570312,-4.298198699951172,88.0737075805664,-0.010478719075520834,0.24533333333333332,0.36142857142857143,-0.004577467176649305,-1.9115644865722672,-0.01098694140625156,47.987937927246094,0.08092269897460938,-0.08191006978352865
6674,-0.15988235473632811,0.13945316314697265,86.39614868164062,78.8880615234375,-4.645984649658203,88.6056137084961,0.0002048916286892361,0.24333333333333335,0.3607142857142857,-0.005767652723524305,-1.9664942198486344,0.08788800239562988,47.987937927246094,0.0834231906467014,-0.09168442620171441
6675,-0.11691360473632813,0.13945316314697265,86.0688247680664,77.92654418945312,-5.259723663330078,88.85111236572266,-0.015706888834635415,0.24166666666666667,0.35892857142857143,-0.0038145277235243054,-2.153256075927736,-0.9997259550781266,46.142250061035156,0.09046978420681423,-0.10123151143391927
6676,-0.05831985473632813,0.15937503814697265,84.88226318359375,79.0312728881836,-5.66888427734375,88.33966064453125,-0.014115693834092882,0.24,0.35714285714285715,-0.0021666632758246527,-2.471850054809572,-1.153530734130861,46.054359436035156,0.06501100328233507,-0.10009494357638889
6677,-0.06222610473632813,0.15937503814697265,85.65966796875,75.20562744140625,-5.11651611328125,88.81019592285156,0.0040691799587673615,0.23566666666666666,0.355,-0.0035093519422743054,-2.6476274901123062,-1.3073355131835953,46.054359436035156,0.116156005859375,-0.09918568929036459
6678,-0.05831985473632813,0.13945316314697265,83.552490234375,79.72684478759766,-5.464302062988281,87.5213394165039,-0.00297745598687066,0.23233333333333334,0.3539285714285714,-0.0038450453016493054,-3.3067861967773453,-0.20873512561035312,46.054359436035156,0.042507171630859375,-0.08872934977213541
6679,-0.06222610473632813,0.13945316314697265,84.86180114746094,77.00592803955078,-5.218807220458984,87.68500518798828,0.004523807101779514,0.229,0.3532142857142857,-0.0037534925672743054,-3.207913058349611,-0.03295769030761875,46.054359436035156,0.08728747897677952,-0.08782013787163628
6680,-0.04269485473632813,0.13945316314697265,84.71859741210938,78.09020233154297,-5.157432556152344,87.97142028808594,0.007933468288845487,0.22466666666666665,0.3525,-0.0032346937391493054,-2.6476274901123062,0.4284540116786957,48.075828552246094,0.07364883422851562,-0.09032058715820312
6681,-0.07394485473632813,0.13945316314697265,85.02546691894531,77.45600891113281,-5.1983489990234375,87.03034973144531,0.031801138983832467,0.22033333333333333,0.35214285714285715,-0.004089185926649305,-2.7465006285400406,0.9118380546569824,48.251609802246094,0.08410508897569445,-0.0803188747829861
6682,-0.07003860473632813,0.09960939407348633,82.40684509277344,77.14913940429688,-4.66644287109375,88.0737075805664,0.012934324476453993,0.21633333333333332,0.3532142857142857,-0.0024108039008246527,-3.0650946074218766,-0.9008528166503922,48.251609802246094,0.058418952094184025,-0.08600167168511284
6683,0.000273895263671875,0.1195312786102295,82.81600189208984,77.27188110351562,-5.075603485107422,88.62606811523438,0.005887646145290798,0.212,0.3535714285714286,-0.0005797492133246528,-3.207913058349611,1.4721240997314453,48.251609802246094,0.061601342095269095,-0.09668524000379775
6684,-0.18331985473632811,0.07968751907348633,85.88470458984375,76.94454956054688,-5.177890777587891,86.49844360351562,0.029073418511284723,0.20733333333333334,0.35428571428571426,-0.0037840101453993054,-3.7681986265869156,2.7025561332702637,45.52701950073242,0.09933505588107638,-0.0741814931233724
6685,-0.15988235473632811,0.07968751907348633,84.90271759033203,80.07463073730469,-4.482318878173828,88.1555404663086,0.015889358520507813,0.203,0.3560714285714286,-0.0018920050726996527,-4.625107424804689,1.1535300016403198,45.52701950073242,0.0536454094780816,-0.08486510382758247
6686,-0.007538604736328125,0.1195312786102295,85.31187438964844,79.52226257324219,-4.605068206787109,88.0737075805664,-2.242194281684028e-05,0.19866666666666666,0.35678571428571426,0.0035399542914496527,-4.460316317626955,0.8239500522613525,45.52701950073242,0.06432902018229167,-0.08531973097059461
6687,-0.030976104736328124,0.1195312786102295,86.35523986816406,79.87004852294922,-4.380031585693359,87.74638366699219,0.02498181660970052,0.19466666666666665,0.3582142857142857,0.0029906378851996527,-4.767923968383791,1.1535300016403198,45.52701950073242,0.07205768161349826,-0.07918239169650608
6688,-0.023163604736328124,0.09960939407348633,86.43707275390625,79.19493103027344,-4.523235321044922,87.68500518798828,0.015662044949001735,0.19033333333333333,0.35892857142857143,0.004515158751085046,-4.504261630126955,0.2197200059890747,45.52701950073242,0.08046824137369792,-0.08009156121148003
6689,0.03152386748589417,0.1195312786102295,86.33477783203125,79.3995132446289,-4.523235321044922,86.72348022460938,0.01247969733344184,0.186,0.35928571428571426,0.006895445073784698,-4.570175784179689,-0.9667688780517594,45.52701950073242,0.0770584954155816,-0.06940795050726997
6690,0.09402386748589417,0.13945316314697265,86.15065002441406,78.90852355957031,-4.4209442138671875,87.43951416015625,0.005205747816297743,0.182,0.35964285714285715,0.009092625927734351,-3.7572122984619156,-1.6259294920654312,46.054359436035156,0.08046807183159722,-0.07622731526692708
6691,0.08230511748589417,0.13945316314697265,86.15065002441406,78.27432250976562,-4.461860656738281,87.88958740234375,0.0295280032687717,0.17733333333333334,0.35928571428571426,0.006712339605034698,-2.856360095092775,-1.0107122832031266,46.318031311035156,0.08751475016276042,-0.08168275621202258
6692,0.023711367485894166,0.17929691314697266,86.08927917480469,81.36347961425781,-4.4209442138671875,87.93049621582031,0.03702930874294705,0.17333333333333334,0.35892857142857143,0.0037840949164496527,-2.6586119108886734,-0.801977770874025,46.318031311035156,0.05250888400607639,-0.08168267144097222
6693,0.03152386748589417,0.17929691314697266,86.31431579589844,77.68104553222656,-4.5846099853515625,88.1146240234375,0.010433875189887153,0.17033333333333334,0.3575,0.0036925421820746527,-2.6695982390136734,-1.1864878111572281,46.40591812133789,0.09592522515190972,-0.0855470445421007
6694,0.0041801174858941675,0.17929691314697266,85.63920593261719,78.19248962402344,-4.727817535400391,85.72103881835938,0.027027596367730035,0.16666666666666666,0.35642857142857143,0.00091552734375,-2.6366411619873062,-1.3732515745849625,46.40591812133789,0.08274129231770834,-0.06054284837510851
6695,-0.015351104736328124,0.13945316314697265,85.70057678222656,78.31524658203125,-3.9504127502441406,87.93049621582031,0.03271039326985677,0.164,0.355,-0.0011595831976996527,-1.6369139128417984,-0.7360617094726578,46.40591812133789,0.08205922444661458,-0.07645454406738281
6696,-0.03878860473632813,0.15937503814697265,85.70057678222656,80.19737243652344,-4.605068206787109,88.09416198730469,0.03816583421495226,0.16066666666666668,0.3539285714285714,-0.0030821058485243054,-0.9667688780517594,-0.02197326953125156,46.40591812133789,0.061146714952256945,-0.08554700215657553
6697,-0.027069854736328124,0.1195312786102295,86.39614868164062,79.70639038085938,-4.461860656738281,87.03034973144531,0.0254364013671875,0.15766666666666668,0.3514285714285714,-0.0023497687445746527,-1.7467752867431656,0.13183200359344482,46.40591812133789,0.07433064778645833,-0.07213567097981771
6698,-0.003632354736328125,0.09960939407348633,86.37569427490234,79.68592834472656,-4.3595733642578125,86.88714599609375,0.02248136732313368,0.155,0.35035714285714287,-0.0010069953070746527,-2.186215060302736,0.45042601227760315,46.40591812133789,0.07433073255750867,-0.06940799289279515
6699,0.011992617485894167,0.1195312786102295,86.37569427490234,80.34058380126953,-4.339115142822266,87.15309143066406,0.032255766126844616,0.15133333333333332,0.34964285714285714,-0.0,-1.8017050200195328,1.1864880323410034,46.40591812133789,0.06705678304036458,-0.07213562859429254
6700,0.05105511748589417,0.13945316314697265,86.39614868164062,80.13600158691406,-4.339115142822266,87.78729248046875,0.014980104234483507,0.14866666666666667,0.3489285714285714,0.0031432257758246527,-1.3952223234863297,1.175502061843872,46.40591812133789,0.06955718994140625,-0.07918230692545573
6701,0.06277386748589417,0.13945316314697265,87.09172058105469,80.8929443359375,-4.400489807128906,87.21446990966797,0.018389765421549478,0.145,0.3475,0.005186545469835046,-1.2304331236572281,1.4062080383300781,46.40591812133789,0.0688752916124132,-0.07349955240885417
6702,0.03152386748589417,0.13945316314697265,86.45751953125,78.62211608886719,-4.380031585693359,88.1146240234375,0.02657296922471788,0.14166666666666666,0.3464285714285714,0.004545676329210046,-1.5819841795654312,0.9228240251541138,46.40591812133789,0.08706003824869792,-0.0832739512125651
6703,0.027617617485894166,0.13945316314697265,83.38882446289062,79.52226257324219,-4.482318878173828,87.15309143066406,0.02020827399359809,0.13833333333333334,0.34535714285714286,0.004698264219835046,-1.8566347532959,0.747048020362854,46.40591812133789,0.042961798773871525,-0.0737267812093099
6704,0.03543011748589417,0.1195312786102295,85.96653747558594,79.29722595214844,-4.073158264160156,86.64164733886719,0.02179942660861545,0.13433333333333333,0.345,0.005827329839409698,-2.3180471831054703,1.4171940088272095,46.40591812133789,0.07410346137152778,-0.06349784003363715
6705,0.03152386748589417,0.13945316314697265,85.92561340332031,79.05172729492188,-4.318656921386719,87.1121826171875,0.016798612806532116,0.13133333333333333,0.3439285714285714,0.006742857183159698,-1.7907186918945328,0.9338099956512451,46.40591812133789,0.0763765123155382,-0.07145377265082466
6706,0.04714886748589417,0.15937503814697265,85.90515899658203,78.62211608886719,-4.318656921386719,87.74638366699219,0.015207417805989583,0.12666666666666668,0.3435714285714286,0.008634862255859351,-1.6039568358154312,0.5932440161705017,47.72426986694336,0.08092269897460938,-0.07850045098198785
6707,0.05496136748589417,0.13945316314697265,85.33233642578125,80.17691802978516,-4.339115142822266,85.84378051757812,0.019980960422092013,0.12333333333333334,0.3425,0.009367284130859351,-1.8566347532959,0.7690200209617615,48.251609802246094,0.05728242662217882,-0.05758772956000434
6708,0.04714886748589417,0.13945316314697265,85.63920593261719,79.37905883789062,-3.9708709716796875,86.17111206054688,0.01907170613606771,0.119,0.34285714285714286,0.009519872021484351,-1.3842359953613297,0.5712720155715942,48.251609802246094,0.06955718994140625,-0.05713314480251736
6709,0.07058636748589417,0.1195312786102295,84.61630249023438,77.31279754638672,-4.011787414550781,86.80531311035156,0.01907170613606771,0.11633333333333333,0.34285714285714286,0.010191258740234351,-0.6701475554199234,-0.5383154326171891,48.251609802246094,0.08115005493164062,-0.0646344502766927
6710,0.14871136748589417,0.1195312786102295,84.86180114746094,77.12867736816406,-4.011787414550781,86.45751953125,-0.0054779052734375,0.11366666666666667,0.3425,0.012937756000434003,-0.6811319761962906,-1.2194467955322281,48.69105911254883,0.08592359754774305,-0.060770077175564235
6711,0.14480511748589417,0.17929691314697266,84.82088470458984,77.21051025390625,-3.9708709716796875,86.88714599609375,-0.01070603264702691,0.10933333333333334,0.3425,0.014463550135633656,-0.6701475554199234,-0.9997259550781266,50.53675079345703,0.0845597161187066,-0.06508907741970486
6712,0.12136761748589417,0.13945316314697265,84.86180114746094,79.21539306640625,-4.032245635986328,88.19645690917969,0.010433875189887153,0.10733333333333334,0.3432142857142857,0.011045750927734351,-0.845923083374025,0.9118380546569824,50.62464141845703,0.0627378675672743,-0.08031891716851128
6713,-0.03488235473632813,0.13945316314697265,85.0459213256836,76.35127258300781,-5.014228820800781,87.23492431640625,0.023617935180664063,0.107,0.3432142857142857,0.0037840949164496527,-1.6479002409667984,1.0876140594482422,49.13050842285156,0.09660720825195312,-0.08054614596896702
6714,-0.05831985473632813,0.09960939407348633,81.52714538574219,72.56654357910156,-4.482318878173828,86.6007308959961,-0.0009316762288411458,0.10366666666666667,0.3435714285714286,0.0033263312445746527,-2.7245279722900406,-1.1864878111572281,48.95473098754883,0.09956224229600695,-0.06758944193522136
6715,0.05886761748589417,0.13945316314697265,81.19981384277344,78.51982116699219,-4.5846099853515625,87.27584838867188,-0.01752539740668403,0.101,0.34535714285714286,0.007353208745659698,-2.812416689941408,-0.21972145373535312,48.95473098754883,0.029777696397569445,-0.07622731526692708
6716,0.07839886748589417,0.13945316314697265,84.43218231201172,79.05172729492188,-4.625526428222656,87.45996856689453,-0.004114023844401042,0.09766666666666667,0.34535714285714286,0.008665379833984351,-3.0321375303955094,1.1535300016403198,48.95473098754883,0.05978283352322049,-0.07872772216796875
6717,0.07449261748589417,0.13945316314697265,83.75706481933594,79.93142700195312,-4.461860656738281,87.48042297363281,0.0006595187717013889,0.094,0.3460714285714286,0.009031590771484351,-2.3619905882568375,-0.08788933093261875,48.86684036254883,0.04250708685980903,-0.07713648478190104
6718,0.12918011748589417,0.13945316314697265,85.0050048828125,76.3921890258789,-4.66644287109375,87.33721923828125,-0.01320648193359375,0.09,0.3460714285714286,0.011381359516059003,-2.164242404052736,0.06591600179672241,48.86684036254883,0.09569795396592883,-0.07781846788194445
6719,0.12136761748589417,0.13945316314697265,84.35034942626953,79.46089172363281,-4.66644287109375,85.29141998291016,-0.0013863033718532986,0.08566666666666667,0.3464285714285714,0.011747570453559003,-2.504809039184572,0.6152160167694092,48.86684036254883,0.054327307807074655,-0.05508736504448785
6720,0.14871136748589417,0.1195312786102295,86.23248291015625,80.23829650878906,-3.6230850219726562,86.76439666748047,-0.012297227647569445,0.081,0.34714285714285714,0.012449474750434003,-2.2850881987304703,0.6371880173683167,48.86684036254883,0.06660207112630208,-0.059860907660590275
6721,0.07839886748589417,0.15937503814697265,85.63920593261719,77.435546875,-3.7867469787597656,86.49844360351562,0.01066118876139323,0.07733333333333334,0.3482142857142857,0.011228856396484351,-1.538040774414064,-0.4394403868408219,48.86684036254883,0.09115176730685765,-0.0587243398030599
6722,0.05886761748589417,0.17929691314697266,84.35034942626953,81.60897827148438,-4.564151763916016,86.47798156738281,-0.0002497355143229167,0.074,0.3482142857142857,0.009458836865234351,-1.538040774414064,-0.16478981311035312,48.69105911254883,0.030459679497612847,-0.0671348147922092
6723,0.04324261748589417,0.13945316314697265,85.92561340332031,75.94210815429688,-4.461860656738281,88.29874420166016,0.005205747816297743,0.06966666666666667,0.34785714285714286,0.008116148198784699,-1.7248026304931656,-1.0107122832031266,48.69105911254883,0.11092783610026041,-0.08622894287109376
6724,0.09402386748589417,0.13945316314697265,83.38882446289062,77.57875061035156,-4.8096466064453125,87.70545959472656,-0.01843460930718316,0.06733333333333333,0.3475,0.009184178662109351,-2.0763555937500016,-1.538040774414064,48.427391052246094,0.06455637613932291,-0.08350118001302083
6725,0.12136761748589417,0.15937503814697265,86.86668395996094,77.78333282470703,-4.8096466064453125,85.78240966796875,-0.007978312174479167,0.06366666666666666,0.3475,0.010374364208984351,-2.6695982390136734,-0.834936755249025,48.251609802246094,0.1009261237250434,-0.06213395860460069
6726,0.14871136748589417,0.15937503814697265,85.47554016113281,77.23097229003906,-3.8481216430664062,87.35768127441406,-0.012069914076063368,0.06066666666666667,0.3475,0.011625500141059003,-2.2741018706054703,-0.9997259550781266,48.075828552246094,0.09160630967881944,-0.06895336574978299
6727,0.15652386748589417,0.15937503814697265,83.69569396972656,76.16715240478516,-4.134532928466797,88.44195556640625,-0.012979168362087673,0.057,0.3475,0.010313329052734351,-1.142544406005861,-1.0656420164794937,48.075828552246094,0.0836504618326823,-0.0841832054985894
6728,0.12136761748589417,0.13945316314697265,86.17111206054688,76.9854736328125,-5.055145263671875,87.15309143066406,0.018389765421549478,0.054,0.34714285714285714,0.007048032964409698,-1.516068118164064,0.4284540116786957,48.075828552246094,0.1020626491970486,-0.08009151882595486
6729,0.09793011748589417,0.17929691314697266,83.30699157714844,76.45356750488281,-4.727817535400391,87.1121826171875,0.0036145528157552082,0.049666666666666665,0.3464285714285714,0.008024595464409699,-2.4498793059082047,0.35155200958251953,48.075828552246094,0.07614915635850694,-0.07600000169542101
6730,0.13699261748589417,0.19921878814697266,87.6031723022461,82.0385971069336,-4.154991149902344,87.68500518798828,-0.020025804307725693,0.046,0.3464285714285714,0.011503429828559003,-2.3290335112304703,1.8456480503082275,48.075828552246094,0.06182861328125,-0.07599995930989584
6731,0.12136761748589417,0.15937503814697265,88.19645690917969,79.56317901611328,-4.523235321044922,87.54179382324219,0.0049784342447916664,0.044333333333333336,0.3457142857142857,0.010374364208984351,-1.8236757689209,1.9005780220031738,48.075828552246094,0.09592530992296007,-0.07850032382541233
6732,0.11355511748589417,0.13945316314697265,86.02790832519531,79.09264373779297,-4.523235321044922,87.62362670898438,-0.002522828843858507,0.04066666666666666,0.34535714285714286,0.011137303662109351,-1.9115644865722672,0.8239500522613525,46.933258056640625,0.0770584954155816,-0.07940957811143663
6733,0.14089886748589417,0.17929691314697266,86.37569427490234,80.05416870117188,-4.523235321044922,87.72592163085938,-0.01661614312065972,0.036,0.345,0.014341479823133656,-2.4498793059082047,0.2746500074863434,45.79069137573242,0.07023917304144965,-0.08054618835449219
6734,0.14089886748589417,0.19921878814697266,87.1121826171875,77.06730651855469,-3.745830535888672,86.82576751708984,-0.01070603264702691,0.03333333333333333,0.34464285714285714,0.014921313807508656,-2.6805845671386734,-0.09887375170898594,45.79069137573242,0.11160973442925347,-0.06190664503309462
6735,0.13308636748589417,0.17929691314697266,89.93538665771484,74.96012878417969,-4.298198699951172,86.92805480957031,-0.018889236450195312,0.030333333333333334,0.345,0.013639660297309003,-2.471850054809572,-0.05493034655761875,45.70280075073242,0.16639175415039062,-0.06918059455023871
6736,0.10964886748589417,0.13945316314697265,83.32745361328125,84.45263671875,-4.257282257080078,87.21446990966797,0.007933468288845487,0.027666666666666666,0.34464285714285714,0.010221776318359351,-2.3290335112304703,-0.15380539233398594,45.70280075073242,-0.012502034505208334,-0.07190835740831163
6737,0.09011761748589417,0.1195312786102295,91.55156707763672,75.28746032714844,-4.380031585693359,88.76927947998047,0.009524663289388021,0.025,0.3439285714285714,0.009825047802734351,-1.4940973692626969,0.373524010181427,45.70280075073242,0.18071229722764756,-0.0905479007297092
6738,0.09402386748589417,0.15937503814697265,86.19157409667969,77.61967468261719,-4.911937713623047,87.23492431640625,-0.018661922878689237,0.021333333333333333,0.34285714285714286,0.010710057568359351,-1.8017050200195328,-1.0107122832031266,45.70280075073242,0.09524332682291667,-0.07940957811143663
6739,0.15261761748589417,0.1195312786102295,85.57783508300781,76.86272430419922,-4.461860656738281,88.0737075805664,-0.013888380262586805,0.018333333333333333,0.3414285714285714,0.010832127880859351,-1.3073355131835953,-0.9228254729003922,45.70280075073242,0.09683456420898437,-0.08372853597005209
6740,0.08621136748589417,0.15937503814697265,83.90027618408203,76.63768005371094,-5.055145263671875,87.76683807373047,0.005205747816297743,0.014333333333333333,0.34,0.007780454839409698,-1.4062086516113297,-0.9008528166503922,45.70280075073242,0.08069551255967881,-0.08691092597113716
6741,0.08621136748589417,0.13945316314697265,84.88226318359375,74.81692504882812,-4.461860656738281,85.02546691894531,-0.026390499538845487,0.011666666666666667,0.3375,0.006681822026909698,-0.7909933500976578,-0.2746511870117203,40.69306945800781,0.11183709038628473,-0.04985919528537326
6742,0.10574261748589417,0.1195312786102295,86.19157409667969,78.9494400024414,-4.298198699951172,85.90515899658203,-0.02866363525390625,0.008666666666666666,0.3357142857142857,0.007109068120659698,-0.01098694140625156,1.340291976928711,38.583709716796875,0.08046815660264757,-0.05781508551703559
6743,0.07058636748589417,0.09960939407348633,85.86424255371094,78.8880615234375,-2.9684295654296875,83.26608276367188,-0.010478719075520834,0.005,0.33107142857142857,0.005705259526909698,0.3185940086841583,1.3732500076293945,27.50956916809082,0.07751312255859374,-0.013716803656684028
6744,0.03933636748589417,0.09960939407348633,85.86424255371094,74.63279724121094,-0.16568374633789062,85.25050354003906,-0.0550317128499349,0.002,0.32785714285714285,0.005003440001085046,1.494096040725708,0.45042601227760315,26.63067054748535,0.12479383680555556,-0.004624303181966146
6745,0.015898867485894166,0.07968751907348633,83.94119262695312,83.0410385131836,-0.3088874816894531,82.26363372802734,-0.037301423814561634,0.0006666666666666666,0.3221428571428571,0.0032042609320746527,2.658612012863159,0.8678940534591675,26.63067054748535,0.010001712375217013,0.026971986558702258
6746,-0.05050735473632813,0.07968751907348633,86.53935241699219,78.33570098876953,0.3048515319824219,79.23585510253906,-0.023435465494791665,-0.001,0.31785714285714284,0.001129150390625,2.8783321380615234,0.6811320185661316,26.63067054748535,0.09115168253580729,0.06743329366048177
6747,-0.07394485473632813,0.05976563930511475,83.34790802001953,76.55585479736328,1.8187446594238281,79.0312728881836,-0.035255644056532115,-0.0006666666666666666,0.3117857142857143,0.000518798828125,3.4276320934295654,0.16479000449180603,26.63067054748535,0.07546725802951389,0.0865274641248915
6748,-0.05831985473632813,0.03984375953674316,83.40928649902344,77.82424926757812,2.821186065673828,78.23341369628906,-0.050485483805338544,-0.001,0.3082142857142857,0.001007080078125,4.053833961486816,0.5712720155715942,26.54277992248535,0.06205596923828125,0.10653080410427518
6749,-0.08956985473632813,0.05976563930511475,83.71615600585938,78.9903564453125,4.110038757324219,70.316162109375,0.008842722574869791,0.0,0.30142857142857143,-0.0,3.636366128921509,0.9887400269508362,26.54277992248535,0.05250888400607639,0.2088208516438802
