,WD,WS,AIL_1,AIL_2,ELEV_1,ELEV_2,RUDD,ALT,GS,TH,PTCH,ROLL,PLA_1,AIL,ELEV
2944,0.08584498700629348,0.19921878814697266,85.5982894897461,79.9518814086914,-4.257282257080078,89.77172088623047,-0.00297745598687066,0.822,0.5075,0.010648937641059003,-1.2194467955322281,2.2191720008850098,28.827919006347656,0.0627378675672743,-0.10032225714789497
2945,0.08193873700629348,0.17929691314697266,85.33233642578125,79.62455749511719,-4.318656921386719,89.79217529296875,-0.003886710272894965,0.8166666666666667,0.5067857142857143,0.011045666156684003,-1.4721247130126969,1.966494083404541,28.827919006347656,0.06341976589626735,-0.1012314690483941
2946,0.06631373700629348,0.15937503814697265,85.41416931152344,79.542724609375,-4.441402435302734,89.83309936523438,-0.0018409305148654514,0.8113333333333334,0.5057142857142857,0.011106701312934003,-1.8236757689209,1.7797319889068604,28.827919006347656,0.06523827446831597,-0.10305002000596789
2947,0.04678248700629347,0.1195312786102295,85.31187438964844,79.23585510253906,-4.523235321044922,89.68988800048828,-0.003659396701388889,0.8056666666666666,0.5053571428571428,0.010679455219184003,-2.0324102812500016,0.45042601227760315,28.827919006347656,0.06751132541232639,-0.10236803690592448
2948,0.011626237006293474,0.13945316314697265,85.14820861816406,77.31279754638672,-4.523235321044922,89.38301849365234,-0.00297745598687066,0.7986666666666666,0.505,0.009367199359809003,-2.537766116210939,-0.3845106535644547,28.65213966369629,0.08706012301974826,-0.0989583757188585
2949,0.0038137647840711807,0.13945316314697265,85.47554016113281,79.27676391601562,-4.564151763916016,89.50576782226562,-0.0043413374159071184,0.7923333333333333,0.505,0.008756932568359351,-2.4388929777832047,0.6371880173683167,28.65213966369629,0.0688752916124132,-0.10077688429090711
2950,0.007719987006293473,0.17929691314697266,85.31187438964844,79.13356018066406,-4.523235321044922,89.17843627929688,-0.004114023844401042,0.7866666666666666,0.5046428571428572,0.009184093891059003,-2.2741018706054703,0.1538040041923523,28.65213966369629,0.06864793565538195,-0.09668524000379775
2951,0.05459498700629347,0.15937503814697265,85.29141998291016,78.9494400024414,-4.564151763916016,89.54668426513672,-0.003886710272894965,0.779,0.5046428571428572,0.011076183734809003,-1.9884668760986344,0.3185940086841583,28.65213966369629,0.07046644422743055,-0.10123151143391927
2952,0.05850123700629347,0.1195312786102295,85.31187438964844,79.27676391601562,-4.543693542480469,89.26026916503906,-0.004114023844401042,0.772,0.5042857142857143,0.010984631000434003,-2.1312853270263687,0.4614120125770569,28.65213966369629,0.06705678304036458,-0.09782180786132813
2953,-9.248521592881944e-05,0.09960939407348633,85.39370727539062,79.80867004394531,-4.5846099853515625,89.68988800048828,-0.002068201700846354,0.7656666666666667,0.5042857142857143,0.009062108349609351,-2.790444033691408,0.7360620498657227,28.65213966369629,0.06205596923828125,-0.10304997762044271
2954,0.019438737006293474,0.09960939407348633,85.31187438964844,78.96989440917969,-4.482318878173828,89.03523254394531,-0.003886710272894965,0.758,0.505,0.009763927875434003,-3.4056612425537125,0.010986000299453735,28.65213966369629,0.07046644422743055,-0.09463946024576823
2955,0.03896998700629347,0.15937503814697265,85.31187438964844,79.11309814453125,-4.298198699951172,88.99431610107422,-0.009342193603515625,0.751,0.5057142857142857,0.010465832172309003,-2.9772058897705094,-0.7470480375976578,28.65213966369629,0.0688752916124132,-0.09213905334472657
2956,-0.00399873521592882,0.1195312786102295,85.31187438964844,79.3995132446289,-4.502777099609375,89.28073120117188,-0.002750142415364583,0.7446666666666667,0.5060714285714286,0.008329686474609351,-2.4169203215332047,-0.7800070219726578,28.65213966369629,0.06569290161132812,-0.09759453667534722
2957,-0.01962373521592882,0.1195312786102295,85.29141998291016,79.23585510253906,-4.4209442138671875,89.0761489868164,-0.005250591701931423,0.737,0.5060714285714286,0.0070187886555989586,-2.3619905882568375,-1.2633902006835953,28.65213966369629,0.06728405422634548,-0.09441214667426215
2958,-0.06649873521592882,0.09960939407348633,85.23004150390625,77.23097229003906,-4.380031585693359,89.19889831542969,-0.005250591701931423,0.73,0.5064285714285715,0.004791090223524305,-2.0214239531250016,-1.0986010008544937,28.65213966369629,0.08887854682074653,-0.09532144334581164
2959,-0.09384248521592882,0.1195312786102295,85.29141998291016,79.19493103027344,-4.339115142822266,89.09660339355469,-0.0050232781304253475,0.723,0.5064285714285715,0.0032958136664496527,-2.219172137329103,-0.3845106535644547,28.65213966369629,0.06773876614040798,-0.09373020595974392
2960,-0.1524362352159288,0.09960939407348633,85.27096557617188,78.9903564453125,-3.4594192504882812,88.29874420166016,-0.0050232781304253475,0.7163333333333334,0.5071428571428571,0.0021666632758246527,-2.1312853270263687,-0.08788933093261875,28.65213966369629,0.0697845458984375,-0.07509070502387152
2961,-0.3477487352159288,0.03984375953674316,85.29141998291016,79.07218933105469,-3.4389610290527344,88.40103149414062,-0.004114023844401042,0.713,0.5075,0.0020140753851996527,-1.2194467955322281,0.20873400568962097,28.65213966369629,0.0691025627983941,-0.07599991692437066
2962,-0.1993112352159288,0.07968751907348633,85.29141998291016,79.4813461303711,-3.868579864501953,89.36256408691406,-0.004114023844401042,0.7073333333333334,0.5075,0.0018920050726996527,-1.6808592253417984,0.8569080233573914,28.65213966369629,0.06455637613932291,-0.09145715501573351
2963,-0.3125924852159288,0.07968751907348633,85.31187438964844,79.62455749511719,-3.8481216430664062,89.17843627929688,-0.0007043626573350694,0.7003333333333334,0.5071428571428571,0.000213623046875,-2.142269747802736,0.9777539968490601,28.65213966369629,0.06319240993923611,-0.08918397691514757
2964,-0.2696237352159288,0.09960939407348633,85.29141998291016,79.4404296875,-3.8481216430664062,88.97386169433594,0.09681209988064236,0.6966666666666667,0.5071428571428571,0.000335693359375,-1.9774805479736344,-0.856909411499025,28.65213966369629,0.06501100328233507,-0.08691092597113716
2965,-0.3125924852159288,0.07968751907348633,85.16867065429688,77.333251953125,-3.868579864501953,89.05569458007812,-0.00297745598687066,0.6916666666666667,0.5071428571428571,-0.000244140625,-2.0214239531250016,-0.9118391447753922,28.65213966369629,0.08706020779079861,-0.08804749382866753
2966,-0.2149362352159288,0.1195312786102295,85.25050354003906,78.66302490234375,-3.8481216430664062,88.87156677246094,-0.001613616943359375,0.6856666666666666,0.5071428571428571,-0.001129150390625,-2.1202989989013687,0.2526780068874359,30.673608779907227,0.07319420708550348,-0.0857743157280816
2967,-0.1641549852159288,0.1195312786102295,85.25050354003906,79.19493103027344,-3.8276634216308594,88.93293762207031,-0.003204769558376736,0.68,0.5071428571428571,-6.103515625e-05,-1.7467752867431656,1.2963480949401855,30.937278747558594,0.06728413899739584,-0.08622890048556858
2968,-0.1954049852159288,0.05976563930511475,85.37325286865234,79.23585510253906,-3.8481216430664062,88.78973388671875,-0.0022955152723524307,0.6766666666666666,0.5071428571428571,0.0024413214789496527,-1.3512789183349625,2.3180460929870605,30.937278747558594,0.0681933085123698,-0.08486506144205729
2969,-0.1563424852159288,0.07968751907348633,85.96653747558594,79.74729919433594,-3.8481216430664062,88.81019592285156,0.0017960866292317708,0.6703333333333333,0.5067857142857143,0.004150221082899305,-1.4391657286376969,3.218898057937622,30.937278747558594,0.06910264756944444,-0.08509241739908854
2970,-0.11337373521592882,0.07968751907348633,86.84622192382812,81.40440368652344,-4.011787414550781,89.26026916503906,0.0011141459147135417,0.669,0.5064285714285715,0.0067441304524739586,-1.1864878111572281,2.285088062286377,30.937278747558594,0.0604646470811632,-0.09191173977322048
2971,-0.2305612352159288,0.03984375953674316,88.31919860839844,81.19981384277344,-4.154991149902344,89.44439697265625,0.0015687730577256945,0.663,0.5060714285714286,0.008421239208984351,-1.9225508146972672,2.6915700435638428,30.937278747558594,0.07910427517361111,-0.0955487569173177
2972,-0.09774873521592882,0.1195312786102295,87.0098876953125,80.34058380126953,-4.154991149902344,88.87156677246094,0.006342273288302952,0.657,0.5053571428571428,0.008360204052734351,-1.8346620970459,0.3405660092830658,30.937278747558594,0.07410337660047743,-0.08918397691514757
2973,-0.03134248521592882,0.13945316314697265,86.31431579589844,79.05172729492188,-4.175449371337891,89.23981475830078,0.008842722574869791,0.6516666666666666,0.5046428571428572,0.009855480609809003,-0.9338098936767594,-1.3622652464599625,30.937278747558594,0.08069542778862847,-0.09350293477376302
2974,0.015532487006293474,0.13945316314697265,86.21202850341797,78.51982116699219,-4.175449371337891,88.81019592285156,0.012707010904947916,0.6473333333333333,0.5035714285714286,0.010648937641059003,-0.6921183043212906,-1.0876146727294937,36.29856872558594,0.0854689704047309,-0.0887293921576606
2975,-0.00399873521592882,0.09960939407348633,86.23248291015625,78.37661743164062,-4.236824035644531,89.30118560791016,0.028164164225260416,0.6403333333333333,0.5028571428571429,0.009306164203559003,-0.9447962218017594,-0.5383154326171891,37.00168991088867,0.08728739420572916,-0.0948667738172743
2976,0.011626237006293474,0.15937503814697265,86.23248291015625,78.76531982421875,-3.7867469787597656,88.83065795898438,0.006114959716796875,0.6356666666666667,0.5021428571428571,0.009458752094184003,-0.7909933500976578,-0.3295809202880875,37.00168991088867,0.08296847873263889,-0.08463783264160156
2977,0.019438737006293474,0.13945316314697265,86.29386138916016,79.542724609375,-4.154991149902344,88.81019592285156,0.02179942660861545,0.6306666666666667,0.5021428571428571,0.009367199359809003,-0.12084640795898594,0.05493000149726868,37.00168991088867,0.07501263088650173,-0.08850207858615451
2978,0.03896998700629347,0.15937503814697265,86.33477783203125,79.76776123046875,-4.154991149902344,88.83065795898438,0.02066290113661024,0.626,0.5014285714285714,0.010374279437934003,0.26366400718688965,-0.3625379973144547,37.00168991088867,0.07296685112847222,-0.08872943454318577
2979,0.023344987006293474,0.17929691314697266,86.33477783203125,79.93142700195312,-4.1959075927734375,89.05569458007812,0.032937706841362845,0.622,0.5003571428571428,0.009275646625434003,0.3954960107803345,-0.09887375170898594,37.00168991088867,0.0711483425564236,-0.09168446858723958
2980,0.023344987006293474,0.15937503814697265,86.31431579589844,79.17447662353516,-4.216365814208984,89.40347290039062,0.02680028279622396,0.619,0.49892857142857144,0.009092625927734351,-0.18676246936035312,-0.3076082640380875,37.17747116088867,0.07933154635959201,-0.09577598571777343
2981,0.007719987006293473,0.15937503814697265,86.33477783203125,79.70639038085938,-4.318656921386719,89.38301849365234,0.04930407206217448,0.616,0.49785714285714283,0.008207616162109351,-0.19774879748535312,-0.3405672484130875,37.17747116088867,0.07364874945746527,-0.09668528238932292
2982,-0.01571748521592882,0.1195312786102295,87.86912536621094,82.69325256347656,-4.318656921386719,89.50576782226562,0.002705298529730903,0.613,0.49642857142857144,0.0072934468587239586,-0.4504267149658219,-0.9997259550781266,37.17747116088867,0.057509697808159725,-0.09804916381835938
2983,-0.04306123521592882,0.13945316314697265,87.84866333007812,80.38150024414062,-4.257282257080078,89.44439697265625,0.0024779849582248262,0.6073333333333333,0.4957142857142857,0.005645582411024305,-0.7909933500976578,-1.0107122832031266,37.17747116088867,0.08296847873263889,-0.09668532477484809
2984,-0.1368112352159288,0.13945316314697265,88.27828979492188,81.69081115722656,-4.277740478515625,89.03523254394531,0.004751120673285591,0.6053333333333333,0.495,0.0013121710883246527,-1.0107122832031266,-1.538040774414064,37.17747116088867,0.07319420708550348,-0.09236636691623264
2985,-0.1875924852159288,0.13945316314697265,85.61874389648438,79.15402221679688,-4.298198699951172,89.23981475830078,0.0024779849582248262,0.6016666666666667,0.49464285714285716,-0.00164794921875,-0.9997259550781266,-2.548752444335939,37.00168991088867,0.07183024088541666,-0.09486681620279948
2986,-0.10556123521592882,0.13945316314697265,86.15065002441406,78.27432250976562,-4.298198699951172,89.19889831542969,0.004751120673285591,0.5976666666666667,0.49392857142857144,-0.000518798828125,-0.845923083374025,-3.1200243406982437,37.00168991088867,0.08751475016276042,-0.09441218905978732
2987,0.007719987006293473,0.13945316314697265,86.27340698242188,79.46089172363281,-4.298198699951172,89.05569458007812,0.0049784342447916664,0.5923333333333334,0.4942857142857143,0.0015868292914496527,-1.4721247130126969,-3.0980535917968766,37.17747116088867,0.07569461398654515,-0.09282103644476997
2988,0.031157487006293474,0.13945316314697265,84.90271759033203,78.23341369628906,-4.298198699951172,88.97386169433594,0.003841866387261285,0.5886666666666667,0.4942857142857143,0.000396728515625,-1.2853628569335953,-4.35045685107422,37.17747116088867,0.07410337660047743,-0.09191178215874565
2989,0.05459498700629347,0.17929691314697266,84.96409606933594,76.82180786132812,-4.298198699951172,89.36256408691406,-0.006387117173936632,0.5833333333333334,0.49392857142857144,-0.000518798828125,-0.9997259550781266,-2.471850054809572,37.17747116088867,0.09046986897786459,-0.09623069763183593
2990,0.019438737006293474,0.09960939407348633,86.62118530273438,80.23829650878906,-4.277740478515625,88.6669921875,-0.0050232781304253475,0.5793333333333334,0.49392857142857144,-0.0033568488226996527,-1.120571749755861,1.1864880323410034,37.17747116088867,0.07092098659939236,-0.08827480740017361
2991,-0.03134248521592882,0.09960939407348633,86.64164733886719,82.89783477783203,-4.298198699951172,88.76927947998047,-0.0050232781304253475,0.5736666666666667,0.49392857142857144,-0.0035704718695746527,-0.6152159147949234,1.6039559841156006,37.17747116088867,0.04159791734483507,-0.0896386464436849
2992,0.007719987006293473,0.1195312786102295,86.43707275390625,78.8880615234375,-4.257282257080078,89.19889831542969,-0.0054779052734375,0.567,0.4932142857142857,-0.001861572265625,-0.812964098999025,0.4943700134754181,37.17747116088867,0.08387790256076388,-0.09395756191677518
2993,0.023344987006293474,0.25898443222045897,86.31431579589844,77.86516571044922,-4.277740478515625,88.89202880859375,-0.0066144307454427086,0.5623333333333334,0.4928571428571429,-0.000396728515625,-0.9997259550781266,0.9008520245552063,37.17747116088867,0.09387944539388021,-0.09077521430121528
2994,0.03506373700629347,0.19921878814697266,87.97142028808594,80.15646362304688,-4.298198699951172,89.03523254394531,-0.004795964558919271,0.5573333333333333,0.4928571428571429,0.0007018195258246528,-1.0656420164794937,1.922550082206726,37.17747116088867,0.08683285183376736,-0.09259368048773872
2995,0.03896998700629347,0.219140682220459,87.33721923828125,79.87004852294922,-4.277740478515625,89.13752746582031,-0.005705218844943577,0.5506666666666666,0.4928571428571429,0.0017699347601996527,-1.2194467955322281,0.6152160167694092,36.0349006652832,0.08296856350368924,-0.0935029771592882
2996,0.023344987006293474,0.219140682220459,87.33721923828125,79.8905029296875,-4.277740478515625,89.26026916503906,-0.0050232781304253475,0.5486666666666666,0.49214285714285716,0.0010985480414496527,-1.0326849394531266,0.05493000149726868,36.0349006652832,0.08274129231770834,-0.0948667738172743
2997,0.023344987006293474,0.19921878814697266,86.29386138916016,79.25630950927734,-4.3595733642578125,89.28073120117188,-0.0050232781304253475,0.544,0.49142857142857144,0.0007628546820746528,-0.7909933500976578,-1.164517062255861,36.0349006652832,0.0781950208875868,-0.09600338406032986
2998,0.04678248700629347,0.19921878814697266,85.41416931152344,76.78089141845703,-4.298198699951172,89.42393493652344,-0.004114023844401042,0.538,0.49,0.0007933722601996528,-1.3073355131835953,-0.801977770874025,35.8591194152832,0.09592530992296007,-0.09691259596082899
2999,0.031157487006293474,0.17929691314697266,85.5164566040039,79.37905883789062,-4.277740478515625,89.30118560791016,-0.004114023844401042,0.533,0.48964285714285716,-0.0001220703125,-1.3402925902099625,0.24169200658798218,35.8591194152832,0.0681933085123698,-0.09532140096028646
3000,-0.01181123521592882,0.15937503814697265,85.78240966796875,79.4404296875,-4.236824035644531,89.0761489868164,-0.001613616943359375,0.5286666666666666,0.48928571428571427,-0.002166748046875,-1.3622652464599625,0.5273280143737793,35.8591194152832,0.07046644422743055,-0.09236636691623264
3001,-0.02743623521592882,0.15937503814697265,84.61630249023438,76.16715240478516,-4.216365814208984,89.09660339355469,-0.0011589898003472221,0.5213333333333333,0.48928571428571427,-0.0028685675726996527,-1.549027102539064,0.747048020362854,35.8591194152832,0.09387944539388021,-0.09236632453070746
3002,-0.01962373521592882,0.17929691314697266,84.71859741210938,78.9494400024414,-4.175449371337891,88.68744659423828,-0.0009316762288411458,0.5146666666666667,0.48892857142857143,-0.002166748046875,-1.164517062255861,0.9557820558547974,35.8591194152832,0.06410174899631077,-0.08736551072862413
3003,-9.248521592881944e-05,0.19921878814697266,84.61630249023438,77.78333282470703,-4.11407470703125,88.70790100097656,-2.242194281684028e-05,0.51,0.48857142857142855,-0.000946044921875,-0.6481748991699234,1.032684087753296,35.8591194152832,0.07592188517252604,-0.08691084120008681
3004,-0.01181123521592882,0.19921878814697266,84.75950622558594,78.540283203125,-4.093616485595703,89.0761489868164,0.0072515275743272566,0.5046666666666667,0.4878571428571429,-0.000885009765625,-0.5273291044921891,2.1642420291900635,35.8591194152832,0.06910247802734375,-0.09077517191569011
3005,-0.06649873521592882,0.19921878814697266,84.71859741210938,76.8831787109375,-4.032245635986328,89.0147705078125,0.014070849948459202,0.49833333333333335,0.48714285714285716,-0.0024718390570746527,-0.7690206938476578,2.8014299869537354,35.8591194152832,0.08706020779079861,-0.08941129048665365
3006,-0.08212373521592882,0.15937503814697265,85.76194763183594,79.93142700195312,-3.9708709716796875,88.97386169433594,0.009297349717881945,0.49466666666666664,0.48678571428571427,-0.000518798828125,-0.6481748991699234,3.5814361572265625,35.8591194152832,0.06478356255425347,-0.08827480740017361
3007,-0.1797799852159288,0.07968751907348633,86.62118530273438,81.17935943603516,-3.9708709716796875,89.1170654296875,0.011115815904405382,0.48933333333333334,0.4860714285714286,0.0006713019476996528,-1.164517062255861,4.0977783203125,35.8591194152832,0.060464731852213544,-0.08986596001519097
3008,-0.2071237352159288,0.09960939407348633,86.19157409667969,79.58363342285156,-3.9708709716796875,89.03523254394531,0.027027596367730035,0.484,0.4857142857142857,0.0021361456976996527,-1.2304331236572281,3.4825620651245117,35.8591194152832,0.07342156304253472,-0.08895670572916667
3009,-0.1524362352159288,0.1195312786102295,86.98943328857422,81.07707214355469,-3.7662887573242188,88.46240997314453,0.023845248752170138,0.478,0.4857142857142857,0.004058668348524305,-1.3622652464599625,2.04339599609375,35.8591194152832,0.06569290161132812,-0.0803188747829861
3010,-0.06259248521592882,0.15937503814697265,86.94851684570312,80.05416870117188,-3.9708709716796875,89.1579818725586,0.007933468288845487,0.47333333333333333,0.4853571428571429,0.0065305074055989586,-1.2853628569335953,-0.09887375170898594,35.8591194152832,0.07660386827256944,-0.09032058715820312
3011,-0.06259248521592882,0.13945316314697265,85.70057678222656,78.56073760986328,-4.380031585693359,89.38301849365234,0.0031599256727430558,0.4673333333333333,0.48428571428571426,0.0063779195149739586,-1.7138163023681656,0.373524010181427,35.8591194152832,0.07933154635959201,-0.09736722310384115
3012,-0.1641549852159288,0.05976563930511475,85.49600219726562,78.76531982421875,-5.402931213378906,89.99675750732422,-0.0009316762288411458,0.46266666666666667,0.48142857142857143,0.006194898817274305,-1.8236757689209,-0.7031046324462906,35.8591194152832,0.07478535970052083,-0.11555209689670139
3013,-0.05087373521592882,0.13945316314697265,84.80043029785156,76.41264343261719,-5.034687042236328,91.20378112792969,-0.0034320831298828127,0.4573333333333333,0.4789285714285714,0.006072828504774305,-2.3510042601318375,-0.20873512561035312,35.7712287902832,0.0931976318359375,-0.12487186855740018
3014,-0.1289987352159288,0.13945316314697265,84.98455047607422,78.80622863769531,-4.932395935058594,90.03767395019531,-0.0002497355143229167,0.454,0.47464285714285714,0.0029906378851996527,-2.482836382934572,0.08788800239562988,35.7712287902832,0.0686480204264323,-0.11077855428059896
3015,-0.1329049852159288,0.13945316314697265,85.20958709716797,79.4404296875,-6.282623291015625,92.34942626953125,0.006796900431315104,0.4503333333333333,0.4714285714285714,0.0026549445258246527,-2.845373766967775,-0.04394401843261875,35.7712287902832,0.06410174899631077,-0.1514672173394097
3016,-0.2227487352159288,0.09960939407348633,85.1072998046875,79.29722595214844,-6.262165069580078,91.85843658447266,0.012252383761935763,0.44866666666666666,0.4660714285714286,0.0014037238226996527,-3.548477786132814,-0.3405672484130875,35.7712287902832,0.06455637613932291,-0.14578446282280816
3017,-0.1407174852159288,0.09960939407348633,84.69813537597656,76.330810546875,-6.609951019287109,92.92225646972656,0.012707010904947916,0.44566666666666666,0.46285714285714286,0.0034788343641493054,-4.625107424804689,-0.6262022429199234,35.7712287902832,0.09297027587890624,-0.1614689721001519
3018,-0.06259248521592882,0.07968751907348633,86.35523986816406,80.23829650878906,-6.528118133544922,91.44927978515625,0.007478841145833333,0.44166666666666665,0.4592857142857143,0.005676099989149305,-4.592148440429689,-0.17577614123535312,35.7712287902832,0.0679660373263889,-0.1441933102077908
3019,-0.1368112352159288,0.05976563930511475,85.08683776855469,77.27188110351562,-6.466747283935547,92.43125915527344,-0.002068201700846354,0.43566666666666665,0.4567857142857143,0.003997633192274305,-4.965672152587892,-0.4504267149658219,35.7712287902832,0.08683285183376736,-0.15442229376898872
3020,-0.04306123521592882,0.03984375953674316,85.78240966796875,78.9494400024414,-5.791633605957031,90.46729278564453,-0.004568650987413194,0.43066666666666664,0.45535714285714285,0.005584547254774305,-4.855812686035158,0.2526780068874359,35.7712287902832,0.07592188517252604,-0.12509918212890625
3021,-0.3047799852159288,0.01992187976837158,86.19157409667969,79.97233581542969,-5.689342498779297,91.42881774902344,-0.004114023844401042,0.42633333333333334,0.4542857142857143,0.004638502332899305,-5.020601885864259,0.9118380546569824,35.7712287902832,0.06910264756944444,-0.13464622497558593
3022,-0.1797799852159288,0.05976563930511475,86.62118530273438,79.80867004394531,-5.771175384521484,90.32408142089844,-0.005250591701931423,0.42133333333333334,0.45321428571428574,0.0038145277235243054,-4.669050829956056,0.5383139848709106,35.7712287902832,0.07569461398654515,-0.12328063117133246
3023,-0.2305612352159288,0.07968751907348633,86.53935241699219,80.13600158691406,-5.8120880126953125,90.99920654296875,-0.004795964558919271,0.416,0.4525,0.0015563117133246527,-4.37242950732422,-0.6371885710449234,35.7712287902832,0.0711483425564236,-0.13123660617404515
3024,-0.1602487352159288,0.07968751907348633,84.67768096923828,76.9854736328125,-5.934837341308594,91.49018859863281,-0.003204769558376736,0.411,0.4492857142857143,0.0016173468695746527,-4.196652072021486,-1.2743765288085953,35.7712287902832,0.0854689704047309,-0.13805584377712674
3025,0.015532487006293474,0.13945316314697265,86.19157409667969,80.97477722167969,-5.689342498779297,91.0196533203125,-0.009114880032009548,0.4046666666666667,0.44785714285714284,0.005706617567274305,-4.515246050903322,-0.9887415343017594,35.7712287902832,0.05796440972222222,-0.13009995354546441
3026,-0.1329049852159288,0.07968751907348633,86.08927917480469,78.96989440917969,-5.914379119873047,91.55156707763672,-0.003886710272894965,0.40066666666666667,0.44535714285714284,0.0012511359320746527,-4.3834139281005875,-0.2746511870117203,35.7712287902832,0.07910427517361111,-0.13851051330566405
3027,-0.2227487352159288,0.09960939407348633,86.04837036132812,78.51982116699219,-5.791633605957031,90.6309585571289,-0.002750142415364583,0.3953333333333333,0.4442857142857143,-0.001800537109375,-4.4163729124755875,-0.21972145373535312,35.7712287902832,0.08365054660373264,-0.12691769070095485
3028,-0.2579049852159288,0.07968751907348633,86.0688247680664,79.4404296875,-5.7507171630859375,90.1195068359375,-0.0011589898003472221,0.392,0.44285714285714284,-0.001617431640625,-4.075806277343752,-0.5053564482421891,35.7712287902832,0.07364883422851562,-0.12078026665581597
3029,-0.10946748521592882,0.05976563930511475,85.94607543945312,77.86516571044922,-5.096061706542969,41.900001525878906,-0.004795964558919271,0.3873333333333333,0.4421428571428571,0.0011290656195746527,-3.943974154541017,-0.845923083374025,35.7712287902832,0.08978788587782117,0.42226596408420136
3030,-0.10556123521592882,0.05976563930511475,85.61874389648438,79.41996765136719,-5.771175384521484,90.20133972167969,0.0024779849582248262,0.382,0.44142857142857145,0.00030517578125,-3.7242552214355484,-1.3402925902099625,35.7712287902832,0.0688752916124132,-0.12191683451334635
3031,-0.06259248521592882,0.13945316314697265,85.74149322509766,79.84959411621094,-5.607509613037109,90.52867126464844,0.003387239244249132,0.378,0.44035714285714284,-0.000885009765625,-4.36144317919922,-0.4614130430908219,35.7712287902832,0.06546554565429688,-0.12373534308539497
3032,-0.1368112352159288,0.1195312786102295,85.74149322509766,78.82669067382812,-5.689342498779297,41.900001525878906,0.0036145528157552082,0.37366666666666665,0.4382142857142857,-0.0031127081976996527,-3.3287588530273453,0.23070600628852844,35.7712287902832,0.07683113945855034,0.4156739552815755
3033,-0.1563424852159288,0.1195312786102295,85.25050354003906,78.58119201660156,-5.3620147705078125,89.99675750732422,-0.003204769558376736,0.368,0.43642857142857144,-0.004333411322699653,-3.284815447875978,-0.2526785307617203,35.7712287902832,0.07410346137152778,-0.11509746975368923
3034,-0.1289987352159288,0.13945316314697265,85.63920593261719,78.25386810302734,-5.1983489990234375,90.6309585571289,-0.0054779052734375,0.364,0.4342857142857143,-0.003997717963324653,-2.7465006285400406,0.20873400568962097,35.7712287902832,0.08205930921766492,-0.12032563951280383
3035,-0.11337373521592882,0.15937503814697265,85.68012237548828,78.58119201660156,-5.1983489990234375,41.900001525878906,-0.004568650987413194,0.3586666666666667,0.43214285714285716,-0.0035094367133246527,-2.208185809204103,0.9447960257530212,35.7712287902832,0.07887700398763021,0.4211294386121962
3036,-0.1797799852159288,0.13945316314697265,85.76194763183594,79.17447662353516,-5.177890777587891,89.2193603515625,-0.003204769558376736,0.3546666666666667,0.42892857142857144,-0.005004798041449653,-1.4721247130126969,1.9005780220031738,35.7712287902832,0.07319412231445313,-0.10441390143500434
3037,-0.1524362352159288,0.15937503814697265,87.1121826171875,80.42241668701172,-4.605068206787109,90.93782806396484,-0.005705218844943577,0.3516666666666667,0.42607142857142855,-0.0032652960883246527,-0.7360617094726578,1.5160679817199707,35.7712287902832,0.07433073255750867,-0.11714329189724393
3038,-0.1407174852159288,0.13945316314697265,86.47798156738281,80.9952392578125,-5.136974334716797,89.38301849365234,-0.0054779052734375,0.348,0.42178571428571426,-0.00189208984375,-0.6921183043212906,0.12084600329399109,39.98994827270508,0.06091935899522569,-0.10577769809299045
3039,-0.1524362352159288,0.13945316314697265,86.68256378173828,80.4837875366211,-4.7482757568359375,90.46729278564453,-0.002522828843858507,0.3446666666666667,0.41964285714285715,-0.0023497687445746527,-1.0216986113281266,0.05493000149726868,40.07783889770508,0.0688752916124132,-0.11350631713867188
3040,-0.1719674852159288,0.13945316314697265,86.5188980102539,81.13844299316406,-6.078044891357422,90.6309585571289,0.0031599256727430558,0.3426666666666667,0.41678571428571426,-0.0031127081976996527,-0.9557825499267594,-1.4062086516113297,40.07783889770508,0.05978283352322049,-0.13010003831651476
3041,-0.1289987352159288,0.1195312786102295,84.96409606933594,77.537841796875,-5.505218505859375,90.50820922851562,0.0040691799587673615,0.339,0.415,-0.0023192511664496527,-1.9664942198486344,-1.3512789183349625,40.07783889770508,0.08251393636067708,-0.12237141927083334
3042,-0.09774873521592882,0.1195312786102295,86.19157409667969,80.62699890136719,-5.280181884765625,91.34698486328125,0.010206561618381077,0.3363333333333333,0.41285714285714287,-0.00164794921875,-1.8786074095459,-0.7470480375976578,40.25362014770508,0.06182861328125,-0.12919074164496527
3043,-0.09774873521592882,0.09960939407348633,86.25294494628906,79.19493103027344,-5.055145263671875,41.900001525878906,0.011797756618923612,0.3333333333333333,0.4110714285714286,-0.00140380859375,-2.856360095092775,-1.2084604674072281,40.25362014770508,0.07842237684461806,0.42272059122721356
3044,-0.11337373521592882,0.1195312786102295,84.80043029785156,78.09020233154297,-6.487205505371094,92.14485168457031,0.008160781860351563,0.332,0.4075,-0.004180823432074653,-3.0650946074218766,-2.0433966093750016,40.25362014770508,0.07455808851453993,-0.15146730211046006
3045,-0.09384248521592882,0.13945316314697265,85.29141998291016,78.8880615234375,-6.098503112792969,91.91981506347656,0.004751120673285591,0.3283333333333333,0.4035714285714286,-0.005401441786024305,-4.185667651245119,-0.9997259550781266,43.417659759521484,0.07114842732747396,-0.14464797973632812
3046,-0.1446237352159288,0.13945316314697265,85.37325286865234,79.05172729492188,-6.343997955322266,92.51309204101562,0.0056603749593098955,0.32666666666666666,0.4014285714285714,-0.007903883192274306,-4.3944002562255875,0.0,43.417659759521484,0.07023917304144965,-0.15396766662597655
3047,-0.1368112352159288,0.1195312786102295,85.41416931152344,78.92898559570312,-6.7531585693359375,92.32897186279297,-0.0022955152723524307,0.325,0.39785714285714285,-0.006866285536024305,-5.031588213989259,0.010986000299453735,43.417659759521484,0.07205759684244792,-0.1564681159125434
3048,-0.10556123521592882,0.09960939407348633,85.39370727539062,41.900001525878906,-6.5894927978515625,91.49018859863281,-0.003886710272894965,0.32233333333333336,0.3960714285714286,-0.005035315619574653,-5.624832766601564,0.09887400269508362,43.417659759521484,0.4832633972167969,-0.14532979329427084
3049,0.011626237006293474,0.07968751907348633,85.39370727539062,78.8880615234375,-8.758041381835938,91.94026947021484,-0.0054779052734375,0.31966666666666665,0.3939285714285714,-0.001129150390625,-5.009617465087892,-0.3845106535644547,43.505550384521484,0.07228495279947916,-0.17442567613389756
3050,0.10537623700629348,0.07968751907348633,84.5958480834961,81.4453125,-7.100944519042969,91.94026947021484,-0.0034320831298828127,0.31466666666666665,0.3921428571428571,0.0010680304633246527,-5.317225115844728,0.032958000898361206,43.505550384521484,0.035005950927734376,-0.15601348876953125
3051,-9.248521592881944e-05,0.05976563930511475,86.90760040283203,41.900001525878906,-7.121402740478516,91.49018859863281,0.0004322052001953125,0.311,0.39071428571428574,-0.0020751953125,-5.580889361450197,1.4391660690307617,43.417659759521484,0.5000844319661458,-0.15123990376790364
3052,-0.2149362352159288,0.07968751907348633,84.61630249023438,78.80622863769531,-6.466747283935547,91.59248352050781,0.0020233578152126738,0.30566666666666664,0.3896428571428571,-0.006591627332899305,-5.822580950805666,1.307334065437317,41.57196807861328,0.06455637613932291,-0.14510256449381512
3053,-0.2422799852159288,0.05976563930511475,84.80043029785156,79.4813461303711,-6.405372619628906,91.79705810546875,-0.00297745598687066,0.301,0.3892857142857143,-0.005431959364149305,-5.350182192871095,1.5929700136184692,41.57196807861328,0.05910093519422743,-0.1466936747233073
3054,-0.1485299852159288,0.1195312786102295,85.27096557617188,75.61478424072266,-6.2007904052734375,90.48774719238281,0.0008868323432074653,0.2946666666666667,0.3875,-0.004516516791449653,-5.877510684082033,0.4723980128765106,41.57196807861328,0.10729090372721355,-0.12987263997395834
3055,-0.08602998521592882,0.09960939407348633,83.75706481933594,78.74485778808594,-5.771175384521484,91.30607604980469,-0.004568650987413194,0.2906666666666667,0.38571428571428573,-0.001312255859375,-5.635819094726564,0.16479000449180603,41.57196807861328,0.05569118923611111,-0.13419168260362413
3056,-0.07821748521592882,0.07968751907348633,83.79798889160156,76.96501159667969,-6.1394195556640625,90.79461669921875,-0.00047704908582899306,0.285,0.3846428571428571,-0.00091552734375,-5.152434008666994,0.04394400119781494,41.57196807861328,0.07592196994357639,-0.13260040283203126
3057,-0.07431123521592882,0.07968751907348633,85.31187438964844,78.92898559570312,-5.423389434814453,89.99675750732422,-0.004114023844401042,0.279,0.38285714285714284,-0.0008544921875,-5.009617465087892,1.5929700136184692,41.57196807861328,0.07092098659939236,-0.11577941046820747
3058,-0.1954049852159288,0.15937503814697265,85.0050048828125,78.540283203125,-5.791633605957031,89.62850952148438,0.006342273288302952,0.27166666666666667,0.3817857142857143,-0.007507154676649305,-4.548205035278322,2.054382085800171,41.48408126831055,0.07183024088541666,-0.11577936808268229
3059,-0.12118623521592882,0.07968751907348633,85.02546691894531,80.42241668701172,-4.932395935058594,90.95828247070312,-0.0034320831298828127,0.26866666666666666,0.3796428571428571,0.0008238898383246528,-3.6363665037841812,1.0546560287475586,41.48408126831055,0.05114500257703993,-0.12100753784179688
3060,0.007719987006293473,0.1195312786102295,88.42149353027344,80.97477722167969,-5.341556549072266,90.13996887207031,-0.0013863033718532986,0.264,0.37785714285714284,0.005645582411024305,-3.196926730224611,2.5597381591796875,41.48408126831055,0.08274129231770834,-0.11646139356825087
3061,-0.05477998521592882,0.15937503814697265,87.31675720214844,79.60409545898438,-5.239265441894531,90.81507873535156,0.008842722574869791,0.2613333333333333,0.37464285714285717,0.0037840101453993054,-3.515520709106447,1.4831100702285767,41.48408126831055,0.0856962415907118,-0.12282604641384548
3062,-0.09384248521592882,0.17929691314697266,87.29630279541016,79.80867004394531,-5.402931213378906,90.30363464355469,0.011570443047417535,0.258,0.37214285714285716,0.0024108039008246527,-3.251856463500978,1.1315580606460571,41.57196807861328,0.08319591946072048,-0.11896184285481771
3063,-0.06649873521592882,0.17929691314697266,87.31675720214844,80.72928619384766,-5.321098327636719,90.97874450683594,0.006796900431315104,0.25566666666666665,0.3703571428571429,0.004363844129774305,-3.1529833250732437,0.5822579860687256,42.099308013916016,0.07319412231445313,-0.1255538092719184
3064,-0.07431123521592882,0.15937503814697265,87.82821655273438,82.20226287841797,-5.423389434814453,91.14241027832031,0.017480553521050348,0.25333333333333335,0.36642857142857144,0.005218336317274305,-3.0211512022705094,1.0766279697418213,42.275089263916016,0.0625105963812934,-0.1285088857014974
3065,-0.1407174852159288,0.13945316314697265,84.47309875488281,79.37905883789062,-5.423389434814453,90.69232940673828,0.0295280032687717,0.24966666666666668,0.36428571428571427,0.0029296027289496527,-3.273829119750978,0.010986000299453735,42.275089263916016,0.05660044352213542,-0.12350798712836372
3066,-0.10556123521592882,0.09960939407348633,85.31187438964844,80.36103820800781,-5.44384765625,90.34454345703125,0.05407761467827691,0.24766666666666667,0.3632142857142857,0.005554029676649305,-3.4056612425537125,-0.5712725096435562,42.275089263916016,0.05500929090711806,-0.11987101236979167
3067,-0.07040498521592882,0.07968751907348633,83.69569396972656,79.31768798828125,-4.543693542480469,89.50576782226562,0.01247969733344184,0.24466666666666667,0.3625,0.0064389546712239586,-4.306513445922853,-1.7028299742431656,42.275089263916016,0.04864451090494792,-0.10054957071940104
3068,-0.09384248521592882,0.05976563930511475,85.72103881835938,81.87493133544922,-4.686901092529297,90.87644958496094,0.012252383761935763,0.24166666666666667,0.3632142857142857,0.005248853895399305,-4.075806277343752,-0.15380539233398594,42.275089263916016,0.042734527587890626,-0.11737056308322483
3069,-0.09384248521592882,0.07968751907348633,88.1555404663086,77.537841796875,-5.300640106201172,89.58760070800781,0.01770782470703125,0.238,0.3632142857142857,0.005523512098524305,-4.152708666870119,0.6371880173683167,42.275089263916016,0.11797442966037326,-0.10986934238009982
3070,-0.08993623521592882,0.1195312786102295,85.35279846191406,80.87248992919922,-4.461860656738281,89.48530578613281,0.0049784342447916664,0.234,0.36357142857142855,0.003936598036024305,-4.4163729124755875,-1.0107122832031266,42.362979888916016,0.04978120591905382,-0.09941296047634549
3071,-0.1758737352159288,0.15937503814697265,86.72348022460938,81.34302520751953,-4.932395935058594,90.71278381347656,0.0072515275743272566,0.231,0.36392857142857143,-0.001800537109375,-3.7901712828369156,-0.3295809202880875,45.966468811035156,0.05978283352322049,-0.11827977498372395
3072,-0.2344674852159288,0.13945316314697265,86.58027648925781,77.68104553222656,-6.4462890625,90.59004211425781,-0.0013863033718532986,0.22766666666666666,0.36357142857142855,-0.004791174994574653,-3.570450442382814,-1.9994532042236344,46.318031311035156,0.0988803439670139,-0.1337370130750868
3073,-0.2188424852159288,0.13945316314697265,85.86424255371094,79.9518814086914,-5.8120880126953125,91.04011535644531,-0.005250591701931423,0.22433333333333333,0.36357142857142855,-0.005706617567274305,-4.559191363403322,-2.4498793059082047,46.40591812133789,0.06569290161132812,-0.13169114854600694
3074,-0.2032174852159288,0.13945316314697265,85.94607543945312,78.74485778808594,-5.566593170166016,90.46729278564453,-0.005250591701931423,0.22033333333333333,0.36392857142857143,-0.006622144911024305,-5.119476931640627,-2.471850054809572,46.40591812133789,0.08001352945963541,-0.12259873284233941
3075,-0.1993112352159288,0.1195312786102295,83.0410385131836,78.00836944580078,-5.484760284423828,90.1195068359375,-0.002522828843858507,0.21566666666666667,0.3653571428571429,-0.007598707411024305,-5.086517947265627,-1.6698728972167984,46.40591812133789,0.05591854519314236,-0.11782519022623698
3076,-0.1875924852159288,0.1195312786102295,83.85935974121094,75.51249694824219,-4.932395935058594,90.59004211425781,-0.002750142415364583,0.211,0.36642857142857144,-0.008025868733723959,-4.767923968383791,-2.208185809204103,46.40591812133789,0.092742919921875,-0.11691597832573784
3077,-0.1329049852159288,0.1195312786102295,82.81600189208984,79.68592834472656,-5.136974334716797,88.99431610107422,-0.002522828843858507,0.20566666666666666,0.3678571428571429,-0.008392079671223959,-4.31749786669922,-1.7357889586181656,46.40591812133789,0.034778594970703125,-0.10145878261990017
3078,-0.07431123521592882,0.07968751907348633,84.88226318359375,79.21539306640625,-4.134532928466797,89.1170654296875,-2.242194281684028e-05,0.20166666666666666,0.36857142857142855,-0.006133863661024305,-3.867073672363283,-1.142544406005861,46.40591812133789,0.06296522352430556,-0.09168442620171441
3079,0.019438737006293474,0.07968751907348633,84.88226318359375,79.74729919433594,-4.4209442138671875,90.87644958496094,-0.0011589898003472221,0.199,0.3692857142857143,-0.004241858588324653,-3.0541082792968766,-0.4394403868408219,46.40591812133789,0.057055155436197914,-0.11441548665364583
3080,0.05068873700629347,0.09960939407348633,86.559814453125,77.333251953125,-4.993770599365234,90.13996887207031,0.00225067138671875,0.19633333333333333,0.36892857142857144,-0.0031737433539496527,-3.1090380125732437,-1.0876146727294937,46.318031311035156,0.10251736111111111,-0.11259710523817275
3081,0.10146998700629348,0.07968751907348633,83.98210144042969,76.45356750488281,-4.830104827880859,90.0785903930664,0.0011141459147135417,0.194,0.3692857142857143,-0.0029296027289496527,-4.031862872192384,-1.7028299742431656,46.142250061035156,0.08365037706163195,-0.11009661356608073
3082,0.031157487006293474,0.07968751907348633,83.85935974121094,82.0385971069336,-4.850563049316406,90.18087768554688,-0.0009316762288411458,0.19266666666666668,0.36892857142857144,-0.006469557020399305,-4.009890215942384,0.5602860450744629,46.054359436035156,0.02023069593641493,-0.11146045260959202
3083,-0.07821748521592882,0.13945316314697265,86.82576751708984,80.72928619384766,-5.1983489990234375,91.51065063476562,0.008615409003363715,0.189,0.36857142857142855,-0.010009511311848959,-3.4605909758300797,1.6259280443191528,46.054359436035156,0.06773868136935764,-0.1300999959309896
3084,-0.08602998521592882,0.1195312786102295,86.74394226074219,82.38638305664062,-5.423389434814453,91.26515197753906,0.0072515275743272566,0.18566666666666667,0.36714285714285716,-0.008727773030598959,-3.856087344238283,2.3290319442749023,45.966468811035156,0.04841732449001736,-0.12987268235948352
3085,-0.03915498521592882,0.09960939407348633,87.1121826171875,80.29966735839844,-5.730258941650391,91.20378112792969,0.0072515275743272566,0.183,0.36607142857142855,-0.004791174994574653,-4.031862872192384,1.8456480503082275,45.966468811035156,0.07569461398654515,-0.13260044521755643
3086,-0.00399873521592882,0.13945316314697265,87.05081176757812,79.66546630859375,-5.525676727294922,90.83554077148438,0.005205747816297743,0.17866666666666667,0.3657142857142857,-0.0024108039008246527,-4.614121096679689,1.4281799793243408,45.966468811035156,0.08205939398871528,-0.12623574998643664
3087,-0.01181123521592882,0.09960939407348633,84.6572265625,80.0950927734375,-5.382472991943359,90.44683837890625,0.0031599256727430558,0.17533333333333334,0.365,-0.001953125,-4.855812686035158,0.8019779920578003,45.966468811035156,0.050690375434027775,-0.120325681898329
3088,-0.01571748521592882,0.13945316314697265,86.04837036132812,81.36347961425781,-5.341556549072266,90.44683837890625,0.007478841145833333,0.16933333333333334,0.365,-0.001617431640625,-4.3944002562255875,1.219446063041687,46.054359436035156,0.052054341634114584,-0.11987105475531684
3089,-0.01181123521592882,0.15937503814697265,86.43707275390625,81.13844299316406,-5.014228820800781,89.30118560791016,0.001341459486219618,0.16433333333333333,0.36428571428571427,-0.000732421875,-4.185667651245119,1.1205720901489258,45.26335144042969,0.05887366400824653,-0.10350460476345485
3090,-0.00790498521592882,0.15937503814697265,86.76439666748047,77.10821533203125,-4.686901092529297,89.73080444335938,-0.0013863033718532986,0.16,0.36392857142857143,0.00048828125,-3.3067861967773453,0.373524010181427,45.26335144042969,0.10729090372721355,-0.10464117262098524
3091,-9.248521592881944e-05,0.15937503814697265,84.75950622558594,78.25386810302734,-4.605068206787109,90.32408142089844,-0.003204769558376736,0.156,0.3625,0.00042724609375,-2.6586119108886734,0.16479000449180603,45.17546081542969,0.07228486802842882,-0.11032388475206163
3092,-0.02352998521592882,0.15937503814697265,85.14820861816406,80.0950927734375,-4.768730163574219,90.2218017578125,0.0020233578152126738,0.152,0.3610714285714286,-0.00054931640625,-2.2741018706054703,1.1864880323410034,45.17546081542969,0.056145731608072916,-0.1110059102376302
3093,-0.02743623521592882,0.17929691314697266,85.57783508300781,79.33814239501953,-4.8096466064453125,90.34454345703125,0.0002048916286892361,0.149,0.3582142857142857,0.00018310546875,-2.197201388427736,1.0766279697418213,45.17546081542969,0.06932991875542535,-0.11282433403862847
3094,-0.01571748521592882,0.13945316314697265,84.16622924804688,78.33570098876953,-4.789188385009766,90.05813598632812,-0.0002497355143229167,0.14566666666666667,0.35678571428571426,0.0017088996039496527,-2.142269747802736,0.06591600179672241,45.17546081542969,0.06478364732530383,-0.10941471523708768
3095,-0.00399873521592882,0.15937503814697265,84.49356079101562,78.92898559570312,-4.789188385009766,90.03767395019531,0.0015687730577256945,0.143,0.3539285714285714,0.0020445929633246527,-1.8456484251709,1.06564199924469,45.17546081542969,0.06182861328125,-0.10918735928005642
3096,-0.05477998521592882,0.1195312786102295,84.82088470458984,80.50424194335938,-4.768730163574219,89.83309936523438,0.0004322052001953125,0.141,0.3517857142857143,0.0007018195258246528,-1.2414194517822281,2.109312057495117,44.99967956542969,0.04796269734700521,-0.10668699476453992
3097,-0.10556123521592882,0.13945316314697265,85.94607543945312,80.4837875366211,-4.768730163574219,89.77172088623047,0.0017960866292317708,0.13733333333333334,0.3489285714285714,-0.00042724609375,-1.4721247130126969,2.285088062286377,44.99967956542969,0.060692087809244795,-0.10600501166449652
3098,-0.09774873521592882,0.15937503814697265,85.63920593261719,76.96501159667969,-4.3595733642578125,89.1170654296875,-0.001613616943359375,0.13333333333333333,0.3475,0.0010069953070746527,-1.9225508146972672,1.252403974533081,44.99967956542969,0.09637993706597223,-0.09418487548828125
3099,-0.07431123521592882,0.15937503814697265,84.75950622558594,76.71951293945312,-3.9708709716796875,89.62850952148438,0.0024779849582248262,0.13033333333333333,0.3457142857142857,0.0027464972601996527,-1.6808592253417984,0.3076080083847046,44.99967956542969,0.08933325873480903,-0.09554867214626736
3100,-0.01181123521592882,0.1195312786102295,84.39126586914062,78.84715270996094,-4.073158264160156,89.58760070800781,-0.003204769558376736,0.12866666666666668,0.34464285714285714,0.0067136128743489586,-1.538040774414064,-1.4281813078613297,44.99967956542969,0.06160125732421875,-0.09623065524631076
3101,0.07412623700629348,0.1195312786102295,84.67768096923828,81.40440368652344,-4.236824035644531,89.75126647949219,-0.0018409305148654514,0.126,0.34214285714285714,0.009306164203559003,-1.3073355131835953,0.14281800389289856,44.99967956542969,0.03636974758572049,-0.09986767239040799
3102,0.03896998700629347,0.1195312786102295,86.5188980102539,81.0361557006836,-4.482318878173828,89.567138671875,0.0031599256727430558,0.12233333333333334,0.3414285714285714,0.008177098583984351,-1.3183199339599625,0.9338099956512451,44.99967956542969,0.06091935899522569,-0.10054952833387587
3103,0.0038137647840711807,0.13945316314697265,86.39614868164062,80.91340637207031,-4.134532928466797,88.93293762207031,0.003387239244249132,0.11733333333333333,0.3410714285714286,0.0072324117024739586,-2.142269747802736,0.6591600179672241,44.99967956542969,0.06091935899522569,-0.08963856167263455
3104,-9.248521592881944e-05,0.13945316314697265,86.6007308959961,83.08195495605469,-3.7867469787597656,88.95339965820312,-0.003659396701388889,0.114,0.3407142857142857,0.0073849995930989586,-2.1093126707763687,1.3512780666351318,45.17546081542969,0.0390975104437934,-0.08600162929958767
3105,-0.02743623521592882,0.15937503814697265,87.99187469482422,78.45845031738281,-3.868579864501953,88.97386169433594,-0.003886710272894965,0.10966666666666666,0.34035714285714286,0.0072324117024739586,-1.6918455534667984,0.5493000149726868,47.72426986694336,0.10592693752712673,-0.08713823954264323
3106,-0.02352998521592882,0.15937503814697265,86.662109375,79.76776123046875,-4.154991149902344,88.97386169433594,-0.0059324900309244795,0.10566666666666667,0.34,0.0071103413899739586,-1.2304331236572281,-0.12084640795898594,48.69105911254883,0.07660386827256944,-0.09032058715820312
3107,-0.02743623521592882,0.17929691314697266,86.64164733886719,80.27920532226562,-3.7662887573242188,89.32164001464844,-0.007069057888454861,0.10266666666666667,0.3385714285714286,0.0066525777180989586,-1.0216986113281266,-0.17577614123535312,48.69105911254883,0.07069380018446181,-0.08986587524414062
3108,-0.05477998521592882,0.15937503814697265,86.662109375,79.21539306640625,-4.3595733642578125,88.97386169433594,-0.0013863033718532986,0.09933333333333333,0.3375,0.004852125379774305,-0.21972145373535312,-0.18676246936035312,48.69105911254883,0.08274129231770834,-0.0925937228732639
3109,-0.02743623521592882,0.1195312786102295,86.6007308959961,81.38394165039062,-3.868579864501953,89.28073120117188,-0.0075236850314670135,0.09566666666666666,0.3360714285714286,0.0067136128743489586,0.0,-0.03295769030761875,48.69105911254883,0.057964324951171875,-0.0905479007297092
3110,-0.03915498521592882,0.15937503814697265,86.88714599609375,81.42485809326172,-4.236824035644531,88.87156677246094,0.0011141459147135417,0.09333333333333334,0.33535714285714285,0.005584547254774305,-0.20873512561035312,0.3954960107803345,48.69105911254883,0.060692087809244795,-0.09009323120117188
3111,-0.07821748521592882,0.1195312786102295,86.17111206054688,82.05905151367188,-3.9504127502441406,89.77172088623047,0.0008868323432074653,0.08966666666666667,0.3360714285714286,0.004333326551649305,-0.6042314940185562,-0.4394403868408219,48.69105911254883,0.045689561631944445,-0.09691259596082899
3112,-0.04696748521592882,0.1195312786102295,87.29630279541016,81.9567642211914,-4.441402435302734,89.38301849365234,-0.010933346218532987,0.088,0.3360714285714286,0.005279371473524305,-0.6042314940185562,-0.02197326953125156,48.69105911254883,0.05932820638020833,-0.0980491214328342
3113,-0.05087373521592882,0.13945316314697265,87.1121826171875,79.91096496582031,-4.257282257080078,88.85111236572266,-0.0059324900309244795,0.084,0.3367857142857143,0.004577467176649305,-0.9118391447753922,-0.9228254729003922,48.69105911254883,0.08001352945963541,-0.09009327358669705
3114,-0.01571748521592882,0.13945316314697265,86.82576751708984,80.58607482910156,-3.868579864501953,90.03767395019531,-0.010478719075520834,0.08066666666666666,0.3360714285714286,0.005279371473524305,-0.4723993712158219,-1.4501520567626969,48.69105911254883,0.06932991875542535,-0.0989583757188585
3115,-9.248521592881944e-05,0.13945316314697265,86.86668395996094,77.37417602539062,-4.441402435302734,89.44439697265625,-0.00843293931749132,0.07866666666666666,0.3360714285714286,0.005004713270399305,-0.17577614123535312,-1.6588865690917984,48.69105911254883,0.10547231038411459,-0.0987311045328776
3116,-9.248521592881944e-05,0.17929691314697266,86.0074462890625,80.27920532226562,-3.9504127502441406,88.95339965820312,-0.005250591701931423,0.07533333333333334,0.3357142857142857,0.0033568488226996527,-0.6262022429199234,-1.4062086516113297,48.69105911254883,0.06364712185329861,-0.08782013787163628
3117,-0.02743623521592882,0.13945316314697265,86.98943328857422,80.11553955078125,-4.11407470703125,89.38301849365234,-0.0022955152723524307,0.07233333333333333,0.3357142857142857,0.0007933722601996528,-0.5273291044921891,-0.9997259550781266,48.69105911254883,0.07637659708658855,-0.09441214667426215
3118,-0.04696748521592882,0.15937503814697265,85.72103881835938,78.3970718383789,-3.8481216430664062,88.89202880859375,-0.006387117173936632,0.069,0.3357142857142857,-0.00146484375,-0.7250772886962906,-1.3512789183349625,48.69105911254883,0.08137741088867187,-0.08600167168511284
3119,-0.06649873521592882,0.13945316314697265,85.72103881835938,79.62455749511719,-3.745830535888672,89.83309936523438,-0.00297745598687066,0.06633333333333333,0.3357142857142857,-0.0035399542914496527,-0.6701475554199234,-0.6811319761962906,48.69105911254883,0.06773868136935764,-0.09532144334581164
3120,-0.06649873521592882,0.13945316314697265,85.80287170410156,79.21539306640625,-4.380031585693359,89.73080444335938,-0.0013863033718532986,0.06333333333333334,0.3357142857142857,-0.004516516791449653,-1.0326849394531266,-0.7470480375976578,48.69105911254883,0.07319420708550348,-0.10123151143391927
3121,-0.03134248521592882,0.15937503814697265,85.78240966796875,78.3970718383789,-4.216365814208984,89.93538665771484,-0.010478719075520834,0.059666666666666666,0.3360714285714286,-0.0033568488226996527,-1.2853628569335953,-0.49437012011718906,48.86684036254883,0.08205930921766492,-0.10168613857693143
3122,-0.03524873521592882,0.15937503814697265,85.76194763183594,80.29966735839844,-4.3595733642578125,88.95339965820312,-0.0050232781304253475,0.05633333333333333,0.3360714285714286,-0.0038146124945746527,-1.5929705076904312,0.19774800539016724,48.86684036254883,0.06069200303819444,-0.09236636691623264
3123,-0.04306123521592882,0.13945316314697265,85.98699188232422,79.46089172363281,-4.257282257080078,89.77172088623047,0.0011141459147135417,0.054,0.3364285714285714,-0.004028235541449653,-1.7028299742431656,0.13183200359344482,48.86684036254883,0.07251222398546008,-0.10032225714789497
3124,-0.00399873521592882,0.13945316314697265,84.96409606933594,80.40196228027344,-4.032245635986328,88.74882507324219,-0.0054779052734375,0.050333333333333334,0.3364285714285714,-0.001739501953125,-1.9445234709472672,0.6921180486679077,48.86684036254883,0.050690375434027775,-0.08645634121365017
3125,-9.248521592881944e-05,0.15937503814697265,85.90515899658203,84.49356079101562,-4.093616485595703,89.87400817871094,0.0006595187717013889,0.046,0.3367857142857143,-0.00054931640625,-1.6808592253417984,1.8566340208053589,48.86684036254883,0.015684424506293402,-0.09964027404785156
3126,-0.03134248521592882,0.13945316314697265,85.74149322509766,77.51737976074219,-4.277740478515625,89.52622985839844,0.005205747816297743,0.042666666666666665,0.3367857142857143,-0.000762939453125,-1.3842359953613297,0.4284540116786957,48.86684036254883,0.09137903849283854,-0.09782189263237848
3127,-0.02352998521592882,0.1195312786102295,84.06393432617188,79.93142700195312,-4.073158264160156,88.27828979492188,-0.0034320831298828127,0.03933333333333333,0.3364285714285714,-0.000213623046875,-1.538040774414064,0.7690200209617615,48.86684036254883,0.045916748046875,-0.08168275621202258
3128,-0.03524873521592882,0.13945316314697265,85.5982894897461,80.545166015625,-3.0502586364746094,88.62606811523438,-0.0009316762288411458,0.035,0.3364285714285714,-0.000335693359375,-1.175503390380861,1.1974740028381348,48.86684036254883,0.05614581637912326,-0.07418140835232205
3129,-0.04306123521592882,0.13945316314697265,86.53935241699219,81.56806182861328,-3.0707168579101562,88.64653015136719,-0.003659396701388889,0.03233333333333333,0.3364285714285714,0.000335693359375,-0.3515516691894547,0.7690200209617615,48.86684036254883,0.055236562093098955,-0.07463607788085938
3130,-0.03524873521592882,0.13945316314697265,88.09416198730469,82.07951354980469,-3.6026268005371094,89.66943359375,-0.008205625745985243,0.029666666666666668,0.3360714285714286,0.0012206183539496527,0.24169200658798218,0.6591600179672241,48.86684036254883,0.06682942708333334,-0.09191178215874565
3131,-0.03915498521592882,0.15937503814697265,87.37813568115234,81.24073791503906,-3.7662887573242188,89.64897155761719,-0.006841744316948784,0.025,0.3342857142857143,0.0011595831976996527,-0.21972145373535312,0.4284540116786957,48.86684036254883,0.0681933085123698,-0.09350289238823785
3132,-0.07431123521592882,0.13945316314697265,87.31675720214844,76.65814208984375,-3.745830535888672,89.30118560791016,-0.0034320831298828127,0.02266666666666667,0.33321428571428574,-0.000274658203125,-0.7909933500976578,-0.5383154326171891,48.86684036254883,0.11842905680338542,-0.08941129048665365
3133,-0.09384248521592882,0.09960939407348633,85.08683776855469,80.0337142944336,-3.745830535888672,89.42393493652344,-0.008887566460503472,0.021,0.33214285714285713,-0.000946044921875,-0.3625379973144547,-0.6481748991699234,48.339500427246094,0.05614581637912326,-0.09077517191569011
3134,-0.09774873521592882,0.1195312786102295,85.78240966796875,78.68348693847656,-3.9504127502441406,89.46485137939453,0.0015687730577256945,0.018,0.33107142857142857,-0.0025023566351996527,0.32958000898361206,-0.4504267149658219,48.339500427246094,0.07887691921657985,-0.09350293477376302
3135,-0.1250924852159288,0.09960939407348633,85.61874389648438,76.22852325439453,-3.7662887573242188,88.6669921875,-0.00297745598687066,0.015333333333333332,0.3289285714285714,-0.0034178839789496527,0.7140899896621704,-0.7909933500976578,48.075828552246094,0.10433578491210938,-0.08259201049804688
3136,-0.1407174852159288,0.05976563930511475,84.57539367675781,80.11553955078125,-2.743389129638672,87.27584838867188,-0.0059324900309244795,0.013,0.3275,-0.0025328742133246527,1.2084600925445557,0.4064820110797882,44.29655838012695,0.049553934733072916,-0.05576930575900608
3137,-0.2305612352159288,0.03984375953674316,86.62118530273438,80.85203552246094,-1.4749946594238281,84.08439636230469,0.0011141459147135417,0.009666666666666667,0.325,-0.002197265625,2.504807949066162,1.3622640371322632,26.367000579833984,0.06410166422526041,-0.006215455796983507
3138,-0.3243112352159288,0.03984375953674316,88.52378845214844,85.53691101074219,1.8801193237304688,82.26363372802734,0.005205747816297743,0.006666666666666667,0.32285714285714284,-0.0024108039008246527,3.867072105407715,2.1642420291900635,26.367000579833984,0.03318752712673611,0.05129428439670139
3139,-0.4102487352159288,0.03984375953674316,84.47309875488281,75.83982849121094,2.084697723388672,79.97233581542969,-0.002068201700846354,0.004333333333333333,0.3182142857142857,-0.000885009765625,5.152434349060059,-0.3295809202880875,26.279109954833984,0.09592522515190972,0.07902624342176649
3140,-0.7735299852159289,0.01992187976837158,86.72348022460938,85.70057678222656,5.112480163574219,78.51982116699219,-0.006387117173936632,0.0016666666666666668,0.31464285714285717,0.0019530402289496527,5.306238174438477,0.48338401317596436,26.279109954833984,0.011365593804253473,0.1288073221842448
3141,-0.3594674852159288,0.01992187976837158,90.73324584960938,79.31768798828125,5.9308013916015625,77.49691772460938,0.004523807101779514,0.0006666666666666666,0.30857142857142855,0.0017394171820746527,5.1634202003479,-1.0326849394531266,26.279109954833984,0.1268395317925347,0.14926537407769097
3142,-0.10946748521592882,0.03984375953674316,86.35523986816406,78.90852355957031,11.004386901855469,70.7662353515625,0.005205747816297743,0.0,0.3032142857142857,0.0019225226508246527,4.020875930786133,0.16479000449180603,26.279109954833984,0.08274129231770834,0.2804239061143663
3143,-0.10556123521592882,0.05976563930511475,84.12531280517578,76.63768005371094,13.970794677734375,70.17295837402344,0.011115815904405382,0.0,0.2953571428571429,-0.0,3.943974018096924,0.13183200359344482,26.279109954833984,0.08319591946072048,0.31997595893012154
