,WD,WS,AIL_1,AIL_2,ELEV_1,ELEV_2,RUDD,ALT,GS,TH,PTCH,ROLL,PLA_1,AIL,ELEV
6579,0.20934979522026917,0.25898443222045897,85.49600219726562,78.80622863769531,-5.8120880126953125,91.42881774902344,0.028846104939778645,0.8126666666666666,0.5607142857142857,0.013578540370008656,-3.504534380981447,-0.02197326953125156,37.79269790649414,0.07433081732855903,-0.1360100640190972
6580,0.20153729522026917,0.25898443222045897,85.53691101074219,79.0312728881836,-5.791633605957031,91.46973419189453,0.030437257554796007,0.8063333333333333,0.5603571428571429,0.013456470057508656,-3.504534380981447,-0.07690300280761875,37.17747116088867,0.07228486802842882,-0.13623741997612848
6581,0.19372479522026917,0.25898443222045897,85.5164566040039,79.50180053710938,-5.853004455566406,91.46973419189453,0.039984342787000866,0.8003333333333333,0.5603571428571429,0.012296802088758656,-3.592423098632814,-0.856909411499025,36.91379928588867,0.06682951185438368,-0.13691931830512152
6582,0.20544354522026917,0.25898443222045897,85.41416931152344,77.49691772460938,-5.853004455566406,91.51065063476562,0.023390621609157985,0.7943333333333333,0.56,0.012418872401258656,-3.6583391600341812,-0.4394403868408219,36.38645935058594,0.08796946207682292,-0.1373739454481337
6583,0.21325604522026917,0.25898443222045897,85.49600219726562,78.23341369628906,-5.771175384521484,91.42881774902344,0.03271039326985677,0.788,0.5596428571428571,0.012693530604383656,-3.6143938475341812,0.5822579860687256,35.8591194152832,0.08069542778862847,-0.13555547926161024
6584,0.20934979522026917,0.25898443222045897,85.57783508300781,79.29722595214844,-5.648426055908203,91.32653045654297,0.060442352294921876,0.7813333333333333,0.5596428571428571,0.012418872401258656,-3.4825636320800797,0.6811320185661316,35.8591194152832,0.0697845458984375,-0.13305507236056857
6585,0.19372479522026917,0.239062557220459,85.557373046875,79.68592834472656,-5.648426055908203,91.26515197753906,0.0006595187717013889,0.775,0.5589285714285714,0.011503429828559003,-3.3177725249023453,-0.20873512561035312,35.8591194152832,0.06523827446831597,-0.13237308926052518
6586,0.19763104522026917,0.25898443222045897,85.33233642578125,77.92654418945312,-5.627967834472656,91.28561401367188,0.0004322052001953125,0.769,0.5585714285714286,0.011411877094184003,-3.196926730224611,-0.48338379199218906,35.8591194152832,0.08228658040364584,-0.13237313164605036
6587,0.20934979522026917,0.25898443222045897,85.41416931152344,77.78333282470703,-5.66888427734375,91.32653045654297,0.0011141459147135417,0.7636666666666667,0.5582142857142857,0.011839123187934003,-3.1200243406982437,0.4614120125770569,35.8591194152832,0.08478707207573785,-0.13328238593207464
6588,0.19763104522026917,0.25898443222045897,85.49600219726562,78.8880615234375,-5.873462677001953,91.38790130615234,0.0024779849582248262,0.7586666666666667,0.5575,0.011167736469184003,-3.1529833250732437,0.6042300462722778,37.00168991088867,0.07342156304253472,-0.1362373775906033
6589,0.19372479522026917,0.239062557220459,85.41416931152344,78.00836944580078,-5.934837341308594,91.51065063476562,0.0015687730577256945,0.754,0.5567857142857143,0.010954113422309003,-3.2957998686523453,0.6811320185661316,37.441139221191406,0.08228666517469618,-0.13828319973415798
6590,0.18981854522026917,0.239062557220459,85.49600219726562,78.17203521728516,-5.8939208984375,91.46973419189453,0.0031599256727430558,0.7476666666666667,0.5564285714285714,0.011045666156684003,-3.284815447875978,1.647900104522705,37.529029846191406,0.08137741088867187,-0.1373739454481337
6591,0.18200604522026917,0.239062557220459,85.49600219726562,79.35859680175781,-5.832546234130859,91.38790130615234,0.0031599256727430558,0.742,0.5560714285714285,0.010709972797309003,-3.262842791625978,1.3732500076293945,37.704811096191406,0.06819339328342014,-0.13578275044759114
6592,0.18591229522026917,0.239062557220459,85.5164566040039,79.21539306640625,-5.791633605957031,91.34698486328125,0.0004322052001953125,0.736,0.5560714285714285,0.011320324359809003,-3.207913058349611,0.5273280143737793,38.14426040649414,0.0700118170844184,-0.13487353854709203
6593,0.19372479522026917,0.239062557220459,85.49600219726562,78.60165405273438,-5.853004455566406,91.44927978515625,0.003841866387261285,0.7303333333333333,0.5557142857142857,0.011686535297309003,-3.218899386474611,0.17577600479125977,38.407928466796875,0.07660386827256944,-0.13669204711914062
6594,0.19763104522026917,0.239062557220459,85.455078125,78.3970718383789,-5.771175384521484,91.34698486328125,0.005887646145290798,0.7253333333333334,0.5557142857142857,0.012083263812934003,-3.196926730224611,0.1538040041923523,38.583709716796875,0.07842229207356771,-0.13464622497558593
6595,0.20544354522026917,0.239062557220459,85.47554016113281,78.25386810302734,-5.8939208984375,91.42881774902344,0.011343129475911458,0.719,0.5557142857142857,0.012479907557508656,-3.174954073974611,0.6921180486679077,38.583709716796875,0.08024080064561633,-0.13691931830512152
6596,0.20153729522026917,0.239062557220459,85.455078125,78.76531982421875,-5.955295562744141,91.53111267089844,0.014070849948459202,0.7133333333333334,0.5557142857142857,0.012418872401258656,-3.3177725249023453,0.7031040191650391,38.84737777709961,0.07433064778645833,-0.13873786926269532
6597,0.20544354522026917,0.239062557220459,85.43462371826172,78.09020233154297,-5.914379119873047,91.51065063476562,0.011570443047417535,0.7076666666666667,0.5557142857142857,0.012724048182508656,-3.493548052856447,1.06564199924469,38.93526840209961,0.08160468207465278,-0.1380558861626519
6598,0.20153729522026917,0.239062557220459,85.455078125,78.60165405273438,-5.853004455566406,91.53111267089844,0.010433875189887153,0.7013333333333334,0.5557142857142857,0.012998706385633656,-3.581436770507814,1.3512780666351318,38.93526840209961,0.07614915635850694,-0.13760130140516494
6599,0.20153729522026917,0.239062557220459,85.47554016113281,78.3970718383789,-5.709800720214844,91.36744689941406,0.01543473137749566,0.6953333333333334,0.5557142857142857,0.013273364588758656,-3.570450442382814,1.4281799793243408,38.93526840209961,0.07864964803059896,-0.13419164021809896
6600,0.20153729522026917,0.239062557220459,85.49600219726562,78.78577423095703,-5.7507171630859375,91.36744689941406,0.024072562323676217,0.689,0.5564285714285714,0.013731128260633656,-3.4825636320800797,1.2853620052337646,38.93526840209961,0.07455808851453993,-0.1346462673611111
6601,0.18981854522026917,0.239062557220459,85.49600219726562,79.64501190185547,-5.791633605957031,91.38790130615234,0.05134989420572917,0.6823333333333333,0.5564285714285714,0.013792163416883656,-3.4715773039550797,0.6481740474700928,38.84737777709961,0.06501100328233507,-0.13532816569010417
6602,0.18591229522026917,0.239062557220459,85.5164566040039,78.86760711669922,-5.771175384521484,91.42881774902344,0.039757029215494795,0.6766666666666666,0.5564285714285714,0.013548022791883656,-3.493548052856447,-0.10986007983398594,38.407928466796875,0.07387610541449653,-0.13555547926161024
6603,0.19372479522026917,0.239062557220459,85.43462371826172,78.3970718383789,-5.8120880126953125,91.42881774902344,0.06385201348198785,0.6706666666666666,0.5564285714285714,0.013578540370008656,-3.4825636320800797,-0.2416922026367203,37.529029846191406,0.0781950208875868,-0.1360100640190972
6604,0.19763104522026917,0.239062557220459,85.49600219726562,78.35615539550781,-5.8120880126953125,91.36744689941406,0.0531683603922526,0.6643333333333333,0.5560714285714285,0.013425952479383656,-3.493548052856447,0.1538040041923523,37.265357971191406,0.07933163113064236,-0.13532816569010417
6605,0.19372479522026917,0.239062557220459,85.47554016113281,78.92898559570312,-5.689342498779297,91.32653045654297,0.011797756618923612,0.6583333333333333,0.5560714285714285,0.013273364588758656,-3.4386183195800797,0.010986000299453735,37.265357971191406,0.07273949517144097,-0.13350969950358074
6606,0.20153729522026917,0.239062557220459,85.455078125,77.96745300292969,-5.648426055908203,91.24469757080078,0.012252383761935763,0.6526666666666666,0.5557142857142857,0.013548022791883656,-3.262842791625978,0.3954960107803345,37.265357971191406,0.08319583468967014,-0.13214581807454426
6607,0.20153729522026917,0.239062557220459,85.49600219726562,78.96989440917969,-5.7507171630859375,91.32653045654297,0.013616265190972223,0.647,0.5557142857142857,0.013517505213758656,-3.1310106688232437,0.48338401317596436,37.265357971191406,0.07251230875651042,-0.13419164021809896
6608,0.20544354522026917,0.239062557220459,85.43462371826172,78.76531982421875,-5.873462677001953,91.42881774902344,0.016343985663519967,0.6413333333333333,0.5557142857142857,0.013609057948133656,-3.218899386474611,0.12084600329399109,37.17747116088867,0.07410337660047743,-0.13669200473361545
6609,0.21325604522026917,0.239062557220459,85.47554016113281,78.19248962402344,-5.873462677001953,91.49018859863281,0.019753646850585938,0.636,0.5553571428571429,0.014005786463758656,-3.3617159300537125,0.4723980128765106,37.17747116088867,0.08092278374565973,-0.1373739030626085
6610,0.20934979522026917,0.239062557220459,85.49600219726562,78.82669067382812,-5.853004455566406,91.42881774902344,0.0254364013671875,0.6306666666666667,0.555,0.013731128260633656,-3.4605909758300797,0.6701459884643555,37.265357971191406,0.07410346137152778,-0.13646469116210938
6611,0.20153729522026917,0.239062557220459,85.5164566040039,79.01081848144531,-5.832546234130859,91.38790130615234,0.03407423231336806,0.6246666666666667,0.555,0.013609057948133656,-3.4825636320800797,0.41746801137924194,38.320037841796875,0.07228486802842882,-0.13578275044759114
6612,0.20153729522026917,0.239062557220459,85.43462371826172,78.86760711669922,-5.689342498779297,91.30607604980469,0.016798612806532116,0.619,0.555,0.013425952479383656,-3.3507315092773453,-0.01098694140625156,38.407928466796875,0.07296685112847222,-0.13328242831759982
6613,0.21325604522026917,0.25898443222045897,85.49600219726562,78.29478454589844,-5.730258941650391,91.28561401367188,0.014525477091471355,0.6136666666666667,0.5546428571428571,0.013944751307508656,-3.196926730224611,0.29662200808525085,38.407928466796875,0.08001352945963541,-0.13350969950358074
6614,0.20544354522026917,0.25898443222045897,85.49600219726562,79.17447662353516,-5.791633605957031,91.32653045654297,0.017480553521050348,0.6076666666666667,0.5546428571428571,0.013792163416883656,-3.0980535917968766,0.19774800539016724,38.407928466796875,0.07023917304144965,-0.1346462673611111
6615,0.20934979522026917,0.25898443222045897,85.5164566040039,79.3995132446289,-5.934837341308594,91.46973419189453,0.01907170613606771,0.602,0.5542857142857143,0.013731128260633656,-3.273829119750978,-0.3295809202880875,38.320037841796875,0.0679660373263889,-0.13782857259114584
6616,0.20544354522026917,0.25898443222045897,85.455078125,78.58119201660156,-5.853004455566406,91.44927978515625,0.025663714938693575,0.597,0.5539285714285714,0.012876636073133656,-3.3507315092773453,-0.6811319761962906,37.79269790649414,0.0763765123155382,-0.13669204711914062
6617,0.21325604522026917,0.239062557220459,85.43462371826172,78.19248962402344,-5.8120880126953125,91.40835571289062,0.0040691799587673615,0.5913333333333334,0.5539285714285714,0.012663013026258656,-3.3397451811523453,-0.2636648588867203,37.529029846191406,0.08046815660264757,-0.13578270806206597
6618,0.22106854522026917,0.25898443222045897,85.455078125,78.33570098876953,-5.832546234130859,91.36744689941406,0.012707010904947916,0.586,0.5539285714285714,0.012907153651258656,-3.3507315092773453,0.35155200958251953,37.529029846191406,0.07910419040256077,-0.13555547926161024
6619,0.22497479522026917,0.239062557220459,85.49600219726562,78.70394134521484,-5.853004455566406,91.40835571289062,0.03680199517144097,0.5803333333333334,0.5535714285714286,0.013120776698133656,-3.4056612425537125,0.6811320185661316,37.529029846191406,0.07546734280056423,-0.13623733520507814
6620,0.22106854522026917,0.239062557220459,85.47554016113281,79.01081848144531,-5.8120880126953125,91.36744689941406,0.009751976860894098,0.5743333333333334,0.5535714285714286,0.012876636073133656,-3.4276319914550797,0.516342043876648,37.529029846191406,0.07183024088541666,-0.13532816569010417
6621,0.22497479522026917,0.239062557220459,85.49600219726562,78.56073760986328,-5.709800720214844,91.34698486328125,0.007933468288845487,0.5686666666666667,0.5535714285714286,0.013151294276258656,-3.3617159300537125,0.3185940086841583,38.583709716796875,0.0770584954155816,-0.1339642842610677
6622,0.22497479522026917,0.25898443222045897,85.61874389648438,78.8880615234375,-5.7507171630859375,91.32653045654297,0.007478841145833333,0.562,0.5535714285714286,0.013212329432508656,-3.2957998686523453,0.19774800539016724,38.84737777709961,0.07478535970052083,-0.13419164021809896
6623,0.22497479522026917,0.239062557220459,85.49600219726562,79.15402221679688,-5.7507171630859375,91.32653045654297,0.01066118876139323,0.557,0.5535714285714286,0.012510425135633656,-3.240870135375978,-0.4394403868408219,38.84737777709961,0.07046644422743055,-0.13419164021809896
6624,0.22497479522026917,0.239062557220459,85.49600219726562,78.56073760986328,-5.66888427734375,91.30607604980469,0.01066118876139323,0.5506666666666666,0.5535714285714286,0.012205334125434003,-3.196926730224611,-0.7031046324462906,35.8591194152832,0.0770584954155816,-0.13305511474609374
6625,0.22106854522026917,0.25898443222045897,85.47554016113281,78.29478454589844,-5.730258941650391,91.28561401367188,0.01066118876139323,0.5456666666666666,0.5528571428571428,0.012022228656684003,-3.174954073974611,-0.5492998533935562,29.970489501953125,0.07978617350260417,-0.13350969950358074
6626,0.21716229522026917,0.239062557220459,85.47554016113281,78.90852355957031,-5.7507171630859375,91.30607604980469,0.016116672092013888,0.54,0.5517857142857143,0.011015148578559003,-3.1419969969482437,-0.5602861815185562,29.003700256347656,0.07296685112847222,-0.13396436903211806
6627,0.22106854522026917,0.25898443222045897,85.29141998291016,77.82424926757812,-5.689342498779297,91.28561401367188,0.02248136732313368,0.534,0.55,0.010862560687934003,-3.1419969969482437,-0.3954969816894547,28.915809631347656,0.08296856350368924,-0.13305507236056857
6628,0.21716229522026917,0.25898443222045897,85.455078125,78.00836944580078,-5.607509613037109,91.24469757080078,0.047258292304144967,0.529,0.5485714285714286,0.011259289203559003,-3.1419969969482437,0.6042300462722778,28.915809631347656,0.08274120754665798,-0.13169119093153211
6629,0.21325604522026917,0.25898443222045897,85.49600219726562,78.51982116699219,-5.648426055908203,91.18331909179688,-0.0011589898003472221,0.523,0.5471428571428572,0.011106701312934003,-3.0431219511718766,1.0986000299453735,28.915809631347656,0.07751312255859374,-0.13146383497450087
6630,0.20934979522026917,0.25898443222045897,85.49600219726562,79.4813461303711,-5.689342498779297,91.28561401367188,-0.003204769558376736,0.5173333333333333,0.5460714285714285,0.011442394672309003,-3.0431219511718766,1.032684087753296,28.915809631347656,0.06682951185438368,-0.13305507236056857
6631,0.20934979522026917,0.2789063262939453,85.49600219726562,78.90852355957031,-5.66888427734375,91.32653045654297,-0.00297745598687066,0.512,0.5439285714285714,0.011808605609809003,-3.1419969969482437,0.5383139848709106,28.915809631347656,0.07319420708550348,-0.13328238593207464
6632,0.21716229522026917,0.2789063262939453,85.49600219726562,78.76531982421875,-5.5870513916015625,91.28561401367188,-0.006159803602430555,0.507,0.5428571428571428,0.012540942713758656,-3.163967745849611,0.2856360077857971,28.915809631347656,0.07478535970052083,-0.1319185045030382
6633,0.21325604522026917,0.2789063262939453,85.49600219726562,79.35859680175781,-5.546134948730469,91.1628646850586,-0.003886710272894965,0.5013333333333333,0.5414285714285715,0.012052746234809003,-3.0870672636718766,-0.13183273608398594,28.915809631347656,0.06819339328342014,-0.1300999959309896
6634,0.20934979522026917,0.2789063262939453,85.43462371826172,78.33570098876953,-5.525676727294922,91.06057739257812,-0.004114023844401042,0.49733333333333335,0.5407142857142857,0.011808605609809003,-2.856360095092775,-0.3625379973144547,28.915809631347656,0.07887691921657985,-0.1287361568874783
6635,0.22106854522026917,0.2789063262939453,85.43462371826172,77.72195434570312,-5.505218505859375,91.1219482421875,-0.0075236850314670135,0.49333333333333335,0.5371428571428571,0.012693530604383656,-2.581711428710939,0.29662200808525085,28.915809631347656,0.08569632636176215,-0.12919074164496527
6636,0.21716229522026917,0.2789063262939453,85.47554016113281,78.4789047241211,-5.832546234130859,91.32653045654297,-2.242194281684028e-05,0.48833333333333334,0.5346428571428572,0.012357837245008656,-2.4388929777832047,1.252403974533081,28.915809631347656,0.07774039374457466,-0.1351008521185981
6637,0.20153729522026917,0.2789063262939453,85.49600219726562,78.9903564453125,-6.814533233642578,91.89935302734375,-0.0009316762288411458,0.483,0.5292857142857142,0.012022228656684003,-2.559738772460939,1.4391660690307617,26.982229232788086,0.07228495279947916,-0.1523765140109592
6638,0.21325604522026917,0.2789063262939453,85.82332611083984,79.41996765136719,-7.346439361572266,92.79949951171875,-0.007296371459960938,0.48133333333333334,0.5246428571428572,0.013517505213758656,-3.163967745849611,1.3622640371322632,26.54277992248535,0.07114842732747396,-0.1682882097032335
6639,0.18981854522026917,0.25898443222045897,85.557373046875,79.58363342285156,-6.794075012207031,92.47217559814453,0.0004322052001953125,0.4776666666666667,0.5182142857142857,0.011839123187934003,-3.6473528319091812,0.516342043876648,26.367000579833984,0.06637488471137153,-0.15851389567057292
6640,0.19372479522026917,0.25898443222045897,85.23004150390625,77.66058349609375,-6.548576354980469,91.89935302734375,-0.0013863033718532986,0.47333333333333333,0.5142857142857142,0.012296802088758656,-3.3727022581787125,0.17577600479125977,26.367000579833984,0.08410508897569445,-0.1494214375813802
6641,0.20544354522026917,0.2789063262939453,85.455078125,78.43798828125,-6.5894927978515625,91.94026947021484,-0.002750142415364583,0.4693333333333333,0.5078571428571429,0.013425952479383656,-2.944248812744142,0.9777539968490601,26.367000579833984,0.07796766493055556,-0.15033069186740453
6642,0.20934979522026917,0.2789063262939453,85.455078125,78.8880615234375,-7.346439361572266,92.73812866210938,-0.002750142415364583,0.4663333333333333,0.5032142857142857,0.014463550135633656,-3.3397451811523453,1.6149420738220215,26.367000579833984,0.07296685112847222,-0.16760631137424045
6643,0.20153729522026917,0.25898443222045897,85.47554016113281,79.33814239501953,-8.144302368164062,93.20866394042969,0.003387239244249132,0.4646666666666667,0.4953571428571429,0.013883716151258656,-3.943974154541017,1.812690019607544,26.367000579833984,0.0681933085123698,-0.18169962565104167
6644,0.19763104522026917,0.25898443222045897,85.455078125,79.33814239501953,-9.269493103027344,93.94515228271484,-0.00047704908582899306,0.46266666666666667,0.4903571428571429,0.014249927088758656,-4.537218707153322,1.4281799793243408,26.367000579833984,0.06796595255533854,-0.20238494873046875
6645,0.20544354522026917,0.25898443222045897,86.0074462890625,80.25875091552734,-10.271934509277344,95.25446319580078,-0.0007043626573350694,0.46066666666666667,0.4807142857142857,0.014890796229383656,-5.317225115844728,0.7250760197639465,26.367000579833984,0.06387439303927951,-0.22807108561197917
6646,0.20544354522026917,0.239062557220459,85.70057678222656,80.29966735839844,-10.374223709106445,95.56134033203125,0.004296493530273437,0.45766666666666667,0.4739285714285714,0.014616138026258656,-6.218077319213869,-0.4504267149658219,26.367000579833984,0.06001010470920139,-0.23261737823486328
6647,0.21325604522026917,0.25898443222045897,85.5982894897461,79.07218933105469,-9.658195495605469,95.21354675292969,-0.006159803602430555,0.4523333333333333,0.4657142857142857,0.014707690760633656,-6.877236025878908,-1.2963491850585953,26.367000579833984,0.07251222398546008,-0.22079713609483506
6648,0.22106854522026917,0.25898443222045897,85.14820861816406,77.333251953125,-9.085369110107422,94.21110534667969,-0.006159803602430555,0.446,0.4610714285714286,0.014860278651258656,-6.833292620727541,-0.856909411499025,26.367000579833984,0.08683285183376736,-0.2032941606309679
6649,0.21716229522026917,0.2789063262939453,85.33233642578125,78.00836944580078,-8.594379425048828,93.31095886230469,-0.006387117173936632,0.43833333333333335,0.45571428571428574,0.015012866541883656,-6.327936785766603,0.516342043876648,26.367000579833984,0.08137741088867187,-0.18783709208170574
6650,0.20544354522026917,0.2789063262939453,85.39370727539062,78.540283203125,-8.22613525390625,93.20866394042969,-0.006159803602430555,0.43133333333333335,0.4521428571428571,0.014677173182508656,-5.888497012207033,1.4171940088272095,26.367000579833984,0.07614915635850694,-0.18260887993706598
6651,0.20153729522026917,0.2789063262939453,85.39370727539062,79.09264373779297,-8.021553039550781,93.06546020507812,-0.006159803602430555,0.425,0.44642857142857145,0.01547054544270831,-5.49300064379883,1.6588860750198364,26.367000579833984,0.0700118170844184,-0.17874459160698786
6652,0.20153729522026917,0.2789063262939453,85.455078125,79.78821563720703,-7.735141754150391,92.77904510498047,-0.006159803602430555,0.41833333333333333,0.4432142857142857,0.01641659036458331,-5.130463259765627,1.4062080383300781,26.367000579833984,0.06296513875325521,-0.1723798539903429
6653,0.19763104522026917,0.2789063262939453,85.43462371826172,79.46089172363281,-7.551021575927734,92.75859069824219,-0.0059324900309244795,0.41333333333333333,0.4375,0.01702694192708331,-4.636091845581056,0.9777539968490601,26.367000579833984,0.06637479994032118,-0.17010680304633247
6654,0.20153729522026917,0.2789063262939453,85.39370727539062,78.35615539550781,-7.5919342041015625,41.900001525878906,-0.006159803602430555,0.4083333333333333,0.43357142857142855,0.018125489968532964,-4.273554461547853,1.1315580606460571,26.367000579833984,0.0781950208875868,0.3945340474446615
6655,0.19372479522026917,0.2789063262939453,85.43462371826172,79.29722595214844,-7.5305633544921875,92.73812866210938,-0.006159803602430555,0.4033333333333333,0.4282142857142857,0.018369630593532964,-4.108765261718752,1.4831100702285767,26.367000579833984,0.0681933085123698,-0.16965213351779515
6656,0.18200604522026917,0.2789063262939453,85.63920593261719,79.93142700195312,-7.346439361572266,92.41080474853516,-0.0054779052734375,0.399,0.42428571428571427,0.017972902077907964,-3.9989038878173844,1.2414180040359497,26.367000579833984,0.06341976589626735,-0.16396937900119357
6657,0.18591229522026917,0.2789063262939453,85.80287170410156,80.545166015625,-6.8963623046875,92.24713897705078,-0.0059324900309244795,0.39466666666666667,0.41892857142857143,0.018613771218532964,-3.7242552214355484,0.14281800389289856,26.367000579833984,0.058418952094184025,-0.15715001424153646
6658,0.20153729522026917,0.29882820129394533,85.70057678222656,79.31768798828125,-6.834991455078125,92.24713897705078,-0.0059324900309244795,0.3903333333333333,0.415,0.020353273171657964,-3.3836885863037125,-0.6042314940185562,26.367000579833984,0.07092098659939236,-0.1564681159125434
6659,0.20934979522026917,0.29882820129394533,85.68012237548828,79.01081848144531,-6.916820526123047,92.84042358398438,-0.006387117173936632,0.38533333333333336,0.4089285714285714,0.020871987228732614,-3.3397451811523453,-0.21972145373535312,26.367000579833984,0.07410337660047743,-0.16396937900119357
6660,0.20544354522026917,0.2789063262939453,85.68012237548828,79.25630950927734,-7.039569854736328,93.51553344726562,-0.006387117173936632,0.383,0.40464285714285714,0.019712404031032964,-3.6363665037841812,0.29662200808525085,26.367000579833984,0.07137569851345486,-0.17283448113335503
6661,0.19372479522026917,0.2789063262939453,85.68012237548828,79.64501190185547,-7.714683532714844,94.02698516845703,-0.006159803602430555,0.37966666666666665,0.3975,0.018217042702907964,-4.460316317626955,0.2526780068874359,26.367000579833984,0.06705678304036458,-0.18601854112413194
6662,0.20153729522026917,0.25898443222045897,85.65966796875,79.15402221679688,-8.062469482421875,94.04743957519531,-0.006387117173936632,0.37666666666666665,0.39285714285714285,0.018156007546657964,-5.394127505371095,-0.01098694140625156,26.367000579833984,0.07228495279947916,-0.19011010064019096
6663,0.21716229522026917,0.25898443222045897,85.65966796875,78.64257049560547,-8.001094818115234,41.900001525878906,-0.006159803602430555,0.37433333333333335,0.38535714285714284,0.019071534890407964,-6.108215945312502,0.032958000898361206,26.367000579833984,0.0779677497016059,0.3899878184000651
6664,0.21716229522026917,0.25898443222045897,85.70057678222656,79.17447662353516,-7.878349304199219,93.37232971191406,-0.006159803602430555,0.37066666666666664,0.3807142857142857,0.019102052468532964,-6.690474169799806,0.4723980128765106,26.54277992248535,0.07251222398546008,-0.18056310017903646
6665,0.21325604522026917,0.25898443222045897,85.68012237548828,79.46089172363281,-6.937278747558594,91.81752014160156,-0.006159803602430555,0.36666666666666664,0.3742857142857143,0.018461183327907964,-7.4704805784912125,0.373524010181427,26.367000579833984,0.0691025627983941,-0.1528310987684462
6666,0.20934979522026917,0.25898443222045897,85.65966796875,79.0312728881836,-5.853004455566406,91.55156707763672,-0.006159803602430555,0.3616666666666667,0.37142857142857144,0.018461183327907964,-7.053013461181642,-0.08788933093261875,26.367000579833984,0.07364883422851562,-0.13782857259114584
6667,0.20544354522026917,0.2789063262939453,85.63920593261719,79.72684478759766,-5.8939208984375,91.34698486328125,-0.006387117173936632,0.35633333333333334,0.3678571428571429,0.018796876687282964,-6.031315463134767,-0.2526785307617203,26.367000579833984,0.06569290161132812,-0.1360100640190972
6668,0.20544354522026917,0.2789063262939453,85.68012237548828,41.900001525878906,-5.525676727294922,91.06057739257812,-0.006159803602430555,0.3516666666666667,0.36464285714285716,0.018888429421657964,-5.262295382568361,-0.3405672484130875,26.367000579833984,0.48644578721788195,-0.1287361568874783
6669,0.20153729522026917,0.2789063262939453,85.68012237548828,79.33814239501953,-5.382472991943359,91.18331909179688,-0.006159803602430555,0.348,0.35964285714285715,0.018857911843532964,-4.504261630126955,-0.4504267149658219,26.367000579833984,0.07046644422743055,-0.12850880093044706
6670,0.20934979522026917,0.2789063262939453,85.65966796875,41.900001525878906,-5.484760284423828,91.20378112792969,-0.006387117173936632,0.3453333333333333,0.35642857142857143,0.019071534890407964,-3.91101707751465,-0.3295809202880875,26.367000579833984,0.486218516031901,-0.12987268235948352
6671,0.20544354522026917,0.2789063262939453,85.68012237548828,79.58363342285156,-5.689342498779297,91.14241027832031,-0.006159803602430555,0.3423333333333333,0.3507142857142857,0.018766359109157964,-3.6693254881591812,0.12084600329399109,26.367000579833984,0.06773876614040798,-0.13146391974555122
6672,0.19372479522026917,0.2789063262939453,85.65966796875,78.92898559570312,-5.66888427734375,91.0196533203125,-0.006159803602430555,0.3396666666666667,0.3467857142857143,0.01745418802083331,-3.6473528319091812,0.20873400568962097,26.71855926513672,0.07478535970052083,-0.12987263997395834
6673,0.19372479522026917,0.2789063262939453,85.5982894897461,77.82424926757812,-5.546134948730469,90.83554077148438,-0.006159803602430555,0.33766666666666667,0.3417857142857143,0.01711849466145831,-3.6583391600341812,0.2856360077857971,32.25563049316406,0.0863782246907552,-0.1264630635579427
6674,0.19372479522026917,0.2789063262939453,85.41416931152344,41.900001525878906,-5.525676727294922,90.91737365722656,-0.006159803602430555,0.335,0.3385714285714286,0.01769832864583331,-3.6253801756591812,1.021697998046875,37.96847915649414,0.4834907531738281,-0.12714500427246095
6675,0.18981854522026917,0.2789063262939453,85.5164566040039,80.70883178710938,-5.66888427734375,90.97874450683594,-0.006159803602430555,0.332,0.3360714285714286,0.018278077859157964,-3.6253801756591812,1.6039559841156006,56.07381820678711,0.05341805352105035,-0.12941809760199652
6676,0.19372479522026917,0.2789063262939453,86.08927917480469,80.545166015625,-5.66888427734375,91.2242431640625,-0.006159803602430555,0.329,0.33714285714285713,0.019926027077907964,-3.6473528319091812,1.4721240997314453,48.86684036254883,0.06160125732421875,-0.13214586046006943
6677,0.18981854522026917,0.2789063262939453,86.1097412109375,78.9494400024414,-5.873462677001953,91.38790130615234,-0.006159803602430555,0.325,0.3389285714285714,0.020963539963107614,-3.7022825651855484,0.8019779920578003,41.57196807861328,0.07955890231662327,-0.1362373775906033
6678,0.20544354522026917,0.2789063262939453,85.65966796875,78.4789047241211,-5.8939208984375,90.91737365722656,-0.006159803602430555,0.321,0.3389285714285714,0.022397866134982614,-4.207638400146486,0.3405660092830658,34.980220794677734,0.07978625827365451,-0.13123660617404515
6679,0.20934979522026917,0.29882820129394533,85.68012237548828,41.900001525878906,-5.321098327636719,91.26515197753906,-0.006159803602430555,0.31733333333333336,0.3364285714285714,0.023465981369357614,-4.702007906982423,0.9667680263519287,34.716548919677734,0.48644578721788195,-0.12873611450195313
6680,0.19372479522026917,0.2789063262939453,89.73080444335938,77.61967468261719,-5.525676727294922,90.24225616455078,-0.0059324900309244795,0.31333333333333335,0.33464285714285713,0.022550454025607614,-5.075533526489259,-0.15380539233398594,34.716548919677734,0.13456810845269096,-0.1196436987982856
6681,0.19763104522026917,0.2789063262939453,84.82088470458984,76.26943969726562,-4.236824035644531,89.54668426513672,-0.006387117173936632,0.30833333333333335,0.33285714285714285,0.021726479416232614,-5.108490603515627,-2.208185809204103,34.716548919677734,0.09501605563693577,-0.09759453667534722
6682,0.20544354522026917,0.29882820129394533,83.96165466308594,81.67034912109375,-3.295757293701172,89.58760070800781,-0.006159803602430555,0.30366666666666664,0.3314285714285714,0.020658448952907964,-4.449329989501955,-1.3622652464599625,40.42940139770508,0.025458950466579863,-0.08759286668565539
6683,0.18981854522026917,0.29882820129394533,86.76439666748047,78.15158081054688,-3.091175079345703,89.75126647949219,-0.006159803602430555,0.29933333333333334,0.33035714285714285,0.018949464577907964,-3.7681986265869156,-0.3954969816894547,40.60517883300781,0.09569795396592883,-0.08713823954264323
6684,0.18981854522026917,0.29882820129394533,86.04837036132812,78.78577423095703,-3.091175079345703,89.44439697265625,-0.006159803602430555,0.295,0.33,0.018613771218532964,-3.4056612425537125,-0.3076082640380875,41.39619064331055,0.08069551255967881,-0.08372857835557726
6685,0.18981854522026917,0.29882820129394533,86.1097412109375,79.80867004394531,-2.9479713439941406,89.89447021484375,-0.006159803602430555,0.29033333333333333,0.3296428571428571,0.018644288796657964,-3.1419969969482437,0.23070600628852844,45.43912887573242,0.07001190185546875,-0.08713823954264323
6686,0.18591229522026917,0.29882820129394533,86.15065002441406,80.25875091552734,-3.295757293701172,90.36500549316406,-0.006159803602430555,0.287,0.3296428571428571,0.018583253640407964,-2.889319079467775,0.5383139848709106,49.8336296081543,0.06546554565429688,-0.09623069763183593
6687,0.18591229522026917,0.29882820129394533,86.17111206054688,80.17691802978516,-3.7662887573242188,90.59004211425781,-0.006159803602430555,0.2836666666666667,0.3317857142857143,0.018766359109157964,-2.7684732847900406,0.24169200658798218,49.8336296081543,0.06660215589735242,-0.10395923190646701
6688,0.19372479522026917,0.29882820129394533,86.17111206054688,80.13600158691406,-4.093616485595703,90.32408142089844,-0.0059324900309244795,0.2796666666666667,0.33321428571428574,0.019895509499782964,-2.900305407592775,-0.14281906420898594,49.8336296081543,0.06705678304036458,-0.1046410878499349
6689,0.19763104522026917,0.29882820129394533,86.15065002441406,78.68348693847656,-3.1525497436523438,89.09660339355469,-0.006159803602430555,0.277,0.335,0.020017579812282964,-2.856360095092775,-0.3515516691894547,49.7457389831543,0.08296847873263889,-0.08054614596896702
6690,0.19372479522026917,0.29882820129394533,86.13019561767578,78.80622863769531,-2.8865966796875,89.58760070800781,-0.006159803602430555,0.27466666666666667,0.3364285714285714,0.019376710671657964,-1.7028299742431656,0.06591600179672241,49.48207092285156,0.08137741088867187,-0.08304663764105903
6691,0.18981854522026917,0.29882820129394533,86.13019561767578,80.56562042236328,-3.1525497436523438,90.99920654296875,-0.006159803602430555,0.273,0.33714285714285713,0.018918946999782964,-0.5492998533935562,0.6591600179672241,49.48207092285156,0.06182861328125,-0.1016861809624566
6692,0.18591229522026917,0.29882820129394533,86.17111206054688,80.62699890136719,-4.257282257080078,91.04011535644531,-0.006159803602430555,0.27066666666666667,0.3364285714285714,0.019407228249782964,-0.5383154326171891,0.6042300462722778,49.39418029785156,0.06160125732421875,-0.114415529039171
6693,0.18591229522026917,0.29882820129394533,86.19157409667969,80.56562042236328,-4.298198699951172,91.38790130615234,-0.006159803602430555,0.271,0.33535714285714285,0.019773439187282964,-1.1864878111572281,0.07690200209617615,49.39418029785156,0.0625105963812934,-0.11873444451226128
6694,0.19763104522026917,0.29882820129394533,86.17111206054688,79.46089172363281,-4.727817535400391,91.572021484375,-0.006159803602430555,0.27066666666666667,0.335,0.020261720437282964,-1.6808592253417984,-0.49437012011718906,49.39418029785156,0.07455800374348959,-0.12555376688639322
6695,0.19763104522026917,0.29882820129394533,86.15065002441406,80.4837875366211,-5.014228820800781,91.572021484375,-0.006159803602430555,0.269,0.3342857142857143,0.019987062234157964,-2.2960745268554703,-0.5383154326171891,49.39418029785156,0.06296513875325521,-0.12873611450195313
6696,0.19372479522026917,0.29882820129394533,86.17111206054688,79.72684478759766,-5.1983489990234375,91.40835571289062,-0.006159803602430555,0.26766666666666666,0.33464285714285713,0.018827394265407964,-2.856360095092775,-0.7360617094726578,49.39418029785156,0.07160296969943576,-0.12896338568793403
6697,0.19372479522026917,0.29882820129394533,86.13019561767578,78.60165405273438,-5.321098327636719,91.1628646850586,-0.006159803602430555,0.26566666666666666,0.33535714285714285,0.01788143411458331,-3.284815447875978,-1.142544406005861,49.39418029785156,0.0836504618326823,-0.12759958902994792
6698,0.19372479522026917,0.29882820129394533,85.23004150390625,78.45845031738281,-5.402931213378906,91.65385437011719,-0.006159803602430555,0.26366666666666666,0.3360714285714286,0.01711849466145831,-3.515520709106447,-0.6921183043212906,49.39418029785156,0.07523990207248264,-0.1339642842610677
6699,0.18981854522026917,0.29882820129394533,86.13019561767578,80.40196228027344,-5.525676727294922,91.61294555664062,-0.006159803602430555,0.26033333333333336,0.33714285714285713,0.01601986184895831,-3.7901712828369156,0.1867620050907135,49.39418029785156,0.06364703708224827,-0.1348735809326172
6700,0.18200604522026917,0.29882820129394533,86.0688247680664,77.27188110351562,-5.525676727294922,91.2242431640625,-0.006159803602430555,0.25666666666666665,0.3382142857142857,0.014921313807508656,-4.262568133422853,0.0,48.427391052246094,0.09774381849500868,-0.1305546654595269
6701,0.18981854522026917,0.29882820129394533,85.16867065429688,80.01325988769531,-5.484760284423828,91.42881774902344,-0.0059324900309244795,0.253,0.34035714285714286,0.01537899270833331,-4.548205035278322,0.2197200059890747,47.72426986694336,0.057282341851128474,-0.13237308926052518
6702,0.18981854522026917,0.29882820129394533,86.04837036132812,79.13356018066406,-5.423389434814453,91.44927978515625,-0.0059324900309244795,0.24933333333333332,0.3417857142857143,0.01611141458333331,-4.658064501831056,0.9557820558547974,46.933258056640625,0.07683122422960069,-0.13191854688856336
6703,0.18591229522026917,0.2789063262939453,85.84378051757812,80.01325988769531,-5.5870513916015625,92.36988830566406,-0.006159803602430555,0.245,0.3435714285714286,0.01580623880208331,-4.855812686035158,1.0436700582504272,46.84537124633789,0.06478356255425347,-0.14396599663628473
6704,0.18591229522026917,0.2789063262939453,85.86424255371094,79.27676391601562,-6.2007904052734375,91.55156707763672,-0.006159803602430555,0.24066666666666667,0.3439285714285714,0.01629452005208331,-5.547930377075197,0.9228240251541138,45.70280075073242,0.07319420708550348,-0.14169286092122396
6705,0.19372479522026917,0.2789063262939453,85.84378051757812,79.31768798828125,-5.853004455566406,91.42881774902344,-0.006159803602430555,0.23633333333333334,0.34535714285714286,0.01739315286458331,-6.251034396240236,0.790992021560669,45.43912887573242,0.07251213921440972,-0.13646469116210938
6706,0.19763104522026917,0.2789063262939453,85.86424255371094,79.66546630859375,-5.832546234130859,91.53111267089844,-0.006159803602430555,0.23066666666666666,0.3457142857142857,0.018491700906032964,-6.349909442016603,0.8569080233573914,45.43912887573242,0.0688752916124132,-0.13737398783365887
6707,0.19372479522026917,0.29882820129394533,85.88470458984375,79.13356018066406,-5.730258941650391,91.1628646850586,-0.006159803602430555,0.225,0.34714285714285714,0.018888429421657964,-6.349909442016603,0.7580339908599854,44.29655838012695,0.07501271565755209,-0.13214581807454426
6708,0.20153729522026917,0.29882820129394533,85.82332611083984,80.44287109375,-5.66888427734375,91.20378112792969,-0.006159803602430555,0.21933333333333332,0.34785714285714286,0.019803956765407964,-6.349909442016603,0.747048020362854,44.12078094482422,0.05978283352322049,-0.1319185045030382
6709,0.20153729522026917,0.2789063262939453,86.04837036132812,78.35615539550781,-5.505218505859375,91.1628646850586,-0.006159803602430555,0.21366666666666667,0.3485714285714286,0.020505861062282964,-6.174132006713869,0.8129640221595764,44.12078094482422,0.08546905517578125,-0.12964536878797744
6710,0.20153729522026917,0.29882820129394533,85.57783508300781,81.11798858642578,-5.3620147705078125,90.54912567138672,-0.006159803602430555,0.20766666666666667,0.3489285714285714,0.021451821213107614,-6.020329135009767,0.8788800239562988,44.03289031982422,0.04955384996202257,-0.12123489379882812
6711,0.20544354522026917,0.2789063262939453,86.49844360351562,80.91340637207031,-3.9708709716796875,90.24225616455078,-0.006159803602430555,0.202,0.35,0.022184243088107614,-5.723705905029298,1.3512780666351318,44.03289031982422,0.06205596923828125,-0.10236807929144966
6712,0.19763104522026917,0.2789063262939453,86.21202850341797,80.62699890136719,-4.318656921386719,91.26515197753906,-0.0059324900309244795,0.19766666666666666,0.35035714285714287,0.022611489181857614,-4.680037158081056,0.9667680263519287,44.03289031982422,0.062055884467230905,-0.1175978766547309
6713,0.19763104522026917,0.29882820129394533,86.13019561767578,79.07218933105469,-4.482318878173828,90.26271057128906,-0.006159803602430555,0.19366666666666665,0.34964285714285714,0.023282875900607614,-4.273554461547853,0.5383139848709106,44.03289031982422,0.07842229207356771,-0.10827810499403212
6714,0.19372479522026917,0.2789063262939453,86.17111206054688,79.542724609375,-4.502777099609375,90.87644958496094,-0.006159803602430555,0.18933333333333333,0.3489285714285714,0.023191323166232614,-4.130736010620119,0.8459219932556152,44.03289031982422,0.07364874945746527,-0.11532474093967014
6715,0.18591229522026917,0.2789063262939453,86.02790832519531,78.84715270996094,-4.850563049316406,90.75370788574219,-0.006159803602430555,0.186,0.34785714285714286,0.023008217697482614,-3.504534380981447,0.6262019872665405,44.03289031982422,0.07978617350260417,-0.11782523261176216
6716,0.18591229522026917,0.2789063262939453,86.0074462890625,79.87004852294922,-4.932395935058594,90.79461669921875,-0.006159803602430555,0.18366666666666667,0.3467857142857143,0.023343911056857614,-3.284815447875978,0.6811320185661316,44.03289031982422,0.0681933085123698,-0.11918902926974827
6717,0.18981854522026917,0.29882820129394533,86.02790832519531,81.01570129394531,-5.034687042236328,90.65141296386719,-0.0059324900309244795,0.18066666666666667,0.345,0.02447297667643227,-2.9991785460205094,0.8349360227584839,44.03289031982422,0.05569118923611111,-0.11873444451226128
6718,0.18591229522026917,0.29882820129394533,86.47798156738281,81.67034912109375,-5.1983489990234375,90.93782806396484,-0.006159803602430555,0.17833333333333334,0.3435714285714286,0.02483918761393227,-2.823403018066408,0.5932440161705017,44.03289031982422,0.053418138292100695,-0.1237353006998698
6719,0.18200604522026917,0.2789063262939453,86.64164733886719,78.66302490234375,-5.280181884765625,90.75370788574219,-0.006159803602430555,0.17633333333333334,0.3410714285714286,0.02422883605143227,-2.834389346191408,-0.49437012011718906,44.03289031982422,0.08865136040581598,-0.12259877522786458
6720,0.19372479522026917,0.29882820129394533,86.29386138916016,78.92898559570312,-5.239265441894531,90.03767395019531,-0.0059324900309244795,0.174,0.3392857142857143,0.02496125792643227,-2.801430361816408,-0.9447962218017594,43.68132781982422,0.08183195326063368,-0.11418821546766493
6721,0.19763104522026917,0.29882820129394533,86.33477783203125,81.05661010742188,-4.768730163574219,90.671875,-0.006159803602430555,0.172,0.33714285714285713,0.02480867003580727,-2.4279066496582047,-0.4064833098144547,43.505550384521484,0.058646308051215276,-0.11600672403971354
6722,0.18591229522026917,0.29882820129394533,86.6007308959961,82.20226287841797,-5.382472991943359,91.30607604980469,-0.006159803602430555,0.17,0.3357142857142857,0.023404946213107614,-1.8676210814209,-0.5492998533935562,43.505550384521484,0.04887186686197917,-0.12987276713053386
6723,0.18591229522026917,0.29882820129394533,85.12775421142578,77.41508483886719,-5.239265441894531,90.81507873535156,-0.006159803602430555,0.168,0.33321428571428574,0.022550454025607614,-2.3729769163818375,-2.0983263426513687,43.417659759521484,0.08569632636176215,-0.12282604641384548
6724,0.20153729522026917,0.29882820129394533,84.67768096923828,78.80622863769531,-5.075603485107422,90.73324584960938,-0.006159803602430555,0.16666666666666666,0.3314285714285714,0.022001137619357614,-2.933262484619142,-1.7577597075195328,43.68132781982422,0.06523835923936631,-0.12009832594129774
6725,0.19372479522026917,0.29882820129394533,85.43462371826172,80.07463073730469,-4.871021270751953,91.0196533203125,-0.0059324900309244795,0.16333333333333333,0.33,0.020139650124782964,-3.0760809355468766,-0.6042314940185562,45.70280075073242,0.05955547756618924,-0.12100749545627171
6726,0.18591229522026917,0.29882820129394533,86.70301818847656,79.9927978515625,-4.789188385009766,90.75370788574219,-0.006159803602430555,0.16066666666666668,0.3296428571428571,0.018674806374782964,-3.185940402099611,-0.09887375170898594,45.70280075073242,0.07455800374348959,-0.11714329189724393
6727,0.18200604522026917,0.29882820129394533,86.662109375,80.15646362304688,-4.8914794921875,90.81507873535156,-0.0059324900309244795,0.157,0.3292857142857143,0.018094972390407964,-3.4056612425537125,-0.3735243254394547,45.70280075073242,0.07228495279947916,-0.11896175808376735
6728,0.18591229522026917,0.29882820129394533,86.68256378173828,79.58363342285156,-5.157432556152344,90.89691162109375,-0.0059324900309244795,0.15366666666666667,0.3292857142857143,0.018156007546657964,-3.6693254881591812,-0.6591612272949234,45.70280075073242,0.07887700398763021,-0.12282604641384548
6729,0.19372479522026917,0.29882820129394533,86.64164733886719,79.46089172363281,-5.218807220458984,90.61050415039062,-0.006159803602430555,0.15033333333333335,0.3296428571428571,0.018461183327907964,-4.042849200317384,-0.7360617094726578,45.79069137573242,0.07978617350260417,-0.120325681898329
6730,0.19372479522026917,0.29882820129394533,86.62118530273438,79.74729919433594,-5.321098327636719,90.42637634277344,-0.006159803602430555,0.146,0.33035714285714285,0.01794246927083331,-4.240597384521486,-0.5273291044921891,45.79069137573242,0.0763765123155382,-0.11941638522677951
6731,0.18591229522026917,0.29882820129394533,86.64164733886719,77.76287841796875,-5.3620147705078125,90.50820922851562,-0.0059324900309244795,0.142,0.33107142857142857,0.01693538919270831,-4.130736010620119,-0.5822588377685562,45.79069137573242,0.09865298800998264,-0.12078026665581597
6732,0.18591229522026917,0.29882820129394533,85.455078125,79.4404296875,-5.402931213378906,90.40591430664062,-0.006159803602430555,0.13733333333333334,0.33214285714285713,0.01669124856770831,-3.976933138916017,0.05493000149726868,45.79069137573242,0.06682942708333334,-0.12009828355577257
6733,0.18200604522026917,0.29882820129394533,86.0074462890625,80.50424194335938,-5.464302062988281,90.42637634277344,-0.0059324900309244795,0.13366666666666666,0.33321428571428574,0.01635555520833331,-3.88904442126465,0.8569080233573914,45.70280075073242,0.061146714952256945,-0.12100753784179688
6734,0.18200604522026917,0.2789063262939453,86.02790832519531,80.46333312988281,-5.525676727294922,90.42637634277344,-0.006159803602430555,0.12966666666666668,0.33321428571428574,0.01687435403645831,-3.7901712828369156,0.8459219932556152,45.79069137573242,0.06182861328125,-0.12168947855631511
6735,0.18591229522026917,0.2789063262939453,86.0074462890625,78.25386810302734,-5.525676727294922,90.24225616455078,-0.0059324900309244795,0.12533333333333332,0.33321428571428574,0.01754574075520831,-3.6912962370605484,0.5822579860687256,45.70280075073242,0.08615086873372396,-0.1196436987982856
6736,0.17809979522026917,0.2789063262939453,85.96653747558594,78.68348693847656,-5.402931213378906,89.95584106445312,-0.0059324900309244795,0.12166666666666667,0.3335714285714286,0.01760677591145831,-3.4825636320800797,0.9228240251541138,45.70280075073242,0.08092278374565973,-0.11509746975368923
6737,0.17809979522026917,0.2789063262939453,86.19157409667969,78.45845031738281,-5.157432556152344,90.09904479980469,-0.006159803602430555,0.118,0.3339285714285714,0.018461183327907964,-3.0431219511718766,1.1864880323410034,45.79069137573242,0.08592359754774305,-0.11396085951063369
6738,0.18981854522026917,0.2789063262939453,85.88470458984375,80.40196228027344,-5.300640106201172,90.42637634277344,-0.006159803602430555,0.11433333333333333,0.3335714285714286,0.020200685281032964,-2.537766116210939,1.2743760347366333,45.79069137573242,0.06091935899522569,-0.11918907165527344
6739,0.17419354522026917,0.29882820129394533,86.31431579589844,79.27676391601562,-5.382472991943359,90.77416229248047,-0.006159803602430555,0.11233333333333333,0.3335714285714286,0.020688966531032964,-2.4279066496582047,1.9445220232009888,45.79069137573242,0.0781950208875868,-0.12396261427137586
6740,0.15856854522026917,0.2789063262939453,86.559814453125,80.79066467285156,-5.464302062988281,90.71278381347656,-0.006159803602430555,0.109,0.33321428571428574,0.020994057541232614,-2.3729769163818375,1.8895920515060425,45.79069137573242,0.06410166422526041,-0.12418984307183159
6741,0.16638104522026917,0.2789063262939453,86.84622192382812,81.0975341796875,-5.423389434814453,90.50820922851562,-0.0059324900309244795,0.10666666666666667,0.3325,0.022825112228732614,-2.6586119108886734,2.3839621543884277,45.79069137573242,0.06387430826822917,-0.1214622073703342
6742,0.14684979522026917,0.25898443222045897,89.2193603515625,80.52470397949219,-5.402931213378906,90.38545989990234,-0.006159803602430555,0.103,0.3317857142857143,0.022916664963107614,-2.6695982390136734,1.735788106918335,45.79069137573242,0.09660729302300347,-0.11987101236979167
6743,0.14294354522026917,0.239062557220459,86.78485107421875,80.25875091552734,-5.341556549072266,90.75370788574219,-0.0059324900309244795,0.10233333333333333,0.33107142857142857,0.022397866134982614,-2.581711428710939,0.13183200359344482,45.79069137573242,0.07251222398546008,-0.12328071594238281
6744,0.12341229522026917,0.25898443222045897,86.84622192382812,80.4837875366211,-5.280181884765625,90.46729278564453,-0.0059324900309244795,0.09933333333333333,0.33071428571428574,0.021390786056857614,-2.7135435515136734,-0.3515516691894547,45.79069137573242,0.07069371541341146,-0.11941638522677951
6745,0.09216229522026917,0.25898443222045897,86.84622192382812,78.43798828125,-5.239265441894531,90.42637634277344,-0.006159803602430555,0.097,0.33035714285714285,0.01794246927083331,-2.9991785460205094,-0.3076082640380875,45.79069137573242,0.09342481825086806,-0.11850713094075521
6746,0.07653729522026917,0.239062557220459,85.06637573242188,76.43310546875,-5.259723663330078,90.50820922851562,-0.0059324900309244795,0.09366666666666666,0.33,0.015043384120008656,-3.0101648741455094,-1.8895918303222672,45.79069137573242,0.09592522515190972,-0.1196436987982856
6747,0.11559979522026917,0.25898443222045897,83.94119262695312,80.9952392578125,-5.239265441894531,90.26271057128906,-0.006159803602430555,0.09033333333333333,0.33,0.01775936380208331,-2.834389346191408,-2.219172137329103,45.79069137573242,0.03273281521267361,-0.1166886223687066
6748,0.11169354522026917,0.25898443222045897,86.96897888183594,80.4837875366211,-5.280181884765625,90.48774719238281,-0.006159803602430555,0.088,0.33,0.01577572122395831,-2.7465006285400406,-1.0766283446044937,45.79069137573242,0.07205768161349826,-0.11964365641276041
6749,0.08434979522026917,0.239062557220459,85.63920593261719,79.27676391601562,-5.259723663330078,90.99920654296875,-0.0059324900309244795,0.08533333333333333,0.33,0.011869640766059003,-2.834389346191408,-1.5929705076904312,45.79069137573242,0.07069380018446181,-0.12509922451443142
6750,0.08434979522026917,0.239062557220459,86.13019561767578,80.52470397949219,-5.341556549072266,90.97874450683594,-0.006159803602430555,0.08233333333333333,0.3296428571428571,0.010587902484809003,-3.1200243406982437,-1.538040774414064,45.79069137573242,0.06228324042426215,-0.1257811228434245
6751,0.07263104522026917,0.239062557220459,86.17111206054688,82.12042999267578,-5.321098327636719,90.2218017578125,-0.0059324900309244795,0.07833333333333334,0.3296428571428571,0.008390721630859351,-3.603409426757814,-1.4501520567626969,45.79069137573242,0.045007578531901044,-0.1171433342827691
6752,0.05700604522026917,0.239062557220459,88.44195556640625,76.24897766113281,-5.300640106201172,90.30363464355469,-0.006159803602430555,0.07533333333333334,0.33,0.006071470464409698,-3.6143938475341812,-2.164242404052736,45.79069137573242,0.13547753228081597,-0.11782527499728733
6753,0.05700604522026917,0.239062557220459,83.42974090576172,78.540283203125,-5.259723663330078,90.569580078125,-0.006159803602430555,0.07166666666666667,0.33035714285714285,0.0037522192979600453,-3.3177725249023453,-2.3070608549804703,45.79069137573242,0.054327307807074655,-0.12032559712727865
6754,0.06091229522026917,0.25898443222045897,84.24806213378906,76.20806884765625,-5.3620147705078125,90.42637634277344,-0.006159803602430555,0.06833333333333333,0.33035714285714285,0.0028672095323350453,-3.218899386474611,-0.5492998533935562,45.79069137573242,0.08933325873480903,-0.11987101236979167
6755,0.04919354522026917,0.25898443222045897,87.78729248046875,81.547607421875,-5.321098327636719,91.67431640625,-0.006159803602430555,0.06566666666666666,0.33035714285714285,0.0017088996039496527,-3.251856463500978,1.307334065437317,45.79069137573242,0.069329833984375,-0.13328238593207464
6756,0.03356854522026917,0.239062557220459,87.23492431640625,79.11309814453125,-5.934837341308594,91.77660369873047,-0.0059324900309244795,0.062,0.33035714285714285,0.0009154425726996528,-3.7022825651855484,0.6152160167694092,45.79069137573242,0.09024251302083333,-0.14123823377821182
6757,0.05309979522026917,0.239062557220459,85.53691101074219,78.21295166015625,-5.791633605957031,89.99675750732422,-0.005250591701931423,0.058333333333333334,0.33071428571428574,0.0029587622667100453,-4.526232379028322,-0.3845106535644547,45.79069137573242,0.08137732611762152,-0.11987101236979167
6758,0.06872479522026917,0.219140682220459,85.53691101074219,79.80867004394531,-4.8914794921875,90.50820922851562,-0.0059324900309244795,0.05466666666666667,0.3314285714285714,0.0036911841417100453,-4.251581805297853,-0.01098694140625156,45.79069137573242,0.06364712185329861,-0.11555209689670139
6759,0.05309979522026917,0.239062557220459,86.559814453125,79.0312728881836,-5.321098327636719,90.89691162109375,-0.0059324900309244795,0.051,0.3325,0.0025620337510850453,-3.6363665037841812,-0.05493034655761875,45.79069137573242,0.0836504618326823,-0.1246445549858941
6760,0.05700604522026917,0.239062557220459,86.17111206054688,78.09020233154297,-5.423389434814453,90.52867126464844,-0.0059324900309244795,0.04633333333333333,0.33285714285714285,0.0023789282823350453,-3.7352415495605484,-0.5712725096435562,45.79069137573242,0.08978788587782117,-0.12168956332736545
6761,0.06091229522026917,0.219140682220459,85.76194763183594,78.68348693847656,-5.382472991943359,89.97630310058594,-0.0059324900309244795,0.042333333333333334,0.33321428571428574,0.0019225226508246527,-3.965946810791017,-0.4064833098144547,45.79069137573242,0.07864956325954861,-0.1150975121392144
6762,0.06481854522026917,0.219140682220459,85.94607543945312,81.0361557006836,-5.034687042236328,90.20133972167969,-0.0059324900309244795,0.03833333333333333,0.3339285714285714,0.0017394171820746527,-3.4386183195800797,-0.08788933093261875,45.79069137573242,0.0545546637641059,-0.11373363071017795
6763,0.06481854522026917,0.219140682220459,86.25294494628906,77.435546875,-5.321098327636719,90.34454345703125,-0.0059324900309244795,0.034333333333333334,0.3342857142857143,0.0015257941351996527,-2.878332751342775,-0.3076082640380875,45.79069137573242,0.09797108968098958,-0.11850713094075521
6764,0.07653729522026917,0.219140682220459,85.31187438964844,77.9469985961914,-5.341556549072266,90.46729278564453,-0.006159803602430555,0.03133333333333333,0.33464285714285713,0.0020751105414496527,-2.7574869566650406,-0.21972145373535312,45.79069137573242,0.08183195326063368,-0.12009832594129774
6765,0.09606854522026917,0.19921878814697266,85.57783508300781,78.29478454589844,-5.341556549072266,90.34454345703125,-0.0059324900309244795,0.028333333333333332,0.3339285714285714,0.0030503150010850453,-2.7684732847900406,0.16479000449180603,42.97821044921875,0.08092278374565973,-0.11873444451226128
6766,0.08825604522026917,0.19921878814697266,85.63920593261719,79.87004852294922,-5.3620147705078125,91.49018859863281,-0.0059324900309244795,0.025,0.33321428571428574,0.0032334204698350453,-2.3949495726318375,1.2084600925445557,42.89031982421875,0.06410174899631077,-0.13169114854600694
6767,0.06481854522026917,0.19921878814697266,85.68012237548828,80.17691802978516,-5.8939208984375,92.10392761230469,-0.0059324900309244795,0.02266666666666667,0.33071428571428574,0.0025620337510850453,-1.9335371428222672,1.8017040491104126,37.79269790649414,0.061146714952256945,-0.14442053900824653
6768,0.05700604522026917,0.19921878814697266,86.13019561767578,83.24562072753906,-6.282623291015625,91.89935302734375,-0.0059324900309244795,0.019666666666666666,0.32571428571428573,0.0037522192979600453,-2.0983263426513687,1.7907180786132812,37.529029846191406,0.032050832112630205,-0.1464664035373264
6769,0.04528729522026917,0.17929691314697266,85.68012237548828,78.11065673828125,-4.257282257080078,90.97874450683594,-0.006159803602430555,0.01633333333333333,0.32285714285714284,0.003782652105034698,-2.230158465454103,0.4284540116786957,37.529029846191406,0.0841051737467448,-0.11373363071017795
6770,0.03747479522026917,0.17929691314697266,89.09660339355469,78.82669067382812,-5.402931213378906,89.89447021484375,-0.0059324900309244795,0.013666666666666667,0.31892857142857145,0.0035385962510850453,-1.4831110411376969,0.09887400269508362,37.265357971191406,0.11411014133029514,-0.11441557142469617
6771,0.025756045220269166,0.17929691314697266,84.53446960449219,78.9903564453125,-4.8914794921875,89.68988800048828,-0.0059324900309244795,0.011,0.3157142857142857,0.0021666632758246527,-1.1974741392822281,-0.7031046324462906,37.265357971191406,0.06160125732421875,-0.10645963880750868
6772,0.010131045220269167,0.13945316314697265,85.1072998046875,83.63432312011719,-4.011787414550781,86.78485107421875,-0.0059324900309244795,0.007666666666666666,0.31107142857142855,0.00042724609375,-0.9008528166503922,-0.2636648588867203,26.015439987182617,0.016366407606336807,-0.06440709431966146
6773,-0.017212677001953124,0.13945316314697265,88.29874420166016,72.9143295288086,-1.0658340454101562,84.43218231201172,-0.0059324900309244795,0.004333333333333333,0.30857142857142855,-0.00140380859375,0.24169200658798218,-0.4394403868408219,25.83966064453125,0.1709379408094618,-0.005533515082465278
6774,-0.013306427001953124,0.1195312786102295,90.87644958496094,76.45356750488281,0.9185905456542969,84.53446960449219,-0.0059324900309244795,0.002,0.30464285714285716,-0.001739501953125,2.7245280742645264,-0.5602861815185562,25.83966064453125,0.16025424533420138,0.015379121568467881
6775,-0.009400177001953124,0.1195312786102295,84.63676452636719,76.76043701171875,0.6526374816894531,83.65477752685547,-0.0059324900309244795,0.001,0.3,-0.001800537109375,3.317772150039673,0.45042601227760315,25.83966064453125,0.08751475016276042,0.022198443942599826
6776,-0.028931427001953124,0.09960939407348633,85.74149322509766,78.58119201660156,1.9005775451660156,82.42729949951172,0.02089021470811632,0.0003333333333333333,0.295,-0.0021971808539496527,2.3839621543884277,1.1535300016403198,25.83966064453125,0.07955890231662327,0.049703089396158855
6777,-0.03674392700195313,0.1195312786102295,86.49844360351562,82.22271728515625,1.5937042236328125,82.12042999267578,0.014298163519965278,0.0006666666666666666,0.2910714285714286,-0.00152587890625,2.2191720008850098,0.5493000149726868,25.83966064453125,0.04750807020399306,0.04970304701063368
6778,0.010131045220269167,0.1195312786102295,85.33233642578125,77.35371398925781,6.5445404052734375,76.20806884765625,0.0024779849582248262,0.0,0.2839285714285714,-0.0,1.3293060064315796,-0.2746511870117203,25.83966064453125,0.08865136040581598,0.17040523952907985
