,WD,WS,AIL_1,AIL_2,ELEV_1,ELEV_2,RUDD,ALT,GS,TH,PTCH,ROLL,PLA_1,AIL,ELEV
1898,0.15324933305664065,0.219140682220459,85.86424255371094,79.11309814453125,-3.4594192504882812,94.00653076171875,-0.011842600504557292,0.72,0.4210714285714286,0.02014100816514757,1.735788106918335,0.8678940534591675,45.966468811035156,0.07501271565755209,-0.13851055569118922
1899,0.15715558305664065,0.219140682220459,85.90515899658203,79.91096496582031,-3.4389610290527344,93.86331939697266,-0.011615286933051215,0.7166666666666667,0.4210714285714286,0.02053773668077257,1.5929700136184692,0.790992021560669,44.91178894042969,0.06660215589735242,-0.13669200473361545
1900,0.14153058305664065,0.219140682220459,85.90515899658203,80.01325988769531,-3.4594192504882812,93.80194854736328,-0.003886710272894965,0.7143333333333334,0.42178571428571426,0.01980531480577257,1.581984043121338,0.5822579860687256,44.82389831542969,0.06546554565429688,-0.13623741997612848
1901,0.12981183305664065,0.19921878814697266,85.88470458984375,79.35859680175781,-3.4594192504882812,93.781494140625,-0.006387117173936632,0.7116666666666667,0.42178571428571426,0.019103452894422744,1.5709980726242065,0.0,44.29655838012695,0.07251230875651042,-0.13601014879014756
1902,0.13762433305664065,0.19921878814697266,85.88470458984375,79.15402221679688,-3.4389610290527344,93.86331939697266,-0.011842600504557292,0.708,0.4225,0.019103452894422744,1.4831100702285767,-0.3845106535644547,44.03289031982422,0.07478535970052083,-0.13669200473361545
1903,0.13762433305664065,0.219140682220459,85.86424255371094,78.80622863769531,-3.4594192504882812,93.88377380371094,-0.011842600504557292,0.7046666666666667,0.4225,0.018981382581922744,1.1974740028381348,-0.3405672484130875,44.03289031982422,0.07842237684461806,-0.13714658949110242
1904,0.13762433305664065,0.219140682220459,85.86424255371094,78.74485778808594,-3.4594192504882812,93.90423583984375,-0.009342193603515625,0.7006666666666667,0.4232142857142857,0.018859312269422744,0.9228240251541138,-0.06591667468261875,44.03289031982422,0.07910427517361111,-0.1373739454481337
1905,0.13762433305664065,0.219140682220459,85.90515899658203,79.62455749511719,-3.3775863647460938,93.61782836914062,-0.008887566460503472,0.696,0.4235714285714286,0.018798277113172744,0.7360620498657227,0.24169200658798218,41.74774932861328,0.06978446112738715,-0.13328238593207464
1906,0.12981183305664065,0.219140682220459,85.88470458984375,79.78821563720703,-3.3775863647460938,93.51553344726562,-0.006841744316948784,0.692,0.4232142857142857,0.018126932779947917,0.8569080233573914,0.1867620050907135,39.11104965209961,0.06773876614040798,-0.13214577568901908
1907,0.12981183305664065,0.219140682220459,85.88470458984375,79.3995132446289,-3.4389610290527344,93.80194854736328,-0.00843293931749132,0.6886666666666666,0.4225,0.017974344889322917,1.1205720901489258,-0.19774879748535312,37.265357971191406,0.07205768161349826,-0.13601010640462238
1908,0.12981183305664065,0.219140682220459,85.86424255371094,78.96989440917969,-3.4389610290527344,93.98606872558594,-0.0075236850314670135,0.684,0.4207142857142857,0.017547098795572917,0.8349360227584839,-0.12084640795898594,36.0349006652832,0.07660386827256944,-0.1380558861626519
1909,0.12981183305664065,0.19921878814697266,85.557373046875,77.23097229003906,-3.4389610290527344,93.98606872558594,-0.005705218844943577,0.6786666666666666,0.41964285714285715,0.017089335123697917,0.29662200808525085,0.35155200958251953,35.7712287902832,0.09251556396484376,-0.1380558861626519
1910,0.14153058305664065,0.19921878814697266,85.65966796875,78.86760711669922,-5.648426055908203,95.11125946044922,-0.011160659790039062,0.6753333333333333,0.4182142857142857,0.017974344889322917,0.2746500074863434,1.6808580160140991,35.7712287902832,0.07546734280056423,-0.1751076168484158
1911,0.12199933305664064,0.19921878814697266,85.94607543945312,80.70883178710938,-4.993770599365234,94.96804809570312,-0.0013863033718532986,0.67,0.4164285714285714,0.017943827311197917,-0.6921183043212906,2.372976064682007,36.29856872558594,0.05819159613715278,-0.166242429945204
1912,0.12590558305664065,0.17929691314697266,85.94607543945312,79.11309814453125,-5.300640106201172,95.25446319580078,-0.013888380262586805,0.6666666666666666,0.415,0.019439146253797744,-1.2524038725585953,2.274101972579956,37.96847915649414,0.07592196994357639,-0.17283448113335503
1913,0.12981183305664065,0.15937503814697265,85.96653747558594,79.91096496582031,-6.1394195556640625,95.56134033203125,-0.004114023844401042,0.6633333333333333,0.41464285714285715,0.02069032457139757,-1.3073355131835953,2.449877977371216,39.726280212402344,0.06728413899739584,-0.18556399875217014
1914,0.14934308305664065,0.15937503814697265,85.98699188232422,79.93142700195312,-6.037128448486328,95.86820983886719,-0.013661109076605903,0.66,0.4135714285714286,0.02276543511284722,-1.6588865690917984,2.4059340953826904,41.22040939331055,0.06728405422634548,-0.18783709208170574
1915,0.14934308305664065,0.15937503814697265,86.98943328857422,81.28164672851562,-5.484760284423828,95.54087829589844,-0.010478719075520834,0.655,0.4139285714285714,0.02438282436794705,-2.4608656340332047,2.351004123687744,42.01142120361328,0.06341985066731771,-0.17806265089246961
1916,0.12590558305664065,0.17929691314697266,86.86668395996094,81.77264404296875,-5.771175384521484,95.35675048828125,-0.008205625745985243,0.651,0.41464285714285715,0.02517628139919705,-2.559738772460939,1.2414180040359497,42.362979888916016,0.05660044352213542,-0.17919917636447483
1917,0.12590558305664065,0.17929691314697266,86.72348022460938,80.21783447265625,-5.525676727294922,95.54087829589844,-0.012751854790581597,0.6463333333333333,0.415,0.02526783413357205,-2.4279066496582047,-0.5712725096435562,42.362979888916016,0.07228495279947916,-0.17851727803548176
1918,0.16106183305664065,0.15937503814697265,86.68256378173828,79.84959411621094,-5.402931213378906,95.21354675292969,-0.01752539740668403,0.641,0.41535714285714287,0.025511932373046876,-2.6366411619873062,-1.2633902006835953,42.362979888916016,0.07592188517252604,-0.17351642184787328
1919,0.16496808305664065,0.17929691314697266,86.662109375,80.11553955078125,-5.546134948730469,95.58179473876953,-0.010478719075520834,0.636,0.4160714285714286,0.02502369350857205,-2.3290335112304703,-1.4831110411376969,41.57196807861328,0.07273966471354167,-0.17919921875
1920,0.17668683305664065,0.17929691314697266,86.70301818847656,79.50180053710938,-5.382472991943359,95.2340087890625,-0.01320648193359375,0.6303333333333333,0.4160714285714286,0.02444385952419705,-2.2850881987304703,-1.4062086516113297,41.48408126831055,0.08001352945963541,-0.17351646423339845
1921,0.18059308305664065,0.15937503814697265,86.70301818847656,80.60653686523438,-5.464302062988281,95.41812896728516,-0.009114880032009548,0.6253333333333333,0.4160714285714286,0.02343682183159722,-2.219172137329103,-1.2963491850585953,41.48408126831055,0.06773868136935764,-0.1764714558919271
1922,0.16887433305664065,0.17929691314697266,86.64164733886719,79.31768798828125,-5.955295562744141,95.92958068847656,-0.011615286933051215,0.62,0.4164285714285714,0.022185643513997395,-2.559738772460939,-1.7687460356445328,41.48408126831055,0.08137732611762152,-0.1876097361246745
1923,0.15715558305664065,0.17929691314697266,86.62118530273438,79.41996765136719,-5.5870513916015625,95.49996185302734,-0.0050232781304253475,0.6143333333333333,0.4164285714285714,0.02026307847764757,-3.251856463500978,-1.6479002409667984,41.48408126831055,0.08001352945963541,-0.17874459160698786
1924,0.16106183305664065,0.17929691314697266,86.35523986816406,79.4404296875,-5.402931213378906,95.31584167480469,-0.009342193603515625,0.609,0.41714285714285715,0.019500181410047744,-3.526507037231447,-1.6698728972167984,41.13251876831055,0.07683122422960069,-0.1746530320909288
1925,0.16496808305664065,0.17929691314697266,86.29386138916016,78.76531982421875,-5.423389434814453,95.09080505371094,-0.015024948120117187,0.603,0.4175,0.018950865003797744,-3.1529833250732437,-1.2633902006835953,39.814170837402344,0.0836504618326823,-0.17237993876139324
1926,0.13762433305664065,0.17929691314697266,86.29386138916016,79.80867004394531,-5.423389434814453,95.41812896728516,0.0017960866292317708,0.5973333333333334,0.4175,0.01641799079047309,-2.790444033691408,-0.48338379199218906,39.462608337402344,0.07205768161349826,-0.17601687113444012
1927,0.14934308305664065,0.17929691314697266,86.49844360351562,79.78821563720703,-5.914379119873047,95.86820983886719,-0.01661614312065972,0.5913333333333334,0.41714285714285715,0.01687575446234809,-2.867346423217775,-0.2307058745117203,38.05636978149414,0.07455808851453993,-0.18647321065266928
1928,0.13762433305664065,0.17929691314697266,86.47798156738281,81.13844299316406,-5.300640106201172,95.02942657470703,-0.003659396701388889,0.5856666666666667,0.4164285714285714,0.01635695563422309,-3.218899386474611,-0.10986007983398594,37.79269790649414,0.05932820638020833,-0.17033407423231336
1929,0.13762433305664065,0.19921878814697266,86.41661071777344,79.58363342285156,-5.321098327636719,95.07034301757812,-0.011842600504557292,0.5796666666666667,0.4160714285714286,0.01620436774359809,-2.7245279722900406,-0.6481748991699234,37.79269790649414,0.07592196994357639,-0.1710160149468316
1930,0.14153058305664065,0.19921878814697266,86.43707275390625,79.93142700195312,-5.341556549072266,95.17263793945312,-0.014115693834092882,0.5743333333333334,0.415,0.01571608649359809,-2.197201388427736,-0.823950427124025,37.265357971191406,0.07228495279947916,-0.17237993876139324
1931,0.14153058305664065,0.17929691314697266,86.41661071777344,79.84959411621094,-5.402931213378906,95.37721252441406,-0.0054779052734375,0.5696666666666667,0.4142857142857143,0.014861636691623263,-2.0433966093750016,-0.7360617094726578,36.82590866088867,0.07296685112847222,-0.17533493041992188
1932,0.16106183305664065,0.19921878814697266,88.36012268066406,80.11553955078125,-5.341556549072266,95.33629608154297,-0.016388829549153647,0.5643333333333334,0.4125,0.01562453375922309,-2.4608656340332047,-0.4723993712158219,36.65013122558594,0.09160647922092013,-0.1741983625623915
1933,0.14934308305664065,0.19921878814697266,87.37813568115234,80.01325988769531,-5.341556549072266,95.1317138671875,-0.010933346218532987,0.559,0.4117857142857143,0.014922671847873263,-2.559738772460939,-0.9008528166503922,36.65013122558594,0.08183195326063368,-0.17192522684733072
1934,0.15324933305664065,0.17929691314697266,87.39859008789062,79.66546630859375,-5.44384765625,95.25446319580078,-0.0043413374159071184,0.554,0.4107142857142857,0.013122177124023438,-2.3729769163818375,-0.8898664885253922,36.65013122558594,0.08592359754774305,-0.17442567613389756
1935,0.14934308305664065,0.17929691314697266,87.35768127441406,79.87004852294922,-5.484760284423828,95.49996185302734,-0.011387973361545138,0.549,0.41035714285714286,0.012878036499023438,-2.4388929777832047,-1.3073355131835953,37.17747116088867,0.08319591946072048,-0.17760802374945747
1936,0.16887433305664065,0.19921878814697266,86.04837036132812,79.60409545898438,-5.259723663330078,94.76347351074219,-0.013661109076605903,0.5426666666666666,0.41,0.013091659545898438,-2.6256548338623062,-1.7577597075195328,37.704811096191406,0.07160305447048611,-0.16692441304524738
1937,0.17668683305664065,0.19921878814697266,85.53691101074219,78.19248962402344,-5.239265441894531,94.76347351074219,-0.012979168362087673,0.538,0.41,0.01214565700954861,-2.230158465454103,-1.3293062620849625,37.96847915649414,0.08160468207465278,-0.1666970994737413
1938,0.16106183305664065,0.19921878814697266,85.53691101074219,78.56073760986328,-5.239265441894531,94.76347351074219,-0.0059324900309244795,0.5326666666666666,0.40964285714285714,0.010467232598198786,-1.6588865690917984,-0.05493034655761875,38.05636978149414,0.0775130377875434,-0.1666970994737413
1939,0.12981183305664065,0.219140682220459,85.5982894897461,78.540283203125,-5.218807220458984,94.84530639648438,-0.004795964558919271,0.5273333333333333,0.4092857142857143,0.009826363457573786,-1.175503390380861,0.9887400269508362,38.05636978149414,0.07842229207356771,-0.16737904018825955
1940,0.12590558305664065,0.219140682220459,86.662109375,81.8953857421875,-5.280181884765625,95.09080505371094,-0.008205625745985243,0.5233333333333333,0.4082142857142857,0.010345162285698786,-0.856909411499025,1.5929700136184692,38.05636978149414,0.05296359592013889,-0.17078874376085068
1941,0.11418683305664064,0.219140682220459,86.90760040283203,80.60653686523438,-5.709800720214844,95.68408203125,-0.008887566460503472,0.5193333333333333,0.4075,0.010772408379448786,-1.0326849394531266,1.7797319889068604,38.05636978149414,0.0700118170844184,-0.1821542527940538
1942,0.09856183305664064,0.239062557220459,86.86668395996094,80.68836975097656,-5.341556549072266,95.04988098144531,-0.008660252888997395,0.515,0.40535714285714286,0.01126064724392361,-1.6918455534667984,1.1315580606460571,38.05636978149414,0.06864793565538195,-0.17101597256130643
1943,0.11809308305664064,0.219140682220459,86.82576751708984,80.11553955078125,-5.464302062988281,95.52041625976562,-0.014115693834092882,0.512,0.4042857142857143,0.01232876247829861,-1.3183199339599625,0.13183200359344482,38.05636978149414,0.07455808851453993,-0.1776079813639323
1944,0.11418683305664064,0.239062557220459,86.82576751708984,79.64501190185547,-5.3620147705078125,95.7249984741211,-0.007978312174479167,0.5076666666666667,0.40285714285714286,0.01223720974392361,-1.2633902006835953,-0.48338379199218906,38.05636978149414,0.07978617350260417,-0.17874459160698786
1945,0.11809308305664064,0.219140682220459,85.16867065429688,76.96501159667969,-4.932395935058594,94.66117858886719,-0.011160659790039062,0.5036666666666667,0.4017857142857143,0.01162685818142361,-1.6588865690917984,-0.3625379973144547,38.05636978149414,0.09115176730685765,-0.1621508280436198
1946,0.11028058305664064,0.219140682220459,85.39370727539062,78.29478454589844,-4.8096466064453125,94.43614196777344,-0.0050232781304253475,0.5,0.4010714285714286,0.011199654473198786,-0.7909933500976578,1.1315580606460571,38.320037841796875,0.07887691921657985,-0.15828653971354167
1947,0.09856183305664064,0.219140682220459,85.455078125,78.60165405273438,-4.830104827880859,94.70210266113281,-0.001613616943359375,0.49733333333333335,0.40035714285714286,0.01126064724392361,0.38451001048088074,2.3839621543884277,38.93526840209961,0.07614915635850694,-0.1614689721001519
1948,0.07903058305664064,0.19921878814697266,87.23492431640625,80.81111145019531,-4.932395935058594,95.1317138671875,-0.0002497355143229167,0.49466666666666664,0.3989285714285714,0.01153530544704861,0.7250760197639465,3.394674062728882,40.25362014770508,0.07137569851345486,-0.16737899780273438
1949,0.05949933305664064,0.19921878814697266,86.88714599609375,80.64745330810547,-4.952854156494141,94.98851013183594,-0.003204769558376736,0.492,0.3975,0.01263393825954861,0.3076080083847046,2.84537410736084,41.57196807861328,0.06932991875542535,-0.1660151587592231
1950,0.06731183305664064,0.219140682220459,86.53935241699219,81.4453125,-4.8914794921875,94.74301147460938,-0.015252261691623263,0.48966666666666664,0.3964285714285714,0.015044742160373263,0.4284540116786957,1.8346620798110962,42.71453857421875,0.05660044352213542,-0.16260545518663194
1951,0.08293683305664064,0.219140682220459,86.58027648925781,78.84715270996094,-4.8914794921875,94.82484436035156,-0.013433795505099827,0.48966666666666664,0.39535714285714285,0.01684523688422309,0.9338099956512451,0.7140899896621704,39.28683090209961,0.08592359754774305,-0.16351470947265626
1952,0.09856183305664064,0.25898443222045897,86.6007308959961,79.19493103027344,-4.932395935058594,94.94759368896484,-0.013661109076605903,0.487,0.3925,0.019164488050672744,1.0876140594482422,0.9447960257530212,34.892330169677734,0.08228666517469618,-0.16533321804470485
1953,0.10637433305664064,0.219140682220459,86.49844360351562,80.36103820800781,-4.932395935058594,94.92713928222656,-0.0075236850314670135,0.48633333333333334,0.3889285714285714,0.019469663831922744,0.9887400269508362,0.9447960257530212,30.673608779907227,0.06819339328342014,-0.16510594685872396
1954,0.10246808305664064,0.239062557220459,86.80531311035156,79.01081848144531,-4.911937713623047,95.00897216796875,-0.009114880032009548,0.48533333333333334,0.38357142857142856,0.01995790269639757,0.8019779920578003,0.7031040191650391,29.970489501953125,0.0866054958767361,-0.1657878875732422
1955,0.12199933305664064,0.239062557220459,86.662109375,79.25630950927734,-5.218807220458984,95.37721252441406,-0.014343007405598959,0.4826666666666667,0.38035714285714284,0.021972020467122395,0.24169200658798218,0.5822579860687256,29.794710159301758,0.08228666517469618,-0.17328910827636718
1956,0.11028058305664064,0.239062557220459,86.64164733886719,81.0361557006836,-5.464302062988281,95.41812896728516,-0.00047704908582899306,0.48133333333333334,0.375,0.021514256795247395,-0.6262022429199234,0.5493000149726868,29.794710159301758,0.06228324042426215,-0.1764714558919271
1957,0.09465558305664064,0.25898443222045897,86.6007308959961,78.96989440917969,-6.078044891357422,95.95003509521484,-0.007069057888454861,0.479,0.37107142857142855,0.02075135972764757,-1.6588865690917984,0.4284540116786957,29.794710159301758,0.08478707207573785,-0.18920088873969185
1958,0.08684308305664064,0.219140682220459,86.62118530273438,79.41996765136719,-6.159877777099609,95.95003509521484,-0.006841744316948784,0.47733333333333333,0.3657142857142857,0.019713804456922744,-2.867346423217775,0.8788800239562988,29.794710159301758,0.08001352945963541,-0.19011014302571613
1959,0.05559308305664064,0.17929691314697266,85.68012237548828,81.05661010742188,-6.057586669921875,95.95003509521484,-0.002750142415364583,0.47533333333333333,0.36214285714285716,0.017333475748697917,-3.6583391600341812,1.2743760347366333,29.794710159301758,0.05137235853407118,-0.18897357516818578
1960,0.05559308305664064,0.17929691314697266,86.17111206054688,79.05172729492188,-5.648426055908203,95.35675048828125,-0.013661109076605903,0.4723333333333333,0.3575,0.018249003092447917,-3.976933138916017,1.1425440311431885,29.794710159301758,0.07910427517361111,-0.17783529493543837
1961,0.08684308305664064,0.19921878814697266,86.5188980102539,80.32012939453125,-6.2007904052734375,96.17507934570312,-0.017070770263671875,0.4696666666666667,0.35464285714285715,0.021605809529622395,-3.4496046477050797,1.2304320335388184,29.794710159301758,0.06887520684136285,-0.19306521945529515
1962,0.10246808305664064,0.239062557220459,88.19645690917969,81.547607421875,-6.5894927978515625,96.21598815917969,-0.015252261691623263,0.4663333333333333,0.35,0.02426075405544705,-3.823128359863283,1.219446063041687,30.58572006225586,0.07387610541449653,-0.1978386773003472
1963,0.11418683305664064,0.19921878814697266,87.562255859375,82.38638305664062,-6.262165069580078,96.1341552734375,-0.009342193603515625,0.46166666666666667,0.34785714285714286,0.02511524624294705,-4.866799014160158,1.0876140594482422,31.816179275512695,0.057509697808159725,-0.19329244825575087
1964,0.11028058305664064,0.17929691314697266,87.05081176757812,80.07463073730469,-5.996212005615234,95.6431655883789,-0.0050232781304253475,0.457,0.3457142857142857,0.02444385952419705,-5.679762499877931,-0.02197326953125156,32.25563049316406,0.07751312255859374,-0.18488197326660155
1965,0.12199933305664064,0.17929691314697266,85.94607543945312,78.51982116699219,-5.66888427734375,95.04988098144531,-0.01320648193359375,0.4513333333333333,0.34535714285714286,0.02511524624294705,-5.4380709105224625,-0.4394403868408219,33.22241973876953,0.08251393636067708,-0.17465294731987846
1966,0.12981183305664065,0.19921878814697266,86.6007308959961,80.83157348632812,-4.543693542480469,94.39523315429688,-0.013661109076605903,0.44533333333333336,0.345,0.025450897216796876,-4.548205035278322,0.2526780068874359,34.013431549072266,0.06410174899631077,-0.15487696329752604
1967,0.12981183305664065,0.19921878814697266,87.31675720214844,81.13844299316406,-5.055145263671875,95.37721252441406,-0.01070603264702691,0.43966666666666665,0.34535714285714286,0.025634002685546876,-3.603409426757814,0.5493000149726868,36.82590866088867,0.06864793565538195,-0.17147064208984375
1968,0.10246808305664064,0.219140682220459,86.82576751708984,81.36347961425781,-4.727817535400391,94.94759368896484,-0.007069057888454861,0.43333333333333335,0.3442857142857143,0.02468800014919705,-3.965946810791017,0.29662200808525085,36.91379928588867,0.060692087809244795,-0.16306012471516926
1969,0.09465558305664064,0.219140682220459,86.58027648925781,78.66302490234375,-4.073158264160156,93.781494140625,-0.014115693834092882,0.42833333333333334,0.3435714285714286,0.02401661343044705,-3.845101016113283,0.1867620050907135,36.91379928588867,0.08796946207682292,-0.14282947116427952
1970,0.08684308305664064,0.219140682220459,87.48042297363281,80.97477722167969,-4.768730163574219,95.02942657470703,-0.00297745598687066,0.423,0.3425,0.02389458550347222,-2.504809039184572,0.5273280143737793,36.91379928588867,0.07228495279947916,-0.16442396375868057
1971,0.11028058305664064,0.19921878814697266,86.84622192382812,79.97233581542969,-4.523235321044922,94.37477111816406,-0.012069914076063368,0.419,0.3407142857142857,0.025420379638671876,-2.241144793579103,-0.4174677305908219,36.56224060058594,0.0763765123155382,-0.15442229376898872
1972,0.15715558305664065,0.19921878814697266,86.70301818847656,79.542724609375,-4.380031585693359,94.21110534667969,-0.020480431450737847,0.4146666666666667,0.3389285714285714,0.027648120456271703,-1.7687460356445328,-1.5819841795654312,37.441139221191406,0.07955881754557291,-0.15101263258192274
1973,0.14934308305664065,0.19921878814697266,85.14820861816406,76.73997497558594,-4.461860656738281,94.49752044677734,-0.014343007405598959,0.4103333333333333,0.33714285714285713,0.02511524624294705,-1.120571749755861,-1.8126913481445328,40.69306945800781,0.09342481825086806,-0.15510423448350694
1974,0.07121808305664064,0.17929691314697266,87.84866333007812,79.76776123046875,-4.400489807128906,94.43614196777344,0.010888502332899305,0.408,0.335,0.018004862467447917,-0.9557825499267594,-0.3076082640380875,41.13251876831055,0.08978780110677083,-0.15374035305447048
1975,0.01262433305664064,0.17929691314697266,84.94363403320312,83.12287139892578,-4.461860656738281,94.47706604003906,0.00225067138671875,0.4036666666666667,0.3339285714285714,0.014098697238498263,-1.120571749755861,0.2746500074863434,42.275089263916016,0.02023069593641493,-0.15487696329752604
1976,0.01653058305664064,0.13945316314697265,85.65966796875,78.56073760986328,-4.400489807128906,94.53843688964844,-0.016388829549153647,0.4003333333333333,0.33321428571428574,0.014129214816623263,-1.527054446289064,-0.6262022429199234,43.85710906982422,0.07887700398763021,-0.15487696329752604
1977,0.07121808305664064,0.1195312786102295,85.20958709716797,81.34302520751953,-5.44384765625,93.80194854736328,-0.022526211208767362,0.39866666666666667,0.33285714285714285,0.01611281500922309,-1.0876146727294937,-0.9118391447753922,44.99967956542969,0.042961798773871525,-0.15828662448459202
1978,0.08293683305664064,0.19921878814697266,87.562255859375,80.81111145019531,-4.645984649658203,94.21110534667969,-0.021844270494249134,0.3943333333333333,0.33285714285714285,0.017821756998697917,-1.1974741392822281,-0.6042314940185562,44.99967956542969,0.07501271565755209,-0.15396766662597655
1979,0.10246808305664064,0.19921878814697266,87.33721923828125,81.26119232177734,-4.789188385009766,94.59980773925781,-0.01616151597764757,0.392,0.3317857142857143,0.018676206800672744,-0.845923083374025,0.0,46.84537124633789,0.06751141018337674,-0.1598777347140842
1980,0.09074933305664064,0.15937503814697265,83.32745361328125,76.14669799804688,-5.423389434814453,95.66361999511719,-0.0007043626573350694,0.3903333333333333,0.3325,0.01687575446234809,-0.09887375170898594,-0.4723993712158219,46.933258056640625,0.07978617350260417,-0.17874454922146268
1981,0.08293683305664064,0.15937503814697265,86.88714599609375,81.40440368652344,-4.073158264160156,93.74057006835938,-0.0013863033718532986,0.386,0.3325,0.01583815680609809,-0.6042314940185562,-0.03295769030761875,47.196929931640625,0.06091935899522569,-0.142374759250217
1982,0.09465558305664064,0.219140682220459,87.09172058105469,81.64989471435547,-4.66644287109375,94.92713928222656,-0.017070770263671875,0.38366666666666666,0.33321428571428574,0.017974344889322917,-0.4284540587158219,-0.2307058745117203,47.284820556640625,0.060464731852213544,-0.16215091281467015
1983,0.13762433305664065,0.15937503814697265,84.75950622558594,76.43310546875,-3.6230850219726562,93.33141326904297,-0.01252454121907552,0.38133333333333336,0.33285714285714285,0.018523618910047744,-0.7140909605712906,-1.516068118164064,47.109039306640625,0.09251556396484376,-0.1328277587890625
1984,0.18059308305664065,0.19921878814697266,84.77996826171875,78.11065673828125,-5.402931213378906,95.56134033203125,-0.027072440253363715,0.378,0.3325,0.02084291246202257,-0.4064833098144547,-1.9774805479736344,47.109039306640625,0.07410346137152778,-0.17738079494900175
1985,0.20793683305664065,0.19921878814697266,87.23492431640625,82.07951354980469,-4.3595733642578125,94.06790161132812,-0.022298897637261283,0.37566666666666665,0.3314285714285714,0.022063573201497395,-0.834936755249025,-0.6591612272949234,47.109039306640625,0.057282341851128474,-0.1491941663953993
1986,0.17668683305664065,0.15937503814697265,86.74394226074219,81.83401489257812,-4.66644287109375,94.39523315429688,0.007478841145833333,0.37333333333333335,0.3314285714285714,0.017516581217447917,-0.4284540587158219,0.48338401317596436,46.933258056640625,0.05455474853515625,-0.1562408447265625
1987,0.10246808305664064,0.15937503814697265,86.0688247680664,75.45112609863281,-4.789188385009766,94.90667724609375,0.012934324476453993,0.37066666666666664,0.3314285714285714,0.013122177124023438,-0.6481748991699234,0.08788800239562988,46.933258056640625,0.11797442966037326,-0.16328739590115018
1988,0.09856183305664064,0.219140682220459,86.5188980102539,81.30210876464844,-4.298198699951172,94.31340026855469,-0.01002409193250868,0.36766666666666664,0.33107142857142857,0.014464908175998263,-1.3842359953613297,0.5932440161705017,47.284820556640625,0.057964324951171875,-0.15123998853895398
1989,0.12590558305664065,0.19921878814697266,85.88470458984375,80.05416870117188,-4.66644287109375,94.90667724609375,-0.01797998216417101,0.36433333333333334,0.33071428571428574,0.01663161383734809,-1.0766283446044937,0.4284540116786957,48.075828552246094,0.06478373209635417,-0.1619235568576389
1990,0.14934308305664065,0.219140682220459,85.90515899658203,79.33814239501953,-5.055145263671875,95.7249984741211,-0.01616151597764757,0.362,0.33,0.019011900160047744,-1.0107122832031266,0.2197200059890747,48.251609802246094,0.07296685112847222,-0.17533493041992188
1991,0.14543683305664065,0.25898443222045897,85.98699188232422,80.29966735839844,-5.014228820800781,95.2340087890625,-0.011387973361545138,0.3586666666666667,0.3296428571428571,0.02032411363389757,-1.4171949797363297,0.36253800988197327,49.5699577331543,0.06319249471028646,-0.16942486233181422
1992,0.15715558305664065,0.239062557220459,87.31675720214844,81.75218200683594,-4.850563049316406,94.681640625,-0.007069057888454861,0.3556666666666667,0.33,0.02044618394639757,-1.549027102539064,0.6481740474700928,49.7457389831543,0.06182861328125,-0.16146892971462673
1993,0.14153058305664065,0.239062557220459,86.70301818847656,81.79310607910156,-5.464302062988281,95.47950744628906,-0.005705218844943577,0.3526666666666667,0.33035714285714285,0.01983583238389757,-1.3512789183349625,0.373524010181427,49.7457389831543,0.054554578993055554,-0.17715343899197047
1994,0.13371808305664065,0.239062557220459,86.6007308959961,79.78821563720703,-5.566593170166016,95.62271118164062,-0.007296371459960938,0.349,0.33071428571428574,0.019317075941297744,-1.9005781584472672,-0.2307058745117203,49.7457389831543,0.07569461398654515,-0.17988115946451824
1995,0.13762433305664065,0.239062557220459,86.84622192382812,80.72928619384766,-5.239265441894531,95.1930923461914,-0.01070603264702691,0.345,0.33107142857142857,0.019439146253797744,-2.812416689941408,0.35155200958251953,49.7457389831543,0.06796595255533854,-0.17147064208984375
1996,0.14153058305664065,0.19921878814697266,86.33477783203125,79.07218933105469,-4.216365814208984,94.21110534667969,-0.0034320831298828127,0.341,0.3325,0.018554136488172744,-2.9772058897705094,0.35155200958251953,49.7457389831543,0.08069542778862847,-0.14919412400987414
1997,0.14543683305664065,0.219140682220459,86.72348022460938,81.58851623535156,-4.645984649658203,94.92713928222656,-0.014343007405598959,0.33766666666666667,0.3335714285714286,0.019561216566297744,-1.8456484251709,0.45042601227760315,49.7457389831543,0.057055155436197914,-0.16192359924316407
1998,0.15715558305664065,0.239062557220459,87.21446990966797,81.24073791503906,-5.280181884765625,95.31584167480469,-0.015706888834635415,0.3333333333333333,0.3342857142857143,0.021605809529622395,-1.7687460356445328,1.2304320335388184,49.7457389831543,0.06637479994032118,-0.17328915066189235
1999,0.16106183305664065,0.219140682220459,88.99431610107422,83.92073059082031,-4.871021270751953,94.37477111816406,-0.002750142415364583,0.32866666666666666,0.335,0.02291802300347222,-1.9994532042236344,1.4391660690307617,49.7457389831543,0.05637317233615451,-0.15828658209906685
2000,0.14543683305664065,0.25898443222045897,88.17599487304688,81.05661010742188,-5.341556549072266,95.82728576660156,-0.020707745022243925,0.3253333333333333,0.3360714285714286,0.02365044487847222,-1.8346620970459,-0.7470480375976578,49.7457389831543,0.07910427517361111,-0.17965380350748697
2001,0.14934308305664065,0.239062557220459,87.80775451660156,79.80867004394531,-5.259723663330078,95.54087829589844,-0.009114880032009548,0.32066666666666666,0.3360714285714286,0.022216161092122395,-2.6146685057373062,-1.0986010008544937,49.8336296081543,0.08887871636284722,-0.17556224399142795
2002,0.14934308305664065,0.219140682220459,87.66455078125,80.01325988769531,-5.014228820800781,94.62026977539062,-0.00843293931749132,0.31733333333333336,0.3375,0.02050721910264757,-3.0870672636718766,-1.2853628569335953,50.0094108581543,0.08501434326171875,-0.1626055399576823
2003,0.14543683305664065,0.239062557220459,84.08439636230469,77.61967468261719,-4.952854156494141,94.47706604003906,-0.014115693834092882,0.31333333333333335,0.3385714285714286,0.019164488050672744,-2.493822711059572,-1.0436712675781266,51.151981353759766,0.07183024088541666,-0.1603324466281467
2004,0.14543683305664065,0.219140682220459,84.41172790527344,78.58119201660156,-5.014228820800781,95.00897216796875,-0.0066144307454427086,0.31033333333333335,0.34035714285714286,0.018126932779947917,-1.7028299742431656,-0.02197326953125156,51.151981353759766,0.06478373209635417,-0.16692445543077256
2005,0.14153058305664065,0.219140682220459,86.1097412109375,80.64745330810547,-5.034687042236328,95.07034301757812,-0.004114023844401042,0.30633333333333335,0.3407142857142857,0.017638651529947917,-1.3622652464599625,0.4064820110797882,51.6793212890625,0.060692087809244795,-0.1678336673312717
2006,0.13371808305664065,0.239062557220459,85.96653747558594,79.9927978515625,-5.034687042236328,95.09080505371094,-0.011842600504557292,0.304,0.3410714285714286,0.017943827311197917,-1.3622652464599625,-0.13183273608398594,51.6793212890625,0.06637488471137153,-0.16806102328830294
2007,0.15324933305664065,0.239062557220459,85.33233642578125,76.96501159667969,-5.546134948730469,95.80683135986328,-0.012979168362087673,0.3006666666666667,0.3414285714285714,0.019042417738172744,-1.516068118164064,-0.18676246936035312,51.6793212890625,0.09297027587890624,-0.18169962565104167
2008,0.15715558305664065,0.239062557220459,87.33721923828125,81.19981384277344,-5.44384765625,95.25446319580078,-0.0059324900309244795,0.29733333333333334,0.3417857142857143,0.019622251722547744,-1.9445234709472672,0.516342043876648,51.767208099365234,0.06819339328342014,-0.17442567613389756
2009,0.16106183305664065,0.239062557220459,86.68256378173828,79.80867004394531,-5.689342498779297,95.68408203125,-0.0075236850314670135,0.295,0.34214285714285714,0.01986634996202257,-1.9664942198486344,0.23070600628852844,51.6793212890625,0.07637659708658855,-0.18192693922254774
2010,0.14934308305664065,0.239062557220459,85.0459213256836,80.81111145019531,-6.262165069580078,95.56134033203125,-0.0075236850314670135,0.2916666666666667,0.34285714285714286,0.019347593519422744,-2.3070608549804703,0.1867620050907135,50.976200103759766,0.0470534430609809,-0.18692783779568142
2011,0.14153058305664065,0.239062557220459,86.6007308959961,79.66546630859375,-5.546134948730469,95.43858337402344,-0.0050232781304253475,0.2886666666666667,0.34285714285714286,0.018828794691297744,-2.7684732847900406,1.1425440311431885,50.62464141845703,0.0770584954155816,-0.1776079813639323
2012,0.12981183305664065,0.239062557220459,86.92805480957031,81.07707214355469,-5.832546234130859,94.96804809570312,-0.0018409305148654514,0.2853333333333333,0.3435714285714286,0.018828794691297744,-2.504809039184572,1.8895920515060425,49.7457389831543,0.06501091851128472,-0.1755621592203776
2013,0.12199933305664064,0.239062557220459,86.80531311035156,81.17935943603516,-5.7507171630859375,95.80683135986328,-0.00297745598687066,0.2833333333333333,0.3439285714285714,0.01977479722764757,-2.504809039184572,1.8566340208053589,49.21839904785156,0.0625105963812934,-0.18397276136610244
2014,0.11418683305664064,0.239062557220459,86.53935241699219,79.74729919433594,-5.730258941650391,95.39767456054688,-0.009114880032009548,0.2776666666666667,0.3435714285714286,0.02047670152452257,-3.0980535917968766,1.032684087753296,48.60316848754883,0.07546725802951389,-0.17919926113552517
2015,0.13371808305664065,0.219140682220459,88.97386169433594,80.4837875366211,-5.423389434814453,94.783935546875,-0.013661109076605903,0.27466666666666667,0.3439285714285714,0.022063573201497395,-3.251856463500978,0.8569080233573914,48.60316848754883,0.09433415730794271,-0.16897027757432725
2016,0.13762433305664065,0.219140682220459,87.0098876953125,78.82669067382812,-5.771175384521484,95.76591491699219,-0.011615286933051215,0.27166666666666667,0.3442857142857143,0.02297905815972222,-2.955235140869142,-0.06591667468261875,48.60316848754883,0.09092441134982639,-0.18374544779459637
2017,0.14934308305664065,0.219140682220459,87.13264465332031,79.33814239501953,-4.952854156494141,95.11125946044922,-0.01320648193359375,0.267,0.3442857142857143,0.02328423394097222,-2.944248812744142,0.09887400269508362,48.60316848754883,0.08660558064778646,-0.16737904018825955
2018,0.14543683305664065,0.219140682220459,87.13264465332031,80.58607482910156,-5.1983489990234375,95.39767456054688,-0.002068201700846354,0.26366666666666666,0.345,0.02285698784722222,-2.559738772460939,0.2856360077857971,48.427391052246094,0.07273966471354167,-0.17328915066189235
2019,0.14934308305664065,0.219140682220459,87.15309143066406,81.0361557006836,-5.157432556152344,95.37721252441406,-0.013888380262586805,0.25933333333333336,0.34464285714285714,0.02337578667534722,-2.515795367309572,0.08788800239562988,47.987937927246094,0.06796595255533854,-0.17260716756184896
2020,0.16887433305664065,0.19921878814697266,87.13264465332031,80.15646362304688,-5.771175384521484,95.86820983886719,-0.01957117716471354,0.256,0.3442857142857143,0.02377251519097222,-2.548752444335939,0.41746801137924194,47.987937927246094,0.07751312255859374,-0.1848820580376519
2021,0.12590558305664065,0.19921878814697266,87.15309143066406,80.93386840820312,-5.3620147705078125,95.58179473876953,0.011115815904405382,0.252,0.3442857142857143,0.021270116170247395,-3.4056612425537125,1.1864880323410034,47.987937927246094,0.06910247802734375,-0.17715343899197047
2022,0.11809308305664064,0.239062557220459,86.45751953125,78.76531982421875,-5.259723663330078,94.80438995361328,-0.003659396701388889,0.24833333333333332,0.34464285714285714,0.02261284722222222,-3.7681986265869156,0.45042601227760315,47.987937927246094,0.08546888563368056,-0.16737904018825955
2023,0.20012433305664065,0.19921878814697266,87.80775451660156,82.24317932128906,-5.259723663330078,95.11125946044922,-0.0332098642985026,0.24533333333333332,0.34535714285714286,0.026732635498046876,-3.1529833250732437,0.516342043876648,47.987937927246094,0.06182861328125,-0.1707887013753255
2024,0.20012433305664065,0.19921878814697266,87.33721923828125,81.24073791503906,-5.423389434814453,95.6431655883789,-0.008205625745985243,0.24033333333333334,0.3457142857142857,0.027648120456271703,-2.922276156494142,-0.21972145373535312,47.987937927246094,0.06773868136935764,-0.17851727803548176
2025,0.21184308305664065,0.219140682220459,85.41416931152344,77.64012145996094,-5.096061706542969,95.27491760253906,-0.013661109076605903,0.23666666666666666,0.3457142857142857,0.028319464789496526,-3.1090380125732437,-0.7800070219726578,47.987937927246094,0.08637830946180555,-0.17078865898980033
2026,0.22356183305664065,0.19921878814697266,84.30943298339844,81.77264404296875,-5.136974334716797,95.21354675292969,-0.01002409193250868,0.23266666666666666,0.3464285714285714,0.027098804050021703,-2.6146685057373062,-0.2966219359130875,47.987937927246094,0.028186543782552084,-0.17056134541829426
2027,0.18059308305664065,0.219140682220459,84.26852416992188,81.13844299316406,-5.157432556152344,95.27491760253906,-0.0007043626573350694,0.22933333333333333,0.3467857142857143,0.026000213623046876,-2.581711428710939,-0.16478981311035312,47.987937927246094,0.03477867974175347,-0.1714705573187934
2028,0.20793683305664065,0.19921878814697266,86.04837036132812,80.40196228027344,-5.1983489990234375,95.27491760253906,-0.010933346218532987,0.22533333333333333,0.3464285714285714,0.026732635498046876,-2.7684732847900406,0.07690200209617615,48.251609802246094,0.0627378675672743,-0.17192518446180555
2029,0.20403058305664065,0.19921878814697266,86.04837036132812,80.11553955078125,-5.157432556152344,95.2340087890625,-0.01002409193250868,0.221,0.3464285714285714,0.026549530029296876,-2.812416689941408,0.17577600479125977,49.48207092285156,0.06592034233940972,-0.1710160149468316
2030,0.19231183305664065,0.19921878814697266,86.04837036132812,80.21783447265625,-4.502777099609375,94.17019653320312,0.0065695868598090275,0.21733333333333332,0.34714285714285714,0.02523731655544705,-2.515795367309572,0.4394400119781494,49.48207092285156,0.06478373209635417,-0.15192192925347223
2031,0.19621808305664065,0.19921878814697266,86.35523986816406,80.56562042236328,-5.341556549072266,95.17263793945312,-0.018661922878689237,0.21366666666666667,0.3475,0.026122283935546876,-1.4611383848876969,0.6481740474700928,49.48207092285156,0.06432910495334201,-0.17237993876139324
2032,0.17668683305664065,0.239062557220459,86.559814453125,80.83157348632812,-4.993770599365234,95.43858337402344,-0.014570320977105035,0.20933333333333334,0.3475,0.027373462253146703,-1.7687460356445328,0.3185940086841583,49.48207092285156,0.06364712185329861,-0.17147059970431858
2033,0.21965558305664065,0.219140682220459,86.33477783203125,79.07218933105469,-4.8914794921875,95.1930923461914,-0.009114880032009548,0.20666666666666667,0.3475,0.028929816351996526,-2.0433966093750016,-0.3515516691894547,49.48207092285156,0.08069542778862847,-0.16760635375976562
2034,0.22746808305664065,0.239062557220459,87.0712661743164,80.23829650878906,-5.321098327636719,95.60224914550781,-0.016388829549153647,0.20433333333333334,0.3475,0.030638758341471353,-1.8346620970459,-0.20873512561035312,49.48207092285156,0.07592188517252604,-0.17692608303493923
2035,0.23137433305664065,0.239062557220459,86.662109375,81.07707214355469,-5.136974334716797,95.49996185302734,-0.0066144307454427086,0.20133333333333334,0.34714285714285714,0.029875818888346353,-2.0433966093750016,0.010986000299453735,49.48207092285156,0.06205596923828125,-0.17374373541937935
2036,0.22356183305664065,0.19921878814697266,86.49844360351562,80.34058380126953,-5.648426055908203,96.07278442382812,-0.0034320831298828127,0.19866666666666666,0.34714285714285714,0.027922778659396703,-2.175228732177736,-0.5932451658935562,49.48207092285156,0.06842066446940104,-0.18579122755262586
2037,0.21965558305664065,0.17929691314697266,85.78240966796875,78.76531982421875,-5.505218505859375,95.31584167480469,-0.022753524780273437,0.19633333333333333,0.3467857142857143,0.025878143310546876,-2.504809039184572,-0.5602861815185562,49.48207092285156,0.07796766493055556,-0.17578955756293402
2038,0.17278058305664065,0.15937503814697265,86.33477783203125,80.93386840820312,-5.709800720214844,95.33629608154297,0.0020233578152126738,0.193,0.3475,0.021209081013997395,-2.4169203215332047,0.20873400568962097,49.48207092285156,0.06001010470920139,-0.1782899644639757
2039,0.11028058305664064,0.15937503814697265,86.33477783203125,79.66546630859375,-5.566593170166016,95.54087829589844,0.0008868323432074653,0.18933333333333333,0.34714285714285714,0.017943827311197917,-2.2850881987304703,0.36253800988197327,49.48207092285156,0.07410346137152778,-0.17897190517849393
2040,0.11809308305664064,0.15937503814697265,86.94851684570312,81.19981384277344,-5.566593170166016,95.25446319580078,-0.009342193603515625,0.18566666666666667,0.34714285714285714,0.018310038248697917,-2.4059339934082047,0.373524010181427,49.48207092285156,0.06387447781032986,-0.17578951517740884
2041,0.15324933305664065,0.15937503814697265,87.50088500976562,82.0385971069336,-5.484760284423828,95.2340087890625,-0.022753524780273437,0.18233333333333332,0.34785714285714286,0.02032411363389757,-2.7135435515136734,0.26366400718688965,49.48207092285156,0.060692087809244795,-0.17465298970540363
2042,0.14543683305664065,0.15937503814697265,85.49600219726562,77.61967468261719,-5.505218505859375,95.45904541015625,-0.014570320977105035,0.17833333333333334,0.3485714285714286,0.02053773668077257,-3.1090380125732437,-0.5492998533935562,49.48207092285156,0.08751475016276042,-0.1773807101779514
2043,0.17278058305664065,0.15937503814697265,85.43462371826172,81.15890502929688,-5.607509613037109,95.58179473876953,-0.009796820746527778,0.17533333333333334,0.3492857142857143,0.02078187730577257,-3.163967745849611,-0.2636648588867203,49.48207092285156,0.047507985432942705,-0.17988115946451824
2044,0.18059308305664065,0.13945316314697265,87.35768127441406,81.46577453613281,-5.44384765625,95.09080505371094,-0.003659396701388889,0.171,0.3507142857142857,0.01998842027452257,-3.3617159300537125,0.516342043876648,49.48207092285156,0.06546563042534723,-0.1726072523328993
2045,0.16106183305664065,0.13945316314697265,86.80531311035156,81.07707214355469,-5.44384765625,95.1317138671875,-0.0054779052734375,0.16733333333333333,0.3514285714285714,0.019622251722547744,-3.0431219511718766,-0.4174677305908219,49.48207092285156,0.06364712185329861,-0.1730617947048611
2046,0.20403058305664065,0.13945316314697265,85.557373046875,80.0950927734375,-5.423389434814453,95.17263793945312,-0.02093505859375,0.163,0.35285714285714287,0.021209081013997395,-2.878332751342775,-1.142544406005861,49.39418029785156,0.06069200303819444,-0.17328919304741752
2047,0.21574933305664065,0.13945316314697265,85.90515899658203,79.33814239501953,-5.464302062988281,95.21354675292969,-0.016388829549153647,0.15866666666666668,0.3539285714285714,0.02078187730577257,-2.867346423217775,-0.5053564482421891,49.21839904785156,0.07296685112847222,-0.17419832017686632
2048,0.14153058305664065,0.15937503814697265,86.17111206054688,78.56073760986328,-5.484760284423828,95.43858337402344,0.0040691799587673615,0.156,0.35464285714285715,0.017455546061197917,-2.889319079467775,0.24169200658798218,49.21839904785156,0.0845597161187066,-0.17692604064941406
2049,0.14543683305664065,0.1195312786102295,87.23492431640625,82.01814270019531,-5.423389434814453,95.37721252441406,-0.006387117173936632,0.15266666666666667,0.355,0.01592970954047309,-3.0760809355468766,0.7360620498657227,49.21839904785156,0.05796424018012153,-0.17556224399142795
2050,0.14153058305664065,0.07968751907348633,89.567138671875,84.26852416992188,-5.464302062988281,95.33629608154297,-0.010478719075520834,0.14933333333333335,0.3560714285714286,0.015349917941623263,-3.207913058349611,0.7031040191650391,49.21839904785156,0.058873494466145836,-0.17556220160590277
2051,0.11418683305664064,0.09960939407348633,88.72836303710938,80.46333312988281,-5.464302062988281,95.15217590332031,-0.029118262396918403,0.146,0.35678571428571426,0.015227847629123263,-3.284815447875978,0.08788800239562988,49.21839904785156,0.0918336656358507,-0.17351642184787328
2052,0.09074933305664064,0.1195312786102295,85.82332611083984,83.61386108398438,-5.423389434814453,95.09080505371094,-0.006387117173936632,0.14266666666666666,0.3578571428571429,0.015136294894748263,-3.1529833250732437,-0.2526785307617203,49.21839904785156,0.02454961140950521,-0.17237993876139324
2053,0.08293683305664064,0.09960939407348633,86.559814453125,80.4837875366211,-5.423389434814453,95.11125946044922,-0.015024948120117187,0.13933333333333334,0.3578571428571429,0.013854598999023438,-2.966221468994142,-0.9777552061767594,49.13050842285156,0.06751141018337674,-0.17260720994737414
2054,0.05168683305664064,0.13945316314697265,84.1048583984375,76.63768005371094,-5.484760284423828,95.2340087890625,-0.011160659790039062,0.13533333333333333,0.35892857142857143,0.01187099880642361,-2.6805845671386734,-1.7907186918945328,49.13050842285156,0.08296864827473958,-0.17465298970540363
2055,0.06340558305664064,0.13945316314697265,84.554931640625,79.21539306640625,-5.709800720214844,95.60224914550781,-0.022298897637261283,0.132,0.35892857142857143,0.010863961113823786,-2.4059339934082047,-0.5273291044921891,48.95473098754883,0.05932820638020833,-0.18124499850802953
2056,0.05949933305664064,0.13945316314697265,86.0074462890625,79.62455749511719,-6.2007904052734375,96.11370086669922,-0.006159803602430555,0.12966666666666668,0.3585714285714286,0.010650338066948786,-2.6915708952636734,0.5493000149726868,48.95473098754883,0.07092098659939236,-0.19238323635525173
2057,0.04387433305664064,0.15937503814697265,86.6007308959961,78.9903564453125,-5.8939208984375,95.80683135986328,-0.0018409305148654514,0.12666666666666668,0.3585714285714286,0.010467232598198786,-3.7022825651855484,0.6591600179672241,48.95473098754883,0.0845597161187066,-0.1855639139811198
2058,0.08684308305664064,0.13945316314697265,87.33721923828125,80.36103820800781,-6.016670227050781,95.86820983886719,-0.01752539740668403,0.12366666666666666,0.3585714285714286,0.01260342068142361,-3.87805809313965,0.9447960257530212,48.427391052246094,0.07751312255859374,-0.18760977851019967
2059,0.11028058305664064,0.15937503814697265,85.1072998046875,77.23097229003906,-5.8939208984375,96.09324645996094,-0.014343007405598959,0.12166666666666667,0.35892857142857143,0.014831119113498263,-3.92200340563965,0.4394400119781494,48.075828552246094,0.08751475016276042,-0.18874630398220485
2060,0.14934308305664065,0.13945316314697265,88.6669921875,82.12042999267578,-5.709800720214844,95.09080505371094,-0.025935872395833334,0.11766666666666667,0.3585714285714286,0.01657057868109809,-3.6583391600341812,1.3183200359344482,47.987937927246094,0.07273957994249132,-0.17556228637695312
2061,0.10637433305664064,0.13945316314697265,85.63920593261719,78.90852355957031,-6.057586669921875,95.76591491699219,-0.002068201700846354,0.11366666666666667,0.3585714285714286,0.015349917941623263,-2.823403018066408,0.5053560137748718,47.987937927246094,0.07478535970052083,-0.18692779541015625
2062,0.15324933305664065,0.15937503814697265,87.09172058105469,81.71127319335938,-5.730258941650391,95.52041625976562,-0.01957117716471354,0.10966666666666666,0.3578571428571429,0.018523618910047744,-2.867346423217775,0.3185940086841583,47.987937927246094,0.05978274875217014,-0.18056305779351128
2063,0.18059308305664065,0.15937503814697265,89.46485137939453,82.34546661376953,-5.5870513916015625,94.90667724609375,-0.01252454121907552,0.10466666666666667,0.3578571428571429,0.02050721910264757,-3.1090380125732437,0.7250760197639465,47.987937927246094,0.07910427517361111,-0.17215254041883682
2064,0.10637433305664064,0.219140682220459,88.17599487304688,82.46821594238281,-6.834991455078125,96.17507934570312,0.002932612101236979,0.101,0.3575,0.018523618910047744,-3.1310106688232437,1.1864880323410034,47.987937927246094,0.06341976589626735,-0.20011189778645833
2065,0.07903058305664064,0.13945316314697265,84.49356079101562,79.62455749511719,-5.9757537841796875,94.25202178955078,0.0002048916286892361,0.09766666666666667,0.35678571428571426,0.015319400363498263,-3.834114687988283,0.04394400119781494,47.987937927246094,0.05410003662109375,-0.16919750637478298
2066,0.05949933305664064,0.13945316314697265,85.31187438964844,78.15158081054688,-5.7507171630859375,95.6431655883789,-0.0022955152723524307,0.094,0.3575,0.014342837863498263,-3.3727022581787125,-0.4614130430908219,47.987937927246094,0.07955881754557291,-0.1821542527940538
2067,0.12590558305664065,0.07968751907348633,84.6572265625,76.41264343261719,-5.034687042236328,95.786376953125,-0.011160659790039062,0.09033333333333333,0.35714285714285715,0.014800601535373263,-3.218899386474611,-0.7140909605712906,47.987937927246094,0.09160647922092013,-0.1757895999484592
2068,0.05168683305664064,0.09960939407348633,85.0050048828125,77.84471130371094,-5.402931213378906,95.58179473876953,-0.009342193603515625,0.08733333333333333,0.35714285714285715,0.01220669216579861,-2.966221468994142,-0.6262022429199234,47.987937927246094,0.07955881754557291,-0.17760806613498265
2069,0.06731183305664064,0.1195312786102295,84.86180114746094,78.04928588867188,-5.321098327636719,95.29537963867188,-0.005705218844943577,0.082,0.3575,0.01223720974392361,-3.0980535917968766,0.07690200209617615,47.987937927246094,0.07569461398654515,-0.17351642184787328
2070,0.09074933305664064,0.15937503814697265,88.36012268066406,83.24562072753906,-6.875904083251953,95.07034301757812,-0.03275523715549045,0.08033333333333334,0.3578571428571429,0.014983707004123263,-3.163967745849611,0.9008520245552063,47.987937927246094,0.05682779947916667,-0.18829163445366753
2071,0.05559308305664064,0.1195312786102295,87.84866333007812,78.8880615234375,-5.484760284423828,95.35675048828125,0.00225067138671875,0.07666666666666666,0.3578571428571429,0.01232876247829861,-3.976933138916017,0.8788800239562988,47.72426986694336,0.09956224229600695,-0.17601678636338974
2072,-0.03034441694335936,0.07968751907348633,87.15309143066406,79.4813461303711,-5.648426055908203,95.15217590332031,-0.01661614312065972,0.07333333333333333,0.3578571428571429,0.010101021660698786,-3.91101707751465,0.4943700134754181,47.284820556640625,0.08524161444769965,-0.17556224399142795
2073,-0.05378191694335936,0.05976563930511475,86.84622192382812,78.70394134521484,-5.689342498779297,95.02942657470703,-0.008660252888997395,0.06966666666666667,0.3585714285714286,0.009582265218098959,-3.4715773039550797,0.2746500074863434,47.284820556640625,0.09046978420681423,-0.17465298970540363
2074,0.04387433305664064,0.1195312786102295,86.86668395996094,79.9927978515625,-6.098503112792969,95.90911865234375,-0.02434471978081597,0.06666666666666667,0.35892857142857143,0.013000106811523438,-3.163967745849611,0.32958000898361206,47.284820556640625,0.0763765123155382,-0.18897357516818578
2075,0.03996808305664064,0.1195312786102295,87.25538635253906,81.71127319335938,-5.955295562744141,95.52041625976562,-0.005705218844943577,0.06133333333333333,0.3585714285714286,0.013061141967773438,-3.87805809313965,1.0876140594482422,47.109039306640625,0.06160125732421875,-0.18306346469455295
2076,0.09465558305664064,0.15937503814697265,89.6080551147461,80.60653686523438,-5.914379119873047,95.1930923461914,-0.03161866929796007,0.058333333333333334,0.35892857142857143,0.017577616373697917,-3.845101016113283,0.8898659944534302,46.84537124633789,0.1000168694390191,-0.17897190517849393
2077,0.10246808305664064,0.19921878814697266,90.87644958496094,84.06393432617188,-6.569034576416016,95.86820983886719,-0.0007043626573350694,0.05366666666666667,0.35892857142857143,0.01980531480577257,-3.87805809313965,0.6591600179672241,46.142250061035156,0.07569461398654515,-0.19374716016981336
2078,0.03606183305664064,0.15937503814697265,86.17111206054688,77.61967468261719,-5.341556549072266,94.94759368896484,-0.0059324900309244795,0.051,0.3582142857142857,0.014800601535373263,-4.910742419311525,-1.2963491850585953,46.054359436035156,0.09501597086588541,-0.16987944708930122
2079,-0.04596941694335936,0.15937503814697265,86.78485107421875,80.0337142944336,-5.423389434814453,94.94759368896484,0.0036145528157552082,0.048,0.3585714285714286,0.008727773030598959,-4.3944002562255875,-1.0436712675781266,46.054359436035156,0.07501263088650173,-0.1707887013753255
2080,-0.10846941694335936,0.15937503814697265,86.70301818847656,79.97233581542969,-6.5894927978515625,95.62271118164062,-0.006159803602430555,0.044,0.3582142857142857,0.004363886515299479,-3.4715773039550797,-1.2084604674072281,46.054359436035156,0.07478535970052083,-0.19124671088324652
2081,-0.14362566694335935,0.17929691314697266,86.70301818847656,79.97233581542969,-5.402931213378906,94.39523315429688,-0.009569507175021702,0.03966666666666667,0.35714285714285715,0.001190185546875,-3.6473528319091812,-0.9667688780517594,46.054359436035156,0.07478535970052083,-0.16442404852973092
2082,-0.12409441694335936,0.15937503814697265,87.48042297363281,83.5934066772461,-5.157432556152344,94.35430908203125,-0.023435465494791665,0.035666666666666666,0.35678571428571426,0.0016784244113498264,-3.0431219511718766,-1.0107122832031266,44.99967956542969,0.04318906995985243,-0.16124157375759549
2083,-0.10846941694335936,0.15937503814697265,83.22515869140625,76.14669799804688,-4.8914794921875,96.54331970214844,-0.01661614312065972,0.03266666666666666,0.35535714285714287,0.001220703125,-2.493822711059572,-1.516068118164064,44.91178894042969,0.07864956325954861,-0.18260887993706598
2084,-0.10456316694335936,0.15937503814697265,86.0074462890625,80.29966735839844,-5.300640106201172,95.07034301757812,-0.0013863033718532986,0.03,0.3539285714285714,0.00042724609375,-2.812416689941408,-0.04394401843261875,44.91178894042969,0.06341976589626735,-0.1707887013753255
2085,-0.09284441694335936,0.19921878814697266,87.0098876953125,80.29966735839844,-5.832546234130859,95.66361999511719,-0.013888380262586805,0.026333333333333334,0.35285714285714287,0.000274658203125,-2.526779788085939,0.09887400269508362,44.91178894042969,0.07455800374348959,-0.18329073588053385
2086,-0.08112566694335936,0.239062557220459,84.39126586914062,77.00592803955078,-5.5870513916015625,97.93446350097656,-0.008887566460503472,0.023,0.35035714285714287,-0.0006713443332248264,-3.185940402099611,-1.2524038725585953,44.82389831542969,0.08205930921766492,-0.20579460991753473
2087,-0.05378191694335936,0.17929691314697266,91.46973419189453,82.12042999267578,-5.464302062988281,96.62515258789062,-0.002522828843858507,0.019666666666666666,0.3475,0.0016784244113498264,-3.932987826416017,1.768746018409729,44.82389831542969,0.10388115776909722,-0.18988282945421006
2088,-0.04596941694335936,0.17929691314697266,81.83401489257812,86.88714599609375,-9.699108123779297,97.11614227294922,-0.019343863593207465,0.016,0.3464285714285714,0.004638544718424479,-2.3180471831054703,0.3076080083847046,44.64812088012695,-0.05614590115017361,-0.24239167107476128
2089,0.0009055830566406403,0.239062557220459,88.17599487304688,85.92561340332031,-5.709800720214844,94.27247619628906,-0.01957117716471354,0.011666666666666667,0.3435714285714286,0.0070188310411241316,-2.186215060302736,0.04394400119781494,44.64812088012695,0.02500423855251736,-0.16646974351671007
2090,-0.01081316694335936,0.15937503814697265,90.2218017578125,83.28652954101562,-5.771175384521484,95.58179473876953,0.00543306138780382,0.008666666666666666,0.3414285714285714,0.006103346082899305,-1.2524038725585953,0.9557820558547974,40.34151077270508,0.07705858018663195,-0.18169966803656684
2091,-0.12800066694335935,0.13945316314697265,80.44287109375,75.20562744140625,-4.093616485595703,93.18820190429688,-0.0054779052734375,0.006,0.33785714285714286,0.000823974609375,-0.6152159147949234,0.07690200209617615,39.28683090209961,0.05819159613715278,-0.1364646487765842
2092,-0.17878191694335935,0.15937503814697265,77.12867736816406,88.81019592285156,-3.5821685791015625,94.7225570678711,0.006342273288302952,0.0036666666666666666,0.33464285714285713,-0.0021361456976996527,0.5932440161705017,0.45042601227760315,38.671600341796875,-0.1297946506076389,-0.14783028496636286
2093,-0.14362566694335935,0.13945316314697265,85.12775421142578,80.81111145019531,-2.8252220153808594,93.781494140625,-0.02729975382486979,0.0013333333333333333,0.33,0.0001220703125,1.2084600925445557,0.09887400269508362,28.827919006347656,0.04796269734700521,-0.12896351284450955
2094,-0.13190691694335935,0.13945316314697265,82.0385971069336,76.71951293945312,0.9390487670898438,94.14973449707031,-0.013433795505099827,0.0,0.32607142857142857,0.000579833984375,1.4721240997314453,-0.08788933093261875,24.60919952392578,0.05910093519422743,-0.09122984144422742
2095,-0.16315691694335935,0.1195312786102295,86.76439666748047,80.62699890136719,-3.4389610290527344,94.25202178955078,-0.01002409193250868,0.0,0.32035714285714284,0.000396728515625,1.8456480503082275,0.6481740474700928,24.60919952392578,0.0681933085123698,-0.14101092020670572
2096,-0.14362566694335935,0.13945316314697265,88.81019592285156,80.91340637207031,-0.16568374633789062,90.30363464355469,-0.011615286933051215,0.0,0.31607142857142856,0.00067138671875,1.7028300762176514,0.8349360227584839,24.60919952392578,0.08774210611979166,-0.060770204332139754
2097,-0.17096941694335935,0.13945316314697265,84.43218231201172,76.49447631835938,-2.5592689514160156,89.19889831542969,-0.011842600504557292,0.0,0.31035714285714283,-0.0,2.658612012863159,-0.14281906420898594,24.60919952392578,0.08819673326280382,-0.0750907474093967
