,WD,WS,AIL_1,AIL_2,ELEV_1,ELEV_2,RUDD,ALT,GS,TH,PTCH,ROLL,PLA_1,AIL,ELEV
5498,0.18805005327148447,0.3785157012939453,83.28652954101562,82.38638305664062,-3.132091522216797,87.29630279541016,-0.0022955152723524307,0.706,0.45,0.01141323513454861,-0.16478981311035312,2.054382085800171,34.277099609375,0.010001627604166667,-0.06031549241807726
5499,0.18805005327148447,0.3785157012939453,83.28652954101562,82.550048828125,-3.091175079345703,87.41905212402344,-0.00047704908582899306,0.7043333333333334,0.4471428571428571,0.012816958957248263,-0.20873512561035312,2.614668130874634,34.364990234375,0.008183119032118056,-0.061224746704101565
5500,0.18414380327148447,0.3785157012939453,83.28652954101562,83.30699157714844,-3.091175079345703,87.31675720214844,0.0006595187717013889,0.7023333333333334,0.44571428571428573,0.014190249972873263,-0.20873512561035312,2.7025561332702637,36.82590866088867,-0.00022735595703125,-0.06008813646104601
5501,0.18414380327148447,0.3785157012939453,83.26608276367188,83.28652954101562,-3.132091522216797,87.31675720214844,-0.0011589898003472221,0.7003333333333334,0.4432142857142857,0.015990702311197917,-0.19774879748535312,2.592696189880371,39.11104965209961,-0.00022718641493055556,-0.06054276360405816
5502,0.18805005327148447,0.3785157012939453,83.26608276367188,82.550048828125,-3.1730079650878906,87.562255859375,-0.0022955152723524307,0.698,0.4421428571428571,0.01806581285264757,-0.3845106535644547,2.900304079055786,39.19894027709961,0.0079559326171875,-0.06372515360514323
5503,0.18805005327148447,0.3785157012939453,83.26608276367188,82.48867797851562,-3.091175079345703,87.27584838867188,-0.00047704908582899306,0.6953333333333334,0.44107142857142856,0.01980531480577257,-0.4504267149658219,3.526506185531616,39.19894027709961,0.008637830946180555,-0.0596335940890842
5504,0.18414380327148447,0.3785157012939453,83.28652954101562,82.57050323486328,-3.11163330078125,87.1121826171875,0.0004322052001953125,0.6933333333333334,0.4407142857142857,0.02184990776909722,-0.3185945921630875,4.141722202301025,39.19894027709961,0.007955847846137152,-0.05804239908854167
5505,0.18023755327148447,0.3785157012939453,83.28652954101562,83.85935974121094,-3.11163330078125,87.33721923828125,-2.242194281684028e-05,0.6906666666666667,0.44,0.024321746826171876,-0.3625379973144547,4.009890079498291,39.19894027709961,-0.006364780002170139,-0.06054280598958333
5506,0.18414380327148447,0.3785157012939453,83.28652954101562,84.26852416992188,-3.1730079650878906,87.66455078125,-0.002750142415364583,0.6876666666666666,0.4392857142857143,0.026946173773871526,-0.6481748991699234,3.1969261169433594,39.19894027709961,-0.010911051432291667,-0.06486176384819878
5507,0.18805005327148447,0.3785157012939453,83.28652954101562,84.18669128417969,-3.091175079345703,87.562255859375,-0.0034320831298828127,0.6843333333333333,0.43857142857142856,0.028990851508246526,-0.9447962218017594,2.3290319442749023,39.28683090209961,-0.01000179714626736,-0.06281589931911892
5508,0.18414380327148447,0.3785157012939453,83.28652954101562,84.37080383300781,-3.091175079345703,87.17355346679688,-0.002522828843858507,0.6813333333333333,0.4382142857142857,0.03018095228407118,-0.7690206938476578,1.4281799793243408,39.19894027709961,-0.012047492133246528,-0.058496983846028645
5509,0.18414380327148447,0.3785157012939453,83.28652954101562,83.94119262695312,-3.1525497436523438,87.31675720214844,-0.003204769558376736,0.678,0.4382142857142857,0.03103544447157118,-0.6591612272949234,0.516342043876648,39.19894027709961,-0.007274034288194444,-0.060770077175564235
5510,0.18414380327148447,0.3785157012939453,83.28652954101562,83.75706481933594,-3.132091522216797,87.76683807373047,-0.0034320831298828127,0.6743333333333333,0.4382142857142857,0.03149320814344618,-1.0656420164794937,-0.12084640795898594,39.19894027709961,-0.005228169759114583,-0.06554366217719185
5511,0.18414380327148447,0.3785157012939453,83.28652954101562,83.83889770507812,-3.132091522216797,87.6031723022461,-0.00297745598687066,0.6706666666666666,0.4382142857142857,0.03134062025282118,-1.2194467955322281,-0.7140909605712906,39.19894027709961,-0.006137424045138889,-0.06372515360514323
5512,0.18414380327148447,0.3785157012939453,83.28652954101562,83.75706481933594,-3.357128143310547,87.82821655273438,-0.003204769558376736,0.6666666666666666,0.4382142857142857,0.03094389173719618,-1.560013430664064,-1.3512789183349625,39.19894027709961,-0.005228169759114583,-0.0687260521782769
5513,0.18805005327148447,0.3785157012939453,83.26608276367188,83.4501953125,-3.2343826293945312,87.91004180908203,-0.004114023844401042,0.6616666666666666,0.4382142857142857,0.03036405775282118,-2.0763555937500016,-1.8786074095459,39.19894027709961,-0.0020456949869791666,-0.06827138264973959
5514,0.18805005327148447,0.39843757629394533,83.28652954101562,82.93875122070312,-3.2343826293945312,87.78729248046875,-0.003204769558376736,0.6563333333333333,0.43892857142857145,0.02947904798719618,-2.3400179320068375,-1.8676210814209,39.28683090209961,0.0038642035590277777,-0.06690750122070313
5515,0.18414380327148447,0.39843757629394533,83.28652954101562,83.83889770507812,-3.1934661865234375,87.78729248046875,-0.0022955152723524307,0.6506666666666666,0.44035714285714284,0.028380499945746526,-2.6146685057373062,-2.230158465454103,39.28683090209961,-0.006137424045138889,-0.06645287407769097
5516,0.18805005327148447,0.39843757629394533,83.26608276367188,83.65477752685547,-3.132091522216797,87.62362670898438,-0.003886710272894965,0.6446666666666667,0.44142857142857145,0.027281867133246526,-2.7355143004150406,-2.845373766967775,39.28683090209961,-0.004318830702039931,-0.06395242479112413
5517,0.18805005327148447,0.39843757629394533,83.26608276367188,83.28652954101562,-3.1934661865234375,87.78729248046875,-0.004795964558919271,0.638,0.44357142857142856,0.025969696044921876,-2.7355143004150406,-3.196926730224611,39.28683090209961,-0.00022718641493055556,-0.06645287407769097
5518,0.18805005327148447,0.39843757629394533,83.28652954101562,82.57050323486328,-3.1525497436523438,87.6031723022461,-0.00297745598687066,0.6316666666666667,0.4446428571428571,0.024230194091796876,-2.867346423217775,-2.878332751342775,39.28683090209961,0.007955847846137152,-0.0639524671766493
5519,0.18414380327148447,0.39843757629394533,83.28652954101562,83.16378784179688,-3.132091522216797,87.39859008789062,-0.00047704908582899306,0.625,0.4467857142857143,0.02209404839409722,-2.7465006285400406,-2.6586119108886734,39.28683090209961,0.0013637966579861111,-0.061452017890082464
5520,0.18414380327148447,0.39843757629394533,83.26608276367188,83.08195495605469,-3.254840850830078,87.39859008789062,-0.0034320831298828127,0.6183333333333333,0.44785714285714284,0.02056825425889757,-2.570725100585939,-2.933262484619142,39.28683090209961,0.002045864529079861,-0.06281589931911892
5521,0.18414380327148447,0.39843757629394533,83.28652954101562,82.48867797851562,-3.2139244079589844,87.62362670898438,-0.003659396701388889,0.6113333333333333,0.4496428571428571,0.01946962144639757,-2.6476274901123062,-2.6366411619873062,39.28683090209961,0.00886501736111111,-0.06486167907714843
5522,0.18414380327148447,0.39843757629394533,83.26608276367188,82.52958679199219,-3.254840850830078,87.64408874511719,-0.0022955152723524307,0.6053333333333333,0.45107142857142857,0.01803529527452257,-2.7025572233886734,-2.0873400145263687,39.19894027709961,0.00818328857421875,-0.06554366217719185
5523,0.17633130327148447,0.39843757629394533,83.28652954101562,83.16378784179688,-3.1934661865234375,87.6031723022461,-0.0011589898003472221,0.599,0.4525,0.016540018717447917,-2.7025572233886734,-1.9555078917236344,38.320037841796875,0.0013637966579861111,-0.06440709431966146
5524,0.17633130327148447,0.39843757629394533,83.26608276367188,83.75706481933594,-3.2139244079589844,87.74638366699219,-0.0034320831298828127,0.5926666666666667,0.45357142857142857,0.015410868326822917,-2.7025572233886734,-2.4498793059082047,38.14426040649414,-0.005455356174045139,-0.06622564527723525
5525,0.18023755327148447,0.39843757629394533,83.26608276367188,82.75462341308594,-3.295757293701172,87.66455078125,-0.004568650987413194,0.5866666666666667,0.4546428571428571,0.014312320285373263,-2.7025572233886734,-2.3510042601318375,37.00168991088867,0.005682881673177083,-0.06622564527723525
5526,0.17633130327148447,0.39843757629394533,83.26608276367188,82.83645629882812,-3.254840850830078,87.74638366699219,-0.0013863033718532986,0.5806666666666667,0.45571428571428574,0.012603335910373263,-2.7794596129150406,-1.9994532042236344,35.8591194152832,0.004773627387152778,-0.06668027242024739
5527,0.17633130327148447,0.39843757629394533,83.26608276367188,82.5091323852539,-3.295757293701172,87.70545959472656,-0.002068201700846354,0.5746666666666667,0.4564285714285714,0.01135219997829861,-2.823403018066408,-1.6479002409667984,35.8591194152832,0.008410559760199653,-0.06668018764919705
5528,0.17633130327148447,0.39843757629394533,83.28652954101562,82.73416900634766,-3.2139244079589844,87.62362670898438,-0.0018409305148654514,0.5686666666666667,0.4567857142857143,0.01046719021267361,-2.812416689941408,-1.2963491850585953,35.7712287902832,0.006137339274088541,-0.06486167907714843
5529,0.16851880327148447,0.39843757629394533,83.26608276367188,82.69325256347656,-3.1730079650878906,87.5213394165039,-0.001613616943359375,0.563,0.4567857142857143,0.00955166286892361,-2.6146685057373062,-0.9447962218017594,35.7712287902832,0.006364780002170139,-0.06327052646213108
5530,0.16851880327148447,0.39843757629394533,83.26608276367188,82.93875122070312,-3.2139244079589844,87.58271789550781,-0.0011589898003472221,0.5573333333333333,0.45714285714285713,0.008971913655598959,-2.3400179320068375,-0.6811319761962906,35.7712287902832,0.003637017144097222,-0.06440713670518664
5531,0.16851880327148447,0.39843757629394533,83.26608276367188,83.36836242675781,-3.3162155151367188,87.62362670898438,-0.0034320831298828127,0.5513333333333333,0.45714285714285713,0.008910878499348959,-2.2960745268554703,-0.6811319761962906,35.7712287902832,-0.001136440700954861,-0.06599824693467882
5532,0.16851880327148447,0.3785157012939453,83.28652954101562,83.73661041259766,-3.254840850830078,87.80775451660156,-0.0013863033718532986,0.5466666666666666,0.4567857142857143,0.008453114827473959,-2.4279066496582047,-1.0107122832031266,35.7712287902832,-0.00500089857313368,-0.06736217074924045
5533,0.17242505327148447,0.3785157012939453,83.28652954101562,83.28652954101562,-3.254840850830078,87.80775451660156,-0.004568650987413194,0.5406666666666666,0.4567857142857143,0.008239491780598959,-2.471850054809572,-1.4611383848876969,35.6833381652832,0.0,-0.06736217074924045
5534,0.17242505327148447,0.3785157012939453,83.28652954101562,82.9592056274414,-3.2139244079589844,87.70545959472656,-0.00297745598687066,0.5353333333333333,0.4567857142857143,0.0075375874837239586,-2.526779788085939,-1.3073355131835953,35.6833381652832,0.003636932373046875,-0.06577093336317275
5535,0.16851880327148447,0.3785157012939453,83.28652954101562,82.67279052734375,-3.1730079650878906,87.6031723022461,-0.0007043626573350694,0.53,0.4567857142857143,0.006469557020399305,-2.3949495726318375,-0.845923083374025,35.6833381652832,0.006819322374131944,-0.06417978074815538
5536,0.16461255327148447,0.3785157012939453,83.28652954101562,82.61141967773438,-3.2343826293945312,87.58271789550781,-0.001613616943359375,0.5243333333333333,0.4567857142857143,0.005950758192274305,-2.263117449829103,-0.4394403868408219,35.7712287902832,0.007501220703125,-0.0646344502766927
5537,0.16461255327148447,0.3785157012939453,83.28652954101562,82.89783477783203,-3.2139244079589844,87.72592163085938,-0.0011589898003472221,0.5196666666666667,0.4567857142857143,0.005828687879774305,-2.3510042601318375,-0.15380539233398594,35.7712287902832,0.004318830702039931,-0.06599828932020399
5538,0.16461255327148447,0.3785157012939453,83.28652954101562,83.30699157714844,-3.1934661865234375,87.6031723022461,-0.002522828843858507,0.5143333333333333,0.4567857142857143,0.005981275770399305,-2.263117449829103,-0.4174677305908219,35.7712287902832,-0.00022735595703125,-0.06440709431966146
5539,0.16461255327148447,0.39843757629394533,83.26608276367188,82.22271728515625,-3.1525497436523438,87.58271789550781,-0.002068201700846354,0.5086666666666667,0.4564285714285714,0.006316969129774305,-2.0433966093750016,-0.19774879748535312,35.7712287902832,0.011592949761284723,-0.0637251959906684
5540,0.16070630327148447,0.39843757629394533,83.26608276367188,82.44775390625,-3.132091522216797,87.37813568115234,-0.0002497355143229167,0.5036666666666667,0.4564285714285714,0.006347486707899305,-1.6369139128417984,0.3405660092830658,35.7712287902832,0.009092542860243056,-0.061224746704101565
5541,0.15680005327148447,0.41835948944091794,83.26608276367188,82.42729949951172,-3.2139244079589844,87.41905212402344,-0.001613616943359375,0.499,0.45535714285714285,0.0067746480305989586,-1.3512789183349625,0.8019779920578003,35.7712287902832,0.009319814046223958,-0.06258862813313802
5542,0.16070630327148447,0.41835948944091794,83.28652954101562,82.93875122070312,-3.2139244079589844,87.54179382324219,-0.0013863033718532986,0.495,0.455,0.0076901753743489586,-1.2963491850585953,0.9557820558547974,35.7712287902832,0.0038642035590277777,-0.06395242479112413
5543,0.16070630327148447,0.41835948944091794,83.28652954101562,83.26608276367188,-3.275299072265625,87.58271789550781,-0.00297745598687066,0.492,0.45357142857142857,0.008758290608723959,-1.3073355131835953,0.747048020362854,35.7712287902832,0.00022718641493055556,-0.06508907741970486
5544,0.16851880327148447,0.39843757629394533,83.26608276367188,82.28408813476562,-3.684459686279297,88.36012268066406,-0.0043413374159071184,0.48933333333333334,0.4521428571428571,0.00955166286892361,-1.7797323637695328,1.1095860004425049,35.7712287902832,0.010911051432291667,-0.07827313741048177
5545,0.16070630327148447,0.39843757629394533,83.26608276367188,82.73416900634766,-3.5412521362304688,87.84866333007812,0.0020233578152126738,0.4856666666666667,0.4492857142857143,0.009185536702473959,-1.9005781584472672,1.494096040725708,35.7712287902832,0.005910152859157986,-0.07099906073676215
5546,0.16070630327148447,0.3785157012939453,83.28652954101562,82.87738037109375,-3.500335693359375,88.31919860839844,-0.002750142415364583,0.4806666666666667,0.4475,0.00976528591579861,-1.9664942198486344,1.4391660690307617,35.7712287902832,0.004546101888020833,-0.07577260335286458
5547,0.15289380327148447,0.3785157012939453,83.28652954101562,82.550048828125,-3.500335693359375,88.03279113769531,0.003387239244249132,0.477,0.44392857142857145,0.00961269802517361,-1.9115644865722672,1.5160679817199707,35.7712287902832,0.008183119032118056,-0.07259029812282985
5548,0.15680005327148447,0.3785157012939453,83.26608276367188,82.57050323486328,-3.3366737365722656,87.91004180908203,-0.0066144307454427086,0.473,0.44142857142857145,0.01132168240017361,-1.8895918303222672,1.7577600479125977,35.7712287902832,0.007728661431206597,-0.06940795050726997
5549,0.15289380327148447,0.39843757629394533,83.28652954101562,82.9592056274414,-3.2343826293945312,87.35768127441406,0.0002048916286892361,0.4686666666666667,0.43714285714285717,0.012542300754123263,-1.6479002409667984,2.2631161212921143,35.7712287902832,0.003636932373046875,-0.062134043375651045
5550,0.14898755327148447,0.39843757629394533,83.28652954101562,84.0025634765625,-3.2139244079589844,87.37813568115234,-0.001613616943359375,0.4646666666666667,0.43464285714285716,0.014068179660373263,-1.2304331236572281,2.0104379653930664,35.7712287902832,-0.0079559326171875,-0.062134000990125865
5551,0.15289380327148447,0.39843757629394533,83.28652954101562,84.0025634765625,-3.2343826293945312,87.48042297363281,-0.00297745598687066,0.461,0.4307142857142857,0.015685526529947917,-0.9447962218017594,1.219446063041687,35.7712287902832,-0.0079559326171875,-0.06349784003363715
5552,0.15680005327148447,0.39843757629394533,83.28652954101562,83.63432312011719,-3.2343826293945312,87.37813568115234,-0.003659396701388889,0.4573333333333333,0.4278571428571429,0.016997782389322917,-0.9447962218017594,0.6371880173683167,35.7712287902832,-0.0038643731011284723,-0.06236131456163194
5553,0.14898755327148447,0.41835948944091794,83.26608276367188,83.5115737915039,-3.1934661865234375,87.6031723022461,-0.00297745598687066,0.454,0.4235714285714286,0.017425028483072917,-0.8788801604003922,0.2856360077857971,35.7712287902832,-0.0027276780870225696,-0.06440709431966146
5554,0.14898755327148447,0.41835948944091794,83.26608276367188,81.547607421875,-3.2343826293945312,87.97142028808594,0.0004322052001953125,0.451,0.41964285714285715,0.017455546061197917,-1.153530734130861,1.5160679817199707,35.7712287902832,0.019094170464409723,-0.06895336574978299
5555,0.15289380327148447,0.3785157012939453,83.28652954101562,82.5091323852539,-3.7662887573242188,88.46240997314453,0.0006595187717013889,0.44733333333333336,0.41714285714285715,0.01827943589952257,-1.7357889586181656,2.4169201850891113,35.7712287902832,0.008637746175130209,-0.0803188747829861
5556,0.15289380327148447,0.3785157012939453,83.28652954101562,84.67768096923828,-3.8890380859375,89.46485137939453,-0.001613616943359375,0.44433333333333336,0.41285714285714287,0.01989686754014757,-2.4498793059082047,2.109312057495117,35.7712287902832,-0.015457238091362848,-0.0928209940592448
5557,0.15680005327148447,0.3785157012939453,83.28652954101562,84.6572265625,-4.66644287109375,89.09660339355469,-0.005250591701931423,0.44066666666666665,0.41035714285714286,0.02169731987847222,-3.1310106688232437,1.0986000299453735,35.7712287902832,-0.015229966905381944,-0.09736718071831597
5558,0.14898755327148447,0.39843757629394533,83.28652954101562,82.81600189208984,-4.461860656738281,90.36500549316406,-0.004795964558919271,0.43633333333333335,0.4060714285714286,0.02230767144097222,-3.7352415495605484,0.5602860450744629,35.7712287902832,0.005228084988064236,-0.1091874016655816
5559,0.14508130327148447,0.39843757629394533,83.26608276367188,82.89783477783203,-5.648426055908203,90.20133972167969,0.0017960866292317708,0.432,0.4032142857142857,0.02200249565972222,-4.295527117797853,0.8129640221595764,35.7712287902832,0.004091644287109375,-0.1205529530843099
5560,0.14117505327148447,0.3585938262939453,83.28652954101562,84.5140151977539,-5.341556549072266,90.2218017578125,0.004523807101779514,0.42933333333333334,0.3992857142857143,0.02099541558159722,-5.52595962817383,0.07690200209617615,35.7712287902832,-0.013638729519314236,-0.11737064785427517
5561,0.15289380327148447,0.3585938262939453,83.28652954101562,83.57295227050781,-5.259723663330078,88.78973388671875,-0.0066144307454427086,0.425,0.39714285714285713,0.02206353081597222,-5.9214540892334,-0.7690206938476578,35.6833381652832,-0.0031824747721354166,-0.10054952833387587
5562,0.15680005327148447,0.3785157012939453,83.26608276367188,82.65233612060547,-4.993770599365234,89.68988800048828,-0.0054779052734375,0.4196666666666667,0.39464285714285713,0.02233818901909722,-5.361168520996095,-0.7470480375976578,35.6833381652832,0.006819407145182292,-0.10759620666503907
5563,0.14898755327148447,0.3785157012939453,83.30699157714844,83.4501953125,-4.850563049316406,41.900001525878906,0.00225067138671875,0.414,0.39285714285714285,0.02178887261284722,-5.394127505371095,-0.7909933500976578,30.40993881225586,-0.001591152615017361,0.42499372694227433
5564,0.16070630327148447,0.3785157012939453,83.28652954101562,83.40928649902344,-4.7482757568359375,89.44439697265625,-0.00047704908582899306,0.408,0.39,0.02181939019097222,-5.679762499877931,-0.9447962218017594,25.312320709228516,-0.0013639662000868055,-0.10214080810546874
5565,0.16070630327148447,0.39843757629394533,83.28652954101562,83.65477752685547,-4.830104827880859,89.1170654296875,-0.0066144307454427086,0.402,0.38821428571428573,0.02233818901909722,-5.888497012207033,-0.7031046324462906,24.87286949157715,-0.004091644287109375,-0.09941300286187066
5566,0.15289380327148447,0.39843757629394533,83.28652954101562,83.32745361328125,-4.605068206787109,89.0147705078125,0.0004322052001953125,0.39566666666666667,0.38571428571428573,0.02081239488389757,-5.866524355957033,-1.0107122832031266,24.87286949157715,-0.0004547119140625,-0.09577598571777343
5567,0.14898755327148447,0.3785157012939453,83.28652954101562,41.900001525878906,-4.66644287109375,88.72836303710938,-0.001613616943359375,0.3893333333333333,0.38392857142857145,0.01974427964952257,-5.646805422851564,-1.4281813078613297,24.87286949157715,0.4598503112792969,-0.09327562120225695
5568,0.15289380327148447,0.39843757629394533,83.28652954101562,83.90027618408203,-4.502777099609375,88.72836303710938,-0.001613616943359375,0.38266666666666665,0.38142857142857145,0.01910341050889757,-5.591875689575197,-2.263117449829103,24.87286949157715,-0.006819407145182292,-0.09145711263020834
5569,0.15680005327148447,0.39843757629394533,83.28652954101562,41.900001525878906,-4.482318878173828,87.95095825195312,-0.006159803602430555,0.376,0.38,0.017821756998697917,-5.4490572386474625,-3.0541082792968766,24.87286949157715,0.4598503112792969,-0.0825919681125217
5570,0.15289380327148447,0.39843757629394533,83.28652954101562,83.1024169921875,-3.909496307373047,87.84866333007812,-0.001613616943359375,0.36966666666666664,0.37785714285714284,0.015288798014322917,-4.855812686035158,-2.845373766967775,24.87286949157715,0.0020456949869791666,-0.07509066263834635
5571,0.14508130327148447,0.39843757629394533,83.28652954101562,83.42974090576172,-3.9504127502441406,88.6056137084961,-0.002068201700846354,0.364,0.3767857142857143,0.012969546847873263,-4.119751589843752,-2.4279066496582047,24.87286949157715,-0.0015912373860677083,-0.08395584954155816
5572,0.14898755327148447,0.39843757629394533,83.28652954101562,41.900001525878906,-4.1959075927734375,89.32164001464844,-0.002522828843858507,0.359,0.37285714285714283,0.01171841091579861,-4.295527117797853,-2.1093126707763687,24.87286949157715,0.4598503112792969,-0.09463941786024306
5573,0.14898755327148447,0.39843757629394533,83.28652954101562,82.24317932128906,-4.789188385009766,89.567138671875,-2.242194281684028e-05,0.35533333333333333,0.36964285714285716,0.01052822536892361,-4.702007906982423,-1.7907186918945328,24.87286949157715,0.011592780219184027,-0.10395918952094184
5574,0.14898755327148447,0.3785157012939453,83.26608276367188,41.900001525878906,-4.830104827880859,89.32164001464844,-0.001613616943359375,0.352,0.36428571428571427,0.009246571858723959,-5.119476931640627,-1.175503390380861,24.87286949157715,0.4596231248643663,-0.10168605380588108
5575,0.14117505327148447,0.3785157012939453,83.28652954101562,82.93875122070312,-4.8096466064453125,89.62850952148438,0.0040691799587673615,0.3496666666666667,0.3603571428571429,0.0074765523274739586,-5.141449587890627,-0.2746511870117203,24.96076011657715,0.0038642035590277777,-0.10486840142144097
5576,0.12945630327148447,0.3785157012939453,83.28652954101562,41.900001525878906,-5.034687042236328,89.77172088623047,0.002932612101236979,0.3473333333333333,0.3535714285714286,0.006347486707899305,-4.899756091186525,0.26366400718688965,24.96076011657715,0.4598503112792969,-0.10896008809407552
5577,0.13336255327148447,0.3785157012939453,83.28652954101562,83.30699157714844,-5.014228820800781,89.77172088623047,-0.002750142415364583,0.346,0.3485714285714286,0.0066220601399739586,-4.976658480712892,0.17577600479125977,24.87286949157715,-0.00022735595703125,-0.10873277452256945
5578,0.12945630327148447,0.39843757629394533,83.28652954101562,82.77508544921875,-5.075603485107422,89.52622985839844,-0.003659396701388889,0.345,0.3410714285714286,0.0071103413899739586,-5.020601885864259,-0.09887375170898594,24.87286949157715,0.005682712131076389,-0.1066870371500651
5579,0.13726880327148447,0.3785157012939453,83.26608276367188,81.71127319335938,-4.850563049316406,89.09660339355469,-0.0050232781304253475,0.3433333333333333,0.3360714285714286,0.0074765523274739586,-5.020601885864259,-0.6152159147949234,24.87286949157715,0.01727566189236111,-0.09941296047634549
5580,0.13726880327148447,0.3785157012939453,83.26608276367188,81.34302520751953,-4.564151763916016,88.68744659423828,-0.0009316762288411458,0.342,0.3292857142857143,0.0068967183430989586,-4.778910296508791,-0.14281906420898594,24.87286949157715,0.021367306179470486,-0.09168442620171441
5581,0.12945630327148447,0.3785157012939453,83.26608276367188,81.5066909790039,-4.441402435302734,88.54424285888672,-0.0007043626573350694,0.3403333333333333,0.325,0.006194898817274305,-4.548205035278322,1.0107120275497437,24.87286949157715,0.019548797607421876,-0.0887293921576606
5582,0.12164380327148447,0.3585938262939453,83.26608276367188,83.92073059082031,-4.4209442138671875,88.70790100097656,0.003841866387261285,0.3383333333333333,0.31857142857142856,0.005889723036024305,-4.196652072021486,2.3400180339813232,24.87286949157715,-0.00727386474609375,-0.09032050238715278
5583,0.12555005327148447,0.33867195129394534,83.28652954101562,84.0434799194336,-4.339115142822266,88.78973388671875,0.00225067138671875,0.336,0.3142857142857143,0.0071103413899739586,-4.075806277343752,3.065093994140625,24.87286949157715,-0.008410559760199653,-0.09032054477267795
5584,0.12555005327148447,0.3585938262939453,83.28652954101562,84.41172790527344,-4.175449371337891,87.66455078125,-0.008660252888997395,0.33266666666666667,0.30857142857142855,0.01058926052517361,-4.449329989501955,3.207911968231201,28.300579071044922,-0.012502204047309028,-0.07600000169542101
5585,0.12164380327148447,0.3585938262939453,83.28652954101562,84.14576721191406,-3.132091522216797,86.90760040283203,0.005205747816297743,0.32966666666666666,0.305,0.01223720974392361,-4.855812686035158,3.2408699989318848,34.364990234375,-0.009547085232204862,-0.05599657694498698
5586,0.11383130327148447,0.3585938262939453,83.28652954101562,84.80043029785156,-3.132091522216797,87.31675720214844,-0.00047704908582899306,0.326,0.3007142857142857,0.014129214816623263,-4.218624728271486,3.141996145248413,38.407928466796875,-0.016821119520399306,-0.06054276360405816
5587,0.11773755327148447,0.33867195129394534,83.28652954101562,84.96409606933594,-3.1525497436523438,86.08927917480469,0.006796900431315104,0.32133333333333336,0.29892857142857143,0.016997782389322917,-3.7572122984619156,3.087066173553467,40.86885070800781,-0.018639628092447916,-0.04713143242730035
5588,0.13336255327148447,0.33867195129394534,83.28652954101562,84.24806213378906,-2.334228515625,86.27340698242188,-0.007296371459960938,0.31733333333333336,0.29678571428571426,0.02081239488389757,-3.943974154541017,2.065368175506592,43.68132781982422,-0.010683695475260416,-0.0400848388671875
5589,0.17242505327148447,0.29882820129394533,83.28652954101562,85.80287170410156,-2.518352508544922,87.05081176757812,-0.01843460930718316,0.31333333333333335,0.2975,0.025603485107421876,-3.0211512022705094,2.7794580459594727,45.43912887573242,-0.027959357367621528,-0.05076849195692274
5590,0.12945630327148447,0.3785157012939453,83.28652954101562,85.88470458984375,-2.702472686767578,86.68256378173828,0.0040691799587673615,0.30833333333333335,0.2975,0.026946173773871526,-3.0101648741455094,2.823402166366577,46.58169937133789,-0.028868611653645834,-0.048722627427842884
5591,0.11773755327148447,0.3785157012939453,83.28652954101562,88.64653015136719,-2.2114830017089844,86.5188980102539,0.0006595187717013889,0.304,0.2978571428571429,0.027922736273871526,-3.1090380125732437,1.9005780220031738,46.58169937133789,-0.05955556233723958,-0.041448677910698783
5592,0.10601880327148447,0.3785157012939453,83.28652954101562,81.91584777832031,-2.497894287109375,86.76439666748047,-0.009569507175021702,0.301,0.2985714285714286,0.028075324164496526,-2.219172137329103,0.09887400269508362,46.66958999633789,0.01522979736328125,-0.0473587883843316
5593,0.10992505327148447,0.3785157012939453,83.26608276367188,82.46821594238281,-2.477436065673828,86.68256378173828,-0.008660252888997395,0.299,0.2982142857142857,0.028075324164496526,-1.9884668760986344,-1.2853628569335953,46.66958999633789,0.008865186903211806,-0.046222220526801215
5594,0.12555005327148447,0.3585938262939453,83.28652954101562,87.0098876953125,-2.4569778442382812,86.70301818847656,-0.014343007405598959,0.297,0.2982142857142857,0.028380499945746526,-1.549027102539064,-0.3515516691894547,46.66958999633789,-0.04137064615885417,-0.04622217814127604
5595,0.11383130327148447,0.3585938262939453,83.28652954101562,88.48286437988281,-2.5797271728515625,86.94851684570312,-0.0002497355143229167,0.29633333333333334,0.2975,0.027495490180121526,-1.120571749755861,-0.18676246936035312,46.66958999633789,-0.05773705376519097,-0.05031382242838542
5596,0.10992505327148447,0.3785157012939453,83.26608276367188,83.552490234375,-2.5388107299804688,87.29630279541016,-0.013888380262586805,0.295,0.2960714285714286,0.027403937445746526,-0.9557825499267594,-3.4605909758300797,46.66958999633789,-0.003182305230034722,-0.05372348361545139
5597,0.12945630327148447,0.3785157012939453,83.28652954101562,83.77752685546875,-2.6206436157226562,87.62362670898438,-0.01661614312065972,0.295,0.295,0.026122283935546876,-1.0876146727294937,-4.625107424804689,46.66958999633789,-0.005455525716145834,-0.05826967027452257
5598,0.13726880327148447,0.3585938262939453,83.28652954101562,86.559814453125,-2.9275131225585938,87.76683807373047,-0.00297745598687066,0.29433333333333334,0.2935714285714286,0.02319268120659722,-1.2524038725585953,-3.3836885863037125,46.66958999633789,-0.03636983235677083,-0.06327056884765625
5599,0.13336255327148447,0.3585938262939453,83.28652954101562,84.57539367675781,-2.743389129638672,87.562255859375,0.0008868323432074653,0.29333333333333333,0.29285714285714287,0.02007997300889757,-1.9774805479736344,-3.4825636320800797,46.66958999633789,-0.01432071261935764,-0.058951610989040795
5600,0.13336255327148447,0.3785157012939453,83.28652954101562,84.63676452636719,-2.722930908203125,87.54179382324219,-0.007296371459960938,0.2916666666666667,0.2925,0.01852357652452257,-2.526779788085939,-4.3944002562255875,46.66958999633789,-0.015002610948350694,-0.05849694146050347
5601,0.14117505327148447,0.3785157012939453,83.28652954101562,84.39126586914062,-3.0502586364746094,87.91004180908203,-0.00775099860297309,0.29033333333333333,0.29285714285714287,0.015136294894748263,-2.537766116210939,-4.33947052294922,46.66958999633789,-0.012274848090277778,-0.0662255605061849
5602,0.12555005327148447,0.39843757629394533,83.28652954101562,83.14332580566406,-2.907054901123047,87.78729248046875,0.0011141459147135417,0.28833333333333333,0.29285714285714287,0.01071133083767361,-3.1200243406982437,-4.537218707153322,46.66958999633789,0.001591152615017361,-0.06327052646213108
5603,0.12945630327148447,0.39843757629394533,83.28652954101562,79.80867004394531,-2.866138458251953,87.58271789550781,-0.00843293931749132,0.2853333333333333,0.2932142857142857,0.008483632405598959,-3.4386183195800797,-4.636091845581056,46.66958999633789,0.03864288330078125,-0.06054284837510851
5604,0.13726880327148447,0.39843757629394533,83.26608276367188,82.40684509277344,-2.8252220153808594,87.6031723022461,-0.011160659790039062,0.2826666666666667,0.29428571428571426,0.005615064832899305,-3.4166475706787125,-3.4605909758300797,46.66958999633789,0.009547085232204862,-0.06031549241807726
5605,0.13336255327148447,0.3785157012939453,83.28652954101562,83.40928649902344,-2.8252220153808594,87.58271789550781,0.010888502332899305,0.2796666666666667,0.29464285714285715,0.0013732062445746527,-3.4056612425537125,-1.6698728972167984,46.66958999633789,-0.0013639662000868055,-0.06008822123209635
5606,0.13336255327148447,0.3585938262939453,83.28652954101562,82.9592056274414,-2.8047637939453125,88.19645690917969,-0.003886710272894965,0.276,0.2957142857142857,0.0001220703125,-3.4496046477050797,-0.5712725096435562,46.66958999633789,0.003636932373046875,-0.06668023003472222
5607,0.11773755327148447,0.3785157012939453,83.26608276367188,82.0385971069336,-3.684459686279297,88.31919860839844,0.007024214002821181,0.272,0.2960714285714286,-0.000946044921875,-3.954960482666017,0.4284540116786957,46.58169937133789,0.013638729519314236,-0.07781842549641928
5608,0.12945630327148447,0.3585938262939453,83.28652954101562,82.32501220703125,-3.357128143310547,87.91004180908203,-0.00047704908582899306,0.2683333333333333,0.29678571428571426,-0.000244140625,-4.800882952758791,1.4171940088272095,46.58169937133789,0.010683525933159722,-0.06963522169325087
5609,0.12555005327148447,0.3585938262939453,83.28652954101562,83.57295227050781,-3.3162155151367188,87.70545959472656,-0.0075236850314670135,0.2633333333333333,0.2982142857142857,0.00079345703125,-5.141449587890627,2.3290319442749023,46.66958999633789,-0.0031824747721354166,-0.06690750122070313
5610,0.12555005327148447,0.29882820129394533,83.28652954101562,84.16622924804688,-3.0298004150390625,87.0098876953125,0.007933468288845487,0.259,0.3003571428571429,0.0010680304633246527,-5.295252459594728,2.9662201404571533,46.66958999633789,-0.009774441189236111,-0.055996534559461804
5611,0.10211255327148447,0.3585938262939453,83.28652954101562,84.24806213378906,-2.6615562438964844,86.43707275390625,-0.0009316762288411458,0.253,0.30214285714285716,0.0029906378851996527,-5.064547198364259,2.8563599586486816,46.66958999633789,-0.010683695475260416,-0.04554032219780816
5612,0.08648755327148447,0.3785157012939453,83.28652954101562,85.0459213256836,-2.4160614013671875,87.31675720214844,0.0008868323432074653,0.24733333333333332,0.30392857142857144,0.004394361707899305,-4.37242950732422,2.58171010017395,46.142250061035156,-0.019548797607421876,-0.052586873372395836
5613,0.07476880327148447,0.3585938262939453,83.28652954101562,83.47065734863281,-2.743389129638672,88.05325317382812,-0.001613616943359375,0.24366666666666667,0.30464285714285716,0.004150221082899305,-3.570450442382814,2.1642420291900635,45.52701950073242,-0.002045864529079861,-0.06440713670518664
5614,0.06695630327148447,0.3585938262939453,83.28652954101562,83.47065734863281,-3.479877471923828,88.40103149414062,0.0004322052001953125,0.23966666666666667,0.30464285714285716,0.005004713270399305,-3.6803099089355484,1.9445220232009888,43.153987884521484,-0.002045864529079861,-0.07645454406738281
5615,0.09430005327148447,0.2789063262939453,83.28652954101562,82.67279052734375,-3.0707168579101562,87.33721923828125,-0.014115693834092882,0.23633333333333334,0.30392857142857144,0.007964833577473959,-4.449329989501955,1.9005780220031738,42.099308013916016,0.006819322374131944,-0.06008817884657118
5616,0.09039380327148447,0.2789063262939453,83.28652954101562,82.42729949951172,-3.0707168579101562,87.27584838867188,0.0006595187717013889,0.23233333333333334,0.30357142857142855,0.009093983968098959,-4.614121096679689,1.7577600479125977,42.099308013916016,0.009547000461154514,-0.059406280517578125
5617,0.11383130327148447,0.2789063262939453,83.28652954101562,82.69325256347656,-2.5797271728515625,86.84622192382812,-0.014570320977105035,0.22933333333333333,0.3032142857142857,0.012572818332248263,-4.4053865843505875,1.5709980726242065,42.01142120361328,0.006591966417100695,-0.04917721218532986
5618,0.10992505327148447,0.29882820129394533,83.28652954101562,82.89783477783203,-2.7638473510742188,86.80531311035156,-0.004114023844401042,0.22466666666666665,0.3032142857142857,0.014617496066623263,-3.954960482666017,0.7800060510635376,42.01142120361328,0.004318830702039931,-0.05076844957139757
5619,0.14508130327148447,0.29882820129394533,83.28652954101562,82.67279052734375,-2.4160614013671875,86.6007308959961,-0.02684512668185764,0.22066666666666668,0.3028571428571429,0.01974427964952257,-3.207913058349611,2.427906036376953,41.74774932861328,0.006819322374131944,-0.04463102552625868
5620,0.10992505327148447,0.2789063262939453,83.28652954101562,84.1048583984375,-2.6206436157226562,86.15065002441406,0.02248136732313368,0.21766666666666667,0.3025,0.016906229654947917,-3.3617159300537125,4.284540176391602,41.13251876831055,-0.009092542860243056,-0.04190326266818577
5621,0.07086255327148447,0.239062557220459,83.28652954101562,86.37569427490234,-2.2933120727539062,86.0688247680664,0.02316330803765191,0.21466666666666667,0.30214285714285716,0.016326395670572917,-3.4605909758300797,5.053560256958008,41.13251876831055,-0.03432405259874132,-0.03735707600911458
5622,0.05523755327148447,0.29882820129394533,83.28652954101562,86.72348022460938,-1.8636970520019531,85.74149322509766,0.0024779849582248262,0.21133333333333335,0.3007142857142857,0.01971376207139757,-3.1529833250732437,3.702282190322876,40.95674133300781,-0.038188340928819446,-0.028946558634440105
5623,0.06695630327148447,0.25898443222045897,83.28652954101562,85.25050354003906,-1.7000312805175781,85.49600219726562,-0.0034320831298828127,0.208,0.3003571428571429,0.02337578667534722,-2.4388929777832047,1.5490260124206543,41.13251876831055,-0.02182193332248264,-0.024400371975368925
5624,0.10601880327148447,0.29882820129394533,83.28652954101562,82.67279052734375,-1.4136199951171875,86.19157409667969,-0.026617813110351562,0.20566666666666666,0.29892857142857143,0.028899298773871526,-1.4391657286376969,-1.0546575957031266,41.13251876831055,0.006819322374131944,-0.02894660101996528
5625,0.16461255327148447,0.2789063262939453,83.26608276367188,82.57050323486328,-1.6591148376464844,86.04837036132812,-0.021844270494249134,0.204,0.29678571428571426,0.032896931966145834,-0.6042314940185562,-1.8895918303222672,43.153987884521484,0.007728661431206597,-0.03008316887749566
5626,0.16461255327148447,0.33867195129394534,83.28652954101562,85.1072998046875,-1.6591148376464844,84.6572265625,-0.014570320977105035,0.201,0.29464285714285715,0.034819539388020834,-0.5932451658935562,-1.6369139128417984,44.12078094482422,-0.020230780707465278,-0.01462601555718316
5627,0.15680005327148447,0.29882820129394533,83.28652954101562,84.08439636230469,-1.2090415954589844,86.662109375,0.02248136732313368,0.20066666666666666,0.2932142857142857,0.03033354017469618,-0.08788933093261875,-1.8786074095459,44.38444900512695,-0.008865186903211806,-0.03190167744954427
5628,0.16070630327148447,0.25898443222045897,83.28652954101562,83.12287139892578,-2.129650115966797,86.96897888183594,-0.015706888834635415,0.20066666666666666,0.2914285714285714,0.027342902289496526,0.8239500522613525,-2.7574869566650406,44.38444900512695,0.0018184238009982638,-0.04554032219780816
5629,0.14898755327148447,0.239062557220459,83.26608276367188,82.89783477783203,-2.2114830017089844,86.45751953125,0.008160781860351563,0.19933333333333333,0.29,0.02227715386284722,-0.09887375170898594,-2.4498793059082047,44.38444900512695,0.004091644287109375,-0.04076669481065538
5630,0.11773755327148447,0.2789063262939453,83.26608276367188,82.38638305664062,-2.0478172302246094,86.33477783203125,0.01543473137749566,0.19833333333333333,0.2889285714285714,0.01834047105577257,-0.6371885710449234,-2.9772058897705094,47.54848861694336,0.009774441189236111,-0.03758438958062066
5631,0.10211255327148447,0.39843757629394533,83.28652954101562,84.94363403320312,-2.10919189453125,86.84622192382812,-0.018889236450195312,0.19533333333333333,0.2889285714285714,0.01827943589952257,-0.7470480375976578,-2.175228732177736,47.54848861694336,-0.018412272135416668,-0.04394904242621528
5632,0.11383130327148447,0.3187500762939453,83.28652954101562,84.92317199707031,-2.9684295654296875,88.93293762207031,0.012025070190429688,0.19466666666666665,0.2882142857142857,0.016295878092447917,-0.4723993712158219,-2.230158465454103,47.54848861694336,-0.018184916178385416,-0.07668185763888889
5633,0.12945630327148447,0.3187500762939453,83.28652954101562,81.93630981445312,-3.2343826293945312,88.29874420166016,-0.01752539740668403,0.19233333333333333,0.2875,0.015502421061197917,-0.801977770874025,-4.009890215942384,47.54848861694336,0.01500244140625,-0.07259029812282985
5634,0.15289380327148447,0.25898443222045897,83.28652954101562,83.57295227050781,-3.1525497436523438,87.17355346679688,-0.018207295735677084,0.18866666666666668,0.2875,0.01156582302517361,-1.7357889586181656,-3.0760809355468766,47.54848861694336,-0.0031824747721354166,-0.059178924560546874
5635,0.09039380327148447,0.219140682220459,83.28652954101562,84.47309875488281,-3.8481216430664062,86.45751953125,0.01725323994954427,0.187,0.2885714285714286,0.0020751105414496527,-2.0873400145263687,-1.4391657286376969,47.72426986694336,-0.013184102376302083,-0.05895156860351562
5636,0.05133130327148447,0.219140682220459,83.26608276367188,86.86668395996094,-2.2319412231445312,85.33233642578125,0.01907170613606771,0.18266666666666667,0.29035714285714287,-0.0022276984320746527,-2.9991785460205094,0.05493000149726868,47.72426986694336,-0.04000667995876736,-0.028491973876953125
5637,0.07086255327148447,0.17929691314697266,83.28652954101562,83.87982177734375,-1.2704124450683594,86.6007308959961,0.016343985663519967,0.179,0.2925,-0.001068115234375,-2.9772058897705094,-0.9997259550781266,47.72426986694336,-0.006592135959201389,-0.03190159267849392
5638,0.14898755327148447,0.219140682220459,83.28652954101562,84.02302551269531,-1.9250717163085938,85.96653747558594,-0.02616318596733941,0.17333333333333334,0.2960714285714286,0.005157301161024305,-2.164242404052736,-2.2741018706054703,47.72426986694336,-0.00818328857421875,-0.032128991021050345
5639,0.16070630327148447,0.239062557220459,83.28652954101562,84.0434799194336,-1.495452880859375,85.68012237548828,-0.025935872395833334,0.16733333333333333,0.2978571428571429,0.005859205457899305,-2.6695982390136734,-1.3512789183349625,51.4156494140625,-0.008410559760199653,-0.024173058403862847
5640,0.15289380327148447,0.17929691314697266,83.28652954101562,85.92561340332031,-1.5363693237304688,86.17111206054688,0.022935994466145835,0.164,0.30142857142857143,0.0009764777289496528,-2.7465006285400406,-0.7580343657226578,51.5035400390625,-0.029323154025607638,-0.030083126491970487
5641,0.12945630327148447,0.219140682220459,83.28652954101562,85.86424255371094,-1.9250717163085938,86.47798156738281,-0.006159803602430555,0.16,0.305,0.00048828125,-1.8017050200195328,-0.7470480375976578,51.5035400390625,-0.028641255696614583,-0.03781170315212674
5642,0.10992505327148447,0.239062557220459,83.28652954101562,82.24317932128906,-2.0069007873535156,87.23492431640625,0.0040691799587673615,0.15566666666666668,0.30857142857142855,-0.00103759765625,-2.0214239531250016,-1.9555078917236344,51.5035400390625,0.011592780219184027,-0.047131390041775176
5643,0.16070630327148447,0.239062557220459,83.26608276367188,82.89783477783203,-2.477436065673828,87.41905212402344,-0.014797634548611112,0.153,0.31035714285714283,0.0012816535101996527,-2.0873400145263687,-1.9994532042236344,48.60316848754883,0.004091644287109375,-0.054405424329969615
5644,0.18414380327148447,0.29882820129394533,83.26608276367188,83.67523193359375,-2.3751449584960938,88.1146240234375,-0.026617813110351562,0.15,0.31214285714285717,0.004669019911024305,-2.263117449829103,-1.2524038725585953,48.075828552246094,-0.004546101888020833,-0.06099743313259549
5645,0.16070630327148447,0.3187500762939453,83.26608276367188,83.77752685546875,-2.907054901123047,88.19645690917969,0.003841866387261285,0.14666666666666667,0.31214285714285717,0.0031737433539496527,-2.7684732847900406,-0.5712725096435562,48.075828552246094,-0.005682712131076389,-0.0678167978922526
5646,0.15289380327148447,0.3187500762939453,83.26608276367188,81.11798858642578,-2.9684295654296875,87.70545959472656,0.009979248046875,0.143,0.3125,0.0017394171820746527,-3.2957998686523453,-0.9997259550781266,43.68132781982422,0.02386771308051215,-0.063043212890625
5647,0.15680005327148447,0.29882820129394533,83.26608276367188,80.50424194335938,-2.9888877868652344,88.31919860839844,-0.009342193603515625,0.13966666666666666,0.31214285714285717,0.000244140625,-3.229883807250978,0.36253800988197327,43.417659759521484,0.030687120225694444,-0.07008984883626303
5648,0.08648755327148447,0.239062557220459,83.26608276367188,80.50424194335938,-3.500335693359375,87.80775451660156,0.022708680894639757,0.13933333333333334,0.31107142857142855,-0.008421239208984351,-3.592423098632814,1.8017040491104126,43.417659759521484,0.030687120225694444,-0.0700898912217882
5649,0.03570630327148447,0.19921878814697266,83.28652954101562,77.29234313964844,-2.9888877868652344,87.29630279541016,0.022935994466145835,0.13433333333333333,0.3107142857142857,-0.012724132953559003,-4.229611056396486,0.45042601227760315,41.74774932861328,0.06660207112630208,-0.0587243398030599
5650,0.11383130327148447,0.2789063262939453,83.26608276367188,81.32257080078125,-2.4365196228027344,86.662109375,-0.026390499538845487,0.132,0.31,-0.0023802863226996527,-3.90003074938965,1.340291976928711,41.48408126831055,0.021594577365451388,-0.04554032219780816
5651,0.16851880327148447,0.2789063262939453,83.28652954101562,84.84133911132812,-2.2933120727539062,85.47554016113281,-0.01843460930718316,0.12766666666666668,0.3092857142857143,0.004791090223524305,-3.284815447875978,4.976658344268799,41.48408126831055,-0.01727566189236111,-0.030765024820963542
5652,0.12555005327148447,0.2789063262939453,83.28652954101562,86.21202850341797,-1.8841552734375,86.64164733886719,0.02179942660861545,0.12466666666666666,0.3075,0.006255933973524305,-2.471850054809572,6.229062080383301,41.48408126831055,-0.03250554402669271,-0.03917558458116319
5653,0.08258130327148447,0.3187500762939453,83.28652954101562,83.4501953125,-2.0478172302246094,87.45996856689453,0.017025926378038195,0.12133333333333333,0.30607142857142855,0.008483632405598959,-1.9774805479736344,4.800882339477539,41.57196807861328,-0.001818508572048611,-0.05008650885687934
5654,0.10211255327148447,0.29882820129394533,83.28652954101562,84.98455047607422,-2.272857666015625,87.43951416015625,-0.022298897637261283,0.11833333333333333,0.3032142857142857,0.014129214816623263,-1.9994532042236344,3.6693241596221924,40.69306945800781,-0.01886689927842882,-0.052359686957465276
5655,0.08258130327148447,0.25898443222045897,83.28652954101562,87.05081176757812,-2.354686737060547,86.43707275390625,0.0017960866292317708,0.11666666666666667,0.30142857142857143,0.013732486300998263,-2.7794596129150406,3.9549601078033447,39.814170837402344,-0.041825358072916666,-0.042130661010742185
5656,0.05133130327148447,0.2789063262939453,83.28652954101562,83.83889770507812,-1.8636970520019531,86.08927917480469,0.015662044949001735,0.11366666666666667,0.29892857142857143,0.013763003879123263,-2.526779788085939,1.3512780666351318,39.550498962402344,-0.006137424045138889,-0.03281084696451823
5657,0.10211255327148447,0.29882820129394533,83.28652954101562,84.06393432617188,-1.6181983947753906,87.0098876953125,-0.026617813110351562,0.11133333333333334,0.29714285714285715,0.02087334526909722,-1.4721247130126969,-0.7031046324462906,40.34151077270508,-0.008637830946180555,-0.04031206766764323
5658,0.12555005327148447,0.3187500762939453,83.28652954101562,86.58027648925781,-2.9888877868652344,87.1121826171875,-0.02548124525282118,0.10666666666666667,0.29392857142857143,0.02328423394097222,-1.2414194517822281,-0.13183273608398594,40.60517883300781,-0.036597188313802084,-0.056678560045030385
5659,0.10211255327148447,0.29882820129394533,83.28652954101562,86.37569427490234,-2.5797271728515625,87.54179382324219,0.013843536376953125,0.105,0.29214285714285715,0.02072084214952257,-1.9005781584472672,0.516342043876648,40.69306945800781,-0.03432405259874132,-0.05690578884548611
5660,0.10992505327148447,0.25898443222045897,83.28652954101562,84.61630249023438,-2.6206436157226562,86.33477783203125,0.0020233578152126738,0.102,0.28964285714285715,0.02035463121202257,-2.9772058897705094,-0.49437012011718906,40.69306945800781,-0.014775254991319445,-0.043949127197265625
5661,0.13726880327148447,0.2789063262939453,83.28652954101562,84.32989501953125,-1.9046134948730469,85.35279846191406,-0.02093505859375,0.09933333333333333,0.2889285714285714,0.02365044487847222,-3.0980535917968766,-2.0873400145263687,40.86885070800781,-0.011592949761284723,-0.025082355075412326
5662,0.13726880327148447,0.3187500762939453,83.28652954101562,84.35034942626953,0.1411895751953125,84.69813537597656,-0.01843460930718316,0.095,0.2882142857142857,0.02358940972222222,-2.3729769163818375,-2.834389346191408,40.86885070800781,-0.011820220947265625,0.004922824435763889
5663,0.12555005327148447,0.29882820129394533,83.28652954101562,85.39370727539062,-0.7385063171386719,85.27096557617188,0.009751976860894098,0.09166666666666666,0.2875,0.01827943589952257,-1.164517062255861,-2.241144793579103,42.01142120361328,-0.0234130859375,-0.011216354370117188
5664,0.11773755327148447,0.2789063262939453,83.28652954101562,83.22515869140625,-1.0862922668457031,85.31187438964844,-0.0054779052734375,0.08833333333333333,0.2860714285714286,0.015044742160373263,-0.9667688780517594,-2.790444033691408,42.01142120361328,0.0006818983289930556,-0.015535185072157119
5665,0.11383130327148447,0.25898443222045897,83.26608276367188,80.66790771484375,-1.10675048828125,86.86668395996094,-0.0043413374159071184,0.08566666666666667,0.28535714285714286,0.01025356716579861,-0.6701475554199234,-3.174954073974611,42.97821044921875,0.028868611653645834,-0.033038160536024305
5666,0.08258130327148447,0.239062557220459,83.26608276367188,80.19737243652344,-1.2499542236328125,83.92073059082031,0.014980104234483507,0.082,0.28464285714285714,0.0030821906195746527,-0.9887415343017594,-2.922276156494142,44.29655838012695,0.034096781412760416,-0.0018964979383680556
5667,0.07086255327148447,0.19921878814697266,83.28652954101562,78.17203521728516,-0.16568374633789062,84.53446960449219,0.018617078993055557,0.07866666666666666,0.28535714285714286,-0.0021361456976996527,-1.0326849394531266,-2.867346423217775,44.29655838012695,0.05682771470811632,0.003331629435221354
5668,0.10211255327148447,0.219140682220459,83.26608276367188,83.94119262695312,-0.6157569885253906,84.80043029785156,-0.02570855882432726,0.076,0.2860714285714286,-0.00079345703125,-0.08788933093261875,-1.131558077880861,46.84537124633789,-0.007501220703125,-0.004624303181966146
5669,0.08258130327148447,0.239062557220459,83.26608276367188,79.4404296875,-0.5339241027832031,84.6572265625,0.004751120673285591,0.07266666666666667,0.2867857142857143,-0.0025023566351996527,-0.21972145373535312,-0.9667688780517594,46.84537124633789,0.04250725640190972,-0.002123896280924479
5670,0.09430005327148447,0.19921878814697266,83.28652954101562,79.68592834472656,-0.5952987670898438,85.23004150390625,0.00770615471733941,0.07,0.28785714285714287,-0.004393088438585046,-0.5163427763671891,-1.527054446289064,48.339500427246094,0.04000667995876736,-0.009170447455512152
5671,0.08648755327148447,0.239062557220459,83.28652954101562,80.72928619384766,-1.0453758239746094,85.98699188232422,-0.0013863033718532986,0.06733333333333333,0.2889285714285714,-0.004332053282335046,-0.3076082640380875,0.6811320185661316,48.86684036254883,0.028413814968532985,-0.022581863403320312
5672,0.09430005327148447,0.219140682220459,83.28652954101562,84.45263671875,-1.1681251525878906,85.82332611083984,-0.004795964558919271,0.065,0.29035714285714287,-0.0032042609320746527,-0.10986007983398594,2.0873401165008545,48.86684036254883,-0.012956746419270833,-0.02212723626030816
5673,0.07476880327148447,0.17929691314697266,83.28652954101562,82.9592056274414,-1.5568275451660156,86.559814453125,0.008842722574869791,0.062,0.2914285714285714,-0.003935324766710046,-0.5053564482421891,3.065093994140625,48.86684036254883,0.003636932373046875,-0.03462935553656684
5674,0.02398755327148447,0.219140682220459,83.26608276367188,82.38638305664062,-1.3522453308105469,85.53691101074219,0.015889358520507813,0.059,0.2932142857142857,-0.005033872808159698,-0.9228254729003922,2.2521300315856934,48.86684036254883,0.009774441189236111,-0.020990626017252604
5675,0.07476880327148447,0.19921878814697266,83.28652954101562,82.32501220703125,-0.6975898742675781,85.84378051757812,-0.01911655002170139,0.057,0.29428571428571426,0.0008544921875,-1.4501520567626969,1.4391660690307617,48.427391052246094,0.010683525933159722,-0.01712633768717448
5676,0.15289380327148447,0.17929691314697266,83.28652954101562,84.57539367675781,-0.8203392028808594,86.23248291015625,-0.026617813110351562,0.054,0.2960714285714286,0.0072934468587239586,-0.6811319761962906,2.109312057495117,48.427391052246094,-0.01432071261935764,-0.022809134589301214
5677,0.10601880327148447,0.239062557220459,83.28652954101562,89.48530578613281,-1.5772857666015625,86.82576751708984,0.012934324476453993,0.05,0.2960714285714286,0.009093983968098959,-0.6371885710449234,3.152981996536255,50.0094108581543,-0.0688752916124132,-0.03781170315212674
5678,0.08258130327148447,0.219140682220459,83.26608276367188,84.43218231201172,-1.4749946594238281,86.53935241699219,-0.002068201700846354,0.04733333333333333,0.2978571428571429,0.009246571858723959,-1.0986010008544937,2.0763540267944336,49.8336296081543,-0.012956661648220485,-0.03349274529351128
5679,0.09430005327148447,0.17929691314697266,83.28652954101562,88.58515930175781,-1.4545364379882812,86.86668395996094,0.004523807101779514,0.044333333333333336,0.29928571428571427,0.01055874294704861,-1.175503390380861,1.307334065437317,48.86684036254883,-0.05887366400824653,-0.03690244886610243
5680,0.06695630327148447,0.2789063262939453,83.28652954101562,88.31919860839844,-1.5772857666015625,86.78485107421875,-0.006159803602430555,0.04033333333333333,0.30214285714285716,0.012511783175998263,-1.7577597075195328,1.3622640371322632,47.987937927246094,-0.05591854519314236,-0.03735707600911458
5681,0.05133130327148447,0.239062557220459,83.28652954101562,82.0999755859375,-1.7818641662597656,87.54179382324219,0.013388951619466146,0.03833333333333333,0.3032142857142857,0.01068081325954861,-2.2960745268554703,-1.2414194517822281,43.76921844482422,0.01318393283420139,-0.04804064432779948
5682,0.09039380327148447,0.17929691314697266,83.26608276367188,78.72439575195312,-2.1705665588378906,86.45751953125,-0.013661109076605903,0.036,0.3032142857142857,0.01040615505642361,-2.6805845671386734,-3.965946810791017,38.84737777709961,0.05046318901909722,-0.04031206766764323
5683,0.09820630327148447,0.2789063262939453,83.28652954101562,83.02058410644531,-2.1910247802734375,88.58515930175781,-0.026617813110351562,0.03233333333333333,0.3025,0.01095547146267361,-2.867346423217775,-2.5926958494873062,37.704811096191406,0.0029549492730034724,-0.06417982313368055
5684,0.10992505327148447,0.25898443222045897,83.28652954101562,87.66455078125,-2.4569778442382812,85.16867065429688,-0.0059324900309244795,0.028666666666666667,0.29964285714285716,0.01040615505642361,-3.6803099089355484,0.5712720155715942,37.704811096191406,-0.04864468044704861,-0.02917387220594618
5685,0.06695630327148447,0.29882820129394533,83.28652954101562,85.65966796875,-1.2294998168945312,86.70301818847656,0.012707010904947916,0.025333333333333333,0.2982142857142857,0.007903798421223959,-3.4166475706787125,0.0,36.38645935058594,-0.026368204752604166,-0.032583533393012155
5686,0.11383130327148447,0.19921878814697266,83.26608276367188,89.54668426513672,-0.37026214599609375,83.98210144042969,-0.0066144307454427086,0.021333333333333333,0.2957142857142857,0.00970425075954861,-3.0980535917968766,0.1538040041923523,33.837650299072266,-0.06978446112738715,0.007195960150824653
5687,0.12555005327148447,0.219140682220459,83.28652954101562,81.91584777832031,0.2639350891113281,86.31431579589844,-0.006841744316948784,0.017,0.29428571428571426,0.01193203396267361,-2.526779788085939,-1.9994532042236344,33.837650299072266,0.01522979736328125,-0.011670896742078994
5688,0.12945630327148447,0.2789063262939453,83.28652954101562,82.5091323852539,0.18210220336914062,86.82576751708984,-0.034346389770507815,0.011666666666666667,0.2910714285714286,0.01119961208767361,-1.9115644865722672,-2.537766116210939,33.13452911376953,0.008637746175130209,-0.018262947930230033
5689,0.10211255327148447,0.25898443222045897,83.26608276367188,84.5140151977539,-1.1272087097167969,86.662109375,0.011115815904405382,0.008666666666666666,0.2885714285714286,0.005584547254774305,-0.7360617094726578,-1.3293062620849625,26.71855926513672,-0.013865915934244792,-0.030992423163519967
5690,0.08258130327148447,0.25898443222045897,83.26608276367188,81.87493133544922,0.6321792602539062,86.68256378173828,0.0065695868598090275,0.005,0.2832142857142857,0.0028685675726996527,0.17577600479125977,-0.8678938322753922,24.69709014892578,0.015457238091362848,-0.011670939127604167
5691,0.11773755327148447,0.19921878814697266,83.28652954101562,82.46821594238281,1.6550788879394531,81.22027587890625,-0.01252454121907552,0.0033333333333333335,0.2792857142857143,0.0031432257758246527,0.5273280143737793,-0.07690300280761875,24.60919952392578,0.00909237331814236,0.06038670010036892
5692,0.07867505327148447,0.239062557220459,83.28652954101562,84.554931640625,3.6599655151367188,80.40196228027344,0.009751976860894098,0.0013333333333333333,0.2732142857142857,0.0009459601508246528,1.4721240997314453,1.4611380100250244,24.60919952392578,-0.01409335666232639,0.0917555914984809
5693,0.06695630327148447,0.15937503814697265,83.28652954101562,84.12531280517578,4.110038757324219,80.46333312988281,0.02179942660861545,0.0003333333333333333,0.2692857142857143,-0.0009765625,2.4828360080718994,1.3622640371322632,24.60919952392578,-0.009319814046223958,0.09607450697157117
5694,0.05914380327148447,0.219140682220459,83.28652954101562,84.75950622558594,5.296604156494141,82.38638305664062,0.0020233578152126738,-0.0006666666666666666,0.2642857142857143,0.0014342414008246527,3.5045340061187744,0.9667680263519287,24.60919952392578,-0.016366407606336807,0.08789134555392795
5695,0.05133130327148447,0.219140682220459,83.28652954101562,91.94026947021484,12.12957763671875,72.42333984375,-0.00775099860297309,-0.002,0.25892857142857145,0.0028685675726996527,1.2743760347366333,-0.6152159147949234,24.60919952392578,-0.09615266587999131,0.2745137532552083
5696,0.03570630327148447,0.239062557220459,83.28652954101562,95.74545288085938,11.80224609375,74.69417572021484,-0.0250266604953342,0.0003333333333333333,0.25107142857142856,0.0021361456976996527,1.021697998046875,-0.2966219359130875,24.60919952392578,-0.13843248155381943,0.24564522637261285
5697,0.01617505327148447,0.29882820129394533,83.28652954101562,95.09080505371094,10.554309844970703,74.40776062011719,-0.006841744316948784,0.0,0.24464285714285713,-0.0,0.9338099956512451,-0.9777552061767594,24.60919952392578,-0.1311586168077257,0.23496165805392796
