,WD,WS,AIL_1,AIL_2,ELEV_1,ELEV_2,RUDD,ALT,GS,TH,PTCH,ROLL,PLA_1,AIL,ELEV
3242,0.3380994730902778,0.39843757629394533,83.63432312011719,83.0001220703125,-0.6566734313964844,86.0074462890625,-0.01070603264702691,0.47333333333333333,0.40214285714285714,0.0469651116265191,1.2963480949401855,-0.5602861815185562,53.43711853027344,0.007046678331163195,-0.01849021911621094
3243,0.3185682230902778,0.3785157012939453,83.63432312011719,82.34546661376953,-0.8817138671875,86.13019561767578,0.002705298529730903,0.47333333333333333,0.40285714285714286,0.04424913194444444,1.2084600925445557,-0.4723993712158219,52.8218879699707,0.014320627848307291,-0.022354549831814237
3244,0.3068494730902778,0.39843757629394533,83.53202819824219,83.5934066772461,-0.8817138671875,86.08927917480469,-0.01661614312065972,0.473,0.4035714285714286,0.04421861436631944,0.9447960257530212,0.19774800539016724,52.64611053466797,-0.0006819831000434028,-0.021899922688802084
3245,0.2990369730902778,0.39843757629394533,83.63432312011719,81.60897827148438,0.059356689453125,86.53935241699219,0.0002048916286892361,0.4736666666666667,0.4039285714285714,0.04299791124131944,0.790992021560669,0.6591600179672241,51.855098724365234,0.022503831651475695,-0.01644439697265625
3246,0.3068494730902778,0.39843757629394533,83.65477752685547,83.49111938476562,-0.3498039245605469,86.45751953125,-0.006159803602430555,0.47333333333333333,0.4035714285714286,0.04440171983506944,0.790992021560669,1.6039559841156006,50.53675079345703,0.0018184238009982638,-0.020081371731228297
3247,0.3224744730902778,0.41835948944091794,83.65477752685547,83.16378784179688,-0.9021682739257812,86.27340698242188,-0.015024948120117187,0.47433333333333333,0.4025,0.0477585686577691,0.6042300462722778,2.0983259677886963,49.5699577331543,0.005455440945095486,-0.024173058403862847
3248,0.3185682230902778,0.41835948944091794,83.65477752685547,83.98210144042969,-1.1681251525878906,86.25294494628906,-0.015706888834635415,0.47433333333333333,0.4017857142857143,0.04971160888671875,0.6152160167694092,2.04339599609375,49.48207092285156,-0.003636932373046875,-0.02690077887641059
3249,0.3146619730902778,0.41835948944091794,83.65477752685547,84.39126586914062,-1.3727035522460938,86.33477783203125,-0.009796820746527778,0.474,0.4014285714285714,0.04980316162109375,0.6701459884643555,1.812690019607544,49.39418029785156,-0.008183203803168403,-0.030083126491970487
3250,0.3420057230902778,0.39843757629394533,83.65477752685547,84.53446960449219,-1.1885833740234375,86.23248291015625,-0.010478719075520834,0.47433333333333333,0.4007142857142857,0.051573096381293405,0.6701459884643555,2.120298147201538,49.39418029785156,-0.009774356418185763,-0.026900736490885417
3251,0.3302869730902778,0.41835948944091794,83.65477752685547,84.5140151977539,-1.1272087097167969,85.94607543945312,-0.01752539740668403,0.4736666666666667,0.40035714285714286,0.053495703803168405,0.6042300462722778,1.768746018409729,49.39418029785156,-0.009547085232204862,-0.023036490546332465
3252,0.3420057230902778,0.39843757629394533,83.67523193359375,84.06393432617188,-0.6362152099609375,86.04837036132812,-0.0050232781304253475,0.47333333333333333,0.4007142857142857,0.053556738959418405,0.9118380546569824,1.450152039527893,50.712528228759766,-0.0043189154730902775,-0.01871761745876736
3253,0.3380994730902778,0.41835948944091794,83.67523193359375,83.96165466308594,1.286834716796875,86.13019561767578,-0.01547957526312934,0.4726666666666667,0.4007142857142857,0.05572340223524305,0.8239500522613525,1.1205720901489258,50.888309478759766,-0.0031824747721354166,0.0017404344346788195
3254,0.3380994730902778,0.41835948944091794,83.67523193359375,83.83889770507812,5.030651092529297,86.35523986816406,-0.006387117173936632,0.4723333333333333,0.4010714285714286,0.05633375379774305,1.0436700582504272,0.9667680263519287,51.4156494140625,-0.001818508572048611,0.04083790249294705
3255,0.3498182230902778,0.3785157012939453,83.69569396972656,82.63188171386719,7.076450347900391,85.88470458984375,0.006796900431315104,0.472,0.4014285714285714,0.05480787489149305,0.9557820558547974,1.0107120275497437,51.6793212890625,0.011820136176215277,0.06879717508951823
3256,0.3185682230902778,0.39843757629394533,83.67523193359375,82.18180847167969,-2.0069007873535156,86.1097412109375,-0.014343007405598959,0.472,0.4017857142857143,0.05435011121961805,0.9118380546569824,-0.06591667468261875,51.6793212890625,0.016593594021267363,-0.03462935553656684
3257,0.3185682230902778,0.41835948944091794,83.67523193359375,83.36836242675781,-2.0069007873535156,85.94607543945312,-0.009796820746527778,0.471,0.4017857142857143,0.05517408582899305,0.7690200209617615,0.23070600628852844,46.66958999633789,0.003409661187065972,-0.03281084696451823
3258,0.3068494730902778,0.41835948944091794,83.67523193359375,83.20470428466797,-1.9250717163085938,86.08927917480469,-0.007069057888454861,0.471,0.4,0.05492994520399305,0.8898659944534302,0.36253800988197327,39.814170837402344,0.005228084988064236,-0.033492787679036455
3259,0.3068494730902778,0.39843757629394533,83.67523193359375,82.65233612060547,-1.8023223876953125,85.78240966796875,-0.002750142415364583,0.4706666666666667,0.3967857142857143,0.053434668646918405,0.7800060510635376,0.38451001048088074,33.837650299072266,0.011365509033203125,-0.028719245062934027
3260,0.3146619730902778,0.39843757629394533,83.69569396972656,83.16378784179688,-1.6591148376464844,85.41416931152344,-0.01729808383517795,0.4703333333333333,0.3914285714285714,0.05398390028211805,0.6042300462722778,0.38451001048088074,29.53104019165039,0.0059100680881076385,-0.023036490546332465
3261,0.3302869730902778,0.3785157012939453,83.67523193359375,84.02302551269531,-1.720489501953125,85.74149322509766,-0.012751854790581597,0.4706666666666667,0.3875,0.05492994520399305,0.7690200209617615,0.45042601227760315,27.68535041809082,-0.0038643731011284723,-0.02735536363389757
3262,0.3185682230902778,0.39843757629394533,83.69569396972656,83.69569396972656,-1.7409477233886719,85.80287170410156,-0.009796820746527778,0.4703333333333333,0.3796428571428571,0.05535719129774305,0.38451001048088074,0.5712720155715942,27.68535041809082,0.0,-0.02826466030544705
3263,0.3146619730902778,0.41835948944091794,83.71615600585938,83.57295227050781,-2.3956031799316406,86.27340698242188,-0.01320648193359375,0.471,0.3742857142857143,0.05590650770399305,0.08788800239562988,0.4394400119781494,27.68535041809082,0.001591152615017361,-0.04076677958170573
3264,0.3185682230902778,0.41835948944091794,83.69569396972656,83.94119262695312,-1.9046134948730469,86.23248291015625,-0.01661614312065972,0.4716666666666667,0.36607142857142855,0.057066090901692706,-0.4394403868408219,0.3185940086841583,27.50956916809082,-0.002727762858072917,-0.034856626722547746
3265,0.3146619730902778,0.41835948944091794,83.69569396972656,83.42974090576172,-1.8841552734375,86.45751953125,-0.0066144307454427086,0.4723333333333333,0.36,0.05657789442274305,-1.120571749755861,0.12084600329399109,27.50956916809082,0.0029550340440538192,-0.037129720052083336
3266,0.3146619730902778,0.39843757629394533,83.69569396972656,83.47065734863281,-1.7409477233886719,86.15065002441406,-0.0050232781304253475,0.474,0.3514285714285714,0.05584547254774305,-1.516068118164064,0.06591600179672241,27.50956916809082,0.0025004069010416668,-0.032128863864474826
3267,0.3146619730902778,0.41835948944091794,83.69569396972656,83.65477752685547,-1.6591148376464844,85.72103881835938,-0.006387117173936632,0.474,0.3467857142857143,0.05596754286024305,-1.4611383848876969,0.032958000898361206,31.200950622558594,0.0004546271430121528,-0.026446151733398437
3268,0.3146619730902778,0.41835948944091794,83.71615600585938,83.16378784179688,-1.4340782165527344,85.49600219726562,-0.008205625745985243,0.47433333333333333,0.3407142857142857,0.05673048231336805,-1.1974741392822281,0.1538040041923523,33.749759674072266,0.006137424045138889,-0.021445337931315103
3269,0.3029432230902778,0.438281364440918,83.71615600585938,83.77752685546875,-0.7794227600097656,84.69813537597656,-0.0059324900309244795,0.47333333333333333,0.3375,0.056974538167317706,-1.0876146727294937,0.07690200209617615,36.0349006652832,-0.0006818983289930556,-0.005306201510959201
3270,0.3341932230902778,0.41835948944091794,83.71615600585938,83.53202819824219,-0.3088874816894531,84.77996826171875,-0.01957117716471354,0.474,0.33321428571428574,0.058744557698567706,-0.9338098936767594,0.032958000898361206,37.17747116088867,0.002045864529079861,-0.0009872860378689237
3271,0.3341932230902778,0.438281364440918,83.71615600585938,84.75950622558594,0.2025604248046875,84.30943298339844,-0.014343007405598959,0.47433333333333333,0.33107142857142857,0.06014828152126736,-0.5932451658935562,-0.06591667468261875,39.11104965209961,-0.011592780219184027,0.009923638237847223
3272,0.3380994730902778,0.438281364440918,83.71615600585938,83.49111938476562,0.18210220336914062,84.1048583984375,-0.009569507175021702,0.4723333333333333,0.32785714285714285,0.059629567464192706,-0.16478981311035312,-0.4174677305908219,41.48408126831055,0.0025004069010416668,0.011969375610351562
3273,0.3537244730902778,0.41835948944091794,83.71615600585938,82.550048828125,0.16164779663085938,84.12531280517578,-0.013433795505099827,0.472,0.3267857142857143,0.05996517605251736,0.2526780068874359,-0.7360617094726578,42.71453857421875,0.012956746419270833,0.011514833238389756
3274,0.3380994730902778,0.438281364440918,83.71615600585938,83.06149291992188,0.44805908203125,83.57295227050781,-0.00775099860297309,0.4703333333333333,0.32535714285714284,0.059293874104817706,0.6152160167694092,-1.0107122832031266,44.29655838012695,0.007274034288194444,0.020834520128038193
3275,0.3459119730902778,0.41835948944091794,83.71615600585938,84.71859741210938,0.5298881530761719,83.69569396972656,0.0017960866292317708,0.4693333333333333,0.3242857142857143,0.057310231526692706,1.0546560287475586,-0.13183273608398594,45.43912887573242,-0.011138237847222222,0.020379935370551217
3276,0.3185682230902778,0.438281364440918,83.71615600585938,84.08439636230469,0.6117210388183594,83.32745361328125,-0.005705218844943577,0.468,0.32357142857142857,0.05544874403211805,1.1425440311431885,0.1538040041923523,46.58169937133789,-0.004091559516059028,0.02538074917263455
3277,0.3185682230902778,0.41835948944091794,83.73661041259766,85.06637573242188,0.3662261962890625,84.0434799194336,-0.006841744316948784,0.4666666666666667,0.32285714285714284,0.05450269911024305,1.5160679817199707,0.7031040191650391,47.109039306640625,-0.014775170220269097,0.014697180853949653
3278,0.3146619730902778,0.41835948944091794,83.73661041259766,83.18424987792969,0.4276008605957031,84.08439636230469,-0.00843293931749132,0.4663333333333333,0.32107142857142856,0.053709326850043405,1.5050820112228394,0.3405660092830658,47.109039306640625,0.006137339274088541,0.01492449442545573
3279,0.3263807230902778,0.41835948944091794,83.73661041259766,85.41416931152344,0.4685173034667969,83.79798889160156,-0.01547957526312934,0.4653333333333333,0.32035714285714284,0.05593702528211805,1.1535300016403198,0.9777539968490601,46.142250061035156,-0.01863954332139757,0.018561426798502603
3280,0.3302869730902778,0.41835948944091794,83.69569396972656,84.5140151977539,0.4685173034667969,83.57295227050781,-0.009114880032009548,0.465,0.3196428571428571,0.056974538167317706,1.06564199924469,1.3732500076293945,46.142250061035156,-0.009092458089192708,0.021061833699544272
3281,0.3302869730902778,0.41835948944091794,83.73661041259766,84.5958480834961,0.3457679748535156,83.96165466308594,-0.009342193603515625,0.46366666666666667,0.3192857142857143,0.057127126057942706,1.1425440311431885,0.9338099956512451,48.251609802246094,-0.009547085232204862,0.015379036797417535
3282,0.3341932230902778,0.41835948944091794,83.75706481933594,83.61386108398438,0.3866844177246094,84.08439636230469,-0.015024948120117187,0.4623333333333333,0.31892857142857145,0.058256276448567706,0.9777539968490601,0.2197200059890747,48.427391052246094,0.001591152615017361,0.014469867282443576
3283,0.3302869730902778,0.438281364440918,83.73661041259766,84.43218231201172,0.3048515319824219,84.20714569091797,-0.01979849073621962,0.461,0.31892857142857145,0.06014828152126736,0.6481740474700928,-0.03295769030761875,48.95473098754883,-0.00772857666015625,0.012196731567382813
3284,0.3380994730902778,0.41835948944091794,83.75706481933594,84.94363403320312,-0.2475128173828125,84.86180114746094,-0.010251405504014757,0.45966666666666667,0.3196428571428571,0.059354909261067706,0.4943700134754181,0.05493000149726868,49.21839904785156,-0.013184102376302083,-0.001214599609375
3285,0.3185682230902778,0.39843757629394533,83.75706481933594,83.94119262695312,0.01844024658203125,84.53446960449219,0.00225067138671875,0.457,0.3192857142857143,0.05569288465711805,-0.2636648588867203,0.17577600479125977,49.39418029785156,-0.002045864529079861,0.005377451578776042
3286,0.2990369730902778,0.39843757629394533,83.75706481933594,81.4453125,0.059356689453125,84.63676452636719,-0.00047704908582899306,0.4543333333333333,0.3196428571428571,0.053251563178168405,-0.9777552061767594,-0.5273291044921891,47.109039306640625,0.025686136881510415,0.004695468478732639
3287,0.3146619730902778,0.39843757629394533,83.75706481933594,82.44775390625,-0.22705459594726562,84.96409606933594,-0.018661922878689237,0.45166666666666666,0.32035714285714284,0.05499098036024305,-1.4831110411376969,-0.5163427763671891,45.26335144042969,0.014547899034288195,-0.002123896280924479
3288,0.3224744730902778,0.41835948944091794,83.73661041259766,83.87982177734375,0.2639350891113281,84.61630249023438,-0.014570320977105035,0.44766666666666666,0.32035714285714284,0.05651685926649305,-1.8676210814209,-0.05493034655761875,43.505550384521484,-0.0015912373860677083,0.007195917765299479
3289,0.3224744730902778,0.39843757629394533,83.75706481933594,83.94119262695312,0.3457679748535156,84.16622924804688,-0.008660252888997395,0.44333333333333336,0.3196428571428571,0.05541822645399305,-2.3400179320068375,0.3185940086841583,42.01142120361328,-0.002045864529079861,0.013105985853407118
3290,0.3107557230902778,0.39843757629394533,83.75706481933594,84.12531280517578,0.24347686767578125,84.06393432617188,-0.0034320831298828127,0.439,0.3196428571428571,0.05416700575086805,-2.504809039184572,0.6371880173683167,40.60517883300781,-0.004091644287109375,0.013106028238932291
3291,0.3068494730902778,0.39843757629394533,83.75706481933594,83.38882446289062,0.3662261962890625,83.79798889160156,-0.015024948120117187,0.43466666666666665,0.3196428571428571,0.05465528700086805,-2.7025572233886734,0.4614120125770569,38.320037841796875,0.004091559516059028,0.01742485894097222
3292,0.3068494730902778,0.41835948944091794,83.77752685546875,83.85935974121094,0.5503463745117188,83.75706481933594,-0.01252454121907552,0.42866666666666664,0.31857142857142856,0.05541822645399305,-2.867346423217775,0.48338401317596436,37.17747116088867,-0.0009092542860243056,0.019925350613064236
3293,0.3029432230902778,0.41835948944091794,83.75706481933594,82.67279052734375,1.0413398742675781,83.65477752685547,-0.008887566460503472,0.42333333333333334,0.31785714285714284,0.05520460340711805,-2.944248812744142,0.14281800389289856,35.6833381652832,0.012047492133246528,0.026517359415690105
3294,0.3185682230902778,0.39843757629394533,83.77752685546875,83.67523193359375,1.1436309814453125,83.5115737915039,-0.018661922878689237,0.4186666666666667,0.3167857142857143,0.05624220106336805,-2.911289828369142,0.12084600329399109,34.892330169677734,0.0011366102430555556,0.029245079888237848
3295,0.3107557230902778,0.41835948944091794,83.77752685546875,83.96165466308594,1.1436309814453125,83.42974090576172,-0.01320648193359375,0.41333333333333333,0.3157142857142857,0.05642530653211805,-2.7355143004150406,0.29662200808525085,34.540771484375,-0.002045864529079861,0.03015433417426215
3296,0.3185682230902778,0.39843757629394533,83.77752685546875,82.79554748535156,1.45050048828125,83.26608276367188,-0.009342193603515625,0.408,0.31464285714285717,0.05612013075086805,-2.6036821776123062,0.08788800239562988,34.364990234375,0.010910881890190972,0.03538241916232639
3297,0.3146619730902778,0.41835948944091794,83.77752685546875,84.18669128417969,1.8801193237304688,82.93875122070312,-0.01547957526312934,0.40166666666666667,0.3142857142857143,0.05621168348524305,-2.482836382934572,0.29662200808525085,34.364990234375,-0.004546271430121528,0.043792978922526045
3298,0.2873182230902778,0.41835948944091794,83.77752685546875,83.83889770507812,2.1256141662597656,82.57050323486328,0.005205747816297743,0.396,0.31285714285714283,0.05407545301649305,-2.3619905882568375,0.6811320185661316,34.364990234375,-0.0006818983289930556,0.05061234368218316
3299,0.2716932230902778,0.41835948944091794,83.77752685546875,83.22515869140625,1.839202880859375,83.5934066772461,-0.011387973361545138,0.39066666666666666,0.31214285714285717,0.052275000678168405,-1.8786074095459,0.35155200958251953,35.6833381652832,0.006137424045138889,0.036064402262369795
3300,0.2560682230902778,0.39843757629394533,83.79798889160156,83.30699157714844,2.7188949584960938,83.34790802001953,-0.005250591701931423,0.38466666666666666,0.31107142857142855,0.04986419677734375,-2.186215060302736,0.48338401317596436,35.7712287902832,0.005455525716145834,0.04856652153862847
3301,0.2638807230902778,0.39843757629394533,83.77752685546875,84.0434799194336,3.3121795654296875,83.38882446289062,-0.02093505859375,0.37933333333333336,0.30964285714285716,0.05084075927734375,-2.4608656340332047,0.9667680263519287,35.8591194152832,-0.0029550340440538192,0.05470394558376736
3302,0.2638807230902778,0.39843757629394533,83.79798889160156,84.14576721191406,4.110038757324219,83.08195495605469,-0.007978312174479167,0.37433333333333335,0.30892857142857144,0.051451026068793405,-2.548752444335939,1.6369140148162842,35.8591194152832,-0.0038642035590277777,0.06697870890299479
3303,0.2677869730902778,0.39843757629394533,83.79798889160156,85.18913269042969,5.0920257568359375,83.26608276367188,-0.01797998216417101,0.36866666666666664,0.30857142857142855,0.052793799506293405,-2.4388929777832047,1.7467740774154663,36.56224060058594,-0.0154571533203125,0.07584381103515625
3304,0.24825572309027785,0.39843757629394533,83.79798889160156,83.73661041259766,2.841644287109375,83.0001220703125,-0.009796820746527778,0.3636666666666667,0.3078571428571429,0.053098975287543405,-2.4498793059082047,1.5160679817199707,36.65013122558594,0.0006819831000434028,0.05379469129774306
3305,0.24825572309027785,0.39843757629394533,83.79798889160156,84.53446960449219,3.7417945861816406,83.24562072753906,-0.009569507175021702,0.3576666666666667,0.30714285714285716,0.05416700575086805,-2.4498793059082047,1.5600121021270752,35.41967010498047,-0.008183119032118056,0.06106859842936198
3306,0.24825572309027785,0.39843757629394533,83.83889770507812,84.06393432617188,3.475841522216797,83.18424987792969,-0.013433795505099827,0.35233333333333333,0.30607142857142855,0.05505201551649305,-2.515795367309572,1.3293060064315796,35.24388885498047,-0.0025004069010416668,0.058795462714301215
3307,0.2521619730902778,0.3785157012939453,83.83889770507812,84.86180114746094,3.639507293701172,82.93875122070312,-0.010933346218532987,0.3466666666666667,0.3057142857142857,0.05459425184461805,-2.7025572233886734,1.5050820112228394,35.24388885498047,-0.011365593804253473,0.06334173414442275
3308,0.24044322309027785,0.39843757629394533,83.85935974121094,83.94119262695312,3.7213363647460938,82.63188171386719,-0.008660252888997395,0.3406666666666667,0.305,0.05505201551649305,-2.581711428710939,1.3842360973358154,34.980220794677734,-0.0009092542860243056,0.06766060723198784
3309,0.24825572309027785,0.39843757629394533,83.83889770507812,85.557373046875,3.6804237365722656,82.93875122070312,-0.027981694539388022,0.336,0.30428571428571427,0.057798512776692706,-2.208185809204103,1.1205720901489258,35.7712287902832,-0.019094170464409723,0.06379636128743489
3310,0.24825572309027785,0.3785157012939453,83.85935974121094,84.24806213378906,4.130496978759766,82.67279052734375,-0.008887566460503472,0.3293333333333333,0.3032142857142857,0.057584889729817706,-2.1202989989013687,0.5602860450744629,36.1227912902832,-0.0043189154730902775,0.0717522939046224
3311,0.22872447309027785,0.438281364440918,83.85935974121094,85.86424255371094,3.619049072265625,82.59095764160156,-0.01957117716471354,0.32366666666666666,0.3028571428571429,0.057981618245442706,-2.197201388427736,-0.4174677305908219,36.0349006652832,-0.022276475694444443,0.06697879367404513
3312,0.2638807230902778,0.39843757629394533,83.85935974121094,85.94607543945312,3.250804901123047,83.08195495605469,-0.027981694539388022,0.31766666666666665,0.30214285714285716,0.058836110432942706,-2.0983263426513687,-1.1864878111572281,35.50756072998047,-0.02318572998046875,0.057431666056315105
3313,0.22481822309027785,0.438281364440918,83.87982177734375,82.91828918457031,3.2303466796875,82.550048828125,-0.0066144307454427086,0.31233333333333335,0.30214285714285716,0.05529615614149305,-2.252131121704103,-2.4279066496582047,35.50756072998047,0.010683695475260416,0.06311442057291666
3314,0.24825572309027785,0.3785157012939453,83.85935974121094,83.0001220703125,3.209888458251953,82.67279052734375,-0.012297227647569445,0.30733333333333335,0.30178571428571427,0.053312598334418405,-2.197201388427736,-2.9881922178955094,37.441139221191406,0.009547085232204862,0.06152331034342448
3315,0.24825572309027785,0.39843757629394533,83.85935974121094,84.41172790527344,3.0257644653320312,82.67279052734375,-0.008660252888997395,0.302,0.30178571428571427,0.051328955756293405,-2.0873400145263687,-2.4059339934082047,37.441139221191406,-0.006137424045138889,0.05947748819986979
3316,0.22091197309027785,0.41835948944091794,83.85935974121094,82.65233612060547,3.209888458251953,82.81600189208984,0.002705298529730903,0.296,0.30178571428571427,0.0476059807671441,-2.208185809204103,-2.0873400145263687,37.00168991088867,0.013411373562282987,0.05993207295735677
3317,0.2521619730902778,0.39843757629394533,83.87982177734375,84.30943298339844,3.8031692504882812,83.02058410644531,-0.01843460930718316,0.291,0.30178571428571427,0.0477280510796441,-2.2741018706054703,-1.7577597075195328,36.82590866088867,-0.004773457845052083,0.06425094604492188
3318,0.24825572309027785,0.41835948944091794,83.85935974121094,86.1097412109375,5.051109313964844,82.5091323852539,-0.018661922878689237,0.2843333333333333,0.30178571428571427,0.0480637444390191,-2.4388929777832047,-1.516068118164064,36.65013122558594,-0.02500423855251736,0.08379974365234374
3319,0.24825572309027785,0.39843757629394533,83.87982177734375,85.5982894897461,4.355537414550781,82.57050323486328,-0.009342193603515625,0.2783333333333333,0.30178571428571427,0.0455002678765191,-2.3400179320068375,-1.6479002409667984,36.82590866088867,-0.019094085693359374,0.07538926866319444
3320,0.24044322309027785,0.3785157012939453,83.87982177734375,83.02058410644531,4.9283599853515625,82.73416900634766,-0.006159803602430555,0.2743333333333333,0.30214285714285716,0.04061762491861979,-2.164242404052736,-2.6695982390136734,37.441139221191406,0.009547085232204862,0.07993545532226562
3321,0.24044322309027785,0.3585938262939453,83.87982177734375,82.44775390625,1.6141624450683594,82.550048828125,-0.01616151597764757,0.268,0.3025,0.03762698703342014,-2.0873400145263687,-3.3397451811523453,37.441139221191406,0.015911865234375,0.04515681796603733
3322,0.22872447309027785,0.3585938262939453,83.85935974121094,82.81600189208984,1.7573699951171875,82.12042999267578,0.006114959716796875,0.26266666666666666,0.3028571428571429,0.032835896809895834,-2.1312853270263687,-2.856360095092775,37.441139221191406,0.011592864990234375,0.051521555582682295
3323,0.21309947309027785,0.3785157012939453,83.87982177734375,82.0999755859375,1.3891258239746094,82.44775390625,-0.0043413374159071184,0.25733333333333336,0.30357142857142855,0.03018095228407118,-1.9005781584472672,-2.3619905882568375,37.529029846191406,0.01977606879340278,0.04379302130805122
3324,0.21700572309027785,0.39843757629394533,83.87982177734375,82.73416900634766,1.5527915954589844,82.9592056274414,-0.01843460930718316,0.251,0.30392857142857144,0.02984525892469618,-1.9225508146972672,-1.8786074095459,38.407928466796875,0.012729475233289931,0.03992873297797309
3325,0.22872447309027785,0.3785157012939453,83.90027618408203,83.94119262695312,1.286834716796875,83.0001220703125,-0.01957117716471354,0.246,0.30428571428571427,0.027648078070746526,-2.219172137329103,-1.5709978514404312,38.407928466796875,-0.0004546271430121528,0.036519029405381945
3326,0.16622447309027785,0.438281364440918,83.90027618408203,80.44287109375,1.3686676025390625,83.18424987792969,-0.00047704908582899306,0.24,0.30464285714285716,0.02163628472222222,-2.3949495726318375,-2.3619905882568375,38.407928466796875,0.038415612114800345,0.03538241916232639
3327,0.16622447309027785,0.41835948944091794,83.90027618408203,81.26119232177734,0.1411895751953125,84.0025634765625,-0.006387117173936632,0.235,0.30464285714285716,0.01876771714952257,-2.3290335112304703,-2.4498793059082047,39.19894027709961,0.029323154025607638,0.01265140109592014
3328,0.20528697309027785,0.3585938262939453,83.87982177734375,84.69813537597656,1.9824066162109375,83.30699157714844,-0.023435465494791665,0.229,0.30392857142857144,0.01791322496202257,-2.4279066496582047,-1.6698728972167984,36.91379928588867,-0.00909237331814236,0.04083794487847222
3329,0.21700572309027785,0.25898443222045897,83.90027618408203,82.79554748535156,2.8825607299804688,81.0361557006836,0.008615409003363715,0.22533333333333333,0.30357142857142855,0.01101650661892361,-2.3180471831054703,-0.17577614123535312,36.1227912902832,0.01227476331922743,0.0760711669921875
3330,0.16231822309027785,0.19921878814697266,83.87982177734375,80.81111145019531,4.355537414550781,80.29966735839844,0.01316163804796007,0.22033333333333333,0.3053571428571429,0.0026854621039496527,-1.2743765288085953,0.5273280143737793,38.14426040649414,0.034096781412760416,0.10062077840169271
3331,0.11544325086805556,0.219140682220459,83.90027618408203,80.79066467285156,3.6804237365722656,80.42241668701172,-0.003659396701388889,0.21633333333333332,0.30642857142857144,-0.0,-0.02197326953125156,0.8129640221595764,62.66556930541992,0.034551239013671874,0.09175563388400608
3332,0.11544325086805556,0.29882820129394533,83.90027618408203,82.81600189208984,2.3915672302246094,81.73172760009766,-0.02093505859375,0.211,0.3092857142857143,0.004363844129774305,1.263390064239502,1.8456480503082275,63.368690490722656,0.012047492133246528,0.06288710700141059
3333,0.15841197309027785,0.29882820129394533,83.92073059082031,85.1072998046875,0.5503463745117188,83.32745361328125,-0.02684512668185764,0.20833333333333334,0.31357142857142856,0.01046719021267361,1.9774800539016724,2.603682041168213,63.368690490722656,-0.013184102376302083,0.02469880845811632
3334,0.17794322309027785,0.3187500762939453,83.90027618408203,85.02546691894531,1.2050056457519531,83.69569396972656,-0.02434471978081597,0.20433333333333334,0.31785714285714284,0.015380350748697917,1.7138160467147827,2.4059340953826904,62.92924118041992,-0.01250211927625868,0.02788124084472656
3335,0.17013072309027785,0.3187500762939453,83.90027618408203,85.90515899658203,0.8572196960449219,83.5934066772461,-0.011387973361545138,0.20166666666666666,0.32,0.016906229654947917,1.1645159721374512,2.2411441802978516,57.39216995239258,-0.022276475694444443,0.025153477986653645
3336,0.18184947309027785,0.3187500762939453,83.90027618408203,83.92073059082031,0.6526374816894531,84.24806213378906,-0.015252261691623263,0.201,0.3217857142857143,0.01919496324327257,1.0876140594482422,1.1974740028381348,52.29454803466797,-0.00022727118598090277,0.015606392754448785
3337,0.20919322309027785,0.29882820129394533,83.92073059082031,84.08439636230469,1.3686676025390625,83.53202819824219,-0.030027474297417533,0.2,0.32107142857142856,0.02209404839409722,0.7250760197639465,0.5493000149726868,49.13050842285156,-0.001818508572048611,0.03151821560329861
3338,0.16622447309027785,0.3187500762939453,83.92073059082031,80.44287109375,1.7573699951171875,82.63188171386719,0.01247969733344184,0.19766666666666666,0.3192857142857143,0.01861512925889757,0.7031040191650391,-0.834936755249025,48.69105911254883,0.03864288330078125,0.04583875868055556
3339,0.21700572309027785,0.33867195129394534,83.90027618408203,83.14332580566406,1.3482093811035156,85.33233642578125,-0.03661952548556858,0.19966666666666666,0.3175,0.022948455810546876,1.6149420738220215,-1.7577597075195328,50.0094108581543,0.008410559760199653,0.011287477281358507
3340,0.22481822309027785,0.3585938262939453,83.92073059082031,86.559814453125,1.675537109375,83.06149291992188,-0.024799346923828125,0.19733333333333333,0.31607142857142856,0.024657440185546876,1.3842360973358154,-0.7031046324462906,50.976200103759766,-0.029323154025607638,0.040156046549479164
3341,0.22091197309027785,0.29882820129394533,83.92073059082031,85.57783508300781,1.5937042236328125,83.75706481933594,0.006796900431315104,0.19833333333333333,0.315,0.01980531480577257,2.032410144805908,-0.05493034655761875,49.8336296081543,-0.018412272135416668,0.03151821560329861
3342,0.18966197309027785,0.25898443222045897,83.92073059082031,82.83645629882812,2.1460723876953125,82.59095764160156,0.011797756618923612,0.19766666666666666,0.31464285714285717,0.014129214816623263,1.8017040491104126,0.06591600179672241,49.5699577331543,0.012047492133246528,0.050612386067708334
3343,0.20919322309027785,0.239062557220459,83.92073059082031,80.77020263671875,2.657520294189453,81.71127319335938,-0.006841744316948784,0.196,0.31535714285714284,0.013915591769748263,1.8895920515060425,-0.5053564482421891,53.96445846557617,0.03500586615668403,0.06606941223144532
3344,0.21700572309027785,0.3187500762939453,83.92073059082031,84.82088470458984,1.061798095703125,83.67523193359375,-0.03161866929796007,0.197,0.3157142857142857,0.02050713433159722,2.8014299869537354,-0.05493034655761875,55.458587646484375,-0.010001712375217013,0.026517401801215278
3345,0.2560682230902778,0.33867195129394534,83.94119262695312,87.68500518798828,1.5732498168945312,83.42974090576172,-0.02389009263780382,0.197,0.3167857142857143,0.025511932373046876,2.7025561332702637,1.1205720901489258,56.07381820678711,-0.04159791734483507,0.03492787679036458
3346,0.22481822309027785,0.33867195129394534,83.92073059082031,83.0410385131836,1.6550788879394531,83.57295227050781,0.005205747816297743,0.19566666666666666,0.3167857142857143,0.023192596435546876,1.966494083404541,0.14281800389289856,56.33749008178711,0.009774356418185763,0.03424585130479601
3347,0.21309947309027785,0.3187500762939453,83.92073059082031,84.84133911132812,1.6959953308105469,84.45263671875,-0.008205625745985243,0.19533333333333333,0.31785714285714284,0.02087334526909722,1.7467740774154663,0.8019779920578003,57.12849807739258,-0.010228983561197917,0.024926206800672743
3348,0.19356822309027785,0.25898443222045897,83.94119262695312,82.42729949951172,1.2459182739257812,84.61630249023438,0.01316163804796007,0.19533333333333333,0.31892857142857145,0.015563456217447917,1.8346620798110962,0.6591600179672241,57.12849807739258,0.01682103474934896,0.018106842041015626
3349,0.17403697309027785,0.29882820129394533,83.94119262695312,85.49600219726562,1.6141624450683594,84.5140151977539,-0.014343007405598959,0.19466666666666665,0.32,0.016997782389322917,1.5600121021270752,1.06564199924469,57.12849807739258,-0.01727566189236111,0.023334969414605035
3350,0.18966197309027785,0.29882820129394533,83.94119262695312,83.5115737915039,1.8596611022949219,83.67523193359375,-0.011160659790039062,0.195,0.32071428571428573,0.01892030504014757,1.3512780666351318,1.7577600479125977,57.12849807739258,0.004773542616102431,0.03538254631890191
3351,0.15841197309027785,0.33867195129394534,83.96165466308594,84.82088470458984,1.4914169311523438,84.39126586914062,-0.014797634548611112,0.194,0.32142857142857145,0.01925599839952257,1.6259280443191528,2.4608640670776367,57.12849807739258,-0.009547000461154514,0.023335011800130208
3352,0.16231822309027785,0.29882820129394533,83.94119262695312,85.27096557617188,1.0004234313964844,83.85935974121094,-0.006841744316948784,0.19333333333333333,0.32142857142857145,0.02023247612847222,1.7138160467147827,1.8456480503082275,57.12849807739258,-0.014775254991319445,0.023789596557617188
3353,0.23653697309027785,0.29882820129394533,83.94119262695312,84.47309875488281,0.9799652099609375,84.47309875488281,-0.03661952548556858,0.194,0.3217857142857143,0.028411017523871526,1.9774800539016724,0.516342043876648,57.12849807739258,-0.0059100680881076385,0.016742960611979166
3354,0.2638807230902778,0.29882820129394533,83.94119262695312,85.80287170410156,0.89813232421875,84.43218231201172,-0.022980838351779515,0.19333333333333333,0.3225,0.03045561048719618,1.6149420738220215,-0.08788933093261875,55.546478271484375,-0.020685323079427085,0.016288333468967013
3355,0.21700572309027785,0.2789063262939453,83.92073059082031,83.38882446289062,1.5732498168945312,82.97966003417969,0.002932612101236979,0.19266666666666668,0.32321428571428573,0.025603400336371526,1.0986000299453735,-0.6701475554199234,55.458587646484375,0.0059100680881076385,0.039928775363498266
3356,0.17403697309027785,0.29882820129394533,83.96165466308594,80.29966735839844,1.3686676025390625,83.75706481933594,-0.003659396701388889,0.19233333333333333,0.3246428571428571,0.02111748589409722,1.0766279697418213,-1.4501520567626969,55.37070083618164,0.04068874782986111,0.029017808702256946
3357,0.16231822309027785,0.3187500762939453,83.96165466308594,82.91828918457031,0.89813232421875,84.94363403320312,-0.01979849073621962,0.19166666666666668,0.3246428571428571,0.02038506401909722,1.2414180040359497,-0.16478981311035312,55.37070083618164,0.011592949761284723,0.010605536566840278
3358,0.17013072309027785,0.29882820129394533,83.96165466308594,83.96165466308594,0.5503463745117188,84.77996826171875,-0.012069914076063368,0.192,0.3246428571428571,0.02041558159722222,1.2963480949401855,1.6808580160140991,55.37070083618164,0.0,0.008559756808810763
3359,0.16622447309027785,0.2789063262939453,83.98210144042969,81.56806182861328,0.6526374816894531,84.75950622558594,0.002705298529730903,0.192,0.3246428571428571,0.02035454644097222,1.0766279697418213,2.5707240104675293,55.37070083618164,0.026822662353515624,0.009923680623372396
3360,0.16622447309027785,0.3187500762939453,83.96165466308594,82.85691833496094,0.7140121459960938,84.53446960449219,-0.022526211208767362,0.19166666666666668,0.325,0.024382781982421876,0.8239500522613525,3.317772150039673,55.37070083618164,0.012274848090277778,0.013106028238932291
3361,0.19356822309027785,0.25898443222045897,83.96165466308594,85.455078125,0.5708045959472656,84.5140151977539,0.0020233578152126738,0.19133333333333333,0.32535714285714284,0.026793585883246526,0.8459219932556152,4.416372299194336,55.37070083618164,-0.016593594021267363,0.01174210442437066
3362,0.20919322309027785,0.2789063262939453,83.96165466308594,84.53446960449219,0.6321792602539062,84.6572265625,-0.024117406209309897,0.19166666666666668,0.32571428571428573,0.032500203450520834,0.7690200209617615,3.867072105407715,55.37070083618164,-0.006364610460069444,0.01083280775282118
3363,0.19747447309027785,0.29882820129394533,83.96165466308594,84.86180114746094,0.6321792602539062,84.5140151977539,-0.014570320977105035,0.19066666666666668,0.32607142857142857,0.03640636867947049,0.6701459884643555,3.7352399826049805,55.37070083618164,-0.010001627604166667,0.012424045138888888
3364,0.18575572309027785,0.29882820129394533,83.98210144042969,87.68500518798828,0.5708045959472656,84.37080383300781,-0.010251405504014757,0.191,0.3264285714285714,0.03768802218967014,1.2084600925445557,2.186213970184326,55.37070083618164,-0.041143374972873265,0.013333341810438368
3365,0.17013072309027785,0.29882820129394533,83.96165466308594,80.68836975097656,0.3662261962890625,84.18669128417969,-0.014797634548611112,0.19066666666666668,0.32607142857142857,0.03665050930447049,1.3842360973358154,-0.48338379199218906,55.37070083618164,0.03636983235677083,0.013105943467881945
3366,0.16622447309027785,0.3187500762939453,83.98210144042969,79.05172729492188,0.3048515319824219,85.53691101074219,-0.02093505859375,0.19066666666666668,0.32607142857142857,0.03628429836697049,1.5490260124206543,-2.0653692656250016,55.37070083618164,0.054781934950086805,-0.0025784386528862847
3367,0.18966197309027785,0.3187500762939453,83.98210144042969,83.36836242675781,0.24347686767578125,84.16622924804688,-0.014570320977105035,0.191,0.3264285714285714,0.03707767062717014,1.263390064239502,0.0,55.37070083618164,0.006819322374131944,0.011969417995876737
3368,0.17403697309027785,0.29882820129394533,83.98210144042969,85.65966796875,-0.4316368103027344,84.94363403320312,0.008842722574869791,0.19133333333333333,0.32607142857142857,0.03518566555447049,1.3842360973358154,1.6259280443191528,55.37070083618164,-0.018639628092447916,-0.0041696760389539934
3369,0.17013072309027785,0.29882820129394533,83.98210144042969,85.80287170410156,-0.18613815307617188,84.86180114746094,-0.01979849073621962,0.192,0.32535714285714284,0.03658947414822049,1.1645159721374512,0.8569080233573914,55.37070083618164,-0.020230780707465278,-0.0005326588948567708
3370,0.19356822309027785,0.2789063262939453,83.98210144042969,85.98699188232422,-0.3907203674316406,84.41172790527344,-0.015706888834635415,0.19233333333333333,0.32535714285714284,0.03838992648654514,1.0876140594482422,0.5932440161705017,55.37070083618164,-0.022276560465494793,0.0021950191921657988
3371,0.17794322309027785,0.3187500762939453,83.98210144042969,82.44775390625,-0.4316368103027344,85.49600219726562,-0.011615286933051215,0.19233333333333333,0.32535714285714284,0.03893924289279514,1.1425440311431885,-0.6701475554199234,55.37070083618164,0.017048305935329862,-0.010307100084092882
3372,0.19356822309027785,0.3187500762939453,83.98210144042969,84.67768096923828,-0.5748405456542969,84.96409606933594,-0.01979849073621962,0.19233333333333333,0.32535714285714284,0.03958011203342014,0.8019779920578003,-1.7797323637695328,55.37070083618164,-0.007728661431206597,-0.005988184611002604
3373,0.20919322309027785,0.33867195129394534,83.98210144042969,83.5934066772461,-0.7589645385742188,84.39126586914062,-0.01979849073621962,0.19266666666666668,0.32571428571428573,0.04015986124674479,0.7800060510635376,-2.6586119108886734,55.37070083618164,0.004318830702039931,-0.0016692267523871528
3374,0.22091197309027785,0.33867195129394534,83.98210144042969,88.97386169433594,-0.20659637451171875,85.20958709716797,-0.022298897637261283,0.19233333333333333,0.32607142857142857,0.03945804172092014,0.8788800239562988,-3.3727022581787125,55.37070083618164,-0.05546400282118055,-0.004624260796440972
3375,0.24434947309027785,0.2789063262939453,83.98210144042969,83.32745361328125,-0.2679710388183594,84.80043029785156,-0.017070770263671875,0.19166666666666668,0.3264285714285714,0.03494152492947049,0.8898659944534302,-4.954685824462892,55.37070083618164,0.00727386474609375,-0.0007600148518880208
3376,0.21700572309027785,0.2789063262939453,83.98210144042969,83.30699157714844,-0.329345703125,84.5958480834961,-0.0011589898003472221,0.191,0.3275,0.028319464789496526,0.9008520245552063,-4.954685824462892,55.37070083618164,0.007501220703125,0.0008311801486545139
3377,0.17794322309027785,0.2789063262939453,84.0025634765625,79.4813461303711,-0.329345703125,85.02546691894531,0.006342273288302952,0.191,0.32857142857142857,0.02004937065972222,0.5602860450744629,-4.811869280883791,55.37070083618164,0.050235748291015625,-0.003942362467447917
3378,0.15450572309027785,0.29882820129394533,84.0025634765625,82.69325256347656,-0.16568374633789062,84.18669128417969,-0.0075236850314670135,0.19066666666666668,0.3292857142857143,0.015716044108072917,0.20873400568962097,-3.3397451811523453,55.37070083618164,0.014547899034288195,0.007195832994249132
3379,0.14669322309027785,0.29882820129394533,84.0025634765625,83.98210144042969,0.12073135375976562,83.63432312011719,-0.015024948120117187,0.19,0.33,0.011992984347873263,0.4943700134754181,-2.900305407592775,55.37070083618164,0.00022735595703125,0.01651564704047309
3380,0.13888072309027785,0.2789063262939453,84.0025634765625,86.96897888183594,-0.10430908203125,84.73905181884766,0.004296493530273437,0.18933333333333333,0.33071428571428574,0.008514149983723959,1.2084600925445557,-1.3512789183349625,55.37070083618164,-0.03296017116970486,0.0017404344346788195
3381,0.17013072309027785,0.2789063262939453,84.0025634765625,83.85935974121094,-0.7794227600097656,85.23004150390625,-0.021389685736762153,0.18933333333333333,0.33035714285714285,0.01025356716579861,1.4831100702285767,-2.3070608549804703,55.37070083618164,0.001591152615017361,-0.01121626959906684
3382,0.20919322309027785,0.29882820129394533,84.02302551269531,81.81356048583984,-0.2475128173828125,84.43218231201172,-0.032527923583984375,0.189,0.33,0.013000064425998263,0.8569080233573914,-3.1529833250732437,55.37070083618164,0.02454961140950521,0.0035589430067274304
3383,0.23653697309027785,0.29882820129394533,84.0025634765625,83.77752685546875,-0.37026214599609375,84.6572265625,-0.01547957526312934,0.18833333333333332,0.33035714285714285,0.012603335910373263,0.8898659944534302,-1.6479002409667984,55.37070083618164,0.0025004069010416668,-0.00030543009440104165
3384,0.22872447309027785,0.239062557220459,84.0025634765625,83.87982177734375,-1.1681251525878906,85.82332611083984,0.01066118876139323,0.18966666666666668,0.33107142857142857,0.0070187886555989586,1.1864880323410034,0.5822579860687256,55.37070083618164,0.0013637966579861111,-0.02212723626030816
3385,0.14669322309027785,0.239062557220459,84.02302551269531,82.30455017089844,-0.28842926025390625,83.87982177734375,0.01247969733344184,0.18833333333333332,0.3314285714285714,0.0012511359320746527,0.3954960107803345,1.4611380100250244,55.37070083618164,0.019094170464409723,0.00924165513780382
3386,0.15841197309027785,0.239062557220459,84.0025634765625,83.63432312011719,-0.4316368103027344,84.82088470458984,-0.012069914076063368,0.189,0.33214285714285713,0.0026549445258246527,0.7800060510635376,1.2963480949401855,55.37070083618164,0.004091559516059028,-0.002805794609917535
3387,0.15841197309027785,0.2789063262939453,84.0025634765625,82.28408813476562,-0.4316368103027344,84.80043029785156,-0.02684512668185764,0.189,0.3325,0.0058896382649739586,1.06564199924469,0.7580339908599854,55.37070083618164,0.019094170464409723,-0.002578523423936632
3388,0.17794322309027785,0.25898443222045897,84.0025634765625,85.63920593261719,-0.45209503173828125,84.41172790527344,0.001341459486219618,0.18866666666666668,0.3325,0.0071713765462239586,1.0766279697418213,2.2411441802978516,55.37070083618164,-0.018184916178385416,0.0015130784776475694
3389,0.16231822309027785,0.29882820129394533,84.02302551269531,88.91248321533203,-1.0453758239746094,85.49600219726562,-0.012979168362087673,0.188,0.33214285714285713,0.00976528591579861,0.9008520245552063,0.6591600179672241,55.37070083618164,-0.054327307807074655,-0.017126422458224825
3390,0.17794322309027785,0.29882820129394533,84.0025634765625,84.77996826171875,-1.3931617736816406,86.15065002441406,-0.021844270494249134,0.18766666666666668,0.33214285714285713,0.01113857693142361,0.5493000149726868,-1.516068118164064,55.37070083618164,-0.008637830946180555,-0.0282645755343967
3391,0.19356822309027785,0.3187500762939453,84.02302551269531,82.12042999267578,-1.1681251525878906,86.19157409667969,-0.03184598286946615,0.18766666666666668,0.33214285714285713,0.012145572238498263,-0.2746511870117203,-2.2960745268554703,51.4156494140625,0.021139950222439235,-0.026218880547417535
3392,0.19356822309027785,0.3187500762939453,84.02302551269531,82.30455017089844,-1.7409477233886719,86.02790832519531,-0.0059324900309244795,0.18666666666666668,0.33214285714285713,0.01074184841579861,-0.9777552061767594,-1.6588865690917984,50.09729766845703,0.019094170464409723,-0.030765067206488715
3393,0.20138072309027785,0.33867195129394534,84.0025634765625,89.23981475830078,-1.2908706665039062,86.23248291015625,-0.01661614312065972,0.18566666666666667,0.3317857142857143,0.01123012966579861,-1.5709978514404312,-0.7031046324462906,48.427391052246094,-0.058191680908203126,-0.028037261962890626
3394,0.18966197309027785,0.3187500762939453,84.02302551269531,82.36592102050781,-1.6386566162109375,86.04837036132812,-0.00775099860297309,0.184,0.3314285714285714,0.00900234646267361,-2.3400179320068375,-0.7140909605712906,48.251609802246094,0.018412272135416668,-0.029855855305989585
3395,0.17403697309027785,0.33867195129394534,84.02302551269531,83.38882446289062,-1.2908706665039062,85.557373046875,-0.0059324900309244795,0.18133333333333335,0.33071428571428574,0.0077512105305989586,-2.966221468994142,-0.01098694140625156,45.26335144042969,0.007046678331163195,-0.020536041259765624
3396,0.18184947309027785,0.33867195129394534,84.02302551269531,88.46240997314453,-1.1272087097167969,85.65966796875,-0.01729808383517795,0.17833333333333334,0.33035714285714285,0.00900234646267361,-3.0980535917968766,0.23070600628852844,45.17546081542969,-0.04932649400499132,-0.01985418531629774
3397,0.18575572309027785,0.33867195129394534,84.02302551269531,84.30943298339844,-1.0862922668457031,84.71859741210938,-0.015252261691623263,0.17366666666666666,0.33,0.00939907497829861,-3.2957998686523453,-0.4394403868408219,45.17546081542969,-0.003182305230034722,-0.008943218655056423
3398,0.18184947309027785,0.3585938262939453,84.02302551269531,80.79066467285156,-1.331787109375,86.29386138916016,-0.011160659790039062,0.17,0.3296428571428571,0.01007046169704861,-3.493548052856447,-0.6152159147949234,42.71453857421875,0.03591512044270833,-0.02917387220594618
3399,0.19356822309027785,0.3585938262939453,84.0025634765625,84.71859741210938,-1.1681251525878906,84.98455047607422,-0.013433795505099827,0.16533333333333333,0.32857142857142857,0.01049770779079861,-3.965946810791017,0.6262019872665405,40.69306945800781,-0.0079559326171875,-0.012807506985134548
3400,0.18575572309027785,0.3585938262939453,84.0025634765625,83.36836242675781,-0.8407974243164062,84.45263671875,-2.242194281684028e-05,0.16133333333333333,0.32785714285714285,0.01013149685329861,-4.119751589843752,1.450152039527893,38.320037841796875,0.007046678331163195,-0.003260379367404514
3401,0.18966197309027785,0.3585938262939453,84.02302551269531,87.23492431640625,-0.9226264953613281,85.0459213256836,-0.013661109076605903,0.15666666666666668,0.32571428571428573,0.011535220675998263,-3.6912962370605484,1.7138160467147827,38.14426040649414,-0.035687764485677086,-0.010761642456054687
3402,0.17794322309027785,0.33867195129394534,84.0025634765625,82.59095764160156,-0.6157569885253906,84.77996826171875,-0.008205625745985243,0.151,0.3242857142857143,0.01071133083767361,-3.6473528319091812,1.450152039527893,38.14426040649414,0.01568450927734375,-0.004396947224934896
3403,0.17013072309027785,0.33867195129394534,84.0025634765625,82.83645629882812,-0.718048095703125,84.41172790527344,-0.0043413374159071184,0.14566666666666667,0.3221428571428571,0.01080288357204861,-3.4715773039550797,1.3512780666351318,38.14426040649414,0.012956746419270833,-0.00144195556640625
3404,0.17794322309027785,0.3585938262939453,84.02302551269531,83.14332580566406,-0.8612556457519531,85.14820861816406,-0.031164042154947915,0.14166666666666666,0.32107142857142856,0.014098697238498263,-2.955235140869142,1.1315580606460571,38.14426040649414,0.009774441189236111,-0.01121626959906684
3405,0.17013072309027785,0.3785157012939453,84.02302551269531,82.59095764160156,-1.6181983947753906,84.88226318359375,-0.013433795505099827,0.13566666666666666,0.3182142857142857,0.014007144504123263,-2.867346423217775,1.6588860750198364,38.14426040649414,0.015911865234375,-0.016671795315212675
3406,0.15841197309027785,0.33867195129394534,84.02302551269531,83.96165466308594,-1.1476669311523438,85.14820861816406,-0.0002497355143229167,0.13066666666666665,0.3157142857142857,0.013183169894748263,-2.570725100585939,2.592696189880371,38.14426040649414,0.0006818983289930556,-0.014398617214626735
3407,0.14278697309027785,0.3187500762939453,84.02302551269531,83.77752685546875,-0.8817138671875,84.77996826171875,0.005205747816297743,0.126,0.31214285714285717,0.011809878879123263,-2.3290335112304703,1.0986000299453735,38.05636978149414,0.002727762858072917,-0.0073520236545138885
3408,0.14278697309027785,0.3187500762939453,84.02302551269531,82.05905151367188,-0.7589645385742188,84.49356079101562,-0.009114880032009548,0.121,0.30964285714285716,0.012389712863498263,-1.9994532042236344,-0.7031046324462906,41.57196807861328,0.02182193332248264,-0.0028058369954427082
3409,0.17403697309027785,0.33867195129394534,84.02302551269531,81.58851623535156,-0.7589645385742188,84.57539367675781,-0.027981694539388022,0.11633333333333333,0.3075,0.015532938639322917,-1.8346620970459,-1.175503390380861,44.82389831542969,0.02705010308159722,-0.003715091281467014
3410,0.23263072309027785,0.3187500762939453,84.02302551269531,85.31187438964844,-0.718048095703125,84.63676452636719,-0.02320815192328559,0.11333333333333333,0.30714285714285716,0.01885926988389757,-1.4831110411376969,-0.4284540587158219,45.43912887573242,-0.014320543077256944,-0.003942362467447917
3411,0.22481822309027785,0.3187500762939453,84.02302551269531,81.8953857421875,-0.5339241027832031,84.5958480834961,-0.01616151597764757,0.10733333333333334,0.30714285714285716,0.01873719957139757,-1.7357889586181656,-1.2743765288085953,47.284820556640625,0.02364044189453125,-0.0014419131808810764
3412,0.22872447309027785,0.29882820129394533,84.0434799194336,82.87738037109375,-0.8612556457519531,84.32989501953125,-0.00775099860297309,0.102,0.3078571428571429,0.016295878092447917,-1.7577597075195328,-0.812964098999025,50.53675079345703,0.012956661648220485,-0.002123896280924479
3413,0.19747447309027785,0.29882820129394533,84.02302551269531,86.96897888183594,-0.5134696960449219,84.86180114746094,0.0040691799587673615,0.097,0.3092857142857143,0.013091617160373263,-1.4281813078613297,0.09887400269508362,50.62464141845703,-0.03273281521267361,-0.0041696760389539934
3414,0.22872447309027785,0.239062557220459,84.0434799194336,77.92654418945312,-0.002017974853515625,84.5958480834961,-0.0066144307454427086,0.093,0.3107142857142857,0.01055874294704861,-1.2743765288085953,-0.9338098936767594,51.151981353759766,0.06796595255533854,0.004468154907226562
3415,0.19356822309027785,0.2789063262939453,84.0434799194336,85.43462371826172,-0.22705459594726562,84.35034942626953,-0.0075236850314670135,0.08633333333333333,0.31464285714285717,0.00997890896267361,-1.3293062620849625,1.6808580160140991,52.29454803466797,-0.0154571533203125,0.004695510864257813
3416,0.16622447309027785,0.239062557220459,84.02302551269531,87.58271789550781,-0.12476730346679688,83.69569396972656,-0.0009316762288411458,0.08066666666666666,0.31607142857142856,0.0068967183430989586,-1.8895918303222672,2.142270088195801,54.843360900878906,-0.03955213758680556,0.013105985853407118
3417,0.13497447309027785,0.219140682220459,84.0434799194336,83.18424987792969,-0.16568374633789062,84.45263671875,-0.013661109076605903,0.076,0.32071428571428573,0.0057980855305989586,-1.4391657286376969,1.8236761093139648,55.19491958618164,0.009547000461154514,0.0042408837212456595
3418,0.12716200086805557,0.219140682220459,84.0434799194336,92.02210235595703,-0.718048095703125,85.41416931152344,-0.002750142415364583,0.071,0.3225,0.0059201558430989586,-1.505081790039064,2.658612012863159,55.19491958618164,-0.08865136040581598,-0.012580193413628472
3419,0.17013072309027785,0.19921878814697266,84.0434799194336,83.32745361328125,-0.6157569885253906,84.57539367675781,-0.01957117716471354,0.06633333333333333,0.32607142857142857,0.01022304958767361,-1.505081790039064,1.450152039527893,55.19491958618164,0.007955847846137152,-0.002123896280924479
3420,0.16622447309027785,0.25898443222045897,84.06393432617188,85.02546691894531,-1.4340782165527344,87.0712661743164,-0.01797998216417101,0.06233333333333333,0.32785714285714285,0.014464823404947917,-1.120571749755861,0.20873400568962097,55.19491958618164,-0.010683695475260416,-0.038948271009657115
3421,0.20138072309027785,0.239062557220459,84.0434799194336,81.79310607910156,-1.9046134948730469,86.98943328857422,-0.013888380262586805,0.058333333333333334,0.33035714285714285,0.015319315592447917,-1.4281813078613297,-0.06591667468261875,55.19491958618164,0.025004153781467014,-0.0432671864827474
3422,0.15450572309027785,0.2789063262939453,84.06393432617188,82.91828918457031,-2.354686737060547,87.1121826171875,0.005887646145290798,0.05333333333333334,0.3314285714285714,0.013244205050998263,-1.9335371428222672,0.8459219932556152,53.43711853027344,0.012729390462239584,-0.04963188171386719
3423,0.15450572309027785,0.25898443222045897,84.06393432617188,88.83065795898438,-1.5363693237304688,86.15065002441406,-0.009569507175021702,0.049666666666666665,0.33321428571428574,0.012969546847873263,-2.933262484619142,1.724802017211914,53.2613410949707,-0.05296359592013889,-0.029855770534939235
3424,0.14278697309027785,0.2789063262939453,84.0434799194336,83.02058410644531,-2.7638473510742188,86.88714599609375,-0.012069914076063368,0.047,0.3335714285714286,0.014007144504123263,-2.6695982390136734,-0.05493034655761875,51.151981353759766,0.011365509033203125,-0.051677703857421875
3425,0.17013072309027785,0.29882820129394533,84.0434799194336,79.46089172363281,-2.1910247802734375,86.49844360351562,-0.02980016072591146,0.042333333333333334,0.3342857142857143,0.01730287339952257,-2.6256548338623062,-0.4723993712158219,50.62464141845703,0.05091764662000868,-0.04099409315321181
3426,0.18966197309027785,0.29882820129394533,84.06393432617188,84.02302551269531,-2.6820144653320312,86.98943328857422,-0.00047704908582899306,0.03833333333333333,0.3342857142857143,0.01858461168077257,-2.548752444335939,1.4391660690307617,50.62464141845703,0.00045454237196180554,-0.05190497504340278
3427,0.16622447309027785,0.3187500762939453,84.06393432617188,87.97142028808594,-2.641101837158203,86.58027648925781,-0.014570320977105035,0.034333333333333334,0.3335714285714286,0.01974427964952257,-2.581711428710939,1.4611380100250244,50.62464141845703,-0.04341651068793403,-0.046904203626844616
3428,0.17794322309027785,0.29882820129394533,84.06393432617188,80.34058380126953,-2.354686737060547,88.23736572265625,-0.048439704047309025,0.03133333333333333,0.33321428571428574,0.01870668199327257,-2.4498793059082047,0.4394400119781494,50.53675079345703,0.04137056138780382,-0.06213391621907552
3429,0.20528697309027785,0.219140682220459,84.06393432617188,81.05661010742188,-2.4569778442382812,87.97142028808594,-0.04889433119032118,0.027666666666666666,0.33321428571428574,0.016601053873697917,-2.504809039184572,0.5383139848709106,50.53675079345703,0.03341471354166667,-0.06031553480360243
3430,0.15841197309027785,0.17929691314697266,84.06393432617188,86.37569427490234,-2.129650115966797,84.53446960449219,-0.030254787868923612,0.024666666666666667,0.33321428571428574,0.01043667263454861,-2.6256548338623062,1.2853620052337646,49.21839904785156,-0.025686221652560765,-0.01849021911621094
3431,0.11153700086805556,0.15937503814697265,84.06393432617188,81.5066909790039,0.7753868103027344,86.0074462890625,-0.03139135572645399,0.018333333333333333,0.3339285714285714,0.0064999898274739586,-1.9115644865722672,-0.4394403868408219,50.36096954345703,0.028413814968532985,-0.0025784386528862847
3432,0.12716200086805557,0.19921878814697266,84.06393432617188,82.20226287841797,1.1231727600097656,87.0712661743164,-0.09276534186469185,0.01633333333333333,0.33464285714285713,0.0077512105305989586,-0.9997259550781266,-0.06591667468261875,50.53675079345703,0.020685238308376735,-0.010534371270073785
3433,0.049037000868055555,0.19921878814697266,84.06393432617188,78.96989440917969,1.1436309814453125,84.43218231201172,-0.0600325690375434,0.011666666666666667,0.335,0.0005187140570746528,-1.0326849394531266,0.6921180486679077,42.362979888916016,0.05660044352213542,0.01901609632703993
3434,-0.052525499131944445,0.15937503814697265,84.06393432617188,77.70149993896484,1.8801193237304688,80.70883178710938,-0.05935062832302517,0.006666666666666667,0.3342857142857143,-0.007934400770399306,-0.18676246936035312,0.8239500522613525,23.73029899597168,0.07069371541341146,0.06856986151801216
3435,-0.040806749131944445,0.15937503814697265,84.08439636230469,82.14088439941406,1.1231727600097656,82.34546661376953,-0.05889600118001302,0.003,0.33,-0.007324049207899305,0.36253800988197327,1.1425440311431885,23.73029899597168,0.021594577365451388,0.041974512736002605
3436,0.006068250868055555,0.15937503814697265,84.08439636230469,84.90271759033203,1.2663764953613281,83.28652954101562,-0.06344223022460938,0.001,0.32607142857142857,-0.004028235541449653,0.3405660092830658,1.0436700582504272,23.73029899597168,-0.009092458089192708,0.03310941060384114
3437,0.056849500868055555,0.1195312786102295,84.08439636230469,79.07218933105469,0.3866844177246094,79.542724609375,-0.05230399237738715,0.0013333333333333333,0.3196428571428571,-0.002105712890625,0.36253800988197327,-0.08788933093261875,23.73029899597168,0.05569118923611111,0.0649328867594401
3438,0.08809950086805556,0.13945316314697265,84.06393432617188,81.40440368652344,1.2663764953613281,82.83645629882812,-0.05866868760850694,0.0006666666666666666,0.315,-0.001251220703125,1.1425440311431885,0.6591600179672241,23.73029899597168,0.029550340440538194,0.03811022440592448
3439,0.049037000868055555,0.17929691314697266,84.08439636230469,85.23004150390625,6.626373291015625,78.74485778808594,-0.016388829549153647,0.0,0.30857142857142855,-0.002227783203125,0.8239500522613525,1.8895920515060425,23.554519653320312,-0.012729390462239584,0.14312795003255208
3440,0.08809950086805556,0.13945316314697265,84.02302551269531,83.552490234375,5.337520599365234,78.64257049560547,-0.0868552737765842,0.0003333333333333333,0.3053571428571429,0.00048819647894965276,1.9884660243988037,0.8129640221595764,23.554519653320312,0.005228169759114583,0.12994389004177517
3441,0.08028700086805556,0.13945316314697265,84.08439636230469,83.96165466308594,9.756446838378906,71.60501861572266,-0.042756907145182294,0.0,0.2978571428571429,-0.0,1.8786060810089111,-0.4064833098144547,23.554519653320312,0.0013637966579861111,0.2572380913628472
