,WD,WS,AIL_1,AIL_2,ELEV_1,ELEV_2,RUDD,ALT,GS,TH,PTCH,ROLL,PLA_1,AIL,ELEV
3704,-0.5446875091200086,0.478125114440918,83.28652954101562,87.25538635253906,-2.907054901123047,88.17599487304688,-0.0043413374159071184,0.9423333333333334,0.53,-0.0487656487358941,-3.867073672363283,-2.4608656340332047,31.28883934020996,-0.04409840901692708,-0.06758944193522136
3705,-0.5525000091200086,0.478125114440918,83.28652954101562,87.74638366699219,-2.5797271728515625,87.95095825195312,-0.0018409305148654514,0.933,0.5307142857142857,-0.050383037990993924,-3.9989038878173844,-1.9005781584472672,31.28883934020996,-0.049553934733072916,-0.06145206027560764
3706,-0.5485937591200086,0.478125114440918,83.30699157714844,87.13264465332031,-2.6820144653320312,88.0737075805664,-0.003204769558376736,0.9233333333333333,0.5314285714285715,-0.05196990966796875,-3.87805809313965,-1.527054446289064,31.28883934020996,-0.04250725640190972,-0.0639524671766493
3707,-0.5603125091200086,0.478125114440918,83.28652954101562,86.78485107421875,-2.702472686767578,88.05325317382812,-0.002750142415364583,0.914,0.5325,-0.05264125400119358,-3.87805809313965,-1.175503390380861,31.28883934020996,-0.0388702392578125,-0.06395250956217448
3708,-0.5603125091200086,0.478125114440918,83.28652954101562,86.662109375,-2.722930908203125,88.0123291015625,-0.0034320831298828127,0.9043333333333333,0.5328571428571428,-0.05245814853244358,-3.88904442126465,-0.5932451658935562,31.28883934020996,-0.03750644259982639,-0.06372511121961806
3709,-0.5681250091200086,0.478125114440918,83.28652954101562,86.92805480957031,-2.6615562438964844,88.09416198730469,-0.003886710272894965,0.8953333333333333,0.5342857142857143,-0.05212249755859375,-3.954960482666017,0.13183200359344482,31.28883934020996,-0.04046139187282986,-0.06395242479112413
3710,-0.5759375091200086,0.478125114440918,83.28652954101562,87.25538635253906,-2.702472686767578,88.1146240234375,-0.0009316762288411458,0.886,0.5353571428571429,-0.05230556064181858,-3.987919467041017,0.6371880173683167,31.28883934020996,-0.04409840901692708,-0.06463440789116753
3711,-0.5681250091200086,0.478125114440918,83.28652954101562,87.41905212402344,-2.6615562438964844,88.0737075805664,-0.002750142415364583,0.876,0.5367857142857143,-0.05184783935546875,-3.9989038878173844,1.2963480949401855,31.28883934020996,-0.045916917588975696,-0.06372515360514323
3712,-0.5681250091200086,0.478125114440918,83.30699157714844,87.50088500976562,-2.6820144653320312,88.09416198730469,-0.005705218844943577,0.8666666666666667,0.5378571428571428,-0.05084075927734375,-4.053835528442384,1.494096040725708,31.28883934020996,-0.04659881591796875,-0.0641797383626302
3713,-0.5720312591200086,0.45820323944091795,83.30699157714844,89.09660339355469,-2.702472686767578,88.0123291015625,-0.005705218844943577,0.8576666666666667,0.5392857142857143,-0.0491318596733941,-3.92200340563965,2.4608640670776367,31.28883934020996,-0.06432902018229167,-0.06349779764811198
3714,-0.5759375091200086,0.478125114440918,83.30699157714844,87.82821655273438,-2.722930908203125,88.1555404663086,-0.0002497355143229167,0.8483333333333334,0.54,-0.049589580959743924,-3.823128359863283,1.8566340208053589,31.28883934020996,-0.05023583306206597,-0.06531634860568576
3715,-0.5876562591200086,0.49804698944091796,83.28652954101562,87.97142028808594,-2.477436065673828,88.25782775878906,-0.002522828843858507,0.8376666666666667,0.5414285714285715,-0.049559063381618924,-4.108765261718752,1.8017040491104126,31.28883934020996,-0.052054341634114584,-0.06372515360514323
3716,-0.5837500091200086,0.478125114440918,83.28652954101562,86.84622192382812,-2.477436065673828,87.97142028808594,-0.004114023844401042,0.829,0.5425,-0.04778912862141927,-4.009890215942384,1.5050820112228394,31.28883934020996,-0.03955213758680556,-0.06054284837510851
3717,-0.5759375091200086,0.45820323944091795,83.28652954101562,87.66455078125,-2.497894287109375,88.29874420166016,-0.006159803602430555,0.82,0.5435714285714286,-0.04510362413194444,-4.097778933593752,1.9445220232009888,31.28883934020996,-0.04864468044704861,-0.06440709431966146
3718,-0.5837500091200086,0.478125114440918,83.28652954101562,89.09660339355469,-2.5388107299804688,88.17599487304688,-0.0002497355143229167,0.8106666666666666,0.545,-0.04534776475694444,-4.218624728271486,2.296074151992798,31.28883934020996,-0.06455637613932291,-0.06349784003363715
3719,-0.5798437591200086,0.478125114440918,83.28652954101562,88.48286437988281,-2.3956031799316406,88.23736572265625,-0.003886710272894965,0.801,0.5464285714285714,-0.044981596204969616,-4.218624728271486,1.6588860750198364,31.28883934020996,-0.05773705376519097,-0.06258854336208768
3720,-0.5915625091200086,0.478125114440918,83.30699157714844,86.82576751708984,-2.5592689514160156,88.1555404663086,-0.004795964558919271,0.792,0.5471428571428572,-0.04299799601236979,-4.064819949218752,1.3512780666351318,31.28883934020996,-0.0390975104437934,-0.06349788241916232
3721,-0.5876562591200086,0.45820323944091795,83.30699157714844,87.0712661743164,-2.518352508544922,88.13508605957031,-0.002522828843858507,0.7826666666666666,0.5485714285714286,-0.04107543097601996,-4.141722338745119,1.8456480503082275,31.28883934020996,-0.04182527330186632,-0.06281598409016927
3722,-0.5876562591200086,0.45820323944091795,83.26608276367188,88.36012268066406,-2.6001853942871094,88.27828979492188,-0.003659396701388889,0.7733333333333333,0.5496428571428571,-0.03982425265842014,-4.273554461547853,2.3070600032806396,31.28883934020996,-0.05660044352213542,-0.06531639099121093
3723,-0.5837500091200086,0.478125114440918,83.30699157714844,88.74882507324219,-2.5388107299804688,88.21691131591797,-0.0022955152723524307,0.764,0.5514285714285714,-0.03967166476779514,-4.229611056396486,2.186213970184326,31.28883934020996,-0.06046481662326389,-0.0639524671766493
3724,-0.5759375091200086,0.478125114440918,83.30699157714844,88.54424285888672,-2.641101837158203,88.29874420166016,-0.001613616943359375,0.754,0.5525,-0.039183425903320315,-4.196652072021486,1.450152039527893,31.28883934020996,-0.058191680908203126,-0.06599828932020399
3725,-0.5603125091200086,0.45820323944091795,83.30699157714844,88.62606811523438,-2.6001853942871094,88.31919860839844,-0.006159803602430555,0.745,0.5528571428571428,-0.038023757934570315,-4.086792605468752,1.021697998046875,31.28883934020996,-0.05910085042317708,-0.06577093336317275
3726,-0.5642187591200086,0.45820323944091795,83.28652954101562,89.0761489868164,-2.8252220153808594,88.58515930175781,-0.003886710272894965,0.7363333333333333,0.5528571428571428,-0.03774914211697049,-3.7791849547119156,0.4723980128765106,31.28883934020996,-0.06432910495334201,-0.07122645907931857
3727,-0.5759375091200086,0.478125114440918,83.30699157714844,87.95095825195312,-2.8456802368164062,88.68744659423828,-0.005705218844943577,0.728,0.5517857142857143,-0.03777965969509549,-3.559464114257814,0.07690200209617615,31.28883934020996,-0.05159962972005208,-0.07259029812282985
3728,-0.5720312591200086,0.478125114440918,83.28652954101562,87.50088500976562,-2.743389129638672,88.81019592285156,-0.0013863033718532986,0.7193333333333334,0.5510714285714285,-0.038603591918945315,-3.4386183195800797,-0.05493034655761875,31.28883934020996,-0.046826171875,-0.07281761169433594
3729,-0.5837500091200086,0.45820323944091795,83.30699157714844,85.98699188232422,-2.6820144653320312,88.68744659423828,-0.006387117173936632,0.712,0.5492857142857143,-0.03649796379937066,-3.163967745849611,-0.12084640795898594,31.28883934020996,-0.02977778116861979,-0.07077178955078126
3730,-0.5876562591200086,0.438281364440918,83.30699157714844,87.48042297363281,-2.518352508544922,88.64653015136719,-0.0066144307454427086,0.704,0.5482142857142858,-0.034880574544270834,-2.889319079467775,0.8678940534591675,31.28883934020996,-0.0463714599609375,-0.06849869622124566
3731,-0.5993750091200086,0.45820323944091795,83.30699157714844,89.83309936523438,-2.5388107299804688,88.564697265625,0.001341459486219618,0.6973333333333334,0.5460714285714285,-0.03622330559624566,-2.6476274901123062,0.6481740474700928,31.28883934020996,-0.07251230875651042,-0.06781675550672743
3732,-0.5837500091200086,0.438281364440918,83.30699157714844,86.17111206054688,-2.477436065673828,88.54424285888672,-0.006841744316948784,0.69,0.5446428571428571,-0.03524674309624566,-2.581711428710939,-0.04394401843261875,31.28883934020996,-0.03182356092664931,-0.0669075436062283
3733,-0.6071875091200086,0.438281364440918,83.30699157714844,87.70545959472656,-2.3956031799316406,88.68744659423828,-0.0059324900309244795,0.6843333333333333,0.5425,-0.03347680833604601,-2.3510042601318375,0.9008520245552063,31.28883934020996,-0.04887186686197917,-0.06758944193522136
3734,-0.5954687591200086,0.438281364440918,83.32745361328125,89.54668426513672,-2.1705665588378906,88.46240997314453,-0.004114023844401042,0.6773333333333333,0.5403571428571429,-0.034148152669270834,-2.1093126707763687,0.3185940086841583,31.28883934020996,-0.0691025627983941,-0.06258862813313802
3735,-0.6150000091200086,0.45820323944091795,83.30699157714844,87.95095825195312,-2.0069007873535156,88.40103149414062,-0.004568650987413194,0.6716666666666666,0.5378571428571428,-0.034453328450520834,-1.8676210814209,-0.4614130430908219,31.28883934020996,-0.05159962972005208,-0.06008813646104601
3736,-0.6032812591200086,0.45820323944091795,83.30699157714844,86.70301818847656,-1.9864425659179688,88.31919860839844,-0.0034320831298828127,0.6656666666666666,0.5357142857142857,-0.034789021809895834,-1.505081790039064,0.08788800239562988,31.28883934020996,-0.03773362901475694,-0.05895156860351562
3737,-0.6032812591200086,0.478125114440918,83.30699157714844,89.0761489868164,-2.1705665588378906,88.40103149414062,0.0020233578152126738,0.6606666666666666,0.5328571428571428,-0.03634537590874566,-1.3073355131835953,0.12084600329399109,31.28883934020996,-0.06410174899631077,-0.06190664503309462
3738,-0.6071875091200086,0.45820323944091795,83.30699157714844,86.43707275390625,-2.088733673095703,88.44195556640625,-0.006841744316948784,0.6556666666666666,0.5307142857142857,-0.03509415520562066,-1.3183199339599625,-0.02197326953125156,31.28883934020996,-0.03477867974175347,-0.06145210266113281
3739,-0.6032812591200086,0.45820323944091795,83.30699157714844,88.19645690917969,-1.8841552734375,88.33966064453125,-0.0018409305148654514,0.6506666666666666,0.5275,-0.034758504231770834,-1.3842359953613297,0.9338099956512451,31.28883934020996,-0.054327392578125,-0.05804239908854167
3740,-0.6150000091200086,0.45820323944091795,83.34790802001953,88.97386169433594,-1.8023223876953125,88.44195556640625,-0.003886710272894965,0.6463333333333333,0.5253571428571429,-0.034483846028645834,-1.0326849394531266,0.8349360227584839,31.28883934020996,-0.0625105963812934,-0.05826975504557292
3741,-0.6150000091200086,0.45820323944091795,83.30699157714844,89.50576782226562,-1.8023223876953125,41.900001525878906,-0.005705218844943577,0.641,0.5225,-0.034422810872395834,-1.0326849394531266,0.2856360077857971,31.28883934020996,-0.0688752916124132,0.4588630676269531
3742,-0.6228125091200086,0.478125114440918,83.30699157714844,89.13752746582031,-1.6795730590820312,88.1146240234375,-0.004568650987413194,0.636,0.5210714285714285,-0.034911092122395834,-1.527054446289064,-0.8678938322753922,31.28883934020996,-0.06478373209635417,-0.05326885647243924
3743,-0.6150000091200086,0.45820323944091795,83.30699157714844,88.13508605957031,-1.4545364379882812,87.72592163085938,-0.00775099860297309,0.6306666666666667,0.5203571428571429,-0.034453328450520834,-1.6808592253417984,-1.6479002409667984,31.28883934020996,-0.053645494249131946,-0.046449534098307294
3744,-0.6032812591200086,0.438281364440918,83.30699157714844,89.83309936523438,-1.3931617736816406,41.900001525878906,-0.009796820746527778,0.6256666666666667,0.5196428571428572,-0.034483846028645834,-1.4831110411376969,-2.3510042601318375,31.28883934020996,-0.07251230875651042,0.46340929667154945
3745,-0.5876562591200086,0.438281364440918,83.30699157714844,89.0147705078125,-1.3727035522460938,87.82821655273438,-0.007296371459960938,0.619,0.5185714285714286,-0.03597916497124566,-1.2963491850585953,-2.812416689941408,31.28883934020996,-0.06341976589626735,-0.046676890055338545
3746,-0.5993750091200086,0.45820323944091795,83.30699157714844,88.72836303710938,-1.2908706665039062,41.900001525878906,-0.0059324900309244795,0.6143333333333333,0.5178571428571429,-0.038817214965820315,-1.142544406005861,-3.3397451811523453,31.28883934020996,-0.06023746066623264,0.46454586452907987
3747,-0.6267187591200086,0.45820323944091795,83.30699157714844,86.29386138916016,-1.2499542236328125,87.62362670898438,0.0020233578152126738,0.6103333333333333,0.5164285714285715,-0.04168578253851996,-0.9557825499267594,-3.1419969969482437,31.28883934020996,-0.03318744235568576,-0.04303978814019097
3748,-0.6189062591200086,0.438281364440918,83.30699157714844,85.18913269042969,-1.1681251525878906,87.76683807373047,-0.0013863033718532986,0.6053333333333333,0.515,-0.04101439581976996,-0.8898664885253922,-1.4940973692626969,31.28883934020996,-0.020912679036458333,-0.04372181362575955
3749,-0.6267187591200086,0.438281364440918,83.30699157714844,88.58515930175781,-1.1476669311523438,88.38057708740234,0.0004322052001953125,0.6003333333333334,0.5128571428571429,-0.04067874484592014,-0.7909933500976578,0.4064820110797882,31.28883934020996,-0.058646308051215276,-0.05031382242838542
3750,-0.6150000091200086,0.438281364440918,83.30699157714844,89.93538665771484,-1.5363693237304688,41.900001525878906,-0.007069057888454861,0.594,0.5107142857142857,-0.04156371222601996,-1.142544406005861,-0.4723993712158219,31.28883934020996,-0.07364883422851562,0.46181810167100695
3751,-0.6071875091200086,0.438281364440918,83.30699157714844,86.70301818847656,-2.4160614013671875,89.85355377197266,-0.009796820746527778,0.5893333333333334,0.5060714285714286,-0.04144164191351996,-1.7138163023681656,-1.131558077880861,31.28883934020996,-0.03773362901475694,-0.08077350192599826
3752,-0.5993750091200086,0.45820323944091795,83.30699157714844,88.72836303710938,-3.2139244079589844,90.42637634277344,0.0008868323432074653,0.587,0.5025,-0.044401762220594616,-2.3619905882568375,-0.823950427124025,31.28883934020996,-0.06023746066623264,-0.09600334167480469
3753,-0.6032812591200086,0.478125114440918,83.30699157714844,85.72103881835938,-3.5617103576660156,90.87644958496094,-0.0007043626573350694,0.5843333333333334,0.4967857142857143,-0.04739240010579427,-3.262842791625978,-1.4062086516113297,31.28883934020996,-0.026822747124565973,-0.10486844380696615
3754,-0.6110937591200086,0.49804698944091796,83.30699157714844,85.39370727539062,-4.1959075927734375,41.900001525878906,0.0006595187717013889,0.5813333333333334,0.4932142857142857,-0.0484909905327691,-3.954960482666017,-1.6369139128417984,31.28883934020996,-0.02318572998046875,0.4322676764594184
3755,-0.6189062591200086,0.45820323944091795,83.30699157714844,86.74394226074219,-3.5821685791015625,90.32408142089844,-0.00297745598687066,0.5783333333333334,0.4875,-0.04684308369954427,-4.822855609008791,-0.9887415343017594,31.28883934020996,-0.038188340928819446,-0.09895833333333333
3756,-0.6150000091200086,0.438281364440918,83.30699157714844,89.03523254394531,-3.3980445861816406,90.38545989990234,-0.005705218844943577,0.5733333333333334,0.48464285714285715,-0.04519517686631944,-4.647078173706056,0.4394400119781494,31.28883934020996,-0.06364712185329861,-0.09759449428982205
3757,-0.6150000091200086,0.45820323944091795,83.30699157714844,41.900001525878906,-3.3162155151367188,90.1604232788086,0.0036145528157552082,0.568,0.4810714285714286,-0.04601915147569444,-4.559191363403322,1.021697998046875,31.28883934020996,0.46007766723632815,-0.09418487548828125
3758,-0.5954687591200086,0.45820323944091795,83.32745361328125,89.48530578613281,-3.11163330078125,89.91493225097656,-0.008887566460503472,0.562,0.4785714285714286,-0.04696515401204427,-4.3944002562255875,0.8239500522613525,31.28883934020996,-0.06842057969835069,-0.08918406168619791
3759,-0.6032812591200086,0.49804698944091796,83.32745361328125,41.900001525878906,-3.0093421936035156,90.2218017578125,-0.003204769558376736,0.556,0.475,-0.0489487542046441,-3.856087344238283,-0.12084640795898594,31.28883934020996,0.46030502319335936,-0.09145715501573351
3760,-0.6150000091200086,0.49804698944091796,83.32745361328125,84.14576721191406,-3.0298004150390625,90.05813598632812,-0.004568650987413194,0.5506666666666666,0.4725,-0.0486130608452691,-3.7572122984619156,-1.1095873289794937,31.28883934020996,-0.00909237331814236,-0.08986596001519097
3761,-0.6150000091200086,0.45820323944091795,83.32745361328125,89.0761489868164,-2.9275131225585938,89.89447021484375,-0.002522828843858507,0.5446666666666666,0.4689285714285714,-0.04623277452256944,-4.141722338745119,-0.15380539233398594,31.28883934020996,-0.06387439303927951,-0.08691092597113716
3762,-0.6384375091200086,0.45820323944091795,83.30699157714844,90.81507873535156,-2.8456802368164062,89.83309936523438,-0.006387117173936632,0.5396666666666666,0.4675,-0.044310209486219616,-4.174681323120119,1.1205720901489258,31.28883934020996,-0.0834231906467014,-0.08531977335611979
3763,-0.6306250091200086,0.438281364440918,83.32745361328125,41.900001525878906,-2.5797271728515625,89.6080551147461,-0.014115693834092882,0.5336666666666666,0.4642857142857143,-0.04348627726236979,-4.042849200317384,0.4394400119781494,31.28883934020996,0.46030502319335936,-0.07986424763997396
3764,-0.6345312591200086,0.45820323944091795,83.30699157714844,89.6080551147461,-2.497894287109375,89.50576782226562,-0.004795964558919271,0.528,0.46285714285714286,-0.043852445814344616,-3.867073672363283,-0.7360617094726578,31.28883934020996,-0.0700118170844184,-0.07781846788194445
3765,-0.6228125091200086,0.41835948944091794,83.32745361328125,85.92561340332031,-2.313770294189453,89.6080551147461,-0.012979168362087673,0.523,0.46,-0.04199095831976996,-3.6803099089355484,-0.5932451658935562,31.28883934020996,-0.02886844211154514,-0.07690917121039496
3766,-0.6189062591200086,0.41835948944091794,83.32745361328125,41.900001525878906,-2.272857666015625,89.46485137939453,-0.007296371459960938,0.5163333333333333,0.45821428571428574,-0.04171630011664496,-3.6473528319091812,0.24169200658798218,31.28883934020996,0.46030502319335936,-0.07486343383789062
3767,-0.6110937591200086,0.438281364440918,83.30699157714844,87.05081176757812,-2.1705665588378906,89.23981475830078,0.002932612101236979,0.512,0.45571428571428574,-0.04348627726236979,-3.7901712828369156,0.8788800239562988,31.28883934020996,-0.041598002115885414,-0.07122645907931857
3768,-0.6228125091200086,0.45820323944091795,83.32745361328125,83.71615600585938,-2.0273590087890625,89.2193603515625,0.00225067138671875,0.507,0.4539285714285714,-0.043852445814344616,-3.3617159300537125,0.4614120125770569,31.28883934020996,-0.0043189154730902775,-0.06940799289279515
3769,-0.6306250091200086,0.41835948944091794,83.32745361328125,86.31431579589844,-1.8023223876953125,88.95339965820312,-0.0034320831298828127,0.5013333333333333,0.45107142857142857,-0.04046512179904514,-3.1090380125732437,2.04339599609375,31.28883934020996,-0.03318735758463542,-0.0639524671766493
3770,-0.6228125091200086,0.41835948944091794,83.32745361328125,91.91981506347656,-1.5568275451660156,89.6080551147461,-0.003204769558376736,0.49533333333333335,0.4496428571428571,-0.03777965969509549,-2.7355143004150406,4.976658344268799,31.28883934020996,-0.09547068277994791,-0.06849869622124566
3771,-0.6150000091200086,0.45820323944091795,83.32745361328125,91.77660369873047,-1.945526123046875,90.2218017578125,0.0015687730577256945,0.49066666666666664,0.44642857142857145,-0.03756603664822049,-2.6036821776123062,5.075531959533691,31.28883934020996,-0.09387944539388021,-0.07963697645399305
3772,-0.6150000091200086,0.478125114440918,83.32745361328125,90.59004211425781,-2.1501083374023438,90.40591430664062,-0.011387973361545138,0.486,0.4442857142857143,-0.03683361477322049,-3.262842791625978,2.2521300315856934,31.28883934020996,-0.08069542778862847,-0.08395580715603299
3773,-0.6267187591200086,0.45820323944091795,83.32745361328125,88.52378845214844,-2.7638473510742188,91.55156707763672,-0.02866363525390625,0.48233333333333334,0.43964285714285717,-0.034026082356770834,-3.823128359863283,-1.2524038725585953,31.28883934020996,-0.05773705376519097,-0.10350460476345485
3774,-0.6423437591200086,0.41835948944091794,83.32745361328125,86.17111206054688,-3.500335693359375,90.26271057128906,-0.021162372165256075,0.4796666666666667,0.4357142857142857,-0.03164579603407118,-4.976658480712892,-3.570450442382814,31.28883934020996,-0.031596204969618055,-0.09736718071831597
3775,-0.6735937591200086,0.39843757629394533,83.30699157714844,88.6056137084961,-2.0478172302246094,89.97630310058594,-0.018889236450195312,0.477,0.42964285714285716,-0.030669275919596353,-5.52595962817383,-2.7025572233886734,31.28883934020996,-0.05887357923719618,-0.07804578145345052
3776,-0.6384375091200086,0.438281364440918,83.32745361328125,84.32989501953125,-2.0478172302246094,90.34454345703125,0.01907170613606771,0.4736666666666667,0.42607142857142855,-0.03744396633572049,-4.581162112304689,-1.0216986113281266,31.28883934020996,-0.011138237847222222,-0.08213734096950955
3777,-0.6267187591200086,0.478125114440918,83.32745361328125,86.88714599609375,-2.1705665588378906,90.569580078125,0.005887646145290798,0.4703333333333333,0.42,-0.04119750128851996,-3.91101707751465,-0.48338379199218906,31.28883934020996,-0.03955213758680556,-0.08600162929958767
3778,-0.6423437591200086,0.45820323944091795,83.32745361328125,89.28073120117188,-3.0093421936035156,90.0172119140625,-0.0018409305148654514,0.4673333333333333,0.4164285714285714,-0.04061770968967014,-3.7901712828369156,0.5712720155715942,32.6071891784668,-0.06614752875434028,-0.0891839345296224
3779,-0.6423437591200086,0.45820323944091795,83.32745361328125,89.54668426513672,-2.272857666015625,89.71034240722656,-0.009569507175021702,0.4646666666666667,0.4107142857142857,-0.038847732543945315,-4.3944002562255875,1.4281799793243408,32.6950798034668,-0.0691025627983941,-0.07759111192491319
3780,-0.6384375091200086,0.45820323944091795,83.32745361328125,89.32164001464844,-1.8023223876953125,89.95584106445312,-0.00047704908582899306,0.4623333333333333,0.4075,-0.03732189602322049,-3.932987826416017,1.4721240997314453,32.6950798034668,-0.06660207112630208,-0.07509070502387152
3781,-0.6306250091200086,0.438281364440918,83.32745361328125,90.81507873535156,-1.6591148376464844,91.28561401367188,-0.0059324900309244795,0.459,0.40285714285714286,-0.03588761223687066,-3.284815447875978,1.494096040725708,32.6950798034668,-0.08319583468967014,-0.08827476501464844
3782,-0.6384375091200086,0.45820323944091795,83.32745361328125,90.77416229248047,-2.2114830017089844,90.24225616455078,-0.0054779052734375,0.45466666666666666,0.3992857142857143,-0.03579605950249566,-3.603409426757814,1.6369140148162842,32.6950798034668,-0.08274120754665798,-0.08281932406955295
3783,-0.6071875091200086,0.478125114440918,83.32745361328125,89.32164001464844,-1.7614059448242188,89.48530578613281,-0.0034320831298828127,0.451,0.395,-0.03713879055447049,-4.647078173706056,0.8459219932556152,32.6950798034668,-0.06660207112630208,-0.06940790812174479
3784,-0.6032812591200086,0.478125114440918,83.34790802001953,88.6669921875,-1.5568275451660156,89.91493225097656,-0.010478719075520834,0.44633333333333336,0.3925,-0.03750500149197049,-5.064547198364259,-0.5492998533935562,32.6950798034668,-0.05910093519422743,-0.07190844217936197
3785,-0.6071875091200086,0.45820323944091795,83.30699157714844,89.23981475830078,-1.5363693237304688,90.1195068359375,-0.011387973361545138,0.44133333333333336,0.3889285714285714,-0.03726086086697049,-4.800882952758791,-1.1864878111572281,32.6950798034668,-0.06592025756835937,-0.07395417955186633
3786,-0.5954687591200086,0.438281364440918,83.34790802001953,89.64897155761719,-1.3931617736816406,89.54668426513672,-0.01616151597764757,0.43566666666666665,0.38642857142857145,-0.03649796379937066,-5.042574542114259,-2.142269747802736,32.6950798034668,-0.0700118170844184,-0.06599828932020399
3787,-0.6150000091200086,0.438281364440918,83.34790802001953,89.52622985839844,-0.55438232421875,89.66943359375,-0.018661922878689237,0.43,0.38321428571428573,-0.03649796379937066,-5.207365649291994,-2.6036821776123062,32.6950798034668,-0.0686480204264323,-0.05804239908854167
3788,-0.6150000091200086,0.438281364440918,83.34790802001953,88.93293762207031,-0.6975898742675781,89.68988800048828,-0.008660252888997395,0.424,0.3817857142857143,-0.038695144653320315,-4.844826357910158,-2.493822711059572,32.6950798034668,-0.062055884467230905,-0.0598608652750651
3789,-0.6150000091200086,0.438281364440918,83.32745361328125,89.6080551147461,-1.1476669311523438,88.93293762207031,-0.009342193603515625,0.4176666666666667,0.37892857142857145,-0.04086180792914496,-5.152434008666994,-2.845373766967775,32.6950798034668,-0.06978446112738715,-0.05645116170247396
3790,-0.6228125091200086,0.438281364440918,83.32745361328125,88.44195556640625,0.01844024658203125,88.99431610107422,-0.007978312174479167,0.41133333333333333,0.3775,-0.04321161905924479,-5.4051119261474625,-3.1419969969482437,32.6950798034668,-0.05682779947916667,-0.04417639838324653
3791,-0.6267187591200086,0.438281364440918,83.32745361328125,89.66943359375,-5.014228820800781,87.91004180908203,-0.011160659790039062,0.4046666666666667,0.37535714285714283,-0.04546983506944444,-5.4051119261474625,-3.207913058349611,32.6950798034668,-0.07046644422743055,-0.08804745144314235
3792,-0.6189062591200086,0.438281364440918,83.34790802001953,90.81507873535156,-4.277740478515625,87.05081176757812,-0.010251405504014757,0.39766666666666667,0.3742857142857143,-0.0478806389702691,-5.020601885864259,-2.2741018706054703,32.6950798034668,-0.08296856350368924,-0.07031724717881944
3793,-0.6189062591200086,0.438281364440918,83.34790802001953,86.82576751708984,-3.2139244079589844,88.58515930175781,-0.006841744316948784,0.3913333333333333,0.3732142857142857,-0.05099334716796875,-3.90003074938965,-2.581711428710939,32.6950798034668,-0.03864288330078125,-0.07554537455240885
3794,-0.6189062591200086,0.45820323944091795,83.32745361328125,86.78485107421875,-4.134532928466797,88.19645690917969,-0.006387117173936632,0.38533333333333336,0.37142857142857144,-0.054838477240668405,-3.240870135375978,-2.7574869566650406,42.538761138916016,-0.03841552734375,-0.08145544264051649
3795,-0.6150000091200086,0.45820323944091795,83.34790802001953,88.38057708740234,-3.8890380859375,87.74638366699219,-0.0009316762288411458,0.379,0.36964285714285716,-0.05789010789659288,-3.4276319914550797,-2.2960745268554703,46.142250061035156,-0.05591854519314236,-0.07372690836588541
3796,-0.6228125091200086,0.45820323944091795,83.34790802001953,87.64408874511719,-3.8276634216308594,88.99431610107422,-0.00775099860297309,0.37333333333333335,0.36964285714285716,-0.05914132859971788,-2.7465006285400406,-2.230158465454103,46.142250061035156,-0.047735341389973956,-0.08691088358561198
3797,-0.6423437591200086,0.438281364440918,83.32745361328125,91.1628646850586,-4.052700042724609,87.45996856689453,-0.015024948120117187,0.368,0.3707142857142857,-0.05767652723524305,-2.4498793059082047,-1.2414194517822281,49.5699577331543,-0.08706012301974826,-0.07236298455132378
3798,-0.6501562591200086,0.41835948944091794,83.34790802001953,89.26026916503906,-3.725372314453125,87.33721923828125,-0.007978312174479167,0.3626666666666667,0.3717857142857143,-0.05721876356336805,-1.9555078917236344,-1.1864878111572281,53.70079040527344,-0.06569290161132812,-0.06736212836371527
3799,-0.6228125091200086,0.39843757629394533,83.34790802001953,84.02302551269531,-3.6230850219726562,89.23981475830078,-0.012751854790581597,0.35733333333333334,0.375,-0.05755445692274305,-0.9447962218017594,-1.560013430664064,53.78868103027344,-0.007501305474175347,-0.0873655531141493
3800,-0.6267187591200086,0.3785157012939453,83.34790802001953,89.34210205078125,-4.461860656738281,89.34210205078125,-0.011842600504557292,0.3546666666666667,0.3767857142857143,-0.054655371771918405,-0.6371885710449234,-1.4281813078613297,53.78868103027344,-0.06660215589735242,-0.09782180786132813
3801,-0.6267187591200086,0.33867195129394534,83.34790802001953,92.10392761230469,-4.339115142822266,87.93049621582031,-0.01002409193250868,0.34933333333333333,0.3782142857142857,-0.05151214599609375,-1.153530734130861,-0.4614130430908219,53.78868103027344,-0.09728910658094618,-0.08077345954047309
3802,-0.6423437591200086,0.3585938262939453,83.34790802001953,87.58271789550781,-4.134532928466797,89.46485137939453,0.006342273288302952,0.348,0.3796428571428571,-0.05300746493869358,-0.7140909605712906,0.12084600329399109,53.78868103027344,-0.0470534430609809,-0.09554871453179253
3803,-0.6501562591200086,0.3785157012939453,83.32745361328125,87.99187469482422,-4.66644287109375,90.05813598632812,0.0017960866292317708,0.3456666666666667,0.3807142857142857,-0.054838477240668405,-0.5053564482421891,-0.2526785307617203,53.78868103027344,-0.05182690090603299,-0.1080508761935764
3804,-0.6540625091200086,0.3785157012939453,83.32745361328125,90.40591430664062,-4.789188385009766,89.28073120117188,-0.0059324900309244795,0.3436666666666667,0.38107142857142856,-0.05550982157389323,-1.0546575957031266,0.2746500074863434,53.78868103027344,-0.07864956325954861,-0.10077688429090711
3805,-0.6345312591200086,0.3785157012939453,83.34790802001953,90.40591430664062,-6.078044891357422,90.09904479980469,-0.0011589898003472221,0.342,0.3821428571428571,-0.05538775126139323,-1.2963491850585953,0.4943700134754181,53.78868103027344,-0.07842229207356771,-0.12418988545735678
3806,-0.6696875091200086,0.3785157012939453,83.34790802001953,90.32408142089844,-5.464302062988281,90.20133972167969,-0.002522828843858507,0.34,0.3821428571428571,-0.054228125678168405,-2.0653692656250016,0.6921180486679077,53.78868103027344,-0.0775130377875434,-0.11850713094075521
3807,-0.6462500091200086,0.3585938262939453,83.34790802001953,89.83309936523438,-5.484760284423828,90.61050415039062,-0.018889236450195312,0.33666666666666667,0.38357142857142856,-0.05291591220431858,-2.7794596129150406,-0.2746511870117203,53.78868103027344,-0.07205768161349826,-0.12328071594238281
3808,-0.6735937591200086,0.3785157012939453,83.34790802001953,85.5982894897461,-5.11651611328125,88.70790100097656,0.001341459486219618,0.33466666666666667,0.3846428571428571,-0.053831397162543405,-3.229883807250978,-0.5822588377685562,53.78868103027344,-0.02500423855251736,-0.09804907904730903
3809,-0.6579687591200086,0.3585938262939453,83.34790802001953,86.80531311035156,-4.625526428222656,88.99431610107422,-0.0075236850314670135,0.331,0.3875,-0.05325160556369358,-2.6915708952636734,0.19774800539016724,53.78868103027344,-0.038415612114800345,-0.0957760281032986
3810,-0.6696875091200086,0.3585938262939453,83.34790802001953,89.89447021484375,-4.5846099853515625,89.73080444335938,-0.004114023844401042,0.3283333333333333,0.3889285714285714,-0.05239711337619358,-1.8456484251709,1.812690019607544,53.78868103027344,-0.07273957994249132,-0.10350460476345485
3811,-0.6540625091200086,0.3785157012939453,83.34790802001953,89.52622985839844,-5.321098327636719,90.569580078125,0.00770615471733941,0.325,0.39071428571428574,-0.05154266357421875,-1.175503390380861,1.922550082206726,53.0855598449707,-0.0686480204264323,-0.12100753784179688
3812,-0.6774999813422309,0.3585938262939453,83.36836242675781,92.574462890625,-5.934837341308594,89.0761489868164,-0.012751854790581597,0.323,0.3914285714285714,-0.04751447041829427,-1.7248026304931656,1.6259280443191528,51.767208099365234,-0.10229000515407986,-0.1112331814236111
3813,-0.6774999813422309,0.3585938262939453,83.34790802001953,88.29874420166016,-4.911937713623047,90.36500549316406,-0.007296371459960938,0.321,0.3917857142857143,-0.04540879991319444,-2.2960745268554703,1.6918439865112305,51.6793212890625,-0.05500929090711806,-0.1141882578531901
3814,-0.6735937591200086,0.33867195129394534,83.34790802001953,87.23492431640625,-6.180332183837891,89.23981475830078,-0.009569507175021702,0.319,0.39285714285714285,-0.043913480970594616,-2.6915708952636734,0.4394400119781494,50.27307891845703,-0.04318906995985243,-0.11577941046820747
3815,-0.6892187313422309,0.33867195129394534,83.34790802001953,88.564697265625,-5.382472991943359,89.64897155761719,-0.0011589898003472221,0.31633333333333336,0.39357142857142857,-0.04217406378851996,-3.515520709106447,0.32958000898361206,49.5699577331543,-0.057964324951171875,-0.11146049499511719
3816,-0.6774999813422309,0.3187500762939453,83.34790802001953,88.38057708740234,-5.546134948730469,91.10148620605469,-0.010933346218532987,0.314,0.3942857142857143,-0.04000735812717014,-3.1200243406982437,0.4723980128765106,49.13050842285156,-0.05591854519314236,-0.12941801283094617
3817,-0.6814062313422309,0.3187500762939453,83.34790802001953,89.38301849365234,-5.627967834472656,89.62850952148438,-0.007296371459960938,0.31033333333333335,0.39464285714285713,-0.03982425265842014,-3.526507037231447,0.9228240251541138,48.86684036254883,-0.06705678304036458,-0.11396085951063369
3818,-0.7087499813422309,0.3585938262939453,83.34790802001953,90.99920654296875,-5.627967834472656,90.1604232788086,0.018389765421549478,0.307,0.395,-0.04180785285101996,-3.6693254881591812,1.4391660690307617,47.72426986694336,-0.0850144280327691,-0.11987101236979167
3819,-0.6931249813422309,0.3785157012939453,83.34790802001953,91.49018859863281,-5.566593170166016,88.25782775878906,0.008842722574869791,0.303,0.39535714285714285,-0.04278437296549479,-3.976933138916017,1.581984043121338,47.46059799194336,-0.09046978420681423,-0.0980491214328342
3820,-0.6540625091200086,0.3585938262939453,83.34790802001953,88.09416198730469,-5.157432556152344,91.2242431640625,-0.003886710272894965,0.2976666666666667,0.3960714285714286,-0.04247919718424479,-3.90003074938965,0.3954960107803345,47.196929931640625,-0.052736155192057294,-0.1264630635579427
3821,-0.6814062313422309,0.3585938262939453,83.34790802001953,88.564697265625,-5.709800720214844,88.09416198730469,-0.011615286933051215,0.2936666666666667,0.3960714285714286,-0.04131957160101996,-4.712994235107423,-0.4064833098144547,44.91178894042969,-0.057964324951171875,-0.09782180786132813
3822,-0.6696875091200086,0.3585938262939453,83.34790802001953,86.80531311035156,-4.482318878173828,90.34454345703125,-0.011387973361545138,0.28933333333333333,0.3960714285714286,-0.04281489054361979,-4.108765261718752,-0.02197326953125156,44.82389831542969,-0.038415612114800345,-0.10918735928005642
3823,-0.6423437591200086,0.33867195129394534,83.34790802001953,91.28561401367188,-4.789188385009766,90.93782806396484,-0.005705218844943577,0.2853333333333333,0.3960714285714286,-0.04150267706976996,-3.3177725249023453,0.7690200209617615,44.82389831542969,-0.08819673326280382,-0.11918907165527344
3824,-0.6853124813422309,0.33867195129394534,83.34790802001953,89.87400817871094,-4.830104827880859,90.1195068359375,-0.01775266859266493,0.281,0.39535714285714285,-0.038115310668945315,-3.537493365356447,1.1974740028381348,44.82389831542969,-0.07251222398546008,-0.11055124070909288
3825,-0.6618750091200086,0.3585938262939453,83.36836242675781,87.6031723022461,-6.1394195556640625,90.569580078125,0.008615409003363715,0.2776666666666667,0.395,-0.04034305148654514,-3.515520709106447,0.26366400718688965,44.82389831542969,-0.0470534430609809,-0.1300999959309896
3826,-0.6892187313422309,0.39843757629394533,83.34790802001953,90.85599517822266,-4.66644287109375,89.95584106445312,0.006114959716796875,0.274,0.3939285714285714,-0.04250971476236979,-3.965946810791017,0.9777539968490601,44.82389831542969,-0.0834231906467014,-0.10691426595052084
3827,-0.6892187313422309,0.39843757629394533,83.40928649902344,86.02790832519531,-5.136974334716797,89.77172088623047,-0.003886710272894965,0.26966666666666667,0.3942857142857143,-0.04229609171549479,-3.7132688933105484,-0.13183273608398594,44.82389831542969,-0.02909579806857639,-0.11009661356608073
3828,-0.7243749813422309,0.39843757629394533,83.34790802001953,89.68988800048828,-5.402931213378906,89.30118560791016,-0.022526211208767362,0.2653333333333333,0.39357142857142857,-0.039274978637695315,-4.284540789672853,-0.2856375151367203,43.76921844482422,-0.07046644422743055,-0.10782352023654514
3829,-0.6892187313422309,0.3785157012939453,83.36836242675781,92.77904510498047,-5.034687042236328,89.40347290039062,-0.009342193603515625,0.26,0.39357142857142857,-0.03951907687717014,-4.36144317919922,0.8898659944534302,43.68132781982422,-0.10456314086914062,-0.10486844380696615
3830,-0.6423437591200086,0.39843757629394533,83.36836242675781,89.19889831542969,-5.034687042236328,88.42149353027344,0.012252383761935763,0.25533333333333336,0.39321428571428574,-0.04299799601236979,-3.976933138916017,0.10986000299453735,43.68132781982422,-0.06478373209635417,-0.09395756191677518
3831,-0.6735937591200086,0.39843757629394533,83.36836242675781,87.54179382324219,-4.5846099853515625,89.05569458007812,-0.007069057888454861,0.25133333333333335,0.39285714285714285,-0.04263178507486979,-3.1310106688232437,-0.9447962218017594,43.68132781982422,-0.0463714599609375,-0.09600338406032986
3832,-0.6970312313422309,0.3585938262939453,83.36836242675781,89.6080551147461,-4.830104827880859,90.26271057128906,-0.030027474297417533,0.24833333333333332,0.3921428571428571,-0.038145828247070315,-2.834389346191408,-1.560013430664064,43.68132781982422,-0.06932991875542535,-0.11214239332411025
3833,-0.7204687313422309,0.3585938262939453,83.36836242675781,88.0123291015625,-5.014228820800781,90.05813598632812,-0.0054779052734375,0.24433333333333335,0.39107142857142857,-0.03689464992947049,-2.7794596129150406,-0.6371885710449234,43.68132781982422,-0.05159962972005208,-0.11191516452365452
3834,-0.6931249813422309,0.3187500762939453,83.36836242675781,88.93293762207031,-5.791633605957031,89.79217529296875,-0.00843293931749132,0.23966666666666667,0.39,-0.03594864739312066,-3.504534380981447,-1.0546575957031266,43.68132781982422,-0.06182861328125,-0.1175978766547309
3835,-0.6853124813422309,0.3187500762939453,83.36836242675781,88.91248321533203,-4.871021270751953,88.564697265625,-0.003204769558376736,0.23633333333333334,0.3892857142857143,-0.03781017727322049,-3.603409426757814,-0.845923083374025,43.68132781982422,-0.061601342095269095,-0.09373020595974392
3836,-0.6228125091200086,0.3187500762939453,83.38882446289062,85.84378051757812,-4.850563049316406,90.0172119140625,0.006342273288302952,0.23233333333333334,0.38785714285714284,-0.04067874484592014,-3.3067861967773453,-0.3405672484130875,43.68132781982422,-0.027277289496527777,-0.1096419440375434
3837,-0.6540625091200086,0.29882820129394533,83.36836242675781,87.64408874511719,-5.566593170166016,89.77172088623047,-0.015934202406141493,0.22833333333333333,0.3871428571428571,-0.03787121242947049,-3.4166475706787125,-0.4394403868408219,43.68132781982422,-0.04750807020399306,-0.11487015618218316
3838,-0.6696875091200086,0.25898443222045897,83.36836242675781,86.68256378173828,-5.177890777587891,88.58515930175781,-0.015252261691623263,0.22533333333333333,0.38535714285714284,-0.033690388997395834,-3.504534380981447,-0.9447962218017594,41.48408126831055,-0.03682445949978298,-0.09736722310384115
3839,-0.7321874813422309,0.25898443222045897,83.36836242675781,88.13508605957031,-4.625526428222656,89.1579818725586,-0.02548124525282118,0.22033333333333333,0.3842857142857143,-0.030638758341471353,-3.4715773039550797,0.13183200359344482,41.48408126831055,-0.05296359592013889,-0.09759453667534722
3840,-0.7321874813422309,0.29882820129394533,83.36836242675781,91.26515197753906,-4.789188385009766,88.6669921875,0.014070849948459202,0.21766666666666667,0.38285714285714284,-0.03350732591417101,-3.0321375303955094,1.9774800539016724,41.48408126831055,-0.08774210611979166,-0.09395756191677518
3841,-0.6931249813422309,0.3187500762939453,83.36836242675781,88.40103149414062,-4.727817535400391,89.68988800048828,0.014070849948459202,0.21466666666666667,0.3821428571428571,-0.03576554192437066,-2.7574869566650406,1.2304320335388184,42.97821044921875,-0.05591854519314236,-0.10464117262098524
3842,-0.6579687591200086,0.29882820129394533,83.36836242675781,90.26271057128906,-4.66644287109375,89.34210205078125,-0.023435465494791665,0.20933333333333334,0.38142857142857145,-0.033842976888020834,-2.6256548338623062,0.1538040041923523,43.153987884521484,-0.07660386827256944,-0.10009494357638889
3843,-0.6423437591200086,0.29882820129394533,83.36836242675781,89.81263732910156,-4.8096466064453125,87.86912536621094,0.005205747816297743,0.20533333333333334,0.38035714285714284,-0.034239705403645834,-2.933262484619142,0.04394400119781494,43.241878509521484,-0.07160305447048611,-0.08531968858506944
3844,-0.7087499813422309,0.3187500762939453,83.36836242675781,88.89202880859375,-4.339115142822266,89.99675750732422,-0.007978312174479167,0.203,0.37892857142857145,-0.033965047200520834,-2.6146685057373062,0.8129640221595764,43.241878509521484,-0.061374070909288196,-0.10373191833496094
3845,-0.6618750091200086,0.3187500762939453,83.36836242675781,94.70210266113281,-5.075603485107422,89.09660339355469,0.00543306138780382,0.19833333333333333,0.37857142857142856,-0.034148152669270834,-2.6586119108886734,1.7577600479125977,43.241878509521484,-0.12593044704861112,-0.10191340976291233
3846,-0.6189062591200086,0.3187500762939453,83.38882446289062,88.74882507324219,-4.830104827880859,89.1170654296875,0.0006595187717013889,0.19433333333333333,0.3775,-0.034392293294270834,-3.174954073974611,-0.3625379973144547,43.241878509521484,-0.05955556233723958,-0.09941300286187066
3847,-0.7087499813422309,0.3187500762939453,83.34790802001953,86.35523986816406,-5.014228820800781,89.40347290039062,-0.022980838351779515,0.19066666666666668,0.37714285714285717,-0.03234765794542101,-3.987919467041017,-1.6259294920654312,43.241878509521484,-0.033414798312717015,-0.10464113023546007
3848,-0.7126562313422309,0.33867195129394534,83.36836242675781,84.5140151977539,-4.523235321044922,88.89202880859375,-0.0011589898003472221,0.186,0.37714285714285717,-0.034605916341145834,-3.867073672363283,-1.8126913481445328,43.241878509521484,-0.012729475233289931,-0.09350293477376302
3849,-0.6501562591200086,0.3187500762939453,83.36836242675781,87.43951416015625,-4.7482757568359375,89.26026916503906,-0.003204769558376736,0.18133333333333335,0.37714285714285717,-0.03707775539822049,-3.7132688933105484,-1.0216986113281266,43.241878509521484,-0.04523501925998264,-0.10009494357638889
3850,-0.6892187313422309,0.3187500762939453,83.36836242675781,87.29630279541016,-4.707359313964844,89.2193603515625,-0.018207295735677084,0.17633333333333334,0.37714285714285717,-0.03570450676812066,-3.823128359863283,-0.9557825499267594,43.241878509521484,-0.04364378187391493,-0.09918577406141493
3851,-0.7282812313422309,0.33867195129394534,83.36836242675781,87.562255859375,-4.400489807128906,88.21691131591797,-0.012069914076063368,0.17233333333333334,0.37714285714285717,-0.03695568508572049,-3.7462259703369156,-0.6152159147949234,43.241878509521484,-0.04659881591796875,-0.08463779025607639
3852,-0.6774999813422309,0.3187500762939453,83.36836242675781,92.61538696289062,-4.523235321044922,87.74638366699219,-0.0066144307454427086,0.16666666666666666,0.3775,-0.03723034328884549,-3.284815447875978,0.5053560137748718,43.241878509521484,-0.10274471706814237,-0.08077354431152343
3853,-0.7009374813422309,0.29882820129394533,83.36836242675781,89.48530578613281,-4.1959075927734375,88.95339965820312,-0.009114880032009548,0.16166666666666665,0.37785714285714284,-0.03515519036187066,-2.4608656340332047,-0.5712725096435562,43.241878509521484,-0.0679660373263889,-0.09054785834418402
3854,-0.7009374813422309,0.29882820129394533,83.38882446289062,90.26271057128906,-4.339115142822266,88.03279113769531,-0.011387973361545138,0.157,0.37714285714285717,-0.034453328450520834,-2.175228732177736,-0.7250772886962906,43.241878509521484,-0.0763765123155382,-0.08191006978352865
3855,-0.6814062313422309,0.29882820129394533,83.38882446289062,86.31431579589844,-4.154991149902344,89.28073120117188,0.014980104234483507,0.153,0.37642857142857145,-0.03655895657009549,-2.0653692656250016,-0.5602861815185562,43.241878509521484,-0.03250545925564236,-0.0937302483452691
3856,-0.6657812591200086,0.2789063262939453,83.38882446289062,86.47798156738281,-4.543693542480469,88.99431610107422,-0.014343007405598959,0.14866666666666667,0.37535714285714283,-0.03582657708062066,-2.263117449829103,-1.7467752867431656,43.241878509521484,-0.034323967827690975,-0.0948667738172743
3857,-0.7009374813422309,0.29882820129394533,83.36836242675781,85.5164566040039,-4.3595733642578125,88.93293762207031,-0.01070603264702691,0.145,0.3742857142857143,-0.03686413235134549,-2.4388929777832047,-0.7800070219726578,43.241878509521484,-0.02386771308051215,-0.09213901095920139
3858,-0.6618750091200086,0.29882820129394533,83.38882446289062,88.74882507324219,-4.400489807128906,89.1170654296875,0.009070036146375868,0.14166666666666666,0.37285714285714283,-0.039213943481445315,-2.3729769163818375,0.9777539968490601,43.241878509521484,-0.05955556233723958,-0.0946395026312934
3859,-0.6853124813422309,0.3187500762939453,83.36836242675781,91.0196533203125,-4.318656921386719,88.27828979492188,0.001341459486219618,0.13833333333333334,0.37214285714285716,-0.039244461059570315,-2.219172137329103,1.7907180786132812,43.241878509521484,-0.08501434326171875,-0.08441051907009549
3860,-0.6657812591200086,0.29882820129394533,83.36836242675781,88.62606811523438,-4.5846099853515625,88.0737075805664,-0.0043413374159071184,0.13433333333333333,0.3717857142857143,-0.03747448391384549,-1.8566347532959,1.0986000299453735,43.241878509521484,-0.058418952094184025,-0.08509241739908854
3861,-0.6267187591200086,0.2789063262939453,83.38882446289062,90.46729278564453,-3.909496307373047,89.23981475830078,-0.009342193603515625,0.13033333333333333,0.37107142857142855,-0.03576554192437066,-1.9884668760986344,1.4611380100250244,43.241878509521484,-0.07864964803059896,-0.0905479007297092
3862,-0.6189062591200086,0.2789063262939453,83.38882446289062,84.88226318359375,-4.9733123779296875,87.95095825195312,0.0017960866292317708,0.12866666666666668,0.37,-0.033812459309895834,-2.0543829375000016,0.4284540116786957,43.241878509521484,-0.016593763563368055,-0.08804745144314235
3863,-0.7048437313422309,0.29882820129394533,83.36836242675781,82.83645629882812,-4.3595733642578125,88.50332641601562,0.0004322052001953125,0.12433333333333334,0.3692857142857143,-0.03246972825792101,-1.9664942198486344,-0.02197326953125156,43.241878509521484,0.0059100680881076385,-0.0873655531141493
3864,-0.6462500091200086,0.239062557220459,83.38882446289062,91.0196533203125,-4.154991149902344,88.42149353027344,-0.01002409193250868,0.12,0.3682142857142857,-0.028990851508246526,-2.186215060302736,1.1645159721374512,43.241878509521484,-0.0847869873046875,-0.08418316311306423
3865,-0.7204687313422309,0.2789063262939453,83.36836242675781,90.1604232788086,-4.11407470703125,87.76683807373047,0.011797756618923612,0.11766666666666667,0.3682142857142857,-0.029326544867621526,-1.9115644865722672,1.4611380100250244,43.241878509521484,-0.07546734280056423,-0.07645458645290798
3866,-0.7282812313422309,0.29882820129394533,83.38882446289062,87.29630279541016,-3.7662887573242188,87.76683807373047,-0.0034320831298828127,0.114,0.36714285714285716,-0.029082404242621526,-1.7467752867431656,1.1974740028381348,43.241878509521484,-0.04341642591688368,-0.07259029812282985
3867,-0.6774999813422309,0.29882820129394533,83.38882446289062,87.1121826171875,-3.4389610290527344,87.99187469482422,0.004751120673285591,0.11066666666666666,0.36714285714285716,-0.030730311075846353,-0.856909411499025,0.19774800539016724,46.142250061035156,-0.04137064615885417,-0.07145373026529948
3868,-0.6189062591200086,0.25898443222045897,83.38882446289062,91.89935302734375,-4.461860656738281,88.42149353027344,-0.0022955152723524307,0.107,0.36642857142857144,-0.029479090372721353,-0.8788801604003922,0.7580339908599854,46.933258056640625,-0.09456142849392361,-0.08759282430013021
3869,-0.6814062313422309,0.2789063262939453,83.38882446289062,89.36256408691406,-4.605068206787109,89.79217529296875,-0.0168434566921658,0.10366666666666667,0.36678571428571427,-0.026152801513671876,-1.1095873289794937,0.5273280143737793,47.109039306640625,-0.06637488471137153,-0.104413816663954
3870,-0.6853124813422309,0.2789063262939453,83.38882446289062,87.78729248046875,-4.645984649658203,89.0761489868164,-0.012751854790581597,0.10066666666666667,0.36607142857142855,-0.027159839206271703,-1.9225508146972672,-1.8786074095459,47.109039306640625,-0.04887186686197917,-0.09691259596082899
3871,-0.6345312591200086,0.25898443222045897,83.38882446289062,89.1170654296875,-4.686901092529297,88.81019592285156,-0.006159803602430555,0.09733333333333333,0.36607142857142855,-0.028227912055121526,-2.142269747802736,-1.2853628569335953,46.40591812133789,-0.06364712185329861,-0.09441218905978732
3872,-0.6345312591200086,0.25898443222045897,83.38882446289062,89.46485137939453,-4.605068206787109,89.30118560791016,-0.009342193603515625,0.09433333333333334,0.36607142857142855,-0.029204474555121526,-2.504809039184572,-1.3732515745849625,46.318031311035156,-0.06751141018337674,-0.0989583757188585
3873,-0.6931249813422309,0.25898443222045897,83.38882446289062,88.97386169433594,-5.832546234130859,89.1579818725586,-0.01002409193250868,0.09066666666666667,0.36642857142857144,-0.029906336466471353,-2.581711428710939,-2.219172137329103,45.26335144042969,-0.06205596923828125,-0.11100586785210503
3874,-0.6892187313422309,0.25898443222045897,83.38882446289062,83.40928649902344,-4.502777099609375,88.31919860839844,-0.011387973361545138,0.08633333333333333,0.36642857142857144,-0.030547205607096353,-2.790444033691408,-2.230158465454103,45.26335144042969,-0.00022735595703125,-0.08691084120008681
3875,-0.6579687591200086,0.239062557220459,83.38882446289062,84.28897857666016,-4.073158264160156,89.85355377197266,-0.00297745598687066,0.08266666666666667,0.36642857142857144,-0.03298852708604601,-2.3949495726318375,-2.0433966093750016,45.26335144042969,-0.010001712375217013,-0.09918568929036459
3876,-0.6892187313422309,0.2789063262939453,83.38882446289062,90.34454345703125,-4.543693542480469,87.37813568115234,0.0015687730577256945,0.07866666666666666,0.36607142857142855,-0.03619278801812066,-2.3510042601318375,-1.0107122832031266,45.26335144042969,-0.0772857666015625,-0.07690921359592014
3877,-0.6931249813422309,0.29882820129394533,83.38882446289062,81.48623657226562,-4.1959075927734375,89.42393493652344,0.006342273288302952,0.076,0.36642857142857144,-0.03979373508029514,-2.0104395323486344,-0.3405672484130875,45.26335144042969,0.02113986545138889,-0.0957760281032986
3878,-0.7009374813422309,0.3187500762939453,83.40928649902344,87.84866333007812,-5.914379119873047,89.26026916503906,-0.011387973361545138,0.07166666666666667,0.36642857142857144,-0.04003787570529514,-2.252131121704103,-0.05493034655761875,45.26335144042969,-0.04932640923394097,-0.11305164761013455
3879,-0.7009374813422309,0.2789063262939453,83.38882446289062,84.96409606933594,-3.8276634216308594,88.99431610107422,-0.0075236850314670135,0.06766666666666667,0.36678571428571427,-0.03686413235134549,-3.4496046477050797,-0.15380539233398594,44.12078094482422,-0.01750301784939236,-0.08691088358561198
3880,-0.7321874813422309,0.239062557220459,83.40928649902344,91.7152328491211,-3.479877471923828,87.15309143066406,-0.021162372165256075,0.06433333333333334,0.36714285714285716,-0.03201200697157118,-3.273829119750978,-0.09887375170898594,44.12078094482422,-0.09228829277886284,-0.06258854336208768
3881,-0.7439062313422309,0.239062557220459,83.40928649902344,85.53691101074219,-3.5617103576660156,87.84866333007812,-0.0022955152723524307,0.060333333333333336,0.3675,-0.030028406778971353,-2.0653692656250016,1.175502061843872,44.12078094482422,-0.023640272352430554,-0.07122637430826823
3882,-0.7165624813422309,0.219140682220459,83.40928649902344,93.576904296875,-3.745830535888672,87.37813568115234,-0.0018409305148654514,0.05566666666666667,0.3675,-0.029234992133246526,-1.0986010008544937,1.5160679817199707,44.03289031982422,-0.11297353108723958,-0.0680440690782335
3883,-0.7439062313422309,0.25898443222045897,83.40928649902344,93.7201156616211,-3.66400146484375,88.03279113769531,-0.007069057888454861,0.051333333333333335,0.3675,-0.028807746039496526,-0.6262022429199234,1.3622640371322632,44.38444900512695,-0.1145647684733073,-0.07440880669487847
3884,-0.7321874813422309,0.2789063262939453,83.40928649902344,82.59095764160156,-3.7867469787597656,88.38057708740234,0.01884439256456163,0.04933333333333333,0.36642857142857144,-0.03137113783094618,-0.17577614123535312,-0.2307058745117203,45.52701950073242,0.009092542860243056,-0.07963693406846788
3885,-0.7478124813422309,0.29882820129394533,83.40928649902344,82.550048828125,-3.868579864501953,88.93293762207031,-0.007069057888454861,0.04633333333333333,0.36607142857142855,-0.03115751478407118,-0.08788933093261875,-0.6371885710449234,45.52701950073242,0.009547085232204862,-0.08668352762858073
3886,-0.6501562591200086,0.19921878814697266,83.40928649902344,89.17843627929688,-4.4209442138671875,89.36256408691406,-0.009342193603515625,0.042666666666666665,0.365,-0.027648120456271703,-0.4614130430908219,-0.2746511870117203,45.52701950073242,-0.06410166422526041,-0.09759453667534722
3887,-0.7712499813422309,0.19921878814697266,83.38882446289062,92.04255676269531,-4.605068206787109,87.91004180908203,-0.02548124525282118,0.039,0.36428571428571427,-0.02242974175347222,-1.538040774414064,0.9997260570526123,45.52701950073242,-0.09615258110894097,-0.083501222398546
3888,-0.7556249813422309,0.219140682220459,83.40928649902344,78.37661743164062,-4.257282257080078,87.95095825195312,-0.00297745598687066,0.03666666666666667,0.36357142857142855,-0.02407764858669705,-1.6479002409667984,0.5932440161705017,45.52701950073242,0.05591854519314236,-0.08009156121148003
3889,-0.7243749813422309,0.19921878814697266,83.40928649902344,94.82484436035156,-4.4209442138671875,87.72592163085938,0.015889358520507813,0.033,0.3632142857142857,-0.02319268120659722,-1.4062086516113297,1.6808580160140991,45.52701950073242,-0.1268395317925347,-0.0794096204969618
3890,-0.7868749813422309,0.17929691314697266,83.40928649902344,93.2291259765625,-3.8072052001953125,88.03279113769531,-0.01661614312065972,0.029333333333333333,0.3625,-0.01559401618109809,-1.505081790039064,1.8786060810089111,45.52701950073242,-0.1091093275282118,-0.07599995930989584
3891,-0.7907812313422309,0.17929691314697266,83.40928649902344,85.82332611083984,-5.11651611328125,88.70790100097656,-0.0034320831298828127,0.02666666666666667,0.3628571428571429,-0.013946109347873263,-1.2524038725585953,0.6701459884643555,45.26335144042969,-0.026822662353515624,-0.09804907904730903
3892,-0.7556249813422309,0.15937503814697265,83.40928649902344,83.18424987792969,-3.275299072265625,89.46485137939453,0.032483079698350695,0.022333333333333334,0.36178571428571427,-0.013427352905273438,-1.6698728972167984,0.1538040041923523,44.29655838012695,0.0025004069010416668,-0.08600167168511284
3893,-0.7985937313422309,0.07968751907348633,83.40928649902344,90.97874450683594,-4.339115142822266,89.71034240722656,-0.02389009263780382,0.018333333333333333,0.36142857142857143,-0.005950758192274305,-0.9447962218017594,-0.6811319761962906,44.29655838012695,-0.08410508897569445,-0.10054952833387587
3894,-0.8024999813422309,0.1195312786102295,83.42974090576172,91.53111267089844,-4.830104827880859,90.05813598632812,0.00543306138780382,0.016,0.3582142857142857,-0.0076291826036241316,-0.3954969816894547,0.8459219932556152,41.39619064331055,-0.09001524183485243,-0.10986934238009982
3895,-0.7517187313422309,0.17929691314697266,83.40928649902344,83.81844329833984,-5.280181884765625,88.23736572265625,0.016116672092013888,0.012666666666666666,0.35642857142857143,-0.01541091071234809,-0.5163427763671891,-0.7800070219726578,41.22040939331055,-0.00454618665907118,-0.09463941786024306
3896,-0.7009374813422309,0.219140682220459,83.38882446289062,82.67279052734375,-2.8865966796875,87.21446990966797,0.0602150387234158,0.011,0.3532142857142857,-0.02255181206597222,0.6481740474700928,-2.219172137329103,41.22040939331055,0.0079559326171875,-0.056678517659505205
3897,-0.7595312313422309,0.15937503814697265,83.40928649902344,81.17935943603516,-5.096061706542969,87.93049621582031,0.009979248046875,0.009666666666666667,0.35,-0.013976626925998263,1.4281799793243408,-2.900305407592775,41.22040939331055,0.024776967366536458,-0.08918397691514757
3898,-0.8806249813422309,0.09960939407348633,83.38882446289062,92.1653060913086,-4.1959075927734375,85.61874389648438,-0.029118262396918403,0.005,0.34535714285714286,-0.008300526936848959,1.2414180040359497,-1.9335371428222672,40.07783889770508,-0.09751646253797742,-0.05349612765842014
3899,-0.9079687313422309,0.17929691314697266,83.40928649902344,94.47706604003906,-0.9840011596679688,85.90515899658203,0.0377112070719401,0.006,0.34285714285714286,-0.01107754177517361,1.9445220232009888,1.2743760347366333,36.29856872558594,-0.12297532823350694,-0.020990668402777777
3900,-0.7868749813422309,0.15937503814697265,83.42974090576172,85.35279846191406,-1.9864425659179688,84.0025634765625,0.07294442918565539,0.0033333333333333335,0.3382142857142857,-0.015014224582248263,2.7355141639709473,-1.142544406005861,34.013431549072266,-0.021367306179470486,-0.010988956027560764
3901,-0.8806249813422309,0.1195312786102295,83.40928649902344,87.62362670898438,0.18210220336914062,82.30455017089844,0.016116672092013888,0.0016666666666666668,0.3342857142857143,-0.008178456624348959,2.8563599586486816,-1.7248026304931656,25.136539459228516,-0.046826002332899304,0.03197280036078559
3902,0.9826562686577691,0.1195312786102295,83.40928649902344,95.00897216796875,1.4914169311523438,81.97721862792969,0.02179942660861545,0.0016666666666666668,0.3289285714285714,-0.0018615298800998264,3.4056601524353027,0.08788800239562988,25.136539459228516,-0.12888539632161458,0.05015775892469618
3903,0.9748437686577691,0.09960939407348633,83.42974090576172,86.43707275390625,0.40714263916015625,82.5091323852539,-0.0323006100124783,0.0,0.325,-0.0,4.075806140899658,-0.6371885710449234,25.136539459228516,-0.033414798312717015,0.03220011393229167
