,WD,WS,AIL_1,AIL_2,ELEV_1,ELEV_2,RUDD,ALT,GS,TH,PTCH,ROLL,PLA_1,AIL,ELEV
9929,-0.4665938059488932,0.219140682220459,84.39126586914062,83.98210144042969,-3.909496307373047,88.19645690917969,0.3764047410753038,0.74,0.49178571428571427,-0.018920347425672744,-1.0876146727294937,-0.5383154326171891,31.113059997558594,0.004546271430121528,-0.07895503573947482
9930,-0.4705000559488932,0.219140682220459,84.77996826171875,84.0434799194336,-3.7867469787597656,88.33966064453125,0.37617746988932294,0.7356666666666667,0.49107142857142855,-0.019347593519422744,-1.0546575957031266,-0.6701475554199234,33.486087799072266,0.008183203803168403,-0.07918230692545573
9931,-0.4509688059488932,0.219140682220459,84.71859741210938,84.14576721191406,-3.7662887573242188,88.13508605957031,0.37617746988932294,0.731,0.49,-0.01992738511827257,-1.0876146727294937,-0.9338098936767594,34.892330169677734,0.006364780002170139,-0.07668194240993924
9932,-0.4470625559488932,0.219140682220459,84.26852416992188,84.08439636230469,-3.7867469787597656,88.1555404663086,0.37572284274631074,0.726,0.48928571428571427,-0.02065980699327257,-0.9667688780517594,-1.2633902006835953,34.980220794677734,0.002045864529079861,-0.07713652716742622
9933,-0.4509688059488932,0.219140682220459,83.92073059082031,83.30699157714844,-3.7867469787597656,88.21691131591797,0.37595011393229166,0.7213333333333334,0.48892857142857143,-0.021544774373372395,-0.9338098936767594,-1.3293062620849625,35.15599822998047,0.006819322374131944,-0.07781842549641928
9934,-0.4626875559488932,0.219140682220459,83.90027618408203,83.22515869140625,-3.7662887573242188,88.1146240234375,0.37617746988932294,0.7166666666666667,0.48857142857142855,-0.022643407185872395,-0.9557825499267594,-0.9447962218017594,35.15599822998047,0.007501305474175347,-0.07645458645290798
9935,-0.4587813059488932,0.219140682220459,83.96165466308594,83.30699157714844,-3.7867469787597656,88.23736572265625,0.3766320970323351,0.7113333333333334,0.4882142857142857,-0.02355889214409722,-0.9557825499267594,-0.5273291044921891,34.980220794677734,0.007274034288194444,-0.07804569668240018
9936,-0.4548750559488932,0.219140682220459,84.63676452636719,84.14576721191406,-3.7867469787597656,88.17599487304688,0.3764047410753038,0.707,0.4882142857142857,-0.02395562065972222,-1.0107122832031266,-0.16478981311035312,35.15599822998047,0.005455525716145834,-0.07736379835340712
9937,-0.4587813059488932,0.219140682220459,84.63676452636719,84.08439636230469,-3.7662887573242188,88.17599487304688,0.3766320970323351,0.702,0.4875,-0.02435230678982205,-0.9557825499267594,-0.2526785307617203,36.1227912902832,0.006137424045138889,-0.07713648478190104
9938,-0.4548750559488932,0.219140682220459,83.85935974121094,83.42974090576172,-3.745830535888672,88.05325317382812,0.37595011393229166,0.697,0.4875,-0.02453541225857205,-0.8678938322753922,-0.6591612272949234,36.29856872558594,0.004773542616102431,-0.07554537455240885
9939,-0.4236250559488932,0.239062557220459,83.75706481933594,83.16378784179688,-3.8276634216308594,88.17599487304688,0.37572284274631074,0.6913333333333334,0.48678571428571427,-0.02490162319607205,-0.6811319761962906,-0.3845106535644547,36.29856872558594,0.006591966417100695,-0.07781842549641928
9940,-0.4314375559488932,0.239062557220459,83.81844329833984,83.16378784179688,-3.7662887573242188,88.19645690917969,0.3764047410753038,0.687,0.48678571428571427,-0.02532886928982205,-0.6481748991699234,0.05493000149726868,36.29856872558594,0.0072739495171440975,-0.0773638407389323
9941,-0.4275313059488932,0.239062557220459,83.77752685546875,83.08195495605469,-3.7662887573242188,88.27828979492188,0.37685936821831595,0.6816666666666666,0.4857142857142857,-0.02517628139919705,-0.5712725096435562,0.7360620498657227,36.1227912902832,0.00772857666015625,-0.0782730950249566
9942,-0.4236250559488932,0.239062557220459,85.35279846191406,84.67768096923828,-3.8072052001953125,88.21691131591797,0.3764047410753038,0.677,0.4857142857142857,-0.02468800014919705,-0.5602861815185562,1.340291976928711,36.29856872558594,0.007501305474175347,-0.07804573906792535
9943,-0.4353438059488932,0.239062557220459,85.53691101074219,83.73661041259766,-3.7662887573242188,88.09416198730469,0.37685936821831595,0.672,0.485,-0.02447437710232205,-0.5053564482421891,1.1095860004425049,36.29856872558594,0.02000333997938368,-0.07622723049587674
9944,-0.4158125559488932,0.239062557220459,83.53202819824219,82.85691833496094,-3.9708709716796875,88.25782775878906,0.37617746988932294,0.6673333333333333,0.48428571428571426,-0.02337578667534722,-0.4394403868408219,0.6262019872665405,36.29856872558594,0.007501220703125,-0.0803188747829861
9945,-0.4197188059488932,0.219140682220459,85.08683776855469,84.39126586914062,-4.052700042724609,88.46240997314453,0.37572284274631074,0.663,0.48392857142857143,-0.021819432576497395,-0.6481748991699234,1.3842360973358154,36.29856872558594,0.00772857666015625,-0.083501222398546
9946,-0.4275313059488932,0.219140682220459,85.06637573242188,84.73905181884766,-3.8072052001953125,88.1555404663086,0.3770867241753472,0.6583333333333333,0.4835714285714286,-0.021300633748372395,-0.9887415343017594,1.7028300762176514,36.29856872558594,0.003636932373046875,-0.0773638407389323
9947,-0.4197188059488932,0.219140682220459,83.63432312011719,83.1024169921875,-4.011787414550781,88.52378845214844,0.3764047410753038,0.6536666666666666,0.4835714285714286,-0.02062928941514757,-0.9338098936767594,1.2743760347366333,36.29856872558594,0.0059100680881076385,-0.08372862074110243
9948,-0.4040938059488932,0.219140682220459,84.90271759033203,83.73661041259766,-3.7662887573242188,88.17599487304688,0.37572284274631074,0.648,0.4832142857142857,-0.019744322035047744,-1.1864878111572281,1.966494083404541,36.29856872558594,0.012956746419270833,-0.07713648478190104
9949,-0.4431563059488932,0.219140682220459,83.47065734863281,83.85935974121094,-3.8481216430664062,88.27828979492188,0.3784506056043837,0.6426666666666667,0.4832142857142857,-0.019011900160047744,-0.9557825499267594,1.4721240997314453,36.29856872558594,-0.0043189154730902775,-0.0791823493109809
9950,-0.4040938059488932,0.19921878814697266,83.18424987792969,82.93875122070312,-3.8276634216308594,88.40103149414062,0.3745863172743056,0.636,0.4832142857142857,-0.01632643805609809,-1.0656420164794937,0.48338401317596436,36.29856872558594,0.002727762858072917,-0.08031883239746093
9951,-0.3611250559488932,0.17929691314697266,85.08683776855469,84.554931640625,-3.684459686279297,88.05325317382812,0.37344970703125,0.6326666666666667,0.4832142857142857,-0.013488388061523438,-1.2084604674072281,0.6921180486679077,36.29856872558594,0.0059100680881076385,-0.0748634762234158
9952,-0.4353438059488932,0.15937503814697265,84.53446960449219,83.96165466308594,-3.725372314453125,88.25782775878906,0.37754135131835936,0.627,0.48428571428571426,-0.013335800170898438,-1.2084604674072281,0.4284540116786957,36.29856872558594,0.006364610460069444,-0.07759111192491319
9953,-0.4587813059488932,0.15937503814697265,84.63676452636719,84.08439636230469,-3.5821685791015625,87.88958740234375,0.37731399536132815,0.622,0.48428571428571426,-0.01260342068142361,-1.175503390380861,0.36253800988197327,36.1227912902832,0.006137424045138889,-0.0719083997938368
9954,-0.4392500559488932,0.13945316314697265,83.94119262695312,84.1048583984375,-3.9913291931152344,88.0737075805664,0.3750409444173177,0.618,0.48428571428571426,-0.011169136895073786,-0.845923083374025,-0.12084640795898594,36.1227912902832,-0.001818508572048611,-0.07850040859646268
9955,-0.4353438059488932,0.13945316314697265,84.82088470458984,84.43218231201172,-3.868579864501953,88.44195556640625,0.3766320970323351,0.6126666666666667,0.48428571428571426,-0.010741890801323786,-1.175503390380861,0.02197200059890747,36.29856872558594,0.0043189154730902775,-0.08122817145453559
9956,-0.4353438059488932,0.13945316314697265,84.5958480834961,83.85935974121094,-3.6230850219726562,88.03279113769531,0.37731399536132815,0.6066666666666667,0.48464285714285715,-0.010680855645073786,-1.5929705076904312,-0.7360617094726578,36.29856872558594,0.008183203803168403,-0.07395417955186633
9957,-0.4197188059488932,0.09960939407348633,83.98210144042969,83.30699157714844,-3.704914093017578,88.1146240234375,0.37390433417426217,0.604,0.48464285714285715,-0.008239534166124132,-1.164517062255861,-2.241144793579103,36.29856872558594,0.007501220703125,-0.07577264573838975
9958,-0.4353438059488932,0.07968751907348633,84.63676452636719,83.69569396972656,-3.5412521362304688,87.82821655273438,0.3745863172743056,0.599,0.48464285714285715,-0.0076291826036241316,-0.9887415343017594,-1.8126913481445328,36.29856872558594,0.010456339518229166,-0.0707718743218316
9959,-0.3923750559488932,0.07968751907348633,84.06393432617188,83.34790802001953,-3.3980445861816406,88.03279113769531,0.3752682156032986,0.594,0.48464285714285715,-0.008697255452473959,-0.7360617094726578,-1.6039568358154312,36.29856872558594,0.007955847846137152,-0.07145373026529948
9960,-0.4431563059488932,0.07968751907348633,84.73905181884766,84.28897857666016,-3.5412521362304688,87.99187469482422,0.3764047410753038,0.589,0.48428571428571426,-0.009704335530598959,-0.4614130430908219,-1.0326849394531266,26.71855926513672,0.0050008138020833336,-0.07259029812282985
9961,-0.3376875559488932,0.09960939407348633,84.63676452636719,84.08439636230469,-3.4389610290527344,87.82821655273438,0.37822324964735243,0.584,0.48392857142857143,-0.01156582302517361,-0.2746511870117203,-0.9887415343017594,26.63067054748535,0.006137424045138889,-0.06963530646430122
9962,-0.4119063059488932,0.09960939407348633,83.26608276367188,82.38638305664062,-3.684459686279297,88.23736572265625,0.3786778767903646,0.5796666666666667,0.4828571428571429,-0.01260342068142361,-0.19774879748535312,-0.9447962218017594,26.63067054748535,0.009774441189236111,-0.07690917121039496
9963,-0.4744063059488932,0.09960939407348633,84.16622924804688,83.53202819824219,-3.868579864501953,88.17599487304688,0.37685936821831595,0.5763333333333334,0.48142857142857143,-0.013305282592773438,-0.3625379973144547,-0.18676246936035312,26.63067054748535,0.007046678331163195,-0.07827305263943142
9964,-0.4705000559488932,0.07968751907348633,84.0434799194336,83.26608276367188,-3.8276634216308594,88.68744659423828,0.37549557156032987,0.5726666666666667,0.48035714285714287,-0.012939071655273438,-0.7470480375976578,0.26366400718688965,26.63067054748535,0.008637746175130209,-0.083501222398546
9965,-0.4470625559488932,0.09960939407348633,84.45263671875,83.73661041259766,-3.8890380859375,88.17599487304688,0.3786778767903646,0.5686666666666667,0.47928571428571426,-0.013885116577148438,-0.7580343657226578,1.2853620052337646,26.63067054748535,0.007955847846137152,-0.0785003662109375
9966,-0.3845625559488932,0.1195312786102295,84.37080383300781,83.92073059082031,-3.5821685791015625,87.72592163085938,0.3766320970323351,0.563,0.4760714285714286,-0.014220767550998263,-0.7690206938476578,1.219446063041687,26.54277992248535,0.0050008138020833336,-0.0700898912217882
9967,-0.4431563059488932,0.13945316314697265,84.30943298339844,83.69569396972656,-3.8276634216308594,87.97142028808594,0.38004175821940106,0.558,0.4742857142857143,-0.015563540988498263,-0.3845106535644547,1.6039559841156006,26.63067054748535,0.006819322374131944,-0.07554537455240885
9968,-0.4314375559488932,0.15937503814697265,83.87982177734375,83.24562072753906,-3.8481216430664062,88.40103149414062,0.3770867241753472,0.5533333333333333,0.4707142857142857,-0.01602126227484809,-0.5273291044921891,1.252403974533081,26.54277992248535,0.007046678331163195,-0.08054614596896702
9969,-0.3767500559488932,0.17929691314697266,85.06637573242188,84.26852416992188,-4.707359313964844,88.78973388671875,0.37481358846028645,0.549,0.4682142857142857,-0.01617385016547309,-0.8788801604003922,1.5160679817199707,26.63067054748535,0.00886501736111111,-0.09441214667426215
9970,-0.4353438059488932,0.19921878814697266,84.53446960449219,83.92073059082031,-5.382472991943359,89.85355377197266,0.38208753797743056,0.545,0.4635714285714286,-0.017882792154947917,-1.120571749755861,1.450152039527893,26.63067054748535,0.006819322374131944,-0.11373363071017795
9971,-0.4353438059488932,0.19921878814697266,83.5115737915039,82.81600189208984,-5.5870513916015625,89.64897155761719,0.37572284274631074,0.5406666666666666,0.46035714285714285,-0.01654006110297309,-2.263117449829103,0.7360620498657227,26.63067054748535,0.00772857666015625,-0.11373358832465277
9972,-0.4861250559488932,0.15937503814697265,83.53202819824219,82.91828918457031,-6.078044891357422,90.42637634277344,0.3745863172743056,0.5376666666666666,0.45607142857142857,-0.013763046264648438,-2.922276156494142,0.38451001048088074,26.63067054748535,0.006819322374131944,-0.127826902601454
9973,-0.4900313059488932,0.1195312786102295,84.1048583984375,83.4501953125,-6.5894927978515625,91.14241027832031,0.3718585544162326,0.534,0.45321428571428574,-0.010741890801323786,-3.6143938475341812,0.24169200658798218,26.63067054748535,0.007274034288194444,-0.14146558973524306
9974,-0.5369063059488932,0.1195312786102295,84.73905181884766,84.16622924804688,-6.569034576416016,90.97874450683594,0.3770867241753472,0.5296666666666666,0.44857142857142857,-0.010497750176323786,-4.3944002562255875,0.8459219932556152,26.63067054748535,0.006364695231119792,-0.13941976759168836
9975,-0.4822188059488932,0.13945316314697265,84.80043029785156,84.22760009765625,-5.873462677001953,90.48774719238281,0.37754135131835936,0.525,0.44571428571428573,-0.010680855645073786,-4.866799014160158,0.9667680263519287,26.54277992248535,0.006364780002170139,-0.1262356652153863
9976,-0.4353438059488932,0.13945316314697265,84.80043029785156,84.0025634765625,-5.627967834472656,89.97630310058594,0.37822324964735243,0.5186666666666667,0.4432142857142857,-0.009887440999348959,-4.306513445922853,0.7360620498657227,26.63067054748535,0.008865186903211806,-0.11782523261176216
9977,-0.4119063059488932,0.1195312786102295,85.16867065429688,84.73905181884766,-5.566593170166016,89.99675750732422,0.3752682156032986,0.5123333333333333,0.44107142857142856,-0.0076291826036241316,-3.7022825651855484,0.13183200359344482,26.63067054748535,0.004773542616102431,-0.11737056308322483
9978,-0.4197188059488932,0.09960939407348633,84.77996826171875,84.16622924804688,-5.689342498779297,90.32408142089844,0.37481358846028645,0.5073333333333333,0.4375,-0.005432001749674479,-3.515520709106447,-0.6591612272949234,26.63067054748535,0.006819322374131944,-0.12237137688530816
9979,-0.4509688059488932,0.07968751907348633,85.63920593261719,85.14820861816406,-5.546134948730469,90.18087768554688,0.37208582560221354,0.5023333333333333,0.43535714285714283,-0.004669062296549479,-3.7681986265869156,-1.0436712675781266,26.54277992248535,0.005455525716145834,-0.11918902926974827
9980,-0.4509688059488932,0.09960939407348633,83.28652954101562,82.77508544921875,-5.525676727294922,89.93538665771484,0.3791325039333767,0.49733333333333335,0.4317857142857143,-0.007903840806749132,-3.7572122984619156,-0.9777552061767594,26.54277992248535,0.005682712131076389,-0.11623403761121961
9981,-0.4587813059488932,0.1195312786102295,83.69569396972656,82.71371459960938,-5.505218505859375,89.87400817871094,0.3784506056043837,0.49166666666666664,0.43,-0.010589302910698786,-3.6583391600341812,-0.6042314940185562,26.54277992248535,0.010910881890190972,-0.11532474093967014
9982,-0.4587813059488932,0.1195312786102295,84.45263671875,83.96165466308594,-5.096061706542969,89.64897155761719,0.3752682156032986,0.48633333333333334,0.42714285714285716,-0.011077584160698786,-3.559464114257814,-0.16478981311035312,26.54277992248535,0.005455356174045139,-0.1082781473795573
9983,-0.4314375559488932,0.13945316314697265,84.554931640625,84.0025634765625,-5.034687042236328,89.19889831542969,0.37731399536132815,0.4806666666666667,0.42464285714285716,-0.01138271755642361,-3.218899386474611,0.24169200658798218,26.54277992248535,0.006137424045138889,-0.10259539286295573
9984,-0.4001875559488932,0.13945316314697265,85.68012237548828,84.14576721191406,-5.566593170166016,89.32164001464844,0.37685936821831595,0.475,0.42142857142857143,-0.011321724785698786,-2.6915708952636734,0.4284540116786957,26.63067054748535,0.017048390706380208,-0.10986925760904948
9985,-0.3962813059488932,0.1195312786102295,84.554931640625,84.43218231201172,-5.7507171630859375,90.03767395019531,0.3745863172743056,0.4703333333333333,0.41964285714285715,-0.009948433770073786,-2.801430361816408,-0.5383154326171891,26.63067054748535,0.0013638814290364584,-0.11987101236979167
9986,-0.4470625559488932,0.09960939407348633,84.02302551269531,83.34790802001953,-5.546134948730469,90.38545989990234,0.3745863172743056,0.465,0.41535714285714287,-0.008910878499348959,-3.6143938475341812,-1.6808592253417984,26.63067054748535,0.007501305474175347,-0.12146216498480902
9987,-0.4314375559488932,0.07968751907348633,84.71859741210938,84.16622924804688,-5.8120880126953125,90.24225616455078,0.37481358846028645,0.46066666666666667,0.41285714285714287,-0.008422639634874132,-4.130736010620119,-1.4281813078613297,26.63067054748535,0.006137424045138889,-0.12282604641384548
9988,-0.4197188059488932,0.07968751907348633,83.34790802001953,84.20714569091797,-5.8939208984375,90.52867126464844,0.3784506056043837,0.4563333333333333,0.40785714285714286,-0.009856923421223959,-3.954960482666017,-1.175503390380861,26.63067054748535,-0.009547085232204862,-0.12691769070095485
9989,-0.5290938059488932,0.07968751907348633,83.67523193359375,82.91828918457031,-6.773616790771484,92.14485168457031,0.3786778767903646,0.45266666666666666,0.405,-0.011321724785698786,-3.823128359863283,-1.0876146727294937,26.63067054748535,0.008410474989149305,-0.15464964972601997
9990,-0.5173750559488932,0.09960939407348633,85.61874389648438,84.71859741210938,-5.955295562744141,90.36500549316406,0.3766320970323351,0.44966666666666666,0.3985714285714286,-0.01214565700954861,-4.965672152587892,0.5822579860687256,26.63067054748535,0.010001627604166667,-0.1257811228434245
9991,-0.5447188059488932,0.1195312786102295,84.61630249023438,84.88226318359375,-6.609951019287109,90.54912567138672,0.37754135131835936,0.44633333333333336,0.395,-0.013488388061523438,-4.756939547607423,0.8019779920578003,26.63067054748535,-0.0029551188151041665,-0.1351008521185981
9992,-0.5290938059488932,0.1195312786102295,83.552490234375,83.63432312011719,-6.2007904052734375,90.81507873535156,0.37549557156032987,0.44333333333333336,0.3896428571428571,-0.013702011108398438,-4.625107424804689,-0.4614130430908219,26.63067054748535,-0.0009092542860243056,-0.13350965711805557
9993,-0.5056563059488932,0.1195312786102295,83.77752685546875,83.08195495605469,-5.955295562744141,90.52867126464844,0.3752682156032986,0.43966666666666665,0.38535714285714284,-0.013518905639648438,-4.614121096679689,-0.7360617094726578,26.63067054748535,0.00772857666015625,-0.1275996314154731
9994,-0.4744063059488932,0.1195312786102295,84.41172790527344,83.90027618408203,-6.057586669921875,90.59004211425781,0.3791325039333767,0.43633333333333335,0.38035714285714284,-0.015349917941623263,-4.4383455687255875,-0.2966219359130875,26.63067054748535,0.0056827969021267365,-0.12941809760199652
9995,-0.4080000559488932,0.13945316314697265,84.12531280517578,83.81844329833984,-5.321098327636719,89.73080444335938,0.37617746988932294,0.43266666666666664,0.3767857142857143,-0.01599074469672309,-4.712994235107423,-0.2636648588867203,26.63067054748535,0.003409661187065972,-0.11168780856662326
9996,-0.4431563059488932,0.1195312786102295,83.5934066772461,83.36836242675781,-5.280181884765625,89.52622985839844,0.3723131815592448,0.42933333333333334,0.3717857142857143,-0.01589919196234809,-4.229611056396486,-0.4174677305908219,26.63067054748535,0.002500491672092014,-0.1089601304796007
9997,-0.4314375559488932,0.15937503814697265,83.79798889160156,83.18424987792969,-5.1983489990234375,89.54668426513672,0.38186026679144963,0.42633333333333334,0.36857142857142855,-0.02032411363389757,-3.4715773039550797,-0.15380539233398594,26.63067054748535,0.006819322374131944,-0.1082781473795573
9998,-0.4392500559488932,0.17929691314697266,84.16622924804688,83.79798889160156,-5.014228820800781,89.42393493652344,0.37617746988932294,0.423,0.3632142857142857,-0.021361668904622395,-3.1200243406982437,-0.15380539233398594,32.07984924316406,0.004091559516059028,-0.10486848619249133
9999,-0.4197188059488932,0.17929691314697266,83.5115737915039,82.97966003417969,-4.911937713623047,89.34210205078125,0.3752682156032986,0.42,0.35928571428571426,-0.02111757066514757,-2.944248812744142,-0.18676246936035312,32.4314079284668,0.005910152859157986,-0.10282266404893663
10000,-0.4236250559488932,0.17929691314697266,84.1048583984375,83.18424987792969,-4.830104827880859,89.09660339355469,0.3786778767903646,0.41733333333333333,0.35464285714285715,-0.021422704060872395,-2.7684732847900406,0.2197200059890747,32.4314079284668,0.010228983561197917,-0.09918564690483941
10001,-0.4158125559488932,0.17929691314697266,84.90271759033203,84.47309875488281,-4.502777099609375,88.78973388671875,0.37595011393229166,0.41433333333333333,0.3517857142857143,-0.02096498277452257,-2.6366411619873062,0.5822579860687256,32.6950798034668,0.004773542616102431,-0.09213901095920139
10002,-0.4158125559488932,0.17929691314697266,86.41661071777344,85.23004150390625,-4.605068206787109,88.40103149414062,0.37617746988932294,0.4116666666666667,0.3475,-0.02035463121202257,-2.3949495726318375,0.6371880173683167,37.96847915649414,0.013184102376302083,-0.0889566633436415
10003,-0.4080000559488932,0.17929691314697266,85.74149322509766,85.82332611083984,-4.175449371337891,88.29874420166016,0.37617746988932294,0.4086666666666667,0.34535714285714286,-0.019866392347547744,-2.197201388427736,0.02197200059890747,38.407928466796875,-0.0009092542860243056,-0.08304659525553386
10004,-0.3962813059488932,0.15937503814697265,84.84133911132812,84.554931640625,-4.257282257080078,88.50332641601562,0.3750409444173177,0.4056666666666667,0.34214285714285714,-0.019591734144422744,-1.9884668760986344,-0.9447962218017594,40.95674133300781,0.003182305230034722,-0.08622898525661893
10005,-0.3923750559488932,0.15937503814697265,84.28897857666016,83.90027618408203,-4.3595733642578125,88.58515930175781,0.3741316901312934,0.4026666666666667,0.34035714285714286,-0.019347593519422744,-1.9005781584472672,-1.4171949797363297,41.83563995361328,0.0043189154730902775,-0.08827480740017361
10006,-0.3806563059488932,0.15937503814697265,84.86180114746094,84.16622924804688,-4.318656921386719,88.6056137084961,0.37572284274631074,0.399,0.3382142857142857,-0.02038514879014757,-1.9555078917236344,-1.4391657286376969,42.71453857421875,0.00772857666015625,-0.08804745144314235
10007,-0.3806563059488932,0.15937503814697265,83.67523193359375,83.26608276367188,-4.093616485595703,88.31919860839844,0.37617746988932294,0.39566666666666667,0.3375,-0.021300633748372395,-1.9994532042236344,-1.5709978514404312,42.71453857421875,0.004546101888020833,-0.08236461215549046
10008,-0.3689375559488932,0.13945316314697265,84.02302551269531,83.63432312011719,-3.8072052001953125,87.93049621582031,0.3750409444173177,0.3923333333333333,0.3360714285714286,-0.021605809529622395,-1.9445234709472672,-1.3842359953613297,42.97821044921875,0.0043189154730902775,-0.07486334906684028
10009,-0.3728438059488932,0.13945316314697265,84.0434799194336,83.65477752685547,-3.868579864501953,87.99187469482422,0.37572284274631074,0.389,0.33535714285714285,-0.022277196248372395,-1.6479002409667984,-1.0986010008544937,44.38444900512695,0.0043189154730902775,-0.07622727288140191
10010,-0.3572188059488932,0.15937503814697265,83.92073059082031,83.5115737915039,-4.032245635986328,88.13508605957031,0.37754135131835936,0.385,0.3342857142857143,-0.02374199761284722,-1.3622652464599625,-0.7690206938476578,45.43912887573242,0.00454618665907118,-0.07963701883951822
10011,-0.3494063059488932,0.15937503814697265,84.1048583984375,83.98210144042969,-4.032245635986328,88.31919860839844,0.3764047410753038,0.38133333333333336,0.3339285714285714,-0.02438282436794705,-1.2633902006835953,-0.7031046324462906,45.966468811035156,0.0013639662000868055,-0.0816827138264974
10012,-0.3455000559488932,0.13945316314697265,84.75950622558594,83.36836242675781,-3.9708709716796875,88.0123291015625,0.3741316901312934,0.378,0.33321428571428574,-0.02352837456597222,-1.2414194517822281,-0.5712725096435562,45.966468811035156,0.0154571533203125,-0.07759111192491319
10013,-0.3533125559488932,0.13945316314697265,84.554931640625,83.20470428466797,-4.052700042724609,88.1146240234375,0.37549557156032987,0.375,0.33321428571428574,-0.02313164605034722,-1.0766283446044937,-0.2416922026367203,46.40591812133789,0.015002526177300347,-0.07963693406846788
10014,-0.3533125559488932,0.13945316314697265,84.84133911132812,84.57539367675781,-4.011787414550781,88.17599487304688,0.37617746988932294,0.37166666666666665,0.33321428571428574,-0.02365044487847222,-0.9777552061767594,0.08788800239562988,47.109039306640625,0.0029549492730034724,-0.07986424763997396
10015,-0.3494063059488932,0.13945316314697265,84.67768096923828,84.30943298339844,-4.032245635986328,88.29874420166016,0.37731399536132815,0.36833333333333335,0.33321428571428574,-0.02450489468044705,-0.9777552061767594,0.05493000149726868,47.284820556640625,0.004091644287109375,-0.08145544264051649
10016,-0.3572188059488932,0.13945316314697265,83.47065734863281,84.24806213378906,-4.154991149902344,88.21691131591797,0.3770867241753472,0.36533333333333334,0.33321428571428574,-0.02471851772732205,-0.9997259550781266,-0.2746511870117203,47.284820556640625,-0.008637830946180555,-0.08191002739800347
10017,-0.3572188059488932,0.1195312786102295,83.87982177734375,81.97721862792969,-4.543693542480469,89.09660339355469,0.3745863172743056,0.36233333333333334,0.33321428571428574,-0.02361992730034722,-1.131558077880861,-0.19774879748535312,47.284820556640625,0.021140034993489584,-0.09600329928927952
10018,-0.3455000559488932,0.1195312786102295,85.16867065429688,84.94363403320312,-4.3595733642578125,88.85111236572266,0.37617746988932294,0.359,0.33285714285714285,-0.022216161092122395,-1.6698728972167984,0.6262019872665405,47.284820556640625,0.0025004069010416668,-0.09122984144422742
10019,-0.3376875559488932,0.1195312786102295,83.90027618408203,84.554931640625,-3.9299545288085938,88.25782775878906,0.37595011393229166,0.35533333333333333,0.33321428571428574,-0.02123964097764757,-1.9115644865722672,0.6152160167694092,47.284820556640625,-0.0072739495171440975,-0.07986424763997396
10020,-0.3337813059488932,0.1195312786102295,83.90027618408203,83.53202819824219,-3.8890380859375,88.33966064453125,0.37685936821831595,0.352,0.3339285714285714,-0.02105653550889757,-1.6479002409667984,0.747048020362854,47.284820556640625,0.004091644287109375,-0.0803188747829861
10021,-0.3494063059488932,0.1195312786102295,83.12287139892578,83.42974090576172,-4.625526428222656,88.52378845214844,0.3766320970323351,0.348,0.3342857142857143,-0.02075135972764757,-1.4281813078613297,0.7800060510635376,47.284820556640625,-0.003409661187065972,-0.09054794311523437
10022,-0.3415938059488932,0.1195312786102295,85.82332611083984,82.40684509277344,-4.032245635986328,88.23736572265625,0.3777686225043403,0.3443333333333333,0.33464285714285713,-0.019469663831922744,-1.8017050200195328,1.1864880323410034,47.284820556640625,0.03796090020073785,-0.08077345954047309
10023,-0.3220625559488932,0.1195312786102295,83.75706481933594,84.73905181884766,-3.745830535888672,87.86912536621094,0.37549557156032987,0.3403333333333333,0.33535714285714285,-0.017486063639322917,-1.9884668760986344,1.3732500076293945,47.284820556640625,-0.01091096666124132,-0.073499510023329
10024,-0.3298750559488932,0.1195312786102295,84.26852416992188,82.75462341308594,-4.134532928466797,88.31919860839844,0.3791325039333767,0.337,0.3360714285714286,-0.01663161383734809,-1.4391657286376969,1.5929700136184692,47.284820556640625,0.016821119520399306,-0.0828192392985026
10025,-0.3494063059488932,0.09960939407348633,84.63676452636719,84.0025634765625,-4.154991149902344,88.52378845214844,0.3766320970323351,0.3333333333333333,0.3364285714285714,-0.014953189425998263,-1.2304331236572281,1.8895920515060425,47.284820556640625,0.007046678331163195,-0.08531977335611979
10026,-0.3650313059488932,0.09960939407348633,84.88226318359375,84.53446960449219,-4.318656921386719,88.6056137084961,0.37731399536132815,0.3303333333333333,0.3364285714285714,-0.013579940795898438,-1.3073355131835953,2.3180460929870605,47.284820556640625,0.0038643731011284723,-0.08804745144314235
10027,-0.4236250559488932,0.09960939407348633,86.21202850341797,85.65966796875,-3.9299545288085938,88.44195556640625,0.3766320970323351,0.3263333333333333,0.3364285714285714,-0.012939071655273438,-1.516068118164064,2.361989974975586,47.284820556640625,0.006137339274088541,-0.08191011216905382
10028,-0.4158125559488932,0.1195312786102295,85.57783508300781,86.29386138916016,-4.216365814208984,88.62606811523438,0.3784506056043837,0.32233333333333336,0.33714285714285713,-0.01180996365017361,-1.560013430664064,1.4391660690307617,47.284820556640625,-0.007955847846137152,-0.08713815477159288
10029,-0.3611250559488932,0.09960939407348633,83.4501953125,84.90271759033203,-3.1525497436523438,87.99187469482422,0.37390433417426217,0.31833333333333336,0.33785714285714286,-0.008971913655598959,-1.8676210814209,0.1538040041923523,47.284820556640625,-0.0161391364203559,-0.06827138264973959
10030,-0.3064375559488932,0.07968751907348633,83.81844329833984,83.02058410644531,-3.909496307373047,88.40103149414062,0.3725404527452257,0.31533333333333335,0.3385714285714286,-0.006225416395399305,-1.5929705076904312,-0.04394401843261875,47.284820556640625,0.008865102132161459,-0.08122808668348525
10031,-0.3181563059488932,0.07968751907348633,86.662109375,85.90515899658203,-4.482318878173828,88.89202880859375,0.37595011393229166,0.312,0.3389285714285714,-0.005370966593424479,-1.2304331236572281,0.5712720155715942,47.284820556640625,0.008410559760199653,-0.09304830763075086
10032,-0.3064375559488932,0.07968751907348633,84.80043029785156,84.5140151977539,-4.277740478515625,88.87156677246094,0.37617746988932294,0.30833333333333335,0.3389285714285714,-0.005187861124674479,-1.3952223234863297,0.2526780068874359,47.284820556640625,0.0031823900010850693,-0.09054785834418402
10033,-0.3298750559488932,0.07968751907348633,84.94363403320312,84.53446960449219,-3.909496307373047,88.76927947998047,0.3766320970323351,0.30533333333333335,0.3385714285714286,-0.005340449015299479,-1.7357889586181656,0.05493000149726868,47.284820556640625,0.004546271430121528,-0.08531973097059461
10034,-0.3767500559488932,0.07968751907348633,84.71859741210938,85.18913269042969,-4.011787414550781,88.46240997314453,0.3784506056043837,0.302,0.3392857142857143,-0.005798170301649305,-1.6808592253417984,-0.21972145373535312,47.284820556640625,-0.005228169759114583,-0.08304663764105903
10035,-0.2908125559488932,0.07968751907348633,84.6572265625,85.16867065429688,-4.11407470703125,88.36012268066406,0.3750409444173177,0.29833333333333334,0.33964285714285714,-0.005187861124674479,-1.4831110411376969,-0.4723993712158219,47.46059799194336,-0.005682712131076389,-0.08304663764105903
10036,-0.2986250559488932,0.07968751907348633,85.29141998291016,84.94363403320312,-4.318656921386719,88.6056137084961,0.37595011393229166,0.295,0.33964285714285714,-0.005676142374674479,-1.3402925902099625,-0.6042314940185562,47.46059799194336,0.003864288330078125,-0.08804745144314235
10037,-0.3533125559488932,0.07968751907348633,85.20958709716797,84.92317199707031,-4.154991149902344,88.62606811523438,0.37617746988932294,0.292,0.33964285714285714,-0.006835767957899305,-1.3073355131835953,-0.9777552061767594,47.284820556640625,0.0031823900010850693,-0.08645621405707465
10038,-0.3415938059488932,0.09960939407348633,85.0050048828125,84.6572265625,-4.1959075927734375,88.50332641601562,0.3764047410753038,0.28833333333333333,0.33964285714285714,-0.008849843343098959,-1.4611383848876969,-1.0216986113281266,47.284820556640625,0.0038642035590277777,-0.0855470445421007
10039,-0.3611250559488932,0.09960939407348633,83.20470428466797,83.57295227050781,-4.257282257080078,88.6056137084961,0.3784506056043837,0.2853333333333333,0.33964285714285714,-0.01180996365017361,-1.505081790039064,-1.549027102539064,47.284820556640625,-0.004091644287109375,-0.08736551072862413
10040,-0.3806563059488932,0.09960939407348633,81.46577453613281,81.46577453613281,-4.257282257080078,88.6669921875,0.3770867241753472,0.2823333333333333,0.33964285714285714,-0.013061141967773438,-1.560013430664064,-2.0214239531250016,47.284820556640625,0.0,-0.08804749382866753
10041,-0.3533125559488932,0.07968751907348633,84.5140151977539,84.02302551269531,-4.318656921386719,88.58515930175781,0.37390433417426217,0.2793333333333333,0.33964285714285714,-0.012878036499023438,-1.6808592253417984,-0.9777552061767594,47.284820556640625,0.005455440945095486,-0.08782018025716146
10042,-0.3884688059488932,0.07968751907348633,84.45263671875,84.08439636230469,-4.318656921386719,88.74882507324219,0.3779959784613715,0.276,0.34,-0.014220767550998263,-1.8236757689209,-0.3515516691894547,47.284820556640625,0.004091559516059028,-0.08963868882921007
10043,-0.3455000559488932,0.09960939407348633,83.16378784179688,83.67523193359375,-4.318656921386719,88.74882507324219,0.37685936821831595,0.272,0.34,-0.014861636691623263,-1.9884668760986344,-0.4284540587158219,47.284820556640625,-0.005682712131076389,-0.08963868882921007
10044,-0.3415938059488932,0.09960939407348633,83.63432312011719,83.16378784179688,-4.339115142822266,88.83065795898438,0.3750409444173177,0.269,0.34035714285714286,-0.014525943332248263,-2.0653692656250016,-0.4284540587158219,46.84537124633789,0.005228169759114583,-0.09077525668674045
10045,-0.3494063059488932,0.07968751907348633,83.42974090576172,83.02058410644531,-4.154991149902344,88.52378845214844,0.3750409444173177,0.2653333333333333,0.34035714285714286,-0.014007186889648438,-1.9774805479736344,-0.3185945921630875,46.58169937133789,0.00454618665907118,-0.08531977335611979
10046,-0.3142500559488932,0.07968751907348633,83.38882446289062,82.93875122070312,-4.4209442138671875,88.78973388671875,0.37481358846028645,0.262,0.3407142857142857,-0.013579940795898438,-1.7687460356445328,0.1867620050907135,46.318031311035156,0.0050008138020833336,-0.09122975667317708
10047,-0.3298750559488932,0.07968751907348633,85.18913269042969,84.22760009765625,-4.318656921386719,88.6669921875,0.37754135131835936,0.25833333333333336,0.34035714285714286,-0.013702011108398438,-1.9225508146972672,0.8239500522613525,46.318031311035156,0.010683695475260416,-0.08872943454318577
10048,-0.3181563059488932,0.07968751907348633,85.02546691894531,84.47309875488281,-4.175449371337891,88.48286437988281,0.37617746988932294,0.255,0.3407142857142857,-0.012878036499023438,-2.0653692656250016,1.0436700582504272,46.142250061035156,0.006137424045138889,-0.08509237501356337
10049,-0.3259688059488932,0.07968751907348633,84.16622924804688,85.06637573242188,-4.11407470703125,88.1555404663086,0.37549557156032987,0.25166666666666665,0.34035714285714286,-0.01202358669704861,-1.8017050200195328,0.9118380546569824,46.142250061035156,-0.010001627604166667,-0.08077350192599826
10050,-0.3259688059488932,0.09960939407348633,82.14088439941406,83.36836242675781,-4.175449371337891,88.52378845214844,0.3764047410753038,0.24833333333333332,0.3407142857142857,-0.01214565700954861,-1.4171949797363297,0.2197200059890747,46.142250061035156,-0.013638644748263888,-0.08554708692762587
10051,-0.3376875559488932,0.07968751907348633,85.1072998046875,84.0025634765625,-4.3595733642578125,88.42149353027344,0.37549557156032987,0.245,0.34,-0.01177944607204861,-1.3293062620849625,0.32958000898361206,46.142250061035156,0.012274848090277778,-0.086456298828125
10052,-0.3415938059488932,0.09960939407348633,84.26852416992188,84.75950622558594,-4.277740478515625,88.81019592285156,0.37822324964735243,0.242,0.3392857142857143,-0.01238979763454861,-1.4501520567626969,0.38451001048088074,46.142250061035156,-0.005455356174045139,-0.08986596001519097
10053,-0.3455000559488932,0.09960939407348633,83.26608276367188,83.26608276367188,-4.543693542480469,88.78973388671875,0.37549557156032987,0.23866666666666667,0.3389285714285714,-0.01251186794704861,-1.6808592253417984,0.032958000898361206,46.142250061035156,0.0,-0.09259363810221354
10054,-0.3494063059488932,0.09960939407348633,83.92073059082031,83.32745361328125,-4.093616485595703,88.38057708740234,0.37549557156032987,0.23566666666666666,0.3385714285714286,-0.01217617458767361,-1.8456484251709,0.032958000898361206,46.054359436035156,0.006591966417100695,-0.08304659525553386
10055,-0.3455000559488932,0.09960939407348633,84.88226318359375,84.554931640625,-4.3595733642578125,88.6056137084961,0.3766320970323351,0.23266666666666666,0.3385714285714286,-0.01226772732204861,-1.6588865690917984,0.4284540116786957,46.054359436035156,0.003637017144097222,-0.08850207858615451
10056,-0.3415938059488932,0.09960939407348633,85.14820861816406,84.75950622558594,-4.461860656738281,88.91248321533203,0.37617746988932294,0.229,0.33785714285714286,-0.01214565700954861,-1.7248026304931656,0.45042601227760315,46.054359436035156,0.0043189154730902775,-0.09304826524522569
10057,-0.3572188059488932,0.09960939407348633,84.82088470458984,83.92073059082031,-4.236824035644531,88.78973388671875,0.3766320970323351,0.22533333333333333,0.33785714285714286,-0.01184048122829861,-2.0433966093750016,0.29662200808525085,46.054359436035156,0.010001712375217013,-0.08918397691514757
10058,-0.3533125559488932,0.09960939407348633,83.94119262695312,83.4501953125,-3.9299545288085938,88.6669921875,0.37572284274631074,0.22166666666666668,0.33785714285714286,-0.01141323513454861,-2.208185809204103,0.3185940086841583,46.054359436035156,0.005455525716145834,-0.08441051907009549
10059,-0.3494063059488932,0.09960939407348633,84.53446960449219,84.22760009765625,-4.11407470703125,88.48286437988281,0.3752682156032986,0.218,0.33785714285714286,-0.010955513848198786,-2.1202989989013687,0.5712720155715942,46.054359436035156,0.003409661187065972,-0.08441043429904514
10060,-0.3572188059488932,0.09960939407348633,85.27096557617188,85.1072998046875,-4.339115142822266,88.50332641601562,0.3752682156032986,0.21433333333333332,0.3382142857142857,-0.010375679863823786,-1.8895918303222672,0.6701459884643555,46.054359436035156,0.001818508572048611,-0.08713823954264323
10061,-0.3337813059488932,0.09960939407348633,84.1048583984375,84.98455047607422,-4.216365814208984,88.23736572265625,0.37572284274631074,0.21066666666666667,0.3382142857142857,-0.010192574395073786,-1.8126913481445328,0.36253800988197327,46.054359436035156,-0.009774356418185763,-0.0828192392985026
10062,-0.3611250559488932,0.09960939407348633,84.98455047607422,84.37080383300781,-3.9913291931152344,88.52378845214844,0.3770867241753472,0.20666666666666667,0.3385714285714286,-0.010253609551323786,-1.8126913481445328,0.05493000149726868,46.054359436035156,0.006819407145182292,-0.08350130716959635
10063,-0.3767500559488932,0.07968751907348633,84.47309875488281,84.1048583984375,-3.9299545288085938,88.1555404663086,0.3741316901312934,0.20333333333333334,0.3385714285714286,-0.009429677327473959,-1.8126913481445328,-0.05493034655761875,46.054359436035156,0.004091559516059028,-0.07872772216796875
10064,-0.4197188059488932,0.07968751907348633,84.26852416992188,84.12531280517578,-4.032245635986328,88.44195556640625,0.3764047410753038,0.19966666666666666,0.3382142857142857,-0.009124501546223959,-1.5709978514404312,-0.05493034655761875,46.054359436035156,0.0015912373860677083,-0.0830466800265842
10065,-0.3884688059488932,0.07968751907348633,85.27096557617188,84.92317199707031,-3.909496307373047,88.38057708740234,0.3745863172743056,0.19633333333333333,0.3385714285714286,-0.008575185139973959,-1.5929705076904312,-0.4723993712158219,46.054359436035156,0.0038643731011284723,-0.08100081549750435
10066,-0.3767500559488932,0.05976563930511475,83.83889770507812,83.32745361328125,-3.8072052001953125,87.76683807373047,0.3741316901312934,0.19266666666666668,0.3385714285714286,-0.008331086900499132,-1.538040774414064,-0.8898664885253922,46.054359436035156,0.005682712131076389,-0.07304492526584201
10067,-0.3884688059488932,0.05976563930511475,85.20958709716797,85.12775421142578,-4.093616485595703,88.38057708740234,0.3750409444173177,0.18966666666666668,0.3385714285714286,-0.009063466389973959,-1.153530734130861,-0.7140909605712906,46.054359436035156,0.0009092542860243056,-0.08304659525553386
10068,-0.3923750559488932,0.07968751907348633,83.38882446289062,83.65477752685547,-4.134532928466797,88.54424285888672,0.3766320970323351,0.18633333333333332,0.3382142857142857,-0.010833443535698786,-1.142544406005861,-0.9447962218017594,46.054359436035156,-0.0029550340440538192,-0.08531973097059461
10069,-0.3767500559488932,0.07968751907348633,83.5934066772461,83.16378784179688,-4.073158264160156,88.31919860839844,0.37685936821831595,0.183,0.33785714285714286,-0.012817001342773438,-1.4391657286376969,-0.7580343657226578,46.142250061035156,0.004773542616102431,-0.08213729858398437
10070,-0.4236250559488932,0.07968751907348633,83.47065734863281,84.0025634765625,-3.9913291931152344,88.25782775878906,0.3766320970323351,0.17966666666666667,0.33714285714285713,-0.013610458374023438,-1.4940973692626969,-0.5602861815185562,46.933258056640625,-0.0059100680881076385,-0.08054618835449219
10071,-0.3845625559488932,0.07968751907348633,84.26852416992188,83.63432312011719,-4.011787414550781,88.13508605957031,0.3752682156032986,0.17633333333333334,0.33714285714285713,-0.013488388061523438,-1.3952223234863297,-0.4723993712158219,47.109039306640625,0.007046678331163195,-0.07940970526801215
10072,-0.3845625559488932,0.07968751907348633,84.5140151977539,83.94119262695312,-4.134532928466797,88.33966064453125,0.37549557156032987,0.17333333333333334,0.3375,-0.013335800170898438,-1.2194467955322281,-0.17577614123535312,47.196929931640625,0.006364695231119792,-0.08304659525553386
10073,-0.3611250559488932,0.07968751907348633,84.57539367675781,84.24806213378906,-4.298198699951172,88.6669921875,0.37617746988932294,0.17,0.3375,-0.013793563842773438,-1.3073355131835953,-0.02197326953125156,47.196929931640625,0.003637017144097222,-0.08850212097167968
10074,-0.3650313059488932,0.07968751907348633,83.61386108398438,82.89783477783203,-4.175449371337891,88.48286437988281,0.37685936821831595,0.16666666666666666,0.3375,-0.014159774780273438,-1.549027102539064,0.13183200359344482,47.196929931640625,0.007955847846137152,-0.08509237501356337
10075,-0.3923750559488932,0.07968751907348633,85.1072998046875,84.43218231201172,-4.1959075927734375,88.48286437988281,0.3770867241753472,0.16366666666666665,0.33785714285714286,-0.014342837863498263,-1.6149431639404312,0.5602860450744629,47.196929931640625,0.007501305474175347,-0.08531968858506944
10076,-0.3806563059488932,0.07968751907348633,83.16378784179688,84.61630249023438,-4.11407470703125,88.38057708740234,0.3764047410753038,0.15966666666666668,0.33785714285714286,-0.014159774780273438,-1.6039568358154312,-0.01098694140625156,47.196929931640625,-0.016139051649305555,-0.08327390882703993
10077,-0.3767500559488932,0.07968751907348633,84.0434799194336,84.08439636230469,-3.8890380859375,88.1555404663086,0.37344970703125,0.157,0.3382142857142857,-0.013061141967773438,-1.5819841795654312,-0.3405672484130875,47.196929931640625,-0.0004546271430121528,-0.0782730950249566
10078,-0.3884688059488932,0.07968751907348633,83.61386108398438,83.12287139892578,-4.093616485595703,88.52378845214844,0.37617746988932294,0.15366666666666667,0.3382142857142857,-0.013183212280273438,-1.2963491850585953,-0.20873512561035312,47.196929931640625,0.005455440945095486,-0.08463783264160156
10079,-0.4001875559488932,0.07968751907348633,82.85691833496094,82.16134643554688,-4.216365814208984,88.50332641601562,0.3766320970323351,0.15066666666666667,0.3385714285714286,-0.013305282592773438,-1.1864878111572281,0.1867620050907135,47.196929931640625,0.00772857666015625,-0.08577435811360677
10080,-0.3845625559488932,0.07968751907348633,84.88226318359375,83.552490234375,-4.277740478515625,88.58515930175781,0.3766320970323351,0.14733333333333334,0.3382142857142857,-0.013122177124023438,-1.3183199339599625,1.0107120275497437,47.196929931640625,0.014775254991319445,-0.0873655531141493
10081,-0.4080000559488932,0.07968751907348633,83.83889770507812,84.5958480834961,-4.625526428222656,89.09660339355469,0.37617746988932294,0.144,0.3382142857142857,-0.01235928005642361,-1.6149431639404312,1.2853620052337646,47.196929931640625,-0.008410559760199653,-0.09691255357530382
10082,-0.4080000559488932,0.07968751907348633,83.77752685546875,83.36836242675781,-4.298198699951172,88.62606811523438,0.37685936821831595,0.14066666666666666,0.3389285714285714,-0.01156582302517361,-2.1312853270263687,1.3512780666351318,47.196929931640625,0.004546271430121528,-0.08804740905761718
10083,-0.4001875559488932,0.07968751907348633,85.53691101074219,85.20958709716797,-4.277740478515625,88.46240997314453,0.37595011393229166,0.137,0.3392857142857143,-0.010314644707573786,-2.2741018706054703,1.4611380100250244,47.196929931640625,0.003636932373046875,-0.08600167168511284
10084,-0.4001875559488932,0.07968751907348633,85.37325286865234,85.25050354003906,-4.093616485595703,88.21691131591797,0.37731399536132815,0.13333333333333333,0.34035714285714286,-0.009277089436848959,-2.1312853270263687,0.9777539968490601,47.196929931640625,0.0013638814290364584,-0.08122808668348525
10085,-0.3533125559488932,0.07968751907348633,83.0001220703125,82.65233612060547,-4.318656921386719,88.54424285888672,0.3743589613172743,0.12933333333333333,0.3407142857142857,-0.007964875962999132,-1.9005781584472672,0.48338401317596436,47.196929931640625,0.003864288330078125,-0.0873655531141493
10086,-0.3455000559488932,0.07968751907348633,85.39370727539062,85.1072998046875,-4.380031585693359,88.44195556640625,0.3764047410753038,0.12566666666666668,0.3414285714285714,-0.0075986650254991316,-1.8346620970459,1.1205720901489258,47.196929931640625,0.003182305230034722,-0.08691096835666233
10087,-0.4040938059488932,0.07968751907348633,84.14576721191406,83.38882446289062,-4.380031585693359,88.81019592285156,0.37572284274631074,0.122,0.3414285714285714,-0.0073240068223741316,-1.8566347532959,1.252403974533081,47.196929931640625,0.008410474989149305,-0.09100252787272135
10088,-0.4080000559488932,0.07968751907348633,85.78240966796875,85.455078125,-4.3595733642578125,88.6669921875,0.3770867241753472,0.119,0.3417857142857143,-0.006896803114149305,-1.9555078917236344,1.3732500076293945,47.196929931640625,0.003637017144097222,-0.08918406168619791
10089,-0.3806563059488932,0.09960939407348633,85.65966796875,85.08683776855469,-4.277740478515625,88.33966064453125,0.37731399536132815,0.115,0.3425,-0.006561109754774305,-1.9774805479736344,0.7250760197639465,47.196929931640625,0.006364780002170139,-0.08463779025607639
10090,-0.3650313059488932,0.07968751907348633,84.49356079101562,85.0050048828125,-3.9913291931152344,88.58515930175781,0.3745863172743056,0.11166666666666666,0.34285714285714286,-0.005554072062174479,-1.8236757689209,-0.20873512561035312,47.196929931640625,-0.005682712131076389,-0.0841832054985894
10091,-0.3806563059488932,0.07968751907348633,84.88226318359375,85.33233642578125,-4.461860656738281,88.78973388671875,0.37481358846028645,0.10833333333333334,0.3425,-0.004974238077799479,-1.7028299742431656,-0.6042314940185562,47.196929931640625,-0.0050008138020833336,-0.09168438381618924
10092,-0.3884688059488932,0.05976563930511475,85.06637573242188,84.80043029785156,-4.4209442138671875,88.76927947998047,0.37367706298828124,0.105,0.34285714285714286,-0.004730097452799479,-1.7687460356445328,-0.9008528166503922,47.196929931640625,0.0029549492730034724,-0.09100248548719618
10093,-0.3572188059488932,0.05976563930511475,85.53691101074219,85.35279846191406,-4.380031585693359,88.64653015136719,0.37549557156032987,0.102,0.3425,-0.005370966593424479,-1.9005781584472672,-0.9777552061767594,47.196929931640625,0.0020456949869791666,-0.08918401930067274
10094,-0.3533125559488932,0.07968751907348633,83.16378784179688,82.40684509277344,-4.4209442138671875,88.91248321533203,0.3764047410753038,0.09866666666666667,0.34285714285714286,-0.006500074598524305,-1.9005781584472672,-0.9008528166503922,47.196929931640625,0.008410474989149305,-0.09259363810221354
10095,-0.3962813059488932,0.07968751907348633,84.82088470458984,84.20714569091797,-4.523235321044922,88.64653015136719,0.3798144022623698,0.09533333333333334,0.3425,-0.008056428697374132,-1.8236757689209,-0.2746511870117203,47.196929931640625,0.006819322374131944,-0.09077517191569011
10096,-0.3572188059488932,0.07968751907348633,84.90271759033203,84.47309875488281,-4.789188385009766,89.30118560791016,0.37572284274631074,0.092,0.3425,-0.008544667561848959,-2.0104395323486344,-0.19774879748535312,47.196929931640625,0.004773542616102431,-0.10100415547688803
10097,-0.4314375559488932,0.07968751907348633,84.35034942626953,84.554931640625,-4.564151763916016,89.26026916503906,0.3750409444173177,0.08866666666666667,0.3425,-0.009032948811848959,-2.2741018706054703,-0.5273291044921891,47.196929931640625,-0.002273135715060764,-0.0980491214328342
10098,-0.4314375559488932,0.07968751907348633,83.90027618408203,83.61386108398438,-4.5846099853515625,88.99431610107422,0.37685936821831595,0.08533333333333333,0.34285714285714286,-0.010375679863823786,-2.581711428710939,-0.8788801604003922,47.109039306640625,0.0031823900010850693,-0.09532140096028646
10099,-0.4431563059488932,0.07968751907348633,82.52958679199219,82.77508544921875,-4.4209442138671875,88.97386169433594,0.3766320970323351,0.08166666666666667,0.3432142857142857,-0.01150478786892361,-2.6476274901123062,-0.9447962218017594,46.84537124633789,-0.002727762858072917,-0.09327562120225695
10100,-0.4470625559488932,0.07968751907348633,84.16622924804688,82.550048828125,-4.4209442138671875,88.564697265625,0.3766320970323351,0.07733333333333334,0.3442857142857143,-0.01196255154079861,-2.6915708952636734,-0.4614130430908219,46.58169937133789,0.017957560221354165,-0.08872934977213541
10101,-0.4548750559488932,0.07968751907348633,84.41172790527344,84.49356079101562,-4.257282257080078,88.42149353027344,0.3745863172743056,0.07366666666666667,0.34464285714285714,-0.01193203396267361,-2.4498793059082047,-0.16478981311035312,46.40591812133789,-0.0009092542860243056,-0.08531973097059461
10102,-0.4626875559488932,0.07968751907348633,84.0434799194336,84.35034942626953,-4.318656921386719,88.6669921875,0.37572284274631074,0.07,0.34535714285714286,-0.01229824490017361,-2.142269747802736,-0.21972145373535312,46.318031311035156,-0.003409661187065972,-0.08872943454318577
10103,-0.4900313059488932,0.07968751907348633,82.69325256347656,83.20470428466797,-4.318656921386719,88.70790100097656,0.3752682156032986,0.066,0.34535714285714286,-0.01242031521267361,-2.0543829375000016,-0.2966219359130875,46.318031311035156,-0.0056827969021267365,-0.08918397691514757
10104,-0.4314375559488932,0.05976563930511475,84.1048583984375,83.85935974121094,-4.400489807128906,88.62606811523438,0.37390433417426217,0.06233333333333333,0.3457142857142857,-0.01144375271267361,-2.0873400145263687,0.09887400269508362,46.318031311035156,0.002727762858072917,-0.08918397691514757
10105,-0.4783125559488932,0.05976563930511475,84.41172790527344,83.98210144042969,-3.9299545288085938,88.1146240234375,0.3766320970323351,0.059,0.34535714285714286,-0.011199654473198786,-2.1312853270263687,0.29662200808525085,46.318031311035156,0.004773627387152778,-0.0782730950249566
10106,-0.4470625559488932,0.05976563930511475,83.4501953125,82.44775390625,-4.441402435302734,88.83065795898438,0.3786778767903646,0.05533333333333333,0.3457142857142857,-0.010955513848198786,-1.8566347532959,0.5822579860687256,46.318031311035156,0.011138237847222222,-0.09191178215874565
10107,-0.4431563059488932,0.05976563930511475,85.96653747558594,82.71371459960938,-4.400489807128906,88.76927947998047,0.3770867241753472,0.052,0.3457142857142857,-0.010192574395073786,-1.8346620970459,1.219446063041687,46.318031311035156,0.03614247639973958,-0.09077521430121528
10108,-0.5173750559488932,0.05976563930511475,85.76194763183594,85.63920593261719,-4.482318878173828,88.89202880859375,0.3786778767903646,0.049,0.34535714285714286,-0.009216054280598959,-1.8346620970459,1.4281799793243408,46.318031311035156,0.0013637966579861111,-0.09304830763075086
10109,-0.4939375559488932,0.05976563930511475,83.42974090576172,84.5958480834961,-4.441402435302734,88.89202880859375,0.37572284274631074,0.046,0.34535714285714286,-0.007964875962999132,-1.8676210814209,0.7250760197639465,46.054359436035156,-0.012956746419270833,-0.09259368048773872
10110,-0.4900313059488932,0.03984375953674316,84.67768096923828,82.9592056274414,-4.236824035644531,88.62606811523438,0.3745863172743056,0.042666666666666665,0.345,-0.006500074598524305,-1.9884668760986344,0.790992021560669,45.52701950073242,0.019094170464409723,-0.08736546834309895
10111,-0.5681563059488932,0.03984375953674316,84.71859741210938,84.45263671875,-4.277740478515625,88.50332641601562,0.3784506056043837,0.03933333333333333,0.34464285714285714,-0.005859205457899305,-1.9005781584472672,0.8898659944534302,44.91178894042969,0.0029551188151041665,-0.086456298828125
10112,-0.5017500559488932,0.03984375953674316,84.35034942626953,83.96165466308594,-4.277740478515625,88.50332641601562,0.3764047410753038,0.036,0.3442857142857143,-0.004943720499674479,-1.7797323637695328,0.8129640221595764,44.64812088012695,0.004318830702039931,-0.086456298828125
10113,-0.5876875559488932,0.03984375953674316,84.6572265625,84.92317199707031,-4.7482757568359375,88.76927947998047,0.3752682156032986,0.03266666666666666,0.3435714285714286,-0.003936682807074653,-1.6149431639404312,0.6371880173683167,44.64812088012695,-0.0029549492730034724,-0.0946395026312934
10114,-0.5681563059488932,0.03984375953674316,84.43218231201172,83.83889770507812,-5.709800720214844,89.81263732910156,0.3750409444173177,0.03,0.3417857142857143,-0.0033873664008246527,-1.3073355131835953,0.35155200958251953,44.64812088012695,0.0065920511881510414,-0.11691597832573784
10115,-0.5876875559488932,0.03984375953674316,85.63920593261719,85.02546691894531,-5.3620147705078125,89.99675750732422,0.3764047410753038,0.02666666666666667,0.34,-0.0037230597601996527,-1.4171949797363297,0.26366400718688965,44.64812088012695,0.006819322374131944,-0.11509746975368923
10116,-0.6033125559488932,0.03984375953674316,84.30943298339844,85.35279846191406,-4.236824035644531,89.19889831542969,0.3777686225043403,0.023333333333333334,0.3382142857142857,-0.0037535773383246527,-1.6369139128417984,-0.3625379973144547,44.64812088012695,-0.011592949761284723,-0.0937302483452691
10117,-0.6306563059488932,0.03984375953674316,82.550048828125,83.90027618408203,-4.8096466064453125,89.2193603515625,0.3752682156032986,0.019666666666666666,0.33714285714285713,-0.0035094367133246527,-1.2524038725585953,-0.7800070219726578,44.64812088012695,-0.015002526177300347,-0.10032229953342015
10118,-0.751750083726671,0.03984375953674316,82.83645629882812,82.46821594238281,-3.868579864501953,88.27828979492188,0.37549557156032987,0.01633333333333333,0.33535714285714285,-0.0031737433539496527,-0.8788801604003922,-0.6042314940185562,43.153987884521484,0.004091559516059028,-0.07940966288248698
10119,-0.3962813059488932,0.01992187976837158,86.76439666748047,85.74149322509766,-3.7867469787597656,88.05325317382812,0.37595011393229166,0.012333333333333333,0.3335714285714286,-0.0027160220675998266,-0.3076082640380875,0.14281800389289856,40.86885070800781,0.011365593804253473,-0.07600000169542101
10120,-0.6814375837266711,0.03984375953674316,84.6572265625,81.62944030761719,-3.0298004150390625,87.29630279541016,0.38208753797743056,0.008666666666666666,0.33107142857142857,-0.004577509562174479,0.0,-0.07690300280761875,38.93526840209961,0.03364206949869792,-0.059178924560546874
10121,-0.4900313059488932,0.03984375953674316,82.20226287841797,81.9976806640625,-1.5159111022949219,85.25050354003906,0.37890523274739585,0.005666666666666667,0.32857142857142857,-0.005950758192274305,0.4943700134754181,-0.4174677305908219,35.41967010498047,0.002273135715060764,-0.019626829359266493
10122,-0.6853438337266711,0.03984375953674316,83.38882446289062,83.5934066772461,-1.10675048828125,86.37569427490234,0.3743589613172743,0.003,0.32392857142857145,-0.005981275770399305,1.307334065437317,-0.16478981311035312,29.179479598999023,-0.002273135715060764,-0.02758271959092882
10123,-0.6580000559488932,0.03984375953674316,83.28652954101562,84.0434799194336,0.7344703674316406,83.36836242675781,0.37617746988932294,0.001,0.32071428571428573,-0.006378004286024305,1.4831100702285767,-0.07690300280761875,27.158010482788086,-0.008410559760199653,0.026290088229709203
10124,-0.747843833726671,0.05976563930511475,86.72348022460938,83.32745361328125,2.657520294189453,83.57295227050781,0.38095101250542535,0.0006666666666666666,0.31535714285714284,-0.006347486707899305,2.361989974975586,0.032958000898361206,26.89434051513672,0.03773362901475694,0.04538408915201823
10125,-0.767375083726671,0.03984375953674316,86.6007308959961,83.5934066772461,1.9824066162109375,82.34546661376953,0.38299679226345484,0.0,0.3117857142857143,-0.005035273234049479,3.1749541759490967,-0.5383154326171891,26.71855926513672,0.03341471354166667,0.051521555582682295
10126,-0.900187583726671,0.03984375953674316,83.20470428466797,82.79554748535156,2.596149444580078,81.07707214355469,0.38026902940538193,-0.0003333333333333333,0.30642857142857144,-0.0029601203070746527,3.152981996536255,-0.812964098999025,26.71855926513672,0.00454618665907118,0.07243419223361545
10127,0.990437416273329,0.03984375953674316,82.07951354980469,84.32989501953125,12.86606216430664,76.57630920410156,0.38413331773546006,0.0003333333333333333,0.30214285714285716,-0.00128173828125,2.911290168762207,-0.19774879748535312,26.63067054748535,-0.02500423855251736,0.23655281066894532
10128,0.912312416273329,0.03984375953674316,81.62944030761719,81.5066909790039,8.344844818115234,74.44868469238281,0.37617746988932294,0.0,0.29464285714285715,-0.0,2.66959810256958,-0.16478981311035312,26.63067054748535,0.0013638814290364584,0.20995733473036024
