,WD,WS,AIL_1,AIL_2,ELEV_1,ELEV_2,RUDD,ALT,GS,TH,PTCH,ROLL,PLA_1,AIL,ELEV
5905,0.28607692230360243,0.438281364440918,83.92073059082031,82.93875122070312,-2.9479713439941406,87.25538635253906,-0.013433795505099827,0.6633333333333333,0.45,0.03961062961154514,-0.8678938322753922,-0.6262022429199234,26.63067054748535,0.010910881890190972,-0.05781508551703559
5906,0.28998317230360243,0.438281364440918,83.24562072753906,83.69569396972656,-2.9479713439941406,87.29630279541016,-0.012297227647569445,0.6586666666666666,0.4496428571428571,0.03967166476779514,-0.7690206938476578,-0.02197326953125156,26.63067054748535,-0.0050008138020833336,-0.05826971266004774
5907,0.28998317230360243,0.438281364440918,84.16622924804688,84.43218231201172,-3.0093421936035156,87.27584838867188,-0.012751854790581597,0.654,0.44821428571428573,0.03973269992404514,-0.7360617094726578,0.5273280143737793,26.63067054748535,-0.0029550340440538192,-0.0587243398030599
5908,0.28217067230360243,0.438281364440918,84.6572265625,84.14576721191406,-2.9888877868652344,87.45996856689453,-0.014343007405598959,0.6506666666666666,0.4475,0.03967166476779514,-0.7470480375976578,0.41746801137924194,26.63067054748535,0.005682881673177083,-0.06054284837510851
5909,0.28217067230360243,0.438281364440918,84.0025634765625,83.22515869140625,-3.2343826293945312,88.1146240234375,-0.011615286933051215,0.6456666666666667,0.4446428571428571,0.03967166476779514,-0.801977770874025,0.1538040041923523,26.63067054748535,0.008637830946180555,-0.07054451836480034
5910,0.28217067230360243,0.438281364440918,83.38882446289062,83.92073059082031,-3.909496307373047,88.78973388671875,-0.01070603264702691,0.641,0.4425,0.03936648898654514,-1.1974741392822281,0.3405660092830658,26.63067054748535,-0.0059100680881076385,-0.08554700215657553
5911,0.28217067230360243,0.438281364440918,84.84133911132812,83.96165466308594,-4.625526428222656,89.64897155761719,-0.013888380262586805,0.637,0.43785714285714283,0.03915286593967014,-1.7357889586181656,0.2856360077857971,26.63067054748535,0.009774271647135417,-0.10304997762044271
5912,0.28607692230360243,0.438281364440918,83.12287139892578,82.5091323852539,-5.546134948730469,90.13996887207031,-0.013661109076605903,0.6343333333333333,0.43464285714285716,0.03964114718967014,-2.504809039184572,-0.06591667468261875,26.63067054748535,0.006819322374131944,-0.11873448689778646
5913,0.29779567230360243,0.45820323944091795,83.16378784179688,83.79798889160156,-5.8939208984375,90.6309585571289,-0.014115693834092882,0.6316666666666667,0.42928571428571427,0.04177729288736979,-3.284815447875978,0.7580339908599854,26.63067054748535,-0.007046678331163195,-0.12805421617296006
5914,0.29388942230360243,0.438281364440918,84.86180114746094,84.69813537597656,-6.282623291015625,90.30363464355469,-0.01070603264702691,0.629,0.4253571428571429,0.04162470499674479,-3.954960482666017,1.3952220678329468,26.63067054748535,0.001818508572048611,-0.12873619927300348
5915,0.28607692230360243,0.438281364440918,84.6572265625,83.87982177734375,-5.8939208984375,89.97630310058594,-0.009342193603515625,0.625,0.42,0.04031253390842014,-4.196652072021486,0.9338099956512451,26.63067054748535,0.008637830946180555,-0.12078026665581597
5916,0.28998317230360243,0.438281364440918,83.81844329833984,83.36836242675781,-5.607509613037109,89.83309936523438,-0.020707745022243925,0.621,0.41785714285714287,0.04171625773111979,-4.075806277343752,0.2526780068874359,26.63067054748535,0.00500089857313368,-0.11600676642523872
5917,0.29388942230360243,0.45820323944091795,84.20714569091797,84.32989501953125,-5.382472991943359,89.58760070800781,-0.017070770263671875,0.6166666666666667,0.4135714285714286,0.04366929796006944,-3.954960482666017,0.373524010181427,26.63067054748535,-0.0013638814290364584,-0.11077859666612414
5918,0.29779567230360243,0.45820323944091795,84.94363403320312,85.0459213256836,-5.259723663330078,89.40347290039062,-0.014570320977105035,0.612,0.4107142857142857,0.04388292100694444,-3.845101016113283,0.45042601227760315,26.54277992248535,-0.0011365254720052083,-0.10736885070800781
5919,0.28998317230360243,0.45820323944091795,85.14820861816406,83.36836242675781,-5.055145263671875,89.23981475830078,-0.012751854790581597,0.607,0.4075,0.04278437296549479,-3.6693254881591812,-0.17577614123535312,26.54277992248535,0.01977606879340278,-0.10327733357747396
5920,0.28998317230360243,0.45820323944091795,83.24562072753906,82.59095764160156,-4.8096466064453125,89.09660339355469,-0.01320648193359375,0.602,0.405,0.04299799601236979,-3.4605909758300797,-0.3405672484130875,26.63067054748535,0.007274034288194444,-0.09895833333333333
5921,0.29388942230360243,0.45820323944091795,83.85935974121094,83.71615600585938,-4.645984649658203,88.91248321533203,-0.012069914076063368,0.5973333333333334,0.4014285714285714,0.04376085069444444,-3.229883807250978,0.5053560137748718,26.63067054748535,0.001591152615017361,-0.09509408738878038
5922,0.28998317230360243,0.45820323944091795,84.20714569091797,84.43218231201172,-4.5846099853515625,88.87156677246094,-0.012069914076063368,0.593,0.3992857142857143,0.04388292100694444,-3.0431219511718766,1.1315580606460571,26.63067054748535,-0.0025004069010416668,-0.09395751953125
5923,0.28607692230360243,0.45820323944091795,84.92317199707031,84.49356079101562,-4.5846099853515625,88.87156677246094,-0.013433795505099827,0.5886666666666667,0.395,0.04400499131944444,-2.966221468994142,1.0986000299453735,26.63067054748535,0.004773457845052083,-0.09395751953125
5924,0.28607692230360243,0.45820323944091795,84.71859741210938,84.47309875488281,-4.523235321044922,88.78973388671875,-0.01729808383517795,0.5846666666666667,0.39285714285714285,0.04467637803819444,-2.933262484619142,0.6921180486679077,26.63067054748535,0.002727762858072917,-0.09236632453070746
5925,0.28607692230360243,0.45820323944091795,84.69813537597656,84.47309875488281,-4.400489807128906,88.6669921875,-0.014797634548611112,0.5803333333333334,0.3889285714285714,0.04543931749131944,-2.856360095092775,0.4064820110797882,26.63067054748535,0.0025004069010416668,-0.08963868882921007
5926,0.28607692230360243,0.45820323944091795,84.16622924804688,84.22760009765625,-4.318656921386719,88.6056137084961,-0.017070770263671875,0.5763333333333334,0.38642857142857145,0.04556138780381944,-2.7245279722900406,0.1538040041923523,26.54277992248535,-0.0006818983289930556,-0.08804745144314235
5927,0.28607692230360243,0.45820323944091795,84.75950622558594,84.45263671875,-4.134532928466797,88.54424285888672,-0.014570320977105035,0.572,0.38321428571428573,0.04592759874131944,-2.6805845671386734,0.05493000149726868,26.54277992248535,0.003409661187065972,-0.08531973097059461
5928,0.28607692230360243,0.45820323944091795,84.69813537597656,83.92073059082031,-4.3595733642578125,89.28073120117188,-0.01729808383517795,0.5676666666666667,0.3807142857142857,0.0461411370171441,-2.7794596129150406,-0.08788933093261875,26.54277992248535,0.008637830946180555,-0.09600338406032986
5929,0.29388942230360243,0.478125114440918,83.94119262695312,83.67523193359375,-4.9733123779296875,89.85355377197266,-0.015252261691623263,0.5643333333333334,0.37642857142857145,0.0470261467827691,-3.262842791625978,0.10986000299453735,30.40993881225586,0.0029551188151041665,-0.1091874016655816
5930,0.29779567230360243,0.478125114440918,84.0025634765625,84.1048583984375,-5.484760284423828,90.18087768554688,-0.009569507175021702,0.5616666666666666,0.37285714285714283,0.0475754631890191,-3.9989038878173844,0.8239500522613525,30.673608779907227,-0.0011366102430555556,-0.11850708855523004
5931,0.28998317230360243,0.45820323944091795,84.71859741210938,84.26852416992188,-5.832546234130859,90.42637634277344,-0.011842600504557292,0.5583333333333333,0.3678571428571429,0.0469040764702691,-4.745953219482423,1.1974740028381348,32.34352111816406,0.0050008138020833336,-0.12509913974338108
5932,0.28998317230360243,0.45820323944091795,84.73905181884766,84.49356079101562,-5.934837341308594,90.44683837890625,-0.016388829549153647,0.5556666666666666,0.36428571428571427,0.0475144280327691,-5.383141177246095,1.0986000299453735,33.22241973876953,0.0027276780870225696,-0.1264630635579427
5933,0.28998317230360243,0.438281364440918,85.08683776855469,84.67768096923828,-5.791633605957031,90.32408142089844,-0.011160659790039062,0.5523333333333333,0.35964285714285715,0.0471787346733941,-5.844553607055666,0.6701459884643555,34.892330169677734,0.00454618665907118,-0.12350794474283854
5934,0.28998317230360243,0.45820323944091795,84.12531280517578,83.08195495605469,-5.484760284423828,89.71034240722656,-0.01911655002170139,0.5483333333333333,0.35714285714285715,0.0475449456108941,-5.9544130736084,-0.10986007983398594,36.29856872558594,0.011592864990234375,-0.11327891879611546
5935,0.28998317230360243,0.45820323944091795,83.73661041259766,83.81844329833984,-5.055145263671875,89.44439697265625,-0.014797634548611112,0.544,0.3535714285714286,0.0486740960015191,-5.580889361450197,-0.07690300280761875,37.704811096191406,-0.0009092542860243056,-0.10555046929253473
5936,0.28998317230360243,0.478125114440918,84.08439636230469,83.83889770507812,-4.993770599365234,89.40347290039062,-0.012979168362087673,0.54,0.3517857142857143,0.04904022216796875,-5.130463259765627,0.2197200059890747,39.28683090209961,0.002727762858072917,-0.104413816663954
5937,0.28607692230360243,0.478125114440918,84.22760009765625,83.73661041259766,-4.932395935058594,89.32164001464844,-0.008205625745985243,0.536,0.3489285714285714,0.04916229248046875,-4.833840029785158,0.6371880173683167,40.95674133300781,0.005455440945095486,-0.10282262166341145
5938,0.28217067230360243,0.478125114440918,84.20714569091797,84.39126586914062,-4.911937713623047,89.30118560791016,-0.013433795505099827,0.532,0.3475,0.04910125732421875,-4.625107424804689,1.032684087753296,42.01142120361328,-0.002045779758029514,-0.10236803690592448
5939,0.27826442230360243,0.45820323944091795,84.6572265625,85.08683776855469,-4.8914794921875,89.28073120117188,-0.015934202406141493,0.5283333333333333,0.3457142857142857,0.04913177490234375,-4.471302645751955,1.1645159721374512,42.97821044921875,-0.004773457845052083,-0.1019134521484375
5940,0.27435817230360243,0.45820323944091795,85.78240966796875,85.61874389648438,-4.850563049316406,89.23981475830078,-0.015706888834635415,0.525,0.345,0.04916229248046875,-4.32848419482422,0.7800060510635376,43.85710906982422,0.001818508572048611,-0.1010041978624132
5941,0.27045192230360243,0.45820323944091795,85.31187438964844,84.26852416992188,-4.8096466064453125,89.2193603515625,-0.01797998216417101,0.5213333333333333,0.3432142857142857,0.0488266838921441,-4.163694994995119,-0.21972145373535312,44.38444900512695,0.011592780219184027,-0.10032229953342015
5942,0.27435817230360243,0.45820323944091795,84.22760009765625,83.77752685546875,-4.850563049316406,89.26026916503906,-0.015934202406141493,0.518,0.3425,0.0488572014702691,-4.020876544067384,-0.801977770874025,44.82389831542969,0.0050008138020833336,-0.1012314690483941
5943,0.27435817230360243,0.45820323944091795,83.34790802001953,83.02058410644531,-4.871021270751953,89.28073120117188,-0.015024948120117187,0.5146666666666667,0.3417857142857143,0.04900970458984375,-3.954960482666017,-0.7031046324462906,44.99967956542969,0.003636932373046875,-0.10168613857693143
5944,0.27826442230360243,0.478125114440918,83.71615600585938,83.98210144042969,-4.850563049316406,89.32164001464844,-0.013433795505099827,0.5116666666666667,0.3410714285714286,0.04910125732421875,-3.92200340563965,-0.01098694140625156,45.26335144042969,-0.0029549492730034724,-0.10191336737738715
5945,0.27435817230360243,0.45820323944091795,84.88226318359375,84.94363403320312,-4.8914794921875,89.26026916503906,-0.00775099860297309,0.509,0.34035714285714286,0.0479111565483941,-3.943974154541017,0.516342043876648,45.52701950073242,-0.0006818983289930556,-0.10168609619140626
5946,0.26654567230360243,0.438281364440918,85.0050048828125,84.57539367675781,-4.871021270751953,89.26026916503906,-0.01616151597764757,0.5056666666666667,0.34,0.0462937249077691,-3.954960482666017,0.10986000299453735,45.966468811035156,0.004773457845052083,-0.10145878261990017
5947,0.26263942230360243,0.45820323944091795,84.80043029785156,84.0025634765625,-4.850563049316406,89.26026916503906,-0.01729808383517795,0.5023333333333333,0.3389285714285714,0.0464157952202691,-3.92200340563965,-0.3625379973144547,46.054359436035156,0.008865186903211806,-0.1012314690483941
5948,0.26263942230360243,0.45820323944091795,83.98210144042969,83.32745361328125,-4.830104827880859,89.23981475830078,-0.01070603264702691,0.499,0.3389285714285714,0.04595811631944444,-3.88904442126465,-0.4174677305908219,46.054359436035156,0.00727386474609375,-0.10077688429090711
5949,0.26654567230360243,0.45820323944091795,82.87738037109375,83.36836242675781,-4.8096466064453125,89.23981475830078,-0.011842600504557292,0.496,0.3385714285714286,0.04601915147569444,-3.867073672363283,0.010986000299453735,46.142250061035156,-0.005455356174045139,-0.10054957071940104
5950,0.26263942230360243,0.45820323944091795,84.0434799194336,84.22760009765625,-4.8914794921875,89.23981475830078,-0.009114880032009548,0.49266666666666664,0.3382142857142857,0.04556138780381944,-3.88904442126465,0.7580339908599854,46.142250061035156,-0.002045779758029514,-0.10145882500542534
5951,0.25482692230360243,0.438281364440918,85.18913269042969,85.49600219726562,-4.911937713623047,89.23981475830078,-0.01547957526312934,0.48933333333333334,0.33785714285714286,0.04443223741319444,-3.932987826416017,0.8678940534591675,46.142250061035156,-0.003409661187065972,-0.10168613857693143
5952,0.24701442230360243,0.438281364440918,85.86424255371094,83.5115737915039,-4.871021270751953,89.26026916503906,-0.015706888834635415,0.486,0.3375,0.04339463975694444,-3.954960482666017,0.0,46.142250061035156,0.02614076402452257,-0.10145878261990017
5953,0.25092067230360243,0.438281364440918,83.1024169921875,82.69325256347656,-4.830104827880859,89.23981475830078,-0.01775266859266493,0.4826666666666667,0.3375,0.04382188585069444,-3.976933138916017,-0.7470480375976578,46.142250061035156,0.004546271430121528,-0.10077688429090711
5954,0.25873317230360243,0.438281364440918,82.81600189208984,84.06393432617188,-4.789188385009766,89.23981475830078,-0.01752539740668403,0.47933333333333333,0.3375,0.04495103624131944,-3.965946810791017,-0.3625379973144547,46.142250061035156,-0.013865915934244792,-0.10032225714789497
5955,0.25873317230360243,0.438281364440918,84.5140151977539,84.0434799194336,-4.850563049316406,89.28073120117188,-0.0066144307454427086,0.476,0.33714285714285713,0.04415757921006944,-3.965946810791017,0.2197200059890747,46.142250061035156,0.005228169759114583,-0.10145882500542534
5956,0.25482692230360243,0.438281364440918,83.96165466308594,83.53202819824219,-4.9733123779296875,89.44439697265625,-0.012979168362087673,0.4723333333333333,0.33714285714285713,0.04342515733506944,-4.086792605468752,0.2856360077857971,46.142250061035156,0.004773627387152778,-0.10464121500651041
5957,0.25092067230360243,0.438281364440918,83.77752685546875,84.18669128417969,-4.993770599365234,89.32164001464844,-0.014343007405598959,0.469,0.33714285714285713,0.04345567491319444,-4.31749786669922,0.4614120125770569,46.142250061035156,-0.004546271430121528,-0.10350456237792968
5958,0.25092067230360243,0.438281364440918,84.5140151977539,84.53446960449219,-4.911937713623047,89.1170654296875,-0.01775266859266493,0.4653333333333333,0.33714285714285713,0.04333360460069444,-4.449329989501955,0.45042601227760315,46.142250061035156,-0.00022727118598090277,-0.10032225714789497
5959,0.25092067230360243,0.438281364440918,84.6572265625,84.16622924804688,-4.707359313964844,89.03523254394531,-0.017070770263671875,0.4613333333333333,0.3375,0.04321153428819444,-4.295527117797853,0.17577600479125977,46.142250061035156,0.005455525716145834,-0.09713990953233508
5960,0.24701442230360243,0.438281364440918,84.30943298339844,83.71615600585938,-4.645984649658203,89.03523254394531,-0.0168434566921658,0.45766666666666667,0.3375,0.04330308702256944,-4.064819949218752,-0.04394401843261875,46.142250061035156,0.006591966417100695,-0.09645796881781685
5961,0.25092067230360243,0.438281364440918,84.0434799194336,84.12531280517578,-4.707359313964844,89.1579818725586,-0.015252261691623263,0.454,0.33785714285714286,0.04339463975694444,-3.943974154541017,0.02197200059890747,46.142250061035156,-0.0009092542860243056,-0.09850379096137153
5962,0.24701442230360243,0.438281364440918,84.18669128417969,83.73661041259766,-4.789188385009766,89.1579818725586,-0.011842600504557292,0.4503333333333333,0.3375,0.04272333780924479,-3.932987826416017,0.07690200209617615,46.142250061035156,0.00500089857313368,-0.09941300286187066
5963,0.24701442230360243,0.438281364440918,83.552490234375,83.47065734863281,-4.8096466064453125,89.34210205078125,-0.015706888834635415,0.447,0.3375,0.04287592569986979,-3.92200340563965,0.04394400119781494,46.142250061035156,0.0009092542860243056,-0.10168609619140626
5964,0.25482692230360243,0.438281364440918,84.18669128417969,84.28897857666016,-4.8914794921875,89.26026916503906,-0.012979168362087673,0.44366666666666665,0.33714285714285713,0.04336412217881944,-3.9989038878173844,0.4064820110797882,46.142250061035156,-0.0011365254720052083,-0.10168609619140626
5965,0.25092067230360243,0.41835948944091794,84.94363403320312,84.82088470458984,-4.830104827880859,89.26026916503906,-0.013433795505099827,0.44033333333333335,0.3367857142857143,0.04272333780924479,-4.020876544067384,0.516342043876648,46.142250061035156,0.0013638814290364584,-0.10100415547688803
5966,0.23920192230360243,0.41835948944091794,84.86180114746094,83.73661041259766,-4.8096466064453125,89.1579818725586,-0.012751854790581597,0.43666666666666665,0.33714285714285713,0.04083124796549479,-4.075806277343752,0.08788800239562988,46.142250061035156,0.01250211927625868,-0.09964031643337673
5967,0.23920192230360243,0.41835948944091794,83.67523193359375,83.47065734863281,-4.8096466064453125,89.30118560791016,-0.015024948120117187,0.43333333333333335,0.33714285714285713,0.04113642374674479,-4.031862872192384,-0.4064833098144547,46.142250061035156,0.0022730509440104167,-0.1012314690483941
5968,0.25092067230360243,0.438281364440918,83.81844329833984,83.96165466308594,-4.8096466064453125,89.17843627929688,-0.014797634548611112,0.43,0.33714285714285713,0.04330308702256944,-4.031862872192384,-0.2307058745117203,46.142250061035156,-0.0015912373860677083,-0.09986758761935764
5969,0.25873317230360243,0.438281364440918,85.16867065429688,85.455078125,-4.768730163574219,89.09660339355469,-0.012069914076063368,0.42633333333333334,0.33714285714285713,0.04360826280381944,-3.987919467041017,0.3076080083847046,46.142250061035156,-0.003182305230034722,-0.09850370619032119
5970,0.24701442230360243,0.41835948944091794,85.57783508300781,84.06393432617188,-4.66644287109375,89.0761489868164,-0.010478719075520834,0.423,0.33714285714285713,0.04150263468424479,-3.91101707751465,0.08788800239562988,46.142250061035156,0.016821119520399306,-0.09713990953233508
5971,0.23920192230360243,0.41835948944091794,83.69569396972656,83.53202819824219,-4.768730163574219,89.17843627929688,-0.012069914076063368,0.41933333333333334,0.3367857142857143,0.04000735812717014,-3.812142031738283,-0.21972145373535312,46.142250061035156,0.001818508572048611,-0.09941296047634549
5972,0.23529567230360243,0.41835948944091794,83.5934066772461,83.16378784179688,-4.789188385009766,89.1579818725586,-0.013888380262586805,0.416,0.3367857142857143,0.03948855929904514,-3.867073672363283,-0.2416922026367203,46.142250061035156,0.004773542616102431,-0.09941300286187066
5973,0.23920192230360243,0.41835948944091794,83.36836242675781,83.87982177734375,-4.7482757568359375,89.17843627929688,-0.013888380262586805,0.413,0.3367857142857143,0.03954959445529514,-3.88904442126465,0.1538040041923523,46.142250061035156,-0.005682881673177083,-0.09918568929036459
5974,0.23529567230360243,0.39843757629394533,84.08439636230469,84.5958480834961,-4.7482757568359375,89.03523254394531,-0.01320648193359375,0.4093333333333333,0.3367857142857143,0.03884769015842014,-3.845101016113283,0.4614120125770569,46.142250061035156,-0.0056827969021267365,-0.09759453667534722
5975,0.22748317230360243,0.39843757629394533,84.88226318359375,83.85935974121094,-4.789188385009766,89.1579818725586,-0.01252454121907552,0.4056666666666667,0.3364285714285714,0.03747448391384549,-3.8011576109619156,0.2526780068874359,46.142250061035156,0.011365593804253473,-0.09941300286187066
5976,0.22357692230360243,0.39843757629394533,83.47065734863281,82.67279052734375,-4.789188385009766,89.2193603515625,-0.014115693834092882,0.4023333333333333,0.3364285714285714,0.03668102688259549,-3.856087344238283,-0.16478981311035312,46.142250061035156,0.008865186903211806,-0.10009498596191406
5977,0.23138942230360243,0.39843757629394533,83.0001220703125,83.47065734863281,-4.768730163574219,89.17843627929688,-0.014797634548611112,0.3993333333333333,0.3360714285714286,0.03790164523654514,-3.91101707751465,0.13183200359344482,46.142250061035156,-0.005228169759114583,-0.09941296047634549
5978,0.23529567230360243,0.41835948944091794,84.41172790527344,84.90271759033203,-4.768730163574219,89.17843627929688,-0.013888380262586805,0.396,0.3360714285714286,0.03857303195529514,-3.88904442126465,0.7580339908599854,46.142250061035156,-0.005455440945095486,-0.09941296047634549
5979,0.22748317230360243,0.39843757629394533,85.1072998046875,84.75950622558594,-4.768730163574219,89.1170654296875,-0.01252454121907552,0.39266666666666666,0.3360714285714286,0.03741344875759549,-3.856087344238283,0.7580339908599854,46.142250061035156,0.0038643731011284723,-0.09873106214735243
5980,0.22357692230360243,0.39843757629394533,84.90271759033203,84.0025634765625,-4.7482757568359375,89.0761489868164,-0.013433795505099827,0.389,0.3360714285714286,0.03671154446072049,-3.812142031738283,0.19774800539016724,46.142250061035156,0.010001712375217013,-0.09804916381835938
5981,0.22357692230360243,0.39843757629394533,83.96165466308594,83.75706481933594,-4.605068206787109,89.0761489868164,-0.014115693834092882,0.38566666666666666,0.3360714285714286,0.03698620266384549,-3.7901712828369156,-0.17577614123535312,46.142250061035156,0.0022732204861111113,-0.09645796881781685
5982,0.22748317230360243,0.39843757629394533,84.08439636230469,84.16622924804688,-4.707359313964844,89.05569458007812,-0.014570320977105035,0.38233333333333336,0.3357142857142857,0.03793216281467014,-3.7242552214355484,-0.12084640795898594,46.142250061035156,-0.0009092542860243056,-0.09736726548936632
5983,0.23138942230360243,0.39843757629394533,84.67768096923828,84.39126586914062,-4.727817535400391,89.13752746582031,-0.014115693834092882,0.379,0.3357142857142857,0.03817630343967014,-3.6473528319091812,0.032958000898361206,46.142250061035156,0.0031823900010850693,-0.0985038333468967
5984,0.22748317230360243,0.39843757629394533,84.5958480834961,84.24806213378906,-4.727817535400391,89.09660339355469,-0.013433795505099827,0.376,0.3357142857142857,0.03762698703342014,-3.6693254881591812,0.07690200209617615,46.142250061035156,0.003864288330078125,-0.0980491214328342
5985,0.22357692230360243,0.39843757629394533,84.63676452636719,83.67523193359375,-4.625526428222656,89.09660339355469,-0.011387973361545138,0.37266666666666665,0.33535714285714285,0.03631481594509549,-3.6803099089355484,0.0,46.142250061035156,0.010683695475260416,-0.09691255357530382
5986,0.21967067230360243,0.39843757629394533,83.38882446289062,83.20470428466797,-4.625526428222656,88.99431610107422,-0.013888380262586805,0.36933333333333335,0.33535714285714285,0.03582653469509549,-3.6473528319091812,-0.02197326953125156,46.142250061035156,0.002045779758029514,-0.0957760281032986
5987,0.22357692230360243,0.39843757629394533,83.5115737915039,84.08439636230469,-4.707359313964844,88.99431610107422,-0.014343007405598959,0.36633333333333334,0.33535714285714285,0.03649792141384549,-3.526507037231447,0.38451001048088074,46.142250061035156,-0.006364695231119792,-0.09668528238932292
5988,0.22357692230360243,0.39843757629394533,84.6572265625,84.77996826171875,-41.900001525878906,89.05569458007812,-0.014115693834092882,0.36333333333333334,0.335,0.03674206203884549,-3.4715773039550797,0.6811320185661316,46.142250061035156,-0.0013637966579861111,-0.5106188456217448
5989,0.21967067230360243,0.3785157012939453,85.5164566040039,85.08683776855469,-4.707359313964844,89.05569458007812,-0.013888380262586805,0.36,0.3342857142857143,0.03652843899197049,-3.493548052856447,0.38451001048088074,46.142250061035156,0.004773542616102431,-0.09736726548936632
5990,0.21576442230360243,0.3785157012939453,84.71859741210938,83.87982177734375,-4.707359313964844,89.05569458007812,-0.013661109076605903,0.357,0.3342857142857143,0.03607067532009549,-3.504534380981447,-0.2746511870117203,46.142250061035156,0.009319729275173612,-0.09736726548936632
5991,0.21576442230360243,0.39843757629394533,83.92073059082031,83.36836242675781,-4.768730163574219,89.1579818725586,-0.014115693834092882,0.354,0.3342857142857143,0.03564342922634549,-3.548477786132814,-0.6481748991699234,46.142250061035156,0.006137424045138889,-0.09918568929036459
5992,0.22748317230360243,0.39843757629394533,83.26608276367188,83.14332580566406,-4.66644287109375,89.13752746582031,-0.014797634548611112,0.351,0.3339285714285714,0.03655895657009549,-3.603409426757814,-0.48338379199218906,46.142250061035156,0.0013639662000868055,-0.09782189263237848
5993,0.23138942230360243,0.39843757629394533,83.81844329833984,83.71615600585938,-4.686901092529297,89.03523254394531,-0.013888380262586805,0.348,0.3339285714285714,0.03686413235134549,-3.6693254881591812,0.29662200808525085,46.142250061035156,0.0011365254720052083,-0.09691259596082899
5994,0.21967067230360243,0.3785157012939453,84.20714569091797,84.24806213378906,-4.768730163574219,89.1170654296875,-0.01070603264702691,0.3446666666666667,0.3339285714285714,0.03530773586697049,-3.6693254881591812,0.8019779920578003,46.142250061035156,-0.0004546271430121528,-0.09873106214735243
5995,0.20795192230360243,0.3785157012939453,84.47309875488281,84.0434799194336,-4.625526428222656,89.03523254394531,-0.013433795505099827,0.3413333333333333,0.3335714285714286,0.033934529622395834,-3.7352415495605484,0.5602860450744629,46.142250061035156,0.004773542616102431,-0.09623065524631076
5996,0.21576442230360243,0.3785157012939453,84.22760009765625,83.77752685546875,-4.645984649658203,89.0147705078125,-0.015252261691623263,0.338,0.3335714285714286,0.03515514797634549,-3.7572122984619156,0.04394400119781494,46.142250061035156,0.0050008138020833336,-0.09623061286078559
5997,0.22748317230360243,0.39843757629394533,84.0434799194336,84.0025634765625,-4.768730163574219,89.17843627929688,-0.014343007405598959,0.33466666666666667,0.3335714285714286,0.03741344875759549,-3.7132688933105484,0.04394400119781494,46.142250061035156,0.0004546271430121528,-0.09941296047634549
5998,0.22748317230360243,0.39843757629394533,84.53446960449219,84.30943298339844,-4.645984649658203,89.0147705078125,-0.013661109076605903,0.3313333333333333,0.3335714285714286,0.03799319797092014,-3.7901712828369156,0.3405660092830658,46.142250061035156,0.0025004069010416668,-0.09623061286078559
5999,0.22357692230360243,0.39843757629394533,84.5140151977539,83.65477752685547,-4.5846099853515625,88.97386169433594,-0.011160659790039062,0.32766666666666666,0.3335714285714286,0.03668102688259549,-3.812142031738283,0.4614120125770569,46.142250061035156,0.009547085232204862,-0.09509412977430555
6000,0.21576442230360243,0.3785157012939453,83.85935974121094,83.73661041259766,-4.727817535400391,89.05569458007812,-0.01320648193359375,0.3243333333333333,0.3339285714285714,0.03573498196072049,-3.7462259703369156,0.38451001048088074,46.142250061035156,0.0013638814290364584,-0.09759457906087239
6001,0.21576442230360243,0.39843757629394533,84.0434799194336,83.81844329833984,-4.66644287109375,89.17843627929688,-0.014570320977105035,0.321,0.3335714285714286,0.03613171047634549,-3.7242552214355484,0.2746500074863434,46.142250061035156,0.0025004069010416668,-0.09827643500434027
6002,0.22357692230360243,0.39843757629394533,83.92073059082031,84.22760009765625,-4.625526428222656,89.03523254394531,-0.014570320977105035,0.31766666666666665,0.3335714285714286,0.03753543429904514,-3.7901712828369156,0.4394400119781494,46.142250061035156,-0.003409661187065972,-0.09623065524631076
6003,0.22357692230360243,0.39843757629394533,84.90271759033203,84.71859741210938,-4.686901092529297,89.0147705078125,-0.012979168362087673,0.31466666666666665,0.3339285714285714,0.03747448391384549,-3.7681986265869156,0.7360620498657227,46.142250061035156,0.002045779758029514,-0.09668524000379775
6004,0.21185817230360243,0.3785157012939453,85.16867065429688,85.25050354003906,-4.645984649658203,89.05569458007812,-0.011615286933051215,0.311,0.3339285714285714,0.03591808742947049,-3.7132688933105484,0.516342043876648,46.142250061035156,-0.0009092542860243056,-0.09668532477484809
6005,0.20795192230360243,0.3785157012939453,85.455078125,84.18669128417969,-4.66644287109375,88.97386169433594,-0.013661109076605903,0.30766666666666664,0.3335714285714286,0.03494152492947049,-3.6912962370605484,-0.3076082640380875,46.142250061035156,0.014093187120225694,-0.09600338406032986
6006,0.21576442230360243,0.3785157012939453,84.12531280517578,83.71615600585938,-4.707359313964844,89.09660339355469,-0.014570320977105035,0.30433333333333334,0.3339285714285714,0.03561291164822049,-3.6693254881591812,-0.834936755249025,46.142250061035156,0.00454618665907118,-0.09782180786132813
6007,0.22357692230360243,0.3785157012939453,83.87982177734375,83.94119262695312,-4.523235321044922,88.99431610107422,-0.014115693834092882,0.301,0.3342857142857143,0.03625378078884549,-3.7462259703369156,-0.5492998533935562,46.142250061035156,-0.0006818983289930556,-0.09463946024576823
6008,0.21185817230360243,0.3785157012939453,84.24806213378906,84.0434799194336,-4.625526428222656,88.93293762207031,-0.00843293931749132,0.2976666666666667,0.3342857142857143,0.034331258138020834,-3.7462259703369156,-0.07690300280761875,46.142250061035156,0.002273135715060764,-0.0950940450032552
6009,0.20013942230360243,0.3585938262939453,84.16622924804688,83.83889770507812,-4.66644287109375,89.0761489868164,-0.011387973361545138,0.29433333333333334,0.3342857142857143,0.032225545247395834,-3.6912962370605484,-0.13183273608398594,46.142250061035156,0.003637017144097222,-0.09713990953233508
6010,0.20013942230360243,0.3585938262939453,83.77752685546875,82.550048828125,-4.645984649658203,89.03523254394531,-0.013661109076605903,0.291,0.3342857142857143,0.03149320814344618,-3.7462259703369156,-0.3185945921630875,46.142250061035156,0.013638644748263888,-0.09645796881781685
6011,0.20404567230360243,0.3785157012939453,82.65233612060547,82.57050323486328,-4.707359313964844,89.13752746582031,-0.014797634548611112,0.288,0.33464285714285713,0.032317097981770834,-3.7572122984619156,0.17577600479125977,46.142250061035156,0.0009092542860243056,-0.09827651977539062
6012,0.20795192230360243,0.3785157012939453,83.73661041259766,84.49356079101562,-4.707359313964844,89.09660339355469,-0.014115693834092882,0.2846666666666667,0.3342857142857143,0.033385213216145834,-3.8011576109619156,1.1205720901489258,46.142250061035156,-0.008410559760199653,-0.09782180786132813
6013,0.20404567230360243,0.3785157012939453,85.23004150390625,85.33233642578125,-4.8096466064453125,89.13752746582031,-0.013433795505099827,0.2813333333333333,0.3342857142857143,0.033263142903645834,-3.867073672363283,1.3622640371322632,46.142250061035156,-0.0011366102430555556,-0.09941304524739583
6014,0.20013942230360243,0.3585938262939453,85.49600219726562,85.20958709716797,-4.686901092529297,89.1170654296875,-0.013888380262586805,0.278,0.3342857142857143,0.033415730794270834,-3.976933138916017,0.6701459884643555,46.142250061035156,0.0031823900010850693,-0.0978218502468533
6015,0.20795192230360243,0.3585938262939453,85.0050048828125,83.71615600585938,-4.707359313964844,89.1170654296875,-0.014797634548611112,0.27466666666666667,0.3342857142857143,0.03478893703884549,-4.009890215942384,-0.2416922026367203,46.142250061035156,0.014320543077256944,-0.09804916381835938
6016,0.21967067230360243,0.3785157012939453,83.92073059082031,84.02302551269531,-4.727817535400391,89.19889831542969,-0.013888380262586805,0.2713333333333333,0.33464285714285713,0.03637585110134549,-3.9989038878173844,-0.3735243254394547,46.142250061035156,-0.0011366102430555556,-0.09918573167588976
6017,0.21576442230360243,0.3785157012939453,84.73905181884766,84.61630249023438,-4.625526428222656,88.99431610107422,-0.01070603264702691,0.268,0.335,0.03582653469509549,-4.086792605468752,0.06591600179672241,46.142250061035156,0.0013638814290364584,-0.0957760281032986
6018,0.19623317230360243,0.3785157012939453,84.80043029785156,84.47309875488281,-4.605068206787109,88.99431610107422,-0.007296371459960938,0.2643333333333333,0.335,0.032957967122395834,-4.097778933593752,0.10986000299453735,46.142250061035156,0.003637017144097222,-0.09554871453179253
6019,0.19623317230360243,0.3585938262939453,84.63676452636719,83.98210144042969,-4.686901092529297,89.0147705078125,-0.01320648193359375,0.261,0.3357142857142857,0.03179838392469618,-3.976933138916017,-0.3405672484130875,46.142250061035156,0.007274034288194444,-0.09668524000379775
6020,0.20404567230360243,0.3785157012939453,83.5934066772461,83.32745361328125,-4.66644287109375,89.05569458007812,-0.014570320977105035,0.25766666666666665,0.3357142857142857,0.032988484700520834,-3.88904442126465,-0.5712725096435562,46.142250061035156,0.0029550340440538192,-0.09691263834635416
6021,0.20795192230360243,0.3785157012939453,83.49111938476562,84.47309875488281,-4.871021270751953,89.09660339355469,-0.013661109076605903,0.25366666666666665,0.3357142857142857,0.034087117513020834,-3.91101707751465,0.09887400269508362,46.142250061035156,-0.010910881890190972,-0.09964027404785156
6022,0.20013942230360243,0.3785157012939453,85.23004150390625,85.14820861816406,-4.830104827880859,89.26026916503906,-0.01070603264702691,0.25066666666666665,0.3357142857142857,0.032713826497395834,-3.965946810791017,0.6371880173683167,46.142250061035156,0.0009092542860243056,-0.10100415547688803
6023,0.19232692230360243,0.3585938262939453,85.16867065429688,84.75950622558594,-4.727817535400391,89.17843627929688,-0.014115693834092882,0.24733333333333332,0.3357142857142857,0.032164510091145834,-4.119751589843752,0.26366400718688965,46.142250061035156,0.004546271430121528,-0.0989583757188585
6024,0.20013942230360243,0.3785157012939453,85.0459213256836,85.18913269042969,-4.727817535400391,89.17843627929688,-0.014115693834092882,0.24366666666666667,0.3357142857142857,0.033507283528645834,-4.119751589843752,-0.04394401843261875,46.142250061035156,-0.0015912373860677083,-0.0989583757188585
6025,0.19232692230360243,0.3785157012939453,85.76194763183594,85.14820861816406,-4.789188385009766,89.17843627929688,-0.01252454121907552,0.24,0.3357142857142857,0.033202107747395834,-4.086792605468752,-0.18676246936035312,46.142250061035156,0.006819322374131944,-0.09964027404785156
6026,0.17670192230360243,0.3785157012939453,85.33233642578125,86.08927917480469,-4.8096466064453125,89.23981475830078,-0.007296371459960938,0.23666666666666666,0.33535714285714285,0.03066923353407118,-4.042849200317384,-0.4723993712158219,46.142250061035156,-0.008410474989149305,-0.10054957071940104
6027,0.16107692230360243,0.3785157012939453,85.33233642578125,83.02058410644531,-4.871021270751953,89.28073120117188,-0.012297227647569445,0.233,0.3357142857142857,0.028319464789496526,-4.053835528442384,-1.4281813078613297,46.142250061035156,0.025686136881510415,-0.10168613857693143
6028,0.16498317230360243,0.3785157012939453,82.81600189208984,82.48867797851562,-4.932395935058594,89.44439697265625,-0.013433795505099827,0.22966666666666666,0.3357142857142857,0.028197394476996526,-4.119751589843752,-1.3183199339599625,46.142250061035156,0.003636932373046875,-0.10418658786349827
6029,0.16498317230360243,0.39843757629394533,82.75462341308594,83.26608276367188,-4.850563049316406,89.38301849365234,-0.01252454121907552,0.22633333333333333,0.33535714285714285,0.027739630805121526,-4.229611056396486,0.010986000299453735,46.142250061035156,-0.005682881673177083,-0.10259535047743056
6030,0.14935817230360243,0.3785157012939453,84.41172790527344,85.80287170410156,-4.9733123779296875,89.32164001464844,-0.009569507175021702,0.223,0.33535714285714285,0.025603485107421876,-4.273554461547853,1.1645159721374512,46.142250061035156,-0.0154571533203125,-0.10327724880642361
6031,0.13373317230360252,0.3585938262939453,86.25294494628906,84.6572265625,-5.034687042236328,89.42393493652344,-0.01320648193359375,0.21933333333333332,0.335,0.023802947998046876,-4.229611056396486,0.6701459884643555,46.142250061035156,0.017730204264322917,-0.1050957997639974
6032,0.14154567230360243,0.3785157012939453,84.61630249023438,83.96165466308594,-4.932395935058594,89.46485137939453,-0.01797998216417101,0.216,0.335,0.025878143310546876,-4.185667651245119,-0.07690300280761875,46.142250061035156,0.00727386474609375,-0.10441385904947917
6033,0.16107692230360243,0.3785157012939453,84.57539367675781,85.0459213256836,-4.932395935058594,89.38301849365234,-0.014570320977105035,0.21266666666666667,0.335,0.028258429633246526,-4.152708666870119,0.2526780068874359,46.142250061035156,-0.005228084988064236,-0.10350460476345485
6034,0.14545192230360243,0.3585938262939453,85.72103881835938,86.47798156738281,-5.075603485107422,89.42393493652344,-0.0075236850314670135,0.20933333333333334,0.33464285714285713,0.026763068305121526,-4.185667651245119,0.5273280143737793,46.318031311035156,-0.008410474989149305,-0.10555042690700955
6035,0.12201442230360253,0.3585938262939453,86.74394226074219,84.75950622558594,-4.911937713623047,89.48530578613281,-0.0075236850314670135,0.206,0.33464285714285713,0.023497772216796876,-4.251581805297853,-0.5163427763671891,46.142250061035156,0.022049289279513887,-0.104413816663954
6036,0.12201442230360253,0.3585938262939453,84.02302551269531,82.28408813476562,-4.830104827880859,89.46485137939453,-0.012751854790581597,0.20266666666666666,0.33464285714285713,0.02273491753472222,-4.32848419482422,-1.4281813078613297,46.142250061035156,0.01932152642144097,-0.10327729119194878
6037,0.13373317230360252,0.3585938262939453,82.32501220703125,83.85935974121094,-4.768730163574219,89.28073120117188,-0.013433795505099827,0.199,0.3342857142857143,0.023772430419921876,-4.33947052294922,-0.6921183043212906,46.142250061035156,-0.017048305935329862,-0.10054957071940104
6038,0.12592067230360252,0.3585938262939453,86.19157409667969,86.17111206054688,-4.8914794921875,89.23981475830078,-0.00843293931749132,0.19566666666666666,0.3339285714285714,0.02230767144097222,-4.185667651245119,0.35155200958251953,46.142250061035156,0.00022735595703125,-0.10145882500542534
6039,0.09467067230360253,0.3585938262939453,84.53446960449219,84.98455047607422,-4.952854156494141,89.36256408691406,-0.007296371459960938,0.19233333333333333,0.33321428571428574,0.01885926988389757,-4.075806277343752,-0.05493034655761875,46.142250061035156,-0.00500089857313368,-0.10350464714898003
6040,0.09076442230360253,0.3585938262939453,83.57295227050781,83.69569396972656,-4.830104827880859,89.42393493652344,-0.012069914076063368,0.189,0.33321428571428574,0.01812684800889757,-4.141722338745119,-1.0216986113281266,46.142250061035156,-0.0013637966579861111,-0.10282266404893663
6041,0.10638942230360253,0.3585938262939453,83.26608276367188,83.06149291992188,-4.871021270751953,89.36256408691406,-0.012751854790581597,0.18533333333333332,0.33285714285714285,0.01937806871202257,-4.174681323120119,-1.1095873289794937,46.142250061035156,0.0022732204861111113,-0.10259539286295573
6042,0.11029567230360253,0.3585938262939453,41.900001525878906,84.35034942626953,-4.850563049316406,89.30118560791016,-0.01070603264702691,0.182,0.3317857142857143,0.01922548082139757,-4.141722338745119,-0.15380539233398594,46.142250061035156,-0.4716705322265625,-0.10168609619140626
6043,0.09076442230360253,0.3585938262939453,84.88226318359375,85.35279846191406,-4.789188385009766,89.13752746582031,-0.004795964558919271,0.17866666666666667,0.3314285714285714,0.016692606608072917,-4.108765261718752,0.4723980128765106,46.142250061035156,-0.005228169759114583,-0.09918573167588976
6044,0.07123317230360253,0.33867195129394534,83.42974090576172,83.34790802001953,-4.789188385009766,89.1170654296875,-0.0075236850314670135,0.17533333333333334,0.33071428571428574,0.014068179660373263,-4.053835528442384,-0.05493034655761875,46.142250061035156,0.0009092542860243056,-0.0989583757188585
6045,0.07513942230360253,0.33867195129394534,83.61386108398438,83.34790802001953,-4.727817535400391,89.0761489868164,-0.009569507175021702,0.17233333333333334,0.33071428571428574,0.014281802707248263,-3.976933138916017,-0.2856375151367203,46.054359436035156,0.0029550340440538192,-0.0978218502468533
6046,0.08295192230360253,0.3187500762939453,41.900001525878906,84.26852416992188,-4.686901092529297,88.99431610107422,-0.008887566460503472,0.16866666666666666,0.33,0.014800516764322917,-3.87805809313965,0.13183200359344482,45.966468811035156,-0.4707613627115885,-0.09645796881781685
6047,0.06732692230360253,0.3187500762939453,85.1072998046875,85.0459213256836,-4.543693542480469,88.85111236572266,-0.006387117173936632,0.16533333333333333,0.3296428571428571,0.013152652316623263,-3.834114687988283,0.3185940086841583,45.79069137573242,0.0006819831000434028,-0.09327562120225695
6048,0.05951442230360252,0.29882820129394533,41.900001525878906,83.90027618408203,-4.482318878173828,88.70790100097656,-0.008205625745985243,0.162,0.32821428571428574,0.01174892849392361,-3.7572122984619156,-0.3076082640380875,45.70280075073242,-0.4666697184244792,-0.09100244310167101
6049,0.06732692230360253,0.29882820129394533,83.47065734863281,83.02058410644531,-4.461860656738281,88.68744659423828,-0.009342193603515625,0.15866666666666668,0.32821428571428574,0.012237124972873263,-3.6143938475341812,-0.5712725096435562,45.70280075073242,0.0050008138020833336,-0.09054785834418402
6050,0.07123317230360253,0.29882820129394533,41.900001525878906,83.53202819824219,-4.257282257080078,88.48286437988281,-0.009114880032009548,0.15566666666666668,0.3271428571428571,0.012511783175998263,-3.515520709106447,-0.07690300280761875,45.70280075073242,-0.4625780741373698,-0.08600162929958767
6051,0.07123317230360253,0.29882820129394533,84.86180114746094,84.16622924804688,-4.298198699951172,88.44195556640625,-0.009796820746527778,0.152,0.3267857142857143,0.012572818332248263,-3.3617159300537125,0.5053560137748718,45.70280075073242,0.00772857666015625,-0.08600171407063802
6052,0.06342067230360253,0.29882820129394533,85.43462371826172,85.18913269042969,-4.277740478515625,88.38057708740234,-0.009569507175021702,0.149,0.32607142857142857,0.012237124972873263,-3.229883807250978,0.7580339908599854,45.70280075073242,0.0027276780870225696,-0.08509241739908854
6053,0.05951442230360252,0.29882820129394533,84.86180114746094,85.1072998046875,-4.318656921386719,88.40103149414062,-0.009796820746527778,0.146,0.32535714285714284,0.012023501925998263,-3.1090380125732437,0.3405660092830658,45.70280075073242,-0.002727762858072917,-0.0857743157280816
6054,0.05951442230360252,0.2789063262939453,84.63676452636719,84.45263671875,-4.216365814208984,88.42149353027344,-0.01002409193250868,0.143,0.3242857142857143,0.012359195285373263,-3.0541082792968766,-0.16478981311035312,45.70280075073242,0.002045864529079861,-0.08486510382758247
6055,0.06732692230360253,0.2789063262939453,84.47309875488281,84.41172790527344,-4.093616485595703,88.29874420166016,-0.009569507175021702,0.13966666666666666,0.32357142857142857,0.012877994113498263,-3.0760809355468766,-0.3295809202880875,45.70280075073242,0.0006818983289930556,-0.08213734096950955
6056,0.06732692230360253,0.2789063262939453,84.71859741210938,84.32989501953125,-4.052700042724609,88.17599487304688,-0.009342193603515625,0.13666666666666666,0.32321428571428573,0.012572818332248263,-2.9991785460205094,-0.2966219359130875,45.70280075073242,0.0043189154730902775,-0.08031883239746093
6057,0.05951442230360252,0.2789063262939453,83.96165466308594,84.06393432617188,-3.9913291931152344,88.09416198730469,-0.008660252888997395,0.13366666666666666,0.3225,0.01156582302517361,-2.889319079467775,-0.21972145373535312,45.70280075073242,-0.001136440700954861,-0.07872767978244358
6058,0.05170192230360252,0.25898443222045897,84.26852416992188,83.85935974121094,-3.9708709716796875,88.03279113769531,-0.00843293931749132,0.13033333333333333,0.3221428571428571,0.01049770779079861,-2.823403018066408,-0.14281906420898594,45.70280075073242,0.004546271430121528,-0.07781846788194445
6059,0.04779567230360252,0.25898443222045897,84.35034942626953,84.0025634765625,-3.7662887573242188,87.93049621582031,-0.008887566460503472,0.12733333333333333,0.3217857142857143,0.00979580349392361,-2.801430361816408,-0.09887375170898594,45.70280075073242,0.003864288330078125,-0.07440872192382812
6060,0.04779567230360252,0.25898443222045897,84.71859741210938,84.41172790527344,-3.704914093017578,87.80775451660156,-0.009569507175021702,0.124,0.32107142857142856,0.00994839138454861,-2.6915708952636734,-0.15380539233398594,45.70280075073242,0.003409661187065972,-0.07236298455132378
6061,0.05170192230360252,0.25898443222045897,84.06393432617188,84.35034942626953,-3.5617103576660156,87.72592163085938,-0.009796820746527778,0.12133333333333333,0.32107142857142856,0.01007046169704861,-2.504809039184572,-0.09887375170898594,45.52701950073242,-0.0031823900010850693,-0.06986257765028211
6062,0.05560817230360252,0.25898443222045897,84.53446960449219,84.0025634765625,-3.479877471923828,87.66455078125,-0.009114880032009548,0.118,0.32035714285714284,0.01058926052517361,-2.3400179320068375,0.06591600179672241,45.70280075073242,0.0059100680881076385,-0.06827142503526476
6063,0.05560817230360252,0.239062557220459,85.72103881835938,85.1072998046875,-3.5617103576660156,87.562255859375,-0.008887566460503472,0.11533333333333333,0.32,0.01101650661892361,-2.208185809204103,0.4723980128765106,45.70280075073242,0.006819322374131944,-0.0680440690782335
6064,0.04779567230360252,0.239062557220459,86.43707275390625,86.33477783203125,-3.5412521362304688,87.62362670898438,-0.00843293931749132,0.112,0.32,0.01055874294704861,-2.0763555937500016,0.5273280143737793,45.70280075073242,0.0011366102430555556,-0.06849865383572049
6065,0.028264422303602526,0.219140682220459,84.37080383300781,85.02546691894531,-3.500335693359375,87.562255859375,-0.0066144307454427086,0.10933333333333334,0.3196428571428571,0.009063466389973959,-1.9555078917236344,-0.06591667468261875,45.70280075073242,-0.007274034288194444,-0.06736212836371527
6066,0.012639422303602524,0.239062557220459,82.9592056274414,83.5934066772461,-3.3775863647460938,87.35768127441406,-0.007978312174479167,0.106,0.32,0.0077512105305989586,-1.8456484251709,-0.6811319761962906,45.70280075073242,-0.007046678331163195,-0.0637251959906684
6067,0.020451922303602526,0.19921878814697266,84.08439636230469,83.40928649902344,-2.9888877868652344,87.37813568115234,-0.008660252888997395,0.10333333333333333,0.32,0.0077817281087239586,-1.6149431639404312,-0.7800070219726578,45.70280075073242,0.007501220703125,-0.0596335940890842
6068,0.012639422303602524,0.19921878814697266,84.18669128417969,84.02302551269531,-3.0707168579101562,87.35768127441406,-0.011842600504557292,0.10033333333333333,0.32,0.0067441304524739586,-1.4391657286376969,-0.3735243254394547,45.70280075073242,0.001818508572048611,-0.06031553480360243
6069,-0.0029855776963974754,0.17929691314697266,84.24806213378906,84.06393432617188,-3.2343826293945312,87.5213394165039,-0.006841744316948784,0.09766666666666667,0.3196428571428571,0.005096266004774305,-1.2963491850585953,-0.10986007983398594,45.70280075073242,0.002045864529079861,-0.0639524671766493
6070,-0.030329327696397474,0.17929691314697266,83.53202819824219,83.20470428466797,-3.295757293701172,87.54179382324219,-0.009796820746527778,0.095,0.32,0.0031737433539496527,-1.3732515745849625,-0.12084640795898594,45.70280075073242,0.003636932373046875,-0.06486167907714843
6071,-0.03423557769639748,0.13945316314697265,83.53202819824219,83.49111938476562,-3.11163330078125,87.54179382324219,-0.01843460930718316,0.09233333333333334,0.32,0.0032347785101996527,-1.527054446289064,-0.4614130430908219,45.70280075073242,0.00045454237196180554,-0.06281585693359375
6072,-0.026423077696397474,0.15937503814697265,84.1048583984375,83.94119262695312,-3.0093421936035156,87.29630279541016,-0.01320648193359375,0.08833333333333333,0.32071428571428573,0.0031432257758246527,-1.527054446289064,-0.21972145373535312,45.70280075073242,0.001818508572048611,-0.058951610989040795
6073,-0.04204807769639748,0.13945316314697265,84.16622924804688,84.08439636230469,-2.6820144653320312,87.13264465332031,-0.007069057888454861,0.08533333333333333,0.32107142857142856,0.0025633917914496527,-1.5709978514404312,0.5712720155715942,45.70280075073242,0.0009092542860243056,-0.05349621242947049
6074,-0.05767307769639748,0.13945316314697265,84.1048583984375,83.87982177734375,-2.722930908203125,86.82576751708984,-0.01070603264702691,0.083,0.32142857142857145,0.0020751105414496527,-1.2633902006835953,0.6591600179672241,45.70280075073242,0.0025004069010416668,-0.05054109361436632
6075,-0.06939182769639747,0.15937503814697265,83.38882446289062,84.1048583984375,-3.0298004150390625,87.41905212402344,-0.009342193603515625,0.07933333333333334,0.3217857142857143,0.0016478644476996527,-0.9008528166503922,0.48338401317596436,45.70280075073242,-0.0079559326171875,-0.06054280598958333
6076,-0.09282932769639747,0.1195312786102295,83.0001220703125,82.48867797851562,-2.8047637939453125,87.19401550292969,-0.01002409193250868,0.07633333333333334,0.3221428571428571,0.0013426886664496527,-1.0986010008544937,0.5493000149726868,45.70280075073242,0.005682712131076389,-0.0555419921875
6077,-0.10454807769639747,0.1195312786102295,85.61874389648438,85.49600219726562,-2.8047637939453125,86.94851684570312,-0.005250591701931423,0.07333333333333333,0.3225,0.0014342414008246527,-1.1974741392822281,1.175502061843872,45.70280075073242,0.0013637966579861111,-0.05281422932942708
6078,-0.11626682769639747,0.09960939407348633,85.57783508300781,85.43462371826172,-2.477436065673828,86.98943328857422,-0.01002409193250868,0.07066666666666667,0.32321428571428573,0.0026244269476996527,-0.9447962218017594,0.8239500522613525,45.70280075073242,0.0015912373860677083,-0.04963188171386719
6079,-0.19439179991861977,0.05976563930511475,85.5164566040039,85.43462371826172,-2.6820144653320312,87.03034973144531,-0.004795964558919271,0.06766666666666667,0.32392857142857145,0.0029601203070746527,-0.6481748991699234,0.41746801137924194,45.70280075073242,0.0009092542860243056,-0.05235960218641493
6080,-0.15532929991861977,0.07968751907348633,83.71615600585938,83.38882446289062,-2.743389129638672,87.0712661743164,-0.01320648193359375,0.06433333333333334,0.325,0.0031432257758246527,-0.6811319761962906,-0.7031046324462906,45.70280075073242,0.003637017144097222,-0.053496170043945315
6081,-0.11626682769639747,0.07968751907348633,85.18913269042969,84.98455047607422,-2.7638473510742188,87.0712661743164,-0.01979849073621962,0.06133333333333333,0.32535714285714284,0.0036009046766493054,-0.7360617094726578,-0.9008528166503922,45.70280075073242,0.002273135715060764,-0.05372348361545139
6082,-0.12407932769639747,0.07968751907348633,84.20714569091797,85.18913269042969,-2.354686737060547,87.0712661743164,-0.010251405504014757,0.058333333333333334,0.3264285714285714,0.0025939093695746527,-0.8678938322753922,-1.164517062255861,45.70280075073242,-0.01091096666124132,-0.049177254570855033
6083,-0.20611054991861977,0.05976563930511475,83.1024169921875,83.02058410644531,-2.9275131225585938,87.45996856689453,-0.010251405504014757,0.05566666666666667,0.3271428571428571,0.0008238898383246528,-0.801977770874025,-1.505081790039064,45.70280075073242,0.0009092542860243056,-0.059860907660590275
6084,-0.14751682769639748,0.07968751907348633,83.77752685546875,83.28652954101562,-2.907054901123047,87.23492431640625,-0.005250591701931423,0.052333333333333336,0.32857142857142857,-0.00054931640625,-0.812964098999025,-0.9887415343017594,45.70280075073242,0.005455525716145834,-0.05713310241699219
6085,-0.13579807769639748,0.07968751907348633,84.63676452636719,82.63188171386719,-2.907054901123047,87.35768127441406,-0.010478719075520834,0.049,0.3296428571428571,-0.000823974609375,-1.120571749755861,-0.6371885710449234,45.70280075073242,0.022276475694444443,-0.05849706861707899
6086,-0.19048554991861977,0.05976563930511475,84.22760009765625,83.92073059082031,-2.6001853942871094,86.74394226074219,0.0040691799587673615,0.046,0.33071428571428574,-0.0023802863226996527,-1.3073355131835953,-0.06591667468261875,45.70280075073242,0.003409661187065972,-0.04826808505588108
6087,-0.16314179991861977,0.07968751907348633,84.5140151977539,84.18669128417969,-2.907054901123047,87.45996856689453,-0.01070603264702691,0.042333333333333334,0.3317857142857143,-0.0022887335883246527,-1.2853628569335953,-0.2856375151367203,45.70280075073242,0.003636932373046875,-0.0596335940890842
6088,-0.18657929991861977,0.05976563930511475,83.77752685546875,83.63432312011719,-3.0707168579101562,87.562255859375,-0.01070603264702691,0.03966666666666667,0.33285714285714285,-0.001800537109375,-1.3073355131835953,-0.5273291044921891,45.70280075073242,0.001591152615017361,-0.06258858574761285
6089,-0.21782929991861977,0.03984375953674316,84.0025634765625,83.552490234375,-2.641101837158203,87.29630279541016,-0.010251405504014757,0.036333333333333336,0.3335714285714286,-0.002227783203125,-1.560013430664064,-0.5053564482421891,45.70280075073242,0.0050008138020833336,-0.05486005147298177
6090,-0.22564179991861977,0.03984375953674316,83.69569396972656,83.57295227050781,-3.0093421936035156,87.5213394165039,-0.011160659790039062,0.03266666666666666,0.335,-0.0026854621039496527,-1.6259294920654312,-0.01098694140625156,45.70280075073242,0.0013637966579861111,-0.061452017890082464
6091,-0.21782929991861977,0.03984375953674316,83.75706481933594,83.53202819824219,-3.0298004150390625,87.45996856689453,-0.006841744316948784,0.029333333333333333,0.3360714285714286,-0.0025633917914496527,-1.7797323637695328,0.5602860450744629,45.70280075073242,0.0025004069010416668,-0.06099743313259549
6092,-0.18267304991861977,0.03984375953674316,84.32989501953125,83.73661041259766,-3.520793914794922,87.6031723022461,-0.012297227647569445,0.025666666666666667,0.3375,-0.001434326171875,-1.8346620970459,1.06564199924469,45.70280075073242,0.0065920511881510414,-0.0680440690782335
6093,-0.23736054991861977,0.03984375953674316,85.53691101074219,85.37325286865234,-3.745830535888672,88.40103149414062,-0.0054779052734375,0.022,0.3382142857142857,-0.000213623046875,-1.5709978514404312,1.4171940088272095,45.70280075073242,0.0018184238009982638,-0.07940957811143663
6094,-0.5264230499186198,0.01992187976837158,85.08683776855469,85.20958709716797,-3.4389610290527344,88.19645690917969,-0.01252454121907552,0.018333333333333333,0.3385714285714286,0.0011290656195746527,-1.4391657286376969,0.7140899896621704,45.70280075073242,-0.0013638814290364584,-0.07372686598036024
6095,-0.31939179991861977,0.01992187976837158,84.32989501953125,85.23004150390625,-3.4594192504882812,87.70545959472656,-0.0168434566921658,0.014666666666666666,0.3385714285714286,0.0028075324164496527,-1.0766283446044937,-0.12084640795898594,45.70280075073242,-0.010001627604166667,-0.06849865383572049
6096,-0.24126679991861977,0.01992187976837158,84.90271759033203,81.67034912109375,-2.10919189453125,87.91004180908203,-0.0075236850314670135,0.011333333333333334,0.33785714285714286,0.0021666632758246527,-0.7360617094726578,-0.5602861815185562,45.70280075073242,0.03591520521375868,-0.055769263373480905
6097,-0.5381417999186198,0.01992187976837158,82.9592056274414,82.69325256347656,-1.9046134948730469,85.84378051757812,-0.004795964558919271,0.008,0.3375,0.0003662109375,-0.07690300280761875,-0.2856375151367203,40.60517883300781,0.0029550340440538192,-0.030537711249457464
6098,-0.36626679991861977,0.01992187976837158,83.22515869140625,82.32501220703125,-0.8817138671875,87.13264465332031,-0.014570320977105035,0.004666666666666667,0.3357142857142857,-0.000152587890625,1.0766279697418213,0.13183200359344482,24.96076011657715,0.010001627604166667,-0.03349287245008681
6099,-0.48345429991861977,0.01992187976837158,83.67523193359375,85.33233642578125,-1.1272087097167969,85.65966796875,-0.0043413374159071184,0.0023333333333333335,0.33285714285714285,-0.000213623046875,1.2414180040359497,0.790992021560669,24.96076011657715,-0.018412272135416668,-0.01985418531629774
6100,-0.6670480499186198,0.03984375953674316,84.96409606933594,83.83889770507812,0.4276008605957031,83.69569396972656,-0.008887566460503472,0.0013333333333333333,0.3267857142857143,-0.000213623046875,1.4721240997314453,0.6701459884643555,24.96076011657715,0.012502204047309028,0.019243409898546008
6101,-0.6006417999186198,0.03984375953674316,84.5140151977539,84.63676452636719,2.0028648376464844,82.5091323852539,-0.01252454121907552,0.0006666666666666666,0.3225,-3.0517578125e-05,1.9005780220031738,0.3954960107803345,24.96076011657715,-0.0013638814290364584,0.04993036058213976
6102,-0.7022042999186198,0.03984375953674316,83.67523193359375,84.06393432617188,1.8596611022949219,81.13844299316406,-0.009114880032009548,0.0003333333333333333,0.3167857142857143,-6.103515625e-05,2.768472194671631,0.02197200059890747,24.96076011657715,-0.0043189154730902775,0.06356909010145399
6103,-0.5654855499186198,0.03984375953674316,83.67523193359375,84.02302551269531,3.3121795654296875,80.9952392578125,-0.0050232781304253475,0.0003333333333333333,0.31285714285714283,-0.0,3.5155200958251953,-0.3625379973144547,24.96076011657715,-0.0038643731011284723,0.08129933675130209
6104,-0.7490792999186198,0.03984375953674316,84.12531280517578,84.08439636230469,4.641948699951172,79.52226257324219,0.01066118876139323,0.0,0.3067857142857143,-0.0,3.4935481548309326,-0.7690206938476578,24.87286949157715,0.0004546271430121528,0.11244095696343316
