,WD,WS,AIL_1,AIL_2,ELEV_1,ELEV_2,RUDD,ALT,GS,TH,PTCH,ROLL,PLA_1,AIL,ELEV
3330,-0.42395971574435753,0.15937503814697265,41.900001525878906,85.02546691894531,-4.871021270751953,89.19889831542969,-0.014797634548611112,0.936,0.5639285714285714,-0.017577616373697917,-2.7025572233886734,0.16479000449180603,40.95674133300781,-0.47917183770073785,-0.10077688429090711
3331,-0.43177221574435753,0.17929691314697266,84.24806213378906,84.12531280517578,-4.830104827880859,89.17843627929688,-0.014797634548611112,0.9293333333333333,0.5642857142857143,-0.018615171644422744,-2.7684732847900406,-0.03295769030761875,39.726280212402344,0.0013638814290364584,-0.10009490119086371
3332,-0.37708471574435765,0.19921878814697266,84.82088470458984,82.48867797851562,-4.830104827880859,89.17843627929688,-0.01252454121907552,0.9233333333333333,0.5646428571428571,-0.01940858629014757,-2.856360095092775,0.05493000149726868,39.462608337402344,0.02591340806749132,-0.10009490119086371
3333,-0.42395971574435753,0.15937503814697265,84.61630249023438,83.42974090576172,-4.911937713623047,89.38301849365234,-0.014343007405598959,0.918,0.5653571428571429,-0.018279478285047744,-3.0980535917968766,1.1535300016403198,39.11104965209961,0.013184017605251737,-0.10327729119194878
3334,-0.46692846574435753,0.15937503814697265,85.25050354003906,84.63676452636719,-4.707359313964844,89.05569458007812,-0.01616151597764757,0.911,0.5657142857142857,-0.018157407972547744,-3.251856463500978,1.4062080383300781,38.14426040649414,0.006819322374131944,-0.09736726548936632
3335,-0.47864721574435753,0.17929691314697266,84.49356079101562,84.14576721191406,-4.605068206787109,88.89202880859375,-0.014115693834092882,0.904,0.5657142857142857,-0.018126890394422744,-2.812416689941408,1.1205720901489258,37.79269790649414,0.0038643731011284723,-0.09441218905978732
3336,-0.48255346574435753,0.17929691314697266,83.79798889160156,82.57050323486328,-4.605068206787109,88.97386169433594,-0.015252261691623263,0.8976666666666666,0.5660714285714286,-0.017760679456922744,-2.548752444335939,0.6152160167694092,37.529029846191406,0.013638729519314236,-0.09532144334581164
3337,-0.45520971574435753,0.15937503814697265,85.86424255371094,83.79798889160156,-4.830104827880859,89.09660339355469,-0.01320648193359375,0.8906666666666667,0.5664285714285714,-0.017058817545572917,-2.6256548338623062,1.8456480503082275,37.529029846191406,0.0229583740234375,-0.09918564690483941
3338,-0.49427221574435753,0.17929691314697266,86.17111206054688,86.17111206054688,-4.8914794921875,89.28073120117188,-0.01616151597764757,0.8846666666666667,0.5671428571428572,-0.016814676920572917,-2.955235140869142,2.0873401165008545,37.529029846191406,0.0,-0.1019134521484375
3339,-0.5098972157443575,0.19921878814697266,85.27096557617188,85.86424255371094,-4.932395935058594,89.36256408691406,-0.01752539740668403,0.879,0.5678571428571428,-0.017119852701822917,-3.504534380981447,0.790992021560669,37.529029846191406,-0.006591966417100695,-0.10327733357747396
3340,-0.47864721574435753,0.219140682220459,82.77508544921875,83.36836242675781,-4.564151763916016,89.13752746582031,-0.015252261691623263,0.8723333333333333,0.5678571428571428,-0.01928651597764757,-3.4056612425537125,-0.9447962218017594,37.529029846191406,-0.006591966417100695,-0.09668532477484809
3341,-0.43567846574435753,0.219140682220459,41.900001525878906,83.14332580566406,-4.645984649658203,88.95339965820312,-0.016388829549153647,0.8646666666666667,0.5678571428571428,-0.01928651597764757,-3.0650946074218766,-0.5053564482421891,36.56224060058594,-0.4582591586642795,-0.09554871453179253
3342,-0.41224096574435753,0.219140682220459,84.94363403320312,84.14576721191406,-4.789188385009766,88.99431610107422,-0.011387973361545138,0.8576666666666667,0.5678571428571428,-0.01937806871202257,-2.834389346191408,0.9777539968490601,36.38645935058594,0.008865186903211806,-0.09759449428982205
3343,-0.43567846574435753,0.219140682220459,83.69569396972656,84.57539367675781,-4.727817535400391,89.13752746582031,-0.01616151597764757,0.8503333333333334,0.5678571428571428,-0.01962220933702257,-2.834389346191408,0.8678940534591675,35.15599822998047,-0.009774441189236111,-0.0985038333468967
3344,-0.45520971574435753,0.219140682220459,82.24317932128906,82.42729949951172,-4.502777099609375,89.05569458007812,-0.015252261691623263,0.844,0.5675,-0.01950013902452257,-2.7355143004150406,-0.17577614123535312,34.540771484375,-0.002045779758029514,-0.09509412977430555
3345,-0.41614721574435753,0.19921878814697266,82.97966003417969,82.59095764160156,-4.625526428222656,89.0147705078125,-0.015252261691623263,0.8376666666666667,0.5667857142857143,-0.017821714613172744,-2.5926958494873062,0.2856360077857971,33.837650299072266,0.0043189154730902775,-0.09600329928927952
3346,-0.41224096574435753,0.17929691314697266,85.41416931152344,84.49356079101562,-4.625526428222656,89.0147705078125,-0.014343007405598959,0.8316666666666667,0.5657142857142857,-0.016631571451822917,-2.3400179320068375,1.966494083404541,33.749759674072266,0.010228983561197917,-0.09600329928927952
3347,-0.42395971574435753,0.19921878814697266,84.08439636230469,85.18913269042969,-4.645984649658203,89.03523254394531,-0.012979168362087673,0.8236666666666667,0.5653571428571429,-0.016997782389322917,-2.3619905882568375,2.3180460929870605,33.749759674072266,-0.012274848090277778,-0.09645796881781685
3348,-0.42395971574435753,0.19921878814697266,82.81600189208984,81.93630981445312,-4.564151763916016,88.93293762207031,-0.01797998216417101,0.8186666666666667,0.5639285714285714,-0.01623488532172309,-2.482836382934572,1.032684087753296,33.749759674072266,0.009774356418185763,-0.09441210428873698
3349,-0.39270971574435765,0.17929691314697266,85.57783508300781,84.08439636230469,-4.5846099853515625,88.93293762207031,-0.01547957526312934,0.812,0.5632142857142857,-0.013885074191623263,-2.241144793579103,1.6698720455169678,33.486087799072266,0.016593763563368055,-0.09463941786024306
3350,-0.34974096574435765,0.17929691314697266,86.47798156738281,86.64164733886719,-4.686901092529297,89.05569458007812,-0.01911655002170139,0.806,0.5617857142857143,-0.012511825561523438,-2.1093126707763687,1.6808580160140991,33.39820098876953,-0.001818508572048611,-0.09713995191786025
3351,-0.36145971574435765,0.19921878814697266,84.57539367675781,84.37080383300781,-4.707359313964844,89.1579818725586,-0.01775266859266493,0.8,0.5610714285714286,-0.013824039035373263,-2.230158465454103,-0.4064833098144547,33.39820098876953,0.0022732204861111113,-0.09850379096137153
3352,-0.37708471574435765,0.19921878814697266,83.22515869140625,83.38882446289062,-4.686901092529297,89.0761489868164,-0.017070770263671875,0.7946666666666666,0.5592857142857143,-0.01541091071234809,-2.263117449829103,-1.2743765288085953,33.39820098876953,-0.001818508572048611,-0.09736722310384115
3353,-0.35364721574435765,0.219140682220459,84.63676452636719,83.08195495605469,-4.5846099853515625,88.95339965820312,-0.014343007405598959,0.788,0.5582142857142857,-0.016417948404947917,-2.241144793579103,-1.0436712675781266,33.39820098876953,0.01727566189236111,-0.0948667738172743
3354,-0.34192846574435765,0.219140682220459,84.53446960449219,83.77752685546875,-4.768730163574219,88.99431610107422,-0.01320648193359375,0.7793333333333333,0.5567857142857143,-0.016662089029947917,-2.0873400145263687,0.0,33.39820098876953,0.008410474989149305,-0.09736718071831597
3355,-0.38099096574435765,0.15937503814697265,85.80287170410156,83.24562072753906,-4.605068206787109,89.03523254394531,-0.02093505859375,0.777,0.5560714285714285,-0.013701968722873263,-2.219172137329103,0.05493000149726868,33.39820098876953,0.028413899739583335,-0.09600334167480469
3356,-0.25989721574435765,0.13945316314697265,85.98699188232422,86.19157409667969,-4.625526428222656,88.91248321533203,-0.019343863593207465,0.7716666666666666,0.5553571428571429,-0.010162056816948786,-2.0873400145263687,1.219446063041687,33.39820098876953,-0.002273135715060764,-0.0948667738172743
3357,-0.26380346574435765,0.13945316314697265,85.68012237548828,84.61630249023438,-4.686901092529297,89.05569458007812,-0.0168434566921658,0.766,0.5546428571428571,-0.009765328301323786,-2.4169203215332047,1.3512780666351318,33.837650299072266,0.011820220947265625,-0.09713995191786025
3358,-0.44349096574435753,0.13945316314697265,82.07951354980469,81.97721862792969,-4.645984649658203,89.13752746582031,-0.008205625745985243,0.7573333333333333,0.5542857142857143,-0.01138271755642361,-2.7794596129150406,0.790992021560669,34.364990234375,0.0011366102430555556,-0.09759457906087239
3359,-0.42395971574435753,0.07968751907348633,82.77508544921875,80.83157348632812,-4.625526428222656,89.05569458007812,-0.014797634548611112,0.7536666666666667,0.5539285714285714,-0.008117421468098959,-2.790444033691408,0.45042601227760315,34.540771484375,0.021594577365451388,-0.09645801120334202
3360,-0.30677221574435765,0.03984375953674316,88.48286437988281,86.35523986816406,-4.830104827880859,89.13752746582031,-0.020707745022243925,0.7496666666666667,0.5542857142857143,-0.004211298624674479,-2.955235140869142,1.8786060810089111,35.15599822998047,0.023640272352430554,-0.0996403588189019
3361,-0.5020847157443575,0.09960939407348633,84.90271759033203,84.35034942626953,-4.768730163574219,89.0761489868164,-0.008660252888997395,0.746,0.5546428571428571,-0.0076902177598741316,-3.537493365356447,0.8239500522613525,35.50756072998047,0.006137424045138889,-0.09827643500434027
3362,-0.34192846574435765,0.15937503814697265,80.58607482910156,82.0385971069336,-4.707359313964844,89.28073120117188,-0.009114880032009548,0.7396666666666667,0.5557142857142857,-0.01110805935329861,-4.196652072021486,-1.3293062620849625,36.1227912902832,-0.0161391364203559,-0.09986767239040799
3363,-0.46302221574435753,0.13945316314697265,82.93875122070312,82.550048828125,-4.707359313964844,89.28073120117188,-0.01661614312065972,0.736,0.5564285714285714,-0.012542343139648438,-4.196652072021486,-2.252131121704103,36.29856872558594,0.0043189154730902775,-0.09986767239040799
3364,-0.5177097157443575,0.17929691314697266,82.38638305664062,83.12287139892578,-4.380031585693359,88.76927947998047,-0.0059324900309244795,0.729,0.5575,-0.01620436774359809,-3.7791849547119156,-1.4940973692626969,35.7712287902832,-0.008183203803168403,-0.0905479007297092
3365,-0.48645971574435753,0.19921878814697266,81.64989471435547,80.70883178710938,-4.482318878173828,88.72836303710938,-0.008660252888997395,0.721,0.5582142857142857,-0.018615171644422744,-3.581436770507814,-1.2304331236572281,35.41967010498047,0.010456254747178819,-0.09122979905870225
3366,-0.5567722157443575,0.17929691314697266,84.84133911132812,83.20470428466797,-4.380031585693359,88.83065795898438,-0.01661614312065972,0.7156666666666667,0.5596428571428571,-0.017699686686197917,-3.603409426757814,0.5712720155715942,35.41967010498047,0.01818483140733507,-0.0912298838297526
3367,-0.5919284657443575,0.15937503814697265,84.94363403320312,84.86180114746094,-4.3595733642578125,88.62606811523438,-0.01252454121907552,0.709,0.5603571428571429,-0.016601053873697917,-3.2957998686523453,2.197200059890747,35.50756072998047,0.0009092542860243056,-0.08872934977213541
3368,-0.5177097157443575,0.17929691314697266,84.16622924804688,85.16867065429688,-4.4209442138671875,88.62606811523438,-0.01957117716471354,0.7023333333333334,0.5610714285714286,-0.016540018717447917,-2.889319079467775,1.768746018409729,36.0349006652832,-0.011138237847222222,-0.08941124810112847
3369,-0.5723972157443575,0.15937503814697265,83.24562072753906,82.5091323852539,-4.5846099853515625,89.0147705078125,-0.01843460930718316,0.6956666666666667,0.5625,-0.01531935797797309,-3.0650946074218766,0.26366400718688965,37.17747116088867,0.008183203803168403,-0.09554867214626736
3370,-0.6036472157443575,0.1195312786102295,84.02302551269531,83.1024169921875,-4.5846099853515625,88.99431610107422,-0.01752539740668403,0.6916666666666667,0.5635714285714286,-0.012969589233398438,-3.262842791625978,-0.20873512561035312,37.265357971191406,0.010228983561197917,-0.09532140096028646
3371,-0.5567722157443575,0.09960939407348633,85.29141998291016,83.47065734863281,-4.400489807128906,89.05569458007812,-0.01547957526312934,0.6866666666666666,0.5642857142857143,-0.01168789333767361,-3.207913058349611,-0.06591667468261875,37.265357971191406,0.02023069593641493,-0.09395760430230035
3372,-0.5333347157443575,0.1195312786102295,85.02546691894531,85.49600219726562,-4.523235321044922,88.72836303710938,-0.01070603264702691,0.6796666666666666,0.565,-0.013640933566623263,-2.7465006285400406,0.373524010181427,37.265357971191406,-0.005228169759114583,-0.09168442620171441
3373,-0.5489597157443575,0.15937503814697265,83.06149291992188,83.36836242675781,-4.5846099853515625,88.97386169433594,-0.013433795505099827,0.6733333333333333,0.5653571428571429,-0.01623488532172309,-2.471850054809572,-0.6371885710449234,37.704811096191406,-0.003409661187065972,-0.09509412977430555
3374,-0.5372409657443575,0.15937503814697265,84.0025634765625,83.18424987792969,-4.645984649658203,89.09660339355469,-0.0168434566921658,0.6676666666666666,0.5657142857142857,-0.016540018717447917,-2.581711428710939,-0.6042314940185562,37.704811096191406,0.00909237331814236,-0.0971398671468099
3375,-0.5489597157443575,0.15937503814697265,84.18669128417969,83.81844329833984,-4.789188385009766,89.13752746582031,-0.013661109076605903,0.6626666666666666,0.5657142857142857,-0.016601053873697917,-2.9991785460205094,0.13183200359344482,37.00168991088867,0.004091644287109375,-0.09918573167588976
3376,-0.5528659657443575,0.15937503814697265,83.4501953125,81.87493133544922,-4.707359313964844,89.30118560791016,-0.010478719075520834,0.6566666666666666,0.5664285714285714,-0.017150370279947917,-3.273829119750978,-0.09887375170898594,36.91379928588867,0.017502933078342015,-0.10009494357638889
3377,-0.5528659657443575,0.13945316314697265,85.25050354003906,83.57295227050781,-4.768730163574219,89.13752746582031,-0.016388829549153647,0.6513333333333333,0.5671428571428572,-0.01544142829047309,-3.493548052856447,0.6591600179672241,36.91379928588867,0.018639458550347224,-0.09895841810438367
3378,-0.6505222157443575,0.1195312786102295,83.94119262695312,84.1048583984375,-4.523235321044922,89.23981475830078,-0.016388829549153647,0.6463333333333333,0.5678571428571428,-0.013885074191623263,-3.4715773039550797,0.8349360227584839,36.56224060058594,-0.001818508572048611,-0.09736722310384115
3379,-0.49427221574435753,0.09960939407348633,87.0712661743164,85.57783508300781,-4.564151763916016,88.74882507324219,-0.01979849073621962,0.64,0.5678571428571428,-0.012755966186523438,-3.273829119750978,1.0107120275497437,36.29856872558594,0.01659367879231771,-0.09236640930175781
3380,-0.5098972157443575,0.13945316314697265,85.88470458984375,86.0688247680664,-4.911937713623047,89.23981475830078,-0.013888380262586805,0.634,0.5685714285714286,-0.01541091071234809,-3.515520709106447,1.2304320335388184,36.29856872558594,-0.002045779758029514,-0.10168613857693143
3381,-0.5567722157443575,0.219140682220459,85.02546691894531,85.0050048828125,-5.157432556152344,89.38301849365234,-0.014115693834092882,0.629,0.5692857142857143,-0.02032411363389757,-3.812142031738283,0.6921180486679077,34.892330169677734,0.00022735595703125,-0.10600501166449652
3382,-0.5333347157443575,0.25898443222045897,82.75462341308594,79.25630950927734,-4.686901092529297,89.03523254394531,-0.011160659790039062,0.6203333333333333,0.5689285714285715,-0.02297905815972222,-3.91101707751465,-0.6262022429199234,34.013431549072266,0.038870154486762155,-0.09691259596082899
3383,-0.46692846574435753,0.19921878814697266,84.0025634765625,82.22271728515625,-4.236824035644531,89.09660339355469,-0.015252261691623263,0.6133333333333333,0.5689285714285715,-0.01977479722764757,-3.1090380125732437,0.4723980128765106,33.837650299072266,0.01977606879340278,-0.09259363810221354
3384,-0.5059909657443575,0.17929691314697266,86.662109375,85.08683776855469,-4.257282257080078,88.31919860839844,-0.01797998216417101,0.606,0.5682142857142857,-0.017577616373697917,-2.7794596129150406,1.8456480503082275,33.573978424072266,0.01750301784939236,-0.08418312072753906
3385,-0.5177097157443575,0.17929691314697266,84.32989501953125,83.92073059082031,-4.482318878173828,88.85111236572266,-0.013433795505099827,0.5973333333333334,0.5678571428571428,-0.017363993326822917,-2.1312853270263687,1.2084600925445557,32.07984924316406,0.004546271430121528,-0.09259368048773872
3386,-0.48255346574435753,0.13945316314697265,84.37080383300781,83.5934066772461,-4.441402435302734,89.0147705078125,-0.020707745022243925,0.5916666666666667,0.5671428571428572,-0.014037662082248263,-2.3619905882568375,0.032958000898361206,31.728290557861328,0.008637746175130209,-0.09395747714572483
3387,-0.43958471574435753,0.09960939407348633,89.0147705078125,86.04837036132812,-4.768730163574219,89.03523254394531,-0.018889236450195312,0.5886666666666667,0.5667857142857143,-0.01177944607204861,-2.6036821776123062,0.8678940534591675,31.552509307861328,0.032960001627604166,-0.09782180786132813
3388,-0.47474096574435753,0.13945316314697265,84.61630249023438,84.6572265625,-4.871021270751953,89.23981475830078,-0.011387973361545138,0.583,0.5657142857142857,-0.014159732394748263,-3.0211512022705094,0.6042300462722778,31.552509307861328,-0.0004547119140625,-0.10123151143391927
3389,-0.33020971574435765,0.17929691314697266,83.02058410644531,81.97721862792969,-4.7482757568359375,89.28073120117188,-0.01616151597764757,0.5776666666666667,0.5653571428571429,-0.014831119113498263,-3.6803099089355484,-0.7140909605712906,32.25563049316406,0.011592949761284723,-0.10032229953342015
3390,-0.29505346574435765,0.17929691314697266,83.57295227050781,82.83645629882812,-4.932395935058594,89.32164001464844,-0.012751854790581597,0.572,0.5642857142857143,-0.013915591769748263,-3.3836885863037125,0.07690200209617615,32.25563049316406,0.00818328857421875,-0.10282262166341145
3391,-0.27552221574435765,0.17929691314697266,85.90515899658203,83.26608276367188,-4.768730163574219,89.38301849365234,-0.012069914076063368,0.567,0.5639285714285714,-0.014007144504123263,-3.4605909758300797,0.747048020362854,30.058380126953125,0.029323069254557292,-0.10168609619140626
3392,-0.42005346574435753,0.15937503814697265,82.73416900634766,84.63676452636719,-4.7482757568359375,89.19889831542969,-0.01320648193359375,0.5606666666666666,0.5628571428571428,-0.01556349860297309,-3.537493365356447,1.3622640371322632,29.970489501953125,-0.021139950222439235,-0.09941304524739583
3393,-0.42395971574435753,0.17929691314697266,83.38882446289062,81.48623657226562,-4.564151763916016,89.03523254394531,-0.015024948120117187,0.5546666666666666,0.5625,-0.016875712076822917,-3.87805809313965,-0.10986007983398594,29.794710159301758,0.02113986545138889,-0.09554871453179253
3394,-0.31067846574435765,0.17929691314697266,85.0459213256836,83.49111938476562,-4.789188385009766,89.34210205078125,-0.013661109076605903,0.5496666666666666,0.5625,-0.014403873019748263,-4.020876544067384,0.4064820110797882,29.794710159301758,0.017275577121310764,-0.10145878261990017
3395,-0.40052221574435753,0.15937503814697265,85.98699188232422,86.0688247680664,-4.7482757568359375,89.34210205078125,-0.015252261691623263,0.5453333333333333,0.5621428571428572,-0.014098697238498263,-3.87805809313965,1.450152039527893,29.794710159301758,-0.0009092542860243056,-0.1010041978624132
3396,-0.34192846574435765,0.219140682220459,84.554931640625,84.5140151977539,-4.482318878173828,88.81019592285156,-0.012979168362087673,0.538,0.5614285714285714,-0.017211405436197917,-3.7242552214355484,0.2746500074863434,29.794710159301758,0.0004546271430121528,-0.09213905334472657
3397,-0.40442846574435753,0.239062557220459,85.02546691894531,84.61630249023438,-4.380031585693359,88.87156677246094,-0.013888380262586805,0.531,0.5610714285714286,-0.01995790269639757,-2.801430361816408,0.1867620050907135,29.794710159301758,0.004546271430121528,-0.09168442620171441
3398,-0.46302221574435753,0.25898443222045897,84.98455047607422,83.47065734863281,-4.339115142822266,88.70790100097656,-0.014115693834092882,0.5233333333333333,0.5592857142857143,-0.02218560112847222,-2.252131121704103,0.02197200059890747,29.794710159301758,0.01682103474934896,-0.08941129048665365
3399,-0.48255346574435753,0.25898443222045897,85.20958709716797,83.79798889160156,-4.318656921386719,88.91248321533203,-0.012979168362087673,0.517,0.5585714285714286,-0.02252129448784722,-1.8456484251709,0.41746801137924194,29.794710159301758,0.015684424506293402,-0.09145711263020834
3400,-0.49427221574435753,0.25898443222045897,84.57539367675781,85.12775421142578,-4.3595733642578125,88.76927947998047,-0.015706888834635415,0.5106666666666667,0.5567857142857143,-0.02246025933159722,-1.9555078917236344,0.7250760197639465,29.706819534301758,-0.006137339274088541,-0.09032058715820312
3401,-0.5020847157443575,0.25898443222045897,84.22760009765625,82.85691833496094,-4.400489807128906,88.76927947998047,-0.01616151597764757,0.5046666666666667,0.5557142857142857,-0.02267388237847222,-1.7687460356445328,-0.18676246936035312,29.794710159301758,0.01522979736328125,-0.09077521430121528
3402,-0.45130346574435753,0.219140682220459,84.30943298339844,83.5115737915039,-4.339115142822266,88.89202880859375,-0.018889236450195312,0.49833333333333335,0.5542857142857143,-0.020659764607747395,-1.560013430664064,0.0,31.113059997558594,0.008865102132161459,-0.09145715501573351
3403,-0.41224096574435753,0.219140682220459,81.73172760009766,81.79310607910156,-4.380031585693359,88.89202880859375,-0.015024948120117187,0.49333333333333335,0.5532142857142858,-0.01937806871202257,-1.3952223234863297,-0.4614130430908219,33.749759674072266,-0.0006819831000434028,-0.09191178215874565
3404,-0.37708471574435765,0.19921878814697266,82.59095764160156,83.63432312011719,-4.727817535400391,89.03523254394531,-0.015024948120117187,0.489,0.5517857142857143,-0.018218443128797744,-1.6698728972167984,0.0,34.716548919677734,-0.011592949761284723,-0.09736722310384115
3405,-0.32239721574435765,0.19921878814697266,85.18913269042969,83.73661041259766,-4.871021270751953,89.38301849365234,-0.015024948120117187,0.485,0.5510714285714285,-0.017547098795572917,-2.0873400145263687,0.6811320185661316,35.24388885498047,0.0161391364203559,-0.10282266404893663
3406,-0.36145971574435765,0.19921878814697266,85.35279846191406,85.70057678222656,-4.952854156494141,89.38301849365234,-0.011160659790039062,0.481,0.5492857142857143,-0.018035337660047744,-2.504809039184572,1.7577600479125977,35.24388885498047,-0.0038642035590277777,-0.10373191833496094
3407,-0.38099096574435765,0.239062557220459,82.97966003417969,84.18669128417969,-4.645984649658203,89.2193603515625,-0.012069914076063368,0.475,0.5492857142857143,-0.02017152574327257,-2.5926958494873062,0.9008520245552063,34.364990234375,-0.013411458333333333,-0.0985038333468967
3408,-0.45520971574435753,0.239062557220459,81.38394165039062,81.52714538574219,-4.564151763916016,88.95339965820312,-0.0034320831298828127,0.4666666666666667,0.5478571428571428,-0.021636327107747395,-2.3180471831054703,-0.2636648588867203,34.277099609375,-0.001591152615017361,-0.09463946024576823
3409,-0.5098972157443575,0.17929691314697266,83.22515869140625,83.87982177734375,-4.523235321044922,89.03523254394531,-0.01957117716471354,0.4633333333333333,0.5478571428571428,-0.017363993326822917,-2.5926958494873062,0.38451001048088074,34.101318359375,-0.007274034288194444,-0.09509408738878038
3410,-0.46692846574435753,0.13945316314697265,85.20958709716797,81.83401489257812,-4.482318878173828,88.87156677246094,-0.014797634548611112,0.4563333333333333,0.5475,-0.01504469977484809,-2.5926958494873062,0.1867620050907135,34.980220794677734,0.037506357828776045,-0.09282095167371962
3411,-0.48255346574435753,0.1195312786102295,86.1097412109375,86.29386138916016,-4.768730163574219,89.0147705078125,-0.01797998216417101,0.453,0.5478571428571428,-0.013640933566623263,-2.911289828369142,1.922550082206726,36.1227912902832,-0.002045779758029514,-0.09759445190429687
3412,-0.5333347157443575,0.13945316314697265,84.0434799194336,84.37080383300781,-4.8096466064453125,89.2193603515625,-0.01957117716471354,0.44633333333333336,0.5489285714285714,-0.014617496066623263,-3.4496046477050797,0.4394400119781494,33.837650299072266,-0.003636932373046875,-0.10032229953342015
3413,-0.5958347157443575,0.13945316314697265,84.92317199707031,84.47309875488281,-4.5846099853515625,88.91248321533203,-0.018661922878689237,0.44266666666666665,0.5492857142857143,-0.013488345675998263,-4.130736010620119,-0.10986007983398594,29.970489501953125,0.0050008138020833336,-0.09441214667426215
3414,-0.7052096879665798,0.15937503814697265,84.12531280517578,83.49111938476562,-4.482318878173828,89.23981475830078,-0.014343007405598959,0.436,0.5489285714285714,-0.013274765014648438,-3.240870135375978,0.12084600329399109,29.706819534301758,0.007046593560112847,-0.09691259596082899
3415,-0.5528659657443575,0.13945316314697265,85.53691101074219,84.30943298339844,-3.5412521362304688,88.31919860839844,-0.011387973361545138,0.42733333333333334,0.5485714285714286,-0.014586978488498263,-3.229883807250978,0.6921180486679077,29.53104019165039,0.013638644748263888,-0.07622723049587674
3416,-0.5567722157443575,0.17929691314697266,86.23248291015625,84.63676452636719,-3.8276634216308594,88.05325317382812,-0.014797634548611112,0.42,0.5492857142857143,-0.016387430826822917,-2.559738772460939,0.6701459884643555,29.53104019165039,0.017730204264322917,-0.07645462883843315
3417,-0.5489597157443575,0.17929691314697266,84.02302551269531,84.88226318359375,-4.11407470703125,88.44195556640625,-0.013433795505099827,0.41133333333333333,0.5496428571428571,-0.017547098795572917,-2.0324102812500016,0.45042601227760315,29.53104019165039,-0.009547085232204862,-0.08395589192708333
3418,-0.47474096574435753,0.15937503814697265,83.24562072753906,83.61386108398438,-4.257282257080078,88.78973388671875,-0.01775266859266493,0.407,0.5478571428571428,-0.01608229743109809,-2.175228732177736,-0.2966219359130875,29.53104019165039,-0.004091559516059028,-0.08941129048665365
3419,-0.43958471574435753,0.1195312786102295,83.94119262695312,83.1024169921875,-4.4209442138671875,88.91248321533203,-0.02457203335232205,0.4033333333333333,0.5471428571428572,-0.013396835327148438,-2.6146685057373062,-0.2636648588867203,29.53104019165039,0.009319729275173612,-0.09259363810221354
3420,-0.31067846574435765,0.1195312786102295,86.662109375,84.41172790527344,-5.709800720214844,89.81263732910156,-0.012979168362087673,0.4003333333333333,0.545,-0.01147427029079861,-3.273829119750978,0.6042300462722778,29.53104019165039,0.02500423855251736,-0.11691597832573784
3421,-0.28333471574435765,0.15937503814697265,89.0761489868164,89.85355377197266,-5.771175384521484,89.89447021484375,-0.02434471978081597,0.39166666666666666,0.5432142857142858,-0.01184048122829861,-3.87805809313965,2.0763540267944336,29.53104019165039,-0.008637830946180555,-0.11850717332628039
3422,-0.45911596574435753,0.25898443222045897,81.64989471435547,84.5958480834961,-6.262165069580078,90.61050415039062,0.004296493530273437,0.39266666666666666,0.5396428571428571,-0.02300957573784722,-4.745953219482423,-0.4174677305908219,29.53104019165039,-0.03273281521267361,-0.13191854688856336
3423,-0.47474096574435753,0.25898443222045897,82.63188171386719,81.34302520751953,-5.7507171630859375,90.69232940673828,-0.019343863593207465,0.38366666666666666,0.5357142857142857,-0.02407764858669705,-4.262568133422853,-2.812416689941408,29.53104019165039,0.014320627848307291,-0.12714496188693578
3424,-0.49036596574435753,0.17929691314697266,85.33233642578125,83.06149291992188,-5.177890777587891,89.52622985839844,-0.023435465494791665,0.37733333333333335,0.5307142857142857,-0.01931703355577257,-4.130736010620119,-0.3515516691894547,29.53104019165039,0.02523159450954861,-0.10782356262207031
3425,-0.49036596574435753,0.19921878814697266,85.86424255371094,85.53691101074219,-5.66888427734375,89.54668426513672,-0.010251405504014757,0.36966666666666664,0.5275,-0.01998842027452257,-3.196926730224611,1.5270540714263916,29.44314956665039,0.003637017144097222,-0.11350631713867188
3426,-0.45130346574435753,0.19921878814697266,85.08683776855469,84.73905181884766,-6.323539733886719,90.71278381347656,-0.019343863593207465,0.3636666666666667,0.5217857142857143,-0.01940858629014757,-2.878332751342775,0.8129640221595764,29.44314956665039,0.003864288330078125,-0.13373692830403647
3427,-0.39270971574435765,0.17929691314697266,86.21202850341797,83.94119262695312,-8.328422546386719,91.73568725585938,-0.022298897637261283,0.362,0.5171428571428571,-0.017302958170572917,-3.3836885863037125,0.2526780068874359,29.44314956665039,0.025231509738498265,-0.16737899780273438
3428,-0.39270971574435765,0.19921878814697266,84.39126586914062,84.22760009765625,-8.042011260986328,91.85843658447266,-0.013661109076605903,0.357,0.5089285714285714,-0.018004820081922744,-4.4383455687255875,0.2856360077857971,29.44314956665039,0.001818508572048611,-0.16556053161621093
3429,-0.40052221574435753,0.17929691314697266,82.18180847167969,83.57295227050781,-7.7555999755859375,92.6358413696289,-0.023662779066297743,0.3546666666666667,0.505,-0.016540018717447917,-5.591875689575197,-0.5932451658935562,29.44314956665039,-0.0154571533203125,-0.1710160149468316
3430,-0.27161596574435765,0.1195312786102295,84.06393432617188,84.02302551269531,-7.44873046875,91.91981506347656,-0.027981694539388022,0.3536666666666667,0.49892857142857144,-0.01135219997829861,-6.998083727905275,-0.02197326953125156,29.44314956665039,0.00045454237196180554,-0.15965050591362848
3431,-0.44349096574435753,0.1195312786102295,86.76439666748047,85.61874389648438,-7.100944519042969,91.55156707763672,-0.015024948120117187,0.347,0.49642857142857144,-0.012786483764648438,-6.756390231201173,0.7250760197639465,29.44314956665039,0.012729475233289931,-0.15169457329644098
3432,-0.43177221574435753,0.13945316314697265,86.19157409667969,86.94851684570312,-6.405372619628906,90.18087768554688,-0.01002409193250868,0.3413333333333333,0.4925,-0.01516677008734809,-6.569628375122072,1.0766279697418213,29.44314956665039,-0.008410474989149305,-0.12873611450195313
3433,-0.41614721574435753,0.15937503814697265,81.77264404296875,85.29141998291016,-5.484760284423828,90.48774719238281,-0.020025804307725693,0.3313333333333333,0.49,-0.01617385016547309,-5.383141177246095,-0.2746511870117203,29.44314956665039,-0.0390975104437934,-0.12191674974229601
3434,-0.43958471574435753,0.13945316314697265,84.96409606933594,87.1121826171875,-6.180332183837891,90.69232940673828,-0.026390499538845487,0.32366666666666666,0.4860714285714286,-0.01553298102484809,-4.548205035278322,-0.07690300280761875,29.44314956665039,-0.023867628309461805,-0.131918462117513
3435,-0.34583471574435765,0.25898443222045897,84.30943298339844,84.73905181884766,-6.078044891357422,90.2218017578125,-0.0054779052734375,0.31966666666666665,0.4832142857142857,-0.021636327107747395,-4.965672152587892,0.3405660092830658,29.44314956665039,-0.004773542616102431,-0.12555385165744357
3436,-0.47083471574435753,0.25898443222045897,78.82669067382812,83.49111938476562,-5.627967834472656,90.34454345703125,-0.010251405504014757,0.31266666666666665,0.4789285714285714,-0.025450897216796876,-4.449329989501955,-0.7470480375976578,29.44314956665039,-0.05182698567708333,-0.12191679212782118
3437,-0.42005346574435753,0.19921878814697266,84.86180114746094,83.18424987792969,-5.546134948730469,90.09904479980469,-0.027072440253363715,0.30966666666666665,0.4757142857142857,-0.021300633748372395,-3.6473528319091812,-0.10986007983398594,29.44314956665039,0.018639458550347224,-0.11827977498372395
3438,-0.34192846574435765,0.219140682220459,86.25294494628906,85.72103881835938,-6.078044891357422,90.75370788574219,-0.01797998216417101,0.30366666666666664,0.47,-0.01937806871202257,-2.801430361816408,0.9887400269508362,29.44314956665039,0.0059100680881076385,-0.13146391974555122
3439,-0.38099096574435765,0.239062557220459,84.94363403320312,86.0074462890625,-6.282623291015625,91.32653045654297,-0.015024948120117187,0.2996666666666667,0.4657142857142857,-0.021575291951497395,-2.7794596129150406,0.6042300462722778,29.44314956665039,-0.011820136176215277,-0.1401017083062066
3440,-0.40442846574435753,0.239062557220459,84.63676452636719,83.92073059082031,-5.9757537841796875,90.569580078125,-0.01752539740668403,0.296,0.4589285714285714,-0.02242974175347222,-3.1419969969482437,-0.7250772886962906,29.44314956665039,0.0079559326171875,-0.12828148735894096
3441,-0.39661596574435753,0.19921878814697266,83.38882446289062,82.69325256347656,-5.873462677001953,90.79461669921875,-0.01797998216417101,0.293,0.455,-0.02035463121202257,-2.966221468994142,-1.2853628569335953,29.44314956665039,0.00772857666015625,-0.12964532640245224
3442,-0.36536596574435765,0.19921878814697266,85.94607543945312,85.12775421142578,-5.873462677001953,90.6309585571289,-0.01661614312065972,0.2886666666666667,0.44892857142857145,-0.02011049058702257,-3.0541082792968766,0.010986000299453735,29.44314956665039,0.009092458089192708,-0.127826902601454
3443,-0.38489721574435765,0.239062557220459,85.90515899658203,85.57783508300781,-5.607509613037109,90.20133972167969,-0.011160659790039062,0.2846666666666667,0.445,-0.02423023647732205,-3.0431219511718766,0.10986000299453735,29.44314956665039,0.003636932373046875,-0.12009832594129774
3444,-0.38880346574435765,0.25898443222045897,83.63432312011719,84.16622924804688,-5.382472991943359,89.91493225097656,-0.017070770263671875,0.28,0.43964285714285717,-0.025847625732421876,-2.5926958494873062,-0.834936755249025,26.71855926513672,-0.0059100680881076385,-0.11441561381022135
3445,-0.36536596574435765,0.239062557220459,85.25050354003906,82.83645629882812,-5.11651611328125,89.83309936523438,-0.020707745022243925,0.2763333333333333,0.4357142857142857,-0.02313164605034722,-1.9115644865722672,-1.3842359953613297,26.63067054748535,0.026822747124565973,-0.11055128309461805
3446,-0.36536596574435765,0.19921878814697266,86.72348022460938,87.09172058105469,-4.707359313964844,89.30118560791016,-0.01797998216417101,0.27166666666666667,0.43,-0.020598729451497395,-1.6588865690917984,0.6152160167694092,26.63067054748535,-0.004091559516059028,-0.10009494357638889
3447,-0.37317846574435765,0.239062557220459,86.31431579589844,87.29630279541016,-4.993770599365234,89.50576782226562,-0.01002409193250868,0.268,0.4257142857142857,-0.02438282436794705,-1.3842359953613297,0.7580339908599854,26.63067054748535,-0.01091096666124132,-0.10555042690700955
3448,-0.41614721574435753,0.25898443222045897,84.98455047607422,85.18913269042969,-4.523235321044922,89.28073120117188,-0.013661109076605903,0.264,0.42,-0.027983771430121526,-1.3402925902099625,-1.142544406005861,26.54277992248535,-0.002273135715060764,-0.0978218502468533
3449,-0.43177221574435753,0.25898443222045897,85.1072998046875,84.554931640625,-3.8481216430664062,88.81019592285156,-0.01661614312065972,0.26033333333333336,0.41678571428571426,-0.028777228461371526,-1.2414194517822281,-1.8236757689209,26.54277992248535,0.006137424045138889,-0.08509241739908854
3450,-0.45520971574435753,0.239062557220459,86.17111206054688,85.92561340332031,-3.8276634216308594,88.44195556640625,-0.01775266859266493,0.257,0.4117857142857143,-0.028899298773871526,-1.0107122832031266,-0.5932451658935562,26.54277992248535,0.002727762858072917,-0.08077354431152343
3451,-0.47083471574435753,0.25898443222045897,84.67768096923828,84.71859741210938,-3.5412521362304688,88.05325317382812,-0.014115693834092882,0.25266666666666665,0.4089285714285714,-0.03149320814344618,-1.0766283446044937,-0.3076082640380875,26.54277992248535,-0.0004546271430121528,-0.07327228122287327
3452,-0.48255346574435753,0.2789063262939453,86.13019561767578,85.94607543945312,-4.605068206787109,88.62606811523438,-0.017070770263671875,0.24866666666666667,0.405,-0.033812459309895834,-1.0766283446044937,0.05493000149726868,26.54277992248535,0.002045779758029514,-0.09145707024468316
3453,-0.49036596574435753,0.2789063262939453,85.78240966796875,83.34790802001953,-4.605068206787109,89.40347290039062,-0.01979849073621962,0.24633333333333332,0.4017857142857143,-0.03274438646104601,-1.9335371428222672,-0.5932451658935562,26.54277992248535,0.027050018310546875,-0.10009490119086371
3454,-0.42786596574435753,0.2789063262939453,88.13508605957031,87.29630279541016,-5.8939208984375,89.99675750732422,-0.01775266859266493,0.24233333333333335,0.3960714285714286,-0.03207299974229601,-2.6366411619873062,-0.16478981311035312,26.54277992248535,0.009319814046223958,-0.12100753784179688
3455,-0.44349096574435753,0.3187500762939453,84.14576721191406,85.90515899658203,-5.546134948730469,90.13996887207031,-0.01002409193250868,0.23966666666666667,0.3925,-0.03607071770562066,-3.284815447875978,-0.9228254729003922,26.54277992248535,-0.019548797607421876,-0.11873448689778646
3456,-0.47474096574435753,0.29882820129394533,81.77264404296875,78.9494400024414,-5.8939208984375,91.10148620605469,-0.018207295735677084,0.236,0.38607142857142857,-0.037810134887695315,-3.943974154541017,-3.3397451811523453,26.54277992248535,0.03136893378363715,-0.1332823011610243
3457,-0.47083471574435753,0.239062557220459,84.47309875488281,81.11798858642578,-5.607509613037109,90.54912567138672,-0.0323006100124783,0.235,0.3817857142857143,-0.03262231614854601,-5.009617465087892,-2.3729769163818375,26.54277992248535,0.037279001871744794,-0.12396261427137586
3458,-0.47083471574435753,0.219140682220459,84.69813537597656,85.61874389648438,-4.993770599365234,89.09660339355469,-0.018207295735677084,0.229,0.3767857142857143,-0.03185941908094618,-5.4051119261474625,0.4394400119781494,26.54277992248535,-0.010228983561197917,-0.10100415547688803
3459,-0.40052221574435753,0.19921878814697266,84.86180114746094,83.98210144042969,-5.627967834472656,90.48774719238281,-0.02389009263780382,0.22466666666666665,0.3742857142857143,-0.029234949747721353,-5.4051119261474625,-0.13183273608398594,26.54277992248535,0.009774441189236111,-0.12350794474283854
3460,-0.38099096574435765,0.17929691314697266,85.78240966796875,86.39614868164062,-4.911937713623047,90.38545989990234,-0.020480431450737847,0.222,0.37107142857142855,-0.026213836669921876,-6.4268099241943375,0.3405660092830658,26.54277992248535,-0.006819322374131944,-0.114415529039171
3461,-0.41224096574435753,0.17929691314697266,83.20470428466797,84.86180114746094,-4.134532928466797,88.97386169433594,-0.01775266859266493,0.21666666666666667,0.36892857142857144,-0.027007251315646703,-6.833292620727541,0.26366400718688965,26.54277992248535,-0.01841218736436632,-0.09009327358669705
3462,-0.38099096574435765,0.15937503814697265,85.1072998046875,85.5982894897461,-3.9708709716796875,88.6056137084961,-0.022298897637261283,0.21333333333333335,0.36678571428571427,-0.02447437710232205,-6.053286212036134,0.29662200808525085,26.54277992248535,-0.005455440945095486,-0.08418316311306423
3463,-0.35755346574435765,0.15937503814697265,86.08927917480469,85.53691101074219,-3.254840850830078,87.82821655273438,-0.01843460930718316,0.20833333333333334,0.36464285714285716,-0.02334526909722222,-5.119476931640627,0.8459219932556152,26.54277992248535,0.006137424045138889,-0.0675895267062717
3464,-0.34583471574435765,0.219140682220459,85.68012237548828,85.80287170410156,-3.3366737365722656,87.64408874511719,-0.0075236850314670135,0.20366666666666666,0.36142857142857143,-0.027556567721896703,-3.7132688933105484,1.2414180040359497,26.54277992248535,-0.0013638814290364584,-0.06645291646321615
3465,-0.39661596574435753,0.239062557220459,85.1072998046875,85.29141998291016,-2.743389129638672,87.88958740234375,-0.012069914076063368,0.19866666666666666,0.3585714285714286,-0.03100492689344618,-2.4388929777832047,0.12084600329399109,26.54277992248535,-0.002045779758029514,-0.06258862813313802
3466,-0.41614721574435753,0.239062557220459,84.43218231201172,83.94119262695312,-2.334228515625,86.98943328857422,-0.014115693834092882,0.195,0.3532142857142857,-0.033415730794270834,-1.505081790039064,-0.9557825499267594,26.54277992248535,0.005455440945095486,-0.048040686713324655
3467,-0.42395971574435753,0.239062557220459,85.5982894897461,85.455078125,-2.518352508544922,87.0712661743164,-0.01729808383517795,0.19233333333333333,0.34964285714285714,-0.034483846028645834,-0.4394403868408219,-0.2856375151367203,26.54277992248535,0.0015912373860677083,-0.05099576314290365
3468,-0.41614721574435753,0.25898443222045897,85.29141998291016,85.57783508300781,-2.6001853942871094,87.15309143066406,-0.01775266859266493,0.189,0.3435714285714286,-0.03530777825249566,0.1538040041923523,-0.04394401843261875,34.101318359375,-0.0031823900010850693,-0.05281418694390191
3469,-0.42395971574435753,0.25898443222045897,84.67768096923828,84.37080383300781,-2.477436065673828,87.23492431640625,-0.01843460930718316,0.18666666666666668,0.33964285714285714,-0.03539933098687066,0.38451001048088074,-0.5492998533935562,43.153987884521484,0.0034097459581163194,-0.05235955980088976
3470,-0.42005346574435753,0.239062557220459,84.6572265625,84.5140151977539,-2.5592689514160156,86.94851684570312,-0.018661922878689237,0.18466666666666667,0.33464285714285713,-0.03518570793999566,0.5822579860687256,-0.3845106535644547,39.814170837402344,0.0015912373860677083,-0.05008650885687934
3471,-0.43958471574435753,0.239062557220459,85.41416931152344,85.12775421142578,-2.7843055725097656,87.23492431640625,-0.01797998216417101,0.18266666666666667,0.33285714285714285,-0.03643688625759549,0.9008520245552063,0.12084600329399109,37.704811096191406,0.0031823900010850693,-0.05576922098795573
3472,-0.45520971574435753,0.25898443222045897,85.33233642578125,85.1072998046875,-3.091175079345703,87.50088500976562,-0.01775266859266493,0.18,0.33071428571428574,-0.038176345825195315,0.7690200209617615,0.3405660092830658,41.48408126831055,0.0025004069010416668,-0.062134000990125865
3473,-0.46692846574435753,0.25898443222045897,85.49600219726562,85.35279846191406,-2.5388107299804688,87.17355346679688,-0.01797998216417101,0.17666666666666667,0.33035714285714285,-0.03930545383029514,0.02197200059890747,0.38451001048088074,46.142250061035156,0.001591152615017361,-0.05235960218641493
3474,-0.46302221574435753,0.25898443222045897,84.86180114746094,84.53446960449219,-2.702472686767578,87.05081176757812,-0.018661922878689237,0.17433333333333334,0.33071428571428574,-0.03906131320529514,-0.18676246936035312,-0.18676246936035312,47.987937927246094,0.003637017144097222,-0.05281427171495226
3475,-0.45130346574435753,0.25898443222045897,81.60897827148438,82.44775390625,-3.3366737365722656,87.48042297363281,-0.019343863593207465,0.17133333333333334,0.3314285714285714,-0.038054275512695315,-0.2856375151367203,-0.5712725096435562,48.95473098754883,-0.009319729275173612,-0.06463440789116753
3476,-0.43958471574435753,0.239062557220459,79.542724609375,80.9952392578125,-3.0502586364746094,87.97142028808594,-0.02093505859375,0.16766666666666666,0.33285714285714285,-0.03661999172634549,-0.823950427124025,-1.1864878111572281,49.21839904785156,-0.016139051649305555,-0.0669075436062283
3477,-0.47083471574435753,0.19921878814697266,84.18669128417969,83.26608276367188,-2.5797271728515625,87.0712661743164,-0.018661922878689237,0.16366666666666665,0.33321428571428574,-0.034636433919270834,-1.9445234709472672,-0.7031046324462906,49.21839904785156,0.010228983561197917,-0.051677703857421875
3478,-0.47864721574435753,0.19921878814697266,84.57539367675781,84.57539367675781,-2.313770294189453,86.64164733886719,-0.005250591701931423,0.16033333333333333,0.33464285714285713,-0.03542984856499566,-1.8236757689209,0.5053560137748718,47.72426986694336,0.0,-0.04394908481174045
3479,-0.5177097157443575,0.239062557220459,83.87982177734375,84.0434799194336,-2.0069007873535156,86.33477783203125,-0.0007043626573350694,0.157,0.3364285714285714,-0.038542556762695315,-1.4171949797363297,0.19774800539016724,47.72426986694336,-0.0018184238009982638,-0.03712976243760851
3480,-0.49817846574435753,0.239062557220459,83.40928649902344,83.06149291992188,-2.477436065673828,86.92805480957031,-0.011615286933051215,0.15366666666666667,0.3382142857142857,-0.03973269992404514,-0.7250772886962906,0.5602860450744629,49.21839904785156,0.0038643731011284723,-0.04894989861382378
3481,-0.47083471574435753,0.25898443222045897,83.69569396972656,83.5115737915039,-2.5592689514160156,86.82576751708984,0.006342273288302952,0.14933333333333335,0.33964285714285714,-0.03994632297092014,-0.6042314940185562,1.5929700136184692,49.39418029785156,0.002045779758029514,-0.048722627427842884
3482,-0.48255346574435753,0.239062557220459,85.23004150390625,85.43462371826172,-3.0298004150390625,87.6031723022461,-0.01729808383517795,0.14533333333333334,0.3417857142857143,-0.03646740383572049,-0.5822588377685562,2.054382085800171,49.39418029785156,-0.002273135715060764,-0.06258858574761285
3483,-0.47083471574435753,0.219140682220459,84.71859741210938,84.61630249023438,-2.5797271728515625,86.72348022460938,-0.018889236450195312,0.143,0.3425,-0.03240869310167101,-0.6262022429199234,1.3842360973358154,49.39418029785156,0.0011366102430555556,-0.04781341552734375
3484,-0.49036596574435753,0.17929691314697266,84.18669128417969,84.08439636230469,-2.9684295654296875,87.21446990966797,-0.02616318596733941,0.14133333333333334,0.3442857142857143,-0.027037768893771703,-0.3845106535644547,0.4394400119781494,49.39418029785156,0.0011366102430555556,-0.05758777194552951
3485,-0.5020847157443575,0.17929691314697266,83.71615600585938,84.67768096923828,-3.5412521362304688,87.95095825195312,-0.021389685736762153,0.14,0.345,-0.026702075534396703,-0.7690206938476578,0.3076080083847046,49.39418029785156,-0.01068361070421007,-0.07213567097981771
3486,-0.46302221574435753,0.17929691314697266,83.61386108398438,78.76531982421875,-4.707359313964844,88.95339965820312,-0.004795964558919271,0.13466666666666666,0.3467857142857143,-0.028044806586371526,-1.3402925902099625,-0.8898664885253922,48.69105911254883,0.0538726806640625,-0.09623065524631076
3487,-0.40833471574435753,0.1195312786102295,84.06393432617188,84.0434799194336,-5.382472991943359,90.18087768554688,-0.03571027119954427,0.13433333333333333,0.3467857142857143,-0.02029359605577257,-2.3839632445068375,0.23070600628852844,48.251609802246094,0.00022727118598090277,-0.11737056308322483
3488,-0.39661596574435753,0.07968751907348633,85.23004150390625,85.27096557617188,-4.257282257080078,89.0761489868164,-0.020480431450737847,0.132,0.3475,-0.01565505133734809,-3.91101707751465,1.6918439865112305,48.075828552246094,-0.0004547119140625,-0.09259368048773872
3489,-0.32630346574435765,0.09960939407348633,87.78729248046875,87.29630279541016,-3.7867469787597656,87.72592163085938,-0.003886710272894965,0.128,0.3482142857142857,-0.01501418219672309,-4.592148440429689,2.7904441356658936,47.987937927246094,0.005455440945095486,-0.07236298455132378
3490,-0.33411596574435765,0.1195312786102295,86.35523986816406,86.92805480957031,-3.5821685791015625,88.23736572265625,-0.003886710272894965,0.123,0.34964285714285714,-0.014831119113498263,-3.4715773039550797,2.296074151992798,45.70280075073242,-0.006364610460069444,-0.07577260335286458
3491,-0.33020971574435765,0.13945316314697265,85.88470458984375,85.82332611083984,-3.479877471923828,87.86912536621094,-0.006387117173936632,0.11666666666666667,0.35035714285714287,-0.014648013644748263,-2.482836382934572,1.9774800539016724,45.52701950073242,0.0006819831000434028,-0.07054447597927517
3492,-0.39270971574435765,0.13945316314697265,86.1097412109375,85.90515899658203,-3.5617103576660156,87.97142028808594,-0.005705218844943577,0.11233333333333333,0.34964285714285714,-0.014648013644748263,-1.9884668760986344,1.7797319889068604,45.43912887573242,0.002273135715060764,-0.07259034050835503
3493,-0.45520971574435753,0.1195312786102295,86.84622192382812,88.564697265625,-2.477436065673828,86.70301818847656,-0.014115693834092882,0.106,0.35,-0.012755966186523438,-1.8895918303222672,1.4062080383300781,45.43912887573242,-0.019094170464409723,-0.04644949171278212
3494,-0.5020847157443575,0.1195312786102295,85.82332611083984,84.14576721191406,-2.6206436157226562,86.68256378173828,-0.017070770263671875,0.10166666666666667,0.35035714285714287,-0.01135219997829861,-1.2304331236572281,-0.3076082640380875,45.43912887573242,0.01863954332139757,-0.04781341552734375
3495,-0.45520971574435753,0.1195312786102295,86.27340698242188,86.08927917480469,-2.5797271728515625,86.41661071777344,-0.021389685736762153,0.097,0.35035714285714287,-0.01077236599392361,-0.7909933500976578,-0.3625379973144547,45.43912887573242,0.002045864529079861,-0.044403754340277775
3496,-0.45130346574435753,0.13945316314697265,84.37080383300781,84.24806213378906,-2.6001853942871094,86.98943328857422,-0.002750142415364583,0.09333333333333334,0.3492857142857143,-0.014525943332248263,-0.07690300280761875,-0.6152159147949234,46.58169937133789,0.0013637966579861111,-0.05099576314290365
3497,-0.5294284657443575,0.13945316314697265,86.90760040283203,86.47798156738281,-3.4389610290527344,88.36012268066406,-0.01070603264702691,0.09133333333333334,0.3485714285714286,-0.016326395670572917,0.23070600628852844,-0.18676246936035312,46.66958999633789,0.004773542616102431,-0.07554537455240885
3498,-0.43958471574435753,0.13945316314697265,89.09660339355469,90.24225616455078,-3.1730079650878906,88.48286437988281,-0.01616151597764757,0.08633333333333333,0.34785714285714286,-0.01553298102484809,-0.8788801604003922,0.3076080083847046,46.66958999633789,-0.012729475233289931,-0.07395413716634115
3499,-0.5216159657443575,0.13945316314697265,83.14332580566406,82.81600189208984,-3.1730079650878906,87.54179382324219,-0.014570320977105035,0.08366666666666667,0.34785714285714286,-0.01571608649359809,-1.8017050200195328,-2.0214239531250016,46.66958999633789,0.003636932373046875,-0.06349779764811198
3500,-0.5645847157443575,0.1195312786102295,84.92317199707031,83.0001220703125,-3.5412521362304688,88.0123291015625,-0.03661952548556858,0.08033333333333334,0.3482142857142857,-0.014525943332248263,-1.9115644865722672,-3.218899386474611,46.66958999633789,0.02136722140842014,-0.07281756930881077
3501,-0.43177221574435753,0.09960939407348633,89.19889831542969,87.35768127441406,-3.4389610290527344,88.1555404663086,-0.023662779066297743,0.07466666666666667,0.3482142857142857,-0.014648013644748263,-2.0873400145263687,-1.8456484251709,46.66958999633789,0.020457967122395834,-0.0732722388373481
3502,-0.5919284657443575,0.13945316314697265,83.16378784179688,82.85691833496094,-3.275299072265625,87.86912536621094,0.002705298529730903,0.073,0.3485714285714286,-0.021941502888997395,-1.8566347532959,-1.1864878111572281,46.66958999633789,0.003409661187065972,-0.06827138264973959
3503,-0.6153659657443575,0.219140682220459,81.75218200683594,81.77264404296875,-3.0298004150390625,87.33721923828125,0.00770615471733941,0.06966666666666667,0.3485714285714286,-0.03082182142469618,-1.7138163023681656,-1.4611383848876969,46.66958999633789,-0.00022735595703125,-0.05963355170355903
3504,-0.5450534657443575,0.19921878814697266,85.5164566040039,81.97721862792969,-2.4160614013671875,87.09172058105469,-0.013433795505099827,0.06433333333333334,0.34964285714285714,-0.03219507005479601,-1.4721247130126969,-1.4940973692626969,46.66958999633789,0.03932486640082465,-0.05008646647135417
3505,-0.6036472157443575,0.15937503814697265,81.11798858642578,85.18913269042969,-2.477436065673828,86.15065002441406,-0.04116571214463976,0.061,0.35,-0.027526050143771703,-1.0766283446044937,-1.4281813078613297,46.66958999633789,-0.045234934488932295,-0.04031206766764323
3506,-0.5684909657443575,0.15937503814697265,83.57295227050781,79.21539306640625,-3.0707168579101562,87.0098876953125,-0.01616151597764757,0.05733333333333333,0.35035714285714287,-0.029570643107096353,-0.2856375151367203,-0.4284540587158219,46.66958999633789,0.04841732449001736,-0.05645116170247396
3507,-0.5841159657443575,0.17929691314697266,79.15402221679688,85.5982894897461,-2.9684295654296875,87.39859008789062,0.007478841145833333,0.052333333333333336,0.35035714285714287,-0.03240869310167101,-0.3735243254394547,1.2853620052337646,46.66958999633789,-0.07160296969943576,-0.05963355170355903
3508,-0.49036596574435753,0.15937503814697265,86.19157409667969,79.76776123046875,-3.643543243408203,87.76683807373047,-0.02320815192328559,0.048666666666666664,0.35,-0.028380499945746526,-1.2304331236572281,1.0546560287475586,46.66958999633789,0.07137569851345486,-0.07122645907931857
3509,-0.49036596574435753,0.09960939407348633,86.33477783203125,89.19889831542969,-2.4365196228027344,86.45751953125,-0.03889261881510417,0.047,0.35,-0.020568211873372395,-1.6479002409667984,2.3070600032806396,46.66958999633789,-0.03182356092664931,-0.04326710171169705
3510,-0.34583471574435765,0.1195312786102295,81.71127319335938,82.26363372802734,-4.154991149902344,87.68500518798828,-0.012297227647569445,0.043666666666666666,0.34964285714285714,-0.018798277113172744,-0.6371885710449234,1.021697998046875,46.66958999633789,-0.006137339274088541,-0.07599995930989584
3511,-0.19349096574435762,0.15937503814697265,86.92805480957031,84.14576721191406,-6.057586669921875,91.2242431640625,-0.021162372165256075,0.041,0.3485714285714286,-0.016387430826822917,-0.07690300280761875,0.6811320185661316,46.66958999633789,0.030914306640625,-0.13646477593315973
3512,-0.26380346574435765,0.15937503814697265,87.25538635253906,87.50088500976562,-5.9757537841796875,90.65141296386719,0.0040691799587673615,0.03866666666666667,0.3457142857142857,-0.018798277113172744,-1.7577597075195328,1.9115641117095947,46.66958999633789,-0.002727762858072917,-0.12919074164496527
3513,-0.31458471574435765,0.15937503814697265,85.43462371826172,85.43462371826172,-5.177890777587891,89.93538665771484,-0.006841744316948784,0.037,0.3435714285714286,-0.02053773668077257,-2.834389346191408,0.8569080233573914,45.966468811035156,0.0,-0.11236974928114149
3514,-0.31849096574435765,0.13945316314697265,85.18913269042969,87.31675720214844,-4.605068206787109,88.99431610107422,-0.023662779066297743,0.034666666666666665,0.3414285714285714,-0.018065855238172744,-2.3400179320068375,0.36253800988197327,45.966468811035156,-0.023640272352430554,-0.09554871453179253
3515,-0.27161596574435765,0.17929691314697266,93.98606872558594,91.79705810546875,-4.952854156494141,89.64897155761719,-0.01729808383517795,0.029333333333333333,0.34,-0.01913392808702257,-1.560013430664064,1.3732500076293945,45.966468811035156,0.024322340223524305,-0.10668695237901475
3516,-0.39270971574435765,0.219140682220459,80.87248992919922,81.62944030761719,-4.11407470703125,87.97142028808594,0.007933468288845487,0.027333333333333334,0.3375,-0.027098804050021703,-1.7467752867431656,-2.6586119108886734,45.966468811035156,-0.008410559760199653,-0.07872772216796875
3517,-0.46302221574435753,0.19921878814697266,89.48530578613281,75.69661712646484,-3.868579864501953,88.25782775878906,-0.009569507175021702,0.024333333333333332,0.3360714285714286,-0.030425135294596353,-0.8678938322753922,-3.92200340563965,45.966468811035156,0.15320765177408854,-0.07918230692545573
3518,-0.36927221574435765,0.19921878814697266,89.32164001464844,89.23981475830078,-3.0093421936035156,87.78729248046875,0.05044063991970486,0.019333333333333334,0.3339285714285714,-0.028563605414496526,-0.4723993712158219,-1.3732515745849625,45.966468811035156,0.0009091695149739584,-0.06440705193413629
3519,-0.31067846574435765,0.13945316314697265,93.65873718261719,90.569580078125,-2.9684295654296875,86.86668395996094,0.07339905632866753,0.013,0.33321428571428574,-0.02020204332139757,-0.2416922026367203,-2.164242404052736,45.966468811035156,0.034323967827690975,-0.05372348361545139
3520,-0.33802221574435765,0.03984375953674316,86.82576751708984,88.09416198730469,-1.5772857666015625,86.49844360351562,0.07408099704318577,0.008333333333333333,0.33107142857142857,-0.009521187676323786,0.32958000898361206,-3.0650946074218766,38.320037841796875,-0.014093271891276042,-0.03417477077907986
3521,-0.5138034657443575,0.01992187976837158,94.53843688964844,93.18820190429688,2.1051559448242188,83.90027618408203,0.0881742689344618,0.004333333333333333,0.3292857142857143,-0.0072934892442491316,0.8569080233573914,-1.2084604674072281,26.89434051513672,0.015002610948350694,0.03560977511935764
3522,-0.6427097157443575,0.05976563930511475,87.93049621582031,89.03523254394531,1.3891258239746094,83.36836242675781,0.11295119391547309,0.004,0.32535714285714284,-0.012054061889648438,2.4828360080718994,-2.7465006285400406,26.63067054748535,-0.012274848090277778,0.0335640377468533
3523,-0.5216159657443575,0.03984375953674316,89.87400817871094,90.75370788574219,2.637065887451172,81.05661010742188,0.12545331319173178,0.004333333333333333,0.3217857142857143,-0.01165737575954861,3.1200242042541504,-3.867073672363283,26.63067054748535,-0.009774441189236111,0.07311617533365886
3524,0.21275903425564238,0.07968751907348633,89.32164001464844,89.1579818725586,2.2688217163085938,82.93875122070312,0.08681042989095052,-0.0006666666666666666,0.31642857142857145,0.0007934146457248264,3.0321359634399414,-4.614121096679689,26.63067054748535,0.0018184238009982638,0.04811189439561632
3525,0.42369656203342015,0.1195312786102295,95.35675048828125,87.68500518798828,2.289276123046875,83.61386108398438,0.06203350490993924,-0.0016666666666666668,0.31107142857142855,0.010101021660698786,2.614668130874634,-1.7028299742431656,26.63067054748535,0.08524161444769965,0.04083794487847222
3526,0.39635281203342015,0.09960939407348633,93.82240295410156,94.55889129638672,2.084697723388672,82.20226287841797,0.09953986273871528,-0.0003333333333333333,0.3053571428571429,0.008117421468098959,2.614668130874634,1.0986000299453735,26.63067054748535,-0.008183203803168403,0.054249276055230035
3527,0.34166531203342015,0.03984375953674316,86.86668395996094,87.45996856689453,2.8825607299804688,81.22027587890625,0.10067638821072049,0.0006666666666666666,0.30142857142857143,0.0021056705050998266,2.911290168762207,-0.2416922026367203,26.63067054748535,-0.0065920511881510414,0.07402538723415798
3528,0.7908840620334202,0.0,92.49263000488281,91.87889099121094,5.828510284423828,78.86760711669922,0.08340076870388455,0.0013333333333333333,0.2960714285714286,-0.000335693359375,3.207911968231201,0.0,26.63067054748535,0.006819322374131944,0.13289892408582898
3529,-0.12708471574435762,0.01992187976837158,92.6358413696289,90.09904479980469,8.85629653930664,78.540283203125,-2.242194281684028e-05,0.0,0.29214285714285715,-0.0,2.4059340953826904,-1.2304331236572281,26.63067054748535,0.02818662855360243,0.17017792595757378
