,WD,WS,AIL_1,AIL_2,ELEV_1,ELEV_2,RUDD,ALT,GS,TH,PTCH,ROLL,PLA_1,AIL,ELEV
210,-0.0,0.0,83.0001220703125,84.26852416992188,16.323467254638672,66.83830261230469,-0.015252261691623263,0.005333333333333333,0.0,-0.0,0.0,0.0,0.4394499957561493,-0.01409335666232639,0.38316849602593317
211,-0.0,0.0,83.02058410644531,84.1048583984375,16.07796859741211,66.94059753417969,-0.015252261691623263,0.005333333333333333,0.0,-0.0,0.0,0.0,0.4394499957561493,-0.012047492133246528,0.3793041229248047
212,-0.0,0.0,83.0410385131836,83.98210144042969,15.832473754882812,67.06333923339844,-0.015024948120117187,0.005,0.0,-0.0,0.0,0.0,0.4394499957561493,-0.010456254747178819,0.37521260579427085
213,-0.0,0.0,83.14332580566406,84.20714569091797,15.3619384765625,67.28837585449219,-0.015252261691623263,0.005333333333333333,0.0,-0.0,0.0,0.0,0.4394499957561493,-0.011820220947265625,0.3674840291341146
214,-0.0,0.0,83.0410385131836,84.41172790527344,15.034610748291016,67.41112518310547,-0.015252261691623263,0.005,0.0,-0.0,0.0,0.0,0.4394499957561493,-0.015229882134331598,0.36248317294650606
215,-0.0,0.0,83.02058410644531,84.08439636230469,14.911865234375,67.41112518310547,-0.015024948120117187,0.005,0.0,-0.0,0.0,0.0,0.4394499957561493,-0.011820136176215277,0.3611193339029948
216,-0.0,0.0,82.97966003417969,84.22760009765625,14.584537506103516,67.90211486816406,-0.01547957526312934,0.004666666666666667,0.0,-0.0,0.0,0.0,0.4394499957561493,-0.013866000705295138,0.35202691819932724
217,-0.0,0.0,82.97966003417969,84.26852416992188,14.42087173461914,67.94303894042969,-0.015024948120117187,0.005,0.0,-0.0,0.0,0.0,0.4394499957561493,-0.01432071261935764,0.3497536977132161
218,-0.0,0.0,83.08195495605469,84.22760009765625,14.216293334960938,68.24990844726562,-0.014797634548611112,0.005333333333333333,0.0,-0.0,0.0,0.0,0.4394499957561493,-0.012729390462239584,0.3440709431966146
219,-0.0,0.0,83.0001220703125,84.16622924804688,14.19583511352539,68.47494506835938,-0.015252261691623263,0.005,0.0,-0.0,0.0,0.0,0.4394499957561493,-0.012956746419270833,0.34134322272406686
220,-0.0,0.0,83.1024169921875,84.26852416992188,14.339038848876953,68.53631591796875,-0.015252261691623263,0.004666666666666667,0.0,-0.0,0.0,0.0,0.4394499957561493,-0.012956746419270833,0.34225247701009115
221,-0.0,0.0,83.02058410644531,84.24806213378906,14.175376892089844,68.65906524658203,-0.015252261691623263,0.004666666666666667,0.0,-0.0,0.0,0.0,0.4394499957561493,-0.013638644748263888,0.33907012939453124
222,-0.0,0.0,83.0001220703125,84.16622924804688,14.07308578491211,68.9045639038086,-0.015252261691623263,0.004666666666666667,0.0,-0.0,0.0,0.0,0.4394499957561493,-0.012956746419270833,0.33520579867892797
223,-0.0,0.0,83.02058410644531,84.32989501953125,14.011711120605469,68.96593475341797,-0.01547957526312934,0.004666666666666667,0.0,-0.0,0.0,0.0,0.4394499957561493,-0.014547899034288195,0.3338419596354167
224,-0.0,0.0,83.0410385131836,84.26852416992188,13.909420013427734,69.06822204589844,-0.015024948120117187,0.005,0.0,-0.0,0.0,0.0,0.4394499957561493,-0.013638729519314236,0.33156886630588106
225,-0.0,0.0,83.06149291992188,84.26852416992188,13.868507385253906,69.2728042602539,-0.015024948120117187,0.005,0.0,-0.0,0.0,0.0,0.4394499957561493,-0.013411458333333333,0.32884114583333335
226,-0.0,0.0,83.0001220703125,84.28897857666016,13.888965606689453,69.33418273925781,-0.015024948120117187,0.004666666666666667,0.0,-0.0,0.0,0.0,0.4394499957561493,-0.014320627848307291,0.328386476304796
227,-0.0,0.0,83.08195495605469,84.20714569091797,13.84804916381836,69.416015625,-0.015252261691623263,0.004666666666666667,0.0,-0.0,0.0,0.0,0.4394499957561493,-0.01250211927625868,0.3270225948757596
228,-0.0,0.0,83.1024169921875,84.28897857666016,13.909420013427734,69.39555358886719,-0.015024948120117187,0.004666666666666667,0.0,-0.0,0.0,0.0,0.4394499957561493,-0.013184017605251737,0.32793184916178386
229,-0.0,0.0,83.12287139892578,83.87982177734375,13.970794677734375,69.49784088134766,-0.01547957526312934,0.004333333333333333,0.0,-0.0,0.0,0.0,0.4394499957561493,-0.008410559760199653,0.32747726440429686
230,-0.0,0.0,82.89783477783203,84.20714569091797,13.950336456298828,69.39555358886719,-0.015024948120117187,0.004666666666666667,0.0,-0.0,0.0,0.0,0.4394499957561493,-0.014547899034288195,0.328386476304796
231,-0.0,0.0,83.08195495605469,84.20714569091797,13.950336456298828,69.45692443847656,-0.015024948120117187,0.004666666666666667,0.0,-0.0,0.0,0.0,0.4394499957561493,-0.01250211927625868,0.32770457797580294
232,-0.0,0.0,82.93875122070312,84.32989501953125,13.991252899169922,69.29325866699219,-0.01547957526312934,0.004666666666666667,0.0,-0.0,0.0,0.0,0.4394499957561493,-0.0154571533203125,0.3299777136908637
233,-0.0,0.0,83.1024169921875,84.22760009765625,14.032169342041016,69.416015625,-0.015024948120117187,0.004666666666666667,0.0,-0.0,0.0,0.0,0.4394499957561493,-0.012502034505208334,0.3290683746337891
234,-0.0,0.0,83.02058410644531,84.24806213378906,14.07308578491211,69.29325866699219,-0.014797634548611112,0.004333333333333333,0.0,-0.0,0.0,0.0,0.4394499957561493,-0.013638644748263888,0.33088696797688805
235,-0.0,0.0,83.0001220703125,84.20714569091797,14.13446044921875,69.17051696777344,-0.014797634548611112,0.004666666666666667,0.0,-0.0,0.0,0.0,0.4394499957561493,-0.013411373562282987,0.33293270534939234
236,-0.0,0.0,83.0001220703125,84.28897857666016,14.236751556396484,69.12960052490234,-0.015024948120117187,0.004333333333333333,0.0,-0.0,0.0,0.0,0.4394499957561493,-0.014320627848307291,0.3345239003499349
237,-0.0,0.0,83.08195495605469,84.18669128417969,14.339038848876953,69.10913848876953,-0.015252261691623263,0.004333333333333333,0.0,-0.0,0.0,0.0,0.4394499957561493,-0.012274848090277778,0.33588778177897133
238,-0.0,0.0,83.0001220703125,84.20714569091797,14.523162841796875,69.00685119628906,-0.015252261691623263,0.004333333333333333,0.0,-0.0,0.0,0.0,0.4394499957561493,-0.013411373562282987,0.33907012939453124
239,-0.0,0.0,83.08195495605469,84.22760009765625,14.543621063232422,68.98638916015625,-0.015252261691623263,0.004333333333333333,0.0,-0.0,0.0,0.0,0.4394499957561493,-0.012729390462239584,0.3395247989230686
240,-0.0,0.0,83.0410385131836,84.28897857666016,14.64590835571289,68.9045639038086,-0.015252261691623263,0.004333333333333333,0.0,-0.0,0.0,0.0,0.4394499957561493,-0.013866000705295138,0.34157049391004773
241,-0.0,0.0,83.06149291992188,84.18669128417969,14.830032348632812,68.78181457519531,-0.015252261691623263,0.004333333333333333,0.0,-0.0,0.0,0.0,0.4394499957561493,-0.012502204047309028,0.34498019748263886
242,-0.0,0.0,82.97966003417969,84.28897857666016,14.911865234375,68.69998168945312,-0.015252261691623263,0.004333333333333333,0.0,-0.0,0.0,0.0,0.4394499957561493,-0.014547983805338541,0.3467987060546875
243,-0.0,0.0,83.0001220703125,84.16622924804688,15.157360076904297,68.51586151123047,-0.015024948120117187,0.004333333333333333,0.0,-0.0,0.0,0.0,0.4394499957561493,-0.012956746419270833,0.35157220628526475
244,-0.0,0.0,83.02058410644531,84.02302551269531,15.300567626953125,68.2703628540039,-0.015252261691623263,0.004,0.0,-0.0,0.0,0.0,0.4394499957561493,-0.011138237847222222,0.3558911641438802
245,-0.0,0.0,83.0001220703125,84.12531280517578,15.546062469482422,68.14761352539062,-0.015252261691623263,0.004,0.0,-0.0,0.0,0.0,0.4394499957561493,-0.01250211927625868,0.3599827660454644
246,-0.0,0.0,83.0410385131836,83.98210144042969,15.85293197631836,67.98394775390625,-0.015252261691623263,0.004333333333333333,0.0,-0.0,0.0,0.0,0.4394499957561493,-0.010456254747178819,0.365210935804579
247,-0.0,0.0,83.0410385131836,84.26852416992188,16.20071792602539,67.7998275756836,-0.014570320977105035,0.004333333333333333,0.0,-0.0,0.0,0.0,0.4394499957561493,-0.013638729519314236,0.37112100389268665
248,-0.0,0.0,82.97966003417969,83.98210144042969,16.507587432861328,67.73845672607422,-0.015252261691623263,0.0036666666666666666,0.0,-0.0,0.0,0.0,0.4394499957561493,-0.011138237847222222,0.37521256340874565
249,-0.0,0.0,83.0001220703125,84.14576721191406,16.650794982910156,41.900001525878906,-0.015252261691623263,0.0036666666666666666,0.0,-0.0,0.0,0.0,0.4394499957561493,-0.012729390462239584,0.663897705078125
250,-0.0,0.0,83.02058410644531,84.26852416992188,16.875831604003906,67.51342010498047,-0.015252261691623263,0.0036666666666666666,0.0,-0.0,0.0,0.0,0.4394499957561493,-0.013866000705295138,0.38180457221137154
251,-0.0,0.0,82.97966003417969,83.87982177734375,17.100868225097656,67.43158721923828,-0.015252261691623263,0.0036666666666666666,0.0,-0.0,0.0,0.0,0.4394499957561493,-0.01000179714626736,0.3852142333984375
252,-0.0,0.0,82.97966003417969,84.18669128417969,17.162242889404297,41.900001525878906,-0.015024948120117187,0.004,0.0,-0.0,0.0,0.0,0.4394499957561493,-0.013411458333333333,0.6695804595947266
253,-0.0,0.0,83.0410385131836,84.22760009765625,17.26453399658203,67.20654296875,-0.015024948120117187,0.0036666666666666666,0.0,-0.0,0.0,0.0,0.4394499957561493,-0.013184017605251737,0.38953323364257814
254,-0.0,0.0,83.06149291992188,84.22760009765625,17.40774154663086,41.900001525878906,-0.015252261691623263,0.0036666666666666666,0.0,-0.0,0.0,0.0,0.4394499957561493,-0.012956746419270833,0.6723082224527995
255,-0.0,0.0,83.0001220703125,83.98210144042969,17.550945281982422,66.81784057617188,-0.015024948120117187,0.0036666666666666666,0.0,-0.0,0.0,0.0,0.4394499957561493,-0.010910881890190972,0.3970344967312283
256,-0.0,0.0,82.93875122070312,84.12531280517578,17.714611053466797,66.7155532836914,-0.01547957526312934,0.0036666666666666666,0.0,-0.0,0.0,0.0,0.4394499957561493,-0.013184017605251737,0.3999895307752821
257,-0.0,0.0,83.0001220703125,84.37080383300781,17.79644012451172,66.55189514160156,-0.015024948120117187,0.0036666666666666666,0.0,-0.0,0.0,0.0,0.4394499957561493,-0.01522979736328125,0.4027171664767795
258,-0.0,0.0,82.9592056274414,84.18669128417969,17.79644012451172,66.59280395507812,-0.015252261691623263,0.0036666666666666666,0.0,-0.0,0.0,0.0,0.4394499957561493,-0.013638729519314236,0.4022626241048177
259,-0.0,0.0,82.9592056274414,84.16622924804688,17.85781478881836,66.57234954833984,-0.015024948120117187,0.0036666666666666666,0.0,-0.0,0.0,0.0,0.4394499957561493,-0.013411373562282987,0.40317183600531686
260,-0.0,0.0,83.0001220703125,83.81844329833984,17.75552749633789,66.57234954833984,-0.015024948120117187,0.0033333333333333335,0.0,-0.0,0.0,0.0,0.4394499957561493,-0.009092458089192708,0.40203531053331165
261,-0.0,0.0,82.9592056274414,84.16622924804688,17.775985717773438,66.65418243408203,-0.015024948120117187,0.0033333333333333335,0.0,-0.0,0.0,0.0,0.4394499957561493,-0.013411373562282987,0.4013533698187934
262,-0.0,0.0,83.0001220703125,84.18669128417969,17.735069274902344,66.7564697265625,-0.014570320977105035,0.0033333333333333335,0.0,-0.0,0.0,0.0,0.4394499957561493,-0.013184102376302083,0.399762217203776
263,-0.0,0.0,83.06149291992188,41.900001525878906,17.57140350341797,66.7564697265625,-0.014797634548611112,0.003,0.0,-0.0,0.0,0.0,0.4394499957561493,0.45734990437825523,0.39794370863172746
264,-0.0,0.0,83.12287139892578,84.08439636230469,17.469112396240234,66.87921905517578,-0.015252261691623263,0.0033333333333333335,0.0,-0.0,0.0,0.0,0.4394499957561493,-0.01068361070421007,0.3954432593451606
265,-0.0,0.0,82.81600189208984,41.900001525878906,17.325908660888672,66.94059753417969,-0.015252261691623263,0.0033333333333333335,0.0,-0.0,0.0,0.0,0.4394499957561493,0.4546222262912326,0.39317012363009984
266,-0.0,0.0,83.0410385131836,84.1048583984375,17.20315933227539,66.96105194091797,-0.014797634548611112,0.0036666666666666666,0.0,-0.0,0.0,0.0,0.4394499957561493,-0.011820220947265625,0.3915789710150825
267,-0.0,0.0,82.97966003417969,83.79798889160156,16.834915161132812,67.10425567626953,-0.014797634548611112,0.0033333333333333335,0.0,-0.0,0.0,0.0,0.4394499957561493,-0.009092542860243056,0.3858962164984809
268,-0.0,0.0,82.93875122070312,83.87982177734375,16.589420318603516,67.08380126953125,-0.014797634548611112,0.004333333333333333,0.0,-0.0,0.0,0.0,0.4394499957561493,-0.010456339518229166,0.38339576721191404
269,-0.0,0.0,82.83645629882812,84.14576721191406,16.528045654296875,67.06333923339844,-0.015252261691623263,0.004666666666666667,0.0,-0.0,0.0,0.0,0.4394499957561493,-0.014547899034288195,0.3829411824544271
270,-0.0,0.0,82.9592056274414,84.20714569091797,16.323467254638672,67.16563415527344,-0.015024948120117187,0.004666666666666667,0.0,-0.0,0.0,0.0,0.4394499957561493,-0.013866000705295138,0.3795314788818359
271,-0.0,0.0,83.0410385131836,84.12531280517578,16.221176147460938,67.2679214477539,-0.014570320977105035,0.004333333333333333,0.0,-0.0,0.0,0.0,0.4394499957561493,-0.012047492133246528,0.37725838555230035
272,-0.0,0.0,82.97966003417969,41.900001525878906,16.180259704589844,67.20654296875,-0.015024948120117187,0.004333333333333333,0.0,-0.0,0.0,0.0,0.4394499957561493,0.4564406500922309,0.3774857415093316
273,-0.0,0.0,82.85691833496094,84.24806213378906,16.221176147460938,67.39067077636719,-0.015024948120117187,0.004,0.0,-0.0,0.0,0.0,0.4394499957561493,-0.0154571533203125,0.37589450412326386
274,-0.0,0.0,82.93875122070312,84.24806213378906,15.996139526367188,67.57479095458984,-0.015024948120117187,0.004333333333333333,0.0,-0.0,0.0,0.0,0.4394499957561493,-0.014547899034288195,0.3713483174641927
275,-0.0,0.0,83.12287139892578,84.14576721191406,15.750640869140625,67.8202896118164,-0.015024948120117187,0.004,0.0,-0.0,0.0,0.0,0.4394499957561493,-0.011365509033203125,0.3658927917480469
276,-0.0,0.0,83.02058410644531,84.20714569091797,15.525604248046875,67.94303894042969,-0.015024948120117187,0.004,0.0,-0.0,0.0,0.0,0.4394499957561493,-0.013184017605251737,0.36202850341796877
277,-0.0,0.0,82.97966003417969,84.18669128417969,15.42331314086914,68.14761352539062,-0.015252261691623263,0.004333333333333333,0.0,-0.0,0.0,0.0,0.4394499957561493,-0.013411458333333333,0.35861888461642794
278,-0.0,0.0,82.93875122070312,84.24806213378906,15.280109405517578,68.20899200439453,-0.015252261691623263,0.004666666666666667,0.0,-0.0,0.0,0.0,0.4394499957561493,-0.014547899034288195,0.35634574890136717
279,-0.0,0.0,83.06149291992188,83.90027618408203,15.095985412597656,68.37265014648438,-0.014797634548611112,0.004,0.0,-0.0,0.0,0.0,0.4394499957561493,-0.009319814046223958,0.35248150295681424
280,-0.0,0.0,83.02058410644531,84.1048583984375,14.952781677246094,68.55677795410156,-0.014797634548611112,0.004333333333333333,0.0,-0.0,0.0,0.0,0.4394499957561493,-0.012047492133246528,0.348844485812717
281,-0.0,0.0,82.89783477783203,84.08439636230469,14.686824798583984,68.72044372558594,-0.015024948120117187,0.004666666666666667,0.0,-0.0,0.0,0.0,0.4394499957561493,-0.013184017605251737,0.34407090081108943
282,-0.0,0.0,83.02058410644531,84.02302551269531,14.625450134277344,68.69998168945312,-0.015252261691623263,0.004666666666666667,0.0,-0.0,0.0,0.0,0.4394499957561493,-0.011138237847222222,0.34361631605360243
283,-0.0,0.0,83.0001220703125,84.12531280517578,14.502704620361328,68.9045639038086,-0.015024948120117187,0.004666666666666667,0.0,-0.0,0.0,0.0,0.4394499957561493,-0.01250211927625868,0.3399793412950304
284,-0.0,0.0,83.02058410644531,84.16622924804688,14.441329956054688,68.96593475341797,-0.014570320977105035,0.004666666666666667,0.0,-0.0,0.0,0.0,0.4394499957561493,-0.012729390462239584,0.3386155022515191
285,-0.0,0.0,83.06149291992188,84.14576721191406,14.379955291748047,69.02731323242188,-0.015024948120117187,0.004666666666666667,0.0,-0.0,0.0,0.0,0.4394499957561493,-0.012047492133246528,0.33725157843695747
286,-0.0,0.0,82.97966003417969,84.24806213378906,14.379955291748047,69.08868408203125,-0.014797634548611112,0.004666666666666667,0.0,-0.0,0.0,0.0,0.4394499957561493,-0.01409335666232639,0.3365696801079644
287,-0.0,0.0,82.97966003417969,84.16622924804688,14.441329956054688,69.10913848876953,-0.014797634548611112,0.004666666666666667,0.0,-0.0,0.0,0.0,0.4394499957561493,-0.013184102376302083,0.33702434963650174
288,-0.0,0.0,82.9592056274414,83.83889770507812,14.175376892089844,69.04776763916016,-0.015024948120117187,0.004666666666666667,0.0,-0.0,0.0,0.0,0.4394499957561493,-0.009774356418185763,0.33475121392144097
289,-0.0,0.0,82.97966003417969,84.02302551269531,14.093544006347656,69.17051696777344,-0.015024948120117187,0.004666666666666667,0.0,-0.0,0.0,0.0,0.4394499957561493,-0.011592949761284723,0.3324780782063802
290,-0.0,0.0,82.97966003417969,84.16622924804688,14.154918670654297,69.25234985351562,-0.015252261691623263,0.004666666666666667,0.0,-0.0,0.0,0.0,0.4394499957561493,-0.013184102376302083,0.33225076463487413
291,-0.0,0.0,82.97966003417969,84.18669128417969,14.093544006347656,69.21143341064453,-0.015024948120117187,0.004666666666666667,0.0,-0.0,0.0,0.0,0.4394499957561493,-0.013411458333333333,0.33202345106336806
292,-0.0,0.0,82.93875122070312,84.16622924804688,14.175376892089844,69.19097137451172,-0.015024948120117187,0.004666666666666667,0.0,-0.0,0.0,0.0,0.4394499957561493,-0.013638644748263888,0.3331600613064236
293,-0.0,0.0,82.97966003417969,84.08439636230469,14.093544006347656,69.2728042602539,-0.015024948120117187,0.004666666666666667,0.0,-0.0,0.0,0.0,0.4394499957561493,-0.012274848090277778,0.331341552734375
294,-0.0,0.0,82.97966003417969,84.22760009765625,14.114002227783203,69.12960052490234,-0.015024948120117187,0.005,0.0,-0.0,0.0,0.0,0.4394499957561493,-0.013866000705295138,0.3331600189208984
295,-0.0,0.0,82.9592056274414,84.16622924804688,14.052627563476562,69.10913848876953,-0.015024948120117187,0.005,0.0,-0.0,0.0,0.0,0.4394499957561493,-0.013411373562282987,0.3327054341634115
296,-0.0,0.0,82.97966003417969,83.94119262695312,14.011711120605469,69.25234985351562,-0.015024948120117187,0.004666666666666667,0.0,-0.0,0.0,0.0,0.4394499957561493,-0.010683695475260416,0.3306595696343316
297,-0.0,0.0,82.97966003417969,84.14576721191406,14.07308578491211,69.04776763916016,-0.015024948120117187,0.004666666666666667,0.0,-0.0,0.0,0.0,0.4394499957561493,-0.012956746419270833,0.3336146460639106
298,-0.0,0.0,82.89783477783203,84.0434799194336,14.216293334960938,68.98638916015625,-0.015024948120117187,0.004666666666666667,0.0,-0.0,0.0,0.0,0.4394499957561493,-0.012729390462239584,0.33588782416449653
299,-0.0,0.0,82.89783477783203,84.06393432617188,14.13446044921875,69.04776763916016,-0.014797634548611112,0.004666666666666667,0.0,-0.0,0.0,0.0,0.4394499957561493,-0.012956661648220485,0.33429658677842883
300,-0.0,0.0,83.0001220703125,84.1048583984375,14.236751556396484,68.94548034667969,-0.014797634548611112,0.005,0.0,-0.0,0.0,0.0,0.4394499957561493,-0.012274848090277778,0.3365696801079644
301,-0.0,0.0,82.87738037109375,84.0434799194336,14.277664184570312,68.88410186767578,-0.015024948120117187,0.004666666666666667,0.0,-0.0,0.0,0.0,0.4394499957561493,-0.012956661648220485,0.3377062479654948
302,-0.0,0.0,82.85691833496094,84.08439636230469,14.318580627441406,68.8636474609375,-0.015024948120117187,0.004666666666666667,0.0,-0.0,0.0,0.0,0.4394499957561493,-0.013638644748263888,0.3383881462944878
303,-0.0,0.0,82.97966003417969,84.12531280517578,14.42087173461914,68.84318542480469,-0.015024948120117187,0.004666666666666667,0.0,-0.0,0.0,0.0,0.4394499957561493,-0.012729475233289931,0.33975207010904945
304,-0.0,0.0,82.93875122070312,83.85935974121094,14.441329956054688,68.84318542480469,-0.015252261691623263,0.004666666666666667,0.0,-0.0,0.0,0.0,0.4394499957561493,-0.010228983561197917,0.3399793836805556
305,-0.0,0.0,82.91828918457031,84.12531280517578,14.461788177490234,68.7613525390625,-0.015024948120117187,0.004666666666666667,0.0,-0.0,0.0,0.0,0.4394499957561493,-0.013411373562282987,0.34111595153808594
306,-0.0,0.0,82.91828918457031,83.96165466308594,14.686824798583984,68.63861083984375,-0.015252261691623263,0.004666666666666667,0.0,-0.0,0.0,0.0,0.4394499957561493,-0.011592949761284723,0.3449801550971137
307,-0.0,0.0,82.83645629882812,84.02302551269531,14.789115905761719,68.53631591796875,-0.014797634548611112,0.004666666666666667,0.0,-0.0,0.0,0.0,0.4394499957561493,-0.013184102376302083,0.34725333319769963
308,-0.0,0.0,82.85691833496094,84.1048583984375,14.809574127197266,68.55677795410156,-0.015024948120117187,0.004333333333333333,0.0,-0.0,0.0,0.0,0.4394499957561493,-0.013866000705295138,0.3472532908121745
309,-0.0,0.0,82.9592056274414,84.14576721191406,14.952781677246094,68.18852996826172,-0.015252261691623263,0.004333333333333333,0.0,-0.0,0.0,0.0,0.4394499957561493,-0.013184017605251737,0.3529361300998264
310,-0.0,0.0,82.91828918457031,83.85935974121094,15.13690185546875,68.08624267578125,-0.015024948120117187,0.004333333333333333,0.0,-0.0,0.0,0.0,0.4394499957561493,-0.010456339518229166,0.3561184353298611
311,-0.0,0.0,82.89783477783203,84.0434799194336,15.259651184082031,67.94303894042969,-0.014570320977105035,0.004333333333333333,0.0,-0.0,0.0,0.0,0.4394499957561493,-0.012729390462239584,0.35907346937391493
312,-0.0,0.0,82.91828918457031,84.1048583984375,15.505146026611328,67.8202896118164,-0.015024948120117187,0.004333333333333333,0.0,-0.0,0.0,0.0,0.4394499957561493,-0.013184102376302083,0.36316507127549913
313,-0.0,0.0,82.93875122070312,84.14576721191406,15.812015533447266,67.73845672607422,-0.015024948120117187,0.004,0.0,-0.0,0.0,0.0,0.4394499957561493,-0.013411288791232639,0.3674839867485894
314,-0.0,0.0,82.91828918457031,84.18669128417969,16.159801483154297,67.57479095458984,-0.015252261691623263,0.004333333333333333,0.0,-0.0,0.0,0.0,0.4394499957561493,-0.01409335666232639,0.37316678365071615
315,-0.0,0.0,82.87738037109375,84.0434799194336,16.48712921142578,67.47250366210938,-0.014797634548611112,0.004333333333333333,0.0,-0.0,0.0,0.0,0.4394499957561493,-0.012956661648220485,0.3779402838812934
316,-0.0,0.0,82.91828918457031,84.08439636230469,17.162242889404297,67.2679214477539,-0.015024948120117187,0.004,0.0,-0.0,0.0,0.0,0.4394499957561493,-0.012956746419270833,0.38771468268500436
317,-0.0,0.0,82.89783477783203,84.16622924804688,18.021480560302734,67.10425567626953,-0.014797634548611112,0.004,0.0,-0.0,0.0,0.0,0.4394499957561493,-0.014093271891276042,0.3990802764892578
318,-0.0,0.0,82.91828918457031,83.92073059082031,18.553386688232422,66.94059753417969,-0.014343007405598959,0.004,0.0,-0.0,0.0,0.0,0.4394499957561493,-0.011138237847222222,0.4068087683783637
319,-0.0,0.0,82.91828918457031,83.73661041259766,18.676136016845703,66.77693176269531,-0.014797634548611112,0.0036666666666666666,0.0,-0.0,0.0,0.0,0.4394499957561493,-0.009092458089192708,0.4099911583794488
320,-0.0,0.0,82.91828918457031,84.12531280517578,18.81934356689453,66.63372802734375,-0.015252261691623263,0.0036666666666666666,0.0,-0.0,0.0,0.0,0.4394499957561493,-0.013411373562282987,0.4131735059950087
321,-0.0,0.0,82.91828918457031,84.0434799194336,18.921630859375,66.55189514160156,-0.014797634548611112,0.0036666666666666666,0.0,-0.0,0.0,0.0,0.4394499957561493,-0.01250211927625868,0.4152192857530382
322,-0.0,0.0,82.93875122070312,84.12531280517578,18.98300552368164,66.36776733398438,-0.015024948120117187,0.0036666666666666666,0.0,-0.0,0.0,0.0,0.4394499957561493,-0.013184017605251737,0.4179470909966363
323,-0.0,0.0,82.87738037109375,83.92073059082031,19.064838409423828,66.28593444824219,-0.015024948120117187,0.0036666666666666666,0.0,-0.0,0.0,0.0,0.4394499957561493,-0.011592780219184027,0.4197655995686849
324,-0.0,0.0,82.93875122070312,84.14576721191406,19.12621307373047,66.10181427001953,-0.015024948120117187,0.0036666666666666666,0.0,-0.0,0.0,0.0,0.4394499957561493,-0.013411288791232639,0.42249332004123263
325,-0.0,0.0,82.87738037109375,83.94119262695312,19.228500366210938,66.04044342041016,-0.015024948120117187,0.004,0.0,-0.0,0.0,0.0,0.4394499957561493,-0.011820136176215277,0.4243117438422309
326,-0.0,0.0,82.91828918457031,84.12531280517578,19.228500366210938,65.93814849853516,-0.015024948120117187,0.004,0.0,-0.0,0.0,0.0,0.4394499957561493,-0.013411373562282987,0.4254483540852865
327,-0.0,0.0,82.91828918457031,84.14576721191406,19.26941680908203,65.87677764892578,-0.015252261691623263,0.0036666666666666666,0.0,-0.0,0.0,0.0,0.4394499957561493,-0.013638644748263888,0.4265848795572917
328,-0.0,0.0,82.87738037109375,84.0434799194336,19.289875030517578,65.73357391357422,-0.015024948120117187,0.0036666666666666666,0.0,-0.0,0.0,0.0,0.4394499957561493,-0.012956661648220485,0.4284033457438151
329,-0.0,0.0,82.91828918457031,84.14576721191406,19.310333251953125,65.63127899169922,-0.015024948120117187,0.0036666666666666666,0.0,-0.0,0.0,0.0,0.4394499957561493,-0.013638644748263888,0.42976726955837674
330,-0.0,0.0,82.91828918457031,83.81844329833984,19.310333251953125,65.50852966308594,-0.014797634548611112,0.0036666666666666666,0.0,-0.0,0.0,0.0,0.4394499957561493,-0.010001712375217013,0.43113115098741317
331,-0.0,0.0,82.89783477783203,84.1048583984375,19.289875030517578,65.44715881347656,-0.015024948120117187,0.0036666666666666666,0.0,-0.0,0.0,0.0,0.4394499957561493,-0.013411373562282987,0.43158573574490017
332,-0.0,0.0,82.89783477783203,84.14576721191406,19.35124969482422,65.38578796386719,-0.015024948120117187,0.0036666666666666666,0.0,-0.0,0.0,0.0,0.4394499957561493,-0.013865915934244792,0.43294957478841145
333,-0.0,0.0,82.91828918457031,84.1048583984375,19.35124969482422,65.303955078125,-0.014570320977105035,0.0036666666666666666,0.0,-0.0,0.0,0.0,0.4394499957561493,-0.013184102376302083,0.43385882907443574
334,-0.0,0.0,82.93875122070312,84.1048583984375,19.371707916259766,65.2630386352539,-0.014797634548611112,0.0033333333333333335,0.0,-0.0,0.0,0.0,0.4394499957561493,-0.012956746419270833,0.434540769788954
335,-0.0,0.0,82.91828918457031,83.71615600585938,19.392166137695312,65.22212219238281,-0.014797634548611112,0.0036666666666666666,0.0,-0.0,0.0,0.0,0.4394499957561493,-0.008865186903211806,0.4352227105034722
336,-0.0,0.0,82.89783477783203,83.79798889160156,19.371707916259766,65.18120574951172,-0.015024948120117187,0.0036666666666666666,0.0,-0.0,0.0,0.0,0.4394499957561493,-0.010001712375217013,0.4354500240749783
337,-0.0,0.0,82.91828918457031,83.94119262695312,19.371707916259766,65.18120574951172,-0.015024948120117187,0.0036666666666666666,0.0,-0.0,0.0,0.0,0.4394499957561493,-0.011365593804253473,0.4354500240749783
338,-0.0,0.0,82.91828918457031,83.81844329833984,19.392166137695312,65.16075134277344,-0.015024948120117187,0.0033333333333333335,0.0,-0.0,0.0,0.0,0.4394499957561493,-0.010001712375217013,0.4359046088324653
339,-0.0,0.0,82.91828918457031,84.08439636230469,19.41262435913086,65.14028930664062,-0.015024948120117187,0.0033333333333333335,0.0,-0.0,0.0,0.0,0.4394499957561493,-0.012956746419270833,0.4363592783610026
340,-0.0,0.0,82.91828918457031,84.1048583984375,19.41262435913086,65.14028930664062,-0.015024948120117187,0.003,0.0,-0.0,0.0,0.0,0.4394499957561493,-0.013184102376302083,0.4363592783610026
341,-0.0,0.0,82.89783477783203,84.12531280517578,19.433082580566406,65.09937286376953,-0.014797634548611112,0.0033333333333333335,0.0,-0.0,0.0,0.0,0.4394499957561493,-0.013638644748263888,0.43704121907552085
342,-0.0,0.0,82.93875122070312,84.16622924804688,19.433082580566406,65.09937286376953,-0.015024948120117187,0.0033333333333333335,0.0,-0.0,0.0,0.0,0.4394499957561493,-0.013638644748263888,0.43704121907552085
343,-0.0,0.0,82.89783477783203,84.16622924804688,19.4739990234375,65.09937286376953,-0.014797634548611112,0.0033333333333333335,0.0,-0.0,0.0,0.0,0.4394499957561493,-0.014093271891276042,0.437495846218533
344,-0.0,0.0,82.91828918457031,83.90027618408203,19.453540802001953,65.07891845703125,-0.015024948120117187,0.0033333333333333335,0.0,-0.0,0.0,0.0,0.4394499957561493,-0.01091096666124132,0.4374958038330078
345,-0.0,0.0,82.91828918457031,84.1048583984375,19.453540802001953,65.01753997802734,-0.014797634548611112,0.0033333333333333335,0.0,-0.0,0.0,0.0,0.4394499957561493,-0.013184102376302083,0.4381777869330512
346,-0.0,0.0,82.91828918457031,84.12531280517578,19.494457244873047,64.99708557128906,-0.015024948120117187,0.0033333333333333335,0.0,-0.0,0.0,0.0,0.4394499957561493,-0.013411373562282987,0.4388596852620443
347,-0.0,0.0,82.91828918457031,84.12531280517578,19.514915466308594,64.97662353515625,-0.014797634548611112,0.0033333333333333335,0.0,-0.0,0.0,0.0,0.4394499957561493,-0.013411373562282987,0.4393143547905816
348,-0.0,0.0,82.93875122070312,84.16622924804688,19.494457244873047,64.95616912841797,-0.015252261691623263,0.0033333333333333335,0.0,-0.0,0.0,0.0,0.4394499957561493,-0.013638644748263888,0.4393143124050564
349,-0.0,0.0,82.91828918457031,84.1048583984375,19.53537368774414,64.91525268554688,-0.015252261691623263,0.003,0.0,-0.0,0.0,0.0,0.4394499957561493,-0.013184102376302083,0.4402235666910807
350,-0.0,0.0,82.91828918457031,84.1048583984375,19.53537368774414,64.8538818359375,-0.015024948120117187,0.0033333333333333335,0.0,-0.0,0.0,0.0,0.4394499957561493,-0.013184102376302083,0.4409054650200738
351,-0.0,0.0,82.89783477783203,84.08439636230469,19.555828094482422,64.83341979980469,-0.014797634548611112,0.0033333333333333335,0.0,-0.0,0.0,0.0,0.4394499957561493,-0.013184017605251737,0.4413600921630859
352,-0.0,0.0,82.91828918457031,84.12531280517578,19.514915466308594,64.7925033569336,-0.015252261691623263,0.003,0.0,-0.0,0.0,0.0,0.4394499957561493,-0.013411373562282987,0.4413601345486111
353,-0.0,0.0,82.91828918457031,84.18669128417969,19.53537368774414,64.7925033569336,-0.015252261691623263,0.003,0.0,-0.0,0.0,0.0,0.4394499957561493,-0.01409335666232639,0.4415874481201172
354,-0.0,0.0,82.91828918457031,84.14576721191406,19.57628631591797,64.8538818359375,-0.015024948120117187,0.003,0.0,-0.0,0.0,0.0,0.4394499957561493,-0.013638644748263888,0.44136004977756077
355,-0.0,0.0,82.97966003417969,84.14576721191406,19.35124969482422,64.87433624267578,-0.015252261691623263,0.003,0.0,-0.0,0.0,0.0,0.4394499957561493,-0.012956746419270833,0.4386323716905382
356,-0.0,0.0,82.97966003417969,84.24806213378906,19.187583923339844,64.99708557128906,-0.015024948120117187,0.003,0.0,-0.0,0.0,0.0,0.4394499957561493,-0.01409335666232639,0.43544998168945315
357,-0.0,0.0,82.9592056274414,84.14576721191406,19.064838409423828,65.05845642089844,-0.015024948120117187,0.0026666666666666666,0.0,-0.0,0.0,0.0,0.4394499957561493,-0.013184017605251737,0.4334042443169488
358,-0.0,0.0,82.81600189208984,84.16622924804688,18.880714416503906,65.07891845703125,-0.014797634548611112,0.0026666666666666666,0.0,-0.0,0.0,0.0,0.4394499957561493,-0.015002526177300347,0.4311310662163628
359,-0.0,0.0,82.91828918457031,84.0434799194336,18.86025619506836,65.20166015625,-0.014797634548611112,0.0023333333333333335,0.0,-0.0,0.0,0.0,0.4394499957561493,-0.01250211927625868,0.42953995598687067
360,-0.0,0.0,82.91828918457031,84.22760009765625,18.69659423828125,65.303955078125,-0.015024948120117187,0.0026666666666666666,0.0,-0.0,0.0,0.0,0.4394499957561493,-0.014547899034288195,0.4265848795572917
361,-0.0,0.0,82.97966003417969,84.14576721191406,18.614761352539062,65.42669677734375,-0.015024948120117187,0.0023333333333333335,0.0,-0.0,0.0,0.0,0.4394499957561493,-0.012956746419270833,0.42431182861328126
362,-0.0,0.0,82.87738037109375,84.24806213378906,18.451099395751953,65.54945373535156,-0.015024948120117187,0.0023333333333333335,0.0,-0.0,0.0,0.0,0.4394499957561493,-0.01522979736328125,0.421129396226671
363,-0.0,0.0,83.0001220703125,84.14576721191406,18.12377166748047,65.61082458496094,-0.015252261691623263,0.0023333333333333335,0.0,-0.0,0.0,0.0,0.4394499957561493,-0.012729390462239584,0.4168105231391059
364,-0.0,0.0,83.06149291992188,84.24806213378906,18.001022338867188,65.56990814208984,-0.015252261691623263,0.0023333333333333335,0.0,-0.0,0.0,0.0,0.4394499957561493,-0.013184102376302083,0.4159012688530816
365,-0.0,0.0,83.0410385131836,84.20714569091797,17.85781478881836,65.67219543457031,-0.014797634548611112,0.002,0.0,-0.0,0.0,0.0,0.4394499957561493,-0.012956746419270833,0.41317354838053383
366,-0.0,0.0,83.02058410644531,84.1048583984375,17.75552749633789,65.77449035644531,-0.015024948120117187,0.002,0.0,-0.0,0.0,0.0,0.4394499957561493,-0.012047492133246528,0.4109004126654731
367,-0.0,0.0,83.0001220703125,84.18669128417969,17.714611053466797,65.89723205566406,-0.01547957526312934,0.002,0.0,-0.0,0.0,0.0,0.4394499957561493,-0.013184102376302083,0.40908198886447483
368,-0.0,0.0,82.97966003417969,84.14576721191406,17.63277816772461,66.01998138427734,-0.015706888834635415,0.0016666666666666668,0.0,-0.0,0.0,0.0,0.4394499957561493,-0.012956746419270833,0.40680885314941406
369,-0.0,0.0,82.91828918457031,84.12531280517578,17.469112396240234,66.14273071289062,-0.01547957526312934,0.0013333333333333333,0.0,-0.0,0.0,0.0,0.4394499957561493,-0.013411373562282987,0.403626463148329
370,-0.0,0.0,83.02058410644531,84.16622924804688,17.223617553710938,66.32685089111328,-0.01547957526312934,0.0016666666666666668,0.0,-0.0,0.0,0.0,0.4394499957561493,-0.012729390462239584,0.39885296291775174
371,-0.0,0.0,82.9592056274414,84.08439636230469,16.998580932617188,66.63372802734375,-0.01547957526312934,0.0013333333333333333,0.0,-0.0,0.0,0.0,0.4394499957561493,-0.01250211927625868,0.39294281005859377
372,-0.0,0.0,83.0410385131836,84.14576721191406,16.69171142578125,66.7973861694336,-0.015024948120117187,0.0013333333333333333,0.0,-0.0,0.0,0.0,0.4394499957561493,-0.01227476331922743,0.3877147250705295
373,-0.0,0.0,83.0001220703125,84.06393432617188,16.589420318603516,66.92013549804688,-0.015024948120117187,0.0013333333333333333,0.0,-0.0,0.0,0.0,0.4394499957561493,-0.011820136176215277,0.38521427578396267
374,-0.0,0.0,83.0001220703125,84.14576721191406,16.118885040283203,67.16563415527344,-0.015024948120117187,0.001,0.0,-0.0,0.0,0.0,0.4394499957561493,-0.012729390462239584,0.3772583431667752
375,-0.0,0.0,83.0001220703125,84.14576721191406,15.832473754882812,67.47250366210938,-0.015252261691623263,0.001,0.0,-0.0,0.0,0.0,0.4394499957561493,-0.012729390462239584,0.3706663343641493
376,-0.0,0.0,82.87738037109375,84.18669128417969,15.709724426269531,67.77937316894531,-0.015024948120117187,0.001,0.0,-0.0,0.0,0.0,0.4394499957561493,-0.014547899034288195,0.3658927917480469
377,-0.0,0.0,83.02058410644531,84.26852416992188,15.382396697998047,68.10669708251953,-0.015252261691623263,0.001,0.0,-0.0,0.0,0.0,0.4394499957561493,-0.013866000705295138,0.35861888461642794
378,-0.0,0.0,83.06149291992188,84.12531280517578,15.095985412597656,68.47494506835938,-0.015252261691623263,0.001,0.0,-0.0,0.0,0.0,0.4394499957561493,-0.011820220947265625,0.3513448927137587
379,-0.0,0.0,82.9592056274414,84.16622924804688,14.809574127197266,68.78181457519531,-0.015252261691623263,0.001,0.0,-0.0,0.0,0.0,0.4394499957561493,-0.013411373562282987,0.3447528839111328
380,-0.0,0.0,82.93875122070312,84.1048583984375,14.543621063232422,69.02731323242188,-0.015252261691623263,0.0006666666666666666,0.0,-0.0,0.0,0.0,0.4394499957561493,-0.012956746419270833,0.3390700870090061
381,-0.0,0.0,82.85691833496094,84.22760009765625,14.379955291748047,69.51830291748047,-0.015024948120117187,0.0006666666666666666,0.0,-0.0,0.0,0.0,0.4394499957561493,-0.01522979736328125,0.331796137491862
382,-0.0,0.0,82.93875122070312,84.18669128417969,14.154918670654297,69.68196105957031,-0.015024948120117187,0.001,0.0,-0.0,0.0,0.0,0.4394499957561493,-0.013866000705295138,0.32747730678982206
383,-0.0,0.0,82.87738037109375,84.14576721191406,13.970794677734375,69.88654327392578,-0.015024948120117187,0.0006666666666666666,0.0,-0.0,0.0,0.0,0.4394499957561493,-0.014093187120225694,0.3231583489312066
384,-0.0,0.0,82.85691833496094,84.1048583984375,13.84804916381836,70.15249633789062,-0.015252261691623263,0.001,0.0,-0.0,0.0,0.0,0.4394499957561493,-0.013866000705295138,0.3188394758436415
385,-0.0,0.0,82.91828918457031,84.14576721191406,13.58209228515625,70.2752456665039,-0.015252261691623263,0.001,0.0,-0.0,0.0,0.0,0.4394499957561493,-0.013638644748263888,0.31452051798502606
386,-0.0,0.0,82.9592056274414,84.22760009765625,13.500263214111328,70.62303161621094,-0.015252261691623263,0.0006666666666666666,0.0,-0.0,0.0,0.0,0.4394499957561493,-0.014093271891276042,0.3097470177544488
387,-0.0,0.0,82.89783477783203,84.28897857666016,13.275222778320312,70.78669738769531,-0.015024948120117187,0.001,0.0,-0.0,0.0,0.0,0.4394499957561493,-0.0154571533203125,0.3054280598958333
388,-0.0,0.0,83.0001220703125,84.08439636230469,13.172935485839844,70.9094467163086,-0.015252261691623263,0.0006666666666666666,0.0,-0.0,0.0,0.0,0.4394499957561493,-0.012047492133246528,0.3029276529947917
389,-0.0,0.0,82.97966003417969,84.14576721191406,13.07064437866211,71.05265045166016,-0.015024948120117187,0.0006666666666666666,0.0,-0.0,0.0,0.0,0.4394499957561493,-0.012956746419270833,0.3001999325222439
390,-0.0,0.0,83.02058410644531,84.14576721191406,12.743316650390625,71.21631622314453,-0.015024948120117187,0.001,0.0,-0.0,0.0,0.0,0.4394499957561493,-0.012502034505208334,0.29474444919162324
391,-0.0,0.0,83.12287139892578,84.22760009765625,12.804691314697266,71.44135284423828,-0.015252261691623263,0.0006666666666666666,0.0,-0.0,0.0,0.0,0.4394499957561493,-0.01227476331922743,0.2929259830050998
392,-0.0,0.0,83.0001220703125,84.16622924804688,12.334156036376953,71.74822235107422,-0.015252261691623263,0.001,0.0,-0.0,0.0,0.0,0.4394499957561493,-0.012956746419270833,0.2842881520589193
393,-0.0,0.0,83.02058410644531,84.22760009765625,12.006828308105469,72.13692474365234,-0.015024948120117187,0.0006666666666666666,0.0,-0.0,0.0,0.0,0.4394499957561493,-0.013411288791232639,0.27633226182725695
394,-0.0,0.0,83.0410385131836,84.22760009765625,11.720417022705078,72.3619613647461,-0.015252261691623263,0.0006666666666666666,0.0,-0.0,0.0,0.0,0.4394499957561493,-0.013184017605251737,0.2706495073106554
395,-0.0,0.0,82.97966003417969,84.16622924804688,11.474918365478516,72.79158020019531,-0.015252261691623263,0.0006666666666666666,0.0,-0.0,0.0,0.0,0.4394499957561493,-0.013184102376302083,0.26314820183648
396,-0.0,0.0,82.93875122070312,84.32989501953125,11.147590637207031,72.93478393554688,-0.015252261691623263,0.001,0.0,-0.0,0.0,0.0,0.4394499957561493,-0.0154571533203125,0.2579200744628906
397,-0.0,0.0,83.14332580566406,84.14576721191406,10.963470458984375,72.97570037841797,-0.015252261691623263,0.001,0.0,-0.0,0.0,0.0,0.4394499957561493,-0.011138237847222222,0.255419667561849
398,-0.0,0.0,82.87738037109375,84.28897857666016,10.758888244628906,73.11891174316406,-0.015024948120117187,0.001,0.0,-0.0,0.0,0.0,0.4394499957561493,-0.015684424506293402,0.2515552944607205
399,-0.0,0.0,82.87738037109375,84.16622924804688,10.820262908935547,73.01661682128906,-0.015024948120117187,0.001,0.0,-0.0,0.0,0.0,0.4394499957561493,-0.014320543077256944,0.2533738454182943
400,-0.0,0.0,82.89783477783203,84.16622924804688,10.902095794677734,72.8734130859375,-0.015024948120117187,0.0006666666666666666,0.0,-0.0,0.0,0.0,0.4394499957561493,-0.014093271891276042,0.2558742523193359
401,-0.0,0.0,82.97966003417969,84.16622924804688,11.024845123291016,72.89387512207031,-0.015024948120117187,0.0006666666666666666,0.0,-0.0,0.0,0.0,0.4394499957561493,-0.013184102376302083,0.2570107777913411
402,-0.0,0.0,82.93875122070312,84.32989501953125,10.902095794677734,72.93478393554688,-0.015024948120117187,0.0003333333333333333,0.0,-0.0,0.0,0.0,0.4394499957561493,-0.0154571533203125,0.2551923539903429
403,-0.0,0.0,82.81600189208984,84.14576721191406,11.004386901855469,73.11891174316406,-0.015252261691623263,0.0003333333333333333,0.0,-0.0,0.0,0.0,0.4394499957561493,-0.014775170220269097,0.2542830573187934
404,-0.0,0.0,83.06149291992188,84.1048583984375,10.943012237548828,73.09844970703125,-0.015024948120117187,0.0006666666666666666,0.0,-0.0,0.0,0.0,0.4394499957561493,-0.011592949761284723,0.2538284725613064
405,-0.0,0.0,83.02058410644531,84.12531280517578,10.963470458984375,72.99616241455078,-0.015252261691623263,0.0003333333333333333,0.0,-0.0,0.0,0.0,0.4394499957561493,-0.01227476331922743,0.2551923116048177
406,-0.0,0.0,83.0410385131836,84.30943298339844,10.840721130371094,73.01661682128906,-0.014797634548611112,0.0,0.0,-0.0,0.0,0.0,0.4394499957561493,-0.014093271891276042,0.25360115898980035
407,-0.0,0.0,83.1024169921875,84.02302551269531,10.86117935180664,73.07799530029297,-0.01547957526312934,0.0,0.0,-0.0,0.0,0.0,0.4394499957561493,-0.010228983561197917,0.253146489461263
408,-0.0,0.0,82.9592056274414,84.1048583984375,10.820262908935547,73.09844970703125,-0.015252261691623263,0.0003333333333333333,0.0,-0.0,0.0,0.0,0.4394499957561493,-0.012729475233289931,0.25246459113227
409,-0.0,0.0,82.93875122070312,84.14576721191406,10.963470458984375,72.97570037841797,-0.015252261691623263,0.0,0.0,-0.0,0.0,0.0,0.4394499957561493,-0.013411288791232639,0.255419667561849
