,WD,WS,AIL_1,AIL_2,ELEV_1,ELEV_2,RUDD,ALT,GS,TH,PTCH,ROLL,PLA_1,AIL,ELEV
3268,-0.6766607479437934,0.13945316314697265,83.26608276367188,83.57295227050781,-4.11407470703125,88.40103149414062,0.0011141459147135417,0.7626666666666667,0.45071428571428573,-0.013579898410373263,-3.273829119750978,-0.6591612272949234,31.552509307861328,-0.003409661187065972,-0.08350118001302083
3269,-0.6844732479437934,0.13945316314697265,83.73661041259766,82.36592102050781,-4.134532928466797,88.46240997314453,0.00543306138780382,0.758,0.4492857142857143,-0.013824039035373263,-3.0980535917968766,-0.19774879748535312,31.46462059020996,0.015229882134331598,-0.08441047668457032
3270,-0.6844732479437934,0.13945316314697265,84.49356079101562,83.77752685546875,-4.154991149902344,88.44195556640625,0.004751120673285591,0.7533333333333333,0.44785714285714284,-0.013579898410373263,-3.0431219511718766,0.9008520245552063,31.46462059020996,0.0079559326171875,-0.08441051907009549
3271,-0.6766607479437934,0.13945316314697265,84.5140151977539,84.0434799194336,-4.11407470703125,88.44195556640625,0.0065695868598090275,0.7486666666666667,0.44642857142857145,-0.013701968722873263,-3.0101648741455094,1.450152039527893,31.46462059020996,0.005228169759114583,-0.08395589192708333
3272,-0.6649419979437934,0.13945316314697265,85.94607543945312,85.49600219726562,-4.093616485595703,88.40103149414062,-0.0007043626573350694,0.744,0.44535714285714284,-0.013183169894748263,-2.944248812744142,1.4611380100250244,31.46462059020996,0.0050008138020833336,-0.08327386644151476
3273,-0.6493169979437934,0.13945316314697265,85.43462371826172,85.39370727539062,-4.073158264160156,88.36012268066406,-0.0009316762288411458,0.7396666666666667,0.4442857142857143,-0.013244205050998263,-2.867346423217775,0.6262019872665405,31.46462059020996,0.0004546271430121528,-0.08259201049804688
3274,-0.6454107479437934,0.13945316314697265,83.79798889160156,84.28897857666016,-4.073158264160156,88.38057708740234,-0.0009316762288411458,0.7353333333333333,0.4432142857142857,-0.013579898410373263,-2.823403018066408,-0.6042314940185562,32.25563049316406,-0.005455440945095486,-0.08281928168402777
3275,-0.6571294979437934,0.13945316314697265,83.22515869140625,83.18424987792969,-4.073158264160156,88.40103149414062,-2.242194281684028e-05,0.731,0.4417857142857143,-0.013579898410373263,-2.801430361816408,-1.153530734130861,32.4314079284668,0.00045454237196180554,-0.08304655287000869
3276,-0.6766607479437934,0.13945316314697265,84.1048583984375,83.0001220703125,-4.052700042724609,88.38057708740234,0.0049784342447916664,0.7266666666666667,0.44107142857142856,-0.013335757785373263,-2.812416689941408,-0.6591612272949234,32.6950798034668,0.012274848090277778,-0.0825919681125217
3277,-0.6883794979437934,0.13945316314697265,85.16867065429688,84.77996826171875,-4.052700042724609,88.29874420166016,0.00543306138780382,0.7223333333333334,0.44,-0.013579898410373263,-2.812416689941408,0.07690200209617615,32.95874786376953,0.0043189154730902775,-0.0816827138264974
3278,-0.6844732479437934,0.13945316314697265,85.1072998046875,85.37325286865234,-4.093616485595703,88.36012268066406,0.0015687730577256945,0.7186666666666667,0.43892857142857145,-0.014098697238498263,-2.7794596129150406,-0.09887375170898594,33.749759674072266,-0.0029550340440538192,-0.08281932406955295
3279,-0.6805669979437934,0.13945316314697265,83.0001220703125,83.14332580566406,-4.154991149902344,88.52378845214844,0.0040691799587673615,0.7143333333333334,0.4375,-0.014525943332248263,-2.801430361816408,-0.7250772886962906,34.716548919677734,-0.001591152615017361,-0.08531977335611979
3280,-0.7040044979437934,0.13945316314697265,84.43218231201172,83.34790802001953,-4.257282257080078,88.6056137084961,0.0031599256727430558,0.7096666666666667,0.43642857142857144,-0.014037662082248263,-2.790444033691408,-0.2526785307617203,36.0349006652832,0.012047492133246528,-0.08736551072862413
3281,-0.7079107479437934,0.13945316314697265,85.29141998291016,85.23004150390625,-4.4209442138671875,88.62606811523438,0.0049784342447916664,0.705,0.43535714285714283,-0.014922587076822917,-2.7465006285400406,0.45042601227760315,37.265357971191406,0.0006819831000434028,-0.08941124810112847
3282,-0.6961919979437934,0.15937503814697265,84.61630249023438,84.43218231201172,-4.277740478515625,88.72836303710938,0.0072515275743272566,0.7003333333333334,0.43464285714285716,-0.016295878092447917,-2.7794596129150406,-0.03295769030761875,38.671600341796875,0.002045779758029514,-0.08895670572916667
3283,-0.7157232479437934,0.15937503814697265,84.86180114746094,84.67768096923828,-4.236824035644531,88.564697265625,-0.0011589898003472221,0.6963333333333334,0.43392857142857144,-0.015716044108072917,-2.900305407592775,-0.4284540587158219,39.814170837402344,0.002045779758029514,-0.0866835700141059
3284,-0.7235357479437934,0.15937503814697265,83.61386108398438,83.69569396972656,-4.216365814208984,88.54424285888672,0.005887646145290798,0.6916666666666667,0.43392857142857144,-0.016173807779947917,-2.867346423217775,-0.6481748991699234,40.86885070800781,-0.0009092542860243056,-0.08622898525661893
3285,-0.7391607479437934,0.15937503814697265,83.73661041259766,83.32745361328125,-4.339115142822266,88.64653015136719,0.0031599256727430558,0.687,0.43392857142857144,-0.016021219889322917,-2.7684732847900406,-0.2966219359130875,41.48408126831055,0.00454618665907118,-0.0887293921576606
3286,-0.7508794979437934,0.15937503814697265,84.75950622558594,84.14576721191406,-4.3595733642578125,88.68744659423828,0.002705298529730903,0.6823333333333333,0.4342857142857143,-0.015380350748697917,-2.812416689941408,0.6262019872665405,42.362979888916016,0.006819322374131944,-0.08941133287217883
3287,-0.7274419979437934,0.13945316314697265,85.68012237548828,85.12775421142578,-4.441402435302734,88.68744659423828,0.0040691799587673615,0.6776666666666666,0.43464285714285716,-0.015319315592447917,-2.922276156494142,1.3293060064315796,42.71453857421875,0.006137424045138889,-0.09032054477267795
3288,-0.7118169979437934,0.15937503814697265,85.49600219726562,85.31187438964844,-4.482318878173828,88.81019592285156,0.0024779849582248262,0.6726666666666666,0.43535714285714283,-0.015166727701822917,-2.955235140869142,1.2304320335388184,43.417659759521484,0.002045864529079861,-0.09213905334472657
3289,-0.7118169979437934,0.15937503814697265,85.455078125,85.25050354003906,-4.564151763916016,88.89202880859375,-0.0034320831298828127,0.668,0.43607142857142855,-0.014312320285373263,-3.0431219511718766,0.7140899896621704,43.505550384521484,0.0022730509440104167,-0.09395756191677518
3290,-0.7235357479437934,0.15937503814697265,85.02546691894531,84.84133911132812,-4.4209442138671875,88.76927947998047,-0.00047704908582899306,0.6633333333333333,0.4367857142857143,-0.013854556613498263,-3.185940402099611,0.23070600628852844,43.417659759521484,0.002045864529079861,-0.09100248548719618
3291,-0.7274419979437934,0.15937503814697265,85.31187438964844,84.94363403320312,-4.380031585693359,88.74882507324219,0.0008868323432074653,0.6583333333333333,0.43714285714285717,-0.013824039035373263,-3.163967745849611,-0.09887375170898594,43.153987884521484,0.004091559516059028,-0.0903206295437283
3292,-0.7391607479437934,0.15937503814697265,84.82088470458984,84.98455047607422,-4.298198699951172,88.70790100097656,0.0002048916286892361,0.6533333333333333,0.4375,-0.014220767550998263,-3.1200243406982437,-0.4174677305908219,42.97821044921875,-0.001818508572048611,-0.0889566633436415
3293,-0.7430669979437934,0.15937503814697265,83.75706481933594,83.85935974121094,-4.257282257080078,88.6669921875,0.0011141459147135417,0.6486666666666666,0.43785714285714283,-0.014251285129123263,-3.1090380125732437,-0.7250772886962906,42.97821044921875,-0.0011366102430555556,-0.08804749382866753
3294,-0.7547857479437934,0.15937503814697265,85.12775421142578,84.30943298339844,-4.257282257080078,88.6056137084961,0.0020233578152126738,0.6436666666666667,0.4382142857142857,-0.014037662082248263,-3.0321375303955094,-0.2416922026367203,42.89031982421875,0.009092458089192708,-0.08736551072862413
3295,-0.7469732479437934,0.15937503814697265,85.31187438964844,84.73905181884766,-4.400489807128906,88.6669921875,0.0024779849582248262,0.639,0.43892857142857145,-0.014312320285373263,-2.955235140869142,0.2197200059890747,42.89031982421875,0.006364695231119792,-0.08963868882921007
3296,-0.7391607479437934,0.15937503814697265,85.455078125,85.35279846191406,-4.461860656738281,88.74882507324219,0.0011141459147135417,0.634,0.4392857142857143,-0.014648013644748263,-2.933262484619142,0.1538040041923523,42.89031982421875,0.001136440700954861,-0.09122984144422742
3297,-0.7391607479437934,0.15937503814697265,84.37080383300781,84.1048583984375,-4.4209442138671875,88.76927947998047,0.0006595187717013889,0.6296666666666667,0.44,-0.014403873019748263,-2.933262484619142,-0.2636648588867203,42.97821044921875,0.0029549492730034724,-0.09100248548719618
3298,-0.7430669979437934,0.15937503814697265,85.455078125,84.73905181884766,-4.441402435302734,88.78973388671875,0.002705298529730903,0.625,0.44,-0.014342837863498263,-2.933262484619142,-0.13183273608398594,42.97821044921875,0.007955847846137152,-0.09145707024468316
3299,-0.7430669979437934,0.15937503814697265,84.84133911132812,85.0459213256836,-4.482318878173828,88.81019592285156,0.001341459486219618,0.621,0.44035714285714284,-0.014708964029947917,-2.900305407592775,-0.14281906420898594,42.97821044921875,-0.002273135715060764,-0.09213905334472657
3300,-0.7469732479437934,0.15937503814697265,84.88226318359375,84.67768096923828,-4.543693542480469,88.83065795898438,0.0008868323432074653,0.6166666666666667,0.44035714285714284,-0.014861551920572917,-2.900305407592775,-0.3515516691894547,42.97821044921875,0.002273135715060764,-0.09304835001627604
3301,-0.7508794979437934,0.15937503814697265,84.73905181884766,84.71859741210938,-4.5846099853515625,88.89202880859375,0.0015687730577256945,0.612,0.4407142857142857,-0.014953104654947917,-2.966221468994142,-0.4723993712158219,42.97821044921875,0.00022727118598090277,-0.09418487548828125
3302,-0.7547857479437934,0.15937503814697265,83.71615600585938,83.65477752685547,-4.625526428222656,88.93293762207031,0.0015687730577256945,0.608,0.4407142857142857,-0.014678531222873263,-3.0321375303955094,-0.5822588377685562,42.97821044921875,0.0006819831000434028,-0.0950940450032552
3303,-0.7665044979437934,0.15937503814697265,84.02302551269531,83.5115737915039,-4.502777099609375,88.89202880859375,0.0049784342447916664,0.603,0.44,-0.014617496066623263,-3.229883807250978,-0.04394401843261875,39.814170837402344,0.0056827969021267365,-0.09327562120225695
3304,-0.7704107479437934,0.15937503814697265,84.5958480834961,83.87982177734375,-4.257282257080078,88.72836303710938,0.005205747816297743,0.5983333333333334,0.43892857142857145,-0.014434390597873263,-3.3617159300537125,0.6262019872665405,34.628658294677734,0.007955847846137152,-0.0887293921576606
3305,-0.7821294979437934,0.17929691314697266,85.25050354003906,85.1072998046875,-4.11407470703125,88.50332641601562,-0.0009316762288411458,0.5936666666666667,0.4367857142857143,-0.013732486300998263,-3.3287588530273453,1.1095860004425049,30.058380126953125,0.001591152615017361,-0.08463779025607639
3306,-0.7743169979437934,0.17929691314697266,85.70057678222656,85.14820861816406,-3.8481216430664062,88.27828979492188,0.0020233578152126738,0.5886666666666667,0.43535714285714283,-0.013915591769748263,-3.251856463500978,0.9338099956512451,29.794710159301758,0.006137424045138889,-0.0791823493109809
3307,-0.7743169979437934,0.17929691314697266,85.23004150390625,85.29141998291016,-4.154991149902344,88.33966064453125,-0.0018409305148654514,0.5833333333333334,0.43214285714285716,-0.013335757785373263,-3.174954073974611,0.32958000898361206,29.794710159301758,-0.0006819831000434028,-0.08327390882703993
3308,-0.7743169979437934,0.17929691314697266,83.98210144042969,84.16622924804688,-4.768730163574219,88.99431610107422,0.0036145528157552082,0.5786666666666667,0.4303571428571429,-0.013610415988498263,-3.3617159300537125,-0.3735243254394547,29.706819534301758,-0.002045864529079861,-0.09736718071831597
3309,-0.7899419979437934,0.17929691314697266,84.37080383300781,84.08439636230469,-5.321098327636719,89.58760070800781,-0.0009316762288411458,0.5746666666666667,0.4253571428571429,-0.012786441379123263,-3.943974154541017,-0.49437012011718906,29.706819534301758,0.003182305230034722,-0.1100966559516059
3310,-0.8055669979437934,0.17929691314697266,84.30943298339844,84.02302551269531,-5.66888427734375,89.91493225097656,0.00770615471733941,0.571,0.42214285714285715,-0.012939029269748263,-4.745953219482423,-0.16478981311035312,29.706819534301758,0.003182305230034722,-0.11759796142578124
3311,-0.8094732479437934,0.17929691314697266,84.77996826171875,84.41172790527344,-5.7507171630859375,90.0785903930664,0.0031599256727430558,0.5673333333333334,0.41714285714285715,-0.013274722629123263,-5.536944048950197,0.08788800239562988,29.706819534301758,0.004091559516059028,-0.12032563951280383
3312,-0.8211919979437934,0.19921878814697266,85.37325286865234,84.77996826171875,-5.525676727294922,89.99675750732422,0.0011141459147135417,0.564,0.4139285714285714,-0.013274722629123263,-6.273007052490236,-0.05493034655761875,29.706819534301758,0.0065920511881510414,-0.11691593594021267
3313,-0.8094732479437934,0.19921878814697266,84.5140151977539,85.06637573242188,-4.932395935058594,89.64897155761719,0.007024214002821181,0.56,0.4085714285714286,-0.014586978488498263,-6.613573687622072,-0.5492998533935562,29.706819534301758,-0.006137339274088541,-0.10645963880750868
3314,-0.8094732479437934,0.19921878814697266,83.77752685546875,83.5115737915039,-4.543693542480469,89.05569458007812,0.0006595187717013889,0.555,0.4060714285714286,-0.014831034342447917,-6.338923113891603,-1.4171949797363297,29.706819534301758,0.0029550340440538192,-0.0955487569173177
3315,-0.8329107479437934,0.17929691314697266,84.1048583984375,84.06393432617188,-4.1959075927734375,88.72836303710938,-0.0009316762288411458,0.55,0.4017857142857143,-0.014159732394748263,-5.833567278930666,-1.4940973692626969,29.706819534301758,0.0004547119140625,-0.08804745144314235
3316,-0.8446294979437934,0.17929691314697266,83.96165466308594,83.92073059082031,-3.8890380859375,88.44195556640625,0.002705298529730903,0.545,0.3989285714285714,-0.014373355441623263,-5.317225115844728,-1.164517062255861,29.706819534301758,0.0004547119140625,-0.08145548502604166
3317,-0.8329107479437934,0.17929691314697266,84.43218231201172,84.08439636230469,-3.8481216430664062,88.27828979492188,0.010433875189887153,0.5403333333333333,0.395,-0.016143290201822917,-4.767923968383791,-0.6371885710449234,29.706819534301758,0.003864288330078125,-0.0791823493109809
3318,-0.8094732479437934,0.17929691314697266,84.30943298339844,83.83889770507812,-3.745830535888672,88.23736572265625,0.012025070190429688,0.5356666666666666,0.3917857142857143,-0.01754701402452257,-4.3834139281005875,-0.4614130430908219,29.706819534301758,0.005228169759114583,-0.07759106953938802
3319,-0.7782232479437934,0.15937503814697265,83.83889770507812,84.02302551269531,-3.7867469787597656,88.03279113769531,0.008842722574869791,0.531,0.3867857142857143,-0.01870668199327257,-4.196652072021486,-0.20873512561035312,29.706819534301758,-0.002045864529079861,-0.07577264573838975
3320,-0.7743169979437934,0.17929691314697266,83.12287139892578,83.0001220703125,-3.8276634216308594,88.21691131591797,0.009297349717881945,0.527,0.38357142857142856,-0.01998842027452257,-4.053835528442384,-0.05493034655761875,29.706819534301758,0.0013638814290364584,-0.07827305263943142
3321,-0.7977544979437934,0.17929691314697266,84.35034942626953,84.47309875488281,-3.500335693359375,88.05325317382812,-0.0007043626573350694,0.523,0.37892857142857145,-0.01910341050889757,-4.097778933593752,0.29662200808525085,29.706819534301758,-0.0013638814290364584,-0.07281765407986111
3322,-0.8055669979437934,0.17929691314697266,83.12287139892578,83.57295227050781,-2.9684295654296875,87.62362670898438,0.0017960866292317708,0.5193333333333333,0.37642857142857145,-0.01818788316514757,-4.196652072021486,0.3405660092830658,29.706819534301758,-0.00500089857313368,-0.06213395860460069
3323,-0.8250982479437934,0.17929691314697266,83.63432312011719,83.42974090576172,-2.6001853942871094,87.21446990966797,0.0056603749593098955,0.5153333333333333,0.3725,-0.016997782389322917,-3.867073672363283,0.790992021560669,29.706819534301758,0.002273135715060764,-0.053496170043945315
3324,-0.8172857479437934,0.15937503814697265,86.0688247680664,85.80287170410156,-2.497894287109375,86.92805480957031,0.0002048916286892361,0.5113333333333333,0.3703571428571429,-0.015380350748697917,-3.3617159300537125,1.4831100702285767,31.991960525512695,0.0029550340440538192,-0.04917721218532986
3325,-0.8055669979437934,0.17929691314697266,86.0688247680664,85.96653747558594,-2.272857666015625,86.662109375,0.007024214002821181,0.507,0.3682142857142857,-0.015777079264322917,-2.911289828369142,1.5160679817199707,34.277099609375,0.0011365254720052083,-0.04372185601128472
3326,-0.7938482479437934,0.17929691314697266,86.04837036132812,86.0688247680664,-2.313770294189453,86.80531311035156,0.004751120673285591,0.503,0.36642857142857144,-0.016723124186197917,-2.482836382934572,1.06564199924469,35.7712287902832,-0.00022727118598090277,-0.045767593383789065
3327,-0.7547857479437934,0.17929691314697266,84.92317199707031,85.02546691894531,-2.2319412231445312,86.5188980102539,0.0017960866292317708,0.49866666666666665,0.36464285714285716,-0.016631571451822917,-2.208185809204103,0.5493000149726868,37.441139221191406,-0.0011366102430555556,-0.04167599148220486
3328,-0.7586919979437934,0.15937503814697265,81.9976806640625,82.5091323852539,-2.7843055725097656,87.39859008789062,0.0040691799587673615,0.49533333333333335,0.36357142857142855,-0.016082255045572917,-1.8786074095459,0.06591600179672241,38.93526840209961,-0.0056827969021267365,-0.05758772956000434
3329,-0.8016607479437934,0.15937503814697265,84.67768096923828,84.61630249023438,-2.354686737060547,86.86668395996094,-0.0011589898003472221,0.49166666666666664,0.36214285714285716,-0.013763003879123263,-2.4388929777832047,0.6042300462722778,39.19894027709961,0.0006819831000434028,-0.04690411885579427
3330,-0.8290044979437934,0.15937503814697265,84.57539367675781,86.31431579589844,-2.8456802368164062,86.74394226074219,-0.0018409305148654514,0.489,0.3610714285714286,-0.01077236599392361,-2.4498793059082047,1.3952220678329468,39.550498962402344,-0.01932135687934028,-0.05099580552842882
3331,-0.8524419979437934,0.17929691314697266,85.02546691894531,84.94363403320312,-2.497894287109375,87.09172058105469,0.004523807101779514,0.4856666666666667,0.36,-0.00982632107204861,-2.175228732177736,1.5270540714263916,39.814170837402344,0.0009092542860243056,-0.050995720757378474
3332,-0.8407232479437934,0.17929691314697266,85.31187438964844,85.29141998291016,-1.6795730590820312,85.96653747558594,0.012707010904947916,0.482,0.35964285714285715,-0.00924648708767361,-2.153256075927736,1.3512780666351318,40.42940139770508,0.00022727118598090277,-0.02940122816297743
3333,-0.8211919979437934,0.13945316314697265,85.16867065429688,85.29141998291016,-2.088733673095703,86.39614868164062,-0.007069057888454861,0.47833333333333333,0.35892857142857143,-0.0072629292805989586,-1.4940973692626969,0.8129640221595764,41.22040939331055,-0.0013638814290364584,-0.03872091505262587
3334,-0.8797857479437934,0.17929691314697266,85.0050048828125,85.08683776855469,-2.4160614013671875,86.82576751708984,-0.015706888834635415,0.4756666666666667,0.3585714285714286,-0.004974195692274305,-1.1095873289794937,0.45042601227760315,41.39619064331055,-0.0009092542860243056,-0.04713143242730035
3335,-0.8641607479437934,0.17929691314697266,85.53691101074219,85.76194763183594,-2.0273590087890625,86.47798156738281,0.00770615471733941,0.4716666666666667,0.3578571428571429,-0.005920240614149305,-1.2743765288085953,1.252403974533081,41.39619064331055,-0.0025004069010416668,-0.03894822862413194
3336,-0.8211919979437934,0.17929691314697266,85.557373046875,85.557373046875,-1.9659843444824219,86.19157409667969,0.016343985663519967,0.4683333333333333,0.3575,-0.008300526936848959,-1.1974741392822281,1.340291976928711,43.505550384521484,0.0,-0.03508398267957899
3337,-0.7938482479437934,0.15937503814697265,85.20958709716797,85.20958709716797,-2.1501083374023438,86.6007308959961,-0.0007043626573350694,0.465,0.3578571428571429,-0.0073239644368489586,-0.856909411499025,0.7031040191650391,43.76921844482422,0.0,-0.04167599148220486
3338,-0.8329107479437934,0.17929691314697266,85.08683776855469,85.1072998046875,-2.2114830017089844,86.662109375,0.0008868323432074653,0.4623333333333333,0.3575,-0.005492994520399305,-0.823950427124025,0.4614120125770569,43.85710906982422,-0.00022735595703125,-0.04303991529676649
3339,-0.8407232479437934,0.17929691314697266,85.08683776855469,85.0459213256836,-2.1501083374023438,86.68256378173828,0.009751976860894098,0.459,0.35714285714285715,-0.004821607801649305,-0.9887415343017594,0.10986000299453735,44.12078094482422,0.0004546271430121528,-0.04258524576822917
3340,-0.8407232479437934,0.17929691314697266,86.0074462890625,85.14820861816406,-2.497894287109375,86.662109375,0.0024779849582248262,0.456,0.35714285714285715,-0.004516432020399305,-1.0436712675781266,-0.01098694140625156,45.966468811035156,0.009547085232204862,-0.04622226291232639
3341,-0.8329107479437934,0.15937503814697265,84.94363403320312,85.84378051757812,-2.4160614013671875,86.72348022460938,0.0006595187717013889,0.453,0.35714285714285715,-0.004577467176649305,-1.0546575957031266,-0.6591612272949234,46.933258056640625,-0.010001627604166667,-0.04599490695529514
3342,-0.8368169979437934,0.15937503814697265,84.63676452636719,84.61630249023438,-2.9275131225585938,87.5213394165039,-0.001613616943359375,0.45,0.3575,-0.005004713270399305,-1.0436712675781266,-1.3842359953613297,46.933258056640625,0.00022735595703125,-0.06054280598958333
3343,-0.8329107479437934,0.15937503814697265,81.42485809326172,84.45263671875,-2.334228515625,87.39859008789062,0.00225067138671875,0.44666666666666666,0.3578571428571429,-0.0065305074055989586,-1.560013430664064,-1.5929705076904312,46.933258056640625,-0.03364198472764757,-0.052586873372395836
3344,-0.8368169979437934,0.15937503814697265,84.39126586914062,83.73661041259766,-2.9684295654296875,86.84622192382812,0.004296493530273437,0.443,0.3578571428571429,-0.008544667561848959,-1.8456484251709,-1.164517062255861,46.933258056640625,0.0072739495171440975,-0.05349612765842014
3345,-0.8368169979437934,0.15937503814697265,84.47309875488281,84.67768096923828,-3.254840850830078,87.21446990966797,0.002932612101236979,0.43966666666666665,0.3585714285714286,-0.00936855740017361,-2.0983263426513687,-0.7800070219726578,46.66958999633789,-0.002273135715060764,-0.06077011956108941
3346,-0.8407232479437934,0.15937503814697265,82.07951354980469,84.24806213378906,-2.8865966796875,87.35768127441406,0.0040691799587673615,0.436,0.35892857142857143,-0.00997890896267361,-2.6256548338623062,-0.7690206938476578,46.66958999633789,-0.024094984266493057,-0.05826975504557292
3347,-0.8680669979437934,0.15937503814697265,85.1072998046875,85.39370727539062,-2.6001853942871094,87.0712661743164,-0.0013863033718532986,0.432,0.35964285714285715,-0.00909389919704861,-2.867346423217775,-0.4284540587158219,46.66958999633789,-0.003182305230034722,-0.05190501742892795
3348,-0.8719732479437934,0.15937503814697265,84.57539367675781,84.39126586914062,-2.4365196228027344,86.41661071777344,0.003387239244249132,0.428,0.3607142857142857,-0.009002431233723959,-2.7684732847900406,-0.3405672484130875,46.66958999633789,0.002045864529079861,-0.04281255933973524
3349,-0.8719732479437934,0.17929691314697266,84.24806213378906,84.14576721191406,-2.5388107299804688,87.0712661743164,0.0072515275743272566,0.424,0.36178571428571427,-0.01031460232204861,-2.4608656340332047,-0.12084640795898594,46.66958999633789,0.0011366102430555556,-0.051223076714409725
3350,-0.8524419979437934,0.17929691314697266,84.43218231201172,84.39126586914062,-2.722930908203125,87.35768127441406,0.011570443047417535,0.41933333333333334,0.3625,-0.01159634060329861,-2.526779788085939,0.2526780068874359,46.66958999633789,0.0004546271430121528,-0.05645124647352431
3351,-0.8563482479437934,0.17929691314697266,84.75950622558594,84.67768096923828,-2.7843055725097656,87.21446990966797,0.006114959716796875,0.4146666666666667,0.36357142857142855,-0.01113857693142361,-2.900305407592775,0.516342043876648,46.66958999633789,0.0009091695149739584,-0.05554194980197483
3352,-0.8680669979437934,0.17929691314697266,86.76439666748047,85.72103881835938,-2.6820144653320312,87.21446990966797,0.006796900431315104,0.41,0.36464285714285716,-0.01037563747829861,-3.0980535917968766,0.6701459884643555,45.966468811035156,0.011592864990234375,-0.05440538194444444
3353,-0.8602544979437934,0.17929691314697266,86.72348022460938,87.1121826171875,-2.8456802368164062,87.17355346679688,0.0040691799587673615,0.4056666666666667,0.3653571428571429,-0.01000942654079861,-3.0980535917968766,0.20873400568962097,45.79069137573242,-0.0043189154730902775,-0.055769263373480905
3354,-0.8563482479437934,0.17929691314697266,83.96165466308594,84.18669128417969,-2.0478172302246094,86.92805480957031,0.003387239244249132,0.40066666666666667,0.3657142857142857,-0.01080288357204861,-3.163967745849611,-0.9228254729003922,45.70280075073242,-0.0025004069010416668,-0.04417635599772136
3355,-0.8680669979437934,0.17929691314697266,83.552490234375,83.5115737915039,-2.5388107299804688,87.09172058105469,-0.001613616943359375,0.396,0.36714285714285716,-0.01119961208767361,-2.812416689941408,-1.2963491850585953,45.70280075073242,0.0004546271430121528,-0.051450347900390624
3356,-0.8602544979437934,0.15937503814697265,83.57295227050781,83.38882446289062,-3.2343826293945312,87.25538635253906,0.009751976860894098,0.3913333333333333,0.36714285714285716,-0.012572818332248263,-2.6366411619873062,-1.0216986113281266,45.70280075073242,0.002045864529079861,-0.06099743313259549
3357,-0.8680669979437934,0.15937503814697265,83.96165466308594,83.69569396972656,-2.9684295654296875,87.39859008789062,0.0008868323432074653,0.3873333333333333,0.3678571428571429,-0.012877994113498263,-2.856360095092775,-0.6481748991699234,44.82389831542969,0.0029551188151041665,-0.05963355170355903
3358,-0.8719732479437934,0.15937503814697265,84.16622924804688,84.1048583984375,-2.497894287109375,86.84622192382812,0.0036145528157552082,0.38333333333333336,0.3678571428571429,-0.013274722629123263,-3.0650946074218766,-0.2526785307617203,44.64812088012695,0.0006818983289930556,-0.048267957899305554
3359,-0.8719732479437934,0.15937503814697265,84.06393432617188,84.06393432617188,-2.6820144653320312,86.98943328857422,0.0056603749593098955,0.37933333333333336,0.3682142857142857,-0.013518863254123263,-2.7465006285400406,-0.01098694140625156,44.56023025512695,0.0,-0.05190497504340278
3360,-0.8797857479437934,0.15937503814697265,85.29141998291016,85.23004150390625,-2.8047637939453125,87.03034973144531,0.0024779849582248262,0.37566666666666665,0.3682142857142857,-0.012847476535373263,-2.4608656340332047,-0.07690300280761875,44.56023025512695,0.0006819831000434028,-0.05372348361545139
3361,-0.8836919979437934,0.15937503814697265,84.88226318359375,85.12775421142578,-2.907054901123047,87.31675720214844,0.002705298529730903,0.372,0.3678571428571429,-0.012755923800998263,-2.4169203215332047,-0.4174677305908219,44.56023025512695,-0.0027276780870225696,-0.058042356703016496
3362,-0.8954107479437934,0.15937503814697265,84.554931640625,84.49356079101562,-3.1934661865234375,87.6031723022461,0.0004322052001953125,0.36866666666666664,0.3675,-0.012542300754123263,-2.471850054809572,-0.6262022429199234,44.56023025512695,0.0006818983289930556,-0.06440709431966146
3363,-0.9149419979437934,0.15937503814697265,84.80043029785156,84.73905181884766,-2.6206436157226562,87.29630279541016,0.0004322052001953125,0.36566666666666664,0.36678571428571427,-0.012176089816623263,-2.7355143004150406,-0.4394403868408219,44.56023025512695,0.0006819831000434028,-0.05463273790147569
3364,-0.8993169979437934,0.15937503814697265,84.5140151977539,84.5140151977539,-2.9479713439941406,87.41905212402344,0.008615409003363715,0.36233333333333334,0.36642857142857144,-0.013213687472873263,-2.537766116210939,-0.3845106535644547,44.56023025512695,0.0,-0.0596335940890842
3365,-0.8836919979437934,0.13945316314697265,84.41172790527344,84.32989501953125,-2.9888877868652344,87.5213394165039,0.002932612101236979,0.35833333333333334,0.36607142857142855,-0.013885074191623263,-2.471850054809572,-0.3405672484130875,43.241878509521484,0.0009092542860243056,-0.061224746704101565
3366,-0.8836919979437934,0.13945316314697265,84.32989501953125,84.24806213378906,-3.0093421936035156,88.05325317382812,0.00225067138671875,0.35533333333333333,0.3653571428571429,-0.014281802707248263,-2.7355143004150406,-0.15380539233398594,43.241878509521484,0.0009092542860243056,-0.06736217074924045
3367,-0.8758794979437934,0.13945316314697265,84.1048583984375,84.0434799194336,-2.722930908203125,86.92805480957031,0.006114959716796875,0.3516666666666667,0.36392857142857143,-0.015136210123697917,-2.9991785460205094,0.05493000149726868,43.153987884521484,0.0006819831000434028,-0.05167761908637153
3368,-0.8133794979437934,0.1195312786102295,83.06149291992188,82.85691833496094,-2.9479713439941406,87.13264465332031,0.008615409003363715,0.3476666666666667,0.36357142857142855,-0.016051737467447917,-2.7465006285400406,0.2856360077857971,43.153987884521484,0.0022730509440104167,-0.05645128885904948
3369,-0.8016607479437934,0.1195312786102295,85.02546691894531,85.41416931152344,-2.8456802368164062,87.35768127441406,0.0031599256727430558,0.344,0.3625,-0.016204325358072917,-2.812416689941408,1.1205720901489258,43.153987884521484,-0.0043189154730902775,-0.05781512790256076
3370,-0.8329107479437934,0.1195312786102295,85.65966796875,86.15065002441406,-2.9684295654296875,87.23492431640625,-0.0054779052734375,0.341,0.36178571428571427,-0.014831034342447917,-2.823403018066408,1.307334065437317,43.153987884521484,-0.005455356174045139,-0.05781504313151042
3371,-0.7899419979437934,0.09960939407348633,86.25294494628906,85.63920593261719,-2.866138458251953,87.82821655273438,0.007024214002821181,0.337,0.3607142857142857,-0.014251285129123263,-2.9881922178955094,1.3952220678329468,43.153987884521484,0.006819322374131944,-0.06327061123318142
3372,-0.8055669979437934,0.1195312786102295,86.27340698242188,85.74149322509766,-2.907054901123047,87.13264465332031,0.008388095431857638,0.333,0.3603571428571429,-0.014129214816623263,-3.218899386474611,1.538040041923523,43.153987884521484,0.005910152859157986,-0.05599666171603733
3373,-0.7586919979437934,0.09960939407348633,86.29386138916016,86.45751953125,-2.907054901123047,87.37813568115234,-0.001613616943359375,0.32966666666666666,0.35964285714285715,-0.012694888644748263,-3.0321375303955094,0.7360620498657227,43.153987884521484,-0.0018184238009982638,-0.0587243398030599
3374,-0.8290044979437934,0.1195312786102295,85.78240966796875,86.23248291015625,-2.6820144653320312,87.6031723022461,-0.004114023844401042,0.32666666666666666,0.35964285714285715,-0.01116909450954861,-2.955235140869142,-0.15380539233398594,42.97821044921875,-0.0050008138020833336,-0.058724297417534724
3375,-0.8368169979437934,0.1195312786102295,82.22271728515625,82.48867797851562,-2.7638473510742188,87.0712661743164,0.0004322052001953125,0.323,0.3585714285714286,-0.011962466769748263,-3.0101648741455094,-0.9777552061767594,42.97821044921875,-0.0029551188151041665,-0.05372348361545139
3376,-0.8524419979437934,0.1195312786102295,85.06637573242188,79.97233581542969,-2.702472686767578,88.09416198730469,0.002932612101236979,0.31966666666666665,0.3582142857142857,-0.012572818332248263,-2.911289828369142,-0.5053564482421891,42.97821044921875,0.05660044352213542,-0.06440705193413629
3377,-0.8641607479437934,0.1195312786102295,84.80043029785156,84.77996826171875,-2.9479713439941406,86.45751953125,0.0024779849582248262,0.316,0.3578571428571429,-0.011992984347873263,-3.1090380125732437,0.5383139848709106,42.538761138916016,0.00022735595703125,-0.04894989861382378
3378,-0.8407232479437934,0.1195312786102295,83.22515869140625,84.0025634765625,-3.5412521362304688,87.0712661743164,0.0072515275743272566,0.31166666666666665,0.3578571428571429,-0.012145572238498263,-2.955235140869142,0.5932440161705017,42.538761138916016,-0.008637830946180555,-0.06236131456163194
3379,-0.8055669979437934,0.1195312786102295,83.18424987792969,82.97966003417969,-2.9275131225585938,87.25538635253906,0.012252383761935763,0.30733333333333335,0.35714285714285715,-0.013335757785373263,-3.251856463500978,0.4394400119781494,42.538761138916016,0.0022732204861111113,-0.05758777194552951
3380,-0.8485357479437934,0.1195312786102295,83.0001220703125,82.83645629882812,-2.6206436157226562,87.37813568115234,0.001341459486219618,0.30333333333333334,0.35678571428571426,-0.012023501925998263,-3.592423098632814,0.12084600329399109,42.538761138916016,0.001818508572048611,-0.0555419921875
3381,-0.9071294979437934,0.1195312786102295,86.31431579589844,83.96165466308594,-2.4160614013671875,86.80531311035156,-0.002750142415364583,0.29933333333333334,0.35678571428571426,-0.008971913655598959,-3.6253801756591812,0.9008520245552063,42.362979888916016,0.026140679253472222,-0.04690416124131944
3382,-0.9032232479437934,0.13945316314697265,86.88714599609375,86.92805480957031,-2.4160614013671875,86.70301818847656,0.012252383761935763,0.29433333333333334,0.35678571428571426,-0.008727773030598959,-3.218899386474611,1.5270540714263916,42.538761138916016,-0.00045454237196180554,-0.04576755099826389
3383,-0.8407232479437934,0.09960939407348633,85.63920593261719,84.554931640625,-2.252399444580078,86.90760040283203,0.008615409003363715,0.2896666666666667,0.35678571428571426,-0.008544667561848959,-2.7465006285400406,1.0107120275497437,42.62664794921875,0.012047492133246528,-0.046222220526801215
3384,-0.8055669979437934,0.07968751907348633,83.24562072753906,86.1097412109375,-2.5388107299804688,87.0712661743164,0.006114959716796875,0.285,0.3560714285714286,-0.007995351155598959,-2.493822711059572,0.7580339908599854,43.85710906982422,-0.03182356092664931,-0.051223076714409725
3385,-0.8368169979437934,0.07968751907348633,85.80287170410156,84.69813537597656,-2.497894287109375,86.58027648925781,0.0008868323432074653,0.2806666666666667,0.3557142857142857,-0.0065915425618489586,-2.6695982390136734,1.0876140594482422,44.03289031982422,0.012274848090277778,-0.04531300862630208
3386,-0.8680669979437934,0.09960939407348633,87.1121826171875,86.84622192382812,-2.2114830017089844,85.96653747558594,0.00770615471733941,0.2776666666666667,0.3560714285714286,-0.005035230848524305,-2.471850054809572,1.1095860004425049,44.03289031982422,0.0029551188151041665,-0.03531133863661024
3387,-0.8407232479437934,0.07968751907348633,85.0459213256836,85.12775421142578,-3.4389610290527344,88.21691131591797,0.004523807101779514,0.2743333333333333,0.3557142857142857,-0.004302808973524305,-2.0214239531250016,-0.07690300280761875,44.03289031982422,-0.0009092542860243056,-0.07395413716634115
3388,-0.9149419979437934,0.09960939407348633,86.74394226074219,86.58027648925781,-2.7638473510742188,87.15309143066406,-0.001613616943359375,0.271,0.355,-0.0025939093695746527,-2.6256548338623062,-0.21972145373535312,44.03289031982422,0.001818508572048611,-0.05463265313042535
3389,-0.9344732479437934,0.09960939407348633,82.75462341308594,85.74149322509766,-3.1730079650878906,87.09172058105469,0.001341459486219618,0.26866666666666666,0.35464285714285715,-0.0026854621039496527,-2.7794596129150406,-0.7800070219726578,44.03289031982422,-0.03318744235568576,-0.058496983846028645
3390,-0.9149419979437934,0.1195312786102295,83.90027618408203,83.98210144042969,-2.9275131225585938,87.41905212402344,0.006796900431315104,0.2653333333333333,0.35464285714285715,-0.004516432020399305,-2.7355143004150406,-0.6811319761962906,44.03289031982422,-0.0009091695149739584,-0.059406280517578125
3391,-0.8915044979437934,0.1195312786102295,85.49600219726562,85.78240966796875,-2.9888877868652344,87.27584838867188,0.010433875189887153,0.26166666666666666,0.35464285714285715,-0.0063474019368489586,-2.845373766967775,-0.01098694140625156,44.03289031982422,-0.003182305230034722,-0.05849706861707899
3392,-0.8836919979437934,0.13945316314697265,85.14820861816406,85.12775421142578,-2.497894287109375,87.1121826171875,0.010433875189887153,0.25833333333333336,0.35464285714285715,-0.0074155171712239586,-3.0980535917968766,0.38451001048088074,44.03289031982422,0.00022727118598090277,-0.051223076714409725
3393,-0.8133794979437934,0.1195312786102295,85.41416931152344,85.1072998046875,-3.909496307373047,87.68500518798828,0.010888502332899305,0.25366666666666665,0.355,-0.00909389919704861,-2.9772058897705094,0.5273280143737793,44.03289031982422,0.003409661187065972,-0.0732722388373481
3394,-0.8172857479437934,0.09960939407348633,84.53446960449219,85.70057678222656,-2.3956031799316406,86.58027648925781,-2.242194281684028e-05,0.24933333333333332,0.355,-0.0075070699055989586,-3.4056612425537125,-0.5822588377685562,44.03289031982422,-0.012956746419270833,-0.0441764407687717
3395,-0.9110357479437934,0.1195312786102295,83.61386108398438,84.14576721191406,-2.743389129638672,87.03034973144531,-0.008205625745985243,0.246,0.35535714285714287,-0.006133863661024305,-3.0650946074218766,-2.1093126707763687,44.03289031982422,-0.0059100680881076385,-0.05304154290093316
3396,-0.9149419979437934,0.09960939407348633,81.71127319335938,81.91584777832031,-2.8252220153808594,87.37813568115234,-0.001613616943359375,0.24133333333333334,0.3557142857142857,-0.0076291402180989586,-2.7355143004150406,-2.197201388427736,44.03289031982422,-0.0022730509440104167,-0.05781508551703559
3397,-0.8758794979437934,0.09960939407348633,84.43218231201172,82.40684509277344,-2.866138458251953,87.21446990966797,0.009524663289388021,0.23666666666666666,0.3557142857142857,-0.01046719021267361,-2.9991785460205094,-0.845923083374025,44.03289031982422,0.02250374688042535,-0.056451204087999134
3398,-0.8563482479437934,0.09960939407348633,85.96653747558594,85.88470458984375,-2.743389129638672,87.33721923828125,0.006342273288302952,0.23266666666666666,0.35535714285714287,-0.01116909450954861,-3.0650946074218766,0.12084600329399109,44.03289031982422,0.0009092542860243056,-0.056451204087999134
3399,-0.8875982479437934,0.09960939407348633,84.53446960449219,84.5958480834961,-2.1910247802734375,86.23248291015625,-0.0013863033718532986,0.22833333333333333,0.35535714285714287,-0.01089443630642361,-2.845373766967775,-0.18676246936035312,44.03289031982422,-0.0006819831000434028,-0.03803897433810764
3400,-0.8875982479437934,0.1195312786102295,83.65477752685547,84.08439636230469,-2.866138458251953,86.6007308959961,0.001341459486219618,0.22466666666666665,0.3557142857142857,-0.01126064724392361,-2.219172137329103,-0.18676246936035312,44.03289031982422,-0.004773542616102431,-0.04963188171386719
3401,-0.8954107479437934,0.1195312786102295,85.35279846191406,83.4501953125,-2.1705665588378906,87.6031723022461,0.0002048916286892361,0.22066666666666668,0.355,-0.011870914035373263,-2.0104395323486344,0.790992021560669,44.03289031982422,0.021140034993489584,-0.05304154290093316
3402,-0.8954107479437934,0.13945316314697265,87.25538635253906,87.09172058105469,-1.9659843444824219,85.98699188232422,0.0008868323432074653,0.217,0.355,-0.01101650661892361,-2.0324102812500016,2.065368175506592,44.03289031982422,0.001818508572048611,-0.03281084696451823
3403,-0.8524419979437934,0.09960939407348633,87.54179382324219,87.41905212402344,-2.518352508544922,87.0098876953125,0.003387239244249132,0.21366666666666667,0.355,-0.00924648708767361,-1.7357889586181656,1.6369140148162842,44.03289031982422,0.0013637966579861111,-0.050313780042860246
3404,-0.8993169979437934,0.09960939407348633,83.06149291992188,83.53202819824219,-2.6001853942871094,87.45996856689453,-0.010251405504014757,0.21033333333333334,0.35428571428571426,-0.0062558492024739586,-1.9774805479736344,0.4943700134754181,44.03289031982422,-0.005228169759114583,-0.05622393290201823
3405,-0.8875982479437934,0.07968751907348633,86.662109375,85.14820861816406,-2.722930908203125,88.48286437988281,0.0002048916286892361,0.208,0.3539285714285714,-0.005950758192274305,-2.219172137329103,0.9997260570526123,44.03289031982422,0.016821119520399306,-0.06895328097873264
3406,-0.8680669979437934,0.09960939407348633,86.13019561767578,83.12287139892578,-2.743389129638672,87.31675720214844,0.013843536376953125,0.205,0.35285714285714287,-0.0062863667805989586,-2.581711428710939,0.9118380546569824,44.03289031982422,0.03341471354166667,-0.05622384813096788
3407,-0.9071294979437934,0.09960939407348633,86.31431579589844,87.62362670898438,-2.9684295654296875,87.05081176757812,-0.00775099860297309,0.202,0.3525,-0.004211256239149305,-2.548752444335939,0.02197200059890747,44.03289031982422,-0.014547899034288195,-0.05576934814453125
3408,-0.8680669979437934,0.09960939407348633,82.550048828125,82.75462341308594,-3.2139244079589844,87.62362670898438,0.008388095431857638,0.199,0.35214285714285715,-0.005859205457899305,-2.3290335112304703,-1.0876146727294937,44.03289031982422,-0.0022730509440104167,-0.06486167907714843
3409,-0.8875982479437934,0.09960939407348633,84.0434799194336,81.91584777832031,-2.4365196228027344,87.15309143066406,0.0006595187717013889,0.19566666666666666,0.3517857142857143,-0.0065915425618489586,-2.801430361816408,-1.0766283446044937,44.91178894042969,0.023640357123480903,-0.0509956783718533
3410,-0.8797857479437934,0.09960939407348633,86.35523986816406,86.35523986816406,-2.722930908203125,87.25538635253906,0.0036145528157552082,0.19233333333333333,0.3517857142857143,-0.0073239644368489586,-2.867346423217775,-0.03295769030761875,46.933258056640625,0.0,-0.05531463623046875
3411,-0.8524419979437934,0.09960939407348633,82.46821594238281,82.36592102050781,-3.6230850219726562,87.25538635253906,0.009524663289388021,0.18833333333333332,0.35285714285714287,-0.008910878499348959,-2.537766116210939,-0.12084640795898594,47.109039306640625,0.0011366102430555556,-0.06531634860568576
3412,-0.8915044979437934,0.1195312786102295,83.53202819824219,83.42974090576172,-2.5388107299804688,87.17355346679688,0.001341459486219618,0.184,0.3535714285714286,-0.008605702718098959,-2.6476274901123062,-0.3185945921630875,47.109039306640625,0.0011365254720052083,-0.05235960218641493
3413,-0.8836919979437934,0.07968751907348633,83.47065734863281,83.552490234375,-3.2343826293945312,86.62118530273438,-0.0007043626573350694,0.18,0.35464285714285715,-0.0074460347493489586,-2.570725100585939,-0.18676246936035312,47.109039306640625,-0.0009092542860243056,-0.05395075480143229
3414,-0.9422857479437934,0.09960939407348633,84.80043029785156,83.42974090576172,-2.8865966796875,87.95095825195312,-0.0009316762288411458,0.176,0.35535714285714287,-0.006072828504774305,-2.4279066496582047,0.2746500074863434,47.109039306640625,0.015229882134331598,-0.0648617214626736
3415,-0.9813482479437934,0.1195312786102295,87.64408874511719,87.76683807373047,-2.722930908203125,86.86668395996094,-0.0002497355143229167,0.173,0.3557142857142857,-0.004180738661024305,-2.6476274901123062,1.1205720901489258,47.109039306640625,-0.0013638814290364584,-0.050995720757378474
3416,-0.9266607479437934,0.03984375953674316,86.0074462890625,86.0688247680664,-2.6820144653320312,87.78729248046875,0.005887646145290798,0.16866666666666666,0.35642857142857143,-0.0038450453016493054,-2.6915708952636734,0.5053560137748718,47.109039306640625,-0.0006819831000434028,-0.060770077175564235
3417,-0.9696294979437934,0.09960939407348633,83.90027618408203,83.14332580566406,-2.8047637939453125,86.39614868164062,0.0049784342447916664,0.16566666666666666,0.35714285714285715,-0.0036314222547743054,-2.845373766967775,-0.20873512561035312,46.40591812133789,0.008410559760199653,-0.04667680528428819
3418,-0.9618169979437934,0.07968751907348633,84.43218231201172,84.63676452636719,-3.5821685791015625,87.99187469482422,0.00225067138671875,0.162,0.3575,-0.0037840101453993054,-2.197201388427736,-0.21972145373535312,46.054359436035156,-0.002273135715060764,-0.07304492526584201
3419,-0.9500982479437934,0.09960939407348633,87.64408874511719,85.61874389648438,-2.5388107299804688,87.6031723022461,0.003387239244249132,0.15833333333333333,0.35714285714285715,-0.004607984754774305,-2.471850054809572,0.6152160167694092,45.70280075073242,0.022503831651475695,-0.05713314480251736
3420,-0.8915044979437934,0.07968751907348633,85.31187438964844,87.0098876953125,-3.3162155151367188,87.91004180908203,0.0020233578152126738,0.155,0.35714285714285715,-0.005554029676649305,-2.4608656340332047,0.14281800389289856,45.52701950073242,-0.01886681450737847,-0.06918063693576389
3421,-0.8993169979437934,0.07968751907348633,79.46089172363281,81.17935943603516,-3.0093421936035156,88.97386169433594,-0.0043413374159071184,0.151,0.3575,-0.0063168843587239586,-3.0321375303955094,-1.2963491850585953,45.43912887573242,-0.019094085693359374,-0.07759115431043836
3422,-0.9813482479437934,0.07968751907348633,84.06393432617188,83.65477752685547,-2.6001853942871094,87.03034973144531,-0.018207295735677084,0.14966666666666667,0.3575,-0.004455396864149305,-3.856087344238283,-1.0986010008544937,45.17546081542969,0.00454618665907118,-0.0514503902859158
3423,-0.9774419979437934,0.1195312786102295,79.76776123046875,80.97477722167969,-3.520793914794922,87.91004180908203,0.002705298529730903,0.14666666666666667,0.3578571428571429,-0.006011793348524305,-3.504534380981447,-0.9008528166503922,45.17546081542969,-0.013411288791232639,-0.07145373026529948
3424,-0.9227544979437934,0.09960939407348633,81.79310607910156,82.57050323486328,-4.1959075927734375,87.48042297363281,0.0065695868598090275,0.14233333333333334,0.3578571428571429,-0.008727773030598959,-3.493548052856447,0.3405660092830658,44.82389831542969,-0.008637746175130209,-0.07418145073784722
3425,-0.8680669979437934,0.07968751907348633,85.557373046875,85.12775421142578,-3.7662887573242188,87.1121826171875,0.007024214002821181,0.139,0.3578571428571429,-0.00973476833767361,-3.834114687988283,1.6698720455169678,44.64812088012695,0.004773542616102431,-0.06531634860568576
3426,-0.8524419979437934,0.09960939407348633,86.58027648925781,86.27340698242188,-2.9684295654296875,87.0098876953125,0.008615409003363715,0.135,0.3585714285714286,-0.00942959255642361,-4.020876544067384,2.2301580905914307,44.64812088012695,0.003409661187065972,-0.05531463623046875
3427,-0.8368169979437934,0.07968751907348633,87.09172058105469,85.49600219726562,-2.7843055725097656,87.62362670898438,0.0015687730577256945,0.131,0.35892857142857143,-0.0077817281087239586,-3.6473528319091812,1.9555079936981201,44.64812088012695,0.017730204264322917,-0.06008813646104601
3428,-0.8719732479437934,0.09960939407348633,87.35768127441406,84.20714569091797,-3.2343826293945312,88.05325317382812,0.002932612101236979,0.12633333333333333,0.35928571428571426,-0.0062863667805989586,-3.7022825651855484,1.5600121021270752,44.64812088012695,0.035005950927734376,-0.06986262003580729
3429,-0.8172857479437934,0.07968751907348633,85.96653747558594,86.64164733886719,-3.5412521362304688,88.23736572265625,0.009297349717881945,0.12166666666666667,0.35964285714285715,-0.005248853895399305,-3.92200340563965,1.1425440311431885,44.56023025512695,-0.007501220703125,-0.07531797620985244
3430,-0.9188482479437934,0.09960939407348633,84.92317199707031,84.6572265625,-4.175449371337891,87.72592163085938,0.0015687730577256945,0.11666666666666667,0.36,-0.0028685675726996527,-4.009890215942384,0.35155200958251953,43.417659759521484,0.0029549492730034724,-0.07668190002441407
3431,0.9639642520562066,0.07968751907348633,84.86180114746094,84.86180114746094,-3.3980445861816406,87.93049621582031,-0.008205625745985243,0.113,0.36,0.001739501953125,-3.954960482666017,0.26366400718688965,43.417659759521484,0.0,-0.07031712002224393
3432,0.9131830020562066,0.07968751907348633,86.74394226074219,86.72348022460938,-1.5977401733398438,85.86424255371094,-0.00843293931749132,0.108,0.36,0.003967200385199653,-4.141722338745119,0.29662200808525085,43.241878509521484,0.00022735595703125,-0.02735536363389757
3433,0.9952142520562066,0.07968751907348633,84.1048583984375,85.14820861816406,-3.5412521362304688,87.84866333007812,0.01543473137749566,0.10433333333333333,0.3607142857142857,0.001220703125,-2.5926958494873062,-0.14281906420898594,43.153987884521484,-0.011592780219184027,-0.07099906073676215
3434,0.9991205020562066,0.05976563930511475,84.0434799194336,83.81844329833984,-3.745830535888672,87.74638366699219,0.011797756618923612,0.10033333333333333,0.35964285714285715,0.00048828125,-2.4498793059082047,-0.4723993712158219,42.89031982421875,0.0025004069010416668,-0.07213571336534289
3435,0.9600580020562066,0.05976563930511475,84.49356079101562,84.08439636230469,-2.129650115966797,86.41661071777344,-0.0059324900309244795,0.096,0.3582142857142857,0.001129150390625,-3.1200243406982437,-0.13183273608398594,42.275089263916016,0.004546271430121528,-0.03940289815266927
3436,0.9913080020562066,0.1195312786102295,86.19157409667969,84.80043029785156,-2.477436065673828,87.27584838867188,0.008615409003363715,0.09333333333333334,0.3578571428571429,0.0003662109375,-2.493822711059572,0.20873400568962097,42.275089263916016,0.0154571533203125,-0.05281427171495226
3437,-0.9774419979437934,0.09960939407348633,82.89783477783203,82.97966003417969,-2.3956031799316406,87.76683807373047,0.009297349717881945,0.08966666666666667,0.35642857142857143,-0.0007323371039496528,-2.0763555937500016,0.516342043876648,42.275089263916016,-0.0009091695149739584,-0.05736045837402344
3438,-0.9540044979437934,0.09960939407348633,84.12531280517578,83.90027618408203,-2.1910247802734375,87.31675720214844,0.010206561618381077,0.08666666666666667,0.35535714285714287,-0.0011901007758246527,-1.8017050200195328,0.6262019872665405,42.275089263916016,0.0025004069010416668,-0.05008646647135417
3439,-0.9696294979437934,0.09960939407348633,86.0688247680664,85.82332611083984,-3.3162155151367188,87.5213394165039,0.007478841145833333,0.08366666666666667,0.3535714285714286,-0.000152587890625,-1.4501520567626969,0.48338401317596436,42.275089263916016,0.002727762858072917,-0.0648617214626736
3440,0.9913080020562066,0.1195312786102295,85.16867065429688,85.94607543945312,-2.0682754516601562,86.39614868164062,-0.010251405504014757,0.08066666666666666,0.35214285714285715,0.00201416015625,-1.6369139128417984,-0.3845106535644547,46.318031311035156,-0.008637830946180555,-0.03849360148111979
3441,0.9795892520562066,0.09960939407348633,84.18669128417969,85.1072998046875,-3.3162155151367188,86.76439666748047,0.0011141459147135417,0.077,0.3514285714285714,0.001678466796875,-1.2633902006835953,-0.812964098999025,47.46059799194336,-0.010228983561197917,-0.05645124647352431
3442,-0.9969732479437934,0.09960939407348633,82.0999755859375,82.69325256347656,-2.7843055725097656,87.78729248046875,0.0006595187717013889,0.074,0.3514285714285714,-0.00018310546875,-1.4171949797363297,-0.8788801604003922,47.72426986694336,-0.006591966417100695,-0.06190664503309462
3443,-0.9891607479437934,0.09960939407348633,85.57783508300781,82.67279052734375,-3.1934661865234375,87.97142028808594,0.007933468288845487,0.07033333333333333,0.3514285714285714,-0.0014647589789496527,-2.0104395323486344,-0.6591612272949234,47.46059799194336,0.0322782728407118,-0.06849873860677083
3444,0.9834955020562066,0.09960939407348633,85.35279846191406,85.43462371826172,-2.0682754516601562,87.68500518798828,-0.0059324900309244795,0.067,0.35214285714285715,-0.0006407843695746528,-2.4169203215332047,-0.7909933500976578,46.66958999633789,-0.0009091695149739584,-0.05281422932942708
3445,0.9678705020562066,0.07968751907348633,85.23004150390625,85.39370727539062,-2.9888877868652344,86.53935241699219,0.003841866387261285,0.06366666666666666,0.3525,-0.0010680304633246527,-2.0983263426513687,-1.1095873289794937,46.66958999633789,-0.001818508572048611,-0.050313780042860246
3446,0.9756830020562066,0.09960939407348633,80.01325988769531,77.08776092529297,-2.9684295654296875,87.88958740234375,0.0056603749593098955,0.060333333333333336,0.35285714285714287,-0.0026854621039496527,-1.7467752867431656,-1.131558077880861,46.58169937133789,0.03250554402669271,-0.06508907741970486
3447,0.9834955020562066,0.13945316314697265,84.73905181884766,85.1072998046875,-3.5412521362304688,87.19401550292969,0.01066118876139323,0.05633333333333333,0.3535714285714286,-0.0034483167860243054,-2.153256075927736,0.12084600329399109,46.054359436035156,-0.004091644287109375,-0.0637251959906684
3448,0.9913080020562066,0.1195312786102295,83.1024169921875,81.9567642211914,-3.0502586364746094,86.76439666748047,0.0072515275743272566,0.05266666666666667,0.3535714285714286,-0.003936598036024305,-2.263117449829103,0.14281800389289856,45.79069137573242,0.012729475233289931,-0.053496170043945315
3449,0.9874017520562066,0.09960939407348633,84.5140151977539,84.39126586914062,-2.9684295654296875,87.5213394165039,0.0040691799587673615,0.04833333333333333,0.3539285714285714,-0.0034483167860243054,-2.241144793579103,1.1864880323410034,44.99967956542969,0.0013638814290364584,-0.06099743313259549
3450,-0.9930669979437934,0.07968751907348633,87.74638366699219,87.6031723022461,-2.497894287109375,87.37813568115234,0.008388095431857638,0.044333333333333336,0.3539285714285714,-0.0029296027289496527,-2.6036821776123062,1.6369140148162842,43.241878509521484,0.0015912373860677083,-0.054178110758463544
3451,-0.9891607479437934,0.07968751907348633,82.93875122070312,81.64989471435547,-1.8432388305664062,86.559814453125,0.007933468288845487,0.041,0.3532142857142857,-0.0020140753851996527,-2.4169203215332047,0.3185940086841583,43.153987884521484,0.014320627848307291,-0.03781170315212674
3452,0.9913080020562066,0.09960939407348633,87.6031723022461,81.9976806640625,-3.0502586364746094,87.0098876953125,-0.00047704908582899306,0.037,0.35285714285714287,-0.0016478644476996527,-2.0763555937500016,0.7690200209617615,42.362979888916016,0.06228324042426215,-0.05622384813096788
3453,-0.9774419979437934,0.09960939407348633,83.18424987792969,83.87982177734375,-2.0682754516601562,86.17111206054688,0.006114959716796875,0.033,0.3514285714285714,-0.0018614874945746527,-2.252131121704103,0.4064820110797882,41.83563995361328,-0.00772857666015625,-0.035993194580078124
3454,-0.9891607479437934,0.09960939407348633,82.71371459960938,82.79554748535156,-3.5412521362304688,86.80531311035156,-0.0034320831298828127,0.03,0.3507142857142857,-0.0013426886664496527,-1.7357889586181656,0.2526780068874359,40.25362014770508,-0.0009092542860243056,-0.059406280517578125
3455,-0.9813482479437934,0.09960939407348633,87.25538635253906,83.34790802001953,-3.520793914794922,86.96897888183594,0.0072515275743272566,0.026,0.3485714285714286,-0.0016478644476996527,-1.7577597075195328,1.175502061843872,40.25362014770508,0.04341642591688368,-0.06099747551812066
3456,-0.9930669979437934,0.09960939407348633,85.84378051757812,91.14241027832031,-2.354686737060547,86.559814453125,0.007024214002821181,0.023333333333333334,0.34714285714285714,0.000518798828125,-2.186215060302736,0.7800060510635376,40.25362014770508,-0.05887366400824653,-0.043494457668728295
3457,0.9756830020562066,0.07968751907348633,87.15309143066406,85.20958709716797,-2.0478172302246094,86.82576751708984,-0.020253117879231772,0.018666666666666668,0.34535714285714286,0.001129150390625,-1.8895918303222672,0.10986000299453735,39.550498962402344,0.021594492594401042,-0.043039830525716145
3458,0.9952142520562066,0.09960939407348633,84.63676452636719,86.35523986816406,-1.8636970520019531,86.02790832519531,0.004751120673285591,0.014666666666666666,0.34285714285714286,0.000335693359375,-1.7028299742431656,-0.4723993712158219,38.320037841796875,-0.019094170464409723,-0.03212894863552517
3459,0.9717767520562066,0.09960939407348633,83.75706481933594,82.9592056274414,-0.9635429382324219,85.27096557617188,-0.0054779052734375,0.012,0.33964285714285714,0.0003662109375,-0.4174677305908219,-1.164517062255861,38.320037841796875,0.008865102132161459,-0.013716761271158855
3460,0.9678705020562066,0.09960939407348633,82.87738037109375,82.07951354980469,-2.7638473510742188,84.92317199707031,-2.242194281684028e-05,0.008333333333333333,0.33714285714285713,-0.0009459601508246528,0.7580339908599854,-0.7800070219726578,34.628658294677734,0.008865186903211806,-0.029855770534939235
3461,0.9874017520562066,0.07968751907348633,86.58027648925781,85.57783508300781,-1.2294998168945312,84.554931640625,-0.0018409305148654514,0.005666666666666667,0.33214285714285713,-0.0024108039008246527,0.9887400269508362,0.19774800539016724,31.816179275512695,0.011138237847222222,-0.008715905083550347
3462,-0.9891607479437934,0.07968751907348633,84.84133911132812,86.58027648925781,0.3866844177246094,85.65966796875,-0.010251405504014757,0.0033333333333333335,0.3289285714285714,-0.0028075324164496527,1.3952220678329468,0.02197200059890747,31.728290557861328,-0.01932152642144097,-0.003033150566948785
3463,-0.9852544979437934,0.1195312786102295,82.30455017089844,82.24317932128906,3.7213363647460938,82.05905151367188,-0.011842600504557292,0.0026666666666666666,0.32285714285714284,-0.0036009046766493054,1.4611380100250244,-0.9447962218017594,26.89434051513672,0.0006818983289930556,0.07402538723415798
3464,-0.9852544979437934,0.1195312786102295,82.26363372802734,82.24317932128906,3.9463768005371094,78.84715270996094,0.0040691799587673615,0.002,0.3192857142857143,-0.005004713270399305,2.438892126083374,-1.0436712675781266,26.71855926513672,0.00022727118598090277,0.1122136010064019
3465,0.9795892520562066,0.13945316314697265,83.16378784179688,82.91828918457031,6.258129119873047,78.62211608886719,0.023845248752170138,0.0013333333333333333,0.31392857142857145,-0.0036619398328993054,3.636366128921509,-0.4723993712158219,26.71855926513672,0.002727762858072917,0.140400144788954
3466,0.9209955020562066,0.15937503814697265,87.84866333007812,87.17355346679688,4.355537414550781,79.01081848144531,-0.0332098642985026,0.0016666666666666668,0.31,0.0015869140625,4.295526027679443,0.9447960257530212,26.71855926513672,0.007501220703125,0.11494132147894966
3467,0.9483392520562066,0.1195312786102295,78.11065673828125,82.30455017089844,11.618125915527344,72.05509185791016,-0.03457370334201389,0.0,0.3028571428571429,-0.0,2.680583953857422,-1.6039568358154312,26.71855926513672,-0.04659881591796875,0.27292260064019097
