,WD,WS,AIL_1,AIL_2,ELEV_1,ELEV_2,RUDD,ALT,GS,TH,PTCH,ROLL,PLA_1,AIL,ELEV
3197,0.23323620202094186,0.13945316314697265,83.40928649902344,83.12287139892578,-4.339115142822266,88.97386169433594,-0.011842600504557292,0.8263333333333334,0.5475,0.005676099989149305,-2.4169203215332047,-0.5383154326171891,34.892330169677734,0.0031823900010850693,-0.09236640930175781
3198,0.22151745202094186,0.13945316314697265,84.26852416992188,83.32745361328125,-4.482318878173828,88.78973388671875,-0.012751854790581597,0.819,0.5471428571428572,0.005401484171549479,-1.8017050200195328,-0.3405672484130875,34.892330169677734,0.010456339518229166,-0.09191169738769531
3199,0.23323620202094186,0.15937503814697265,84.16622924804688,83.38882446289062,-4.66644287109375,89.34210205078125,-0.015706888834635415,0.813,0.5457142857142857,0.006591627332899305,-1.6918455534667984,-1.164517062255861,34.892330169677734,0.008637830946180555,-0.10009494357638889
3200,0.26057995202094186,0.19921878814697266,84.06393432617188,83.4501953125,-4.850563049316406,89.42393493652344,-0.014115693834092882,0.8083333333333333,0.545,0.008361604478624132,-1.7467752867431656,-2.0763555937500016,34.892330169677734,0.006819322374131944,-0.10304997762044271
3201,0.22151745202094186,0.219140682220459,83.85935974121094,83.36836242675781,-5.546134948730469,89.97630310058594,-0.010933346218532987,0.802,0.5432142857142858,0.0071714189317491316,-1.8346620970459,-1.131558077880861,34.892330169677734,0.005455525716145834,-0.11691597832573784
3202,0.20979870202094186,0.13945316314697265,83.96165466308594,83.0410385131836,-5.44384765625,90.0785903930664,-0.00047704908582899306,0.799,0.5421428571428571,0.0020141177707248266,-2.801430361816408,0.9447960257530212,34.892330169677734,0.010229068332248265,-0.11691597832573784
3203,0.17854870202094186,0.13945316314697265,83.79798889160156,82.85691833496094,-4.502777099609375,89.1579818725586,-0.013661109076605903,0.7916666666666666,0.5410714285714285,0.001312255859375,-2.900305407592775,-0.06591667468261875,34.892330169677734,0.010456339518229166,-0.09623065524631076
3204,0.15901745202094186,0.17929691314697266,83.96165466308594,85.92561340332031,-4.318656921386719,89.05569458007812,-0.014797634548611112,0.7846666666666666,0.5407142857142857,0.0023498111300998266,-2.252131121704103,-1.516068118164064,34.892330169677734,-0.021821763780381944,-0.09304835001627604
3205,0.24104870202094186,0.13945316314697265,84.28897857666016,81.5066909790039,-4.523235321044922,88.91248321533203,-0.01547957526312934,0.7796666666666666,0.5403571428571429,0.0022887759738498266,-1.549027102539064,-0.5712725096435562,34.892330169677734,0.030914306640625,-0.09373020595974392
3206,0.24104870202094186,0.1195312786102295,85.70057678222656,84.94363403320312,-4.66644287109375,89.1579818725586,-0.012979168362087673,0.774,0.5392857142857143,0.0014342837863498264,-1.516068118164064,0.2856360077857971,34.892330169677734,0.008410474989149305,-0.09804916381835938
3207,0.12776745202094186,0.17929691314697266,84.96409606933594,84.5958480834961,-4.768730163574219,89.1579818725586,-0.012979168362087673,0.767,0.5382142857142858,-0.00015254550509982638,-1.7467752867431656,-1.153530734130861,34.892330169677734,0.004091644287109375,-0.09918568929036459
3208,0.15120495202094186,0.17929691314697266,83.5115737915039,82.9592056274414,-5.259723663330078,89.89447021484375,-0.01252454121907552,0.7613333333333333,0.5371428571428571,-0.0,-2.4388929777832047,-0.9667688780517594,34.892330169677734,0.006137424045138889,-0.11282437642415365
3209,0.19026745202094186,0.15937503814697265,82.79554748535156,82.63188171386719,-4.830104827880859,89.54668426513672,-0.011387973361545138,0.7573333333333333,0.5357142857142857,0.00030517578125,-2.7135435515136734,-0.4504267149658219,34.716548919677734,0.001818508572048611,-0.1041865454779731
3210,0.19417370202094186,0.17929691314697266,83.42974090576172,82.63188171386719,-4.850563049316406,89.40347290039062,-0.013661109076605903,0.75,0.535,0.001068115234375,-2.526779788085939,-0.3515516691894547,34.716548919677734,0.008865102132161459,-0.10282262166341145
3211,0.26839245202094186,0.15937503814697265,83.67523193359375,82.87738037109375,-4.789188385009766,89.54668426513672,-0.011842600504557292,0.744,0.5346428571428572,0.0021972232394748266,-2.900305407592775,0.2526780068874359,34.716548919677734,0.00886501736111111,-0.10373191833496094
3212,0.25667370202094186,0.17929691314697266,84.08439636230469,83.24562072753906,-4.850563049316406,89.50576782226562,-0.01252454121907552,0.737,0.5346428571428572,0.0032042609320746527,-3.207913058349611,2.04339599609375,34.716548919677734,0.009319729275173612,-0.10395923190646701
3213,0.22151745202094186,0.13945316314697265,83.81844329833984,83.61386108398438,-4.7482757568359375,89.1170654296875,-0.002522828843858507,0.7303333333333333,0.535,0.0014648013644748264,-3.3177725249023453,2.823402166366577,34.716548919677734,0.002273135715060764,-0.09850379096137153
3214,0.18636120202094186,0.17929691314697266,83.18424987792969,82.83645629882812,-4.707359313964844,89.32164001464844,-0.009114880032009548,0.7213333333333334,0.5346428571428572,0.0032652960883246527,-3.0760809355468766,1.3732500076293945,34.716548919677734,0.0038643731011284723,-0.10032221476236979
3215,0.26057995202094186,0.19921878814697266,83.20470428466797,82.01814270019531,-4.707359313964844,89.38301849365234,-0.022753524780273437,0.7156666666666667,0.5346428571428572,0.0074155595567491316,-2.900305407592775,0.6042300462722778,34.716548919677734,0.013184017605251737,-0.1010041978624132
3216,0.34261122979871966,0.17929691314697266,84.92317199707031,83.69569396972656,-4.645984649658203,89.03523254394531,-0.010933346218532987,0.709,0.5342857142857143,0.008483632405598959,-2.9772058897705094,2.3949480056762695,34.892330169677734,0.013638644748263888,-0.09645796881781685
3217,0.23714245202094186,0.19921878814697266,85.57783508300781,84.37080383300781,-4.645984649658203,88.81019592285156,-0.008887566460503472,0.7,0.5342857142857143,0.007934358384874132,-2.812416689941408,1.9445220232009888,34.892330169677734,0.013411458333333333,-0.09395756191677518
3218,0.26057995202094186,0.19921878814697266,85.25050354003906,84.6572265625,-4.482318878173828,89.0147705078125,-0.015252261691623263,0.6923333333333334,0.5342857142857143,0.009612782796223959,-2.922276156494142,-0.3405672484130875,34.892330169677734,0.006591966417100695,-0.09441210428873698
3219,0.26057995202094186,0.25898443222045897,83.73661041259766,82.32501220703125,-4.502777099609375,88.93293762207031,-0.019343863593207465,0.686,0.5342857142857143,0.01232876247829861,-2.515795367309572,-0.7690206938476578,34.892330169677734,0.015684424506293402,-0.09373016357421875
3220,0.24104870202094186,0.239062557220459,84.73905181884766,84.08439636230469,-4.911937713623047,89.34210205078125,-0.004114023844401042,0.68,0.5339285714285714,0.010101021660698786,-2.3949495726318375,0.32958000898361206,34.892330169677734,0.0072739495171440975,-0.10282266404893663
3221,0.19417370202094186,0.239062557220459,83.5934066772461,83.53202819824219,-4.686901092529297,89.42393493652344,-0.013661109076605903,0.6733333333333333,0.5325,0.008575185139973959,-2.3839632445068375,-0.5602861815185562,34.892330169677734,0.0006819831000434028,-0.10123151143391927
3222,0.15901745202094186,0.219140682220459,83.53202819824219,81.87493133544922,-4.871021270751953,89.48530578613281,-0.010478719075520834,0.6676666666666666,0.5307142857142857,0.005737135145399305,-2.164242404052736,0.8788800239562988,34.892330169677734,0.01841218736436632,-0.10395918952094184
3223,0.018392452020941856,0.17929691314697266,83.49111938476562,82.9592056274414,-5.075603485107422,89.75126647949219,0.008160781860351563,0.6606666666666666,0.5278571428571428,-0.0009765201144748264,-2.175228732177736,2.04339599609375,34.892330169677734,0.005910152859157986,-0.10918744405110677
3224,0.049642452020941856,0.13945316314697265,83.22515869140625,81.67034912109375,-5.1983489990234375,89.73080444335938,-0.01843460930718316,0.654,0.525,0.000732421875,-2.1202989989013687,2.2301580905914307,34.892330169677734,0.01727566189236111,-0.1103239271375868
3225,0.049642452020941856,0.19921878814697266,83.85935974121094,82.9592056274414,-4.850563049316406,89.50576782226562,-0.012069914076063368,0.6466666666666666,0.5207142857142857,0.0028380499945746527,-2.526779788085939,3.229884147644043,34.892330169677734,0.010001712375217013,-0.10395923190646701
3226,0.057454952020941856,0.19921878814697266,84.84133911132812,83.40928649902344,-4.932395935058594,89.28073120117188,-0.0075236850314670135,0.6413333333333333,0.5182142857142857,0.004760615030924479,-1.9115644865722672,3.6473522186279297,34.892330169677734,0.015911695692274304,-0.10236807929144966
3227,0.08870495202094185,0.17929691314697266,85.0050048828125,84.22760009765625,-4.830104827880859,89.50576782226562,-0.018661922878689237,0.6343333333333333,0.5132142857142857,0.008209016587999132,-1.9664942198486344,2.746500015258789,34.716548919677734,0.008637830946180555,-0.10373191833496094
3228,0.14729870202094186,0.15937503814697265,88.31919860839844,88.6056137084961,-4.789188385009766,89.38301849365234,-0.020253117879231772,0.63,0.5107142857142857,0.011291207207573786,-2.1312853270263687,0.4284540116786957,34.716548919677734,-0.0031823900010850693,-0.10191340976291233
3229,0.041829952020941856,0.13945316314697265,84.41172790527344,85.49600219726562,-4.9733123779296875,89.46485137939453,-0.006841744316948784,0.6263333333333333,0.5064285714285715,0.006622144911024305,-2.1093126707763687,-1.8346620970459,34.892330169677734,-0.012047492133246528,-0.10486848619249133
3230,-0.008951297979058144,0.13945316314697265,83.83889770507812,83.34790802001953,-5.034687042236328,89.62850952148438,-0.008887566460503472,0.62,0.5042857142857143,0.0034789191351996527,-2.2850881987304703,-2.6366411619873062,34.892330169677734,0.005455440945095486,-0.10736885070800781
3231,0.11214245202094185,0.07968751907348633,83.90027618408203,83.34790802001953,-4.66644287109375,89.09660339355469,-0.01616151597764757,0.615,0.5007142857142857,0.004821650187174479,-2.504809039184572,-2.4169203215332047,34.716548919677734,0.006137424045138889,-0.09736718071831597
3232,0.29573620202094186,0.05976563930511475,86.62118530273438,85.70057678222656,-3.868579864501953,88.48286437988281,-0.01752539740668403,0.611,0.49857142857142855,0.005737135145399305,-1.2743765288085953,-1.6918455534667984,34.892330169677734,0.010228983561197917,-0.0816827138264974
3233,0.026204952020941856,0.1195312786102295,86.0074462890625,86.58027648925781,-4.1959075927734375,88.6669921875,-0.007069057888454861,0.6036666666666667,0.495,0.000823974609375,-1.175503390380861,-3.0760809355468766,34.892330169677734,-0.006364780002170139,-0.0873655531141493
3234,-0.005045047979058145,0.09960939407348633,82.550048828125,81.81356048583984,-4.441402435302734,88.95339965820312,-0.014343007405598959,0.5983333333333334,0.4925,-0.0025328742133246527,-1.2304331236572281,-4.460316317626955,34.892330169677734,0.008183203803168403,-0.09327557881673178
3235,0.13167370202094186,0.05976563930511475,83.20470428466797,82.71371459960938,-4.564151763916016,89.23981475830078,-0.01843460930718316,0.593,0.48857142857142855,-0.0030516306559244793,-1.2853628569335953,-3.88904442126465,34.716548919677734,0.005455440945095486,-0.0978218502468533
3236,0.16682995202094186,0.09960939407348633,83.22515869140625,82.59095764160156,-5.014228820800781,89.58760070800781,-0.007069057888454861,0.5876666666666667,0.4857142857142857,-0.0026854621039496527,-1.7577597075195328,-1.6588865690917984,34.716548919677734,0.007046678331163195,-0.10668699476453992
3237,0.24495495202094186,0.1195312786102295,83.5115737915039,82.79554748535156,-5.136974334716797,89.71034240722656,-0.02093505859375,0.5846666666666667,0.48142857142857143,-0.0,-2.0763555937500016,0.04394400119781494,34.716548919677734,0.007955847846137152,-0.10941463046603733
3238,0.13167370202094186,0.15937503814697265,83.47065734863281,82.93875122070312,-6.794075012207031,90.83554077148438,0.0004322052001953125,0.58,0.4782142857142857,-0.0017699347601996527,-2.4388929777832047,1.2084600925445557,34.716548919677734,0.0059100680881076385,-0.14032906426323785
3239,0.22932995202094186,0.1195312786102295,83.57295227050781,82.75462341308594,-6.7531585693359375,91.32653045654297,-0.0168434566921658,0.5786666666666667,0.4725,0.000335693359375,-3.812142031738283,1.1864880323410034,34.716548919677734,0.009092542860243056,-0.1453298780653212
3240,0.22932995202094186,0.17929691314697266,85.74149322509766,83.85935974121094,-7.510105133056641,92.59492492675781,-0.01070603264702691,0.5756666666666667,0.4692857142857143,0.004180823432074653,-4.295527117797853,3.9879181385040283,34.716548919677734,0.020912594265407987,-0.1678336673312717
3241,0.09261120202094185,0.09960939407348633,85.78240966796875,85.49600219726562,-7.551021575927734,91.42881774902344,0.008842722574869791,0.5733333333333334,0.4642857142857143,-0.0010070376925998264,-4.866799014160158,4.6031341552734375,34.716548919677734,0.003182305230034722,-0.155331548055013
3242,0.11604870202094185,0.05976563930511475,85.78240966796875,85.25050354003906,-6.67132568359375,91.75614929199219,-0.017070770263671875,0.569,0.4614285714285714,0.0013732486300998264,-5.207365649291994,2.1752281188964844,34.716548919677734,0.0059100680881076385,-0.1491941663953993
3243,0.25667370202094186,0.09960939407348633,86.1097412109375,85.41416931152344,-6.67132568359375,91.42881774902344,-0.023662779066297743,0.5636666666666666,0.45785714285714285,0.006072828504774305,-5.339195864746095,0.14281800389289856,34.716548919677734,0.00772857666015625,-0.1455571492513021
3244,0.21370495202094186,0.09960939407348633,85.94607543945312,85.98699188232422,-5.096061706542969,89.32164001464844,-0.009796820746527778,0.5566666666666666,0.4564285714285714,0.005096308390299479,-4.3834139281005875,-1.175503390380861,34.716548919677734,-0.0004546271430121528,-0.10464113023546007
3245,0.13948620202094186,0.15937503814697265,83.16378784179688,82.16134643554688,-5.955295562744141,90.32408142089844,-0.018207295735677084,0.5493333333333333,0.45357142857142857,0.004028235541449653,-3.3507315092773453,-1.4831110411376969,34.716548919677734,0.011138237847222222,-0.12532641092936198
3246,0.19417370202094186,0.15937503814697265,82.52958679199219,82.12042999267578,-6.569034576416016,91.34698486328125,-0.009569507175021702,0.5443333333333333,0.4496428571428571,0.004791132609049479,-3.87805809313965,-1.120571749755861,34.716548919677734,0.00454618665907118,-0.1435113271077474
3247,0.27620495202094186,0.13945316314697265,83.24562072753906,82.26363372802734,-7.469188690185547,92.26759338378906,-0.014343007405598959,0.5413333333333333,0.445,0.006591627332899305,-4.537218707153322,-0.08788933093261875,34.716548919677734,0.01091096666124132,-0.16374202304416233
3248,0.27229870202094186,0.1195312786102295,85.35279846191406,84.08439636230469,-8.144302368164062,92.6358413696289,-0.0009316762288411458,0.5386666666666666,0.4407142857142857,0.005035273234049479,-5.646805422851564,0.4394400119781494,34.716548919677734,0.01409335666232639,-0.17533493041992188
3249,0.29964245202094186,0.15937503814697265,85.27096557617188,84.86180114746094,-7.735141754150391,92.51309204101562,-0.01752539740668403,0.5366666666666666,0.43464285714285716,0.008178499009874132,-6.657517092773439,-0.5492998533935562,34.716548919677734,0.004546271430121528,-0.16942481994628905
3250,0.24104870202094186,0.19921878814697266,84.35034942626953,83.16378784179688,-7.428272247314453,92.65629577636719,-0.025935872395833334,0.531,0.43107142857142855,0.009399159749348959,-6.789349215576173,-0.9008528166503922,34.716548919677734,0.013184017605251737,-0.16760631137424045
3251,0.17464245202094186,0.15937503814697265,84.45263671875,83.75706481933594,-7.407814025878906,91.85843658447266,0.011115815904405382,0.5263333333333333,0.42607142857142855,0.0030516730414496527,-6.141174929687502,0.2746500074863434,34.716548919677734,0.00772857666015625,-0.15851389567057292
3252,0.057454952020941856,0.13945316314697265,82.71371459960938,82.67279052734375,-6.2007904052734375,90.91737365722656,-0.001613616943359375,0.5206666666666667,0.4225,-0.0021361456976996527,-5.394127505371095,0.373524010181427,34.716548919677734,0.0004547119140625,-0.1346462673611111
3253,0.034017452020941856,0.13945316314697265,83.71615600585938,83.18424987792969,-6.9781951904296875,91.34698486328125,-0.01002409193250868,0.5176666666666667,0.4182142857142857,-0.0027464972601996527,-4.207638400146486,0.6152160167694092,34.716548919677734,0.0059100680881076385,-0.14805755615234376
3254,0.026204952020941856,0.13945316314697265,84.5140151977539,83.20470428466797,-7.1418609619140625,91.0196533203125,-0.0075236850314670135,0.5146666666666667,0.4135714285714286,-0.0027464972601996527,-4.119751589843752,1.5270540714263916,34.716548919677734,0.014547899034288195,-0.14623904758029513
3255,-0.005045047979058145,0.13945316314697265,85.68012237548828,86.0074462890625,-6.67132568359375,91.83798217773438,0.0006595187717013889,0.5113333333333333,0.4075,-0.0030821482340494793,-3.6693254881591812,0.9008520245552063,34.716548919677734,-0.003636932373046875,-0.1501034206814236
3256,0.13557995202094186,0.13945316314697265,84.47309875488281,83.06149291992188,-7.9192657470703125,91.0196533203125,-0.032073296440972225,0.5103333333333333,0.40285714285714286,0.0029296027289496527,-3.3727022581787125,-0.823950427124025,34.716548919677734,0.01568450927734375,-0.1548768785264757
3257,0.23323620202094186,0.15937503814697265,84.32989501953125,83.49111938476562,-7.67376708984375,92.79949951171875,-0.02570855882432726,0.509,0.3964285714285714,0.0071409013536241316,-4.691023486206056,-1.0766283446044937,34.716548919677734,0.009319729275173612,-0.17192518446180555
3258,0.28792370202094186,0.13945316314697265,82.22271728515625,82.52958679199219,-6.343997955322266,90.75370788574219,-0.011387973361545138,0.5063333333333333,0.39321428571428574,0.006774732801649305,-5.152434008666994,-0.5712725096435562,34.716548919677734,-0.003409661187065972,-0.13441895378960503
3259,0.20979870202094186,0.15937503814697265,80.62699890136719,80.9952392578125,-6.3644561767578125,90.6309585571289,-0.003204769558376736,0.5,0.38785714285714284,0.005706617567274305,-4.262568133422853,0.7690200209617615,34.716548919677734,-0.004091559516059028,-0.13328238593207464
3260,0.22932995202094186,0.17929691314697266,85.5164566040039,80.9543228149414,-6.1394195556640625,90.59004211425781,-0.012979168362087673,0.496,0.38321428571428573,0.008666737874348959,-3.7681986265869156,3.9769320487976074,34.716548919677734,0.050690375434027775,-0.13032735188802083
3261,0.24104870202094186,0.17929691314697266,88.99431610107422,87.31675720214844,-5.648426055908203,90.38545989990234,-0.02616318596733941,0.492,0.3775,0.013518905639648438,-3.88904442126465,5.196378231048584,34.716548919677734,0.01863954332139757,-0.12259873284233941
3262,0.19807995202094186,0.15937503814697265,87.50088500976562,87.93049621582031,-6.016670227050781,90.48774719238281,-0.002068201700846354,0.489,0.37357142857142855,0.013366317749023438,-3.515520709106447,3.449604034423828,34.716548919677734,-0.004773457845052083,-0.12782686021592882
3263,0.16682995202094186,0.15937503814697265,86.62118530273438,86.19157409667969,-6.057586669921875,90.6309585571289,-0.0075236850314670135,0.48433333333333334,0.3682142857142857,0.014709048800998263,-3.537493365356447,1.1974740028381348,34.716548919677734,0.004773457845052083,-0.1298727247450087
3264,0.17854870202094186,0.15937503814697265,85.57783508300781,86.27340698242188,-6.118961334228516,90.61050415039062,-0.008205625745985243,0.481,0.365,0.015136294894748263,-3.92200340563965,-0.9447962218017594,34.716548919677734,-0.00772857666015625,-0.130327394273546
3265,0.19417370202094186,0.17929691314697266,83.08195495605469,83.28652954101562,-4.9733123779296875,89.6080551147461,-0.01957117716471354,0.4766666666666667,0.36,0.01620436774359809,-3.812142031738283,-1.7028299742431656,39.28683090209961,-0.0022730509440104167,-0.10645963880750868
3266,0.22151745202094186,0.19921878814697266,85.70057678222656,84.16622924804688,-5.402931213378906,89.77172088623047,-0.018661922878689237,0.4723333333333333,0.3578571428571429,0.017425028483072917,-3.3507315092773453,-1.142544406005861,40.07783889770508,0.017048305935329862,-0.11305168999565972
3267,0.24886120202094186,0.17929691314697266,82.97966003417969,82.65233612060547,-4.8914794921875,89.26026916503906,-0.01957117716471354,0.469,0.35464285714285715,0.01684523688422309,-3.273829119750978,-1.3952223234863297,40.60517883300781,0.003636932373046875,-0.10168609619140626
3268,0.25276745202094186,0.219140682220459,85.37325286865234,83.67523193359375,-5.627967834472656,89.64897155761719,-0.01797998216417101,0.4653333333333333,0.35285714285714287,0.018767759535047744,-3.229883807250978,-0.5163427763671891,41.48408126831055,0.01886689927842882,-0.11418821546766493
3269,0.26448620202094186,0.239062557220459,85.41416931152344,84.90271759033203,-5.1983489990234375,89.73080444335938,-0.020480431450737847,0.46166666666666667,0.35035714285714287,0.01995790269639757,-3.1419969969482437,-0.3295809202880875,41.57196807861328,0.0056827969021267365,-0.1103239271375868
3270,0.26448620202094186,0.19921878814697266,85.78240966796875,85.16867065429688,-5.321098327636719,89.79217529296875,-0.012297227647569445,0.4583333333333333,0.3485714285714286,0.017302958170572917,-2.944248812744142,-0.3735243254394547,42.89031982421875,0.006819322374131944,-0.11236970689561632
3271,0.19807995202094186,0.17929691314697266,85.76194763183594,85.33233642578125,-5.505218505859375,89.79217529296875,0.006342273288302952,0.4543333333333333,0.3464285714285714,0.01196255154079861,-3.1419969969482437,-0.2856375151367203,42.89031982421875,0.004773457845052083,-0.11441548665364583
3272,0.10823620202094185,0.19921878814697266,85.02546691894531,85.82332611083984,-6.384914398193359,90.30363464355469,-0.003886710272894965,0.44966666666666666,0.3457142857142857,0.006561109754774305,-3.7791849547119156,-2.3180471831054703,42.97821044921875,-0.008865102132161459,-0.12987276713053386
3273,0.11214245202094185,0.19921878814697266,82.26363372802734,81.75218200683594,-5.136974334716797,89.2193603515625,-0.01661614312065972,0.446,0.34464285714285714,0.004302851359049479,-4.515246050903322,-3.6143938475341812,42.97821044921875,0.0056827969021267365,-0.10395927429199218
3274,0.12386120202094185,0.219140682220459,81.62944030761719,81.26119232177734,-4.871021270751953,89.17843627929688,-0.012979168362087673,0.44133333333333336,0.3442857142857143,0.0027160220675998266,-4.020876544067384,-3.207913058349611,42.97821044921875,0.004091644287109375,-0.10054952833387587
3275,0.16292370202094186,0.19921878814697266,81.52714538574219,81.0361557006836,-5.034687042236328,89.26026916503906,-0.01957117716471354,0.437,0.3435714285714286,0.0021056705050998266,-3.570450442382814,-2.263117449829103,42.97821044921875,0.005455440945095486,-0.10327729119194878
3276,0.16682995202094186,0.239062557220459,84.80043029785156,76.24897766113281,-5.300640106201172,90.0172119140625,-0.016388829549153647,0.43266666666666664,0.3432142857142857,0.0022277408175998266,-3.592423098632814,1.252403974533081,42.97821044921875,0.09501614040798612,-0.11464280022515191
3277,0.17464245202094186,0.15937503814697265,82.16134643554688,86.68256378173828,-4.482318878173828,87.99187469482422,0.008388095431857638,0.42833333333333334,0.34214285714285714,0.0008544921875,-3.6363665037841812,2.438892126083374,42.97821044921875,-0.050235748291015625,-0.08304659525553386
3278,0.21761120202094186,0.17929691314697266,84.1048583984375,82.24317932128906,-4.482318878173828,89.1579818725586,-0.02207158406575521,0.4236666666666667,0.3417857142857143,0.005462519327799479,-2.944248812744142,2.977205991744995,42.97821044921875,0.020685323079427085,-0.09600334167480469
3279,0.17464245202094186,0.17929691314697266,91.1628646850586,87.17355346679688,-4.154991149902344,88.68744659423828,0.0006595187717013889,0.419,0.3407142857142857,0.006072828504774305,-2.9772058897705094,3.845100164413452,42.97821044921875,0.04432568020290799,-0.08713819715711806
3280,0.06917370202094185,0.19921878814697266,86.98943328857422,87.05081176757812,-4.441402435302734,88.25782775878906,0.0008868323432074653,0.4146666666666667,0.3407142857142857,0.0036925421820746527,-3.0541082792968766,1.8346620798110962,42.97821044921875,-0.0006819831000434028,-0.08554700215657553
3281,0.07307995202094185,0.19921878814697266,87.33721923828125,87.0098876953125,-5.771175384521484,89.95584106445312,-0.015934202406141493,0.411,0.3407142857142857,0.004821650187174479,-3.515520709106447,-0.2966219359130875,42.97821044921875,0.003637017144097222,-0.11918907165527344
3282,0.11214245202094185,0.17929691314697266,85.33233642578125,84.37080383300781,-5.8120880126953125,90.44683837890625,-0.027072440253363715,0.4083333333333333,0.34,0.006072828504774305,-4.658064501831056,-2.2960745268554703,42.97821044921875,0.010683695475260416,-0.12509918212890625
3283,0.12386120202094185,0.17929691314697266,80.91340637207031,83.87982177734375,-5.259723663330078,90.24225616455078,-0.01843460930718316,0.405,0.3392857142857143,0.004974238077799479,-5.4600435667724625,-2.208185809204103,42.97821044921875,-0.03296017116970486,-0.11668866475423177
3284,0.10042370202094185,0.17929691314697266,83.36836242675781,82.48867797851562,-4.707359313964844,89.13752746582031,0.00543306138780382,0.398,0.3392857142857143,0.0021361880832248266,-5.185392993041994,0.36253800988197327,42.97821044921875,0.009774271647135417,-0.09827651977539062
3285,0.12386120202094185,0.17929691314697266,83.22515869140625,82.83645629882812,-3.909496307373047,88.1146240234375,-0.018889236450195312,0.392,0.33964285714285714,0.004516474405924479,-3.87805809313965,1.5709980726242065,42.97821044921875,0.0043189154730902775,-0.07804578145345052
3286,0.12776745202094186,0.19921878814697266,86.90760040283203,86.47798156738281,-4.011787414550781,88.13508605957031,-0.007978312174479167,0.3863333333333333,0.34,0.0075376298692491316,-2.482836382934572,2.2411441802978516,42.97821044921875,0.004773542616102431,-0.07940970526801215
3287,0.15901745202094186,0.15937503814697265,84.30943298339844,84.08439636230469,-4.461860656738281,88.97386169433594,-0.002750142415364583,0.38166666666666665,0.3392857142857143,0.008056428697374132,-1.8676210814209,1.538040041923523,42.97821044921875,0.0025004069010416668,-0.0937302483452691
3288,0.13167370202094186,0.219140682220459,85.68012237548828,85.27096557617188,-4.482318878173828,89.05569458007812,-0.01911655002170139,0.37666666666666665,0.3389285714285714,0.010955513848198786,-2.6915708952636734,0.4723980128765106,42.97821044921875,0.00454618665907118,-0.09486681620279948
3289,0.14729870202094186,0.19921878814697266,84.43218231201172,85.39370727539062,-4.3595733642578125,88.564697265625,-0.014570320977105035,0.37366666666666665,0.3382142857142857,0.01156582302517361,-3.4386183195800797,-1.0107122832031266,42.97821044921875,-0.01068361070421007,-0.08804745144314235
3290,0.18636120202094186,0.17929691314697266,82.46821594238281,82.07951354980469,-6.5894927978515625,91.14241027832031,-0.03389176262749566,0.37066666666666664,0.33785714285714286,0.011108101738823786,-3.7242552214355484,-1.3293062620849625,42.97821044921875,0.0043189154730902775,-0.14146558973524306
3291,0.17854870202094186,0.15937503814697265,85.06637573242188,85.5982894897461,-5.464302062988281,89.6080551147461,-0.0075236850314670135,0.367,0.3367857142857143,0.009673817952473959,-4.954685824462892,1.263390064239502,42.97821044921875,-0.005910152859157986,-0.11191507975260416
3292,0.13167370202094186,0.17929691314697266,88.48286437988281,87.19401550292969,-4.3595733642578125,88.74882507324219,-0.005705218844943577,0.3616666666666667,0.3364285714285714,0.009124501546223959,-4.767923968383791,2.2301580905914307,42.97821044921875,0.014320543077256944,-0.09009331597222223
3293,0.11604870202094185,0.17929691314697266,86.94851684570312,86.96897888183594,-4.605068206787109,88.62606811523438,-0.003886710272894965,0.35533333333333333,0.3364285714285714,0.009093983968098959,-3.603409426757814,1.3183200359344482,42.97821044921875,-0.00022735595703125,-0.09145707024468316
3294,0.14339245202094186,0.19921878814697266,82.67279052734375,84.53446960449219,-4.830104827880859,89.54668426513672,-0.03093672858344184,0.348,0.3357142857142857,0.01217617458767361,-2.878332751342775,-1.164517062255861,42.97821044921875,-0.020685323079427085,-0.1041865454779731
3295,0.20979870202094186,0.17929691314697266,85.29141998291016,85.80287170410156,-3.1730079650878906,87.6031723022461,-0.020707745022243925,0.342,0.33464285714285713,0.013915634155273438,-2.834389346191408,-1.4281813078613297,42.97821044921875,-0.0056827969021267365,-0.06417978074815538
3296,0.18245495202094186,0.19921878814697266,81.26119232177734,80.8929443359375,-3.8072052001953125,88.54424285888672,-0.018889236450195312,0.3353333333333333,0.335,0.01190151638454861,-1.9445234709472672,-3.0211512022705094,42.97821044921875,0.004091644287109375,-0.08168275621202258
3297,0.21370495202094186,0.19921878814697266,82.32501220703125,80.62699890136719,-3.3162155151367188,87.82821655273438,-0.011842600504557292,0.329,0.3342857142857143,0.010772408379448786,-1.5709978514404312,-2.0873400145263687,42.97821044921875,0.01886681450737847,-0.06827146742078993
3298,0.20979870202094186,0.219140682220459,83.12287139892578,82.71371459960938,-3.3775863647460938,86.96897888183594,-0.010933346218532987,0.32466666666666666,0.3335714285714286,0.010253609551323786,-0.7690206938476578,-1.2853628569335953,43.76921844482422,0.00454618665907118,-0.059406280517578125
3299,0.25276745202094186,0.219140682220459,84.92317199707031,83.69569396972656,-3.500335693359375,88.03279113769531,-0.02525397406684028,0.32066666666666666,0.3325,0.01217617458767361,0.08788800239562988,-0.48338379199218906,44.99967956542969,0.013638644748263888,-0.07259029812282985
3300,0.22932995202094186,0.219140682220459,85.5982894897461,85.39370727539062,-3.725372314453125,88.1555404663086,-0.006159803602430555,0.31733333333333336,0.33107142857142857,0.01144375271267361,0.19774800539016724,0.17577600479125977,46.142250061035156,0.002273135715060764,-0.07645458645290798
3301,0.20979870202094186,0.19921878814697266,84.14576721191406,84.32989501953125,-4.175449371337891,88.58515930175781,-0.0043413374159071184,0.31366666666666665,0.3292857142857143,0.008788808186848959,-0.18676246936035312,-0.5492998533935562,48.60316848754883,-0.002045864529079861,-0.08622898525661893
3302,0.20589245202094186,0.19921878814697266,82.75462341308594,82.44775390625,-3.9913291931152344,88.564697265625,-0.013661109076605903,0.31033333333333335,0.32857142857142857,0.0077817704942491316,-0.49437012011718906,-0.5492998533935562,50.0094108581543,0.003409661187065972,-0.08395584954155816
3303,0.22542370202094186,0.17929691314697266,84.43218231201172,82.89783477783203,-3.8276634216308594,87.84866333007812,-0.0054779052734375,0.30833333333333335,0.32857142857142857,0.006408521864149305,-0.3515516691894547,0.32958000898361206,50.712528228759766,0.017048305935329862,-0.07418140835232205
3304,0.20589245202094186,0.15937503814697265,85.08683776855469,84.98455047607422,-3.868579864501953,87.62362670898438,-0.0054779052734375,0.306,0.3289285714285714,0.005554072062174479,0.2197200059890747,0.8349360227584839,51.767208099365234,0.0011365254720052083,-0.07213562859429254
3305,0.22151745202094186,0.13945316314697265,83.24562072753906,84.84133911132812,-4.257282257080078,88.6056137084961,-0.008205625745985243,0.304,0.3292857142857143,0.004913202921549479,0.8019779920578003,0.08788800239562988,52.9097785949707,-0.017730204264322917,-0.08736551072862413
3306,0.16292370202094186,0.17929691314697266,85.25050354003906,85.14820861816406,-4.093616485595703,89.05569458007812,-0.003659396701388889,0.3,0.3296428571428571,0.004577509562174479,0.38451001048088074,0.2746500074863434,54.22813034057617,0.0011366102430555556,-0.0905479007297092
3307,0.14729870202094186,0.17929691314697266,85.74149322509766,85.43462371826172,-4.9733123779296875,88.48286437988281,-0.018207295735677084,0.2976666666666667,0.33071428571428574,0.003997717963324653,0.12084600329399109,0.19774800539016724,54.22813034057617,0.003409661187065972,-0.09395751953125
3308,0.11995495202094185,0.15937503814697265,78.80622863769531,79.21539306640625,-4.11407470703125,89.40347290039062,-0.009796820746527778,0.2956666666666667,0.33107142857142857,0.0009765625,-0.20873512561035312,-0.2416922026367203,54.05234909057617,-0.004546271430121528,-0.09463941786024306
3309,0.12386120202094185,0.15937503814697265,85.31187438964844,84.28897857666016,-4.318656921386719,88.564697265625,-0.0034320831298828127,0.294,0.33214285714285713,0.00115966796875,0.35155200958251953,1.6588860750198364,53.96445846557617,0.011365509033203125,-0.08759282430013021
3310,0.18245495202094186,0.15937503814697265,82.73416900634766,82.83645629882812,-4.3595733642578125,89.48530578613281,-0.01843460930718316,0.29033333333333333,0.33285714285714285,0.005828687879774305,0.09887400269508362,0.5383139848709106,53.96445846557617,-0.0011365254720052083,-0.09827643500434027
3311,0.22932995202094186,0.19921878814697266,82.65233612060547,82.59095764160156,-4.298198699951172,88.89202880859375,-0.022980838351779515,0.28933333333333333,0.3335714285714286,0.011291207207573786,-0.2966219359130875,0.010986000299453735,53.96445846557617,0.0006819831000434028,-0.09100252787272135
3312,0.28792370202094186,0.19921878814697266,82.24317932128906,81.93630981445312,-4.707359313964844,88.95339965820312,-0.00843293931749132,0.288,0.3342857142857143,0.013457870483398438,-0.2307058745117203,0.23070600628852844,53.78868103027344,0.003409661187065972,-0.09623065524631076
3313,0.28011120202094186,0.239062557220459,85.08683776855469,82.5091323852539,-4.461860656738281,89.42393493652344,-0.02570855882432726,0.286,0.33535714285714285,0.018035380045572917,-0.7140909605712906,0.8349360227584839,53.78868103027344,0.028641170925564237,-0.09873106214735243
3314,0.25667370202094186,0.25898443222045897,85.78240966796875,82.0999755859375,-5.136974334716797,89.75126647949219,-0.0059324900309244795,0.2836666666666667,0.3360714285714286,0.017852274576822917,-1.5709978514404312,1.4281799793243408,52.64611053466797,0.04091593424479167,-0.10986934238009982
3315,0.23714245202094186,0.239062557220459,84.82088470458984,83.87982177734375,-3.684459686279297,88.74882507324219,0.0002048916286892361,0.2826666666666667,0.3364285714285714,0.01690627204047309,-1.7687460356445328,1.7577600479125977,51.855098724365234,0.010456254747178819,-0.08259205288357205
3316,0.23323620202094186,0.219140682220459,84.73905181884766,84.53446960449219,-5.66888427734375,89.95584106445312,-0.0011589898003472221,0.28,0.3367857142857143,0.01605177985297309,-0.6701475554199234,1.7028300762176514,51.855098724365234,0.002273135715060764,-0.11805250379774306
3317,0.26448620202094186,0.17929691314697266,81.62944030761719,80.29966735839844,-3.9504127502441406,88.31919860839844,-0.011842600504557292,0.27666666666666667,0.3364285714285714,0.01690627204047309,-0.3295809202880875,1.0436700582504272,51.855098724365234,0.014775254991319445,-0.08077345954047309
3318,0.34261122979871966,0.19921878814697266,86.35523986816406,84.75950622558594,-5.157432556152344,88.48286437988281,-0.01979849073621962,0.275,0.3367857142857143,0.02270439995659722,0.26366400718688965,2.592696189880371,51.855098724365234,0.017730373806423613,-0.09600329928927952
3319,0.30745495202094186,0.239062557220459,85.0050048828125,90.1195068359375,-3.745830535888672,89.42393493652344,-0.024799346923828125,0.269,0.3360714285714286,0.026915740966796876,0.17577600479125977,1.6259280443191528,51.855098724365234,-0.05682779947916667,-0.09077517191569011
3320,0.25667370202094186,0.17929691314697266,84.94363403320312,84.80043029785156,-4.3595733642578125,88.23736572265625,0.011570443047417535,0.26966666666666667,0.3364285714285714,0.02075135972764757,-0.02197326953125156,1.4281799793243408,51.855098724365234,0.001591152615017361,-0.08441043429904514
3321,0.15120495202094186,0.15937503814697265,84.1048583984375,83.61386108398438,-5.321098327636719,89.42393493652344,0.011570443047417535,0.26666666666666666,0.3360714285714286,0.013793563842773438,-0.5273291044921891,0.04394400119781494,51.855098724365234,0.005455525716145834,-0.1082781473795573
3322,0.17854870202094186,0.15937503814697265,81.40440368652344,84.06393432617188,-4.9733123779296875,89.6080551147461,-0.023435465494791665,0.264,0.3360714285714286,0.01577712164984809,-1.4062086516113297,-2.142269747802736,51.855098724365234,-0.029550340440538194,-0.10645963880750868
3323,0.27620495202094186,0.17929691314697266,84.37080383300781,82.12042999267578,-3.8890380859375,88.23736572265625,-0.0363922119140625,0.26266666666666666,0.3367857142857143,0.01998842027452257,-1.153530734130861,-1.2963491850585953,51.767208099365234,0.025004153781467014,-0.07918226453993056
3324,0.21370495202094186,0.219140682220459,85.25050354003906,86.45751953125,-6.4462890625,90.46729278564453,0.0011141459147135417,0.26033333333333336,0.33785714285714286,0.018310038248697917,-0.6481748991699234,-0.4614130430908219,51.855098724365234,-0.013411288791232639,-0.13237313164605036
3325,0.24104870202094186,0.19921878814697266,83.96165466308594,83.69569396972656,-5.423389434814453,89.30118560791016,-0.018661922878689237,0.257,0.33714285714285713,0.017913309733072917,-2.142269747802736,-1.6918455534667984,48.251609802246094,0.0029551188151041665,-0.10805083380805122
3326,0.31526745202094186,0.15937503814697265,81.24073791503906,79.35859680175781,-6.180332183837891,91.55156707763672,0.01066118876139323,0.25366666666666665,0.33785714285714286,0.01565505133734809,-3.240870135375978,-1.2414194517822281,46.142250061035156,0.020912679036458333,-0.1414655473497179
3327,0.26448620202094186,0.239062557220459,84.77996826171875,84.80043029785156,-5.464302062988281,89.30118560791016,-0.026390499538845487,0.25066666666666665,0.3382142857142857,0.019622251722547744,-4.680037158081056,-0.10986007983398594,45.43912887573242,-0.00022735595703125,-0.10850541856553819
3328,0.29182995202094186,0.219140682220459,85.61874389648438,84.6572265625,-4.236824035644531,88.54424285888672,-0.015706888834635415,0.24633333333333332,0.3392857142857143,0.019805357191297744,-5.328211443969728,0.9338099956512451,45.26335144042969,0.010683525933159722,-0.086456298828125
3329,0.27229870202094186,0.17929691314697266,84.94363403320312,84.75950622558594,-5.648426055908203,89.85355377197266,0.0020233578152126738,0.24033333333333334,0.33964285714285714,0.01611281500922309,-3.9989038878173844,1.2963480949401855,45.26335144042969,0.002045864529079861,-0.11668866475423177
3330,0.20979870202094186,0.17929691314697266,85.39370727539062,85.08683776855469,-3.909496307373047,89.34210205078125,-0.00775099860297309,0.234,0.3389285714285714,0.014342837863498263,-3.592423098632814,1.175502061843872,45.26335144042969,0.003409661187065972,-0.09168442620171441
3331,0.20198620202094186,0.15937503814697265,86.04837036132812,86.92805480957031,-5.7507171630859375,88.09416198730469,-0.0075236850314670135,0.22733333333333333,0.3389285714285714,0.013763046264648438,-2.515795367309572,-0.05493034655761875,45.26335144042969,-0.009774271647135417,-0.09827643500434027
3332,0.23323620202094186,0.17929691314697266,79.31768798828125,83.02058410644531,-3.8072052001953125,88.81019592285156,-0.021844270494249134,0.22133333333333333,0.3389285714285714,0.014709048800998263,-2.6036821776123062,-2.570725100585939,45.26335144042969,-0.04114329020182292,-0.08463779025607639
3333,0.33870497979871966,0.15937503814697265,86.43707275390625,79.05172729492188,-4.052700042724609,87.84866333007812,-0.02684512668185764,0.21566666666666667,0.33964285714285714,0.01629592047797309,-2.142269747802736,0.032958000898361206,45.26335144042969,0.08205939398871528,-0.07668181525336372
3334,0.27620495202094186,0.1195312786102295,84.90271759033203,85.12775421142578,-3.9504127502441406,88.05325317382812,0.011570443047417535,0.21,0.3392857142857143,0.01150478786892361,-2.3070608549804703,0.41746801137924194,45.26335144042969,-0.0025004069010416668,-0.07781851026746962
3335,0.27620495202094186,0.13945316314697265,79.4813461303711,78.8880615234375,-3.4594192504882812,88.09416198730469,-0.0363922119140625,0.205,0.3389285714285714,0.012878036499023438,-1.7467752867431656,-0.3185945921630875,45.52701950073242,0.0065920511881510414,-0.07281756930881077
3336,0.39339247979871966,0.1195312786102295,83.73661041259766,87.0098876953125,-3.7867469787597656,87.35768127441406,-0.0034320831298828127,0.201,0.33964285714285714,0.013305282592773438,-1.3512789183349625,-0.14281906420898594,45.966468811035156,-0.03636974758572049,-0.06827142503526476
3337,0.38167372979871966,0.1195312786102295,81.13844299316406,81.19981384277344,-3.357128143310547,87.95095825195312,-0.029345575968424478,0.19666666666666666,0.3392857142857143,0.012908554077148438,-1.1095873289794937,-1.7907186918945328,47.109039306640625,-0.0006818983289930556,-0.07008984883626303
3338,0.34261122979871966,0.15937503814697265,84.88226318359375,81.67034912109375,-2.8456802368164062,87.562255859375,-0.01616151597764757,0.193,0.3392857142857143,0.013305282592773438,-0.6591612272949234,0.032958000898361206,47.54848861694336,0.03568793402777778,-0.06008817884657118
3339,0.28792370202094186,0.13945316314697265,85.37325286865234,85.61874389648438,-3.868579864501953,88.13508605957031,0.003841866387261285,0.18966666666666668,0.33964285714285714,0.010467232598198786,0.04394400119781494,0.36253800988197327,48.427391052246094,-0.0027276780870225696,-0.07781851026746962
3340,0.30745495202094186,0.13945316314697265,83.69569396972656,83.71615600585938,-4.461860656738281,89.1170654296875,-0.012069914076063368,0.186,0.33964285714285714,0.010741890801323786,-0.21972145373535312,-1.0216986113281266,48.95473098754883,-0.00022735595703125,-0.09532140096028646
3341,0.31136120202094186,0.15937503814697265,82.0385971069336,81.73172760009766,-4.298198699951172,89.19889831542969,-0.02980016072591146,0.18333333333333332,0.33964285714285714,0.012786483764648438,0.0,-0.9118391447753922,48.95473098754883,0.003409661187065972,-0.09441218905978732
3342,0.30745495202094186,0.13945316314697265,83.22515869140625,82.01814270019531,-4.461860656738281,88.93293762207031,0.009297349717881945,0.18066666666666667,0.33964285714285714,0.010192574395073786,-0.3625379973144547,1.06564199924469,48.95473098754883,0.013411288791232639,-0.09327553643120659
3343,0.38167372979871966,0.1195312786102295,86.29386138916016,85.35279846191406,-3.66400146484375,87.80775451660156,-0.010933346218532987,0.18,0.33964285714285714,0.010375679863823786,-0.2636648588867203,2.0214240550994873,48.95473098754883,0.010456254747178819,-0.0719083997938368
3344,0.24886120202094186,0.09960939407348633,92.41080474853516,89.46485137939453,-5.341556549072266,90.40591430664062,0.0072515275743272566,0.17566666666666667,0.34,0.009002431233723959,-0.856909411499025,2.911290168762207,48.95473098754883,0.03273281521267361,-0.11941634284125434
3345,0.33479872979871966,0.09960939407348633,87.6031723022461,86.98943328857422,-3.8890380859375,87.78729248046875,-0.03411907619900174,0.17433333333333334,0.3407142857142857,0.01165737575954861,-1.8676210814209,1.450152039527893,49.13050842285156,0.006819322374131944,-0.07418145073784722
3346,0.36995497979871966,0.07968751907348633,90.89691162109375,87.29630279541016,-4.9733123779296875,89.48530578613281,-0.007296371459960938,0.17233333333333334,0.3414285714285714,0.013183212280273438,-2.3839632445068375,1.6369140148162842,48.95473098754883,0.040006764729817706,-0.10509575737847222
3347,0.20589245202094186,0.13945316314697265,86.559814453125,90.30363464355469,-5.034687042236328,89.52622985839844,-0.011615286933051215,0.16833333333333333,0.3435714285714286,0.013885116577148438,-3.3397451811523453,-0.8678938322753922,48.339500427246094,-0.041598002115885414,-0.10623241000705295
3348,0.20198620202094186,0.15937503814697265,86.1097412109375,83.94119262695312,-5.075603485107422,89.77172088623047,-0.0323006100124783,0.16566666666666666,0.345,0.013091659545898438,-3.4715773039550797,-2.5926958494873062,47.987937927246094,0.024094984266493057,-0.10941471523708768
3349,0.16292370202094186,0.15937503814697265,86.64164733886719,85.16867065429688,-5.44384765625,89.91493225097656,-0.01729808383517795,0.162,0.3457142857142857,0.009460194905598959,-4.009890215942384,-2.0983263426513687,47.109039306640625,0.016366407606336807,-0.11509755452473959
3350,0.16682995202094186,0.1195312786102295,85.12775421142578,85.1072998046875,-5.239265441894531,90.32408142089844,-0.0050232781304253475,0.15866666666666668,0.3467857142857143,0.005981275770399305,-4.658064501831056,-1.6149431639404312,46.054359436035156,0.00022727118598090277,-0.11737052069769965
3351,0.18636120202094186,0.13945316314697265,83.38882446289062,83.90027618408203,-5.075603485107422,90.50820922851562,-0.02389009263780382,0.15366666666666667,0.3475,0.006347486707899305,-4.756939547607423,-1.9115644865722672,45.966468811035156,-0.0056827969021267365,-0.11759791904025607
3352,0.5496424797987196,0.09960939407348633,82.01814270019531,81.8953857421875,-4.073158264160156,88.46240997314453,-0.02616318596733941,0.15166666666666667,0.3489285714285714,0.0073850419786241316,-4.603134768554689,-1.4281813078613297,45.966468811035156,0.0013639662000868055,-0.08372853597005209
3353,0.20979870202094186,0.17929691314697266,82.83645629882812,84.37080383300781,-3.8481216430664062,88.27828979492188,-0.013888380262586805,0.14333333333333334,0.35,0.0076597001817491316,-3.6912962370605484,-0.5712725096435562,45.966468811035156,-0.017048305935329862,-0.0791823493109809
3354,0.09651745202094185,0.09960939407348633,81.19981384277344,80.87248992919922,-5.3620147705078125,88.50332641601562,0.011570443047417535,0.14133333333333334,0.34964285714285714,-0.0018920050726996527,-2.6586119108886734,-1.7797323637695328,45.966468811035156,0.003636932373046875,-0.09850379096137153
3355,-0.016763797979058144,0.05976563930511475,85.68012237548828,79.01081848144531,-4.154991149902344,87.99187469482422,0.01066118876139323,0.13466666666666666,0.34964285714285714,-0.008422597249348959,-2.911289828369142,0.9338099956512451,45.966468811035156,0.07410337660047743,-0.0794096204969618
3356,0.12386120202094185,0.05976563930511475,80.64745330810547,86.17111206054688,-5.300640106201172,90.2218017578125,-0.03093672858344184,0.13233333333333333,0.35,-0.0038145701090494793,-3.0980535917968766,0.4943700134754181,45.966468811035156,-0.06137398613823785,-0.11691602071126302
3357,0.24104870202094186,0.1195312786102295,87.19401550292969,82.67279052734375,-4.3595733642578125,88.46240997314453,-0.022980838351779515,0.13,0.3492857142857143,0.004028235541449653,-3.6253801756591812,1.8786060810089111,45.966468811035156,0.05023583306206597,-0.08691092597113716
3358,0.26448620202094186,0.17929691314697266,85.92561340332031,88.03279113769531,-4.727817535400391,88.74882507324219,-0.015934202406141493,0.12633333333333333,0.3492857142857143,0.010619820488823786,-3.0101648741455094,0.36253800988197327,45.966468811035156,-0.0234130859375,-0.09418491787380642
3359,0.40120497979871966,0.17929691314697266,83.14332580566406,76.96501159667969,-6.221248626708984,91.1628646850586,-0.03661952548556858,0.123,0.3492857142857143,0.01559401618109809,-3.3946749144287125,-0.3515516691894547,45.79069137573242,0.06864793565538195,-0.13760125901963977
3360,0.40120497979871966,0.19921878814697266,83.79798889160156,83.94119262695312,-4.277740478515625,89.71034240722656,-0.007978312174479167,0.11966666666666667,0.3489285714285714,0.01663161383734809,-4.471302645751955,1.2304320335388184,45.79069137573242,-0.001591152615017361,-0.09986758761935764
3361,0.44026747979871966,0.17929691314697266,85.68012237548828,85.72103881835938,-4.727817535400391,88.33966064453125,0.009070036146375868,0.11433333333333333,0.3492857142857143,0.01650954352484809,-3.4605909758300797,1.06564199924469,45.79069137573242,-0.0004546271430121528,-0.0896386464436849
3362,0.39729872979871966,0.19921878814697266,83.24562072753906,81.91584777832031,-3.3162155151367188,88.05325317382812,-0.020480431450737847,0.109,0.34964285714285714,0.019103452894422744,-3.0980535917968766,0.4064820110797882,45.79069137573242,0.014775254991319445,-0.0707718743218316
3363,0.38948622979871966,0.17929691314697266,86.80531311035156,86.64164733886719,-4.850563049316406,89.48530578613281,0.008160781860351563,0.105,0.34964285714285714,0.017394510904947917,-2.493822711059572,0.5383139848709106,45.79069137573242,0.001818508572048611,-0.10373187594943577
3364,0.33870497979871966,0.17929691314697266,84.554931640625,84.12531280517578,-3.4594192504882812,89.73080444335938,-0.012297227647569445,0.099,0.35,0.01617385016547309,-2.186215060302736,0.24169200658798218,45.79069137573242,0.004773542616102431,-0.09100248548719618
3365,0.35042372979871966,0.13945316314697265,81.17935943603516,84.0434799194336,-5.648426055908203,89.32164001464844,0.009751976860894098,0.097,0.35,0.01235928005642361,-1.8895918303222672,-0.3185945921630875,45.79069137573242,-0.03182356092664931,-0.11077851189507379
3366,0.15901745202094186,0.25898443222045897,85.29141998291016,78.29478454589844,-5.8939208984375,89.09660339355469,-0.004568650987413194,0.093,0.3485714285714286,0.010863961113823786,-2.6805845671386734,2.504807949066162,45.79069137573242,0.07774039374457466,-0.11100582546657986
3367,0.15511120202094186,0.19921878814697266,86.6007308959961,90.28317260742188,-6.630409240722656,41.900001525878906,-0.00047704908582899306,0.09033333333333333,0.3467857142857143,0.010955513848198786,-3.526507037231447,1.7138160467147827,45.79069137573242,-0.04091601901584201,0.4052176581488715
3368,0.18245495202094186,0.219140682220459,83.98210144042969,77.59921264648438,-4.093616485595703,90.569580078125,-0.024799346923828125,0.08866666666666667,0.3457142857142857,0.013549423217773438,-4.218624728271486,0.35155200958251953,45.79069137573242,0.07092098659939236,-0.10736885070800781
3369,0.20589245202094186,0.219140682220459,83.92073059082031,83.49111938476562,-6.343997955322266,89.87400817871094,-0.014570320977105035,0.08466666666666667,0.34535714285714286,0.015319400363498263,-3.207913058349611,0.2856360077857971,44.56023025512695,0.004773457845052083,-0.12464451260036892
3370,0.14339245202094186,0.219140682220459,84.5958480834961,83.47065734863281,-5.771175384521484,91.10148620605469,0.009070036146375868,0.081,0.3439285714285714,0.011077584160698786,-3.87805809313965,1.922550082206726,43.76921844482422,0.01250211927625868,-0.131918462117513
3371,0.061361202020941856,0.13945316314697265,95.62271118164062,88.78973388671875,-6.4462890625,89.26026916503906,0.011343129475911458,0.07766666666666666,0.3435714285714286,0.005432001749674479,-5.207365649291994,3.8780581951141357,43.76921844482422,0.07592196994357639,-0.11896175808376735
3372,0.010579952020941856,0.13945316314697265,87.17355346679688,86.6007308959961,-5.1983489990234375,89.23981475830078,-0.01616151597764757,0.074,0.3439285714285714,0.005462519327799479,-5.9544130736084,0.4943700134754181,43.76921844482422,0.006364695231119792,-0.10486848619249133
3373,0.15120495202094186,0.09960939407348633,85.25050354003906,84.24806213378906,-6.487205505371094,88.91248321533203,-0.03684683905707465,0.071,0.345,0.010833443535698786,-5.317225115844728,-2.4608656340332047,43.76921844482422,0.011138237847222222,-0.11555209689670139
3374,0.18636120202094186,0.219140682220459,86.43707275390625,84.12531280517578,-5.791633605957031,90.89691162109375,-0.0363922119140625,0.06566666666666666,0.3457142857142857,0.01589919196234809,-5.141449587890627,-2.6256548338623062,43.68132781982422,0.025686221652560765,-0.1298727247450087
3375,0.23714245202094186,0.17929691314697266,82.85691833496094,82.71371459960938,-4.543693542480469,87.80775451660156,-0.011387973361545138,0.06133333333333333,0.3460714285714286,0.014251285129123263,-5.591875689575197,-2.9881922178955094,42.099308013916016,0.001591152615017361,-0.08168275621202258
3376,0.31136120202094186,0.19921878814697266,75.81936645507812,82.9592056274414,-3.5412521362304688,88.0123291015625,-0.03457370334201389,0.057,0.3467857142857143,0.017058817545572917,-4.196652072021486,-3.7791849547119156,41.48408126831055,-0.07933154635959201,-0.07281756930881077
3377,0.32307997979871966,0.219140682220459,86.04837036132812,85.12775421142578,-4.1959075927734375,88.70790100097656,-0.009569507175021702,0.052,0.3464285714285714,0.01654006110297309,-2.3510042601318375,1.0766279697418213,41.39619064331055,0.010229068332248265,-0.08782009548611111
3378,0.25276745202094186,0.15937503814697265,94.2315673828125,91.51065063476562,-3.8072052001953125,88.99431610107422,0.011570443047417535,0.04833333333333333,0.34535714285714286,0.01184048122829861,-2.3400179320068375,2.614668130874634,41.39619064331055,0.030232408311631945,-0.0866835700141059
3379,0.19807995202094186,0.1195312786102295,84.84133911132812,74.34638977050781,-4.850563049316406,90.20133972167969,-0.006159803602430555,0.046,0.3442857142857143,0.0074460771348741316,-2.471850054809572,-2.219172137329103,41.39619064331055,0.1166105482313368,-0.11168780856662326
3380,0.5418299797987196,0.09960939407348633,81.56806182861328,74.36685180664062,-3.254840850830078,41.900001525878906,-0.02866363525390625,0.044333333333333336,0.34285714285714286,0.008147981431749132,-3.3507315092773453,-1.9005781584472672,41.22040939331055,0.08001344468858507,0.4427239735921224
3381,0.38167372979871966,0.13945316314697265,86.31431579589844,41.900001525878906,-5.136974334716797,87.27584838867188,-0.03593758477105035,0.039,0.34285714285714286,0.011108101738823786,-2.6586119108886734,0.17577600479125977,41.22040939331055,0.4934923807779948,-0.0823646969265408
3382,0.28792370202094186,0.15937503814697265,82.26363372802734,88.6056137084961,-3.3162155151367188,87.58271789550781,0.001341459486219618,0.035666666666666666,0.3407142857142857,0.010772408379448786,-1.5929705076904312,1.1974740028381348,41.39619064331055,-0.07046644422743055,-0.06554370456271702
3383,0.31136120202094186,0.1195312786102295,94.29293823242188,92.14485168457031,-2.7843055725097656,87.70545959472656,-0.01752539740668403,0.03233333333333333,0.3389285714285714,0.010802925957573786,-0.8678938322753922,2.0214240550994873,41.39619064331055,0.023867628309461805,-0.060997390747070314
3384,0.21761120202094186,0.1195312786102295,92.00164794921875,80.11553955078125,-4.011787414550781,88.99431610107422,-0.00843293931749132,0.028,0.33785714285714286,0.008971913655598959,-0.6921183043212906,-1.3842359953613297,41.39619064331055,0.13206787109375,-0.08895670572916667
3385,0.30354870202094186,0.1195312786102295,78.96989440917969,85.14820861816406,-4.441402435302734,89.48530578613281,-0.03457370334201389,0.024666666666666667,0.3364285714285714,0.009399159749348959,-1.6918455534667984,-1.9884668760986344,41.39619064331055,-0.06864793565538195,-0.09918564690483941
3386,0.28011120202094186,0.1195312786102295,80.74974060058594,80.87248992919922,-3.66400146484375,87.41905212402344,-0.009342193603515625,0.021333333333333333,0.33464285714285713,0.007934358384874132,-2.4608656340332047,-0.5822588377685562,41.39619064331055,-0.0013638814290364584,-0.06758948432074653
3387,0.30745495202094186,0.1195312786102295,87.21446990966797,85.06637573242188,-3.8276634216308594,87.35768127441406,-0.060941780938042533,0.016666666666666666,0.3339285714285714,0.006896803114149305,-2.482836382934572,3.680310010910034,43.85710906982422,0.02386771308051215,-0.0687260521782769
3388,0.0027674520209418556,0.15937503814697265,84.5958480834961,41.900001525878906,-2.9684295654296875,89.05569458007812,-0.0641241709391276,0.011666666666666667,0.33285714285714285,-0.0027159796820746527,-1.9005781584472672,3.218898057937622,44.03289031982422,0.47439829508463544,-0.0780458238389757
3389,-0.13395129797905814,0.09960939407348633,79.60409545898438,81.19981384277344,-5.402931213378906,86.662109375,-0.09640231662326389,0.007333333333333333,0.3317857142857143,-0.008544667561848959,-0.12084640795898594,2.9442481994628906,35.8591194152832,-0.017730204264322917,-0.07850045098198785
3390,-0.22379504797905814,0.09960939407348633,81.28164672851562,75.4715805053711,-0.9840011596679688,88.36012268066406,-0.0836729261610243,0.0033333333333333335,0.3275,-0.012328720092773438,-0.07690300280761875,2.680583953857422,34.013431549072266,0.06455629136827257,-0.0482680426703559
3391,-0.13004504797905814,0.15937503814697265,79.52226257324219,41.900001525878906,-3.2139244079589844,84.32989501953125,-0.10413089328342014,0.0006666666666666666,0.3246428571428571,-0.01132168240017361,0.4614120125770569,1.1425440311431885,26.63067054748535,0.4180251227484809,-0.02826466030544705
3392,-0.14567004797905814,0.13945316314697265,78.25386810302734,78.62211608886719,-1.9659843444824219,86.76439666748047,-0.08640064663357205,0.0003333333333333333,0.3182142857142857,-0.011809921264648438,0.19774800539016724,0.36253800988197327,26.63067054748535,-0.004091644287109375,-0.041448677910698783
3393,-0.15348254797905814,0.1195312786102295,84.35034942626953,41.900001525878906,2.3711090087890625,85.61874389648438,-0.06776114569769966,-0.0006666666666666666,0.31464285714285717,-0.012755966186523438,1.4171940088272095,1.538040041923523,26.63067054748535,0.4716705322265625,0.019470723470052083
3394,-0.12223254797905815,0.09960939407348633,76.06486511230469,80.74974060058594,-1.5772857666015625,86.559814453125,-0.04889433119032118,-0.001,0.3078571428571429,-0.01110805935329861,1.6039559841156006,0.4943700134754181,26.63067054748535,-0.05205417209201389,-0.03485666910807292
3395,0.014486202020941856,0.09960939407348633,94.579345703125,78.72439575195312,-1.6795730590820312,86.15065002441406,-0.0559409671359592,0.0003333333333333333,0.30357142857142855,-0.004852125379774305,0.8678940534591675,2.04339599609375,26.63067054748535,0.1761661105685764,-0.0314469231499566
3396,0.061361202020941856,0.13945316314697265,83.65477752685547,67.37020874023438,5.480724334716797,77.76287841796875,-0.07685356140136719,0.0,0.29714285714285715,-0.0,0.6042300462722778,1.032684087753296,26.63067054748535,0.1809396531846788,0.1413093990749783
