,WD,WS,AIL_1,AIL_2,ELEV_1,ELEV_2,RUDD,ALT,GS,TH,PTCH,ROLL,PLA_1,AIL,ELEV
2107,0.07358326382107205,0.3785157012939453,85.31187438964844,77.78333282470703,-2.6001853942871094,109.57506561279297,-0.0002497355143229167,0.6756666666666666,0.4328571428571429,-0.009246550665961372,-0.3735243254394547,0.0,30.849390029907227,0.0836504618326823,-0.30194723341200086
2108,0.08139576382107205,0.3585938262939453,85.33233642578125,77.9879150390625,-2.5592689514160156,109.61598205566406,-0.0002497355143229167,0.6713333333333333,0.43214285714285716,-0.008453114827473959,-0.2966219359130875,0.7031040191650391,31.46462059020996,0.08160468207465278,-0.30194723341200086
2109,0.07748951382107205,0.3585938262939453,85.31187438964844,79.70639038085938,-2.5592689514160156,109.61598205566406,-0.0007043626573350694,0.667,0.43214285714285716,-0.008361562093098959,-0.2307058745117203,0.8129640221595764,32.25563049316406,0.062283155653211804,-0.30194723341200086
2110,0.06577076382107205,0.3585938262939453,85.31187438964844,79.72684478759766,-2.5592689514160156,109.67735290527344,-0.00047704908582899306,0.662,0.4317857142857143,-0.009277068244086372,-0.16478981311035312,-0.13183273608398594,32.6071891784668,0.062055884467230905,-0.30262913174099393
2111,0.06577076382107205,0.3585938262939453,85.35279846191406,78.04928588867188,-2.641101837158203,109.57506561279297,-2.242194281684028e-05,0.658,0.4317857142857143,-0.009795845879448786,-0.17577614123535312,-0.9228254729003922,33.39820098876953,0.08115013970269097,-0.302401860555013
2112,0.06967701382107205,0.3785157012939453,85.27096557617188,77.3946304321289,-2.641101837158203,109.63643646240234,-0.0002497355143229167,0.6536666666666666,0.43142857142857144,-0.009399127960205079,-0.2636648588867203,-0.49437012011718906,33.573978424072266,0.08751483493381076,-0.30308375888400607
2113,0.08139576382107205,0.3585938262939453,85.31187438964844,78.33570098876953,-2.6615562438964844,109.65689849853516,-0.00047704908582899306,0.6496666666666666,0.43107142857142855,-0.008392079671223959,-0.3515516691894547,0.2197200059890747,33.837650299072266,0.0775130377875434,-0.3035383860270182
2114,0.08530201382107205,0.3585938262939453,85.33233642578125,79.05172729492188,-2.6615562438964844,109.65689849853516,-0.0002497355143229167,0.645,0.43142857142857144,-0.008056396908230252,-0.48338379199218906,0.3185940086841583,33.837650299072266,0.0697845458984375,-0.3035383860270182
2115,0.08139576382107205,0.3785157012939453,85.33233642578125,78.64257049560547,-2.6615562438964844,109.59552001953125,-0.0002497355143229167,0.6406666666666667,0.43107142857142855,-0.007751231723361545,-0.5712725096435562,0.12084600329399109,34.013431549072266,0.07433073255750867,-0.3028564029269748
2116,0.08920826382107205,0.3785157012939453,85.31187438964844,78.45845031738281,-2.6615562438964844,109.53414916992188,-0.00047704908582899306,0.6363333333333333,0.43107142857142855,-0.007232443491617838,-0.5492998533935562,0.10986000299453735,34.013431549072266,0.07614915635850694,-0.3021745045979818
2117,0.08920826382107205,0.3585938262939453,85.33233642578125,78.4789047241211,-2.6206436157226562,109.67735290527344,-2.242194281684028e-05,0.6313333333333333,0.4307142857142857,-0.007262961069742838,-0.5602861815185562,0.5602860450744629,31.816179275512695,0.07614924112955729,-0.30331107245551214
2118,0.08920826382107205,0.3585938262939453,85.33233642578125,78.60165405273438,-2.6001853942871094,109.69781494140625,-0.0002497355143229167,0.6266666666666667,0.4307142857142857,-0.0069883134629991316,-0.5712725096435562,0.9667680263519287,29.003700256347656,0.07478535970052083,-0.30331111484103734
2119,0.07748951382107205,0.3585938262939453,85.33233642578125,79.27676391601562,-2.497894287109375,109.65689849853516,-0.00047704908582899306,0.6216666666666667,0.43,-0.007323996225992838,-0.5712725096435562,0.9667680263519287,29.003700256347656,0.06728413899739584,-0.3017199198404948
2120,0.07748951382107205,0.3585938262939453,85.31187438964844,78.37661743164062,-2.4365196228027344,109.73873138427734,-0.0002497355143229167,0.617,0.42964285714285716,-0.0068662431504991316,-0.4723993712158219,0.4284540116786957,29.003700256347656,0.07705841064453126,-0.30194723341200086
2121,0.08530201382107205,0.33867195129394534,85.31187438964844,79.17447662353516,-2.3751449584960938,109.67735290527344,-0.00047704908582899306,0.6116666666666667,0.42892857142857144,-0.006377983093261719,-0.4174677305908219,0.6042300462722778,29.003700256347656,0.0681933085123698,-0.30058330959743923
2122,0.07358326382107205,0.33867195129394534,85.33233642578125,79.72684478759766,-2.2319412231445312,109.59552001953125,-0.00047704908582899306,0.607,0.4282142857142857,-0.007476584116617838,-0.2307058745117203,0.20873400568962097,29.003700256347656,0.06228324042426215,-0.2980829026963976
2123,0.06186451382107205,0.33867195129394534,85.35279846191406,78.72439575195312,-2.2319412231445312,109.65689849853516,-2.242194281684028e-05,0.6036666666666667,0.4278571428571429,-0.008239502376980252,-0.06591667468261875,-0.2416922026367203,29.003700256347656,0.07364891899956597,-0.29876488579644095
2124,0.06577076382107205,0.33867195129394534,85.31187438964844,77.55829620361328,-2.497894287109375,109.71826934814453,-2.242194281684028e-05,0.599,0.42642857142857143,-0.008239502376980252,0.02197200059890747,-0.2966219359130875,29.003700256347656,0.08615086873372396,-0.30240181816948786
2125,0.05795826382107205,0.33867195129394534,85.33233642578125,78.3970718383789,-2.743389129638672,109.61598205566406,-0.0002497355143229167,0.594,0.4228571428571429,-0.008941385481092665,0.02197200059890747,0.5273280143737793,28.915809631347656,0.0770584954155816,-0.30399301317003036
2126,0.04623951382107205,0.3187500762939453,85.33233642578125,79.91096496582031,-3.3366737365722656,109.59552001953125,-0.00047704908582899306,0.5903333333333334,0.42,-0.01019256379869249,-0.5932451658935562,0.2856360077857971,28.915809631347656,0.06023746066623264,-0.3103577084011502
2127,0.04233326382107205,0.3187500762939453,85.33233642578125,78.80622863769531,-4.4209442138671875,109.67735290527344,-0.0002497355143229167,0.5873333333333334,0.41535714285714287,-0.010741869608561197,-1.2963491850585953,-0.7690206938476578,28.915809631347656,0.07251230875651042,-0.32331441243489584
2128,0.05014576382107205,0.3187500762939453,85.33233642578125,77.55829620361328,-4.952854156494141,109.61598205566406,-2.242194281684028e-05,0.5846666666666667,0.4114285714285714,-0.01034515168931749,-2.263117449829103,-0.845923083374025,28.915809631347656,0.0863782246907552,-0.3285426245795356
2129,0.06186451382107205,0.3187500762939453,85.33233642578125,77.70149993896484,-5.11651611328125,109.65689849853516,-0.0002497355143229167,0.583,0.4064285714285714,-0.009948433770073786,-3.1200243406982437,-0.2856375151367203,28.915809631347656,0.08478707207573785,-0.33081571790907116
2130,0.06186451382107205,0.29882820129394533,85.33233642578125,78.49935913085938,-4.564151763916016,109.65689849853516,-2.242194281684028e-05,0.5793333333333334,0.40285714285714286,-0.01013152864244249,-3.592423098632814,0.3954960107803345,28.915809631347656,0.07592196994357639,-0.32467833624945747
2131,0.06186451382107205,0.33867195129394534,85.33233642578125,78.84715270996094,-4.3595733642578125,109.63643646240234,-0.0002497355143229167,0.575,0.3985714285714286,-0.009338103400336372,-3.581436770507814,0.7800060510635376,28.915809631347656,0.07205759684244792,-0.3221778869628906
2132,0.05405201382107205,0.33867195129394534,85.33233642578125,79.74729919433594,-4.3595733642578125,109.61598205566406,-0.0002497355143229167,0.5696666666666667,0.3964285714285714,-0.009399127960205079,-3.3507315092773453,0.5493000149726868,28.915809631347656,0.06205596923828125,-0.3219506157769097
2133,0.05795826382107205,0.33867195129394534,85.31187438964844,79.66546630859375,-4.236824035644531,109.61598205566406,-0.00047704908582899306,0.5656666666666667,0.39321428571428574,-0.008819315168592665,-3.284815447875978,-0.02197326953125156,28.915809631347656,0.0627378675672743,-0.32058673434787327
2134,0.07358326382107205,0.33867195129394534,85.33233642578125,79.05172729492188,-4.277740478515625,109.63643646240234,-0.0002497355143229167,0.5606666666666666,0.39107142857142857,-0.007262961069742838,-3.3727022581787125,-0.4723993712158219,28.915809631347656,0.0697845458984375,-0.32126863267686634
2135,0.07358326382107205,0.33867195129394534,85.33233642578125,79.4404296875,-5.014228820800781,109.65689849853516,-0.0002497355143229167,0.556,0.3867857142857143,-0.007903819613986545,-3.7022825651855484,-0.4174677305908219,28.915809631347656,0.06546563042534723,-0.32967919243706595
2136,0.07748951382107205,0.3187500762939453,85.33233642578125,78.86760711669922,-5.280181884765625,109.63643646240234,-0.0002497355143229167,0.552,0.38321428571428573,-0.008025879330105252,-4.548205035278322,-0.3625379973144547,28.915809631347656,0.07183032565646702,-0.3324068705240885
2137,0.07748951382107205,0.33867195129394534,85.33233642578125,78.80622863769531,-5.525676727294922,109.4727783203125,-0.0002497355143229167,0.549,0.3782142857142857,-0.007903819613986545,-5.328211443969728,-0.2416922026367203,28.915809631347656,0.07251230875651042,-0.333316167195638
2138,0.08530201382107205,0.3187500762939453,85.35279846191406,79.23585510253906,-5.791633605957031,109.67735290527344,-0.0002497355143229167,0.5453333333333333,0.37464285714285717,-0.007751231723361545,-6.042299883911134,0.02197200059890747,28.915809631347656,0.0679660373263889,-0.3385442945692274
2139,0.08139576382107205,0.3187500762939453,85.35279846191406,78.92898559570312,-5.5870513916015625,109.57506561279297,-0.0002497355143229167,0.5416666666666666,0.36892857142857144,-0.008025879330105252,-6.668503420898439,0.04394400119781494,28.915809631347656,0.07137569851345486,-0.3351346333821615
2140,0.07358326382107205,0.29882820129394533,85.35279846191406,78.86760711669922,-4.993770599365234,109.67735290527344,-0.0002497355143229167,0.537,0.3657142857142857,-0.008605702718098959,-6.844278948852541,0.4284540116786957,28.915809631347656,0.07205768161349826,-0.3296791500515408
2141,0.06186451382107205,0.29882820129394533,85.35279846191406,79.50180053710938,-4.871021270751953,109.65689849853516,-0.0002497355143229167,0.5326666666666666,0.36142857142857143,-0.009338103400336372,-6.4487825804443375,0.7360620498657227,31.552509307861328,0.06501108805338542,-0.32808799743652345
2142,0.06186451382107205,0.3187500762939453,85.33233642578125,79.62455749511719,-4.850563049316406,109.73873138427734,-0.0002497355143229167,0.5273333333333333,0.3585714285714286,-0.008544667561848959,-5.899483340332033,0.6591600179672241,33.837650299072266,0.06341976589626735,-0.32876993815104166
2143,0.06577076382107205,0.3187500762939453,85.39370727539062,80.36103820800781,-4.8096466064453125,109.73873138427734,-0.0002497355143229167,0.523,0.355,-0.007812266879611545,-5.49300064379883,0.3185940086841583,35.50756072998047,0.05591854519314236,-0.3283153110080295
2144,0.06577076382107205,0.3187500762939453,85.35279846191406,79.0312728881836,-4.564151763916016,109.67735290527344,-2.242194281684028e-05,0.5183333333333333,0.35214285714285715,-0.007659678988986545,-5.031588213989259,-0.3625379973144547,36.91379928588867,0.07023917304144965,-0.3249056074354384
2145,0.06967701382107205,0.3187500762939453,85.35279846191406,79.3995132446289,-4.3595733642578125,109.65689849853516,-2.242194281684028e-05,0.514,0.3485714285714286,-0.0070493486192491316,-4.625107424804689,-0.3845106535644547,40.25362014770508,0.06614761352539063,-0.3224052429199219
2146,0.06967701382107205,0.33867195129394534,85.35279846191406,79.542724609375,-4.4209442138671875,109.75918579101562,-0.0002497355143229167,0.5096666666666667,0.3467857142857143,-0.006713665856255426,-4.108765261718752,-0.3625379973144547,42.362979888916016,0.06455637613932291,-0.3242236667209201
2147,0.07358326382107205,0.33867195129394534,85.33233642578125,80.42241668701172,-4.564151763916016,109.63643646240234,-0.0002497355143229167,0.506,0.3442857142857143,-0.006652630700005426,-3.7791849547119156,-0.3845106535644547,43.68132781982422,0.0545546637641059,-0.3244509802924262
2148,0.06967701382107205,0.33867195129394534,85.33233642578125,79.4404296875,-4.523235321044922,109.51368713378906,-0.0002497355143229167,0.5026666666666667,0.3425,-0.0070493486192491316,-3.7352415495605484,-0.7250772886962906,44.38444900512695,0.06546563042534723,-0.3226324717203776
2149,0.07358326382107205,0.3585938262939453,85.35279846191406,78.92898559570312,-4.543693542480469,109.65689849853516,-2.242194281684028e-05,0.499,0.3410714285714286,-0.0072019365098741316,-3.6912962370605484,-0.6152159147949234,45.17546081542969,0.07137569851345486,-0.3244510226779514
2150,0.07358326382107205,0.3585938262939453,85.35279846191406,78.72439575195312,-4.543693542480469,109.53414916992188,-2.242194281684028e-05,0.496,0.34,-0.007262961069742838,-3.6473528319091812,-0.2416922026367203,45.79069137573242,0.07364891899956597,-0.3230871412489149
2151,0.06967701382107205,0.33867195129394534,85.35279846191406,79.58363342285156,-4.543693542480469,109.69781494140625,-0.0002497355143229167,0.49233333333333335,0.3385714285714286,-0.007812266879611545,-3.592423098632814,0.29662200808525085,46.054359436035156,0.06410183376736112,-0.32490564982096354
2152,0.06186451382107205,0.33867195129394534,85.39370727539062,80.64745330810547,-4.543693542480469,109.67735290527344,-2.242194281684028e-05,0.48966666666666664,0.3382142857142857,-0.008605702718098959,-3.603409426757814,0.32958000898361206,46.142250061035156,0.052736155192057294,-0.32467829386393227
2153,0.05795826382107205,0.33867195129394534,85.35279846191406,79.68592834472656,-4.523235321044922,109.65689849853516,-0.0002497355143229167,0.487,0.33714285714285713,-0.008483632405598959,-3.6253801756591812,0.14281800389289856,46.318031311035156,0.06296522352430556,-0.3242237091064453
2154,0.06967701382107205,0.33867195129394534,85.39370727539062,78.78577423095703,-4.543693542480469,109.67735290527344,0.0002048916286892361,0.483,0.3367857142857143,-0.0070798661973741316,-3.6473528319091812,0.5493000149726868,46.58169937133789,0.07342147827148438,-0.32467829386393227
2155,0.06967701382107205,0.3585938262939453,85.37325286865234,79.93142700195312,-4.564151763916016,109.65689849853516,-0.0002497355143229167,0.4796666666666667,0.3364285714285714,-0.006530560387505426,-3.8011576109619156,0.9777539968490601,46.58169937133789,0.060464731852213544,-0.32467833624945747
2156,0.05795826382107205,0.3585938262939453,85.35279846191406,80.25875091552734,-4.543693542480469,109.57506561279297,-0.00047704908582899306,0.477,0.3360714285714286,-0.0068967607286241316,-3.834114687988283,0.7250760197639465,46.66958999633789,0.056600528293185765,-0.3235417683919271
2157,0.06186451382107205,0.33867195129394534,85.37325286865234,79.9927978515625,-4.543693542480469,109.67735290527344,-2.242194281684028e-05,0.473,0.3357142857142857,-0.006500053405761719,-3.8011576109619156,0.08788800239562988,46.66958999633789,0.05978283352322049,-0.32467829386393227
2158,0.06967701382107205,0.33867195129394534,85.37325286865234,79.52226257324219,-4.564151763916016,109.65689849853516,-0.0002497355143229167,0.4693333333333333,0.33535714285714285,-0.005309899648030599,-3.7572122984619156,-0.13183273608398594,46.66958999633789,0.06501100328233507,-0.32467833624945747
2159,0.07358326382107205,0.33867195129394534,85.35279846191406,80.0337142944336,-4.502777099609375,109.69781494140625,-0.0002497355143229167,0.4653333333333333,0.33535714285714285,-0.005309899648030599,-3.7791849547119156,-0.3076082640380875,46.66958999633789,0.05910093519422743,-0.3244510226779514
2160,0.06967701382107205,0.3585938262939453,85.35279846191406,79.9518814086914,-4.318656921386719,109.82056427001953,-0.0002497355143229167,0.462,0.33535714285714285,-0.005828677283393012,-3.7791849547119156,-0.6371885710449234,46.66958999633789,0.06001018948025173,-0.3237691243489583
2161,0.06577076382107205,0.33867195129394534,85.37325286865234,79.9518814086914,-4.257282257080078,109.65689849853516,-2.242194281684028e-05,0.4583333333333333,0.335,-0.0069272783067491316,-3.570450442382814,-0.9338098936767594,46.318031311035156,0.06023746066623264,-0.3212686750623915
2162,0.06186451382107205,0.33867195129394534,85.37325286865234,79.21539306640625,-4.380031585693359,109.61598205566406,0.0002048916286892361,0.4543333333333333,0.33464285714285713,-0.007842784457736545,-3.3836885863037125,-1.0436712675781266,46.054359436035156,0.06842066446940104,-0.3221779293484158
2163,0.06577076382107205,0.3585938262939453,85.37325286865234,77.9879150390625,-4.461860656738281,109.67735290527344,0.0002048916286892361,0.451,0.3339285714285714,-0.008147949642605252,-3.3507315092773453,-0.6701475554199234,46.054359436035156,0.08205930921766492,-0.323769039577908
2164,0.06967701382107205,0.3585938262939453,85.35279846191406,77.90608215332031,-4.482318878173828,109.61598205566406,-2.242194281684028e-05,0.44766666666666666,0.3335714285714286,-0.007842784457736545,-3.504534380981447,0.5053560137748718,46.054359436035156,0.08274129231770834,-0.323314454820421
2165,0.05795826382107205,0.3585938262939453,85.78240966796875,80.27920532226562,-4.502777099609375,109.63643646240234,-2.242194281684028e-05,0.444,0.33321428571428574,-0.008483632405598959,-3.6693254881591812,1.5160679817199707,46.054359436035156,0.061146714952256945,-0.323769039577908
2166,0.03842701382107205,0.33867195129394534,85.98699188232422,81.26119232177734,-4.502777099609375,109.65689849853516,-0.0002497355143229167,0.441,0.33285714285714285,-0.009612751007080079,-3.88904442126465,0.9008520245552063,46.054359436035156,0.05250888400607639,-0.32399639553493925
2167,0.04623951382107205,0.33867195129394534,85.57783508300781,80.17691802978516,-4.502777099609375,109.45231628417969,-2.242194281684028e-05,0.437,0.33214285714285713,-0.008178467220730252,-4.141722338745119,-0.5053564482421891,46.054359436035156,0.06001018948025173,-0.3217232598198785
2168,0.07358326382107205,0.3585938262939453,85.557373046875,78.8880615234375,-4.339115142822266,109.39094543457031,0.0002048916286892361,0.433,0.3325,-0.005309899648030599,-4.240597384521486,-0.812964098999025,46.054359436035156,0.07410346137152778,-0.319222895304362
2169,0.07358326382107205,0.3585938262939453,85.557373046875,79.11309814453125,-4.298198699951172,109.57506561279297,-2.242194281684028e-05,0.42866666666666664,0.33214285714285713,-0.005706617567274305,-4.108765261718752,-0.13183273608398594,46.054359436035156,0.07160305447048611,-0.32081404791937934
2170,0.05405201382107205,0.3585938262939453,85.557373046875,79.82913208007812,-4.277740478515625,109.59552001953125,-2.242194281684028e-05,0.42533333333333334,0.33214285714285713,-0.008147949642605252,-3.91101707751465,0.0,46.054359436035156,0.06364712185329861,-0.32081400553385414
2171,0.04623951382107205,0.3585938262939453,85.53691101074219,78.8880615234375,-4.052700042724609,109.45231628417969,0.0002048916286892361,0.421,0.33214285714285713,-0.009277068244086372,-3.6912962370605484,-0.3735243254394547,45.966468811035156,0.07387610541449653,-0.31672240363226994
2172,0.05795826382107205,0.3585938262939453,85.557373046875,77.9879150390625,-3.9913291931152344,109.39094543457031,0.0002048916286892361,0.4176666666666667,0.3317857142857143,-0.008086914486355252,-3.3836885863037125,0.12084600329399109,45.966468811035156,0.08410508897569445,-0.31535860697428386
2173,0.06577076382107205,0.33867195129394534,85.557373046875,79.76776123046875,-4.134532928466797,109.57506561279297,-2.242194281684028e-05,0.41333333333333333,0.33107142857142857,-0.006622113121880426,-3.1090380125732437,1.0436700582504272,45.966468811035156,0.06432902018229167,-0.3189955393473307
2174,0.05014576382107205,0.3585938262939453,86.49844360351562,81.13844299316406,-4.093616485595703,109.4113998413086,-0.0002497355143229167,0.4103333333333333,0.33035714285714285,-0.007354513804117838,-3.0650946074218766,0.9667680263519287,45.966468811035156,0.05955556233723958,-0.31672240363226994
2175,0.03061451382107205,0.33867195129394534,85.80287170410156,80.4837875366211,-4.134532928466797,109.51368713378906,-2.242194281684028e-05,0.407,0.3292857142857143,-0.009185515509711372,-3.0431219511718766,-0.4284540587158219,44.03289031982422,0.05910093519422743,-0.3183135562472873
2176,0.03452076382107205,0.33867195129394534,85.63920593261719,78.23341369628906,-4.236824035644531,109.51368713378906,0.0004322052001953125,0.4036666666666667,0.32857142857142857,-0.009734810723198786,-3.0101648741455094,-1.3622652464599625,44.03289031982422,0.08228658040364584,-0.3194501241048177
2177,0.05014576382107205,0.33867195129394534,85.557373046875,77.51737976074219,-4.093616485595703,109.4318618774414,0.0004322052001953125,0.40066666666666667,0.32821428571428574,-0.008544667561848959,-3.0650946074218766,-0.845923083374025,44.03289031982422,0.08933325873480903,-0.3169497595893012
2178,0.05405201382107205,0.33867195129394534,85.5982894897461,78.00836944580078,-4.052700042724609,109.45231628417969,-2.242194281684028e-05,0.397,0.3275,-0.008361562093098959,-3.0321375303955094,0.35155200958251953,44.03289031982422,0.0843324449327257,-0.31672240363226994
2179,0.03452076382107205,0.3585938262939453,85.61874389648438,80.46333312988281,-3.9708709716796875,109.59552001953125,-2.242194281684028e-05,0.39366666666666666,0.3264285714285714,-0.009826363457573786,-2.9772058897705094,0.8019779920578003,44.03289031982422,0.057282341851128474,-0.3174043443467882
2180,0.02670826382107205,0.33867195129394534,85.61874389648438,79.9927978515625,-3.9299545288085938,109.53414916992188,-2.242194281684028e-05,0.39066666666666666,0.32571428571428573,-0.010528246561686197,-2.801430361816408,0.09887400269508362,44.03289031982422,0.06251051161024306,-0.316267818874783
2181,0.04233326382107205,0.33867195129394534,85.63920593261719,78.68348693847656,-3.66400146484375,109.45231628417969,0.0004322052001953125,0.38766666666666666,0.3246428571428571,-0.008910867902967665,-2.6256548338623062,-0.5492998533935562,44.03289031982422,0.0772857666015625,-0.3124035305447049
2182,0.06186451382107205,0.33867195129394534,85.61874389648438,79.74729919433594,-3.4185028076171875,109.4113998413086,-2.242194281684028e-05,0.384,0.32321428571428573,-0.006683148278130426,-2.4169203215332047,-0.3845106535644547,44.03289031982422,0.06523827446831597,-0.30922114054361977
2183,0.06186451382107205,0.33867195129394534,85.63920593261719,80.83157348632812,-3.520793914794922,109.53414916992188,-2.242194281684028e-05,0.38066666666666665,0.3217857142857143,-0.006683148278130426,-2.1202989989013687,-0.4504267149658219,43.85710906982422,0.053418138292100695,-0.3117215898301866
2184,0.05795826382107205,0.33867195129394534,85.63920593261719,80.36103820800781,-3.6230850219726562,109.49323272705078,-2.242194281684028e-05,0.37833333333333335,0.32107142857142856,-0.007568126254611545,-1.9445234709472672,-0.7909933500976578,43.85710906982422,0.058646308051215276,-0.3124035305447049
2185,0.05405201382107205,0.33867195129394534,85.65966796875,79.3995132446289,-3.6230850219726562,109.49323272705078,0.0004322052001953125,0.37533333333333335,0.3196428571428571,-0.008788797590467665,-1.9555078917236344,-1.0326849394531266,43.85710906982422,0.0695572747124566,-0.3124035305447049
2186,0.05795826382107205,0.33867195129394534,85.65966796875,78.21295166015625,-3.5821685791015625,109.4113998413086,0.0004322052001953125,0.37233333333333335,0.31857142857142856,-0.008941385481092665,-2.0873400145263687,-0.9008528166503922,43.85710906982422,0.08274129231770834,-0.3110396491156684
2187,0.06577076382107205,0.33867195129394534,85.63920593261719,78.35615539550781,-3.5617103576660156,109.4727783203125,0.0002048916286892361,0.36866666666666664,0.3171428571428571,-0.008239502376980252,-2.0873400145263687,-0.2746511870117203,43.85710906982422,0.08092278374565973,-0.31149431864420574
2188,0.06577076382107205,0.33867195129394534,85.63920593261719,79.21539306640625,-3.4389610290527344,109.55460357666016,0.0002048916286892361,0.36633333333333334,0.31642857142857145,-0.008300526936848959,-2.175228732177736,0.24169200658798218,43.85710906982422,0.07137569851345486,-0.31103960673014325
2189,0.05795826382107205,0.33867195129394534,85.63920593261719,80.13600158691406,-3.479877471923828,109.53414916992188,0.0002048916286892361,0.36333333333333334,0.3157142857142857,-0.008788797590467665,-2.230158465454103,0.1538040041923523,43.85710906982422,0.061146714952256945,-0.31126696268717446
2190,0.06186451382107205,0.33867195129394534,85.63920593261719,79.15402221679688,-3.357128143310547,109.39094543457031,0.0002048916286892361,0.36,0.315,-0.008056396908230252,-2.263117449829103,-0.3295809202880875,43.85710906982422,0.07205759684244792,-0.3083119286431207
2191,0.07358326382107205,0.33867195129394534,85.63920593261719,79.17447662353516,-3.1730079650878906,109.55460357666016,0.0004322052001953125,0.35633333333333334,0.31392857142857145,-0.007354513804117838,-2.252131121704103,-0.4174677305908219,43.85710906982422,0.07183032565646702,-0.3080845726860894
2192,0.07748951382107205,0.33867195129394534,85.63920593261719,78.90852355957031,-2.9684295654296875,109.4318618774414,0.0002048916286892361,0.353,0.3132142857142857,-0.006835736168755426,-2.0873400145263687,-0.14281906420898594,43.85710906982422,0.07478535970052083,-0.3044476826985677
2193,0.07748951382107205,0.33867195129394534,85.61874389648438,79.29722595214844,-2.866138458251953,109.3704833984375,0.0002048916286892361,0.35,0.31285714285714283,-0.0069883134629991316,-1.8895918303222672,0.3076080083847046,43.85710906982422,0.0702390882703993,-0.30262913174099393
2194,0.06967701382107205,0.3187500762939453,85.61874389648438,79.68592834472656,-2.6615562438964844,109.4113998413086,0.0002048916286892361,0.3463333333333333,0.3125,-0.007720714145236545,-1.6479002409667984,0.4614120125770569,43.85710906982422,0.06592017279730902,-0.3008106231689453
2195,0.06186451382107205,0.3187500762939453,85.61874389648438,79.46089172363281,-2.6001853942871094,109.49323272705078,0.0002048916286892361,0.3433333333333333,0.3117857142857143,-0.008056396908230252,-1.3293062620849625,0.5273280143737793,43.85710906982422,0.06842057969835069,-0.3010379791259766
2196,0.05795826382107205,0.33867195129394534,85.61874389648438,79.72684478759766,-2.8047637939453125,109.49323272705078,0.0002048916286892361,0.3403333333333333,0.31107142857142855,-0.007720714145236545,-1.131558077880861,0.5383139848709106,43.85710906982422,0.06546554565429688,-0.30331107245551214
2197,0.05405201382107205,0.33867195129394534,85.63920593261719,79.37905883789062,-3.11163330078125,109.39094543457031,0.0002048916286892361,0.3373333333333333,0.30964285714285716,-0.007995361751980252,-1.2633902006835953,0.2526780068874359,43.85710906982422,0.06955718994140625,-0.3055842081705729
2198,0.04623951382107205,0.33867195129394534,85.61874389648438,79.68592834472656,-3.0707168579101562,109.39094543457031,-2.242194281684028e-05,0.334,0.30892857142857144,-0.008758280012342665,-1.6149431639404312,0.0,43.85710906982422,0.06592017279730902,-0.30512958102756077
2199,0.04623951382107205,0.33867195129394534,85.63920593261719,78.72439575195312,-2.8865966796875,109.35002899169922,0.0004322052001953125,0.33066666666666666,0.30857142857142855,-0.008453114827473959,-1.7138163023681656,-0.2416922026367203,43.85710906982422,0.07683122422960069,-0.3026291741265191
2200,0.05795826382107205,0.33867195129394534,85.61874389648438,78.76531982421875,-2.8865966796875,109.4113998413086,-2.242194281684028e-05,0.328,0.3082142857142857,-0.007659678988986545,-1.5929705076904312,0.373524010181427,43.85710906982422,0.07614915635850694,-0.30331107245551214
2201,0.04623951382107205,0.3187500762939453,85.61874389648438,80.44287109375,-2.5388107299804688,109.49323272705078,-2.242194281684028e-05,0.3253333333333333,0.3075,-0.008605702718098959,-1.549027102539064,0.8788800239562988,43.85710906982422,0.057509697808159725,-0.30035603841145836
2202,0.03061451382107205,0.33867195129394534,85.63920593261719,80.81111145019531,-2.2319412231445312,109.39094543457031,-2.242194281684028e-05,0.322,0.3067857142857143,-0.009765328301323786,-1.3293062620849625,0.23070600628852844,43.85710906982422,0.053645494249131946,-0.29580985175238717
2203,0.03452076382107205,0.33867195129394534,85.61874389648438,78.56073760986328,-2.334228515625,109.45231628417969,0.0006595187717013889,0.319,0.30607142857142855,-0.009185515509711372,-0.8898664885253922,-0.8678938322753922,43.85710906982422,0.07842229207356771,-0.2976282755533854
2204,0.05795826382107205,0.33867195129394534,85.18913269042969,77.4764633178711,-2.4569778442382812,109.4727783203125,0.0004322052001953125,0.31533333333333335,0.3053571428571429,-0.0071409013536241316,-0.6152159147949234,-0.801977770874025,43.85710906982422,0.08569632636176215,-0.29921951293945315
2205,0.06577076382107205,0.3187500762939453,85.53691101074219,79.33814239501953,-2.722930908203125,109.51368713378906,0.0002048916286892361,0.31333333333333335,0.305,-0.006622113121880426,-0.3295809202880875,0.4064820110797882,43.85710906982422,0.06887520684136285,-0.30262908935546873
2206,0.04623951382107205,0.3187500762939453,86.13019561767578,80.9543228149414,-2.8047637939453125,109.45231628417969,-2.242194281684028e-05,0.311,0.30428571428571427,-0.008636209699842665,-0.5932451658935562,0.7250760197639465,44.99967956542969,0.057509697808159725,-0.3028564453125
2207,0.03061451382107205,0.3187500762939453,85.74149322509766,81.11798858642578,-2.722930908203125,109.45231628417969,0.0002048916286892361,0.30766666666666664,0.30464285714285716,-0.01025359895494249,-1.0107122832031266,-0.3954969816894547,45.17546081542969,0.05137227376302083,-0.3019471910264757
2208,0.03452076382107205,0.3187500762939453,85.72103881835938,78.8880615234375,-2.641101837158203,109.3295669555664,0.0006595187717013889,0.30533333333333335,0.30464285714285716,-0.01013152864244249,-1.0326849394531266,-1.4831110411376969,45.17546081542969,0.07592196994357639,-0.2996740976969401
2209,0.05014576382107205,0.3187500762939453,85.70057678222656,78.49935913085938,-2.8047637939453125,109.28865051269531,0.0006595187717013889,0.302,0.305,-0.009368610382080079,-1.1095873289794937,-1.0656420164794937,45.17546081542969,0.08001352945963541,-0.3010379367404514
2210,0.04623951382107205,0.29882820129394533,85.68012237548828,79.58363342285156,-2.7843055725097656,109.30911254882812,0.0002048916286892361,0.299,0.3053571428571429,-0.010985999637179904,-1.3952223234863297,-0.20873512561035312,45.17546081542969,0.06773876614040798,-0.3010379791259766
2211,0.03061451382107205,0.3187500762939453,85.70057678222656,79.33814239501953,-2.252399444580078,109.35002899169922,0.0004322052001953125,0.296,0.30642857142857144,-0.012572860717773438,-1.2194467955322281,-0.05493034655761875,45.17546081542969,0.07069371541341146,-0.2955825381808811
2212,0.03061451382107205,0.3187500762939453,85.68012237548828,79.60409545898438,-2.497894287109375,109.45231628417969,0.0004322052001953125,0.29333333333333333,0.30642857142857144,-0.012450801001654731,-0.7909933500976578,-0.2307058745117203,45.17546081542969,0.06751141018337674,-0.299446784125434
2213,0.04233326382107205,0.3187500762939453,85.68012237548828,79.29722595214844,-2.722930908203125,109.3704833984375,0.0004322052001953125,0.29,0.3067857142857143,-0.010955482059054904,-0.6811319761962906,-0.2746511870117203,45.17546081542969,0.0709210713704427,-0.3010379367404514
2214,0.05405201382107205,0.3187500762939453,85.70057678222656,79.41996765136719,-2.8047637939453125,109.49323272705078,0.0004322052001953125,0.28633333333333333,0.30714285714285716,-0.009765328301323786,-0.801977770874025,-0.5932451658935562,45.17546081542969,0.0697845458984375,-0.30331107245551214
2215,0.06577076382107205,0.33867195129394534,85.68012237548828,78.15158081054688,-2.7638473510742188,109.3704833984375,0.0006595187717013889,0.2833333333333333,0.3075,-0.008636209699842665,-1.0876146727294937,-0.4064833098144547,45.17546081542969,0.0836504618326823,-0.3014925638834635
2216,0.06577076382107205,0.3187500762939453,85.65966796875,79.09264373779297,-2.8865966796875,109.35002899169922,0.0002048916286892361,0.2803333333333333,0.3078571428571429,-0.009063445197211372,-1.4831110411376969,0.5493000149726868,45.17546081542969,0.07296693589952256,-0.3026291741265191
2217,0.04233326382107205,0.33867195129394534,85.68012237548828,80.13600158691406,-2.8865966796875,109.3295669555664,0.0002048916286892361,0.27666666666666667,0.3082142857142857,-0.011077552371554904,-1.9664942198486344,0.7140899896621704,45.17546081542969,0.061601342095269095,-0.30240181816948786
2218,0.03452076382107205,0.33867195129394534,85.65966796875,80.34058380126953,-2.866138458251953,109.3295669555664,0.0002048916286892361,0.27366666666666667,0.30857142857142855,-0.01123012966579861,-2.2741018706054703,0.14281800389289856,45.17546081542969,0.05910093519422743,-0.3021745045979818
2219,0.05405201382107205,0.3187500762939453,85.70057678222656,78.84715270996094,-2.8252220153808594,109.26819610595703,0.0006595187717013889,0.2703333333333333,0.30892857142857144,-0.009704293145073786,-2.4498793059082047,-0.5822588377685562,45.17546081542969,0.07614915635850694,-0.3010379791259766
2220,0.06967701382107205,0.3187500762939453,85.68012237548828,78.13111877441406,-2.8252220153808594,109.30911254882812,0.0006595187717013889,0.26666666666666666,0.31035714285714283,-0.008025879330105252,-2.4059339934082047,-0.2636648588867203,45.17546081542969,0.08387781778971354,-0.3014926062689887
2221,0.07358326382107205,0.3187500762939453,85.68012237548828,79.33814239501953,-2.743389129638672,109.3295669555664,0.0004322052001953125,0.263,0.31107142857142855,-0.007629161410861545,-2.208185809204103,0.6811320185661316,45.17546081542969,0.07046644422743055,-0.3008106231689453
2222,0.04623951382107205,0.3187500762939453,85.68012237548828,80.56562042236328,-2.743389129638672,109.30911254882812,0.0004322052001953125,0.25866666666666666,0.3117857142857143,-0.009643268585205079,-1.8895918303222672,0.6701459884643555,45.17546081542969,0.05682779947916667,-0.30058335198296443
2223,0.03842701382107205,0.3187500762939453,85.65966796875,79.91096496582031,-2.8252220153808594,109.35002899169922,0.0004322052001953125,0.255,0.31214285714285717,-0.01034515168931749,-1.549027102539064,0.10986000299453735,45.17546081542969,0.06387447781032986,-0.30194723341200086
2224,0.03842701382107205,0.3187500762939453,85.68012237548828,79.33814239501953,-2.8047637939453125,109.39094543457031,0.0004322052001953125,0.25166666666666665,0.3125,-0.010406176249186197,-1.516068118164064,-0.3954969816894547,45.17546081542969,0.07046644422743055,-0.30217454698350693
2225,0.05014576382107205,0.3187500762939453,85.68012237548828,78.82669067382812,-2.7843055725097656,109.3704833984375,0.0006595187717013889,0.24866666666666667,0.3125,-0.009521198272705079,-1.7138163023681656,-0.4174677305908219,45.17546081542969,0.07614924112955729,-0.30171987745496964
2226,0.06577076382107205,0.3187500762939453,85.68012237548828,78.68348693847656,-2.8252220153808594,109.3704833984375,0.0004322052001953125,0.245,0.31285714285714283,-0.007629161410861545,-1.8236757689209,0.26366400718688965,45.17546081542969,0.07774039374457466,-0.3021745045979818
2227,0.05795826382107205,0.3187500762939453,85.63920593261719,80.05416870117188,-2.8456802368164062,109.35002899169922,0.0002048916286892361,0.24166666666666667,0.31285714285714283,-0.007720714145236545,-1.8676210814209,0.7031040191650391,45.17546081542969,0.06205596923828125,-0.30217454698350693
2228,0.05014576382107205,0.3187500762939453,85.65966796875,80.36103820800781,-2.8252220153808594,109.26819610595703,0.0002048916286892361,0.23833333333333334,0.31285714285714283,-0.008392079671223959,-1.7467752867431656,0.5493000149726868,45.17546081542969,0.05887366400824653,-0.3010379791259766
2229,0.05014576382107205,0.29882820129394533,85.68012237548828,79.4813461303711,-2.8456802368164062,109.30911254882812,0.0004322052001953125,0.235,0.31285714285714283,-0.008117432064480252,-1.7138163023681656,0.06591600179672241,45.17546081542969,0.0688752916124132,-0.3017199198404948
2230,0.06186451382107205,0.3187500762939453,85.68012237548828,79.17447662353516,-2.8252220153808594,109.24773406982422,0.0004322052001953125,0.232,0.31285714285714283,-0.006622113121880426,-1.7467752867431656,-0.15380539233398594,45.17546081542969,0.07228495279947916,-0.3008106231689453
2231,0.06577076382107205,0.3187500762939453,85.65966796875,79.542724609375,-2.8252220153808594,109.26819610595703,0.0004322052001953125,0.228,0.3132142857142857,-0.005920230017768012,-1.7028299742431656,-0.16478981311035312,45.17546081542969,0.0679660373263889,-0.3010379791259766
2232,0.06186451382107205,0.3187500762939453,85.65966796875,79.93142700195312,-2.8456802368164062,109.28865051269531,0.0004322052001953125,0.22533333333333333,0.3132142857142857,-0.006408500671386719,-1.6588865690917984,-0.3954969816894547,45.17546081542969,0.06364712185329861,-0.3014925638834635
2233,0.06186451382107205,0.29882820129394533,85.68012237548828,79.70639038085938,-2.8456802368164062,109.30911254882812,0.0004322052001953125,0.222,0.3132142857142857,-0.007293478647867838,-1.6918455534667984,-0.7800070219726578,45.17546081542969,0.06637479994032118,-0.3017199198404948
2234,0.06577076382107205,0.29882820129394533,85.65966796875,79.15402221679688,-2.8456802368164062,109.24773406982422,0.0004322052001953125,0.21833333333333332,0.31357142857142856,-0.007476584116617838,-1.7907186918945328,-0.7360617094726578,45.17546081542969,0.07228495279947916,-0.3010379367404514
2235,0.07358326382107205,0.29882820129394533,85.68012237548828,79.25630950927734,-2.8456802368164062,109.20681762695312,0.0006595187717013889,0.21533333333333332,0.31357142857142856,-0.0070188310411241316,-1.8456484251709,-0.2526785307617203,45.17546081542969,0.07137569851345486,-0.30058330959743923
2236,0.07748951382107205,0.29882820129394533,85.65966796875,79.35859680175781,-2.7638473510742188,109.18636322021484,0.0002048916286892361,0.21166666666666667,0.31392857142857145,-0.006591595543755426,-1.6588865690917984,0.17577600479125977,45.17546081542969,0.07001190185546875,-0.299446784125434
2237,0.06967701382107205,0.29882820129394533,85.68012237548828,79.72684478759766,-2.8456802368164062,109.30911254882812,0.0006595187717013889,0.20866666666666667,0.31392857142857145,-0.006652630700005426,-1.4611383848876969,0.17577600479125977,45.17546081542969,0.06614752875434028,-0.3017199198404948
2238,0.06577076382107205,0.29882820129394533,85.68012237548828,79.60409545898438,-2.8252220153808594,109.3295669555664,0.0004322052001953125,0.20566666666666666,0.3142857142857143,-0.0069883134629991316,-1.6918455534667984,0.08788800239562988,45.17546081542969,0.06751141018337674,-0.30171987745496964
2239,0.06577076382107205,0.3187500762939453,85.68012237548828,79.68592834472656,-2.8456802368164062,109.3704833984375,0.0006595187717013889,0.202,0.3142857142857143,-0.0068967607286241316,-1.9225508146972672,-0.07690300280761875,45.17546081542969,0.06660215589735242,-0.30240181816948786
2240,0.06577076382107205,0.3187500762939453,85.68012237548828,80.23829650878906,-2.8252220153808594,109.26819610595703,0.0006595187717013889,0.199,0.3142857142857143,-0.0068967607286241316,-1.8676210814209,-0.2856375151367203,45.17546081542969,0.060464731852213544,-0.3010379791259766
2241,0.07358326382107205,0.29882820129394533,85.65966796875,80.0950927734375,-2.8456802368164062,109.28865051269531,0.0004322052001953125,0.19633333333333333,0.31464285714285717,-0.006439018249511719,-1.6588865690917984,-0.3845106535644547,45.17546081542969,0.06182861328125,-0.3014925638834635
2242,0.06967701382107205,0.29882820129394533,85.65966796875,79.80867004394531,-2.8456802368164062,109.14544677734375,0.0004322052001953125,0.193,0.31464285714285717,-0.006805218590630426,-1.516068118164064,-0.6481748991699234,45.17546081542969,0.06501108805338542,-0.29990141126844616
2243,0.07358326382107205,0.29882820129394533,85.65966796875,80.01325988769531,-2.8865966796875,109.14544677734375,0.0004322052001953125,0.18933333333333333,0.3142857142857143,-0.0070493486192491316,-1.6479002409667984,-0.9777552061767594,45.17546081542969,0.0627378675672743,-0.30035603841145836
2244,0.08139576382107205,0.29882820129394533,85.68012237548828,79.3995132446289,-2.8456802368164062,109.30911254882812,0.0006595187717013889,0.18666666666666668,0.31464285714285717,-0.007262961069742838,-1.8456484251709,-1.142544406005861,45.17546081542969,0.0697845458984375,-0.3017199198404948
2245,0.08530201382107205,0.29882820129394533,85.68012237548828,79.46089172363281,-2.8865966796875,41.900001525878906,0.0006595187717013889,0.18366666666666667,0.315,-0.007934326595730252,-1.9225508146972672,-1.0326849394531266,45.17546081542969,0.0691025627983941,0.4468155754937066
2246,0.08530201382107205,0.2789063262939453,85.65966796875,78.56073760986328,-2.866138458251953,109.16590118408203,0.0006595187717013889,0.18033333333333335,0.31535714285714284,-0.008697244856092665,-2.0873400145263687,-0.9667688780517594,45.17546081542969,0.07887700398763021,-0.30035599602593316
2247,0.08139576382107205,0.29882820129394533,85.68012237548828,79.23585510253906,-2.8252220153808594,109.18636322021484,0.0008868323432074653,0.177,0.31535714285714284,-0.009643268585205079,-2.241144793579103,-0.8678938322753922,45.17546081542969,0.07160296969943576,-0.30012872483995223
2248,0.08530201382107205,0.2789063262939453,85.68012237548828,78.4789047241211,-2.8252220153808594,109.16590118408203,0.0008868323432074653,0.17333333333333334,0.31607142857142856,-0.01022308137681749,-2.208185809204103,-0.4284540587158219,45.17546081542969,0.08001352945963541,-0.299901368882921
2249,0.07748951382107205,0.2789063262939453,85.65966796875,79.66546630859375,-2.8456802368164062,109.14544677734375,0.0006595187717013889,0.17,0.31642857142857145,-0.010924964480929904,-2.164242404052736,0.2746500074863434,45.17546081542969,0.06660224066840278,-0.29990141126844616
2250,0.06967701382107205,0.2789063262939453,85.65966796875,79.87004852294922,-2.866138458251953,109.18636322021484,0.0004322052001953125,0.166,0.3171428571428571,-0.01138271755642361,-2.263117449829103,0.516342043876648,45.17546081542969,0.06432910495334201,-0.30058335198296443
2251,0.06186451382107205,0.2789063262939453,85.68012237548828,79.78821563720703,-2.8456802368164062,109.12499237060547,0.0006595187717013889,0.16233333333333333,0.3175,-0.011687882741292318,-2.197201388427736,0.4723980128765106,45.17546081542969,0.06546563042534723,-0.2996741400824653
2252,0.06577076382107205,0.25898443222045897,85.65966796875,79.82913208007812,-2.8456802368164062,109.20681762695312,0.0004322052001953125,0.158,0.3182142857142857,-0.01116909450954861,-1.9664942198486344,0.4614120125770569,45.17546081542969,0.06478373209635417,-0.30058330959743923
2253,0.06186451382107205,0.2789063262939453,85.68012237548828,79.11309814453125,-2.8456802368164062,109.22727966308594,0.0006595187717013889,0.155,0.31857142857142856,-0.010833411746554904,-1.8786074095459,0.5822579860687256,45.17546081542969,0.07296693589952256,-0.3008106655544705
2254,0.06967701382107205,0.2789063262939453,85.68012237548828,79.29722595214844,-2.8252220153808594,109.16590118408203,0.0006595187717013889,0.152,0.3192857142857143,-0.009704293145073786,-1.9005781584472672,0.7580339908599854,45.17546081542969,0.0709210713704427,-0.299901368882921
2255,0.07358326382107205,0.25898443222045897,85.65966796875,79.82913208007812,-2.8456802368164062,109.20681762695312,0.0006595187717013889,0.14866666666666667,0.3192857142857143,-0.008666727277967665,-1.7687460356445328,0.8129640221595764,45.17546081542969,0.06478373209635417,-0.30058330959743923
2256,0.07748951382107205,0.25898443222045897,85.68012237548828,79.82913208007812,-2.8456802368164062,109.10453033447266,0.0006595187717013889,0.146,0.3192857142857143,-0.007964844173855252,-1.6039568358154312,0.45042601227760315,45.17546081542969,0.06501100328233507,-0.299446784125434
2257,0.06967701382107205,0.2789063262939453,85.68012237548828,79.80867004394531,-2.8456802368164062,109.14544677734375,0.0006595187717013889,0.14266666666666666,0.3196428571428571,-0.007964844173855252,-1.560013430664064,-0.07690300280761875,45.17546081542969,0.06523835923936631,-0.29990141126844616
2258,0.08139576382107205,0.25898443222045897,85.65966796875,78.70394134521484,-2.8456802368164062,109.08407592773438,0.0006595187717013889,0.13966666666666666,0.3196428571428571,-0.007385031382242838,-1.527054446289064,-0.2416922026367203,45.17546081542969,0.07728585137261285,-0.29921951293945315
2259,0.07358326382107205,0.25898443222045897,85.68012237548828,79.66546630859375,-2.8865966796875,108.94086456298828,0.0008868323432074653,0.13633333333333333,0.3196428571428571,-0.008392079671223959,-1.6698728972167984,-0.2526785307617203,45.17546081542969,0.06682951185438368,-0.2980829026963976
2260,0.07358326382107205,0.25898443222045897,85.68012237548828,78.41752624511719,-2.8252220153808594,108.98178100585938,0.0008868323432074653,0.13333333333333333,0.3192857142857143,-0.008270019955105252,-1.8786074095459,-0.2307058745117203,45.17546081542969,0.08069551255967881,-0.2978555891248915
2261,0.08920826382107205,0.25898443222045897,85.68012237548828,79.05172729492188,-2.8456802368164062,108.92041015625,0.0008868323432074653,0.13,0.3196428571428571,-0.007354513804117838,-1.8236757689209,0.02197200059890747,45.17546081542969,0.07364883422851562,-0.2974010043674045
2262,0.09702076382107205,0.25898443222045897,85.65966796875,41.900001525878906,-2.8456802368164062,109.02269744873047,0.0008868323432074653,0.127,0.32,-0.006469535827636719,-1.7248026304931656,0.05493000149726868,45.17546081542969,0.486218516031901,-0.29853752983940973
2263,0.08920826382107205,0.25898443222045897,85.68012237548828,80.70883178710938,-2.866138458251953,108.92041015625,0.0004322052001953125,0.12366666666666666,0.32,-0.006347465515136719,-1.5929705076904312,0.4614120125770569,45.17546081542969,0.055236562093098955,-0.2976283179389106
2264,0.07358326382107205,0.25898443222045897,85.63920593261719,80.38150024414062,-2.866138458251953,109.02269744873047,0.0004322052001953125,0.121,0.32,-0.007690196567111545,-1.4171949797363297,0.5053560137748718,45.17546081542969,0.058418952094184025,-0.2987648434109158
2265,0.08139576382107205,0.239062557220459,85.65966796875,80.38150024414062,-2.866138458251953,108.98178100585938,0.0006595187717013889,0.11766666666666667,0.32,-0.0072019365098741316,-1.4611383848876969,0.02197200059890747,45.17546081542969,0.058646308051215276,-0.29831021626790366
2266,0.08920826382107205,0.219140682220459,85.65966796875,79.25630950927734,-2.8456802368164062,109.06361389160156,0.0006595187717013889,0.115,0.32,-0.0070798661973741316,-1.4721247130126969,-0.6152159147949234,45.17546081542969,0.07114842732747396,-0.2989921569824219
2267,0.08530201382107205,0.239062557220459,85.65966796875,79.41996765136719,-2.8456802368164062,109.06361389160156,0.0006595187717013889,0.112,0.32,-0.007659678988986545,-1.4721247130126969,-0.6921183043212906,45.17546081542969,0.0693300035264757,-0.2989921569824219
2268,0.08530201382107205,0.239062557220459,85.65966796875,41.900001525878906,-2.8456802368164062,109.04315948486328,0.0006595187717013889,0.10833333333333334,0.32035714285714284,-0.008331044514973959,-1.6149431639404312,-0.7360617094726578,45.17546081542969,0.486218516031901,-0.29876488579644095
2269,0.10092701382107205,0.239062557220459,85.68012237548828,79.56317901611328,-2.8456802368164062,109.00224304199219,0.0008868323432074653,0.106,0.32071428571428573,-0.007293478647867838,-1.7028299742431656,-0.6481748991699234,45.17546081542969,0.0679660373263889,-0.2983102586534288
2270,0.11655201382107205,0.219140682220459,85.65966796875,79.72684478759766,-2.866138458251953,109.02269744873047,0.0006595187717013889,0.10233333333333333,0.32071428571428573,-0.0069883134629991316,-1.7138163023681656,-0.18676246936035312,45.17546081542969,0.06592025756835937,-0.2987648434109158
2271,0.11264576382107205,0.219140682220459,85.65966796875,78.29478454589844,-2.8456802368164062,109.04315948486328,0.0008868323432074653,0.09933333333333333,0.32107142857142856,-0.008086914486355252,-1.527054446289064,-0.3625379973144547,45.17546081542969,0.08183203803168403,-0.29876488579644095
2272,0.10092701382107205,0.239062557220459,85.68012237548828,78.60165405273438,-2.8047637939453125,108.89994812011719,0.0011141459147135417,0.096,0.32142857142857145,-0.008208984798855252,-1.538040774414064,-0.2526785307617203,45.17546081542969,0.07864964803059896,-0.2967190212673611
2273,0.09702076382107205,0.239062557220459,85.65966796875,80.0337142944336,-2.8252220153808594,108.9613265991211,0.0011141459147135417,0.093,0.3217857142857143,-0.008666727277967665,-1.6698728972167984,0.14281800389289856,45.17546081542969,0.0625105963812934,-0.2976283179389106
2274,0.10092701382107205,0.219140682220459,85.65966796875,79.9927978515625,-2.866138458251953,109.04315948486328,0.0006595187717013889,0.08933333333333333,0.3217857142857143,-0.008270019955105252,-1.8126913481445328,0.6921180486679077,45.17546081542969,0.06296522352430556,-0.2989921993679471
2275,0.10483326382107205,0.219140682220459,85.65966796875,79.84959411621094,-2.8456802368164062,109.04315948486328,0.0006595187717013889,0.086,0.3221428571428571,-0.007812266879611545,-1.7138163023681656,0.6481740474700928,45.17546081542969,0.06455637613932291,-0.29876488579644095
2276,0.10483326382107205,0.219140682220459,85.65966796875,79.0312728881836,-2.866138458251953,109.08407592773438,0.0006595187717013889,0.08233333333333333,0.3225,-0.006744183434380426,-1.527054446289064,0.2746500074863434,45.17546081542969,0.07364883422851562,-0.2994468265109592
2277,0.09702076382107205,0.219140682220459,85.68012237548828,79.37905883789062,-2.8252220153808594,109.04315948486328,0.0008868323432074653,0.07933333333333334,0.32285714285714284,-0.007232443491617838,-1.6588865690917984,0.26366400718688965,45.17546081542969,0.0700118170844184,-0.2985375722249349
2278,0.10873951382107205,0.19921878814697266,85.68012237548828,78.41752624511719,-2.702472686767578,109.00224304199219,0.0011141459147135417,0.075,0.32321428571428573,-0.0071103837754991316,-1.6479002409667984,-0.09887375170898594,45.17546081542969,0.08069551255967881,-0.2967190636528863
2279,0.11655201382107205,0.19921878814697266,85.65966796875,79.11309814453125,-2.8456802368164062,108.94086456298828,0.0008868323432074653,0.072,0.32357142857142857,-0.006622113121880426,-1.3732515745849625,0.14281800389289856,45.17546081542969,0.07273966471354167,-0.2976282755533854
2280,0.11655201382107205,0.19921878814697266,85.68012237548828,79.80867004394531,-2.8456802368164062,109.02269744873047,0.0011141459147135417,0.069,0.3242857142857143,-0.006622113121880426,-1.0876146727294937,0.12084600329399109,45.17546081542969,0.06523835923936631,-0.29853752983940973
2281,0.13998951382107205,0.19921878814697266,85.63920593261719,41.900001525878906,-2.8456802368164062,109.00224304199219,0.0004322052001953125,0.06466666666666666,0.3242857142857143,-0.005065769619411893,-1.2963491850585953,0.4284540116786957,45.17546081542969,0.4859911600748698,-0.2983102586534288
2282,0.15952076382107205,0.15937503814697265,85.65966796875,79.84959411621094,-2.8456802368164062,108.94086456298828,0.0006595187717013889,0.06233333333333333,0.325,-0.005004734463161893,-1.4831110411376969,0.35155200958251953,45.17546081542969,0.06455637613932291,-0.2976282755533854
2283,0.14780201382107205,0.17929691314697266,85.65966796875,80.11553955078125,-2.8456802368164062,109.02269744873047,0.0006595187717013889,0.058666666666666666,0.32535714285714284,-0.004638534122043186,-1.6588865690917984,-0.4394403868408219,45.17546081542969,0.06160142686631945,-0.29853752983940973
2284,0.16733326382107205,0.19921878814697266,85.65966796875,79.93142700195312,-2.8456802368164062,108.92041015625,0.0006595187717013889,0.055,0.32571428571428573,-0.0028075324164496527,-1.9225508146972672,-0.6262022429199234,45.17546081542969,0.06364712185329861,-0.2974010043674045
2285,0.15561451382107205,0.219140682220459,85.68012237548828,79.70639038085938,-2.702472686767578,108.9613265991211,0.0008868323432074653,0.052,0.32607142857142857,-0.0025939093695746527,-1.7797323637695328,-0.7250772886962906,45.17546081542969,0.06637479994032118,-0.2962644365098741
2286,0.17123951382107205,0.19921878814697266,85.68012237548828,77.41508483886719,-2.6615562438964844,108.8794937133789,0.001341459486219618,0.04833333333333333,0.3264285714285714,-0.0028685675726996527,-1.5929705076904312,-0.9997259550781266,45.17546081542969,0.09183375040690105,-0.2949005550808377
2287,0.16342701382107205,0.19921878814697266,85.0459213256836,77.37417602539062,-2.7843055725097656,108.94086456298828,0.0011141459147135417,0.04566666666666667,0.3267857142857143,-0.004180781046549479,-1.2743765288085953,-0.812964098999025,45.17546081542969,0.08524161444769965,-0.2969463348388672
2288,0.16342701382107205,0.19921878814697266,84.96409606933594,80.85203552246094,-2.8252220153808594,108.98178100585938,0.0011141459147135417,0.042333333333333334,0.3267857142857143,-0.004913181728786893,-1.1095873289794937,-0.09887375170898594,45.17546081542969,0.045689561631944445,-0.2978555891248915
2289,0.16733326382107205,0.19921878814697266,85.70057678222656,81.05661010742188,-2.8865966796875,109.00224304199219,0.0008868323432074653,0.03833333333333333,0.3267857142857143,-0.004211298624674479,-0.9887415343017594,0.48338401317596436,45.17546081542969,0.05159962972005208,-0.29876488579644095
2290,0.17514576382107205,0.17929691314697266,86.0074462890625,80.11553955078125,-2.866138458251953,109.02269744873047,0.0006595187717013889,0.035666666666666666,0.3267857142857143,-0.004882664150661893,-1.2963491850585953,0.5822579860687256,45.17546081542969,0.06546563042534723,-0.2987648434109158
2291,0.14780201382107205,0.17929691314697266,85.88470458984375,77.90608215332031,-2.8047637939453125,108.92041015625,0.0006595187717013889,0.03333333333333333,0.3264285714285714,-0.006011782752143012,-1.2194467955322281,0.0,45.17546081542969,0.08865136040581598,-0.2969463772243924
2292,0.18686451382107205,0.15937503814697265,84.84133911132812,78.11065673828125,-2.866138458251953,108.92041015625,0.001341459486219618,0.030333333333333334,0.3271428571428571,-0.004913181728786893,-0.8788801604003922,-0.2636648588867203,45.17546081542969,0.07478535970052083,-0.2976283179389106
2293,0.18686451382107205,0.15937503814697265,85.39370727539062,76.76043701171875,-2.8456802368164062,108.9613265991211,0.0011141459147135417,0.027,0.3264285714285714,-0.005035252041286893,-1.2414194517822281,0.19774800539016724,45.17546081542969,0.09592522515190972,-0.29785563151041666
2294,0.18686451382107205,0.15937503814697265,83.61386108398438,78.78577423095703,-3.5412521362304688,108.92041015625,0.0011141459147135417,0.024,0.32607142857142857,-0.004394393497043186,-1.2084604674072281,0.2197200059890747,45.17546081542969,0.0536454094780816,-0.30512958102756077
2295,0.20248951382107205,0.17929691314697266,86.39614868164062,80.72928619384766,-3.1525497436523438,108.89994812011719,0.0008868323432074653,0.02,0.32535714285714284,-0.0025634023878309464,-1.2633902006835953,1.5490260124206543,45.17546081542969,0.06296513875325521,-0.30058330959743923
2296,0.15952076382107205,0.15937503814697265,86.90760040283203,79.19493103027344,-3.0707168579101562,108.73628997802734,0.0008868323432074653,0.017333333333333333,0.3242857142857143,-0.004272333780924479,-1.3183199339599625,1.9335360527038574,45.17546081542969,0.08569632636176215,-0.29785563151041666
2297,0.13998951382107205,0.15937503814697265,86.53935241699219,76.8831787109375,-3.0707168579101562,108.77720642089844,0.0006595187717013889,0.013,0.32392857142857145,-0.004089228312174479,-0.856909411499025,0.38451001048088074,45.17546081542969,0.1072908189561632,-0.2983102586534288
2298,0.13608326382107205,0.19921878814697266,88.85111236572266,80.52470397949219,-2.9684295654296875,108.83857727050781,0.0008868323432074653,0.009666666666666667,0.3225,-0.0025328742133246527,-0.2746511870117203,0.36253800988197327,45.17546081542969,0.0925156487358941,-0.29785563151041666
2299,0.15170826382107205,0.15937503814697265,86.90760040283203,79.31768798828125,-2.0273590087890625,108.83857727050781,0.0008868323432074653,0.006333333333333333,0.32142857142857145,-0.0032042503356933595,0.24169200658798218,-0.08788933093261875,41.74774932861328,0.08433236016167535,-0.2873992919921875
2300,0.16342701382107205,0.15937503814697265,86.86668395996094,79.76776123046875,-1.2704124450683594,108.8590316772461,0.0006595187717013889,0.004,0.31892857142857145,-0.0025328742133246527,1.0107120275497437,-0.6152159147949234,27.245899200439453,0.07887691921657985,-0.2792160458034939
2301,0.19077076382107205,0.15937503814697265,85.88470458984375,78.74485778808594,0.3866844177246094,108.89994812011719,0.001341459486219618,0.001,0.3157142857142857,-0.0018309911092122396,1.581984043121338,-1.164517062255861,26.63067054748535,0.07933163113064236,-0.26125848558213977
2302,0.19858326382107205,0.15937503814697265,84.96409606933594,78.06974792480469,0.9390487670898438,108.89994812011719,0.0008868323432074653,0.0003333333333333333,0.31035714285714283,-0.0021666844685872396,1.9335360527038574,0.16479000449180603,26.63067054748535,0.07660386827256944,-0.255121103922526
2303,0.19077076382107205,0.13945316314697265,87.41905212402344,75.26699829101562,0.7958450317382812,108.79766082763672,0.0008868323432074653,-0.0006666666666666666,0.30642857142857144,-0.0037840631273057725,2.0983259677886963,0.12084600329399109,26.54277992248535,0.13502282036675348,-0.2555757310655382
2304,0.22202076382107205,0.15937503814697265,85.82332611083984,82.28408813476562,1.7778282165527344,108.8794937133789,0.0011141459147135417,-0.001,0.3003571428571429,-0.0015563540988498264,2.526780128479004,0.04394400119781494,26.54277992248535,0.03932486640082465,-0.24557406107584637
2305,0.22592701382107205,0.15937503814697265,85.27096557617188,79.15402221679688,3.4144668579101562,108.94086456298828,0.0011141459147135417,-0.001,0.2960714285714286,0.000152587890625,3.1090381145477295,-0.07690300280761875,26.54277992248535,0.0679660373263889,-0.22807108561197917
2306,0.24545826382107205,0.13945316314697265,85.06637573242188,77.59921264648438,3.9463768005371094,108.94086456298828,0.001341459486219618,0.0,0.29,-0.0,2.9662201404571533,-0.9447962218017594,26.54277992248535,0.08296847873263889,-0.22216097513834634
