,WD,WS,AIL_1,AIL_2,ELEV_1,ELEV_2,RUDD,ALT,GS,TH,PTCH,ROLL,PLA_1,AIL,ELEV
5373,0.00745160356445322,0.13945316314697265,85.74149322509766,79.4813461303711,-5.11651611328125,122.48406219482422,-0.007069057888454861,0.7113333333333334,0.40464285714285714,0.015838114420572917,-2.944248812744142,-0.05493034655761875,36.29856872558594,0.06955718994140625,-0.47333975897894964
5374,-0.05114214643554678,0.13945316314697265,85.72103881835938,77.9879150390625,-4.461860656738281,122.48406219482422,-0.0066144307454427086,0.708,0.4010714285714286,0.013427310519748263,-3.812142031738283,0.8569080233573914,36.29856872558594,0.08592359754774305,-0.46606580946180554
5375,-0.09801714643554678,0.13945316314697265,85.72103881835938,78.02882385253906,-4.380031585693359,122.48406219482422,-0.0066144307454427086,0.7053333333333334,0.3964285714285714,0.01220669216579861,-4.141722338745119,1.724802017211914,36.29856872558594,0.08546905517578125,-0.46515659756130645
5376,-0.10582964643554678,0.1195312786102295,85.86424255371094,80.545166015625,-4.645984649658203,122.42269134521484,-0.006841744316948784,0.7023333333333334,0.39357142857142857,0.014312320285373263,-4.251581805297853,2.0763540267944336,36.29856872558594,0.05910085042317708,-0.46742973327636717
5377,-0.07067339643554678,0.1195312786102295,85.82332611083984,79.60409545898438,-4.502777099609375,122.46360778808594,-0.006841744316948784,0.7,0.38785714285714284,0.017089335123697917,-4.196652072021486,1.5270540714263916,36.29856872558594,0.0691025627983941,-0.4662931654188368
5378,-0.03551714643554678,0.13945316314697265,85.84378051757812,78.80622863769531,-4.154991149902344,122.48406219482422,-0.006841744316948784,0.6976666666666667,0.38392857142857145,0.01910341050889757,-4.460316317626955,0.6481740474700928,36.29856872558594,0.0781950208875868,-0.4626561482747396
5379,-0.0003608964355467808,0.09960939407348633,85.86424255371094,79.07218933105469,39.686500549316406,122.46360778808594,-0.006841744316948784,0.6953333333333334,0.37892857142857145,0.02127007378472222,-4.31749786669922,0.3185940086841583,36.29856872558594,0.07546725802951389,0.02469880845811632
5380,-0.03161089643554678,0.09960939407348633,85.86424255371094,79.93142700195312,39.686500549316406,122.44314575195312,-0.006841744316948784,0.6916666666666667,0.3757142857142857,0.02041566636827257,-4.37242950732422,0.9887400269508362,36.29856872558594,0.06592017279730902,0.02492616441514757
5381,-0.12145464643554678,0.09960939407348633,85.80287170410156,78.60165405273438,-6.507663726806641,122.50452423095703,-0.0066144307454427086,0.6876666666666666,0.37142857142857144,0.018126932779947917,-4.767923968383791,-0.3405672484130875,36.29856872558594,0.08001352945963541,-0.48902431064181856
5382,-0.05114214643554678,0.09960939407348633,85.78240966796875,77.537841796875,-6.159877777099609,122.46360778808594,-0.0066144307454427086,0.6836666666666666,0.36964285714285716,0.01992738511827257,-5.811594622680666,-1.8346620970459,36.82590866088867,0.09160630967881944,-0.4847053951687283
5383,0.07776410356445322,0.09960939407348633,85.76194763183594,78.78577423095703,-6.159877777099609,122.44314575195312,-0.006841744316948784,0.6793333333333333,0.36678571428571427,0.02352837456597222,-5.4051119261474625,-2.0543829375000016,39.11104965209961,0.0775130377875434,-0.4844780392116971
5384,0.08948285356445322,0.1195312786102295,85.78240966796875,79.82913208007812,-6.078044891357422,122.44314575195312,-0.007069057888454861,0.6746666666666666,0.3653571428571429,0.02236870659722222,-5.119476931640627,-1.3732515745849625,39.19894027709961,0.06614752875434028,-0.48356878492567273
5385,0.026982853564453218,0.09960939407348633,85.80287170410156,80.15646362304688,-5.689342498779297,122.46360778808594,-0.007069057888454861,0.6696666666666666,0.36357142857142855,0.01910341050889757,-5.108490603515627,-1.0216986113281266,39.19894027709961,0.0627378675672743,-0.47947722540961374
5386,0.01135785356445322,0.09960939407348633,85.80287170410156,79.31768798828125,-5.546134948730469,122.48406219482422,-0.006841744316948784,0.6643333333333333,0.3625,0.017760721842447917,-4.482288973876955,-1.3402925902099625,39.19894027709961,0.07205759684244792,-0.4781133015950521
5387,0.06213910356445322,0.09960939407348633,85.80287170410156,80.17691802978516,-4.850563049316406,122.44314575195312,-0.007069057888454861,0.6593333333333333,0.3610714285714286,0.01873719957139757,-4.295527117797853,-1.8236757689209,39.19894027709961,0.0625105963812934,-0.46993009779188366
5388,0.10510785356445322,0.13945316314697265,85.82332611083984,79.58363342285156,-4.523235321044922,122.46360778808594,-0.006841744316948784,0.655,0.3603571428571429,0.01992738511827257,-4.086792605468752,-2.4498793059082047,39.19894027709961,0.06932991875542535,-0.4665204789903429
5389,0.10120160356445322,0.15937503814697265,85.82332611083984,79.72684478759766,-4.11407470703125,122.44314575195312,-0.007069057888454861,0.6506666666666666,0.3585714285714286,0.018035380045572917,-3.7132688933105484,-2.581711428710939,39.19894027709961,0.06773868136935764,-0.46174689398871527
5390,0.09729535356445322,0.15937503814697265,85.78240966796875,78.76531982421875,3.0053062438964844,122.48406219482422,-0.006841744316948784,0.6466666666666666,0.35714285714285715,0.016082255045572917,-3.229883807250978,-3.0760809355468766,39.19894027709961,0.07796766493055556,-0.3830972883436415
5391,0.10901410356445322,0.19921878814697266,85.5982894897461,76.94454956054688,-4.8096466064453125,122.48406219482422,-0.006841744316948784,0.6433333333333333,0.3535714285714286,0.015014224582248263,-2.812416689941408,-2.9881922178955094,41.83563995361328,0.09615266587999131,-0.46993009779188366
5392,0.11682660356445322,0.219140682220459,85.29141998291016,77.9469985961914,-4.952854156494141,122.50452423095703,-0.0066144307454427086,0.6393333333333333,0.3510714285714286,0.014037662082248263,-2.9991785460205094,-2.3070608549804703,42.01142120361328,0.08160468207465278,-0.4717486487494575
5393,0.1285453535644532,0.219140682220459,84.77996826171875,76.63768005371094,-4.216365814208984,122.5454330444336,-0.006387117173936632,0.6356666666666667,0.3489285714285714,0.013732486300998263,-3.6143938475341812,-1.4831110411376969,42.01142120361328,0.09046986897786459,-0.4640199873182509
5394,0.1285453535644532,0.19921878814697266,85.41416931152344,77.04684448242188,-4.093616485595703,122.50452423095703,-0.006387117173936632,0.6333333333333333,0.34785714285714286,0.012450748019748263,-3.196926730224611,0.19774800539016724,42.099308013916016,0.09297027587890624,-0.4622015635172526
5395,0.11682660356445322,0.19921878814697266,85.47554016113281,79.25630950927734,-3.7662887573242188,122.48406219482422,-0.006841744316948784,0.6303333333333333,0.3457142857142857,0.01174892849392361,-2.7135435515136734,1.6149420738220215,42.89031982421875,0.0691025627983941,-0.4583372328016493
5396,0.12463910356445322,0.17929691314697266,86.31431579589844,79.70639038085938,-3.479877471923828,122.44314575195312,-0.006841744316948784,0.6263333333333333,0.34464285714285714,0.013579898410373263,-2.581711428710939,2.2521300315856934,44.29655838012695,0.07342139350043403,-0.45470025804307723
5397,0.12463910356445322,0.17929691314697266,85.92561340332031,81.01570129394531,-2.10919189453125,122.44314575195312,-0.006841744316948784,0.6226666666666667,0.34285714285714286,0.015960184733072917,-2.867346423217775,2.7904441356658936,45.17546081542969,0.054554578993055554,-0.43947041829427086
5398,0.10120160356445322,0.19921878814697266,85.90515899658203,80.58607482910156,-2.6615562438964844,122.48406219482422,-0.007069057888454861,0.6186666666666667,0.34214285714285714,0.016601053873697917,-2.856360095092775,2.3070600032806396,45.26335144042969,0.05910093519422743,-0.4460624270968967
5399,0.11292035356445322,0.15937503814697265,85.96653747558594,81.24073791503906,-2.6001853942871094,122.44314575195312,-0.006841744316948784,0.6163333333333333,0.3414285714285714,0.01830995347764757,-2.548752444335939,2.3400180339813232,45.26335144042969,0.05250888400607639,-0.4449259016248915
5400,0.09729535356445322,0.17929691314697266,85.90515899658203,80.83157348632812,-2.129650115966797,122.44314575195312,-0.007069057888454861,0.611,0.3410714285714286,0.01983583238389757,-2.6915708952636734,1.8346620798110962,45.26335144042969,0.05637317233615451,-0.43969773186577693
5401,0.10120160356445322,0.19921878814697266,85.92561340332031,80.72928619384766,-2.6615562438964844,122.44314575195312,-0.007069057888454861,0.607,0.3407142857142857,0.02191094292534722,-2.6476274901123062,1.021697998046875,45.26335144042969,0.057736968994140624,-0.44560779995388455
5402,0.11682660356445322,0.17929691314697266,85.90515899658203,80.79066467285156,-2.3751449584960938,122.44314575195312,-0.006841744316948784,0.6036666666666667,0.3407142857142857,0.02285698784722222,-2.4279066496582047,0.1867620050907135,45.26335144042969,0.05682771470811632,-0.44242545233832464
5403,0.12073285356445322,0.17929691314697266,85.90515899658203,78.33570098876953,4.253246307373047,122.50452423095703,-0.006387117173936632,0.6,0.34,0.02328423394097222,-2.4059339934082047,-0.9338098936767594,45.26335144042969,0.08410508897569445,-0.3694586435953776
5404,0.12073285356445322,0.17929691314697266,85.92561340332031,78.25386810302734,1.1231727600097656,122.48406219482422,-0.0066144307454427086,0.5956666666666667,0.3392857142857143,0.02236870659722222,-2.0324102812500016,-1.1864878111572281,45.26335144042969,0.08524161444769965,-0.40400988260904946
5405,0.12073285356445322,0.17929691314697266,85.90515899658203,78.29478454589844,2.207447052001953,122.50452423095703,-0.0066144307454427086,0.593,0.3385714285714286,0.02096498277452257,-1.6259294920654312,-1.2853628569335953,45.26335144042969,0.0845597161187066,-0.3921897464328342
5406,0.12073285356445322,0.15937503814697265,85.92561340332031,78.27432250976562,18.14422607421875,122.50452423095703,-0.0066144307454427086,0.59,0.3375,0.01989686754014757,-1.4940973692626969,-0.9008528166503922,45.26335144042969,0.08501434326171875,-0.21511442396375868
5407,0.10901410356445322,0.15937503814697265,85.90515899658203,78.58119201660156,24.404373168945312,122.50452423095703,-0.0066144307454427086,0.5863333333333334,0.33714285714285713,0.01837098863389757,-1.6259294920654312,-0.3185945921630875,45.26335144042969,0.08137741088867187,-0.14555723402235243
5408,0.05823285356445322,0.15937503814697265,85.88470458984375,80.19737243652344,4.00775146484375,122.44314575195312,-0.007069057888454861,0.5833333333333334,0.3360714285714286,0.015502421061197917,-1.6808592253417984,0.3076080083847046,45.26335144042969,0.0631925794813368,-0.37150438096788196
5409,0.030889103564453218,0.15937503814697265,85.80287170410156,78.76531982421875,4.805610656738281,122.50452423095703,-0.0066144307454427086,0.5793333333333334,0.3357142857142857,0.013854556613498263,-1.7797323637695328,-0.2526785307617203,45.26335144042969,0.0781950208875868,-0.36332126193576386
5410,0.023076603564453218,0.19921878814697266,85.84378051757812,78.66302490234375,-4.318656921386719,122.46360778808594,-0.006387117173936632,0.5756666666666667,0.335,0.013274722629123263,-2.219172137329103,-0.13183273608398594,45.26335144042969,0.07978617350260417,-0.4642473856608073
5411,-0.00426714643554678,0.17929691314697266,85.86424255371094,78.62211608886719,-4.277740478515625,122.50452423095703,-0.006387117173936632,0.573,0.335,0.01113857693142361,-2.6476274901123062,0.06591600179672241,45.26335144042969,0.08046807183159722,-0.4642473856608073
5412,0.003545353564453219,0.17929691314697266,85.84378051757812,78.74485778808594,-4.134532928466797,122.50452423095703,-0.0066144307454427086,0.5703333333333334,0.335,0.01177944607204861,-2.812416689941408,0.07690200209617615,45.26335144042969,0.07887691921657985,-0.46265619066026475
5413,0.01135785356445322,0.19921878814697266,86.559814453125,80.4837875366211,-3.868579864501953,122.44314575195312,-0.007069057888454861,0.5663333333333334,0.335,0.01229824490017361,-2.6366411619873062,0.5273280143737793,45.26335144042969,0.06751141018337674,-0.45901917351616756
5414,-0.00817339643554678,0.19921878814697266,86.53935241699219,79.9518814086914,-3.5821685791015625,122.46360778808594,-0.006841744316948784,0.5633333333333334,0.33464285714285713,0.01135219997829861,-2.6256548338623062,-0.07690300280761875,45.26335144042969,0.07319412231445313,-0.45606418185763886
5415,-0.00817339643554678,0.219140682220459,86.21202850341797,79.3995132446289,-1.1272087097167969,122.50452423095703,-0.0066144307454427086,0.5596666666666666,0.33464285714285713,0.01089443630642361,-2.6476274901123062,-1.131558077880861,45.26335144042969,0.07569461398654515,-0.4292414771185981
5416,0.00745160356445322,0.19921878814697266,86.0074462890625,78.35615539550781,0.9595069885253906,122.50452423095703,-0.0066144307454427086,0.5556666666666666,0.3339285714285714,0.01123012966579861,-2.4608656340332047,-1.9664942198486344,45.26335144042969,0.08501434326171875,-0.40605574713812936
5417,0.003545353564453219,0.219140682220459,84.1048583984375,78.23341369628906,-3.4594192504882812,122.50452423095703,-0.0066144307454427086,0.5526666666666666,0.3339285714285714,0.008758290608723959,-2.4279066496582047,-1.7028299742431656,45.26335144042969,0.06523827446831597,-0.4551549275716146
5418,-0.019892146435546782,0.19921878814697266,83.94119262695312,76.24897766113281,-2.722930908203125,122.50452423095703,-0.006387117173936632,0.55,0.3335714285714286,0.005889723036024305,-2.581711428710939,-1.6369139128417984,45.26335144042969,0.08546905517578125,-0.4469717237684462
5419,-0.015985896435546782,0.17929691314697266,84.37080383300781,77.08776092529297,-1.1885833740234375,122.50452423095703,-0.0066144307454427086,0.5463333333333333,0.33321428571428574,0.005126783582899305,-2.4059339934082047,-0.9118391447753922,45.26335144042969,0.08092269897460938,-0.42992341783311633
5420,-0.01207964643554678,0.17929691314697266,84.37080383300781,76.96501159667969,-1.8636970520019531,122.52497863769531,-0.0066144307454427086,0.5436666666666666,0.33321428571428574,0.004760572645399305,-2.0543829375000016,-0.18676246936035312,45.26335144042969,0.08228658040364584,-0.4376519521077474
5421,-0.015985896435546782,0.17929691314697266,84.39126586914062,77.51737976074219,-5.055145263671875,122.52497863769531,-0.0066144307454427086,0.54,0.33285714285714285,0.004730055067274305,-1.8126913481445328,0.8788800239562988,47.196929931640625,0.0763765123155382,-0.47311248779296877
5422,-0.04332964643554678,0.17929691314697266,84.41172790527344,77.9879150390625,-5.055145263671875,122.50452423095703,-0.0066144307454427086,0.5363333333333333,0.33285714285714285,0.0038756476508246527,-1.7687460356445328,1.7907180786132812,47.284820556640625,0.07137569851345486,-0.47288521660698785
5423,-0.03551714643554678,0.17929691314697266,85.39370727539062,80.0950927734375,-5.055145263671875,122.44314575195312,-0.006841744316948784,0.5333333333333333,0.33285714285714285,0.005981275770399305,-1.6039568358154312,2.0104379653930664,47.284820556640625,0.058873494466145836,-0.47220323350694443
5424,-0.019892146435546782,0.17929691314697266,85.78240966796875,80.40196228027344,-4.768730163574219,122.48406219482422,-0.006841744316948784,0.5296666666666666,0.3325,0.008483632405598959,-1.4721247130126969,0.9667680263519287,47.46059799194336,0.05978274875217014,-0.4694754706488715
5425,-0.00426714643554678,0.13945316314697265,84.67768096923828,77.37417602539062,-3.9299545288085938,122.48406219482422,-0.006387117173936632,0.527,0.33214285714285713,0.01016201443142361,-1.8456484251709,-0.9338098936767594,48.427391052246094,0.08115005493164062,-0.4601557413736979
5426,0.026982853564453218,0.15937503814697265,83.5934066772461,76.82180786132812,-2.7843055725097656,122.50452423095703,-0.006387117173936632,0.5223333333333333,0.33321428571428574,0.01089443630642361,-2.219172137329103,-1.2084604674072281,48.69105911254883,0.07523998684353299,-0.4476536644829644
5427,0.019170353564453218,0.1195312786102295,81.79310607910156,73.8758544921875,-3.275299072265625,122.50452423095703,-0.0066144307454427086,0.5203333333333333,0.33321428571428574,0.008758290608723959,-2.153256075927736,-2.0873400145263687,48.69105911254883,0.08796946207682292,-0.4531091478135851
5428,-0.015985896435546782,0.13945316314697265,84.30943298339844,78.74485778808594,-3.4389610290527344,122.50452423095703,-0.0066144307454427086,0.5163333333333333,0.33464285714285713,0.005340406629774305,-2.230158465454103,-0.01098694140625156,48.69105911254883,0.06182861328125,-0.4549276140001085
5429,-0.027704646435546782,0.15937503814697265,84.41172790527344,77.61967468261719,-3.091175079345703,122.48406219482422,-0.006841744316948784,0.512,0.3357142857142857,0.005035230848524305,-2.6256548338623062,1.4281799793243408,48.69105911254883,0.07546725802951389,-0.4508359697129991
5430,-0.023798396435546782,0.1195312786102295,85.63920593261719,79.01081848144531,-3.479877471923828,122.48406219482422,-0.0066144307454427086,0.509,0.3375,0.0067746480305989586,-2.966221468994142,1.5600121021270752,48.69105911254883,0.07364874945746527,-0.45515488518608943
5431,0.003545353564453219,0.13945316314697265,85.78240966796875,80.58607482910156,-2.354686737060547,122.44314575195312,-0.007069057888454861,0.5046666666666667,0.3382142857142857,0.009246571858723959,-3.0321375303955094,1.5050820112228394,48.69105911254883,0.05773705376519097,-0.44219813876681857
5432,0.03870160356445322,0.1195312786102295,85.31187438964844,79.21539306640625,-0.5134696960449219,122.48406219482422,-0.006841744316948784,0.501,0.33964285714285714,0.01220669216579861,-2.7684732847900406,1.0107120275497437,48.69105911254883,0.06773868136935764,-0.4221947987874349
5433,0.05042035356445322,0.15937503814697265,85.31187438964844,80.23829650878906,-3.66400146484375,122.44314575195312,-0.006387117173936632,0.49633333333333335,0.34035714285714286,0.014098697238498263,-2.4059339934082047,0.6371880173683167,48.69105911254883,0.05637308756510417,-0.45674608018663193
5434,0.05042035356445322,0.13945316314697265,85.29141998291016,78.17203521728516,-2.9479713439941406,122.50452423095703,-0.006387117173936632,0.49266666666666664,0.3417857142857143,0.014098697238498263,-2.3510042601318375,-0.09887375170898594,48.69105911254883,0.07910427517361111,-0.449472173055013
5435,0.05432660356445322,0.17929691314697266,85.5982894897461,78.4789047241211,-2.1910247802734375,122.42269134521484,-0.006387117173936632,0.4886666666666667,0.34214285714285714,0.014678531222873263,-2.0214239531250016,0.19774800539016724,48.69105911254883,0.07910427517361111,-0.4401524013943142
5436,0.07776410356445322,0.15937503814697265,85.5164566040039,79.64501190185547,-2.5797271728515625,122.46360778808594,-0.006841744316948784,0.48533333333333334,0.34214285714285714,0.016356913248697917,-1.6369139128417984,0.14281800389289856,48.69105911254883,0.06523827446831597,-0.4449259440104167
5437,0.08167035356445322,0.17929691314697266,85.53691101074219,80.40196228027344,-2.6001853942871094,122.44314575195312,-0.006841744316948784,0.482,0.3417857142857143,0.016875712076822917,-1.4721247130126969,-0.01098694140625156,48.69105911254883,0.05705498589409722,-0.4449259016248915
5438,0.10901410356445322,0.17929691314697266,85.5164566040039,79.78821563720703,-2.0069007873535156,122.46360778808594,-0.006841744316948784,0.479,0.3407142857142857,0.01901185777452257,-1.3512789183349625,-0.6481748991699234,48.69105911254883,0.06364712185329861,-0.4385612063937717
5439,0.15588910356445315,0.15937503814697265,85.5164566040039,79.78821563720703,-0.9226264953613281,122.44314575195312,-0.006841744316948784,0.4756666666666667,0.34,0.02047670152452257,-1.8126913481445328,-1.0107122832031266,48.69105911254883,0.06364712185329861,-0.42628635830349393
5440,0.14807660356445315,0.17929691314697266,85.49600219726562,78.25386810302734,-2.0069007873535156,122.50452423095703,-0.0066144307454427086,0.4716666666666667,0.33964285714285714,0.01980531480577257,-2.570725100585939,-0.7360617094726578,48.69105911254883,0.08046815660264757,-0.43901583353678386
5441,0.17932660356445315,0.15937503814697265,85.47554016113281,78.58119201660156,-4.645984649658203,122.48406219482422,-0.0066144307454427086,0.4676666666666667,0.34,0.01992738511827257,-2.581711428710939,-0.2526785307617203,48.69105911254883,0.07660386827256944,-0.46811163160536023
5442,0.2574516035644531,0.1195312786102295,85.47554016113281,79.66546630859375,-4.482318878173828,122.46360778808594,-0.0066144307454427086,0.4663333333333333,0.3410714285714286,0.02151421440972222,-2.208185809204103,-0.6591612272949234,48.69105911254883,0.06455637613932291,-0.46606585184733074
5443,0.22620160356445315,0.13945316314697265,85.5164566040039,79.93142700195312,-3.7867469787597656,122.46360778808594,-0.006841744316948784,0.46,0.34285714285714286,0.02069032457139757,-2.790444033691408,-0.812964098999025,48.69105911254883,0.062055884467230905,-0.4583372751871745
5444,0.14417035356445315,0.1195312786102295,85.49600219726562,78.17203521728516,-2.9479713439941406,122.48406219482422,-0.0066144307454427086,0.456,0.34464285714285714,0.015624491373697917,-3.592423098632814,-0.48338379199218906,48.69105911254883,0.08137741088867187,-0.44924481709798175
5445,0.05432660356445322,0.09960939407348633,87.13264465332031,77.70149993896484,39.666046142578125,122.50452423095703,-0.0066144307454427086,0.45266666666666666,0.3460714285714286,0.01126064724392361,-3.504534380981447,0.8678940534591675,48.69105911254883,0.10479049682617188,0.024016910129123263
5446,-0.08239214643554678,0.07968751907348633,86.84622192382812,81.91584777832031,39.666046142578125,122.46360778808594,-0.006841744316948784,0.45,0.34785714285714286,0.0076901753743489586,-3.3177725249023453,1.8895920515060425,48.69105911254883,0.054781934950086805,0.024471537272135416
5447,-0.24254836865776908,0.09960939407348633,86.78485107421875,79.8905029296875,39.666046142578125,122.44314575195312,-0.007069057888454861,0.448,0.3485714285714286,0.0036925421820746527,-3.240870135375978,0.9118380546569824,48.69105911254883,0.07660386827256944,0.024698893229166668
5448,-0.3480171186577691,0.07968751907348633,86.72348022460938,78.82669067382812,-4.850563049316406,122.46360778808594,-0.006841744316948784,0.44333333333333336,0.35035714285714287,0.0030821906195746527,-3.0211512022705094,0.36253800988197327,48.69105911254883,0.08774210611979166,-0.47015745374891493
5449,-0.3011421186577691,0.1195312786102295,84.53446960449219,78.64257049560547,-3.868579864501953,122.46360778808594,-0.006841744316948784,0.43966666666666665,0.3507142857142857,0.0013121710883246527,-3.4166475706787125,-0.17577614123535312,46.40591812133789,0.06546554565429688,-0.4592465294731988
5450,-0.19176711865776908,0.13945316314697265,84.94363403320312,77.3946304321289,-4.4209442138671875,122.48406219482422,-0.0066144307454427086,0.437,0.3517857142857143,0.0025328742133246527,-3.4276319914550797,-0.03295769030761875,46.318031311035156,0.08387781778971354,-0.4656111823187934
5451,-0.1566108964355468,0.15937503814697265,84.98455047607422,78.27432250976562,-4.236824035644531,122.46360778808594,-0.006387117173936632,0.433,0.3517857142857143,0.0026854621039496527,-3.3067861967773453,0.24169200658798218,46.142250061035156,0.07455808851453993,-0.46333813137478297
5452,-0.16442336865776908,0.13945316314697265,84.98455047607422,79.72684478759766,-3.9708709716796875,122.44314575195312,-0.006841744316948784,0.43,0.35214285714285715,0.003936598036024305,-2.6036821776123062,0.6262019872665405,46.142250061035156,0.058418952094184025,-0.4601557413736979
5453,-0.1409858964355468,0.17929691314697266,85.0050048828125,78.60165405273438,-3.5821685791015625,122.48406219482422,-0.0066144307454427086,0.42633333333333334,0.3514285714285714,0.003997633192274305,-2.142269747802736,0.373524010181427,44.38444900512695,0.0711483425564236,-0.4562914530436198
5454,-0.1409858964355468,0.17929691314697266,85.18913269042969,80.07463073730469,-2.9479713439941406,122.44314575195312,-0.006841744316948784,0.423,0.35,0.004211256239149305,-2.1093126707763687,0.6152160167694092,44.12078094482422,0.05682779947916667,-0.4487901899549696
5455,-0.1292671464355468,0.17929691314697266,85.16867065429688,78.56073760986328,-5.1983489990234375,122.46360778808594,-0.006387117173936632,0.4196666666666667,0.3489285714285714,0.004760572645399305,-2.230158465454103,0.373524010181427,44.03289031982422,0.07342147827148438,-0.47402174207899306
5456,-0.1253608964355468,0.17929691314697266,85.16867065429688,78.96989440917969,-4.768730163574219,122.42269134521484,-0.0066144307454427086,0.417,0.3467857142857143,0.005767652723524305,-2.7794596129150406,0.3185940086841583,44.03289031982422,0.0688752916124132,-0.46879357231987845
5457,-0.1253608964355468,0.15937503814697265,85.16867065429688,79.37905883789062,-4.7482757568359375,122.40222930908203,-0.006841744316948784,0.4136666666666667,0.3467857142857143,0.0068662007649739586,-2.3729769163818375,0.5602860450744629,43.85710906982422,0.06432902018229167,-0.4683389451768663
5458,-0.1292671464355468,0.15937503814697265,85.16867065429688,80.38150024414062,-4.5846099853515625,122.38177490234375,-0.006841744316948784,0.411,0.345,0.0072324117024739586,-2.175228732177736,0.5383139848709106,43.85710906982422,0.05319078233506944,-0.4662931654188368
5459,-0.1292671464355468,0.13945316314697265,85.18913269042969,80.0337142944336,-4.339115142822266,122.42269134521484,-0.006841744316948784,0.4073333333333333,0.3442857142857143,0.0078122456868489586,-2.3400179320068375,-0.2526785307617203,43.85710906982422,0.05728242662217882,-0.46402007208930124
5460,-0.10973589643554678,0.15937503814697265,85.16867065429688,78.60165405273438,-3.9913291931152344,122.46360778808594,-0.006387117173936632,0.403,0.3432142857142857,0.008514149983723959,-2.3290335112304703,-0.6811319761962906,43.85710906982422,0.07296685112847222,-0.46061041090223526
5461,-0.09801714643554678,0.17929691314697266,85.16867065429688,78.8880615234375,-3.643543243408203,122.48406219482422,-0.0066144307454427086,0.39966666666666667,0.34285714285714286,0.0074155171712239586,-2.3619905882568375,-0.2416922026367203,43.85710906982422,0.0697845458984375,-0.456973393758138
5462,-0.07848589643554678,0.219140682220459,85.16867065429688,78.29478454589844,-3.0502586364746094,122.50452423095703,-0.006387117173936632,0.3963333333333333,0.3417857142857143,0.0073849995930989586,-2.7025572233886734,-0.6371885710449234,43.85710906982422,0.0763765123155382,-0.45060869852701824
5463,-0.023798396435546782,0.19921878814697266,85.14820861816406,78.76531982421875,-1.5977401733398438,122.46360778808594,-0.0066144307454427086,0.393,0.3407142857142857,0.01104702419704861,-2.834389346191408,-1.2194467955322281,43.85710906982422,0.07092098659939236,-0.4340149773491753
5464,0.06995160356445322,0.1195312786102295,86.78485107421875,82.14088439941406,-1.9046134948730469,122.42269134521484,-0.006841744316948784,0.3893333333333333,0.34035714285714286,0.016051737467447917,-2.2850881987304703,-1.0876146727294937,43.85710906982422,0.05159962972005208,-0.43697005377875436
5465,-0.00817339643554678,0.13945316314697265,83.85935974121094,77.08776092529297,-3.7662887573242188,122.48406219482422,-0.0066144307454427086,0.386,0.34035714285714286,0.01089443630642361,-2.7465006285400406,-1.9005781584472672,43.85710906982422,0.07523998684353299,-0.4583372328016493
5466,-0.06676714643554678,0.13945316314697265,84.39126586914062,76.16715240478516,-3.4389610290527344,122.48406219482422,-0.006387117173936632,0.382,0.3407142857142857,0.005920240614149305,-3.3617159300537125,-2.1312853270263687,43.85710906982422,0.09137903849283854,-0.45470025804307723
5467,-0.09020464643554678,0.13945316314697265,84.49356079101562,78.27432250976562,-2.8456802368164062,122.46360778808594,-0.006387117173936632,0.379,0.34035714285714286,0.0033873664008246527,-3.3946749144287125,-1.1974741392822281,43.85710906982422,0.06910264756944444,-0.44788097805447047
5468,-0.1370796464355468,0.1195312786102295,84.5958480834961,79.46089172363281,-3.7867469787597656,122.44314575195312,-0.0066144307454427086,0.37466666666666665,0.34035714285714286,0.0013426886664496527,-3.1200243406982437,-0.3845106535644547,43.85710906982422,0.05705507066514757,-0.4581099192301432
5469,-0.1409858964355468,0.13945316314697265,84.5958480834961,78.72439575195312,-3.5821685791015625,122.50452423095703,-0.0066144307454427086,0.37066666666666664,0.34,3.0517578125e-05,-3.1200243406982437,-0.5383154326171891,43.85710906982422,0.06523835923936631,-0.45651880900065106
5470,-0.1292671464355468,0.13945316314697265,84.57539367675781,78.78577423095703,-3.0502586364746094,122.50452423095703,-0.0066144307454427086,0.36533333333333334,0.3410714285714286,-0.0001220703125,-3.493548052856447,-0.7470480375976578,43.85710906982422,0.06432910495334201,-0.45060869852701824
5471,-0.1253608964355468,0.13945316314697265,84.57539367675781,78.58119201660156,-1.1272087097167969,122.48406219482422,-0.006387117173936632,0.361,0.3414285714285714,-0.0001220703125,-4.031862872192384,-1.142544406005861,43.85710906982422,0.06660224066840278,-0.42901412116156684
5472,-0.10973589643554678,0.13945316314697265,84.57539367675781,78.02882385253906,-1.0453758239746094,122.48406219482422,-0.006387117173936632,0.355,0.3417857142857143,-3.0517578125e-05,-4.284540789672853,-1.4391657286376969,43.85710906982422,0.07273966471354167,-0.42810486687554256
5473,-0.07067339643554678,0.13945316314697265,84.5958480834961,78.31524658203125,-4.645984649658203,122.48406219482422,-0.006387117173936632,0.3496666666666667,0.34214285714285714,0.00054931640625,-4.075806277343752,-1.4831110411376969,43.85710906982422,0.06978446112738715,-0.46811163160536023
5474,-0.04723589643554678,0.13945316314697265,84.57539367675781,78.13111877441406,-4.523235321044922,122.48406219482422,-0.006387117173936632,0.3433333333333333,0.3425,0.00048828125,-3.90003074938965,-1.4062086516113297,42.89031982421875,0.07160305447048611,-0.4667477501763238
5475,-0.09020464643554678,0.09960939407348633,84.5958480834961,78.19248962402344,-4.339115142822266,122.50452423095703,-0.006387117173936632,0.3373333333333333,0.34285714285714286,-0.001556396484375,-3.976933138916017,-0.9557825499267594,42.71453857421875,0.07114842732747396,-0.4649293263753255
5476,-0.1370796464355468,0.13945316314697265,84.5958480834961,78.4789047241211,-4.175449371337891,122.48406219482422,-0.0066144307454427086,0.3323333333333333,0.3439285714285714,-0.005187818739149305,-4.207638400146486,-0.3295809202880875,42.71453857421875,0.0679660373263889,-0.4628834618462457
5477,-0.16051711865776908,0.15937503814697265,84.5958480834961,78.25386810302734,-3.909496307373047,122.48406219482422,-0.006387117173936632,0.3253333333333333,0.3439285714285714,-0.0075986226399739586,-4.097778933593752,-0.3954969816894547,42.71453857421875,0.07046644422743055,-0.45992842780219184
5478,-0.1566108964355468,0.15937503814697265,84.61630249023438,77.9879150390625,-3.3366737365722656,122.50452423095703,-0.0066144307454427086,0.32066666666666666,0.34464285714285714,-0.007995351155598959,-3.7462259703369156,-0.6811319761962906,42.62664794921875,0.07364874945746527,-0.4537910885281033
5479,-0.1448921464355468,0.17929691314697266,84.57539367675781,78.06974792480469,-2.6206436157226562,122.50452423095703,-0.0066144307454427086,0.316,0.34464285714285714,-0.008514149983723959,-3.537493365356447,-0.4723993712158219,42.62664794921875,0.07228495279947916,-0.44583519829644097
5480,-0.18395461865776908,0.13945316314697265,84.5958480834961,77.9469985961914,-4.625526428222656,122.48406219482422,-0.007069057888454861,0.311,0.3442857142857143,-0.009429677327473959,-3.0980535917968766,0.05493000149726868,42.62664794921875,0.07387610541449653,-0.46788431803385416
5481,-0.22301711865776908,0.15937503814697265,84.18669128417969,77.02638244628906,-4.727817535400391,122.48406219482422,-0.006387117173936632,0.30766666666666664,0.3439285714285714,-0.01190151638454861,-2.493822711059572,0.29662200808525085,42.62664794921875,0.07955898708767362,-0.4690208858913846
5482,-0.17614211865776908,0.17929691314697266,84.43218231201172,76.08531951904297,-4.686901092529297,122.48406219482422,-0.006387117173936632,0.30466666666666664,0.34285714285714286,-0.010162099202473959,-2.0763555937500016,0.8678940534591675,43.417659759521484,0.092742919921875,-0.4685662587483724
5483,-0.20348586865776908,0.13945316314697265,84.6572265625,79.29722595214844,-4.502777099609375,122.48406219482422,-0.0066144307454427086,0.3006666666666667,0.34214285714285714,-0.008178456624348959,-1.4281813078613297,2.2191720008850098,43.505550384521484,0.05955556233723958,-0.46652043660481773
5484,-0.22692336865776908,0.15937503814697265,84.63676452636719,78.37661743164062,-4.298198699951172,122.48406219482422,-0.006387117173936632,0.298,0.34035714285714286,-0.008819325764973959,-1.3073355131835953,2.186213970184326,43.505550384521484,0.06955718994140625,-0.4642473432752821
5485,-0.2503608686577691,0.15937503814697265,84.63676452636719,79.25630950927734,-3.8276634216308594,122.44314575195312,-0.006841744316948784,0.29433333333333334,0.3385714285714286,-0.007934315999348959,-1.7028299742431656,1.5160679817199707,43.505550384521484,0.05978283352322049,-0.45856454637315536
5486,-0.2503608686577691,0.15937503814697265,84.6572265625,77.68104553222656,-3.2343826293945312,122.48406219482422,-0.006387117173936632,0.2916666666666667,0.33714285714285713,-0.006896803114149305,-1.9994532042236344,1.1425440311431885,43.505550384521484,0.07751312255859374,-0.45242716471354166
5487,-0.24254836865776908,0.15937503814697265,84.98455047607422,80.15646362304688,-2.2933120727539062,122.42269134521484,-0.0066144307454427086,0.289,0.3367857142857143,-0.005554029676649305,-1.8786074095459,1.5490260124206543,43.68132781982422,0.0536454094780816,-0.44128892686631943
5488,-0.22692336865776908,0.13945316314697265,85.5164566040039,80.07463073730469,-4.032245635986328,122.44314575195312,-0.006841744316948784,0.286,0.3360714285714286,-0.0028075324164496527,-2.230158465454103,1.4721240997314453,43.76921844482422,0.060464731852213544,-0.4608376820882161
5489,-0.2737983686577691,0.1195312786102295,85.16867065429688,79.93142700195312,-4.011787414550781,122.44314575195312,-0.0066144307454427086,0.283,0.33535714285714285,-0.00103759765625,-2.252131121704103,1.1095860004425049,44.29655838012695,0.05819159613715278,-0.46061036851671006
5490,-0.20348586865776908,0.15937503814697265,85.16867065429688,79.3995132446289,-4.400489807128906,122.44314575195312,-0.0066144307454427086,0.2793333333333333,0.335,-0.000823974609375,-1.9225508146972672,0.38451001048088074,45.79069137573242,0.06410174899631077,-0.4649292839898003
5491,-0.16051711865776908,0.15937503814697265,84.96409606933594,77.04684448242188,-4.625526428222656,122.48406219482422,-0.006387117173936632,0.276,0.33464285714285713,0.0011595831976996527,-1.7248026304931656,-0.16478981311035312,45.966468811035156,0.08796946207682292,-0.46788431803385416
5492,-0.1253608964355468,0.17929691314697266,85.5164566040039,79.9927978515625,-4.8096466064453125,122.42269134521484,-0.006841744316948784,0.27266666666666667,0.3339285714285714,0.0026244269476996527,-1.4831110411376969,0.790992021560669,45.966468811035156,0.06137398613823785,-0.46924819946289065
5493,-0.19176711865776908,0.15937503814697265,85.5164566040039,79.74729919433594,-4.932395935058594,122.46360778808594,-0.0066144307454427086,0.2693333333333333,0.3335714285714286,0.0013121710883246527,-1.3732515745849625,1.494096040725708,45.966468811035156,0.06410174899631077,-0.4710667080349392
5494,-0.21911086865776908,0.13945316314697265,86.53935241699219,82.0999755859375,-5.014228820800781,122.42269134521484,-0.006841744316948784,0.2663333333333333,0.33321428571428574,0.0021361456976996527,-1.3952223234863297,1.5050820112228394,45.966468811035156,0.04932640923394097,-0.47152133517795136
5495,-0.23082961865776908,0.15937503814697265,86.45751953125,80.79066467285156,-5.034687042236328,122.42269134521484,-0.006841744316948784,0.26166666666666666,0.3335714285714286,0.0017394171820746527,-1.3842359953613297,0.032958000898361206,46.318031311035156,0.06296505398220487,-0.4717486487494575
5496,-0.2737983686577691,0.15937503814697265,86.41661071777344,79.31768798828125,-4.952854156494141,122.46360778808594,-0.006387117173936632,0.25766666666666665,0.3339285714285714,-6.103515625e-05,-2.4279066496582047,-0.9447962218017594,46.318031311035156,0.07887691921657985,-0.4712940216064453
5497,-0.2816108686577691,0.13945316314697265,86.41661071777344,78.90852355957031,-4.911937713623047,122.48406219482422,-0.0066144307454427086,0.25466666666666665,0.3342857142857143,-0.00091552734375,-2.504809039184572,-1.2194467955322281,46.40591812133789,0.0834231906467014,-0.4710666656494141
5498,-0.23473586865776908,0.15937503814697265,86.19157409667969,78.60165405273438,-4.605068206787109,122.48406219482422,-0.006387117173936632,0.251,0.335,-0.00103759765625,-2.4279066496582047,-1.3402925902099625,46.40591812133789,0.0843324449327257,-0.4676570044623481
5499,-0.23864211865776908,0.15937503814697265,86.19157409667969,78.49935913085938,-4.175449371337891,122.48406219482422,-0.006159803602430555,0.24566666666666667,0.3360714285714286,-0.0021361456976996527,-2.482836382934572,-0.9557825499267594,46.40591812133789,0.08546905517578125,-0.4628834618462457
5500,-0.23082961865776908,0.15937503814697265,86.31431579589844,80.83157348632812,-4.461860656738281,122.42269134521484,-0.006841744316948784,0.242,0.33714285714285713,-0.0031127081976996527,-2.153256075927736,-0.823950427124025,46.40591812133789,0.06091935899522569,-0.4653839111328125
5501,-0.19957961865776908,0.17929691314697266,86.33477783203125,80.05416870117188,-4.134532928466797,122.46360778808594,-0.006841744316948784,0.238,0.33714285714285713,-0.0035094367133246527,-1.9115644865722672,-1.0766283446044937,46.40591812133789,0.0697845458984375,-0.4622015635172526
5502,-0.24645461865776908,0.15937503814697265,84.20714569091797,78.31524658203125,-3.8481216430664062,122.50452423095703,-0.006387117173936632,0.23466666666666666,0.33714285714285713,-0.005828687879774305,-1.8017050200195328,-1.3622652464599625,46.40591812133789,0.06546554565429688,-0.45947384304470484
5503,-0.20348586865776908,0.219140682220459,84.43218231201172,76.535400390625,-3.3366737365722656,122.50452423095703,-0.006387117173936632,0.23133333333333334,0.3375,-0.008117421468098959,-1.8236757689209,-1.1864878111572281,46.40591812133789,0.08774202134874132,-0.4537910885281033
5504,-0.21129836865776908,0.19921878814697266,85.455078125,79.74729919433594,-3.8276634216308594,122.44314575195312,-0.0066144307454427086,0.22866666666666666,0.3367857142857143,-0.008025868733723959,-1.7357889586181656,-0.7690206938476578,46.40591812133789,0.06341976589626735,-0.45856454637315536
5505,-0.20348586865776908,0.17929691314697266,85.47554016113281,79.8905029296875,-4.093616485595703,122.46360778808594,-0.0066144307454427086,0.225,0.3364285714285714,-0.007049391004774305,-1.9115644865722672,-1.505081790039064,46.40591812133789,0.06205596923828125,-0.46174693637424047
5506,-0.18004836865776908,0.17929691314697266,85.12775421142578,77.72195434570312,-3.9504127502441406,122.50452423095703,-0.006387117173936632,0.22233333333333333,0.3357142857142857,-0.006896803114149305,-2.241144793579103,-1.9555078917236344,46.40591812133789,0.08228666517469618,-0.46061041090223526
5507,-0.21129836865776908,0.13945316314697265,85.76194763183594,79.93142700195312,-3.2139244079589844,122.44314575195312,-0.0066144307454427086,0.21966666666666668,0.3360714285714286,-0.0076596577962239586,-2.526779788085939,-0.5932451658935562,46.40591812133789,0.06478356255425347,-0.45174522399902345
5508,-0.2503608686577691,0.13945316314697265,85.72103881835938,79.9518814086914,-2.1705665588378906,122.44314575195312,-0.0066144307454427086,0.216,0.3364285714285714,-0.008910878499348959,-3.0650946074218766,-0.4614130430908219,46.40591812133789,0.06410174899631077,-0.4401523590087891
5509,-0.2698921186577691,0.13945316314697265,85.72103881835938,79.78821563720703,-4.564151763916016,122.48406219482422,-0.006841744316948784,0.21166666666666667,0.3367857142857143,-0.01068081325954861,-3.273829119750978,-0.17577614123535312,44.29655838012695,0.06592025756835937,-0.46720237731933595
5510,-0.2933296186577691,0.15937503814697265,85.70057678222656,79.80867004394531,-4.8914794921875,122.46360778808594,-0.006387117173936632,0.20766666666666667,0.3385714285714286,-0.013671451144748263,-3.2957998686523453,0.17577600479125977,44.12078094482422,0.06546563042534723,-0.4706120808919271
5511,-0.2855171186577691,0.15937503814697265,85.72103881835938,78.72439575195312,-4.850563049316406,122.48406219482422,-0.006387117173936632,0.203,0.3392857142857143,-0.01284756130642361,-3.515520709106447,-0.5492998533935562,44.03289031982422,0.077740478515625,-0.47038472493489586
5512,-0.2737983686577691,0.13945316314697265,85.72103881835938,78.70394134521484,-4.871021270751953,122.46360778808594,-0.006387117173936632,0.19866666666666666,0.34,-0.01089443630642361,-3.273829119750978,-0.6591612272949234,44.03289031982422,0.0779677497016059,-0.470384767320421
5513,-0.3089546186577691,0.13945316314697265,85.53691101074219,77.435546875,-4.850563049316406,122.48406219482422,-0.006387117173936632,0.19433333333333333,0.3407142857142857,-0.01235928005642361,-2.845373766967775,-0.19774879748535312,43.85710906982422,0.09001515706380209,-0.47038472493489586
5514,-0.2698921186577691,0.15937503814697265,85.61874389648438,78.04928588867188,-4.768730163574219,122.48406219482422,-0.006159803602430555,0.18933333333333333,0.3417857142857143,-0.01272549099392361,-2.823403018066408,-0.01098694140625156,43.85710906982422,0.08410508897569445,-0.4694754706488715
5515,-0.20739211865776908,0.17929691314697266,84.20714569091797,75.94210815429688,-4.277740478515625,122.48406219482422,-0.006387117173936632,0.18566666666666667,0.34214285714285714,-0.01138271755642361,-2.944248812744142,-0.9008528166503922,44.03289031982422,0.09183375040690105,-0.46402002970377604
5516,-0.18004836865776908,0.15937503814697265,84.86180114746094,79.93142700195312,-4.523235321044922,122.44314575195312,-0.006387117173936632,0.18066666666666667,0.34214285714285714,-0.010223134358723959,-3.1529833250732437,1.1095860004425049,44.03289031982422,0.054781934950086805,-0.4662931230333116
5517,-0.18004836865776908,0.17929691314697266,85.86424255371094,80.19737243652344,-4.605068206787109,122.40222930908203,-0.006841744316948784,0.17733333333333334,0.34214285714285714,-0.009582265218098959,-3.0980535917968766,2.296074151992798,44.12078094482422,0.06296522352430556,-0.4667477501763238
5518,-0.20739211865776908,0.17929691314697266,86.0074462890625,81.5066909790039,-4.502777099609375,122.44314575195312,-0.006841744316948784,0.17433333333333334,0.3414285714285714,-0.009826405843098959,-2.6915708952636734,1.966494083404541,44.12078094482422,0.050008392333984374,-0.46606580946180554
5519,-0.19567336865776908,0.19921878814697266,85.94607543945312,78.60165405273438,-4.318656921386719,122.44314575195312,-0.006159803602430555,0.17,0.3410714285714286,-0.008483632405598959,-2.493822711059572,0.48338401317596436,44.12078094482422,0.08160468207465278,-0.46402002970377604
5520,-0.18786086865776908,0.17929691314697266,85.92561340332031,79.56317901611328,-4.134532928466797,122.44314575195312,-0.0066144307454427086,0.16633333333333333,0.34035714285714286,-0.006957838270399305,-2.0324102812500016,0.19774800539016724,44.12078094482422,0.07069371541341146,-0.46197420756022134
5521,-0.20348586865776908,0.17929691314697266,85.92561340332031,80.15646362304688,-3.9913291931152344,122.42269134521484,-0.006841744316948784,0.16333333333333333,0.33964285714285714,-0.0075375874837239586,-1.4391657286376969,0.3076080083847046,44.64812088012695,0.06410166422526041,-0.4601557837592231
5522,-0.24254836865776908,0.15937503814697265,84.32989501953125,76.00348663330078,-3.9913291931152344,122.48406219482422,-0.006387117173936632,0.15966666666666668,0.33785714285714286,-0.007263014051649305,-1.2414194517822281,-0.9557825499267594,44.99967956542969,0.0925156487358941,-0.4608376820882161
5523,-0.17223586865776908,0.15937503814697265,84.41172790527344,76.41264343261719,-3.7662887573242188,122.48406219482422,-0.006387117173936632,0.156,0.33714285714285713,-0.005889723036024305,-1.8676210814209,-0.7800070219726578,44.99967956542969,0.08887871636284722,-0.4583372328016493
5524,-0.20348586865776908,0.1195312786102295,84.5958480834961,79.70639038085938,-4.093616485595703,122.44314575195312,-0.0066144307454427086,0.152,0.3364285714285714,-0.004180823432074653,-2.0873400145263687,0.13183200359344482,44.99967956542969,0.054327307807074655,-0.4615195804172092
5525,-0.20739211865776908,0.15937503814697265,84.5958480834961,78.64257049560547,-4.216365814208984,122.48406219482422,-0.0066144307454427086,0.15,0.3360714285714286,-0.006866285536024305,-1.505081790039064,0.04394400119781494,44.99967956542969,0.06614752875434028,-0.4633380889892578
5526,-0.20348586865776908,0.13945316314697265,84.5958480834961,78.86760711669922,-3.1525497436523438,122.46360778808594,-0.006387117173936632,0.14433333333333334,0.3357142857142857,-0.005767652723524305,-2.1312853270263687,0.05493000149726868,44.99967956542969,0.06364712185329861,-0.45129063924153645
5527,-0.2542671186577691,0.13945316314697265,85.49600219726562,79.13356018066406,-2.9275131225585938,122.42269134521484,-0.006387117173936632,0.142,0.33535714285714285,-0.007903798421223959,-1.7357889586181656,0.8349360227584839,44.99967956542969,0.07069380018446181,-0.4483356051974826
5528,-0.2581733686577691,0.17929691314697266,85.29141998291016,78.13111877441406,-1.0862922668457031,122.46360778808594,-0.006387117173936632,0.139,0.33464285714285713,-0.01058926052517361,-1.538040774414064,0.17577600479125977,46.142250061035156,0.07955890231662327,-0.4283322228325738
5529,-0.2581733686577691,0.17929691314697266,85.27096557617188,77.70149993896484,-0.37026214599609375,122.48406219482422,-0.006387117173936632,0.13566666666666666,0.3342857142857143,-0.009978993733723959,-1.5709978514404312,-0.4723993712158219,46.142250061035156,0.0841051737467448,-0.4206036037868924
5530,-0.2581733686577691,0.17929691314697266,83.14332580566406,76.43310546875,2.207447052001953,122.5658950805664,-0.006159803602430555,0.132,0.3339285714285714,-0.01083340115017361,-1.4281813078613297,-0.5822588377685562,46.40591812133789,0.07455800374348959,-0.39287164476182723
5531,-0.2894233686577691,0.15937503814697265,84.32989501953125,75.22608184814453,0.5094337463378906,122.58634948730469,-0.006387117173936632,0.12966666666666668,0.3335714285714286,-0.01168789333767361,-1.3073355131835953,0.010986000299453735,48.339500427246094,0.10115347968207465,-0.41196573045518664
5532,-0.2698921186577691,0.15937503814697265,85.70057678222656,80.46333312988281,-0.14522552490234375,122.52497863769531,-0.0066144307454427086,0.12666666666666668,0.3335714285714286,-0.01031460232204861,-1.175503390380861,1.735788106918335,48.69105911254883,0.05819159613715278,-0.4185578240288628
5533,-0.2503608686577691,0.19921878814697266,85.37325286865234,80.68836975097656,-0.6771316528320312,122.5454330444336,-0.0066144307454427086,0.124,0.3339285714285714,-0.01037563747829861,-0.845923083374025,1.1974740028381348,49.13050842285156,0.05205425686306424,-0.4246951633029514
5534,-0.2698921186577691,0.15937503814697265,85.35279846191406,79.542724609375,-0.042934417724609375,122.5454330444336,-0.0066144307454427086,0.12133333333333333,0.3339285714285714,-0.007934315999348959,-0.7250772886962906,0.9118380546569824,49.21839904785156,0.06455637613932291,-0.4176485273573134
5535,-0.3089546186577691,0.13945316314697265,86.72348022460938,80.74974060058594,-2.1705665588378906,122.52497863769531,-0.006841744316948784,0.118,0.3342857142857143,-0.006011793348524305,-1.164517062255861,1.0546560287475586,49.21839904785156,0.06637488471137153,-0.44106161329481336
5536,-0.23864211865776908,0.1195312786102295,86.559814453125,81.56806182861328,-1.8841552734375,122.50452423095703,-0.006841744316948784,0.11533333333333333,0.335,-0.0021361456976996527,-1.7467752867431656,0.23070600628852844,49.21839904785156,0.055463918050130206,-0.4376519944932726
5537,-0.19957961865776908,0.13945316314697265,86.5188980102539,79.70639038085938,-0.3907203674316406,122.5658950805664,-0.006387117173936632,0.11233333333333333,0.33535714285714285,-0.0019530402289496527,-2.0763555937500016,-0.3295809202880875,49.21839904785156,0.07569452921549479,-0.42174017164442273
5538,-0.20348586865776908,0.13945316314697265,86.5188980102539,79.35859680175781,-0.8407974243164062,122.5454330444336,-0.006387117173936632,0.10833333333333334,0.3357142857142857,-0.0022887335883246527,-2.3290335112304703,-0.6591612272949234,49.21839904785156,0.07955890231662327,-0.426513671875
5539,-0.2816108686577691,0.13945316314697265,86.5188980102539,81.32257080078125,1.1027145385742188,122.5454330444336,-0.006841744316948784,0.105,0.3360714285714286,-0.005218336317274305,-2.6146685057373062,0.20873400568962097,49.21839904785156,0.057736968994140624,-0.4049190945095486
5540,-0.2777046186577691,0.15937503814697265,86.5188980102539,80.42241668701172,-2.722930908203125,122.52497863769531,-0.0066144307454427086,0.09966666666666667,0.3375,-0.0075986226399739586,-3.0211512022705094,-0.3295809202880875,49.21839904785156,0.06773868136935764,-0.4471989949544271
5541,-0.23082961865776908,0.15937503814697265,85.20958709716797,78.86760711669922,-2.6615562438964844,122.58634948730469,-0.006387117173936632,0.09633333333333334,0.3385714285714286,-0.005798170301649305,-3.4056612425537125,-2.1093126707763687,44.29655838012695,0.07046644422743055,-0.4471989525689019
5542,-0.21911086865776908,0.1195312786102295,85.43462371826172,79.62455749511719,-2.0069007873535156,122.52497863769531,-0.006387117173936632,0.09133333333333334,0.34,-0.0028380499945746527,-3.559464114257814,-1.8236757689209,44.29655838012695,0.06455629136827257,-0.43924310472276473
5543,-0.21520461865776908,0.09960939407348633,85.43462371826172,77.86516571044922,-1.3727035522460938,122.5658950805664,-0.006159803602430555,0.08666666666666667,0.3407142857142857,-0.0036620246039496527,-3.240870135375978,-0.3954969816894547,44.12078094482422,0.08410508897569445,-0.4326510959201389
5544,-0.21911086865776908,0.15937503814697265,86.35523986816406,81.79310607910156,-4.011787414550781,122.52497863769531,-0.006841744316948784,0.08133333333333333,0.3417857142857143,-0.007263014051649305,-2.944248812744142,0.6152160167694092,44.12078094482422,0.050690375434027775,-0.4615196228027344
5545,-0.2659858686577691,0.17929691314697266,85.82332611083984,80.85203552246094,-4.093616485595703,122.5454330444336,-0.006841744316948784,0.078,0.34214285714285714,-0.009521230061848959,-2.823403018066408,-0.07690300280761875,42.71453857421875,0.055236562093098955,-0.4626561058892144
5546,-0.24254836865776908,0.17929691314697266,84.67768096923828,78.58119201660156,-4.052700042724609,122.5454330444336,-0.006387117173936632,0.073,0.34214285714285714,-0.009704335530598959,-2.6366411619873062,-0.5932451658935562,42.362979888916016,0.06773876614040798,-0.46220147874620227
5547,-0.24645461865776908,0.17929691314697266,85.12775421142578,75.51249694824219,-3.7662887573242188,122.58634948730469,-0.006159803602430555,0.06866666666666667,0.3414285714285714,-0.01043667263454861,-2.0983263426513687,-0.4723993712158219,42.275089263916016,0.10683619181315104,-0.4594737582736545
5548,-0.22692336865776908,0.17929691314697266,87.86912536621094,80.27920532226562,-4.768730163574219,122.50452423095703,-0.0066144307454427086,0.06633333333333333,0.34035714285714286,-0.010040028889973959,-1.3293062620849625,1.1095860004425049,42.275089263916016,0.0843324449327257,-0.4697028266059028
5549,-0.22692336865776908,0.17929691314697266,85.53691101074219,77.8856201171875,-3.5821685791015625,122.6068115234375,-0.006387117173936632,0.06333333333333334,0.3389285714285714,-0.008971913655598959,-1.4501520567626969,0.08788800239562988,42.62664794921875,0.08501434326171875,-0.45765533447265627
5550,-0.20348586865776908,0.15937503814697265,86.39614868164062,80.52470397949219,-3.500335693359375,122.48406219482422,-0.0066144307454427086,0.06,0.3367857142857143,-0.006316969129774305,-1.6588865690917984,0.36253800988197327,42.71453857421875,0.06523827446831597,-0.4553821987575955
5551,-0.21129836865776908,0.17929691314697266,86.27340698242188,80.0337142944336,-2.7638473510742188,122.44314575195312,-0.0066144307454427086,0.057666666666666665,0.3357142857142857,-0.0075070699055989586,-1.7907186918945328,0.5712720155715942,42.71453857421875,0.06932991875542535,-0.4467443678114149
5552,-0.23473586865776908,0.17929691314697266,86.17111206054688,80.25875091552734,-3.5412521362304688,122.44314575195312,-0.0066144307454427086,0.05566666666666667,0.3335714285714286,-0.007415601942274305,-1.3402925902099625,0.17577600479125977,44.99967956542969,0.06569290161132812,-0.4553821987575955
5553,-0.21911086865776908,0.15937503814697265,86.23248291015625,80.60653686523438,-4.298198699951172,122.46360778808594,-0.006841744316948784,0.052,0.33285714285714285,-0.006011793348524305,-0.9667688780517594,-0.5053564482421891,44.99967956542969,0.06251051161024306,-0.46402007208930124
5554,-0.21520461865776908,0.15937503814697265,84.63676452636719,76.9854736328125,-3.357128143310547,122.52497863769531,-0.006159803602430555,0.048666666666666664,0.3314285714285714,-0.006316969129774305,-1.3842359953613297,-1.2743765288085953,44.99967956542969,0.08501434326171875,-0.4542456309000651
5555,-0.22692336865776908,0.13945316314697265,85.18913269042969,78.35615539550781,-3.66400146484375,122.50452423095703,-0.006159803602430555,0.04533333333333334,0.33107142857142857,-0.005706617567274305,-0.9338098936767594,-0.9338098936767594,46.40591812133789,0.07592196994357639,-0.45742806328667535
5556,-0.23473586865776908,0.1195312786102295,85.23004150390625,78.58119201660156,-3.5821685791015625,122.46360778808594,-0.006387117173936632,0.042666666666666665,0.33071428571428574,-0.006378004286024305,-0.7360617094726578,0.17577600479125977,48.95473098754883,0.07387610541449653,-0.45606418185763886
5557,-0.22692336865776908,0.15937503814697265,85.27096557617188,79.9927978515625,-3.4594192504882812,122.46360778808594,-0.006841744316948784,0.03933333333333333,0.33071428571428574,-0.008727773030598959,-0.8788801604003922,0.8898659944534302,50.36096954345703,0.058646308051215276,-0.45470030042860243
5558,-0.24254836865776908,0.17929691314697266,84.80043029785156,78.33570098876953,-3.520793914794922,122.52497863769531,-0.006387117173936632,0.035666666666666666,0.3317857142857143,-0.009978993733723959,-0.9997259550781266,0.45042601227760315,50.36096954345703,0.07183032565646702,-0.4560641394721137
5559,-0.2698921186577691,0.15937503814697265,84.84133911132812,79.8905029296875,-3.3980445861816406,122.46360778808594,-0.0066144307454427086,0.03233333333333333,0.3325,-0.009155019124348959,-1.3952223234863297,0.4943700134754181,49.7457389831543,0.05500929090711806,-0.4540183597140842
5560,-0.2620796186577691,0.15937503814697265,88.52378845214844,83.22515869140625,-3.254840850830078,122.42269134521484,-0.0066144307454427086,0.029,0.3335714285714286,-0.0075681050618489586,-1.6369139128417984,1.06564199924469,48.60316848754883,0.05887366400824653,-0.45197257995605467
5561,-0.2581733686577691,0.15937503814697265,85.90515899658203,78.66302490234375,-2.9684295654296875,122.62726593017578,-0.006387117173936632,0.024666666666666667,0.335,-0.007873280843098959,-1.7248026304931656,-0.6591612272949234,48.60316848754883,0.08046815660264757,-0.45106328328450523
5562,-0.2972358686577691,0.13945316314697265,84.71859741210938,78.84715270996094,-3.3980445861816406,122.48406219482422,-0.006387117173936632,0.022333333333333334,0.3360714285714286,-0.008514149983723959,-1.3732515745849625,-1.2084604674072281,48.60316848754883,0.06523827446831597,-0.4542456309000651
5563,-0.2816108686577691,0.15937503814697265,83.85935974121094,75.45112609863281,-2.1705665588378906,122.58634948730469,-0.006159803602430555,0.018666666666666668,0.3360714285714286,-0.009734853108723959,-0.9887415343017594,-0.7470480375976578,48.60316848754883,0.09342481825086806,-0.44174351162380643
5564,-0.3284858686577691,0.13945316314697265,86.39614868164062,81.48623657226562,-4.543693542480469,122.46360778808594,-0.0066144307454427086,0.015333333333333332,0.3357142857142857,-0.010162099202473959,-0.4723993712158219,0.45042601227760315,48.251609802246094,0.054554578993055554,-0.46674779256184895
5565,-0.3519233686577691,0.13945316314697265,83.08195495605469,78.43798828125,-3.8072052001953125,122.6068115234375,-0.0066144307454427086,0.012,0.3357142857142857,-0.01040615505642361,-0.3735243254394547,-0.5822588377685562,39.11104965209961,0.05159962972005208,-0.4601557413736979
5566,-0.2737983686577691,0.1195312786102295,87.48042297363281,79.13356018066406,-2.313770294189453,122.44314575195312,-0.006159803602430555,0.008666666666666666,0.33285714285714285,-0.006988355848524305,-0.4174677305908219,-0.19774879748535312,26.982229232788086,0.092742919921875,-0.44174351162380643
5567,-0.2659858686577691,0.09960939407348633,83.79798889160156,75.328369140625,2.0233230590820312,122.50452423095703,-0.006159803602430555,0.006,0.33,-0.005309889051649305,0.7800060510635376,-0.5273291044921891,26.982229232788086,0.0941068861219618,-0.39423556857638886
5568,-0.3597358686577691,0.07968751907348633,82.57050323486328,75.24653625488281,-0.28842926025390625,122.50452423095703,-0.006387117173936632,0.004,0.32392857142857145,-0.005828687879774305,2.0763540267944336,-0.7250772886962906,26.89434051513672,0.08137741088867187,-0.4199217054578993
5569,-0.2894233686577691,0.09960939407348633,83.0410385131836,74.48959350585938,-0.6566734313964844,122.50452423095703,-0.006387117173936632,0.0023333333333333335,0.32,-0.006652662489149305,2.4938220977783203,0.17577600479125977,26.89434051513672,0.09501605563693577,-0.4240133073594835
5570,-0.20739211865776908,0.09960939407348633,86.37569427490234,80.38150024414062,0.836761474609375,122.44314575195312,-0.006387117173936632,0.0006666666666666666,0.31357142857142856,-0.0035704718695746527,2.296074151992798,2.0104379653930664,26.89434051513672,0.06660215589735242,-0.40673760308159723
5571,-0.3402046186577691,0.05976563930511475,87.27584838867188,79.11309814453125,2.3915672302246094,122.5454330444336,-0.0066144307454427086,0.0016666666666666668,0.3092857142857143,-0.001708984375,2.8893179893493652,1.8566340208053589,26.89434051513672,0.09069722493489583,-0.3905985090467665
5572,-0.23082961865776908,0.09960939407348633,87.27584838867188,80.01325988769531,3.1894302368164062,122.46360778808594,-0.0066144307454427086,0.0,0.30392857142857144,-0.0,3.680310010910034,1.0986000299453735,26.89434051513672,0.08069542778862847,-0.3808241950141059
