,WD,WS,AIL_1,AIL_2,ELEV_1,ELEV_2,RUDD,ALT,GS,TH,PTCH,ROLL,PLA_1,AIL,ELEV
3835,-0.14464830822414823,0.15937503814697265,85.76194763183594,79.0312728881836,-2.6615562438964844,120.66329956054688,-0.005705218844943577,0.49033333333333334,0.5307142857142857,-0.007903819613986545,2.515794038772583,-0.03295769030761875,29.706819534301758,0.07478527492947049,-0.4258317311604818
3836,-0.15246080822414823,0.13945316314697265,85.76194763183594,79.15402221679688,-2.9888877868652344,120.68376159667969,-0.0054779052734375,0.49166666666666664,0.5267857142857143,-0.007781749301486545,2.6476261615753174,0.2526780068874359,34.716548919677734,0.07342139350043403,-0.42969610426161026
3837,-0.13292955822414823,0.15937503814697265,85.74149322509766,78.8880615234375,-3.11163330078125,120.66329956054688,-0.0054779052734375,0.49266666666666664,0.5239285714285714,-0.007598654429117838,2.5707240104675293,0.26366400718688965,38.05636978149414,0.07614924112955729,-0.43083258734809027
3838,-0.12121080822414822,0.15937503814697265,85.78240966796875,79.25630950927734,-3.3366737365722656,120.66329956054688,-0.0054779052734375,0.49433333333333335,0.5214285714285715,-0.006347465515136719,2.504807949066162,0.45042601227760315,39.98994827270508,0.07251222398546008,-0.4333330366346571
3839,-0.12902330822414823,0.13945316314697265,85.78240966796875,79.3995132446289,-3.745830535888672,120.66329956054688,-0.005250591701931423,0.49533333333333335,0.5196428571428572,-0.005920240614149305,2.296074151992798,0.6921180486679077,41.74774932861328,0.0709210713704427,-0.4378792232937283
3840,-0.14074205822414823,0.13945316314697265,85.80287170410156,79.58363342285156,-4.011787414550781,120.6428451538086,-0.005705218844943577,0.49666666666666665,0.5182142857142857,-0.005950758192274305,1.9884660243988037,0.4394400119781494,42.97821044921875,0.06910264756944444,-0.44060702853732636
3841,-0.14074205822414823,0.13945316314697265,85.78240966796875,79.70639038085938,-4.380031585693359,120.62238311767578,-0.0054779052734375,0.49866666666666665,0.5171428571428571,-0.005676099989149305,1.581984043121338,0.0,44.38444900512695,0.06751132541232639,-0.44447127448187934
3842,-0.14855455822414823,0.13945316314697265,85.78240966796875,79.62455749511719,-4.543693542480469,120.6428451538086,-0.006159803602430555,0.49966666666666665,0.5160714285714286,-0.005737135145399305,1.219446063041687,-0.5602861815185562,45.79069137573242,0.06842057969835069,-0.44651709662543404
3843,-0.14464830822414823,0.13945316314697265,85.78240966796875,79.23585510253906,-4.543693542480469,120.66329956054688,-0.005705218844943577,0.5013333333333333,0.5160714285714286,-0.006255923377143012,0.9667680263519287,-1.1974741392822281,46.84537124633789,0.07273949517144097,-0.4467443678114149
3844,-0.12511705822414823,0.15937503814697265,85.78240966796875,78.9903564453125,-4.441402435302734,120.70421600341797,-0.005705218844943577,0.502,0.5160714285714286,-0.006835736168755426,0.8019779920578003,-1.505081790039064,47.46059799194336,0.07546725802951389,-0.4460624270968967
3845,-0.10558580822414822,0.15937503814697265,85.78240966796875,78.02882385253906,-4.482318878173828,120.72467803955078,-0.0054779052734375,0.5023333333333333,0.5160714285714286,-0.006866253746880426,0.7800060510635376,-1.527054446289064,47.54848861694336,0.08615095350477431,-0.4467444101969401
3846,-0.11339830822414822,0.15937503814697265,85.78240966796875,78.23341369628906,-4.461860656738281,120.70421600341797,-0.0050232781304253475,0.5013333333333333,0.5160714285714286,-0.007659689585367838,0.8569080233573914,-0.07690300280761875,47.54848861694336,0.08387773301866319,-0.44628974066840277
3847,-0.15636705822414823,0.17929691314697266,85.76194763183594,78.13111877441406,-4.543693542480469,120.70421600341797,-0.005250591701931423,0.5043333333333333,0.5157142857142857,-0.009673786163330079,0.7360620498657227,1.1645159721374512,45.43912887573242,0.0847869873046875,-0.4471989949544271
3848,-0.15246080822414823,0.15937503814697265,85.78240966796875,78.56073760986328,-4.236824035644531,120.66329956054688,-0.005250591701931423,0.5036666666666667,0.5153571428571428,-0.007720724741617838,0.41746801137924194,2.0983259677886963,44.82389831542969,0.08024080064561633,-0.443334706624349
3849,-0.15246080822414823,0.15937503814697265,85.78240966796875,79.21539306640625,-4.134532928466797,120.66329956054688,-0.005705218844943577,0.504,0.5157142857142857,-0.006500053405761719,0.36253800988197327,2.8893179893493652,44.64812088012695,0.07296685112847222,-0.44219813876681857
3850,-0.14074205822414823,0.17929691314697266,85.78240966796875,79.23585510253906,-3.7662887573242188,120.6428451538086,-0.0054779052734375,0.5036666666666667,0.5157142857142857,-0.005279382069905599,0.3185940086841583,2.680583953857422,44.64812088012695,0.07273949517144097,-0.43787926567925345
3851,-0.16808580822414823,0.17929691314697266,85.78240966796875,79.50180053710938,-3.3366737365722656,120.66329956054688,-0.0054779052734375,0.504,0.5157142857142857,-0.004516474405924479,0.36253800988197327,2.4059340953826904,44.64812088012695,0.0697845458984375,-0.4333330366346571
3852,-0.14074205822414823,0.19921878814697266,85.78240966796875,78.64257049560547,-2.6820144653320312,120.68376159667969,-0.00775099860297309,0.503,0.5153571428571428,-0.0028685675726996527,0.32958000898361206,1.768746018409729,43.505550384521484,0.07933154635959201,-0.4262864006890191
3853,-0.13683580822414823,0.15937503814697265,85.78240966796875,78.74485778808594,-2.10919189453125,120.66329956054688,-0.005250591701931423,0.504,0.515,-0.0007934358384874132,0.3405660092830658,1.6259280443191528,43.417659759521484,0.0781950208875868,-0.41969434950086804
3854,-0.09777330822414822,0.15937503814697265,85.78240966796875,79.35859680175781,-0.14522552490234375,120.66329956054688,-0.0054779052734375,0.5023333333333333,0.5142857142857142,0.0018615086873372396,0.38451001048088074,1.8786060810089111,43.417659759521484,0.07137569851345486,-0.39787250094943577
3855,-0.12511705822414823,0.15937503814697265,85.80287170410156,79.9927978515625,2.9439353942871094,120.62238311767578,-0.004568650987413194,0.5026666666666667,0.5139285714285714,0.0018615086873372396,0.4284540116786957,2.2191720008850098,43.417659759521484,0.06455637613932291,-0.36309386359320744
3856,-0.13683580822414823,0.17929691314697266,85.78240966796875,79.09264373779297,-2.2933120727539062,120.6428451538086,-0.005705218844943577,0.502,0.5139285714285714,0.0018615086873372396,0.26366400718688965,1.4171940088272095,43.417659759521484,0.07433073255750867,-0.42151285807291666
3857,-0.12511705822414823,0.15937503814697265,85.78240966796875,79.23585510253906,-2.0273590087890625,120.66329956054688,-0.00775099860297309,0.5016666666666667,0.5135714285714286,0.0033873452080620658,0.4064820110797882,0.8349360227584839,43.505550384521484,0.07273949517144097,-0.41878509521484375
3858,-0.08996080822414822,0.15937503814697265,85.78240966796875,78.9903564453125,-1.0453758239746094,120.72467803955078,-0.005250591701931423,0.5003333333333333,0.5132142857142857,0.005126794179280599,0.36253800988197327,0.4394400119781494,44.82389831542969,0.07546725802951389,-0.408556154039171
3859,-0.08605455822414822,0.15937503814697265,85.76194763183594,79.21539306640625,-0.329345703125,120.68376159667969,-0.0054779052734375,0.5006666666666667,0.5132142857142857,0.005920230017768012,0.48338401317596436,0.41746801137924194,44.99967956542969,0.07273949517144097,-0.40014563666449654
3860,-0.06652330822414822,0.17929691314697266,85.78240966796875,79.11309814453125,0.44805908203125,120.70421600341797,-0.0059324900309244795,0.5003333333333333,0.5125,0.006500042809380426,0.29662200808525085,0.08788800239562988,44.99967956542969,0.07410346137152778,-0.3917350769042969
3861,-0.05871080822414822,0.17929691314697266,85.80287170410156,78.9494400024414,-3.1525497436523438,120.70421600341797,-0.0054779052734375,0.49933333333333335,0.5125,0.0070493486192491316,0.48338401317596436,0.07690200209617615,44.91178894042969,0.07614924112955729,-0.4317418416341146
3862,-0.07042955822414822,0.17929691314697266,85.80287170410156,79.11309814453125,-3.254840850830078,120.66329956054688,-0.0054779052734375,0.499,0.5121428571428571,0.006439018249511719,0.48338401317596436,0.373524010181427,43.68132781982422,0.07433081732855903,-0.4324237823486328
3863,-0.09777330822414822,0.15937503814697265,85.78240966796875,79.11309814453125,-3.3366737365722656,120.68376159667969,-0.0050232781304253475,0.49933333333333335,0.5117857142857143,0.005950747595893012,0.45042601227760315,0.5383139848709106,43.417659759521484,0.07410346137152778,-0.4335603925916884
3864,-0.09777330822414822,0.17929691314697266,85.80287170410156,79.3995132446289,-3.3366737365722656,120.66329956054688,-0.0050232781304253475,0.49833333333333335,0.5110714285714286,0.006133842468261719,0.4284540116786957,0.4394400119781494,43.241878509521484,0.07114842732747396,-0.4333330366346571
3865,-0.08996080822414822,0.17929691314697266,85.80287170410156,79.37905883789062,-3.357128143310547,120.68376159667969,-0.0054779052734375,0.49766666666666665,0.5110714285714286,0.006591595543755426,0.4614120125770569,0.10986000299453735,43.241878509521484,0.07137569851345486,-0.43378766377766925
3866,-0.09386705822414822,0.17929691314697266,85.80287170410156,79.11309814453125,-3.4594192504882812,120.68376159667969,-0.005250591701931423,0.497,0.5107142857142857,0.006530560387505426,0.5822579860687256,-0.02197326953125156,43.76921844482422,0.07433081732855903,-0.43492423163519967
3867,-0.11339830822414822,0.15937503814697265,85.76194763183594,79.01081848144531,-3.4594192504882812,120.68376159667969,-0.005250591701931423,0.49766666666666665,0.5103571428571428,0.005981265174018012,0.6591600179672241,0.07690200209617615,45.17546081542969,0.07501254611545138,-0.43492423163519967
3868,-0.09777330822414822,0.17929691314697266,85.78240966796875,78.96989440917969,-3.4185028076171875,120.66329956054688,-0.005250591701931423,0.496,0.51,0.006316947937011719,0.6042300462722778,0.13183200359344482,45.17546081542969,0.07569461398654515,-0.43424224853515625
3869,-0.08996080822414822,0.17929691314697266,85.78240966796875,79.31768798828125,-3.8481216430664062,120.62238311767578,-0.005250591701931423,0.49566666666666664,0.5096428571428572,0.0068052079942491316,0.5822579860687256,0.24169200658798218,44.38444900512695,0.07183024088541666,-0.4385611640082465
3870,-0.09777330822414822,0.17929691314697266,85.80287170410156,78.90852355957031,-3.9708709716796875,120.68376159667969,-0.005250591701931423,0.49566666666666664,0.5082142857142857,0.0068967607286241316,0.5712720155715942,0.1867620050907135,39.19894027709961,0.07660386827256944,-0.44060702853732636
3871,-0.09386705822414822,0.15937503814697265,85.78240966796875,79.82913208007812,-3.8276634216308594,120.6428451538086,-0.0054779052734375,0.49533333333333335,0.5064285714285715,0.007262961069742838,0.48338401317596436,-0.06591667468261875,36.56224060058594,0.06614752875434028,-0.4385612063937717
3872,-0.09386705822414822,0.15937503814697265,85.80287170410156,79.78821563720703,-3.8276634216308594,120.66329956054688,-0.0050232781304253475,0.49433333333333335,0.5035714285714286,0.0071103837754991316,0.5602860450744629,-0.856909411499025,33.837650299072266,0.06682951185438368,-0.4387884775797526
3873,-0.08605455822414822,0.15937503814697265,85.78240966796875,79.05172729492188,-3.8276634216308594,120.66329956054688,-0.005250591701931423,0.49433333333333335,0.5010714285714286,0.006774701012505426,0.6701459884643555,-1.6588865690917984,30.673608779907227,0.07478535970052083,-0.4387884775797526
3874,-0.07433580822414822,0.15937503814697265,85.80287170410156,78.70394134521484,-3.8072052001953125,120.70421600341797,-0.0050232781304253475,0.49333333333333335,0.49714285714285716,0.006194877624511719,0.7140899896621704,-1.9555078917236344,30.58572006225586,0.07887700398763021,-0.43901579115125866
3875,-0.06652330822414822,0.15937503814697265,85.78240966796875,78.74485778808594,-3.8072052001953125,120.68376159667969,-0.004795964558919271,0.493,0.4942857142857143,0.005645582411024305,0.8678940534591675,-1.7028299742431656,30.58572006225586,0.0781950208875868,-0.4387885199652778
3876,-0.06652330822414822,0.15937503814697265,85.78240966796875,78.92898559570312,-3.7867469787597656,120.68376159667969,-0.005250591701931423,0.49266666666666664,0.4907142857142857,0.004913181728786893,0.9447960257530212,-1.3073355131835953,30.40993881225586,0.07614915635850694,-0.4385612063937717
3877,-0.07433580822414822,0.15937503814697265,85.78240966796875,79.0312728881836,-3.7867469787597656,120.6428451538086,-0.0054779052734375,0.49166666666666664,0.48714285714285716,0.003997675577799479,1.021697998046875,-1.0436712675781266,30.40993881225586,0.07501263088650173,-0.4381065792507596
3878,-0.08214830822414822,0.15937503814697265,85.80287170410156,78.56073760986328,-3.7662887573242188,120.70421600341797,-0.0050232781304253475,0.492,0.4832142857142857,0.0031432151794433595,0.9447960257530212,-0.7580343657226578,30.40993881225586,0.08046815660264757,-0.4385611640082465
3879,-0.07433580822414822,0.15937503814697265,85.78240966796875,78.80622863769531,-3.7662887573242188,120.66329956054688,-0.0050232781304253475,0.49133333333333334,0.4807142857142857,0.0030821800231933595,0.5602860450744629,-0.4064833098144547,30.40993881225586,0.07751312255859374,-0.4381065368652344
3880,-0.07433580822414822,0.15937503814697265,86.41661071777344,80.23829650878906,-3.745830535888672,120.62238311767578,-0.0054779052734375,0.49,0.4775,0.0031126976013183595,0.2746500074863434,-0.07690300280761875,30.40993881225586,0.06864793565538195,-0.43742459615071616
3881,-0.08605455822414822,0.17929691314697266,85.96653747558594,79.62455749511719,-3.745830535888672,120.6428451538086,-0.005250591701931423,0.48966666666666664,0.47464285714285714,0.0023192617628309464,0.17577600479125977,-1.0766283446044937,30.40993881225586,0.07046644422743055,-0.4376519521077474
3882,-0.10167955822414822,0.17929691314697266,85.90515899658203,78.51982116699219,-3.725372314453125,120.68376159667969,-0.0050232781304253475,0.487,0.46964285714285714,0.0007324006822374132,0.23070600628852844,-1.9994532042236344,30.40993881225586,0.08205930921766492,-0.43787926567925345
3883,-0.10949205822414822,0.17929691314697266,85.90515899658203,78.06974792480469,-3.745830535888672,120.68376159667969,-0.0050232781304253475,0.484,0.4667857142857143,-0.0010375658671061198,0.16479000449180603,-2.0324102812500016,30.40993881225586,0.08706012301974826,-0.4381065792507596
3884,-0.10558580822414822,0.17929691314697266,85.92561340332031,78.09020233154297,-3.9913291931152344,120.68376159667969,-0.004795964558919271,0.4816666666666667,0.4617857142857143,-0.0018920368618435329,0.05493000149726868,-1.3183199339599625,30.40993881225586,0.08706012301974826,-0.4408343421088325
3885,-0.10949205822414822,0.17929691314697266,85.92561340332031,78.76531982421875,-4.277740478515625,120.68376159667969,-0.0050232781304253475,0.48,0.45785714285714285,-0.0026244375440809464,-0.21972145373535312,-0.3625379973144547,30.40993881225586,0.07955881754557291,-0.44401668972439234
3886,-0.10558580822414822,0.15937503814697265,85.92561340332031,78.68348693847656,-4.789188385009766,120.68376159667969,-0.0054779052734375,0.47833333333333333,0.4517857142857143,-0.0024413320753309464,-0.5712725096435562,0.20873400568962097,30.40993881225586,0.08046807183159722,-0.44969944424099395
3887,-0.09777330822414822,0.15937503814697265,85.90515899658203,79.33814239501953,-5.11651611328125,120.62238311767578,-0.0054779052734375,0.476,0.4471428571428571,-0.0015563540988498264,-0.8678938322753922,0.7690200209617615,30.40993881225586,0.07296685112847222,-0.4526544358995226
3888,-0.10167955822414822,0.17929691314697266,85.90515899658203,79.62455749511719,-5.689342498779297,120.62238311767578,-0.0050232781304253475,0.47533333333333333,0.4407142857142857,-0.0012511889139811198,-1.2304331236572281,0.9228240251541138,30.40993881225586,0.06978446112738715,-0.45901917351616756
3889,-0.11339830822414822,0.15937503814697265,85.92561340332031,79.37905883789062,-6.016670227050781,120.6428451538086,-0.0050232781304253475,0.4756666666666667,0.4357142857142857,-0.0009765413072374132,-1.549027102539064,0.6921180486679077,30.40993881225586,0.07273949517144097,-0.4628835042317708
3890,-0.10167955822414822,0.15937503814697265,85.94607543945312,78.80622863769531,-5.996212005615234,120.66329956054688,-0.0050232781304253475,0.47433333333333333,0.42928571428571427,0.0003356827629937066,-2.263117449829103,0.6152160167694092,30.40993881225586,0.07933163113064236,-0.4628834618462457
3891,-0.07433580822414822,0.13945316314697265,85.90515899658203,79.15402221679688,-5.341556549072266,120.62238311767578,-0.005250591701931423,0.471,0.425,0.0024108144972059464,-3.0101648741455094,1.307334065437317,30.40993881225586,0.07501263088650173,-0.45515488518608943
3892,-0.09386705822414822,0.13945316314697265,85.96653747558594,81.11798858642578,-5.157432556152344,120.62238311767578,-0.0054779052734375,0.468,0.41964285714285715,0.0027770148383246527,-3.0541082792968766,1.8566340208053589,30.40993881225586,0.053872765435112845,-0.45310906304253473
3893,-0.12121080822414822,0.15937503814697265,85.98699188232422,80.27920532226562,-5.11651611328125,120.6428451538086,-0.0054779052734375,0.4653333333333333,0.41714285714285715,0.0020751317342122396,-2.812416689941408,0.8678940534591675,30.40993881225586,0.06341985066731771,-0.4528817918565538
3894,-0.08996080822414822,0.15937503814697265,85.96653747558594,78.35615539550781,-5.014228820800781,120.66329956054688,-0.0050232781304253475,0.4613333333333333,0.41285714285714287,0.0036925103929307725,-3.0211512022705094,-0.06591667468261875,30.40993881225586,0.08455980088975694,-0.4519725375705295
3895,-0.05089830822414822,0.15937503814697265,85.96653747558594,79.66546630859375,-4.911937713623047,120.62238311767578,-0.0050232781304253475,0.45666666666666667,0.41,0.005950747595893012,-3.6143938475341812,0.4943700134754181,30.40993881225586,0.07001190185546875,-0.45038134256998696
3896,-0.07433580822414822,0.15937503814697265,86.33477783203125,81.36347961425781,-4.707359313964844,120.62238311767578,-0.0054779052734375,0.4523333333333333,0.40714285714285714,0.005401441786024305,-3.965946810791017,0.8459219932556152,30.40993881225586,0.05523664686414931,-0.4481082492404514
3897,-0.10167955822414822,0.15937503814697265,85.98699188232422,80.79066467285156,-4.236824035644531,120.6019287109375,-0.0054779052734375,0.447,0.405,0.004089228312174479,-3.9989038878173844,-0.4394403868408219,30.40993881225586,0.057736968994140624,-0.4426528082953559
3898,-0.09386705822414822,0.15937503814697265,85.98699188232422,79.31768798828125,-3.5412521362304688,120.66329956054688,-0.004568650987413194,0.441,0.4025,0.0037230279710557725,-3.6803099089355484,-1.8895918303222672,30.40993881225586,0.07410337660047743,-0.43560612996419273
3899,-0.07433580822414822,0.15937503814697265,85.92561340332031,78.13111877441406,-3.7867469787597656,120.66329956054688,-0.005250591701931423,0.436,0.4007142857142857,0.0032347679138183595,-3.0870672636718766,-2.175228732177736,30.40993881225586,0.0866054958767361,-0.43833385043674045
3900,-0.05871080822414822,0.15937503814697265,85.92561340332031,78.90852355957031,-4.216365814208984,120.6428451538086,-0.004568650987413194,0.43066666666666664,0.39714285714285713,0.0029906272888183595,-2.823403018066408,-1.3402925902099625,30.40993881225586,0.07796766493055556,-0.442880121866862
3901,-0.05089830822414822,0.15937503814697265,85.96653747558594,80.11553955078125,-4.993770599365234,120.58146667480469,-0.0054779052734375,0.42733333333333334,0.3942857142857143,0.0027464972601996527,-3.4715773039550797,-0.3845106535644547,30.322050094604492,0.06501108805338542,-0.4508359697129991
3902,-0.07824205822414822,0.15937503814697265,85.92561340332031,80.64745330810547,-5.11651611328125,120.5610122680664,-0.005250591701931423,0.425,0.38857142857142857,0.0013732486300998264,-4.614121096679689,-0.10986007983398594,30.322050094604492,0.05864622328016493,-0.4519725375705295
3903,-0.10167955822414822,0.15937503814697265,85.96653747558594,79.58363342285156,-4.9733123779296875,120.66329956054688,-0.004795964558919271,0.422,0.3846428571428571,0.0003662003411187066,-5.646805422851564,-0.3954969816894547,30.322050094604492,0.07092115614149305,-0.4515179104275174
3904,-0.10167955822414822,0.15937503814697265,85.96653747558594,78.8880615234375,-5.136974334716797,120.68376159667969,-0.004568650987413194,0.419,0.3792857142857143,-0.00018310546875,-6.294979708740236,-0.4284540587158219,30.322050094604492,0.0786497328016493,-0.4535637325710721
3905,-0.09386705822414822,0.13945316314697265,85.94607543945312,79.29722595214844,-4.564151763916016,120.66329956054688,-0.0050232781304253475,0.4146666666666667,0.3757142857142857,0.0002441300286187066,-6.547657626220705,-0.07690300280761875,30.322050094604492,0.07387610541449653,-0.446971681382921
3906,-0.08996080822414822,0.13945316314697265,85.94607543945312,80.15646362304688,-4.318656921386719,120.6019287109375,-0.0050232781304253475,0.41,0.37142857142857144,0.0004577424791124132,-6.327936785766603,0.36253800988197327,30.322050094604492,0.06432902018229167,-0.4435620625813802
3907,-0.08605455822414822,0.15937503814697265,85.94607543945312,80.07463073730469,-4.073158264160156,120.6019287109375,-0.0059324900309244795,0.4056666666666667,0.3692857142857143,0.0010070482889811198,-5.690748828002931,0.5383139848709106,30.322050094604492,0.06523827446831597,-0.4408342997233073
3908,-0.08214830822414822,0.15937503814697265,85.92561340332031,80.21783447265625,-3.9504127502441406,120.5610122680664,-0.005250591701931423,0.40066666666666667,0.3653571428571429,0.0015868610805935329,-5.064547198364259,0.4614120125770569,30.322050094604492,0.06341976589626735,-0.43901583353678386
3909,-0.06652330822414822,0.17929691314697266,85.92561340332031,80.40196228027344,-4.011787414550781,120.5610122680664,-0.005250591701931423,0.3963333333333333,0.36214285714285716,0.0026854621039496527,-4.548205035278322,0.16479000449180603,30.322050094604492,0.0613739013671875,-0.4396977742513021
3910,-0.04699205822414822,0.17929691314697266,85.94607543945312,80.85203552246094,-4.011787414550781,120.58146667480469,-0.005250591701931423,0.39166666666666666,0.3578571428571429,0.004028193155924479,-4.273554461547853,-0.07690300280761875,30.322050094604492,0.05660044352213542,-0.439925045437283
3911,-0.04308580822414822,0.15937503814697265,86.25294494628906,80.68836975097656,-3.479877471923828,120.5610122680664,-0.005250591701931423,0.388,0.355,0.004760593838161893,-4.295527117797853,-0.3735243254394547,30.322050094604492,0.06182861328125,-0.43378766377766925
3912,-0.05871080822414822,0.15937503814697265,86.0074462890625,80.81111145019531,-3.1730079650878906,120.58146667480469,-0.0050232781304253475,0.38466666666666666,0.35035714285714287,0.0031126976013183595,-4.086792605468752,-0.823950427124025,30.322050094604492,0.05773705376519097,-0.4306052737765842
3913,-0.07824205822414822,0.17929691314697266,85.98699188232422,79.23585510253906,-3.132091522216797,116.51033020019531,-0.0050232781304253475,0.38133333333333336,0.3475,0.0010680834452311198,-3.4715773039550797,-1.5819841795654312,30.322050094604492,0.07501263088650173,-0.3849157969156901
3914,-0.05480455822414822,0.17929691314697266,85.96653747558594,78.8880615234375,-2.7638473510742188,116.4898681640625,-0.0050232781304253475,0.378,0.34285714285714286,0.0012511783175998264,-3.1090380125732437,-1.6808592253417984,30.322050094604492,0.0786497328016493,-0.38059683905707464
3915,-0.03136705822414822,0.15937503814697265,85.96653747558594,79.21539306640625,-2.2933120727539062,116.4489517211914,-0.005250591701931423,0.37433333333333335,0.34,0.0018615086873372396,-2.845373766967775,-0.7580343657226578,30.673608779907227,0.07501271565755209,-0.3749140421549479
3916,-0.04308580822414822,0.15937503814697265,85.96653747558594,80.62699890136719,-2.10919189453125,116.40803527832031,-0.005250591701931423,0.37133333333333335,0.3360714285714286,0.0013122134738498264,-2.3510042601318375,0.29662200808525085,35.8591194152832,0.05932820638020833,-0.37241363525390625
3917,-0.06652330822414822,0.17929691314697266,85.96653747558594,80.46333312988281,-2.334228515625,116.42849731445312,-0.002750142415364583,0.369,0.3335714285714286,-0.0,-1.8346620970459,0.6591600179672241,38.407928466796875,0.061146714952256945,-0.37514139811197916
3918,-0.07824205822414822,0.17929691314697266,85.96653747558594,79.87004852294922,-2.4160614013671875,116.4489517211914,-0.005250591701931423,0.36666666666666664,0.33214285714285713,-0.0004577530754937066,-1.6918455534667984,0.6921180486679077,40.25362014770508,0.06773876614040798,-0.3762779235839844
3919,-0.07824205822414822,0.17929691314697266,85.96653747558594,79.84959411621094,-2.518352508544922,116.4489517211914,-0.005250591701931423,0.3626666666666667,0.33071428571428574,0.0002136124504937066,-1.9335371428222672,0.6481740474700928,41.48408126831055,0.0679660373263889,-0.37741449144151473
3920,-0.06652330822414822,0.17929691314697266,85.94607543945312,79.64501190185547,-2.5797271728515625,116.42849731445312,-0.0059324900309244795,0.36,0.33,0.0020446141560872396,-2.0324102812500016,0.5822579860687256,42.62664794921875,0.0700118170844184,-0.3778691609700521
3921,-0.05089830822414822,0.17929691314697266,87.50088500976562,82.16134643554688,-2.477436065673828,116.42849731445312,-0.005250591701931423,0.357,0.3292857142857143,0.0039061334398057725,-1.9335371428222672,0.8678940534591675,42.97821044921875,0.05932820638020833,-0.3767325931125217
3922,-0.06261705822414822,0.17929691314697266,86.90760040283203,81.81356048583984,-2.0478172302246094,120.6019287109375,-0.0050232781304253475,0.3536666666666667,0.32857142857142857,0.003997675577799479,-1.9664942198486344,-0.2416922026367203,43.68132781982422,0.05660044352213542,-0.41833051045735675
3923,-0.06261705822414822,0.17929691314697266,86.47798156738281,79.29722595214844,-1.6591148376464844,120.62238311767578,-0.004795964558919271,0.35,0.32857142857142857,0.0033568276299370658,-1.9664942198486344,-1.6698728972167984,43.85710906982422,0.07978617350260417,-0.4142388661702474
3924,-0.04308580822414822,0.17929691314697266,86.62118530273438,78.64257049560547,-1.8841552734375,120.66329956054688,-0.004795964558919271,0.3463333333333333,0.32857142857142857,0.0034483803643120658,-1.8456484251709,-1.538040774414064,44.03289031982422,0.08865127563476563,-0.4171939425998264
3925,-0.05480455822414822,0.17929691314697266,86.64164733886719,79.9518814086914,-2.129650115966797,120.5405502319336,-0.005250591701931423,0.3423333333333333,0.32821428571428574,0.0019530614217122396,-1.7357889586181656,-0.4284540587158219,44.03289031982422,0.07433073255750867,-0.4185577816433377
3926,-0.08605455822414822,0.17929691314697266,86.662109375,80.52470397949219,-2.1910247802734375,120.58146667480469,-0.005250591701931423,0.3406666666666667,0.32821428571428574,-0.0006408585442437066,-1.8126913481445328,0.13183200359344482,44.03289031982422,0.06819339328342014,-0.41969434950086804
3927,-0.10558580822414822,0.19921878814697266,86.62118530273438,78.92898559570312,-1.8432388305664062,120.6428451538086,-0.004568650987413194,0.33666666666666667,0.32821428571428574,-0.0022277196248372396,-2.230158465454103,-0.18676246936035312,44.38444900512695,0.08546888563368056,-0.4165120442708333
3928,-0.08996080822414822,0.19921878814697266,86.49844360351562,78.540283203125,-0.37026214599609375,120.6428451538086,-0.004795964558919271,0.333,0.32821428571428574,-0.0014342837863498264,-2.493822711059572,-0.19774879748535312,44.64812088012695,0.08842400444878472,-0.40014563666449654
3929,-0.06261705822414822,0.17929691314697266,86.6007308959961,79.4813461303711,1.2459182739257812,120.58146667480469,-0.004568650987413194,0.3293333333333333,0.32857142857142857,0.0006408479478624132,-2.3180471831054703,0.3405660092830658,44.64812088012695,0.07910427517361111,-0.381506093343099
3930,-0.05871080822414822,0.19921878814697266,86.86668395996094,81.97721862792969,-0.3907203674316406,120.5610122680664,-0.004114023844401042,0.32566666666666666,0.32821428571428574,0.0016478962368435329,-2.197201388427736,0.790992021560669,42.62664794921875,0.054327392578125,-0.3994636959499783
3931,-0.06652330822414822,0.19921878814697266,86.72348022460938,80.77020263671875,-1.0453758239746094,120.58146667480469,-0.0050232781304253475,0.32133333333333336,0.32821428571428574,0.0018310017055935329,-2.0763555937500016,-0.08788933093261875,42.01142120361328,0.06614752875434028,-0.4069649166531033
3932,-0.06261705822414822,0.17929691314697266,86.72348022460938,79.27676391601562,-1.331787109375,120.66329956054688,-0.007296371459960938,0.31933333333333336,0.32785714285714285,0.0019225438435872396,-1.8236757689209,-0.8678938322753922,41.83563995361328,0.08274129231770834,-0.4110565185546875
3933,-0.05089830822414822,0.17929691314697266,86.72348022460938,79.37905883789062,-0.9021682739257812,120.6428451538086,-0.004795964558919271,0.31533333333333335,0.3271428571428571,0.0021361668904622396,-1.8126913481445328,-0.8788801604003922,41.83563995361328,0.08160468207465278,-0.40605570475260416
3934,-0.05089830822414822,0.17929691314697266,86.70301818847656,80.46333312988281,-0.943084716796875,120.62238311767578,-0.0050232781304253475,0.311,0.3264285714285714,0.0018310017055935329,-1.9555078917236344,-0.21972145373535312,41.22040939331055,0.069329833984375,-0.4062829759385851
3935,-0.07433580822414822,0.17929691314697266,86.72348022460938,80.32012939453125,-0.37026214599609375,120.6019287109375,-0.004795964558919271,0.309,0.32571428571428573,3.0517578125e-05,-2.0983263426513687,0.12084600329399109,41.13251876831055,0.0711483425564236,-0.3996910095214844
3936,-0.08996080822414822,0.19921878814697266,86.72348022460938,80.21783447265625,-0.002017974853515625,120.6019287109375,-0.0050232781304253475,0.306,0.32535714285714284,-0.0011291186014811198,-1.8895918303222672,-0.02197326953125156,40.95674133300781,0.07228495279947916,-0.3955994076199002
3937,-0.08996080822414822,0.19921878814697266,86.70301818847656,80.38150024414062,-0.12476730346679688,120.58146667480469,-0.0050232781304253475,0.303,0.3246428571428571,-0.0014648013644748264,-1.3293062620849625,-0.2307058745117203,40.95674133300781,0.0702390882703993,-0.39673593309190536
3938,-0.09386705822414822,0.19921878814697266,86.72348022460938,79.74729919433594,-0.042934417724609375,120.6019287109375,-0.0043413374159071184,0.2996666666666667,0.32392857142857145,-0.0017394489712185329,-1.142544406005861,-0.49437012011718906,41.48408126831055,0.07751312255859374,-0.39605403476291234
3939,-0.08996080822414822,0.19921878814697266,86.70301818847656,79.41996765136719,0.3866844177246094,120.62238311767578,-0.004568650987413194,0.296,0.32285714285714284,-0.0016173892550998264,-1.2304331236572281,-0.3185945921630875,42.01142120361328,0.08092278374565973,-0.3915077633327908
3940,-0.08605455822414822,0.17929691314697266,86.70301818847656,80.27920532226562,0.8572196960449219,120.58146667480469,-0.004795964558919271,0.29233333333333333,0.32142857142857145,-0.0012511889139811198,-1.2414194517822281,0.29662200808525085,42.01142120361328,0.07137569851345486,-0.38582496643066405
3941,-0.10167955822414822,0.17929691314697266,86.70301818847656,81.17935943603516,0.8163032531738281,120.58146667480469,-0.0050232781304253475,0.29,0.32071428571428573,-0.0018920368618435329,-1.0986010008544937,0.6811320185661316,42.01142120361328,0.06137398613823785,-0.3862795935736762
3942,-0.11730455822414822,0.17929691314697266,86.70301818847656,80.60653686523438,0.10027313232421875,120.58146667480469,-0.004795964558919271,0.28733333333333333,0.32035714285714284,-0.0026854727003309464,-1.0107122832031266,0.3185940086841583,42.01142120361328,0.06773868136935764,-0.3942354838053385
3943,-0.11730455822414822,0.17929691314697266,86.72348022460938,79.9518814086914,0.4276008605957031,120.6019287109375,-0.004795964558919271,0.284,0.3192857142857143,-0.0025634023878309464,-1.0766283446044937,-0.15380539233398594,42.01142120361328,0.07523998684353299,-0.39082586500379773
3944,-0.08996080822414822,0.19921878814697266,86.72348022460938,79.78821563720703,1.3072929382324219,120.6019287109375,-0.004795964558919271,0.2806666666666667,0.31857142857142856,-0.0007324006822374132,-1.2963491850585953,-0.4174677305908219,42.71453857421875,0.0770584954155816,-0.381051508585612
3945,-0.07042955822414822,0.17929691314697266,86.70301818847656,80.05416870117188,0.7958450317382812,120.6019287109375,-0.0050232781304253475,0.2776666666666667,0.31785714285714284,0.0005187776353624132,-1.2304331236572281,-0.2636648588867203,43.417659759521484,0.07387610541449653,-0.38673426310221354
3946,-0.06652330822414822,0.19921878814697266,86.72348022460938,80.34058380126953,1.0004234313964844,120.58146667480469,-0.00297745598687066,0.2743333333333333,0.3175,0.0007324006822374132,-1.3183199339599625,-0.10986007983398594,43.417659759521484,0.0709210713704427,-0.3842338138156467
3947,-0.07042955822414822,0.17929691314697266,86.68256378173828,80.64745330810547,1.061798095703125,120.5610122680664,-0.0043413374159071184,0.27,0.3171428571428571,0.0004577424791124132,-1.4721247130126969,-0.05493034655761875,43.241878509521484,0.06705678304036458,-0.38332460191514756
3948,-0.08214830822414822,0.17929691314697266,86.72348022460938,80.52470397949219,0.48897552490234375,120.58146667480469,-0.0054779052734375,0.2673333333333333,0.3171428571428571,-0.0,-1.0766283446044937,-0.13183273608398594,42.538761138916016,0.0688752916124132,-0.38991656833224825
3949,-0.08605455822414822,0.17929691314697266,86.72348022460938,80.01325988769531,-0.042934417724609375,120.62238311767578,-0.0050232781304253475,0.2643333333333333,0.3167857142857143,-0.0006103409661187066,-0.6481748991699234,-0.2526785307617203,41.48408126831055,0.07455800374348959,-0.3962813059488932
3950,-0.08214830822414822,0.19921878814697266,86.72348022460938,79.0312728881836,-0.042934417724609375,120.66329956054688,-0.004114023844401042,0.2613333333333333,0.31607142857142856,-0.0012817064921061198,-0.7909933500976578,-0.4064833098144547,41.22040939331055,0.0854689704047309,-0.39673593309190536
3951,-0.06652330822414822,0.19921878814697266,86.72348022460938,79.27676391601562,-0.06339263916015625,120.66329956054688,-0.0043413374159071184,0.25733333333333336,0.3157142857142857,-0.000274658203125,-0.8898664885253922,-0.14281906420898594,41.22040939331055,0.08274129231770834,-0.3969632466634115
3952,-0.05871080822414822,0.19921878814697266,86.70301818847656,79.9927978515625,0.4276008605957031,120.58146667480469,-0.004568650987413194,0.254,0.31535714285714284,0.0006713655259874132,-0.9008528166503922,0.4284540116786957,42.362979888916016,0.07455800374348959,-0.3905985090467665
3953,-0.07433580822414822,0.19921878814697266,86.72348022460938,81.17935943603516,0.24347686767578125,120.58146667480469,-0.004795964558919271,0.251,0.315,-0.000152587890625,-0.5053564482421891,0.6811320185661316,43.417659759521484,0.061601342095269095,-0.39264433119032116
3954,-0.10167955822414822,0.19921878814697266,86.70301818847656,81.26119232177734,0.40714263916015625,120.58146667480469,-0.004795964558919271,0.24833333333333332,0.3142857142857143,-0.0014342837863498264,-0.3735243254394547,0.16479000449180603,43.505550384521484,0.060464731852213544,-0.3908258226182726
3955,-0.11730455822414822,0.17929691314697266,86.72348022460938,80.19737243652344,-0.002017974853515625,120.6019287109375,-0.0050232781304253475,0.24533333333333332,0.31392857142857145,-0.0024108250935872396,-0.6701475554199234,-0.7031046324462906,43.505550384521484,0.07251230875651042,-0.3955994076199002
3956,-0.11339830822414822,0.17929691314697266,86.02790832519531,78.62211608886719,-1.2499542236328125,120.66329956054688,-0.0043413374159071184,0.242,0.31392857142857145,-0.0023803075154622396,-0.6262022429199234,-0.9118391447753922,44.64812088012695,0.08228658040364584,-0.4101472642686632
3957,-0.09777330822414822,0.17929691314697266,86.43707275390625,78.76531982421875,-1.9250717163085938,120.72467803955078,-0.0043413374159071184,0.23933333333333334,0.3142857142857143,-0.0017394489712185329,-0.6481748991699234,-0.19774879748535312,44.82389831542969,0.08524169921875,-0.41833055284288195
3958,-0.09386705822414822,0.19921878814697266,86.47798156738281,80.46333312988281,-2.272857666015625,120.6019287109375,-0.0050232781304253475,0.236,0.31464285714285717,-0.0021972020467122396,-1.0876146727294937,0.8239500522613525,44.82389831542969,0.06682942708333334,-0.4208309597439236
3959,-0.12121080822414822,0.17929691314697266,86.47798156738281,81.13844299316406,-2.313770294189453,120.62238311767578,-0.004795964558919271,0.233,0.31535714285714284,-0.0030516730414496527,-1.6918455534667984,0.8569080233573914,44.99967956542969,0.05932820638020833,-0.4215128156873915
3960,-0.13292955822414823,0.17929691314697266,86.49844360351562,80.15646362304688,-1.8227806091308594,120.6428451538086,-0.004795964558919271,0.22866666666666666,0.31607142857142856,-0.0032652854919433595,-1.8346620970459,0.06591600179672241,44.99967956542969,0.07046644422743055,-0.41628473069932725
3961,-0.12121080822414822,0.17929691314697266,86.49844360351562,79.87004852294922,-1.9659843444824219,120.6428451538086,-0.004568650987413194,0.225,0.3167857142857143,-0.0026244375440809464,-1.3622652464599625,-0.20873512561035312,44.03289031982422,0.07364883422851562,-0.4178758833143446
3962,-0.11339830822414822,0.17929691314697266,86.49844360351562,79.97233581542969,-2.313770294189453,120.62238311767578,-0.004114023844401042,0.22133333333333333,0.3171428571428571,-0.0017089419894748264,-0.823950427124025,0.1867620050907135,42.538761138916016,0.07251230875651042,-0.4215128156873915
3963,-0.10558580822414822,0.19921878814697266,86.49844360351562,79.9518814086914,-2.334228515625,120.62238311767578,-0.004568650987413194,0.21766666666666667,0.3171428571428571,-0.0013732486300998264,-0.7250772886962906,0.516342043876648,42.538761138916016,0.07273957994249132,-0.4217401292588976
3964,-0.13292955822414823,0.15937503814697265,86.49844360351562,80.72928619384766,-2.2933120727539062,120.62238311767578,-0.004795964558919271,0.21466666666666667,0.3171428571428571,-0.0018920368618435329,-0.7360617094726578,0.9667680263519287,42.362979888916016,0.06410174899631077,-0.4212855021158854
3965,-0.12121080822414822,0.17929691314697266,86.86668395996094,80.9543228149414,-2.252399444580078,120.62238311767578,-0.004795964558919271,0.21166666666666667,0.3171428571428571,-0.0010986010233561198,-0.6591612272949234,0.6481740474700928,42.362979888916016,0.06569290161132812,-0.42083091735839845
3966,-0.11339830822414822,0.17929691314697266,86.6007308959961,81.07707214355469,-2.477436065673828,120.6019287109375,-0.004568650987413194,0.209,0.3171428571428571,0.0005492952134874132,-0.4723993712158219,-0.14281906420898594,42.538761138916016,0.06137398613823785,-0.4231040530734592
3967,-0.10949205822414822,0.17929691314697266,86.6007308959961,80.70883178710938,-2.6206436157226562,120.62238311767578,-0.004795964558919271,0.20533333333333334,0.3171428571428571,0.0006103303697374132,-0.6262022429199234,-1.120571749755861,44.64812088012695,0.06546554565429688,-0.42492251925998265
3968,-0.10949205822414822,0.17929691314697266,86.6007308959961,79.46089172363281,-2.6206436157226562,120.66329956054688,-0.004568650987413194,0.202,0.3171428571428571,-0.0008544709947374132,-1.1095873289794937,-1.5819841795654312,44.82389831542969,0.07933154635959201,-0.4253771464029948
3969,-0.11730455822414822,0.17929691314697266,86.58027648925781,78.68348693847656,-2.702472686767578,120.68376159667969,-0.0043413374159071184,0.199,0.3175,-0.0026854727003309464,-1.3622652464599625,-1.4501520567626969,44.82389831542969,0.08774210611979166,-0.4265137142605252
3970,-0.12902330822414823,0.17929691314697266,86.58027648925781,79.50180053710938,-2.722930908203125,120.66329956054688,-0.0043413374159071184,0.196,0.31785714285714284,-0.004211298624674479,-1.2963491850585953,-0.7690206938476578,44.56023025512695,0.0786497328016493,-0.426513671875
3971,-0.14074205822414823,0.17929691314697266,86.559814453125,80.01325988769531,-2.5797271728515625,120.6428451538086,-0.004568650987413194,0.19266666666666668,0.31785714285714284,-0.005370934804280599,-1.2414194517822281,-0.3515516691894547,43.417659759521484,0.07273949517144097,-0.4246952480740017
3972,-0.13683580822414823,0.17929691314697266,86.559814453125,79.97233581542969,-2.1910247802734375,120.62238311767578,-0.004568650987413194,0.189,0.3182142857142857,-0.005981265174018012,-1.0436712675781266,-0.16478981311035312,42.62664794921875,0.07319420708550348,-0.42014897664388023
3973,-0.14464830822414823,0.17929691314697266,86.559814453125,79.66546630859375,-2.7638473510742188,120.62238311767578,-0.004568650987413194,0.18633333333333332,0.31857142857142856,-0.006286440955268012,-0.48338379199218906,-0.05493034655761875,42.538761138916016,0.07660386827256944,-0.426513671875
3974,-0.14464830822414823,0.17929691314697266,86.58027648925781,79.70639038085938,-2.866138458251953,120.6428451538086,-0.004568650987413194,0.18266666666666667,0.31857142857142856,-0.006530570983886719,-0.3185945921630875,0.2856360077857971,42.538761138916016,0.0763765123155382,-0.42787759568956163
3975,-0.14855455822414823,0.17929691314697266,86.559814453125,79.8905029296875,-2.9684295654296875,120.62238311767578,-0.004114023844401042,0.17966666666666667,0.3182142857142857,-0.006316958533393012,-0.7360617094726578,0.3405660092830658,43.417659759521484,0.07410346137152778,-0.42878680759006077
3976,-0.12902330822414823,0.17929691314697266,86.559814453125,79.74729919433594,-2.9275131225585938,120.62238311767578,-0.0043413374159071184,0.17633333333333334,0.31785714285714284,-0.004546991984049479,-1.3512789183349625,0.2197200059890747,44.64812088012695,0.07569461398654515,-0.4283321804470486
3977,-0.12121080822414822,0.17929691314697266,86.559814453125,79.70639038085938,-2.6001853942871094,120.62238311767578,-0.0043413374159071184,0.173,0.31857142857142856,-0.0036009682549370658,-1.7577597075195328,0.14281800389289856,44.64812088012695,0.07614915635850694,-0.4246952056884766
3978,-0.12902330822414823,0.15937503814697265,86.559814453125,80.0337142944336,-2.8252220153808594,120.6019287109375,-0.004568650987413194,0.17,0.31892857142857145,-0.0035399330986870658,-1.4281813078613297,0.19774800539016724,44.29655838012695,0.07251222398546008,-0.42696834140353734
3979,-0.13292955822414823,0.15937503814697265,86.58027648925781,80.19737243652344,-2.866138458251953,120.58146667480469,-0.004568650987413194,0.166,0.3192857142857143,-0.0037535561455620658,-0.8898664885253922,0.17577600479125977,42.62664794921875,0.07092115614149305,-0.4271956125895182
3980,-0.13292955822414823,0.17929691314697266,86.58027648925781,79.84959411621094,-2.641101837158203,120.62238311767578,-0.0043413374159071184,0.163,0.3192857142857143,-0.004211298624674479,-0.7470480375976578,0.2197200059890747,42.538761138916016,0.07478535970052083,-0.4251498328314887
3981,-0.13292955822414823,0.15937503814697265,86.559814453125,78.86760711669922,-2.722930908203125,120.6428451538086,-0.004114023844401042,0.15933333333333333,0.3196428571428571,-0.0033263206481933595,-0.5273291044921891,0.1867620050907135,42.362979888916016,0.0854689704047309,-0.4262864006890191
3982,-0.12121080822414822,0.13945316314697265,86.53935241699219,79.66546630859375,-2.8047637939453125,120.6019287109375,-0.004568650987413194,0.15633333333333332,0.3196428571428571,-0.0018310017055935329,-0.4284540587158219,0.6481740474700928,44.03289031982422,0.0763765123155382,-0.42674102783203127
3983,-0.13292955822414823,0.13945316314697265,86.64164733886719,80.70883178710938,-2.907054901123047,120.58146667480469,-0.004795964558919271,0.15333333333333332,0.3196428571428571,-0.0014648013644748264,-0.3845106535644547,1.1315580606460571,44.82389831542969,0.06592017279730902,-0.42765023973253036
3984,-0.16808580822414823,0.13945316314697265,87.05081176757812,82.20226287841797,-2.8865966796875,120.58146667480469,-0.004568650987413194,0.151,0.3196428571428571,-0.002075142330593533,-0.7580343657226578,1.494096040725708,44.91178894042969,0.053872765435112845,-0.4274229261610243
3985,-0.183710836001926,0.15937503814697265,87.0098876953125,81.0975341796875,-2.907054901123047,120.5610122680664,-0.004568650987413194,0.14733333333333334,0.32071428571428573,-0.0031127081976996527,-0.9997259550781266,0.8788800239562988,45.43912887573242,0.06569281684027778,-0.4274229685465495
3986,-0.16417955822414823,0.15937503814697265,87.0098876953125,80.87248992919922,-2.9684295654296875,120.58146667480469,-0.004568650987413194,0.14433333333333334,0.32107142857142856,-0.0012206713358561198,-0.9557825499267594,0.13183200359344482,45.79069137573242,0.0681933085123698,-0.4283321804470486
3987,-0.12902330822414823,0.13945316314697265,87.03034973144531,81.75218200683594,-3.091175079345703,120.5610122680664,-0.004795964558919271,0.14133333333333334,0.32107142857142856,0.0020446141560872396,-0.9447962218017594,-0.4614130430908219,45.79069137573242,0.058646308051215276,-0.429468748304579
3988,-0.07042955822414822,0.15937503814697265,86.98943328857422,81.34302520751953,-3.1730079650878906,120.58146667480469,-0.004568650987413194,0.13733333333333334,0.32142857142857145,0.003967157999674479,-1.0326849394531266,-0.7690206938476578,44.03289031982422,0.0627378675672743,-0.4306052737765842
3989,-0.09386705822414822,0.13945316314697265,86.98943328857422,80.44287109375,-3.1730079650878906,120.62238311767578,-0.004795964558919271,0.13366666666666666,0.3217857142857143,0.0028685675726996527,-1.175503390380861,-1.1974741392822281,43.417659759521484,0.07273957994249132,-0.43105990091959634
3990,-0.09777330822414822,0.15937503814697265,86.6007308959961,78.74485778808594,-3.11163330078125,120.70421600341797,-0.004114023844401042,0.131,0.3217857142857143,0.0007934252421061198,-1.4611383848876969,-1.175503390380861,42.97821044921875,0.08728747897677952,-0.4312872144911024
3991,-0.11730455822414822,0.15937503814697265,86.72348022460938,79.11309814453125,-3.1525497436523438,120.6428451538086,-0.0043413374159071184,0.127,0.3217857142857143,-0.0009765413072374132,-1.3512789183349625,-0.3185945921630875,42.71453857421875,0.08455980088975694,-0.43105994330512154
3992,-0.12902330822414823,0.15937503814697265,86.72348022460938,80.77020263671875,-3.1525497436523438,120.62238311767578,-0.004114023844401042,0.12433333333333334,0.32142857142857145,-0.0021666844685872396,-1.164517062255861,0.48338401317596436,42.538761138916016,0.06614752875434028,-0.43083258734809027
3993,-0.14074205822414823,0.15937503814697265,86.74394226074219,80.52470397949219,-2.8047637939453125,120.6019287109375,-0.0050232781304253475,0.121,0.32142857142857145,-0.0023497899373372396,-1.0326849394531266,0.4284540116786957,42.362979888916016,0.06910264756944444,-0.42674102783203127
3994,-0.14074205822414823,0.13945316314697265,86.98943328857422,80.87248992919922,-3.1934661865234375,120.62238311767578,-0.004568650987413194,0.118,0.32142857142857145,-0.0004577530754937066,-0.5932451658935562,0.3076080083847046,42.275089263916016,0.0679660373263889,-0.4312872144911024
3995,-0.10949205822414822,0.13945316314697265,86.88714599609375,80.66790771484375,-3.0707168579101562,120.62238311767578,-0.004568650987413194,0.114,0.32107142857142856,0.0011901431613498264,-0.7250772886962906,-0.3076082640380875,42.275089263916016,0.06910264756944444,-0.429923333062066
3996,-0.10949205822414822,0.1195312786102295,86.86668395996094,80.81111145019531,-3.11163330078125,120.6019287109375,-0.004795964558919271,0.11066666666666666,0.32107142857142856,0.0014648013644748264,-0.812964098999025,-0.4394403868408219,42.362979888916016,0.06728413899739584,-0.4301506890190972
3997,-0.13683580822414823,0.1195312786102295,86.78485107421875,79.21539306640625,-3.1730079650878906,114.40315246582031,-0.004568650987413194,0.10866666666666666,0.3217857142857143,-0.00018310546875,-0.7690206938476578,-0.2416922026367203,44.82389831542969,0.08410508897569445,-0.36195733812120223
3998,-0.13683580822414823,0.13945316314697265,86.78485107421875,79.37905883789062,-3.1730079650878906,114.32131958007812,-0.0050232781304253475,0.10566666666666667,0.3217857142857143,-0.0012817064921061198,-0.8678938322753922,-0.10986007983398594,44.91178894042969,0.08228658040364584,-0.36104808383517795
3999,-0.15636705822414823,0.1195312786102295,86.78485107421875,79.29722595214844,-2.6820144653320312,114.34178161621094,-0.0043413374159071184,0.10233333333333333,0.3221428571428571,-0.0006408585442437066,-0.7250772886962906,0.19774800539016724,44.91178894042969,0.08319583468967014,-0.35581995646158854
4000,-0.15636705822414823,0.1195312786102295,86.80531311035156,79.17447662353516,-3.1730079650878906,114.34178161621094,-0.004568650987413194,0.09933333333333333,0.3221428571428571,-0.0008849885728624132,-0.2746511870117203,0.9228240251541138,44.82389831542969,0.08478707207573785,-0.3612754397922092
4001,-0.15636705822414823,0.13945316314697265,87.68500518798828,81.11798858642578,-3.295757293701172,120.5610122680664,-0.004568650987413194,0.09633333333333334,0.32142857142857145,-0.0003051651848687066,-0.3185945921630875,1.6259280443191528,44.82389831542969,0.07296685112847222,-0.43174188401963975
4002,-0.187617086001926,0.13945316314697265,88.09416198730469,83.42974090576172,-3.254840850830078,120.58146667480469,-0.004568650987413194,0.094,0.32107142857142856,0.0001525772942437066,-1.2633902006835953,1.1535300016403198,44.64812088012695,0.05182690090603299,-0.4315145280626085
4003,-0.179804586001926,0.13945316314697265,84.73905181884766,78.84715270996094,-2.866138458251953,120.62238311767578,-0.004114023844401042,0.09,0.32071428571428573,0.0009460131327311198,-1.7028299742431656,-1.0546575957031266,44.64812088012695,0.06546554565429688,-0.42765023973253036
4004,-0.16027330822414823,0.1195312786102295,85.5982894897461,80.70883178710938,-3.3775863647460938,120.58146667480469,-0.004114023844401042,0.086,0.32035714285714284,0.0018615086873372396,-1.549027102539064,-1.0876146727294937,44.64812088012695,0.054327307807074655,-0.43287836710611977
4005,-0.199335836001926,0.09960939407348633,85.53691101074219,78.9903564453125,-2.313770294189453,120.6428451538086,-0.0043413374159071184,0.08233333333333333,0.32035714285714284,0.0002136124504937066,-1.9994532042236344,-0.6811319761962906,44.64812088012695,0.07273949517144097,-0.42174017164442273
4006,-0.191523336001926,0.1195312786102295,85.57783508300781,78.68348693847656,-1.8227806091308594,120.66329956054688,-0.0043413374159071184,0.07833333333333334,0.32107142857142856,-0.0003662003411187066,-1.8895918303222672,0.4394400119781494,44.64812088012695,0.07660386827256944,-0.4165120018853082
4007,-0.242304586001926,0.09960939407348633,85.57783508300781,79.17447662353516,-2.1501083374023438,120.62238311767578,-0.004114023844401042,0.07533333333333334,0.32142857142857145,-0.0011291186014811198,-1.0876146727294937,1.8456480503082275,44.91178894042969,0.07114842732747396,-0.41969434950086804
4008,-0.195429586001926,0.1195312786102295,90.61050415039062,82.28408813476562,-2.354686737060547,120.58146667480469,-0.004568650987413194,0.071,0.3221428571428571,0.0013122134738498264,-0.4064833098144547,2.5487520694732666,44.99967956542969,0.09251573350694445,-0.4215128156873915
4009,-0.191523336001926,0.1195312786102295,87.45996856689453,79.05172729492188,-2.4160614013671875,120.5610122680664,-0.0043413374159071184,0.067,0.3225,0.0038450982835557725,-0.10986007983398594,0.10986000299453735,44.99967956542969,0.0934249030219184,-0.4219674852159288
4010,-0.207148336001926,0.09960939407348633,87.48042297363281,81.46577453613281,-2.702472686767578,120.5610122680664,-0.0043413374159071184,0.06333333333333334,0.3225,0.005096276601155599,-0.4504267149658219,-1.7357889586181656,44.99967956542969,0.06682942708333334,-0.4251498328314887
4011,-0.15636705822414823,0.07968751907348633,87.48042297363281,81.4453125,-2.4160614013671875,120.5405502319336,-0.0043413374159071184,0.059333333333333335,0.3221428571428571,0.005218346913655599,-1.1864878111572281,-2.7794596129150406,44.99967956542969,0.06705678304036458,-0.4217401292588976
4012,-0.12902330822414823,0.09960939407348633,85.06637573242188,80.68836975097656,-2.477436065673828,120.6428451538086,-0.0043413374159071184,0.056666666666666664,0.3225,0.0027159796820746527,-0.9338098936767594,-3.6473528319091812,44.99967956542969,0.04864451090494792,-0.42355868021647136
4013,-0.12511705822414823,0.09960939407348633,84.41172790527344,78.74485778808594,-2.0478172302246094,120.6428451538086,-0.004114023844401042,0.05266666666666667,0.3225,-0.00018310546875,-0.5163427763671891,-3.537493365356447,44.99967956542969,0.06296522352430556,-0.41878513760036895
4014,-0.11730455822414822,0.07968751907348633,84.43218231201172,76.20806884765625,-1.1885833740234375,120.6428451538086,-0.004114023844401042,0.049666666666666665,0.32285714285714284,-0.0024413320753309464,0.0,-2.515795367309572,44.99967956542969,0.09137903849283854,-0.4092380947536892
4015,-0.12511705822414823,0.09960939407348633,87.03034973144531,77.82424926757812,-3.1525497436523438,120.58146667480469,-0.004114023844401042,0.04733333333333333,0.3225,-0.004669051700168186,1.1974740028381348,-0.14281906420898594,44.99967956542969,0.10229000515407986,-0.4303779602050781
4016,-0.222773336001926,0.07968751907348633,86.47798156738281,81.56806182861328,-2.1910247802734375,120.5405502319336,-0.0043413374159071184,0.04466666666666667,0.32142857142857145,-0.006530570983886719,1.0107120275497437,1.263390064239502,44.99967956542969,0.0545546637641059,-0.4192397223578559
4017,-0.207148336001926,0.09960939407348633,86.72348022460938,82.67279052734375,-2.497894287109375,120.5610122680664,-0.0043413374159071184,0.042333333333333334,0.32035714285714284,-0.006439018249511719,0.747048020362854,0.790992021560669,45.966468811035156,0.04500766330295139,-0.42287673950195315
4018,-0.15636705822414823,0.09960939407348633,86.559814453125,79.27676391601562,-2.9684295654296875,120.62238311767578,-0.004114023844401042,0.04,0.32,-0.0038756158616807725,0.5932440161705017,-0.2307058745117203,45.966468811035156,0.08092278374565973,-0.42878680759006077
4019,-0.14464830822414823,0.09960939407348633,84.32989501953125,76.67860412597656,-1.8432388305664062,120.66329956054688,-0.003886710272894965,0.037,0.3192857142857143,-0.0038145913018120658,-0.17577614123535312,-0.2416922026367203,46.054359436035156,0.08501434326171875,-0.41673931545681425
4020,-0.14464830822414823,0.09960939407348633,84.82088470458984,77.14913940429688,-3.275299072265625,120.66329956054688,-0.003886710272894965,0.034666666666666665,0.3192857142857143,-0.004485956827799479,0.12084600329399109,1.0436700582504272,46.054359436035156,0.08524161444769965,-0.4326510959201389
4021,-0.175898336001926,0.09960939407348633,84.90271759033203,78.82669067382812,-2.6615562438964844,120.58146667480469,-0.003886710272894965,0.03266666666666666,0.31892857142857145,-0.0033873558044433595,-0.3735243254394547,2.4169201850891113,46.054359436035156,0.06751141018337674,-0.42492247687445744
4022,-0.16027330822414823,0.1195312786102295,89.75126647949219,85.0459213256836,-2.497894287109375,120.6019287109375,-0.0043413374159071184,0.029,0.3192857142857143,-0.0016173892550998264,-0.845923083374025,2.9662201404571533,46.054359436035156,0.05228161282009548,-0.4233313666449653
4023,-0.234492086001926,0.09960939407348633,83.22515869140625,76.10577392578125,-2.10919189453125,120.6428451538086,-0.004114023844401042,0.025666666666666667,0.32035714285714284,-0.0010070588853624133,-0.7031046324462906,0.3076080083847046,46.054359436035156,0.07910427517361111,-0.41946707831488717
4024,-0.15636705822414823,0.09960939407348633,86.84622192382812,81.48623657226562,-2.4365196228027344,120.5610122680664,-0.004114023844401042,0.02266666666666667,0.32107142857142856,0.0019225438435872396,-0.4064833098144547,0.4064820110797882,46.054359436035156,0.05955539279513889,-0.4221947987874349
4025,-0.207148336001926,0.07968751907348633,87.33721923828125,83.24562072753906,-2.334228515625,120.5610122680664,-0.0043413374159071184,0.018666666666666668,0.32142857142857145,0.0020751317342122396,-0.4723993712158219,-0.09887375170898594,46.054359436035156,0.04546220567491319,-0.4210582309299045
4026,-0.211054586001926,0.07968751907348633,82.0999755859375,73.50761413574219,-0.8203392028808594,120.6428451538086,-0.003659396701388889,0.015333333333333332,0.3217857142857143,0.0014953083462185329,-0.4504267149658219,-0.8788801604003922,46.054359436035156,0.09547068277994791,-0.405146492852105
4027,-0.15246080822414823,0.07968751907348633,86.19157409667969,79.84959411621094,-1.5363693237304688,120.5405502319336,-0.003886710272894965,0.011333333333333334,0.3221428571428571,0.0019225438435872396,0.3185940086841583,1.06564199924469,45.43912887573242,0.07046644422743055,-0.4119657728407118
4028,-0.285273336001926,0.05976563930511475,87.21446990966797,85.68012237548828,-2.2114830017089844,120.5610122680664,-0.004114023844401042,0.009,0.3217857142857143,0.0009460131327311198,1.7138160467147827,1.219446063041687,36.65013122558594,0.017048305935329862,-0.41969439188639324
4029,-0.238398336001926,0.05976563930511475,86.5188980102539,76.78089141845703,-3.091175079345703,120.62238311767578,-0.003886710272894965,0.005333333333333333,0.31857142857142856,0.0022277090284559464,1.812690019607544,-0.9997259550781266,35.50756072998047,0.1082000732421875,-0.43015064663357205
4030,-0.16417955822414823,0.05976563930511475,87.78729248046875,79.29722595214844,0.5912628173828125,120.6019287109375,-0.003659396701388889,0.002,0.31535714285714284,0.004180781046549479,0.9667680263519287,-0.801977770874025,33.13452911376953,0.09433407253689235,-0.3890073988172743
4031,-0.16808580822414823,0.05976563930511475,81.87493133544922,75.53295135498047,1.2459182739257812,120.6428451538086,-0.003886710272894965,0.0006666666666666666,0.31035714285714283,0.0033568276299370658,2.746500015258789,-0.9447962218017594,26.89434051513672,0.07046644422743055,-0.38218807644314234
4032,-0.183710836001926,0.05976563930511475,91.1219482421875,85.557373046875,4.969276428222656,120.58146667480469,-0.004114023844401042,0.0,0.3067857142857143,0.0017699665493435329,3.317772150039673,0.4723980128765106,26.89434051513672,0.06182861328125,-0.34013544718424477
4033,-0.238398336001926,0.05976563930511475,81.8953857421875,73.85539245605469,4.1509552001953125,120.6428451538086,-0.003886710272894965,-0.0006666666666666666,0.30107142857142855,0.0003051651848687066,3.9879181385040283,-1.2633902006835953,26.89434051513672,0.08933325873480903,-0.3499098883734809
4034,-0.16027330822414823,0.07968751907348633,82.85691833496094,83.40928649902344,13.786674499511719,120.6428451538086,-0.004114023844401042,0.0,0.29642857142857143,-0.0,2.8563599586486816,-0.812964098999025,26.89434051513672,-0.006137424045138889,-0.2428463406032986
