,WD,WS,AIL_1,AIL_2,ELEV_1,ELEV_2,RUDD,ALT,GS,TH,PTCH,ROLL,PLA_1,AIL,ELEV
5765,0.08943733151041668,0.19921878814697266,87.1121826171875,80.32012939453125,-3.520793914794922,119.33353424072266,0.006796900431315104,0.702,0.4707142857142857,0.017791197035047744,-0.3295809202880875,1.768746018409729,29.179479598999023,0.07546725802951389,-0.4206036461724175
5766,0.08943733151041668,0.239062557220459,86.92805480957031,79.33814239501953,-3.909496307373047,119.37444305419922,0.011570443047417535,0.6983333333333334,0.4689285714285714,0.01919496324327257,-0.5273291044921891,0.36253800988197327,29.267370223999023,0.08433236016167535,-0.42537710401746964
5767,0.11287483151041668,0.239062557220459,86.80531311035156,78.4789047241211,-4.911937713623047,119.37444305419922,0.021117528279622395,0.6953333333333334,0.465,0.02041566636827257,-0.9008528166503922,-0.21972145373535312,29.267370223999023,0.0925156487358941,-0.4365153418646918
5768,0.1284998315104167,0.25898443222045897,86.662109375,78.23341369628906,-5.300640106201172,119.39490509033203,0.047940233018663195,0.6926666666666667,0.4614285714285714,0.021636327107747395,-1.6369139128417984,-0.801977770874025,29.267370223999023,0.0936521742078993,-0.44106161329481336
5769,0.1284998315104167,0.2789063262939453,86.68256378173828,80.11553955078125,-6.405372619628906,119.33353424072266,0.009751976860894098,0.6916666666666667,0.45571428571428574,0.02206353081597222,-2.252131121704103,-0.06591667468261875,29.267370223999023,0.07296693589952256,-0.45265452067057294
5770,0.1324060815104167,0.239062557220459,86.72348022460938,80.15646362304688,-7.1418609619140625,119.33353424072266,0.012252383761935763,0.6896666666666667,0.45107142857142857,0.021270116170247395,-3.240870135375978,0.07690200209617615,29.267370223999023,0.07296685112847222,-0.46083772447374133
5771,0.1363123315104167,0.239062557220459,86.72348022460938,80.01325988769531,-6.630409240722656,119.35398864746094,0.008388095431857638,0.6876666666666666,0.4446428571428571,0.021239598592122395,-4.4383455687255875,0.02197200059890747,29.267370223999023,0.07455800374348959,-0.4553821987575955
5772,0.1441248315104167,0.219140682220459,86.70301818847656,79.56317901611328,-6.323539733886719,119.33353424072266,0.007933468288845487,0.683,0.4417857142857143,0.020995457967122395,-4.680037158081056,-0.49437012011718906,29.267370223999023,0.07933154635959201,-0.4517452663845486
5773,0.1558435815104167,0.219140682220459,86.70301818847656,79.56317901611328,-6.098503112792969,119.33353424072266,0.0031599256727430558,0.6776666666666666,0.43785714285714283,0.021575291951497395,-4.493275302001955,-0.9338098936767594,29.267370223999023,0.07933154635959201,-0.44924485948350695
5774,0.1480310815104167,0.19921878814697266,86.70301818847656,80.05416870117188,-5.955295562744141,119.33353424072266,0.009524663289388021,0.6723333333333333,0.435,0.01965272691514757,-4.33947052294922,-1.3183199339599625,29.267370223999023,0.07387610541449653,-0.4476536644829644
5775,0.1480310815104167,0.239062557220459,86.02790832519531,77.59921264648438,-5.7507171630859375,119.39490509033203,0.005887646145290798,0.666,0.43214285714285716,0.02011049058702257,-4.218624728271486,-1.9664942198486344,29.267370223999023,0.0936521742078993,-0.4460624694824219
5776,0.1870935815104167,0.25898443222045897,86.08927917480469,79.64501190185547,-5.607509613037109,119.72222900390625,0.0031599256727430558,0.66,0.4303571428571429,0.02249077690972222,-4.460316317626955,-2.0104395323486344,29.267370223999023,0.07160296969943576,-0.4481082068549262
5777,0.2027185815104167,0.2789063262939453,86.08927917480469,79.84959411621094,-5.259723663330078,119.33353424072266,0.002705298529730903,0.655,0.42714285714285716,0.02264336480034722,-4.207638400146486,-2.3510042601318375,29.267370223999023,0.069329833984375,-0.43992508782280815
5778,0.2066248315104167,0.25898443222045897,86.15065002441406,79.52226257324219,-5.1983489990234375,119.39490509033203,0.00225067138671875,0.6486666666666666,0.4253571428571429,0.020720799763997395,-4.064819949218752,-3.4605909758300797,29.267370223999023,0.07364874945746527,-0.439925045437283
5779,0.2300623315104167,0.19921878814697266,86.13019561767578,78.25386810302734,-5.096061706542969,119.78360748291016,0.004751120673285591,0.642,0.4225,0.016723124186197917,-4.4053865843505875,-3.7022825651855484,29.267370223999023,0.08751475016276042,-0.44310743543836806
5780,0.1480310815104167,0.19921878814697266,86.17111206054688,79.542724609375,-4.523235321044922,119.72222900390625,0.019980960422092013,0.6376666666666667,0.4210714285714286,0.009582222832573786,-4.636091845581056,-3.7132688933105484,29.267370223999023,0.07364874945746527,-0.4360607147216797
5781,0.09724983151041668,0.219140682220459,84.77996826171875,77.35371398925781,-4.380031585693359,119.76314544677734,0.012252383761935763,0.6323333333333333,0.41964285714285715,0.004455439249674479,-4.548205035278322,-4.020876544067384,29.267370223999023,0.08251393636067708,-0.43492418924967446
5782,0.2183435815104167,0.15937503814697265,83.92073059082031,76.10577392578125,-4.093616485595703,119.78360748291016,0.013616265190972223,0.6273333333333333,0.4185714285714286,0.005920240614149305,-4.778910296508791,-2.801430361816408,29.267370223999023,0.08683285183376736,-0.4319691552056207
5783,0.1831873315104167,0.239062557220459,86.13019561767578,80.13600158691406,-3.091175079345703,119.31307220458984,0.012252383761935763,0.6203333333333333,0.41785714285714287,0.0077207353379991316,-4.680037158081056,-0.3625379973144547,29.267370223999023,0.06660215589735242,-0.41560274759928384
5784,0.12068733151041668,0.239062557220459,87.1121826171875,81.9976806640625,-3.0093421936035156,119.35398864746094,-0.007978312174479167,0.6173333333333333,0.4164285714285714,0.0036924997965494793,-3.954960482666017,-0.10986007983398594,29.267370223999023,0.05682779947916667,-0.4151481204562717
5785,0.11678108151041668,0.19921878814697266,84.84133911132812,78.66302490234375,-4.8096466064453125,119.41535949707031,-0.0075236850314670135,0.611,0.4139285714285714,0.0012206607394748264,-3.6693254881591812,-2.0433966093750016,29.267370223999023,0.06864793565538195,-0.4358334011501736
5786,0.2027185815104167,0.219140682220459,85.23004150390625,77.61967468261719,-4.768730163574219,119.41535949707031,-0.00775099860297309,0.6053333333333333,0.41214285714285714,0.005645582411024305,-3.8011576109619156,-1.4940973692626969,29.267370223999023,0.08455963134765625,-0.43537877400716146
5787,0.2261560815104167,0.19921878814697266,86.21202850341797,81.4453125,-4.339115142822266,119.33353424072266,-0.007978312174479167,0.6003333333333334,0.40964285714285714,0.004760615030924479,-3.3617159300537125,0.747048020362854,29.267370223999023,0.052963511149088545,-0.42969610426161026
5788,0.1597498315104167,0.15937503814697265,85.53691101074219,77.66058349609375,-4.134532928466797,119.43582153320312,-0.00775099860297309,0.596,0.40785714285714286,0.0009460025363498264,-2.504809039184572,0.5932440161705017,29.267370223999023,0.08751475016276042,-0.4285594940185547
5789,0.1714685815104167,0.17929691314697266,85.557373046875,77.64012145996094,-4.154991149902344,119.43582153320312,-0.00775099860297309,0.5916666666666667,0.4057142857142857,0.0022276984320746527,-2.2960745268554703,1.0986000299453735,29.267370223999023,0.08796946207682292,-0.42878680759006077
5790,0.11678108151041668,0.219140682220459,85.53691101074219,77.57875061035156,-4.257282257080078,119.43582153320312,-0.0075236850314670135,0.5856666666666667,0.4042857142857143,0.0022582160101996527,-2.834389346191408,2.065368175506592,29.267370223999023,0.08842400444878472,-0.4299233754475911
5791,0.09724983151041668,0.19921878814697266,85.57783508300781,78.92898559570312,-4.134532928466797,119.37444305419922,-0.007978312174479167,0.582,0.4017857142857143,0.0019530826144748264,-3.3177725249023453,3.1749541759490967,29.267370223999023,0.07387610541449653,-0.4278775109185113
5792,0.06209358151041668,0.19921878814697266,86.58027648925781,81.9976806640625,-4.052700042724609,119.35398864746094,-0.007978312174479167,0.5783333333333334,0.4,0.0024108039008246527,-3.196926730224611,3.0980520248413086,29.267370223999023,0.050917731391059026,-0.42674098544650607
5793,0.06990608151041668,0.13945316314697265,86.96897888183594,82.16134643554688,-4.257282257080078,119.35398864746094,-0.00775099860297309,0.5743333333333334,0.3967857142857143,0.0036924997965494793,-3.6583391600341812,1.7907180786132812,29.267370223999023,0.053418138292100695,-0.42901412116156684
5794,0.1363123315104167,0.13945316314697265,86.33477783203125,78.74485778808594,-4.011787414550781,119.39490509033203,-0.00775099860297309,0.5716666666666667,0.39464285714285713,0.0070798661973741316,-4.548205035278322,0.6152160167694092,29.267370223999023,0.0843324449327257,-0.42674102783203127
5795,0.2261560815104167,0.1195312786102295,86.31431579589844,79.9518814086914,-3.9504127502441406,119.35398864746094,-0.007978312174479167,0.5683333333333334,0.39107142857142857,0.009887398613823786,-5.383141177246095,1.2414180040359497,29.267370223999023,0.07069371541341146,-0.42560445997450086
5796,0.2144373315104167,0.1195312786102295,88.09416198730469,81.34302520751953,-3.725372314453125,119.37444305419922,-0.007978312174479167,0.5646666666666667,0.38857142857142857,0.01144375271267361,-5.800608294555666,1.4611380100250244,29.267370223999023,0.07501263088650173,-0.42333128187391494
5797,0.1480310815104167,0.09960939407348633,87.03034973144531,80.79066467285156,-3.5821685791015625,119.35398864746094,-0.00775099860297309,0.5593333333333333,0.3842857142857143,0.008453114827473959,-5.185392993041994,-0.823950427124025,29.267370223999023,0.069329833984375,-0.42151285807291666
5798,0.2066248315104167,0.15937503814697265,84.22760009765625,77.90608215332031,-3.8072052001953125,119.41535949707031,-0.0075236850314670135,0.5553333333333333,0.3817857142857143,0.012115097045898438,-5.690748828002931,-1.6479002409667984,29.267370223999023,0.0702390882703993,-0.4246951633029514
5799,0.25349983151041666,0.17929691314697266,84.90271759033203,78.41752624511719,39.50238037109375,119.43582153320312,-0.007978312174479167,0.551,0.3775,0.01562453375922309,-6.525684969970705,0.1867620050907135,29.267370223999023,0.07205768161349826,0.05629509819878472
5800,0.2378748315104167,0.13945316314697265,86.35523986816406,80.62699890136719,39.50238037109375,119.37444305419922,-0.007978312174479167,0.5463333333333333,0.37535714285714283,0.013244247436523438,-5.866524355957033,1.3293060064315796,29.267370223999023,0.06364712185329861,0.05697708129882813
5801,0.1324060815104167,0.15937503814697265,86.58027648925781,81.42485809326172,39.48191833496094,119.39490509033203,-0.007978312174479167,0.5413333333333333,0.3717857142857143,0.010253609551323786,-5.668776171752931,1.0766279697418213,29.267370223999023,0.05728242662217882,0.056522369384765625
5802,0.06599983151041668,0.19921878814697266,87.03034973144531,80.21783447265625,39.543296813964844,119.37444305419922,-0.00775099860297309,0.537,0.3692857142857143,0.0074155595567491316,-5.47102798754883,-0.5163427763671891,29.267370223999023,0.07569461398654515,0.05743170844184028
5803,0.11287483151041668,0.219140682220459,83.69569396972656,76.71951293945312,-6.691783905029297,119.41535949707031,-0.00775099860297309,0.5326666666666666,0.365,0.01095547146267361,-4.504261630126955,-1.131558077880861,29.267370223999023,0.07751312255859374,-0.4567460378011068
5804,0.1870935815104167,0.219140682220459,85.12775421142578,77.70149993896484,-6.794075012207031,119.39490509033203,-0.007978312174479167,0.5276666666666666,0.36178571428571427,0.01614333258734809,-4.064819949218752,1.0436700582504272,29.267370223999023,0.08251393636067708,-0.45765533447265627
5805,0.1753748315104167,0.19921878814697266,89.13752746582031,83.24562072753906,-6.732700347900391,119.35398864746094,-0.007978312174479167,0.5236666666666666,0.3575,0.01489211188422309,-4.3834139281005875,2.2301580905914307,29.267370223999023,0.06546563042534723,-0.45651876661512586
5806,0.09334358151041668,0.17929691314697266,87.72592163085938,81.24073791503906,-6.078044891357422,119.72222900390625,-0.008205625745985243,0.5203333333333333,0.355,0.01074184841579861,-4.691023486206056,-0.845923083374025,29.267370223999023,0.07205759684244792,-0.4533363766140408
5807,0.11678108151041668,0.17929691314697266,84.20714569091797,78.96989440917969,-6.098503112792969,119.80406188964844,-0.0075236850314670135,0.5163333333333333,0.3517857142857143,0.01065029568142361,-4.4163729124755875,-3.251856463500978,29.267370223999023,0.058191680908203126,-0.45447294447157116
5808,0.1480310815104167,0.219140682220459,84.0025634765625,76.51493835449219,-6.016670227050781,119.78360748291016,-0.0075236850314670135,0.512,0.3485714285714286,0.012145614624023438,-3.7791849547119156,-2.7025572233886734,29.267370223999023,0.08319583468967014,-0.45333641899956595
5809,0.1909998315104167,0.19921878814697266,85.61874389648438,78.3970718383789,-6.159877777099609,119.74269104003906,-0.00775099860297309,0.5076666666666667,0.34535714285714286,0.012878036499023438,-3.548477786132814,-0.5602861815185562,29.267370223999023,0.08024080064561633,-0.45447298685709636
5810,0.1441248315104167,0.219140682220459,88.09416198730469,81.52714538574219,-5.239265441894531,119.35398864746094,-0.007978312174479167,0.5036666666666667,0.3425,0.01086391872829861,-3.3177725249023453,0.5053560137748718,29.267370223999023,0.07296685112847222,-0.439925045437283
5811,0.1363123315104167,0.19921878814697266,87.70545959472656,81.67034912109375,-5.096061706542969,119.35398864746094,-0.007978312174479167,0.49933333333333335,0.3385714285714286,0.009765328301323786,-2.537766116210939,0.2526780068874359,29.267370223999023,0.06705678304036458,-0.43833389282226565
5812,0.10896858151041668,0.219140682220459,87.68500518798828,81.38394165039062,-5.034687042236328,119.35398864746094,-0.007978312174479167,0.49533333333333335,0.3357142857142857,0.008239491780598959,-2.0324102812500016,-0.4614130430908219,29.267370223999023,0.0700118170844184,-0.4376519521077474
5813,0.09334358151041668,0.239062557220459,87.62362670898438,80.32012939453125,-4.911937713623047,119.74269104003906,-0.007978312174479167,0.492,0.33107142857142857,0.0069272783067491316,-1.6588865690917984,-0.9118391447753922,29.267370223999023,0.08114997016059028,-0.4406069861518012
5814,0.09334358151041668,0.239062557220459,87.1121826171875,79.82913208007812,-5.014228820800781,119.74269104003906,-0.00775099860297309,0.4876666666666667,0.32785714285714285,0.006347486707899305,-1.527054446289064,-0.845923083374025,29.44314956665039,0.08092278374565973,-0.4417435540093316
5815,0.08162483151041668,0.239062557220459,87.29630279541016,79.82913208007812,-4.932395935058594,119.33353424072266,-0.00775099860297309,0.4846666666666667,0.32357142857142857,0.005218336317274305,-1.5819841795654312,-0.20873512561035312,31.991960525512695,0.08296856350368924,-0.4362881130642361
5816,0.07381233151041668,0.239062557220459,87.31675720214844,80.46333312988281,-4.134532928466797,41.900001525878906,-0.007978312174479167,0.48133333333333334,0.32107142857142856,0.004363886515299479,-1.4281813078613297,0.4723980128765106,34.628658294677734,0.07614915635850694,0.43294961717393665
5817,0.08162483151041668,0.219140682220459,87.29630279541016,80.60653686523438,-4.216365814208984,119.35398864746094,-0.007978312174479167,0.478,0.31785714285714284,0.005004713270399305,-0.6701475554199234,0.6921180486679077,36.1227912902832,0.07433073255750867,-0.4285594940185547
5818,0.09334358151041668,0.19921878814697266,87.31675720214844,80.97477722167969,-3.66400146484375,119.74269104003906,-0.007978312174479167,0.47533333333333333,0.31607142857142856,0.006286451551649305,-0.10986007983398594,0.6152160167694092,37.529029846191406,0.07046644422743055,-0.42674102783203127
5819,0.11287483151041668,0.19921878814697266,87.33721923828125,80.83157348632812,-2.9684295654296875,119.72222900390625,-0.007978312174479167,0.472,0.3142857142857143,0.008727773030598959,0.7580339908599854,1.0766279697418213,39.98994827270508,0.07228495279947916,-0.41878509521484375
5820,0.09724983151041668,0.239062557220459,87.25538635253906,80.64745330810547,-3.479877471923828,119.35398864746094,-0.00775099860297309,0.4693333333333333,0.3132142857142857,0.009460152520073786,1.5050820112228394,0.8678940534591675,41.48408126831055,0.07342147827148438,-0.4203762902153863
5821,0.10506233151041668,0.219140682220459,87.23492431640625,80.0950927734375,-3.745830535888672,119.39490509033203,-0.007978312174479167,0.4663333333333333,0.31214285714285717,0.010345162285698786,1.4062080383300781,0.7250760197639465,43.505550384521484,0.07933146158854167,-0.42378595140245223
5822,0.12068733151041668,0.19921878814697266,86.31431579589844,79.93142700195312,-3.7867469787597656,119.37444305419922,-0.00775099860297309,0.4633333333333333,0.31107142857142855,0.01184048122829861,0.6371880173683167,0.7580339908599854,43.76921844482422,0.07092098659939236,-0.42401322258843316
5823,0.1519373315104167,0.219140682220459,86.64164733886719,79.23585510253906,-3.5617103576660156,119.33353424072266,-0.00775099860297309,0.46066666666666667,0.31035714285714283,0.01510573493109809,-0.10986007983398594,1.1535300016403198,44.99967956542969,0.08228658040364584,-0.42105827331542967
5824,0.1558435815104167,0.219140682220459,86.68256378173828,80.58607482910156,-3.3162155151367188,119.35398864746094,-0.007978312174479167,0.45666666666666667,0.31107142857142855,0.017028299967447917,-0.6591612272949234,1.7138160467147827,45.70280075073242,0.06773876614040798,-0.4185578240288628
5825,0.10506233151041668,0.239062557220459,88.0737075805664,80.87248992919922,-2.9888877868652344,119.33353424072266,-0.007978312174479167,0.45466666666666666,0.3117857142857143,0.01559401618109809,-0.7800070219726578,1.3293060064315796,53.0855598449707,0.08001352945963541,-0.4146935780843099
5826,0.08943733151041668,0.239062557220459,87.6031723022461,41.900001525878906,-2.5388107299804688,119.35398864746094,-0.007978312174479167,0.451,0.31285714285714283,0.014434390597873263,-0.7470480375976578,-0.5273291044921891,56.51327133178711,0.5078130086263021,-0.4099199930826823
5827,0.10896858151041668,0.239062557220459,87.39859008789062,80.21783447265625,-2.10919189453125,119.35398864746094,-0.008205625745985243,0.448,0.3182142857142857,0.01544142829047309,-0.07690300280761875,-1.4501520567626969,51.855098724365234,0.07978617350260417,-0.4051464504665799
5828,0.12459358151041668,0.239062557220459,87.31675720214844,79.70639038085938,-1.9864425659179688,119.39490509033203,-0.007978312174479167,0.44366666666666665,0.32107142857142856,0.016326395670572917,-0.2307058745117203,-1.560013430664064,44.64812088012695,0.08455963134765625,-0.40423719618055554
5829,0.1324060815104167,0.19921878814697266,85.57783508300781,76.22852325439453,-0.7794227600097656,119.39490509033203,-0.0075236850314670135,0.44033333333333335,0.3225,0.014098697238498263,-0.7580343657226578,-2.208185809204103,38.05636978149414,0.10388124254014756,-0.39082586500379773
5830,0.1324060815104167,0.17929691314697266,83.0001220703125,76.73997497558594,-0.18613815307617188,41.900001525878906,-0.00775099860297309,0.437,0.3217857142857143,0.01153530544704861,-0.3954969816894547,-1.7577597075195328,31.552509307861328,0.06955718994140625,0.47682067023383246
5831,0.12068733151041668,0.17929691314697266,84.67768096923828,41.900001525878906,-0.18613815307617188,119.33353424072266,-0.00775099860297309,0.43566666666666665,0.3196428571428571,0.009429634941948786,0.05493000149726868,0.5493000149726868,31.113059997558594,0.4753075493706597,-0.3835519154866536
5832,0.03865608151041668,0.219140682220459,88.62606811523438,81.77264404296875,-0.3088874816894531,119.33353424072266,-0.007978312174479167,0.43166666666666664,0.3182142857142857,0.005157301161024305,-0.3076082640380875,1.1974740028381348,35.8591194152832,0.07614915635850694,-0.3849157969156901
5833,0.04646858151041668,0.19921878814697266,87.0098876953125,75.81936645507812,-0.6157569885253906,119.41535949707031,-0.00775099860297309,0.429,0.3171428571428571,0.006042310926649305,-0.6262022429199234,-1.0107122832031266,38.583709716796875,0.12433912489149306,-0.38923462761773003
5834,0.12068733151041668,0.19921878814697266,83.0001220703125,77.37417602539062,0.5912628173828125,119.39490509033203,-0.0075236850314670135,0.425,0.3171428571428571,0.010406197441948786,-0.4284540587158219,-2.515795367309572,49.5699577331543,0.06251051161024306,-0.3755960252549913
5835,0.1324060815104167,0.19921878814697266,83.30699157714844,77.4764633178711,-0.3088874816894531,119.35398864746094,-0.0075236850314670135,0.421,0.31642857142857145,0.009429634941948786,-0.4614130430908219,-0.7250772886962906,50.0094108581543,0.06478364732530383,-0.385143068101671
5836,0.08553108151041668,0.19921878814697266,85.33233642578125,75.49203491210938,0.2025604248046875,119.39490509033203,-0.00775099860297309,0.41833333333333333,0.3175,0.005737135145399305,-0.4064833098144547,0.06591600179672241,50.09729766845703,0.10933668348524306,-0.3799149407280816
5837,0.08553108151041668,0.219140682220459,83.0410385131836,78.4789047241211,0.32530975341796875,119.41535949707031,-0.0075236850314670135,0.41533333333333333,0.3192857142857143,0.005737135145399305,0.0,-0.4614130430908219,56.07381820678711,0.050690375434027775,-0.378778330485026
5838,0.11678108151041668,0.19921878814697266,83.96165466308594,81.81356048583984,0.9185905456542969,119.33353424072266,-0.00775099860297309,0.4116666666666667,0.32071428571428573,0.0072629716661241316,0.6042300462722778,0.5822579860687256,56.689048767089844,0.02386771308051215,-0.37127715216742624
5839,0.12068733151041668,0.19921878814697266,87.33721923828125,41.900001525878906,0.22301864624023438,119.35398864746094,-0.007978312174479167,0.4083333333333333,0.32357142857142857,0.009124501546223959,0.8898659944534302,1.2084600925445557,56.33749008178711,0.5048579745822482,-0.37923300001356336
5840,0.12459358151041668,0.19921878814697266,86.98943328857422,79.60409545898438,0.22301864624023438,119.37444305419922,-0.007978312174479167,0.405,0.32607142857142857,0.010436715020073786,0.5383139848709106,0.7140899896621704,55.10702896118164,0.08205930921766492,-0.3794602711995443
5841,0.1284998315104167,0.239062557220459,86.94851684570312,81.48623657226562,0.3457679748535156,119.33353424072266,-0.00775099860297309,0.402,0.32857142857142857,0.012511825561523438,-0.02197326953125156,0.6371880173683167,54.93124771118164,0.06069200303819444,-0.377641847398546
5842,0.1441248315104167,0.239062557220459,86.94851684570312,79.87004852294922,-0.9635429382324219,119.33353424072266,-0.007978312174479167,0.3993333333333333,0.33071428571428574,0.014251285129123263,-0.7360617094726578,0.13183200359344482,50.53675079345703,0.07864964803059896,-0.3921897464328342
5843,0.1441248315104167,0.25898443222045897,86.94851684570312,80.34058380126953,-2.1705665588378906,119.35398864746094,-0.00775099860297309,0.39666666666666667,0.3325,0.01541091071234809,-1.4721247130126969,0.07690200209617615,50.09729766845703,0.07342147827148438,-0.4058283911810981
5844,0.1480310815104167,0.2789063262939453,86.64164733886719,79.35859680175781,-2.8047637939453125,119.35398864746094,-0.00775099860297309,0.394,0.33285714285714285,0.016875712076822917,-2.186215060302736,0.6371880173683167,50.09729766845703,0.08092278374565973,-0.4128750271267361
5845,0.1597498315104167,0.219140682220459,86.662109375,78.96989440917969,-2.702472686767578,119.35398864746094,-0.007978312174479167,0.39166666666666666,0.3339285714285714,0.016540018717447917,-2.6256548338623062,0.5493000149726868,50.09729766845703,0.08546905517578125,-0.4117384592692057
5846,0.1558435815104167,0.239062557220459,86.64164733886719,83.5115737915039,-2.088733673095703,119.35398864746094,-0.007978312174479167,0.3883333333333333,0.33464285714285713,0.017272440592447917,-2.7794596129150406,0.9997260570526123,48.95473098754883,0.034778594970703125,-0.4049191368950738
5847,0.1831873315104167,0.17929691314697266,87.88958740234375,79.4404296875,-1.4749946594238281,119.37444305419922,-0.007978312174479167,0.385,0.3360714285714286,0.018157407972547744,-3.0431219511718766,0.7031040191650391,47.109039306640625,0.09387953016493056,-0.39832708570692277
5848,0.1558435815104167,0.219140682220459,86.33477783203125,80.38150024414062,-0.042934417724609375,119.33353424072266,-0.0075236850314670135,0.38133333333333336,0.3367857142857143,0.018248960706922744,-3.4056612425537125,-0.49437012011718906,47.109039306640625,0.06614752875434028,-0.3819607628716363
5849,0.1636560815104167,0.19921878814697266,87.72592163085938,79.56317901611328,-0.4725532531738281,119.35398864746094,-0.00775099860297309,0.37666666666666665,0.3385714285714286,0.018187925550672744,-3.229883807250978,-0.05493034655761875,47.109039306640625,0.09069714016384549,-0.3869615766737196
5850,0.11287483151041668,0.19921878814697266,87.23492431640625,80.0950927734375,-0.6566734313964844,119.72222900390625,-0.007978312174479167,0.373,0.3392857142857143,0.014007144504123263,-2.4059339934082047,-0.13183273608398594,47.109039306640625,0.07933146158854167,-0.39309891594780816
5851,0.06599983151041668,0.17929691314697266,87.25538635253906,79.0312728881836,-0.6362152099609375,119.39490509033203,-0.0075236850314670135,0.37,0.34,0.010314644707573786,-2.2741018706054703,-0.6262022429199234,47.109039306640625,0.09137903849283854,-0.38923467000325523
5852,0.06599983151041668,0.17929691314697266,86.662109375,78.37661743164062,-1.2294998168945312,119.41535949707031,-0.0075236850314670135,0.366,0.34035714285714286,0.009734810723198786,-2.6915708952636734,-1.527054446289064,47.109039306640625,0.09206102159288194,-0.39605399237738714
5853,0.05818733151041668,0.19921878814697266,86.58027648925781,80.32012939453125,-0.7385063171386719,119.35398864746094,-0.0075236850314670135,0.3636666666666667,0.3407142857142857,0.008178456624348959,-3.284815447875978,-0.49437012011718906,47.109039306640625,0.06955718994140625,-0.38991661071777345
5854,0.04256233151041668,0.19921878814697266,86.70301818847656,82.12042999267578,-1.3522453308105469,119.37444305419922,-0.007978312174479167,0.3606666666666667,0.3414285714285714,0.0072629716661241316,-3.3946749144287125,0.5712720155715942,46.58169937133789,0.05091764662000868,-0.3969632042778863
5855,0.03474983151041668,0.19921878814697266,86.84622192382812,79.84959411621094,-1.0044593811035156,119.33353424072266,-0.007978312174479167,0.3576666666666667,0.3414285714285714,0.0075376298692491316,-3.6253801756591812,0.1538040041923523,45.26335144042969,0.07774030897352431,-0.39264437357584636
5856,0.03865608151041668,0.19921878814697266,87.50088500976562,81.36347961425781,-0.7794227600097656,119.35398864746094,-0.00775099860297309,0.35433333333333333,0.3407142857142857,0.0074460771348741316,-3.3946749144287125,-0.12084640795898594,45.26335144042969,0.06819339328342014,-0.3903712378607856
5857,0.015218581510416681,0.219140682220459,87.19401550292969,79.11309814453125,-1.4136199951171875,119.39490509033203,-0.007978312174479167,0.3496666666666667,0.34035714285714286,0.005737135145399305,-2.878332751342775,-1.7577597075195328,45.26335144042969,0.08978797064887153,-0.39787250094943577
5858,0.023031081510416683,0.219140682220459,86.70301818847656,76.04440307617188,-1.2499542236328125,119.39490509033203,-0.0075236850314670135,0.3453333333333333,0.33964285714285714,0.004791132609049479,-2.1202989989013687,-2.493822711059572,45.26335144042969,0.11842905680338542,-0.39605399237738714
5859,0.007406081510416682,0.239062557220459,83.69569396972656,75.73753356933594,-1.2090415954589844,119.80406188964844,-0.0075236850314670135,0.3406666666666667,0.3389285714285714,0.0015258365207248264,-1.4940973692626969,-2.4498793059082047,45.17546081542969,0.08842400444878472,-0.40014559427897134
5860,-0.019937668489583317,0.19921878814697266,80.81111145019531,79.35859680175781,-0.943084716796875,119.72222900390625,-0.0075236850314670135,0.338,0.3367857142857143,-0.0027770148383246527,-1.6039568358154312,-1.6479002409667984,45.17546081542969,0.016139051649305555,-0.39628126356336807
5861,-0.07071891848958332,0.19921878814697266,86.17111206054688,78.8880615234375,-0.55438232421875,119.39490509033203,-0.00775099860297309,0.3343333333333333,0.3360714285714286,-0.0069577958848741316,-1.4831110411376969,1.9445220232009888,45.17546081542969,0.08092278374565973,-0.3883254157172309
5862,-0.05509391848958332,0.219140682220459,85.76194763183594,79.87004852294922,-2.313770294189453,119.33353424072266,-0.007978312174479167,0.331,0.33464285714285713,-0.004241816202799479,-1.560013430664064,0.5602860450744629,45.17546081542969,0.06546554565429688,-0.4071922726101346
5863,0.007406081510416682,0.239062557220459,86.0074462890625,80.93386840820312,-2.354686737060547,119.35398864746094,-0.00775099860297309,0.3283333333333333,0.3335714285714286,0.0010070376925998264,-1.4940973692626969,0.5932440161705017,45.17546081542969,0.05637308756510417,-0.4078741709391276
5864,0.007406081510416682,0.239062557220459,86.78485107421875,77.49691772460938,-2.5388107299804688,119.43582153320312,-0.007978312174479167,0.32566666666666666,0.3314285714285714,0.0013427310519748264,-1.153530734130861,0.032958000898361206,45.17546081542969,0.10319925944010416,-0.4108292473687066
5865,0.023031081510416683,0.25898443222045897,88.78973388671875,80.40196228027344,-2.313770294189453,119.33353424072266,-0.00775099860297309,0.32133333333333336,0.3296428571428571,0.0029906378851996527,-1.3622652464599625,-0.4504267149658219,45.17546081542969,0.09319746229383681,-0.4071922726101346
5866,0.003499831510416682,0.25898443222045897,87.0098876953125,76.14669799804688,-2.0069007873535156,119.41535949707031,-0.0075236850314670135,0.31833333333333336,0.32785714285714285,0.000457763671875,-1.9005781584472672,-0.7909933500976578,45.17546081542969,0.12070210774739583,-0.40469178093804253
5867,-0.008218918489583319,0.239062557220459,86.17111206054688,79.50180053710938,-1.8227806091308594,119.35398864746094,-0.007978312174479167,0.316,0.3275,-0.000732421875,-1.8566347532959,0.14281800389289856,45.17546081542969,0.07410346137152778,-0.40196410285101997
5868,-0.023843918489583317,0.239062557220459,85.76194763183594,76.55585479736328,-6.078044891357422,119.39490509033203,-0.00775099860297309,0.31233333333333335,0.32607142857142857,-0.0020141177707248266,-2.0324102812500016,0.3076080083847046,45.17546081542969,0.10228992038302952,-0.44969944424099395
5869,0.007406081510416682,0.239062557220459,84.08439636230469,80.36103820800781,-5.525676727294922,119.33353424072266,-0.007296371459960938,0.30933333333333335,0.32535714285714284,0.0009154849582248264,-2.6476274901123062,-0.4614130430908219,45.17546081542969,0.04137064615885417,-0.442880121866862
5870,0.04256233151041668,0.219140682220459,85.39370727539062,81.9567642211914,-5.648426055908203,119.35398864746094,-0.007978312174479167,0.30466666666666664,0.325,0.0036619822184244793,-3.0541082792968766,0.6701459884643555,44.99967956542969,0.0381882561577691,-0.44447127448187934
5871,0.030843581510416683,0.239062557220459,87.66455078125,78.96989440917969,-5.402931213378906,119.37444305419922,-0.007978312174479167,0.3006666666666667,0.325,0.0036924997965494793,-3.273829119750978,0.7360620498657227,44.99967956542969,0.09660729302300347,-0.4419708251953125
5872,0.023031081510416683,0.25898443222045897,86.86668395996094,79.80867004394531,-5.280181884765625,119.33353424072266,-0.0075236850314670135,0.2956666666666667,0.32571428571428573,0.0036009470621744793,-2.6915708952636734,0.08788800239562988,44.99967956542969,0.07842237684461806,-0.4401524013943142
5873,0.026937331510416683,0.25898443222045897,87.27584838867188,80.8929443359375,-5.3620147705078125,119.33353424072266,-0.00775099860297309,0.291,0.32571428571428573,0.004516474405924479,-2.230158465454103,0.24169200658798218,44.99967956542969,0.07092115614149305,-0.44106165568033856
5874,0.003499831510416682,0.29882820129394533,86.98943328857422,80.11553955078125,-5.382472991943359,119.35398864746094,-0.00775099860297309,0.286,0.32571428571428573,0.0025633917914496527,-2.559738772460939,-0.08788933093261875,44.99967956542969,0.07637659708658855,-0.4415162404378255
5875,-0.012125168489583319,0.25898443222045897,86.98943328857422,78.29478454589844,-5.300640106201172,119.39490509033203,-0.00775099860297309,0.2833333333333333,0.32535714285714284,0.00048828125,-2.834389346191408,-0.8678938322753922,44.99967956542969,0.09660720825195312,-0.44106161329481336
5876,-0.012125168489583319,0.25898443222045897,85.94607543945312,79.84959411621094,-5.300640106201172,119.35398864746094,-0.0075236850314670135,0.279,0.325,-0.0,-2.537766116210939,-0.812964098999025,44.99967956542969,0.06773868136935764,-0.4406069861518012
5877,-0.016031418489583317,0.25898443222045897,86.17111206054688,79.46089172363281,-5.280181884765625,119.35398864746094,-0.00775099860297309,0.275,0.3246428571428571,-0.0010070376925998264,-1.9005781584472672,-0.16478981311035312,44.99967956542969,0.07455800374348959,-0.44037967258029515
5878,-0.03556266848958332,0.2789063262939453,86.19157409667969,77.8856201171875,-5.239265441894531,119.39490509033203,-0.007978312174479167,0.271,0.32357142857142857,-0.0028075324164496527,-1.516068118164064,0.1538040041923523,47.46059799194336,0.09228837754991319,-0.44037967258029515
5879,-0.016031418489583317,0.2789063262939453,85.68012237548828,80.05416870117188,-5.136974334716797,119.33353424072266,-0.0075236850314670135,0.26766666666666666,0.32357142857142857,-0.00067138671875,-1.2084604674072281,-0.10986007983398594,48.69105911254883,0.0625105963812934,-0.4385612063937717
5880,-0.008218918489583319,0.25898443222045897,86.15065002441406,81.9567642211914,-5.096061706542969,119.33353424072266,-0.00775099860297309,0.2643333333333333,0.3242857142857143,0.000213623046875,-1.0656420164794937,0.8569080233573914,48.86684036254883,0.046598731146918405,-0.4381066216362847
5881,-0.016031418489583317,0.2789063262939453,86.94851684570312,79.4404296875,-4.993770599365234,119.37444305419922,-0.00775099860297309,0.26166666666666666,0.3242857142857143,0.000244140625,-1.0436712675781266,0.45042601227760315,48.86684036254883,0.0834231906467014,-0.43742459615071616
5882,0.003499831510416682,0.2789063262939453,86.84622192382812,81.83401489257812,-4.8914794921875,119.35398864746094,-0.00775099860297309,0.26,0.3242857142857143,0.0022582160101996527,-0.9118391447753922,0.14281800389289856,48.86684036254883,0.05569118923611111,-0.4360607571072049
5883,0.019124831510416683,0.29882820129394533,86.88714599609375,80.01325988769531,-5.464302062988281,119.35398864746094,-0.00775099860297309,0.25666666666666665,0.32392857142857145,0.004272333780924479,-1.0216986113281266,-0.6042314940185562,48.86684036254883,0.0763765123155382,-0.44242545233832464
5884,0.019124831510416683,0.25898443222045897,86.88714599609375,80.66790771484375,-5.627967834472656,119.33353424072266,-0.00775099860297309,0.255,0.32321428571428573,0.0036924997965494793,-2.0763555937500016,-0.7690206938476578,48.86684036254883,0.06910264756944444,-0.44401668972439234
5885,0.011312331510416681,0.239062557220459,86.86668395996094,78.11065673828125,-5.239265441894531,119.41535949707031,-0.00775099860297309,0.252,0.32321428571428573,0.0021056281195746527,-2.6476274901123062,-1.8126913481445328,48.86684036254883,0.09728919135199653,-0.440606943766276
5886,0.026937331510416683,0.239062557220459,84.06393432617188,78.43798828125,-4.850563049316406,119.41535949707031,-0.0075236850314670135,0.24833333333333332,0.3246428571428571,0.0018920474582248264,-3.1310106688232437,-2.3400179320068375,48.86684036254883,0.06251051161024306,-0.43628802829318575
5887,0.023031081510416683,0.219140682220459,84.0434799194336,76.69905853271484,-4.66644287109375,119.41535949707031,-0.007296371459960938,0.24333333333333335,0.32535714285714284,-0.0001220703125,-3.4496046477050797,-1.8126913481445328,48.86684036254883,0.08160468207465278,-0.43424224853515625
5888,-0.008218918489583319,0.239062557220459,84.06393432617188,80.58607482910156,-4.645984649658203,119.33353424072266,-0.007296371459960938,0.23933333333333334,0.32785714285714285,-0.0036009470621744793,-2.900305407592775,0.09887400269508362,48.86684036254883,0.03864288330078125,-0.43310576544867624
5889,-0.027750168489583317,0.2789063262939453,86.19157409667969,82.52958679199219,-4.7482757568359375,119.35398864746094,-0.0075236850314670135,0.23433333333333334,0.3289285714285714,-0.005279371473524305,-2.2741018706054703,0.5053560137748718,48.86684036254883,0.04068874782986111,-0.4344696044921875
5890,-0.016031418489583317,0.219140682220459,88.1146240234375,78.33570098876953,-4.66644287109375,119.41535949707031,-0.00775099860297309,0.23033333333333333,0.33035714285714285,-0.0029601203070746527,-1.7687460356445328,0.5273280143737793,48.86684036254883,0.10865470038519966,-0.43424224853515625
5891,-0.004312668489583318,0.219140682220459,86.13019561767578,78.02882385253906,-4.707359313964844,119.41535949707031,-0.007296371459960938,0.22633333333333333,0.33107142857142857,-0.0020141177707248266,-1.3732515745849625,-1.131558077880861,48.86684036254883,0.09001524183485243,-0.4346968756781684
5892,0.003499831510416682,0.25898443222045897,86.19157409667969,80.68836975097656,-4.789188385009766,119.33353424072266,-0.0075236850314670135,0.223,0.3317857142857143,-0.0020751529269748266,-1.2414194517822281,-0.4614130430908219,48.86684036254883,0.061146714952256945,-0.4346969180636936
5893,-0.004312668489583318,0.239062557220459,86.29386138916016,79.82913208007812,-4.850563049316406,119.39490509033203,-0.00775099860297309,0.221,0.33214285714285713,-0.0030516730414496527,-1.4281813078613297,0.8459219932556152,48.86684036254883,0.07183032565646702,-0.4360607571072049
5894,-0.012125168489583319,0.219140682220459,85.63920593261719,78.19248962402344,-4.789188385009766,119.41535949707031,-0.007069057888454861,0.21866666666666668,0.33214285714285713,-0.0028380499945746527,-1.7907186918945328,-0.07690300280761875,48.86684036254883,0.08274129231770834,-0.43560608757866753
5895,0.007406081510416682,0.219140682220459,86.45751953125,81.26119232177734,-4.707359313964844,119.33353424072266,-0.00775099860297309,0.21666666666666667,0.33214285714285713,-0.0009765201144748264,-1.8456484251709,0.6262019872665405,48.86684036254883,0.057736968994140624,-0.43378770616319445
5896,-0.027750168489583317,0.219140682220459,87.35768127441406,82.40684509277344,-4.625526428222656,119.35398864746094,-0.00775099860297309,0.21466666666666667,0.3325,-0.0029601203070746527,-1.9225508146972672,1.6369140148162842,48.86684036254883,0.05500929090711806,-0.43310572306315104
5897,-0.06290641848958332,0.2789063262939453,85.90515899658203,78.45845031738281,-4.3595733642578125,119.41535949707031,-0.007296371459960938,0.213,0.3325,-0.005737135145399305,-1.9335371428222672,-0.3185945921630875,48.86684036254883,0.08274120754665798,-0.43083258734809027
5898,-0.04337516848958332,0.2789063262939453,86.04837036132812,78.02882385253906,-4.911937713623047,119.41535949707031,-0.007296371459960938,0.21033333333333334,0.33214285714285713,-0.004455439249674479,-1.9445234709472672,-0.7800070219726578,48.86684036254883,0.08910607231987847,-0.436969969007704
5899,-0.03556266848958332,0.2789063262939453,85.86424255371094,77.9879150390625,-5.627967834472656,119.39490509033203,-0.007296371459960938,0.20833333333333334,0.3317857142857143,-0.004516474405924479,-3.1310106688232437,-0.03295769030761875,48.86684036254883,0.08751475016276042,-0.4446985880533854
5900,-0.023843918489583317,0.25898443222045897,86.19157409667969,78.84715270996094,-4.461860656738281,119.70177459716797,-0.007296371459960938,0.20533333333333334,0.33214285714285713,-0.0025633917914496527,-4.493275302001955,0.6921180486679077,48.86684036254883,0.08160468207465278,-0.43515150282118054
5901,-0.0004064184895833181,0.25898443222045897,86.25294494628906,79.80867004394531,-3.704914093017578,119.70177459716797,-0.00775099860297309,0.20166666666666666,0.33321428571428574,0.000640869140625,-4.37242950732422,1.5270540714263916,48.86684036254883,0.07160305447048611,-0.42674098544650607
5902,-0.0004064184895833181,0.25898443222045897,86.31431579589844,80.19737243652344,-1.945526123046875,119.70177459716797,-0.00775099860297309,0.19733333333333333,0.3342857142857143,0.0017394595675998264,-4.130736010620119,1.724802017211914,48.86684036254883,0.0679660373263889,-0.4071922302246094
5903,0.011312331510416681,0.239062557220459,86.31431579589844,83.79798889160156,-1.5159111022949219,119.37444305419922,-0.00775099860297309,0.19266666666666668,0.33535714285714285,0.004394404093424479,-3.3727022581787125,2.0214240550994873,48.86684036254883,0.027959187825520832,-0.3987817128499349
5904,0.015218581510416681,0.25898443222045897,87.82821655273438,79.27676391601562,-1.3113288879394531,119.35398864746094,-0.0075236850314670135,0.18733333333333332,0.3364285714285714,0.0066526201036241316,-2.504809039184572,1.219446063041687,48.86684036254883,0.09501614040798612,-0.3962813059488932
5905,0.030843581510416683,0.25898443222045897,87.13264465332031,79.56317901611328,-2.0273590087890625,119.70177459716797,-0.0075236850314670135,0.18266666666666667,0.33714285714285713,0.009032948811848959,-2.3400179320068375,0.6591600179672241,48.86684036254883,0.0841051737467448,-0.40810148451063366
5906,0.04256233151041668,0.2789063262939453,87.15309143066406,84.57539367675781,-1.7409477233886719,119.35398864746094,-0.00775099860297309,0.179,0.3375,0.01104702419704861,-2.526779788085939,1.3952220678329468,48.86684036254883,0.028641086154513887,-0.4010548485649957
5907,0.03474983151041668,0.29882820129394533,88.97386169433594,77.333251953125,-2.088733673095703,119.39490509033203,-0.00775099860297309,0.175,0.33714285714285713,0.012084579467773438,-3.3067861967773453,-0.3076082640380875,46.84537124633789,0.12934010823567707,-0.40537376403808595
5908,0.03865608151041668,0.2789063262939453,85.18913269042969,81.81356048583984,-2.0682754516601562,119.33353424072266,-0.007296371459960938,0.17333333333333334,0.3364285714285714,0.01132168240017361,-3.954960482666017,-1.3512789183349625,46.66958999633789,0.037506357828776045,-0.4044645521375868
5909,0.05428108151041668,0.2789063262939453,88.64653015136719,84.12531280517578,-1.4749946594238281,119.70177459716797,-0.0075236850314670135,0.169,0.3360714285714286,0.012542343139648438,-3.218899386474611,-0.19774879748535312,46.66958999633789,0.050235748291015625,-0.40196410285101997
5910,0.03474983151041668,0.239062557220459,89.09660339355469,78.27432250976562,-1.495452880859375,119.39490509033203,-0.0075236850314670135,0.166,0.33535714285714285,0.010528267754448786,-2.823403018066408,-1.516068118164064,46.66958999633789,0.12024756537543403,-0.39878175523546006
5911,0.03865608151041668,0.2789063262939453,86.15065002441406,80.77020263671875,-1.3931617736816406,119.33353424072266,-0.007296371459960938,0.161,0.335,0.009673775566948786,-3.0101648741455094,-2.2850881987304703,46.58169937133789,0.05978274875217014,-0.39696328904893663
5912,0.03474983151041668,0.25898443222045897,86.5188980102539,78.68348693847656,-1.4136199951171875,119.41535949707031,-0.00775099860297309,0.157,0.3339285714285714,0.0075376298692491316,-2.9881922178955094,-2.581711428710939,46.58169937133789,0.08706012301974826,-0.39809977213541664
5913,0.015218581510416681,0.2789063262939453,85.0050048828125,77.76287841796875,-1.7000312805175781,119.76314544677734,-0.007296371459960938,0.153,0.33321428571428574,0.0036009470621744793,-2.515795367309572,-2.823403018066408,46.58169937133789,0.08046807183159722,-0.4051464080810547
5914,0.015218581510416681,0.29882820129394533,85.5982894897461,85.12775421142578,-1.5568275451660156,119.70177459716797,-0.007069057888454861,0.14833333333333334,0.33321428571428574,0.0016479068332248264,-2.856360095092775,-1.4501520567626969,46.58169937133789,0.005228169759114583,-0.40287335713704425
5915,0.007406081510416682,0.25898443222045897,88.1146240234375,78.04928588867188,-1.4545364379882812,119.41535949707031,-0.0075236850314670135,0.146,0.33285714285714285,0.000274658203125,-3.3946749144287125,-1.6918455534667984,46.58169937133789,0.11183709038628473,-0.39855439927842884
5916,0.011312331510416681,0.239062557220459,86.0688247680664,80.93386840820312,-1.5159111022949219,119.33353424072266,-0.007296371459960938,0.14166666666666666,0.3325,-0.0008544498019748264,-3.251856463500978,-1.7138163023681656,46.58169937133789,0.05705507066514757,-0.3983271704779731
5917,-0.012125168489583319,0.2789063262939453,87.78729248046875,78.3970718383789,-1.3931617736816406,119.39490509033203,-0.00775099860297309,0.13866666666666666,0.3325,-0.003936640421549479,-3.3397451811523453,-1.3512789183349625,46.58169937133789,0.10433578491210938,-0.3976451873779297
5918,0.011312331510416681,0.2789063262939453,86.41661071777344,78.66302490234375,-1.4340782165527344,119.41535949707031,-0.0075236850314670135,0.135,0.33214285714285713,-0.0028990851508246527,-3.2957998686523453,-1.4171949797363297,46.58169937133789,0.08615095350477431,-0.39832708570692277
5919,0.007406081510416682,0.2789063262939453,86.74394226074219,78.9494400024414,-1.9250717163085938,119.72222900390625,-0.0075236850314670135,0.13133333333333333,0.33214285714285713,-0.0036314646402994793,-3.3946749144287125,0.06591600179672241,46.58169937133789,0.08660558064778646,-0.4071922302246094
5920,-0.019937668489583317,0.239062557220459,86.78485107421875,79.41996765136719,-1.6795730590820312,119.37444305419922,-0.0075236850314670135,0.12833333333333333,0.3317857142857143,-0.005920240614149305,-3.6912962370605484,1.3293060064315796,46.58169937133789,0.08183203803168403,-0.40060017903645834
5921,-0.03556266848958332,0.25898443222045897,86.82576751708984,77.9469985961914,-4.3595733642578125,119.72222900390625,-0.007296371459960938,0.12433333333333334,0.33214285714285713,-0.006133863661024305,-3.570450442382814,0.6701459884643555,46.58169937133789,0.09865298800998264,-0.43424224853515625
5922,-0.0004064184895833181,0.2789063262939453,85.84378051757812,81.32257080078125,-4.482318878173828,114.034912109375,-0.0075236850314670135,0.12033333333333333,0.3317857142857143,-0.0023497687445746527,-3.163967745849611,0.8129640221595764,46.58169937133789,0.05023566351996528,-0.37241367763943145
5923,0.026937331510416683,0.25898443222045897,87.17355346679688,79.11309814453125,-4.482318878173828,114.01445007324219,-0.00775099860297309,0.11666666666666667,0.3317857142857143,0.0012206607394748264,-2.515795367309572,0.8129640221595764,46.58169937133789,0.08956061469184028,-0.3721863216824002
5924,0.05428108151041668,0.219140682220459,87.0712661743164,80.19737243652344,-4.175449371337891,114.25994873046875,-0.00775099860297309,0.114,0.33107142857142857,0.0034484015570746527,-1.7028299742431656,0.14281800389289856,46.58169937133789,0.07637659708658855,-0.3715044233534071
5925,0.05818733151041668,0.25898443222045897,87.0712661743164,82.18180847167969,-4.1959075927734375,114.13719940185547,-0.007978312174479167,0.11,0.33071428571428574,0.004638544718424479,-1.6369139128417984,0.4284540116786957,46.58169937133789,0.054327307807074655,-0.37036785549587675
5926,0.06209358151041668,0.25898443222045897,87.13264465332031,79.33814239501953,-4.052700042724609,114.17811584472656,-0.007978312174479167,0.10733333333333334,0.3292857142857143,0.005889723036024305,-2.3510042601318375,-0.5163427763671891,46.58169937133789,0.08660558064778646,-0.36923128763834634
5927,0.07771858151041668,0.29882820129394533,84.61630249023438,79.74729919433594,-3.8481216430664062,115.8965835571289,-0.0075236850314670135,0.10433333333333333,0.32857142857142857,0.0072629716661241316,-2.515795367309572,-0.9777552061767594,46.58169937133789,0.05410003662109375,-0.3860522800021701
5928,0.08162483151041668,0.29882820129394533,85.16867065429688,78.96989440917969,-3.684459686279297,115.5283432006836,-0.0075236850314670135,0.10033333333333333,0.32785714285714285,0.0073850419786241316,-2.6146685057373062,0.5053560137748718,46.58169937133789,0.0688752916124132,-0.3801422542995877
5929,0.06990608151041668,0.2789063262939453,86.88714599609375,81.17935943603516,-2.9888877868652344,115.85566711425781,-0.007978312174479167,0.09766666666666667,0.3275,0.0067441728379991316,-2.482836382934572,1.6259280443191528,46.58169937133789,0.06341985066731771,-0.3760506100124783
5930,0.05818733151041668,0.2789063262939453,87.82821655273438,82.63188171386719,-2.743389129638672,115.54879760742188,-0.00775099860297309,0.09533333333333334,0.3264285714285714,0.0073850419786241316,-2.4388929777832047,2.065368175506592,46.58169937133789,0.05773705376519097,-0.3699131859673394
5931,0.05428108151041668,0.2789063262939453,87.70545959472656,79.52226257324219,-1.5363693237304688,115.54879760742188,-0.00775099860297309,0.09166666666666666,0.32607142857142857,0.008636220296223959,-2.3949495726318375,0.5383139848709106,46.58169937133789,0.09092441134982639,-0.3565018547905816
5932,0.04646858151041668,0.29882820129394533,87.31675720214844,81.81356048583984,-2.5388107299804688,115.83521270751953,-0.00775099860297309,0.088,0.325,0.008575185139973959,-2.526779788085939,0.48338401317596436,46.58169937133789,0.0611466301812066,-0.3708224826388889
5933,0.05037483151041668,0.2789063262939453,87.39859008789062,77.80378723144531,-2.9684295654296875,115.8965835571289,-0.00775099860297309,0.08466666666666667,0.3246428571428571,0.009246529473198786,-2.4608656340332047,0.29662200808525085,46.58169937133789,0.10660892062717015,-0.3762779235839844
5934,0.05818733151041668,0.2789063262939453,85.29141998291016,79.0312728881836,-2.2319412231445312,115.83521270751953,-0.00775099860297309,0.08133333333333333,0.32392857142857145,0.010039986504448786,-2.4169203215332047,-0.2416922026367203,46.58169937133789,0.06955718994140625,-0.3674128214518229
5935,0.08162483151041668,0.2789063262939453,86.62118530273438,83.26608276367188,-0.7794227600097656,115.50788116455078,-0.00775099860297309,0.07866666666666666,0.32357142857142857,0.012206649780273438,-1.8236757689209,0.8678940534591675,46.58169937133789,0.03727891710069445,-0.34763671027289494
5936,0.07771858151041668,0.25898443222045897,86.62118530273438,78.23341369628906,-3.643543243408203,115.85566711425781,-0.00775099860297309,0.07566666666666666,0.32285714285714284,0.012389755249023438,-1.1974741392822281,-0.3185945921630875,46.58169937133789,0.09319746229383681,-0.3833245595296224
5937,0.08943733151041668,0.239062557220459,89.34210205078125,82.85691833496094,-3.8276634216308594,115.50788116455078,-0.00775099860297309,0.07166666666666667,0.3221428571428571,0.012603378295898438,-1.4391657286376969,-0.6811319761962906,46.58169937133789,0.07205759684244792,-0.3815060509575738
5938,0.06209358151041668,0.25898443222045897,87.91004180908203,77.74241638183594,-3.7662887573242188,115.91704559326172,-0.00775099860297309,0.06933333333333333,0.32142857142857145,0.010192574395073786,-2.3619905882568375,-2.3180471831054703,46.58169937133789,0.11297361585828992,-0.3853703816731771
5939,0.06990608151041668,0.19921878814697266,85.43462371826172,75.96257019042969,-5.484760284423828,115.91704559326172,-0.007296371459960938,0.06633333333333333,0.3221428571428571,0.0073240068223741316,-3.3727022581787125,-1.7138163023681656,46.40591812133789,0.10524503919813367,-0.4044645097520616
5940,0.07771858151041668,0.19921878814697266,83.85935974121094,82.18180847167969,-2.743389129638672,115.85566711425781,-0.0075236850314670135,0.06266666666666666,0.32321428571428573,0.0071714189317491316,-4.636091845581056,0.35155200958251953,46.40591812133789,0.018639458550347224,-0.3733228471544054
5941,0.10115608151041668,0.219140682220459,87.6031723022461,82.59095764160156,-2.4160614013671875,115.85566711425781,-0.00775099860297309,0.059,0.3246428571428571,0.010253609551323786,-3.1310106688232437,1.1864880323410034,46.40591812133789,0.05569127400716146,-0.36968587239583334
5942,0.12068733151041668,0.219140682220459,87.48042297363281,80.25875091552734,-2.477436065673828,115.8965835571289,-0.007978312174479167,0.054,0.32535714285714284,0.013335800170898438,-1.3183199339599625,-0.3076082640380875,46.40591812133789,0.08024080064561633,-0.3708224402533637
5943,0.12459358151041668,0.219140682220459,86.0688247680664,78.02882385253906,-2.334228515625,115.85566711425781,-0.007296371459960938,0.050333333333333334,0.32535714285714284,0.012572860717773438,-0.13183273608398594,-1.2304331236572281,46.40591812133789,0.08933334350585938,-0.36877661810980905
5944,0.12459358151041668,0.219140682220459,88.05325317382812,76.18760681152344,-2.334228515625,115.9375,-0.00775099860297309,0.047,0.3242857142857143,0.01184048122829861,0.7580339908599854,-0.49437012011718906,49.8336296081543,0.13184051513671874,-0.36968587239583334
5945,0.08553108151041668,0.219140682220459,84.554931640625,77.04684448242188,-1.9864425659179688,115.5283432006836,-0.007296371459960938,0.045,0.32321428571428573,0.008544667561848959,0.8349360227584839,-0.845923083374025,50.0094108581543,0.0834231906467014,-0.361275397406684
5946,0.08162483151041668,0.219140682220459,84.5958480834961,78.60165405273438,39.52283477783203,115.4874267578125,-0.007296371459960938,0.04133333333333333,0.32285714285714284,0.0074155595567491316,0.6262019872665405,0.23070600628852844,50.0094108581543,0.06660215589735242,0.10039342244466146
5947,0.07771858151041668,0.239062557220459,88.09416198730469,79.46089172363281,39.461463928222656,115.54879760742188,-0.00775099860297309,0.03966666666666667,0.3221428571428571,0.008636220296223959,0.6042300462722778,0.7580339908599854,50.0094108581543,0.09592522515190972,0.09902962578667535
5948,0.08943733151041668,0.219140682220459,85.92561340332031,80.32012939453125,39.48191833496094,115.4874267578125,-0.0075236850314670135,0.03866666666666667,0.32107142857142856,0.009551705254448786,0.41746801137924194,-0.4723993712158219,50.0094108581543,0.062283155653211804,0.0999387953016493
5949,0.1324060815104167,0.219140682220459,85.94607543945312,80.25875091552734,39.461463928222656,115.50788116455078,-0.005250591701931423,0.036,0.3196428571428571,0.012389755249023438,-0.6921183043212906,-0.3845106535644547,50.0094108581543,0.06319249471028646,0.0994842529296875
5950,0.1284998315104167,0.219140682220459,87.29630279541016,81.30210876464844,39.441001892089844,115.4874267578125,-0.00775099860297309,0.032,0.32,0.01190151638454861,-1.6479002409667984,0.02197200059890747,50.0094108581543,0.06660215589735242,0.09948416815863716
5951,0.07381233151041668,0.17929691314697266,87.15309143066406,81.60897827148438,39.441001892089844,115.5283432006836,-0.00775099860297309,0.03,0.32107142857142856,0.0071103837754991316,-1.8126913481445328,0.5493000149726868,50.0094108581543,0.06160125732421875,0.099029541015625
5952,-0.027750168489583317,0.15937503814697265,83.77752685546875,75.79890441894531,39.50238037109375,115.54879760742188,-0.007296371459960938,0.026,0.3217857142857143,0.000244140625,-1.7357889586181656,-1.0216986113281266,50.0094108581543,0.08865136040581598,0.0994842529296875
5953,0.007406081510416682,0.13945316314697265,83.42974090576172,73.34394836425781,39.563751220703125,115.54879760742188,-0.007069057888454861,0.023,0.32357142857142857,0.0015868716769748264,-1.3293062620849625,-2.0324102812500016,50.0094108581543,0.11206436157226562,0.10016615125868056
5954,0.03474983151041668,0.1195312786102295,85.25050354003906,83.36836242675781,39.461463928222656,115.4874267578125,-0.0075236850314670135,0.019333333333333334,0.32535714285714284,0.0010985904269748264,-1.2194467955322281,1.263390064239502,47.196929931640625,0.020912679036458333,0.0997115241156684
5955,-0.03556266848958332,0.19921878814697266,89.32164001464844,83.36836242675781,39.461463928222656,115.4874267578125,-0.00775099860297309,0.015,0.325,-0.0012511783175998264,-1.6808592253417984,1.6149420738220215,40.07783889770508,0.06614752875434028,0.0997115241156684
5956,-0.03556266848958332,0.2789063262939453,88.76927947998047,77.16959381103516,39.48191833496094,115.56925964355469,-0.00775099860297309,0.010666666666666666,0.3225,-0.0013122134738498264,-1.1095873289794937,-0.2856375151367203,38.93526840209961,0.12888539632161458,0.099029541015625
5957,-0.09415641848958332,0.2789063262939453,84.0434799194336,75.9216537475586,39.543296813964844,115.54879760742188,-0.007296371459960938,0.008666666666666666,0.3196428571428571,-0.009124501546223959,-0.3515516691894547,-0.801977770874025,28.388469696044922,0.09024251302083333,0.09993888007269966
5958,-0.09025016848958332,0.239062557220459,73.79402160644531,80.46333312988281,39.543296813964844,115.5283432006836,-0.007296371459960938,0.005333333333333333,0.3132142857142857,-0.009124501546223959,-0.03295769030761875,-0.9008528166503922,27.245899200439453,-0.07410346137152778,0.10016615125868056
5959,-0.012125168489583319,0.239062557220459,87.82821655273438,77.04684448242188,39.461463928222656,115.54879760742188,-0.00775099860297309,0.004666666666666667,0.30892857142857144,-0.0009765201144748264,0.10986000299453735,1.1645159721374512,27.158010482788086,0.11979302300347222,0.09902962578667535
5960,-0.004312668489583318,0.219140682220459,81.30210876464844,83.71615600585938,39.563751220703125,115.4874267578125,-0.007296371459960938,0.0026666666666666666,0.3025,0.000274658203125,1.5490260124206543,1.263390064239502,27.158010482788086,-0.026822747124565973,0.10084804958767361
5961,-0.027750168489583317,0.15937503814697265,83.92073059082031,72.89387512207031,39.52283477783203,115.56925964355469,-0.007296371459960938,0.0016666666666666668,0.2975,-0.000518798828125,2.197200059890747,-0.4284540587158219,27.158010482788086,0.12252061631944444,0.09948416815863716
5962,-0.016031418489583317,0.19921878814697266,86.70301818847656,84.63676452636719,39.48191833496094,115.5283432006836,-0.0075236850314670135,0.0026666666666666666,0.2925,-0.000396728515625,3.548478126525879,0.9228240251541138,27.158010482788086,0.0229583740234375,0.09948416815863716
5963,-0.05118766848958332,0.15937503814697265,89.32164001464844,75.53295135498047,39.52283477783203,115.56925964355469,-0.00775099860297309,0.0013333333333333333,0.28785714285714287,-0.0015563540988498264,3.680310010910034,0.3405660092830658,27.158010482788086,0.15320765177408854,0.09948416815863716
5964,-0.016031418489583317,0.219140682220459,82.63188171386719,75.51249694824219,39.52283477783203,115.54879760742188,-0.007069057888454861,0.0,0.28214285714285714,-0.0,3.537492036819458,-0.4064833098144547,27.158010482788086,0.07910427517361111,0.0997115241156684
