,WD,WS,AIL_1,AIL_2,ELEV_1,ELEV_2,RUDD,ALT,GS,TH,PTCH,ROLL,PLA_1,AIL,ELEV
3083,0.10985367604709204,0.25898443222045897,86.31431579589844,78.31524658203125,1.4300422668457031,119.47673797607422,0.04316669040256076,0.6736666666666666,0.4564285714285714,0.005981275770399305,0.6042300462722778,-0.20873512561035312,29.003700256347656,0.08887854682074653,-0.36718550788031684
3084,0.11766617604709204,0.2789063262939453,86.29386138916016,77.45600891113281,39.768333435058594,119.47673797607422,0.042030122545030385,0.6673333333333333,0.455,0.0066221025254991316,0.05493000149726868,-0.19774879748535312,29.003700256347656,0.09819836086697048,0.05879550509982639
3085,0.13329117604709204,0.29882820129394533,85.68012237548828,79.84959411621094,39.74787902832031,119.39490509033203,0.04407594468858507,0.6636666666666666,0.45357142857142857,0.008147939046223959,-0.17577614123535312,1.1864880323410034,29.003700256347656,0.06478364732530383,0.05947748819986979
3086,0.13719742604709204,0.29882820129394533,85.84378051757812,81.46577453613281,39.666046142578125,119.39490509033203,0.040666283501519095,0.66,0.4525,0.009734810723198786,0.08788800239562988,1.7577600479125977,29.003700256347656,0.04864451090494792,0.05856823391384548
3087,0.11375992604709204,0.3585938262939453,86.6007308959961,79.07218933105469,39.7274169921875,119.43582153320312,0.03271039326985677,0.658,0.45071428571428573,0.010314644707573786,0.36253800988197327,-0.2526785307617203,29.003700256347656,0.0836504618326823,0.05879550509982639
3088,0.12938492604709204,0.33867195129394534,86.559814453125,79.72684478759766,39.7274169921875,119.41535949707031,0.04362131754557292,0.6523333333333333,0.44857142857142857,0.01077236599392361,0.08788800239562988,-0.7800070219726578,29.003700256347656,0.07592188517252604,0.05902286105685764
3089,0.14110367604709204,0.33867195129394534,86.559814453125,79.62455749511719,39.70696258544922,119.43582153320312,0.03884777492947049,0.6493333333333333,0.445,0.01135219997829861,0.08788800239562988,-0.9777552061767594,29.003700256347656,0.07705841064453126,0.05856823391384548
3090,0.13719742604709204,0.33867195129394534,86.53935241699219,78.37661743164062,39.74787902832031,119.4971923828125,0.050667953491210935,0.6443333333333333,0.44285714285714284,0.01043667263454861,-0.01098694140625156,-0.9008528166503922,29.003700256347656,0.09069705539279514,0.058340962727864584
3091,0.15282242604709204,0.29882820129394533,86.559814453125,79.72684478759766,39.768333435058594,119.41535949707031,0.04362131754557292,0.641,0.43892857142857145,0.009856881035698786,-0.3295809202880875,-0.48338379199218906,29.003700256347656,0.07592188517252604,0.05947748819986979
3092,0.12157242604709204,0.29882820129394533,86.53935241699219,79.56317901611328,39.70696258544922,119.41535949707031,0.049758699205186635,0.6356666666666667,0.4367857142857143,0.0070493486192491316,-0.8898664885253922,-0.5383154326171891,29.003700256347656,0.0775130377875434,0.058795589870876734
3093,0.10594742604709204,0.2789063262939453,86.559814453125,79.46089172363281,39.70696258544922,119.4562759399414,0.042939376831054685,0.632,0.43357142857142855,0.004882642957899305,-1.142544406005861,-1.2524038725585953,29.003700256347656,0.07887691921657985,0.058340962727864584
3094,0.13329117604709204,0.2789063262939453,86.35523986816406,74.30547332763672,39.788787841796875,119.51765441894531,0.03612005445692274,0.6273333333333333,0.4317857142857143,0.005370924207899305,-1.3622652464599625,-2.2741018706054703,29.003700256347656,0.13388629489474826,0.05856814914279514
3095,0.15282242604709204,0.33867195129394534,82.97966003417969,76.94454956054688,39.768333435058594,119.4971923828125,0.05430492824978299,0.6216666666666667,0.4278571428571429,0.007964833577473959,-2.263117449829103,0.032958000898361206,29.003700256347656,0.06705678304036458,0.05856823391384548
3096,0.13719742604709204,0.2789063262939453,83.57295227050781,80.36103820800781,39.74787902832031,119.39490509033203,0.05407761467827691,0.6176666666666667,0.425,0.005889723036024305,-2.197201388427736,2.4828360080718994,29.003700256347656,0.03568793402777778,0.05947748819986979
3097,0.08641617604709204,0.25898443222045897,86.04837036132812,81.01570129394531,39.70696258544922,119.39490509033203,0.05225914849175347,0.614,0.4203571428571429,0.0034178415934244793,-2.7684732847900406,3.0431220531463623,29.003700256347656,0.05591854519314236,0.05902286105685764
3098,0.06297867604709204,0.2789063262939453,85.82332611083984,80.46333312988281,39.768333435058594,119.41535949707031,0.03407423231336806,0.609,0.4175,0.0032652960883246527,-3.6583391600341812,1.812690019607544,29.003700256347656,0.05955547756618924,0.05947748819986979
3099,0.11375992604709204,0.25898443222045897,85.74149322509766,80.15646362304688,39.74787902832031,119.41535949707031,0.030664571126302085,0.6063333333333333,0.4139285714285714,0.0077817281087239586,-3.943974154541017,1.7797319889068604,29.003700256347656,0.062055884467230905,0.05925021701388889
3100,0.13329117604709204,0.25898443222045897,85.68012237548828,79.82913208007812,39.7274169921875,119.41535949707031,0.039984342787000866,0.601,0.4114285714285714,0.01089443630642361,-3.6803099089355484,2.0104379653930664,29.003700256347656,0.06501100328233507,0.05902286105685764
3101,0.15282242604709204,0.25898443222045897,85.68012237548828,81.17935943603516,39.74787902832031,119.41535949707031,0.03384691874186198,0.5946666666666667,0.4085714285714286,0.013579898410373263,-3.3727022581787125,1.6259280443191528,28.915809631347656,0.05000847710503472,0.05925021701388889
3102,0.16063492604709204,0.2789063262939453,85.92561340332031,79.58363342285156,39.74787902832031,119.41535949707031,0.02975531684027778,0.5906666666666667,0.4064285714285714,0.01541091071234809,-3.2957998686523453,0.7800060510635376,28.915809631347656,0.07046644422743055,0.05925021701388889
3103,0.17235367604709204,0.29882820129394533,85.80287170410156,82.30455017089844,39.686500549316406,119.39490509033203,0.02657296922471788,0.5843333333333334,0.4035714285714286,0.017760679456922744,-2.900305407592775,0.7250760197639465,28.915809631347656,0.0388702392578125,0.05879550509982639
3104,0.13329117604709204,0.25898443222045897,87.25538635253906,81.0361557006836,39.70696258544922,119.41535949707031,0.055668809678819445,0.5793333333333334,0.4014285714285714,0.013671451144748263,-2.878332751342775,0.35155200958251953,28.915809631347656,0.0691025627983941,0.058795589870876734
3105,0.09422867604709204,0.25898443222045897,86.94851684570312,79.13356018066406,39.70696258544922,119.4971923828125,0.04930407206217448,0.5753333333333334,0.3985714285714286,0.010253609551323786,-2.911289828369142,-1.131558077880861,28.915809631347656,0.08683285183376736,0.05788633558485243
3106,0.09813492604709204,0.25898443222045897,86.64164733886719,77.8856201171875,39.768333435058594,119.4971923828125,0.0377112070719401,0.57,0.3964285714285714,0.010009468926323786,-2.7135435515136734,-1.7467752867431656,28.915809631347656,0.09728919135199653,0.05856823391384548
3107,0.12157242604709204,0.25898443222045897,86.0688247680664,79.70639038085938,39.768333435058594,119.41535949707031,0.049758699205186635,0.5656666666666667,0.3942857142857143,0.01049770779079861,-2.3839632445068375,-0.9338098936767594,28.915809631347656,0.07069371541341146,0.05947748819986979
3108,0.14500992604709204,0.25898443222045897,86.0688247680664,80.11553955078125,39.7274169921875,119.41535949707031,0.02861879136827257,0.561,0.3921428571428571,0.01165737575954861,-1.9005781584472672,-0.5602861815185562,28.915809631347656,0.06614761352539063,0.05902286105685764
3109,0.14500992604709204,0.2789063262939453,86.08927917480469,80.32012939453125,39.70696258544922,119.41535949707031,0.03566542731391059,0.556,0.38857142857142857,0.012206649780273438,-1.6808592253417984,-0.5602861815185562,28.915809631347656,0.06410166422526041,0.058795589870876734
3110,0.15672867604709204,0.25898443222045897,86.0688247680664,80.29966735839844,39.686500549316406,119.41535949707031,0.03271039326985677,0.551,0.3867857142857143,0.012664413452148438,-1.549027102539064,-0.5053564482421891,28.915809631347656,0.06410174899631077,0.05856823391384548
3111,0.12547867604709204,0.2789063262939453,86.1097412109375,78.86760711669922,39.7274169921875,119.4971923828125,0.055214182535807295,0.547,0.38321428571428573,0.010284127129448786,-1.5709978514404312,-0.7360617094726578,28.915809631347656,0.08046815660264757,0.05811360677083333
3112,0.12547867604709204,0.2789063262939453,86.1097412109375,78.35615539550781,39.788787841796875,119.4971923828125,0.03816583421495226,0.5426666666666666,0.3817857142857143,0.009734810723198786,-1.3183199339599625,-0.9118391447753922,28.915809631347656,0.08615095350477431,0.05879550509982639
3113,0.12157242604709204,0.29882820129394533,86.1097412109375,78.8880615234375,39.768333435058594,119.47673797607422,0.04430325826009115,0.5383333333333333,0.3782142857142857,0.010009468926323786,-1.2194467955322281,-0.2746511870117203,28.915809631347656,0.08024088541666667,0.05879550509982639
3114,0.11375992604709204,0.3187500762939453,86.1097412109375,80.01325988769531,39.768333435058594,119.41535949707031,0.042484749688042535,0.5343333333333333,0.37535714285714283,0.009673775566948786,-1.0656420164794937,0.6152160167694092,28.915809631347656,0.06773868136935764,0.05947748819986979
3115,0.10594742604709204,0.3187500762939453,86.0688247680664,80.66790771484375,39.70696258544922,119.37444305419922,0.045212470160590275,0.53,0.37142857142857144,0.009216011895073786,-0.9228254729003922,1.0546560287475586,28.915809631347656,0.06001018948025173,0.05925021701388889
3116,0.09813492604709204,0.3187500762939453,86.0074462890625,80.79066467285156,39.686500549316406,119.39490509033203,0.02975531684027778,0.526,0.3692857142857143,0.009338082207573786,-0.9887415343017594,0.2856360077857971,28.915809631347656,0.05796424018012153,0.05879550509982639
3117,0.09032242604709204,0.3187500762939453,86.49844360351562,79.29722595214844,39.7274169921875,119.41535949707031,0.03589274088541667,0.5223333333333333,0.36428571428571427,0.008880360921223959,-1.8456484251709,-0.4504267149658219,28.915809631347656,0.08001352945963541,0.05902286105685764
3118,0.08641617604709204,0.29882820129394533,86.47798156738281,78.80622863769531,39.7274169921875,119.47673797607422,0.04316669040256076,0.52,0.36,0.0075986226399739586,-2.911289828369142,-0.9667688780517594,28.915809631347656,0.08524169921875,0.05834087795681424
3119,0.08250992604709204,0.3187500762939453,86.45751953125,79.58363342285156,39.788787841796875,119.39490509033203,0.03702930874294705,0.5173333333333333,0.35535714285714287,0.0068662431504991316,-3.7681986265869156,-0.7470480375976578,28.915809631347656,0.0763765123155382,0.0599320305718316
3120,0.07860367604709204,0.3187500762939453,86.33477783203125,79.97233581542969,39.70696258544922,119.41535949707031,0.03930240207248264,0.5143333333333333,0.3517857142857143,0.0066526201036241316,-4.800882952758791,-0.16478981311035312,28.915809631347656,0.07069380018446181,0.058795589870876734
3121,0.07469742604709204,0.3187500762939453,86.33477783203125,80.32012939453125,39.70696258544922,119.39490509033203,0.03816583421495226,0.511,0.3467857142857143,0.005981275770399305,-5.4380709105224625,-0.05493034655761875,28.915809631347656,0.06682942708333334,0.05902286105685764
3122,0.07469742604709204,0.2789063262939453,86.35523986816406,80.62699890136719,39.686500549316406,119.39490509033203,0.03407423231336806,0.508,0.3439285714285714,0.005004713270399305,-5.668776171752931,-0.3185945921630875,28.915809631347656,0.06364712185329861,0.05879550509982639
3123,0.07469742604709204,0.2789063262939453,86.33477783203125,78.35615539550781,39.7274169921875,119.4971923828125,0.03793852064344618,0.5023333333333333,0.34,0.004363886515299479,-5.547930377075197,-0.8898664885253922,28.915809631347656,0.08865136040581598,0.05811360677083333
3124,0.09032242604709204,0.2789063262939453,85.02546691894531,76.90364074707031,39.788787841796875,119.4971923828125,0.04430325826009115,0.49733333333333335,0.3382142857142857,0.005706617567274305,-4.669050829956056,-0.7470480375976578,28.915809631347656,0.09024251302083333,0.05879550509982639
3125,0.10594742604709204,0.33867195129394534,85.12775421142578,80.64745330810547,39.70696258544922,119.39490509033203,0.03839314778645833,0.49066666666666664,0.335,0.009032906426323786,-3.6363665037841812,1.263390064239502,28.915809631347656,0.049781121148003475,0.05902286105685764
3126,0.10985367604709204,0.3187500762939453,88.89202880859375,82.18180847167969,39.7274169921875,119.39490509033203,0.040666283501519095,0.48633333333333334,0.3325,0.01061977810329861,-2.812416689941408,2.4718501567840576,28.915809631347656,0.07455800374348959,0.059250132242838545
3127,0.08250992604709204,0.29882820129394533,88.27828979492188,80.0950927734375,39.70696258544922,119.41535949707031,0.03930240207248264,0.482,0.32821428571428574,0.009154976738823786,-2.4388929777832047,0.747048020362854,28.915809631347656,0.09092441134982639,0.058795589870876734
3128,0.09032242604709204,0.3187500762939453,86.70301818847656,78.3970718383789,39.788787841796875,119.4971923828125,0.029300732082790798,0.4786666666666667,0.325,0.009978951348198786,-2.175228732177736,-0.6921183043212906,28.915809631347656,0.09228829277886284,0.05879550509982639
3129,0.12157242604709204,0.3187500762939453,86.33477783203125,79.64501190185547,39.768333435058594,119.41535949707031,0.027709537082248263,0.4746666666666667,0.32107142857142856,0.013457828097873263,-1.5709978514404312,-0.04394401843261875,29.970489501953125,0.07433073255750867,0.05947748819986979
3130,0.13719742604709204,0.29882820129394533,87.76683807373047,81.01570129394531,39.70696258544922,119.41535949707031,0.050213326348198785,0.471,0.31857142857142856,0.01522780524359809,-1.1864878111572281,1.6149420738220215,35.50756072998047,0.07501263088650173,0.058795589870876734
3131,0.12157242604709204,0.33867195129394534,87.66455078125,80.07463073730469,39.70696258544922,119.41535949707031,0.040666283501519095,0.468,0.315,0.01596022711859809,-0.834936755249025,1.252403974533081,37.79269790649414,0.0843324449327257,0.058795589870876734
3132,0.13329117604709204,0.33867195129394534,87.5213394165039,81.58851623535156,39.70696258544922,119.41535949707031,0.03793852064344618,0.4643333333333333,0.31392857142857145,0.018493101331922744,-0.16478981311035312,0.7690200209617615,39.726280212402344,0.06592025756835937,0.058795589870876734
3133,0.14500992604709204,0.33867195129394534,87.562255859375,81.26119232177734,39.686500549316406,119.41535949707031,0.049758699205186635,0.46166666666666667,0.3117857142857143,0.02020204332139757,-0.3954969816894547,0.6921180486679077,40.86885070800781,0.0700118170844184,0.05856823391384548
3134,0.13719742604709204,0.3187500762939453,87.54179382324219,79.64501190185547,39.74787902832031,119.43582153320312,0.05407761467827691,0.4583333333333333,0.3107142857142857,0.01934755113389757,-0.856909411499025,0.3405660092830658,42.01142120361328,0.08774202134874132,0.05902286105685764
3135,0.12547867604709204,0.3187500762939453,87.31675720214844,80.15646362304688,39.70696258544922,119.41535949707031,0.0520318349202474,0.45666666666666667,0.31035714285714283,0.018523618910047744,-0.812964098999025,0.4723980128765106,43.153987884521484,0.07955881754557291,0.058795589870876734
3136,0.11766617604709204,0.3187500762939453,87.31675720214844,80.23829650878906,39.7274169921875,119.41535949707031,0.0488494873046875,0.4543333333333333,0.31,0.018340513441297744,-0.3954969816894547,-0.08788933093261875,43.85710906982422,0.07864956325954861,0.05902286105685764
3137,0.11766617604709204,0.33867195129394534,87.33721923828125,80.93386840820312,39.70696258544922,119.41535949707031,0.045212470160590275,0.451,0.30964285714285716,0.01919496324327257,0.010986000299453735,-0.3625379973144547,44.12078094482422,0.0711483425564236,0.058795589870876734
3138,0.11375992604709204,0.33867195129394534,87.35768127441406,81.71127319335938,39.70696258544922,119.41535949707031,0.04953138563368056,0.449,0.30892857142857144,0.018737241956922744,0.29662200808525085,-0.3405672484130875,44.99967956542969,0.0627378675672743,0.058795589870876734
3139,0.11375992604709204,0.33867195129394534,87.33721923828125,81.17935943603516,39.70696258544922,119.39490509033203,0.0488494873046875,0.446,0.30857142857142855,0.018096372816297744,0.24169200658798218,-0.801977770874025,45.26335144042969,0.06842066446940104,0.05902286105685764
3140,0.10594742604709204,0.3585938262939453,87.35768127441406,79.87004852294922,39.70696258544922,119.43582153320312,0.047485605875651045,0.443,0.3078571428571429,0.017943784925672744,-0.6152159147949234,-1.505081790039064,45.43912887573242,0.08319591946072048,0.05856823391384548
3141,0.12157242604709204,0.33867195129394534,86.98943328857422,78.04928588867188,39.788787841796875,119.4971923828125,0.040211656358506945,0.44133333333333336,0.3078571428571429,0.017913267347547744,-1.3073355131835953,-1.7907186918945328,45.52701950073242,0.09933497111002604,0.05879550509982639
3142,0.12938492604709204,0.33867195129394534,85.0050048828125,78.17203521728516,39.788787841796875,119.4971923828125,0.039757029215494795,0.43833333333333335,0.3078571428571429,0.017943784925672744,-1.7467752867431656,-0.7140909605712906,45.52701950073242,0.07592188517252604,0.05879550509982639
3143,0.12157242604709204,0.33867195129394534,85.78240966796875,81.75218200683594,39.70696258544922,119.39490509033203,0.0449851565890842,0.43533333333333335,0.3082142857142857,0.017333475748697917,-1.5819841795654312,1.3842360973358154,43.85710906982422,0.04478030734592014,0.05902286105685764
3144,0.09813492604709204,0.3585938262939453,87.1121826171875,82.24317932128906,39.70696258544922,119.41535949707031,0.0488494873046875,0.43266666666666664,0.3082142857142857,0.01580763922797309,-0.7470480375976578,1.4831100702285767,42.97821044921875,0.05410003662109375,0.058795589870876734
3145,0.09032242604709204,0.3187500762939453,87.21446990966797,80.85203552246094,39.70696258544922,119.41535949707031,0.0365746815999349,0.42933333333333334,0.3082142857142857,0.01556349860297309,-0.3845106535644547,-0.3954969816894547,42.89031982421875,0.07069371541341146,0.058795589870876734
3146,0.12157242604709204,0.29882820129394533,87.19401550292969,81.81356048583984,39.70696258544922,119.39490509033203,0.03680199517144097,0.42533333333333334,0.3078571428571429,0.018126890394422744,-0.4284540587158219,-1.0216986113281266,42.89031982421875,0.05978283352322049,0.05902286105685764
3147,0.12547867604709204,0.3187500762939453,87.19401550292969,81.77264404296875,39.70696258544922,119.39490509033203,0.04180280897352431,0.423,0.3078571428571429,0.018371031019422744,-0.3076082640380875,-1.164517062255861,42.89031982421875,0.06023746066623264,0.05902286105685764
3148,0.11375992604709204,0.3187500762939453,87.19401550292969,80.01325988769531,39.70696258544922,119.4562759399414,0.050213326348198785,0.42033333333333334,0.3082142857142857,0.016356913248697917,0.07690200209617615,-1.7577597075195328,46.318031311035156,0.07978617350260417,0.058340962727864584
3149,0.12157242604709204,0.3187500762939453,87.19401550292969,80.72928619384766,39.74787902832031,119.41535949707031,0.0336196051703559,0.417,0.30857142857142855,0.016387430826822917,-0.01098694140625156,-1.1864878111572281,46.84537124633789,0.07183032565646702,0.05925021701388889
3150,0.13719742604709204,0.3187500762939453,87.19401550292969,81.81356048583984,39.70696258544922,119.41535949707031,0.03680199517144097,0.4146666666666667,0.30857142857142855,0.017180887858072917,-0.3735243254394547,0.3185940086841583,46.84537124633789,0.05978283352322049,0.058795589870876734
3151,0.12157242604709204,0.29882820129394533,87.43951416015625,82.5091323852539,39.70696258544922,119.39490509033203,0.042030122545030385,0.4106666666666667,0.3092857142857143,0.01538039313422309,-0.6262022429199234,0.6811320185661316,46.84537124633789,0.05478201972113715,0.05902286105685764
3152,0.08250992604709204,0.29882820129394533,87.58271789550781,79.09264373779297,39.70696258544922,119.4971923828125,0.04543978373209635,0.408,0.31,0.011962509155273438,-0.9008528166503922,-0.9338098936767594,46.84537124633789,0.09433415730794271,0.05788633558485243
3153,0.08250992604709204,0.29882820129394533,85.92561340332031,76.67860412597656,39.80924987792969,119.4971923828125,0.03089188469780816,0.4053333333333333,0.3117857142857143,0.01104702419704861,-0.7470480375976578,-2.3070608549804703,48.075828552246094,0.10274454752604166,0.05902286105685764
3154,0.10204117604709204,0.3187500762939453,83.42974090576172,79.17447662353516,39.788787841796875,119.47673797607422,0.03157382541232639,0.40166666666666667,0.31214285714285717,0.012542343139648438,-1.0766283446044937,-0.9228254729003922,48.251609802246094,0.04728071424696181,0.059022776285807294
3155,0.09422867604709204,0.3187500762939453,85.0050048828125,80.81111145019531,39.7274169921875,119.39490509033203,0.03862046135796441,0.399,0.31285714285714283,0.01141323513454861,-1.7028299742431656,0.5053560137748718,45.26335144042969,0.04659881591796875,0.059250132242838545
3156,0.09032242604709204,0.29882820129394533,86.74394226074219,80.87248992919922,39.686500549316406,119.39490509033203,0.03089188469780816,0.3953333333333333,0.3132142857142857,0.01123012966579861,-2.1312853270263687,0.26366400718688965,43.76921844482422,0.06523835923936631,0.05879550509982639
3157,0.09813492604709204,0.33867195129394534,86.04837036132812,80.8929443359375,39.686500549316406,119.39490509033203,0.02975531684027778,0.3913333333333333,0.31357142857142856,0.013091659545898438,-1.8017050200195328,-0.7360617094726578,43.241878509521484,0.057282511393229166,0.05879550509982639
3158,0.10985367604709204,0.33867195129394534,86.13019561767578,81.24073791503906,39.686500549316406,119.39490509033203,0.032028452555338545,0.38866666666666666,0.3132142857142857,0.014434390597873263,-1.3293062620849625,-0.856909411499025,42.538761138916016,0.054327307807074655,0.05879550509982639
3159,0.10985367604709204,0.33867195129394534,86.04837036132812,79.68592834472656,39.74787902832031,119.43582153320312,0.034756173027886285,0.38466666666666666,0.31285714285714283,0.014007144504123263,-1.3402925902099625,-1.3073355131835953,42.01142120361328,0.07069380018446181,0.05902286105685764
3160,0.11375992604709204,0.33867195129394534,85.92561340332031,79.93142700195312,39.7274169921875,119.39490509033203,0.034756173027886285,0.381,0.31214285714285717,0.013610415988498263,-1.142544406005861,-0.845923083374025,41.57196807861328,0.06660207112630208,0.059250132242838545
3161,0.10985367604709204,0.3585938262939453,85.88470458984375,79.82913208007812,39.70696258544922,119.39490509033203,0.035210800170898435,0.37766666666666665,0.31142857142857144,0.013122177124023438,-0.7360617094726578,-0.2307058745117203,41.48408126831055,0.06728413899739584,0.05902286105685764
3162,0.10204117604709204,0.33867195129394534,85.86424255371094,80.8929443359375,39.686500549316406,119.37444305419922,0.037483893500434025,0.37466666666666665,0.31035714285714283,0.011901473999023438,-0.6152159147949234,0.04394400119781494,41.39619064331055,0.05523664686414931,0.05902286105685764
3163,0.09422867604709204,0.33867195129394534,85.86424255371094,79.68592834472656,39.686500549316406,119.41535949707031,0.035210800170898435,0.37166666666666665,0.3092857142857143,0.01080288357204861,-0.856909411499025,-0.5273291044921891,42.97821044921875,0.06864793565538195,0.05856823391384548
3164,0.10594742604709204,0.3585938262939453,85.88470458984375,78.09020233154297,39.768333435058594,119.47673797607422,0.02975531684027778,0.36933333333333335,0.3092857142857143,0.012023544311523438,-0.812964098999025,-1.2524038725585953,44.12078094482422,0.08660558064778646,0.05879550509982639
3165,0.14110367604709204,0.33867195129394534,85.78240966796875,79.17447662353516,39.74787902832031,119.4562759399414,0.029073418511284723,0.36533333333333334,0.30857142857142855,0.01498366461859809,-1.2194467955322281,-0.3735243254394547,44.12078094482422,0.07342147827148438,0.058795589870876734
3166,0.14891617604709204,0.33867195129394534,86.27340698242188,81.01570129394531,39.70696258544922,119.35398864746094,0.03134651184082031,0.363,0.30857142857142855,0.016936747233072917,-0.9447962218017594,1.06564199924469,44.12078094482422,0.058418952094184025,0.05947748819986979
3167,0.12547867604709204,0.33867195129394534,88.09416198730469,81.0361557006836,39.70696258544922,119.39490509033203,0.047940233018663195,0.36,0.30857142857142855,0.01522780524359809,-0.20873512561035312,1.6369140148162842,44.12078094482422,0.07842229207356771,0.05902286105685764
3168,0.10204117604709204,0.29882820129394533,88.25782775878906,79.70639038085938,39.686500549316406,119.4562759399414,0.03634736802842882,0.3566666666666667,0.30857142857142855,0.012725448608398438,-0.823950427124025,-0.20873512561035312,45.52701950073242,0.09501597086588541,0.05811360677083333
3169,0.13329117604709204,0.3187500762939453,85.70057678222656,77.41508483886719,39.768333435058594,119.47673797607422,0.0254364013671875,0.35333333333333333,0.30857142857142855,0.016509501139322917,-0.9887415343017594,-1.131558077880861,45.79069137573242,0.09206102159288194,0.05879550509982639
3170,0.17235367604709204,0.3187500762939453,85.0459213256836,81.71127319335938,39.768333435058594,119.39490509033203,0.027709537082248263,0.35033333333333333,0.3092857142857143,0.021087010701497395,-0.49437012011718906,0.36253800988197327,46.84537124633789,0.03705164591471354,0.059704759385850695
3171,0.15282242604709204,0.3187500762939453,89.38301849365234,83.67523193359375,39.686500549316406,119.39490509033203,0.04953138563368056,0.3476666666666667,0.30964285714285716,0.01919496324327257,-0.3625379973144547,1.6588860750198364,46.933258056640625,0.06341985066731771,0.05879550509982639
3172,0.10594742604709204,0.29882820129394533,89.50576782226562,80.72928619384766,-41.900001525878906,119.41535949707031,0.047940233018663195,0.3436666666666667,0.31,0.01519728766547309,-0.6371885710449234,-0.14281906420898594,46.933258056640625,0.09751646253797742,-0.8479484558105469
3173,0.10204117604709204,0.3187500762939453,87.19401550292969,78.78577423095703,39.686500549316406,119.43582153320312,0.031119198269314235,0.3413333333333333,0.31035714285714283,0.014648013644748263,-0.4394403868408219,-1.164517062255861,46.84537124633789,0.0934249030219184,0.05834087795681424
3174,0.09422867604709204,0.33867195129394534,86.80531311035156,81.28164672851562,39.686500549316406,119.37444305419922,0.04043896993001302,0.338,0.3107142857142857,0.014281802707248263,-0.14281906420898594,-0.3185945921630875,46.142250061035156,0.061374070909288196,0.05902286105685764
3175,0.08641617604709204,0.29882820129394533,88.6669921875,80.9543228149414,39.7274169921875,119.39490509033203,0.042484749688042535,0.336,0.31035714285714283,0.011993026733398438,-0.7031046324462906,-0.07690300280761875,45.79069137573242,0.08569632636176215,0.059250132242838545
3176,0.08250992604709204,0.29882820129394533,87.70545959472656,79.11309814453125,39.768333435058594,119.47673797607422,0.03157382541232639,0.33266666666666667,0.31107142857142855,0.01147427029079861,-1.3073355131835953,-1.0546575957031266,45.26335144042969,0.09547068277994791,0.05879550509982639
3177,0.10594742604709204,0.33867195129394534,86.80531311035156,79.4404296875,39.7274169921875,119.39490509033203,0.028164164225260416,0.33,0.31214285714285717,0.014648013644748263,-1.6479002409667984,-0.9777552061767594,44.82389831542969,0.08183203803168403,0.059250132242838545
3178,0.12938492604709204,0.3585938262939453,86.96897888183594,81.547607421875,39.686500549316406,119.39490509033203,0.02839147779676649,0.3253333333333333,0.31214285714285717,0.017974302503797744,-1.5819841795654312,-0.3735243254394547,44.64812088012695,0.06023746066623264,0.05879550509982639
3179,0.13719742604709204,0.3585938262939453,87.50088500976562,82.05905151367188,-41.900001525878906,119.39490509033203,0.03498348659939236,0.32233333333333336,0.31214285714285717,0.01916444566514757,-1.549027102539064,0.1867620050907135,43.417659759521484,0.06046481662326389,-0.847721184624566
3180,0.11766617604709204,0.33867195129394534,87.45996856689453,80.68836975097656,39.686500549316406,119.39490509033203,0.04384863111707899,0.319,0.31214285714285717,0.016967264811197917,-2.0104395323486344,-0.19774879748535312,42.538761138916016,0.07523998684353299,0.05879550509982639
3181,0.10594742604709204,0.33867195129394534,87.45996856689453,82.05905151367188,39.70696258544922,119.39490509033203,0.0377112070719401,0.316,0.31107142857142855,0.01556349860297309,-1.9774805479736344,0.04394400119781494,41.74774932861328,0.06001018948025173,0.05902286105685764
3182,0.09032242604709204,0.33867195129394534,87.45996856689453,80.72928619384766,39.70696258544922,119.39490509033203,0.03907508850097656,0.31266666666666665,0.31035714285714283,0.014251285129123263,-1.4611383848876969,-0.06591667468261875,41.22040939331055,0.07478535970052083,0.05902286105685764
3183,0.08641617604709204,0.33867195129394534,87.45996856689453,81.62944030761719,39.686500549316406,119.39490509033203,0.0365746815999349,0.309,0.30964285714285716,0.013579898410373263,-1.2524038725585953,-0.03295769030761875,41.13251876831055,0.06478364732530383,0.05879550509982639
3184,0.08250992604709204,0.3187500762939453,87.48042297363281,79.97233581542969,39.686500549316406,119.39490509033203,0.03498348659939236,0.30466666666666664,0.30892857142857144,0.013122177124023438,-1.5929705076904312,-0.3076082640380875,41.13251876831055,0.0834231906467014,0.05879550509982639
3185,0.09422867604709204,0.33867195129394534,87.45996856689453,81.93630981445312,39.686500549316406,119.39490509033203,0.029982630411783853,0.301,0.30857142857142855,0.01486159430609809,-1.2743765288085953,-0.3076082640380875,40.95674133300781,0.06137398613823785,0.05879550509982639
3186,0.09422867604709204,0.3187500762939453,87.45996856689453,80.15646362304688,39.7274169921875,119.39490509033203,0.03839314778645833,0.29933333333333334,0.3082142857142857,0.014342837863498263,-0.12084640795898594,-0.3954969816894547,43.85710906982422,0.08115005493164062,0.059250132242838545
3187,0.08250992604709204,0.33867195129394534,87.45996856689453,79.80867004394531,39.666046142578125,119.39490509033203,0.034756173027886285,0.29533333333333334,0.30857142857142855,0.013000106811523438,-0.6371885710449234,-0.6921183043212906,44.64812088012695,0.0850144280327691,0.05856823391384548
3188,0.08250992604709204,0.33867195129394534,87.45996856689453,81.36347961425781,39.7274169921875,119.39490509033203,0.034528859456380206,0.2906666666666667,0.30857142857142855,0.013274722629123263,-2.0214239531250016,-0.13183273608398594,44.99967956542969,0.06773876614040798,0.059250132242838545
3189,0.07079117604709204,0.3585938262939453,87.45996856689453,79.25630950927734,39.7274169921875,119.47673797607422,0.03702930874294705,0.288,0.30892857142857144,0.011931991577148438,-2.4388929777832047,-0.9887415343017594,45.17546081542969,0.09115176730685765,0.05834087795681424
3190,0.07469742604709204,0.3585938262939453,87.0098876953125,79.542724609375,39.70696258544922,119.41535949707031,0.0295280032687717,0.2846666666666667,0.3092857142857143,0.012237167358398438,-2.3510042601318375,-0.9997259550781266,44.03289031982422,0.08296847873263889,0.058795589870876734
3191,0.08641617604709204,0.3585938262939453,87.1121826171875,81.0975341796875,39.686500549316406,119.39490509033203,0.02975531684027778,0.2816666666666667,0.30892857142857144,0.013305240207248263,-2.4388929777832047,-0.2636648588867203,41.22040939331055,0.06682942708333334,0.05879550509982639
3192,0.08641617604709204,0.3585938262939453,87.27584838867188,81.91584777832031,39.70696258544922,119.37444305419922,0.03339229159884983,0.2783333333333333,0.30857142857142855,0.013274722629123263,-2.4388929777832047,-0.6152159147949234,40.69306945800781,0.05955556233723958,0.05925021701388889
3193,0.09813492604709204,0.33867195129394534,87.27584838867188,78.82669067382812,39.686500549316406,119.47673797607422,0.03020994398328993,0.27466666666666667,0.3082142857142857,0.014251285129123263,-2.153256075927736,-1.527054446289064,39.814170837402344,0.09387953016493056,0.05788625081380208
3194,0.11766617604709204,0.33867195129394534,86.82576751708984,82.0999755859375,39.70696258544922,119.39490509033203,0.029982630411783853,0.27066666666666667,0.3075,0.01562453375922309,-1.1095873289794937,-0.5602861815185562,39.814170837402344,0.05250879923502604,0.05902286105685764
3195,0.11375992604709204,0.3187500762939453,88.29874420166016,82.71371459960938,39.686500549316406,119.39490509033203,0.04112086825900608,0.26766666666666666,0.30714285714285716,0.014098697238498263,-0.5053564482421891,-0.14281906420898594,40.25362014770508,0.062055884467230905,0.05879550509982639
3196,0.09032242604709204,0.29882820129394533,88.54424285888672,80.36103820800781,39.74787902832031,119.41535949707031,0.04384863111707899,0.2653333333333333,0.30642857142857144,0.01107754177517361,-0.4174677305908219,-1.2194467955322281,43.68132781982422,0.09092449612087673,0.05925021701388889
3197,0.07079117604709204,0.3585938262939453,87.15309143066406,77.04684448242188,39.7274169921875,119.4562759399414,0.032483079698350695,0.26166666666666666,0.3067857142857143,0.009429634941948786,-0.4174677305908219,-2.537766116210939,44.56023025512695,0.11229163275824652,0.05856823391384548
3198,0.09813492604709204,0.3585938262939453,85.49600219726562,79.91096496582031,39.666046142578125,119.41535949707031,0.02975531684027778,0.25833333333333336,0.30642857142857144,0.01065029568142361,-0.4394403868408219,-2.3290335112304703,45.17546081542969,0.06205596923828125,0.058340962727864584
3199,0.12157242604709204,0.3187500762939453,85.94607543945312,79.66546630859375,39.74787902832031,119.43582153320312,0.03907508850097656,0.25666666666666665,0.30607142857142855,0.010284127129448786,-0.6262022429199234,-1.3073355131835953,45.17546081542969,0.0697845458984375,0.05902286105685764
3200,0.09032242604709204,0.3585938262939453,86.1097412109375,79.50180053710938,39.768333435058594,119.47673797607422,0.04043896993001302,0.253,0.30607142857142855,0.0075376298692491316,-1.6588865690917984,-0.7140909605712906,45.17546081542969,0.07342156304253472,0.05879550509982639
3201,0.09032242604709204,0.33867195129394534,84.37080383300781,79.62455749511719,39.666046142578125,119.41535949707031,0.03680199517144097,0.24933333333333332,0.3067857142857143,0.0064389970567491316,-1.9005781584472672,0.10986000299453735,45.17546081542969,0.05273607042100695,0.058340962727864584
3202,0.07860367604709204,0.29882820129394533,85.29141998291016,79.52226257324219,39.7274169921875,119.43582153320312,0.03589274088541667,0.24733333333333332,0.3075,0.005096266004774305,-1.0766283446044937,1.252403974533081,45.17546081542969,0.06410174899631077,0.05879550509982639
3203,0.07079117604709204,0.3187500762939453,85.39370727539062,81.01570129394531,39.686500549316406,119.37444305419922,0.03134651184082031,0.245,0.3075,0.005370924207899305,-0.7360617094726578,1.2304320335388184,45.17546081542969,0.04864451090494792,0.05902286105685764
3204,0.06688492604709204,0.33867195129394534,86.94851684570312,82.28408813476562,39.70696258544922,119.39490509033203,0.029982630411783853,0.24066666666666667,0.3082142857142857,0.0066831376817491316,-0.5822588377685562,1.450152039527893,46.58169937133789,0.05182698567708333,0.05902286105685764
3205,0.06297867604709204,0.3187500762939453,88.23736572265625,81.69081115722656,39.666046142578125,119.37444305419922,0.032028452555338545,0.23833333333333334,0.3082142857142857,0.0072324540879991316,-0.3295809202880875,0.516342043876648,46.58169937133789,0.07273949517144097,0.058795589870876734
3206,0.08641617604709204,0.29882820129394533,87.48042297363281,80.9543228149414,39.686500549316406,119.37444305419922,0.028164164225260416,0.23533333333333334,0.30857142857142855,0.010070504082573786,0.20873400568962097,-0.02197326953125156,45.79069137573242,0.07251222398546008,0.05902286105685764
3207,0.09422867604709204,0.3187500762939453,87.39859008789062,84.67768096923828,39.686500549316406,119.39490509033203,0.03339229159884983,0.23066666666666666,0.3078571428571429,0.01171841091579861,-0.10986007983398594,-0.2307058745117203,44.56023025512695,0.0302323235405816,0.05879550509982639
3208,0.07079117604709204,0.25898443222045897,87.93049621582031,80.13600158691406,39.686500549316406,119.39490509033203,0.0490767584906684,0.23066666666666666,0.3082142857142857,0.008025868733723959,0.9228240251541138,-0.834936755249025,44.38444900512695,0.0866054958767361,0.05879550509982639
3209,0.03172867604709203,0.29882820129394533,87.99187469482422,79.21539306640625,39.74787902832031,119.47673797607422,0.04407594468858507,0.228,0.3082142857142857,0.0039061228434244793,0.6591600179672241,-1.120571749755861,47.109039306640625,0.09751646253797742,0.05856823391384548
3210,0.03172867604709203,0.3187500762939453,85.86424255371094,75.75799560546875,39.788787841796875,119.47673797607422,0.029982630411783853,0.225,0.30857142857142855,0.0030211554633246527,0.16479000449180603,-2.0763555937500016,48.69105911254883,0.11229163275824652,0.059022776285807294
3211,0.08250992604709204,0.29882820129394533,82.91828918457031,78.540283203125,39.7274169921875,119.47673797607422,0.027027596367730035,0.22333333333333333,0.30892857142857144,0.0067136552598741316,-0.12084640795898594,-0.9887415343017594,49.13050842285156,0.04864451090494792,0.05834087795681424
3212,0.10204117604709204,0.29882820129394533,83.94119262695312,81.547607421875,39.686500549316406,119.39490509033203,0.02793685065375434,0.22133333333333333,0.3092857142857143,0.009673775566948786,-0.5932451658935562,0.05493000149726868,49.21839904785156,0.02659539116753472,0.05879550509982639
3213,0.14110367604709204,0.29882820129394533,85.92561340332031,82.32501220703125,39.7274169921875,119.39490509033203,0.027709537082248263,0.219,0.31,0.014037662082248263,-0.8678938322753922,0.5383139848709106,48.95473098754883,0.04000667995876736,0.059250132242838545
3214,0.13719742604709204,0.29882820129394533,86.76439666748047,78.43798828125,39.788787841796875,119.47673797607422,0.040666283501519095,0.21433333333333332,0.3107142857142857,0.014281802707248263,-1.4611383848876969,-0.08788933093261875,47.109039306640625,0.0925156487358941,0.059022776285807294
3215,0.14891617604709204,0.25898443222045897,85.1072998046875,82.93875122070312,39.686500549316406,119.37444305419922,0.03907508850097656,0.21133333333333335,0.31214285714285717,0.013305240207248263,-1.7028299742431656,0.29662200808525085,45.966468811035156,0.024094984266493057,0.05902286105685764
3216,0.12157242604709204,0.25898443222045897,87.62362670898438,83.1024169921875,39.686500549316406,119.37444305419922,0.040211656358506945,0.206,0.31392857142857145,0.012176132202148438,-1.8236757689209,0.8678940534591675,45.52701950073242,0.05023566351996528,0.05902286105685764
3217,0.06688492604709204,0.29882820129394533,88.83065795898438,75.94210815429688,39.768333435058594,119.47673797607422,0.049986012776692706,0.20266666666666666,0.31642857142857145,0.008270009358723959,-2.559738772460939,-1.2194467955322281,45.52701950073242,0.14320610894097222,0.05879550509982639
3218,0.08641617604709204,0.2789063262939453,82.97966003417969,77.35371398925781,39.768333435058594,119.47673797607422,0.03020994398328993,0.198,0.31785714285714284,0.008208974202473959,-2.6256548338623062,-2.4608656340332047,45.52701950073242,0.06251051161024306,0.05879550509982639
3219,0.12938492604709204,0.3187500762939453,82.550048828125,79.60409545898438,39.686500549316406,119.39490509033203,0.026118342081705728,0.194,0.3192857142857143,0.012969589233398438,-2.4169203215332047,-0.3845106535644547,48.69105911254883,0.03273281521267361,0.05879550509982639
3220,0.14500992604709204,0.25898443222045897,86.88714599609375,78.31524658203125,39.74787902832031,119.47673797607422,0.03316502041286892,0.19,0.3196428571428571,0.012511825561523438,-2.0214239531250016,1.1425440311431885,48.95473098754883,0.09524332682291667,0.05856823391384548
3221,0.05907242604709203,0.29882820129394533,86.19157409667969,77.72195434570312,39.788787841796875,119.47673797607422,0.032028452555338545,0.186,0.32107142857142856,0.006072828504774305,-1.516068118164064,0.7031040191650391,48.95473098754883,0.0941068861219618,0.059022776285807294
3222,0.05516617604709203,0.25898443222045897,84.28897857666016,76.4740219116211,39.768333435058594,119.4562759399414,0.0004322052001953125,0.183,0.32107142857142856,0.004699579874674479,-1.3842359953613297,0.14281800389289856,48.95473098754883,0.08683285183376736,0.05902286105685764
3223,0.06297867604709204,0.239062557220459,84.75950622558594,80.15646362304688,39.74787902832031,119.39490509033203,0.009751976860894098,0.18033333333333335,0.32107142857142856,0.005096266004774305,-1.6588865690917984,0.516342043876648,48.95473098754883,0.051144917805989586,0.05947748819986979
3224,0.05907242604709203,0.29882820129394533,85.98699188232422,78.51982116699219,39.70696258544922,119.47673797607422,0.004523807101779514,0.176,0.32142857142857145,0.005431959364149305,-1.9225508146972672,0.19774800539016724,48.95473098754883,0.08296856350368924,0.05811360677083333
3225,0.05125992604709203,0.3187500762939453,85.98699188232422,79.82913208007812,39.768333435058594,119.41535949707031,0.01770782470703125,0.174,0.3221428571428571,0.005096266004774305,-1.2524038725585953,0.45042601227760315,48.95473098754883,0.06842066446940104,0.05947748819986979
3226,0.05907242604709203,0.25898443222045897,85.98699188232422,80.25875091552734,39.70696258544922,119.39490509033203,0.0056603749593098955,0.171,0.3217857142857143,0.005279371473524305,-0.9338098936767594,0.6591600179672241,48.95473098754883,0.06364712185329861,0.05902286105685764
3227,0.02391617604709203,0.25898443222045897,41.900001525878906,79.60409545898438,39.74787902832031,119.43582153320312,0.05134989420572917,0.16666666666666666,0.32142857142857145,0.0020751105414496527,-2.186215060302736,0.6811320185661316,47.987937927246094,-0.4189343770345052,0.05902286105685764
3228,0.04735367604709203,0.239062557220459,85.96653747558594,78.90852355957031,39.70696258544922,119.4562759399414,-2.242194281684028e-05,0.16433333333333333,0.32107142857142856,0.0039061228434244793,-2.7684732847900406,-0.5822588377685562,47.987937927246094,0.07842237684461806,0.058340962727864584
3229,0.07860367604709204,0.239062557220459,41.900001525878906,80.93386840820312,39.70696258544922,119.39490509033203,0.0036145528157552082,0.16066666666666668,0.3225,0.0062558915879991316,-2.0324102812500016,0.1538040041923523,47.72426986694336,-0.43370963202582463,0.05902286105685764
3230,0.09813492604709204,0.17929691314697266,85.98699188232422,79.07218933105469,39.686500549316406,119.41535949707031,0.014525477091471355,0.15766666666666668,0.32285714285714284,0.0067746904161241316,-0.9447962218017594,-0.19774879748535312,47.72426986694336,0.07683113945855034,0.05856823391384548
3231,0.17625992604709204,0.13945316314697265,86.662109375,80.83157348632812,39.686500549316406,119.37444305419922,0.0072515275743272566,0.15433333333333332,0.32357142857142857,0.009185494316948786,-0.823950427124025,0.4614120125770569,47.72426986694336,0.06478373209635417,0.05902286105685764
3232,0.10204117604709204,0.19921878814697266,87.03034973144531,82.30455017089844,39.70696258544922,119.39490509033203,0.0488494873046875,0.151,0.32535714285714284,0.008422597249348959,-1.5819841795654312,1.7467740774154663,47.72426986694336,0.05250888400607639,0.05902286105685764
3233,0.14500992604709204,0.1195312786102295,86.96897888183594,81.36347961425781,39.686500549316406,119.39490509033203,0.0049784342447916664,0.146,0.32785714285714285,0.008880360921223959,-2.0433966093750016,0.8349360227584839,47.72426986694336,0.0622833251953125,0.05879550509982639
3234,0.12157242604709204,0.13945316314697265,41.900001525878906,84.53446960449219,39.686500549316406,119.39490509033203,0.02429987589518229,0.143,0.3296428571428571,0.009063424004448786,-1.1095873289794937,1.2853620052337646,47.72426986694336,-0.473716311984592,0.05879550509982639
3235,0.02391617604709203,0.17929691314697266,86.58027648925781,78.78577423095703,39.768333435058594,119.47673797607422,0.0377112070719401,0.13866666666666666,0.33214285714285713,0.005401441786024305,-0.5163427763671891,-0.15380539233398594,47.72426986694336,0.08660558064778646,0.05879550509982639
3236,0.01610367604709203,0.29882820129394533,41.900001525878906,78.74485778808594,39.788787841796875,119.47673797607422,0.025663714938693575,0.13466666666666666,0.33214285714285713,0.004760572645399305,-0.845923083374025,-1.1974741392822281,47.72426986694336,-0.4093872918023003,0.059022776285807294
3237,0.05907242604709203,0.2789063262939453,86.33477783203125,78.9494400024414,39.74787902832031,119.4562759399414,-2.242194281684028e-05,0.133,0.33214285714285713,0.0075071122911241316,-0.9118391447753922,-1.6149431639404312,47.72426986694336,0.08205930921766492,0.058795589870876734
3238,0.06688492604709204,0.2789063262939453,86.39614868164062,79.13356018066406,39.74787902832031,119.4562759399414,0.021572113037109375,0.13033333333333333,0.3317857142857143,0.0068967607286241316,-1.4721247130126969,-1.538040774414064,47.54848861694336,0.08069542778862847,0.058795589870876734
3239,0.07079117604709204,0.239062557220459,86.27340698242188,78.00836944580078,39.686500549316406,119.43582153320312,0.042939376831054685,0.12866666666666668,0.33214285714285713,0.005370924207899305,-2.493822711059572,-1.1974741392822281,47.54848861694336,0.09183375040690105,0.05834087795681424
3240,0.10204117604709204,0.2789063262939453,86.49844360351562,80.56562042236328,39.70696258544922,119.39490509033203,0.01066118876139323,0.12566666666666668,0.3325,0.008788808186848959,-3.207913058349611,-0.9118391447753922,47.54848861694336,0.06592025756835937,0.05902286105685764
3241,0.10985367604709204,0.239062557220459,41.900001525878906,82.07951354980469,39.788787841796875,119.4971923828125,0.039529715643988717,0.12166666666666667,0.3335714285714286,0.007873280843098959,-3.0760809355468766,-0.14281906420898594,47.54848861694336,-0.4464390224880642,0.05879550509982639
3242,0.04735367604709203,0.19921878814697266,86.02790832519531,78.49935913085938,39.70696258544922,119.39490509033203,0.05225914849175347,0.11933333333333333,0.3339285714285714,0.0014953189425998264,-2.3400179320068375,-0.5822588377685562,47.54848861694336,0.08365054660373264,0.05902286105685764
3243,0.07860367604709204,0.219140682220459,85.80287170410156,81.13844299316406,39.768333435058594,119.37444305419922,0.017935138278537325,0.11566666666666667,0.3335714285714286,0.004211298624674479,-2.537766116210939,0.032958000898361206,47.54848861694336,0.05182698567708333,0.059932115342881946
3244,0.09032242604709204,0.219140682220459,85.65966796875,80.0950927734375,39.686500549316406,119.39490509033203,0.02179942660861545,0.11233333333333333,0.3342857142857143,0.005462476942274305,-1.6808592253417984,-0.13183273608398594,47.54848861694336,0.06182861328125,0.05879550509982639
3245,0.08641617604709204,0.15937503814697265,85.84378051757812,79.19493103027344,39.768333435058594,119.43582153320312,0.03612005445692274,0.10966666666666666,0.3335714285714286,0.0034483591715494793,-1.8017050200195328,0.3405660092830658,47.54848861694336,0.07387610541449653,0.059250132242838545
3246,0.08641617604709204,0.13945316314697265,87.48042297363281,82.22271728515625,39.686500549316406,119.37444305419922,0.017025926378038195,0.106,0.3339285714285714,0.0030516730414496527,-1.8566347532959,0.48338401317596436,47.54848861694336,0.058418952094184025,0.05902286105685764
3247,0.07469742604709204,0.17929691314697266,85.90515899658203,77.96745300292969,39.788787841796875,119.47673797607422,0.02793685065375434,0.103,0.3342857142857143,0.003936640421549479,-1.2194467955322281,-0.7580343657226578,47.54848861694336,0.08819673326280382,0.059022776285807294
3248,0.18407242604709204,0.13945316314697265,86.43707275390625,81.36347961425781,39.7274169921875,119.39490509033203,0.012025070190429688,0.09766666666666667,0.3342857142857143,0.0069577958848741316,-2.900305407592775,-0.21972145373535312,47.54848861694336,0.05637325710720486,0.059250132242838545
3249,0.09813492604709204,0.19921878814697266,86.47798156738281,81.81356048583984,39.686500549316406,119.39490509033203,0.04543978373209635,0.09533333333333334,0.335,0.004821607801649305,-3.3177725249023453,0.36253800988197327,46.58169937133789,0.05182690090603299,0.05879550509982639
3250,0.08641617604709204,0.19921878814697266,86.45751953125,79.93142700195312,39.686500549316406,119.39490509033203,0.018617078993055557,0.09166666666666666,0.335,0.004760572645399305,-1.8126913481445328,-0.16478981311035312,46.40591812133789,0.07251213921440972,0.05879550509982639
3251,0.09422867604709204,0.239062557220459,87.33721923828125,82.26363372802734,39.70696258544922,119.37444305419922,0.015889358520507813,0.08733333333333333,0.3342857142857143,0.0064389970567491316,-1.4940973692626969,0.1538040041923523,46.318031311035156,0.05637317233615451,0.05925021701388889
3252,0.05907242604709203,0.25898443222045897,86.70301818847656,80.0337142944336,39.70696258544922,119.39490509033203,0.0365746815999349,0.08433333333333333,0.33321428571428574,0.004211298624674479,-2.0214239531250016,-0.4504267149658219,46.318031311035156,0.07410337660047743,0.05902286105685764
3253,0.05907242604709203,0.239062557220459,85.02546691894531,77.08776092529297,39.768333435058594,119.47673797607422,0.029300732082790798,0.08166666666666667,0.3314285714285714,0.0030211554633246527,-2.241144793579103,-1.2524038725585953,46.318031311035156,0.08819673326280382,0.05879550509982639
3254,0.10204117604709204,0.239062557220459,85.29141998291016,78.86760711669922,39.768333435058594,119.41535949707031,0.014070849948459202,0.07833333333333334,0.33035714285714285,0.006011793348524305,-2.153256075927736,-1.2633902006835953,46.318031311035156,0.07137569851345486,0.05947748819986979
3255,0.15282242604709204,0.239062557220459,85.27096557617188,79.21539306640625,39.788787841796875,119.43582153320312,0.011343129475911458,0.07633333333333334,0.32821428571428574,0.009399117363823786,-1.131558077880861,-0.3405672484130875,46.318031311035156,0.06728413899739584,0.05947740342881944
3256,0.16063492604709204,0.19921878814697266,85.41416931152344,80.13600158691406,39.70696258544922,119.41535949707031,0.02316330803765191,0.071,0.3267857142857143,0.008941396077473959,-1.0107122832031266,0.23070600628852844,46.318031311035156,0.058646308051215276,0.058795589870876734
3257,0.07079117604709204,0.19921878814697266,85.57783508300781,80.81111145019531,39.7274169921875,119.39490509033203,0.05430492824978299,0.06933333333333333,0.32571428571428573,0.0021056281195746527,-1.7357889586181656,2.065368175506592,46.318031311035156,0.05296359592013889,0.059250132242838545
3258,0.008291176047092029,0.17929691314697266,86.96897888183594,81.83401489257812,39.70696258544922,119.39490509033203,0.03498348659939236,0.06633333333333333,0.325,-0.000457763671875,-1.6479002409667984,2.296074151992798,46.318031311035156,0.057055155436197914,0.05902286105685764
3259,0.03563492604709203,0.219140682220459,86.84622192382812,82.05905151367188,39.686500549316406,119.37444305419922,0.00543306138780382,0.06266666666666666,0.3246428571428571,0.0037230173746744793,-1.3952223234863297,1.3293060064315796,46.318031311035156,0.05319078233506944,0.05902286105685764
3260,0.03563492604709203,0.239062557220459,86.82576751708984,82.34546661376953,39.686500549316406,119.39490509033203,0.03862046135796441,0.059666666666666666,0.3242857142857143,0.005126783582899305,-0.8898664885253922,0.7690200209617615,46.142250061035156,0.049781121148003475,0.05879550509982639
3261,0.05516617604709203,0.2789063262939453,84.69813537597656,77.10821533203125,39.788787841796875,119.47673797607422,0.003387239244249132,0.05733333333333333,0.32285714285714284,0.0074155595567491316,-0.3845106535644547,-1.9335371428222672,46.142250061035156,0.0843324449327257,0.059022776285807294
3262,0.12157242604709204,0.239062557220459,85.74149322509766,79.8905029296875,39.70696258544922,119.39490509033203,0.0017960866292317708,0.05333333333333334,0.32142857142857145,0.01095547146267361,-1.3952223234863297,-1.516068118164064,46.142250061035156,0.06501100328233507,0.05902286105685764
3263,0.08250992604709204,0.25898443222045897,86.62118530273438,80.21783447265625,39.686500549316406,119.37444305419922,0.052941046820746525,0.051333333333333335,0.32071428571428573,0.0071714189317491316,-1.8786074095459,0.6152160167694092,46.142250061035156,0.0711483425564236,0.05902286105685764
3264,0.07469742604709204,0.2789063262939453,86.98943328857422,78.37661743164062,39.686500549316406,119.37444305419922,0.02657296922471788,0.04833333333333333,0.32,0.0076291402180989586,-1.7577597075195328,0.9667680263519287,46.142250061035156,0.09569795396592883,0.05902286105685764
3265,0.13719742604709204,0.2789063262939453,92.2266845703125,87.70545959472656,39.686500549316406,119.39490509033203,0.0008868323432074653,0.046,0.31857142857142856,0.01522780524359809,-1.153530734130861,2.5707240104675293,46.142250061035156,0.05023583306206597,0.05879550509982639
3266,0.18016617604709204,0.25898443222045897,88.17599487304688,84.88226318359375,39.70696258544922,119.39490509033203,0.017935138278537325,0.041,0.31785714285714284,0.021056493123372395,-1.3073355131835953,1.5709980726242065,46.142250061035156,0.03659701877170139,0.05902286105685764
3267,0.19188492604709204,0.239062557220459,90.30363464355469,85.43462371826172,39.70696258544922,119.37444305419922,0.025891028510199653,0.03766666666666667,0.31785714285714284,0.02218560112847222,-1.3842359953613297,1.2743760347366333,46.142250061035156,0.054100121392144096,0.05925021701388889
3268,0.13329117604709204,0.239062557220459,87.74638366699219,80.13600158691406,39.70696258544922,119.39490509033203,0.034756173027886285,0.033666666666666664,0.3175,0.01898134019639757,-1.4062086516113297,-0.7140909605712906,46.142250061035156,0.08455980088975694,0.05902286105685764
3269,0.14500992604709204,0.219140682220459,88.6669921875,81.67034912109375,39.686500549316406,119.37444305419922,0.018162451850043403,0.029333333333333333,0.3175,0.018371031019422744,-1.1095873289794937,-1.7248026304931656,46.142250061035156,0.077740478515625,0.05902286105685764
3270,0.13719742604709204,0.17929691314697266,88.05325317382812,79.72684478759766,39.686500549316406,119.41535949707031,0.034528859456380206,0.025666666666666667,0.3175,0.014495425754123263,-1.2304331236572281,-2.142269747802736,46.142250061035156,0.0925156487358941,0.05856823391384548
3271,0.09032242604709204,0.17929691314697266,82.18180847167969,77.31279754638672,39.768333435058594,119.47673797607422,0.042030122545030385,0.02266666666666667,0.31785714285714284,0.008788808186848959,-0.3295809202880875,-3.284815447875978,46.142250061035156,0.054100121392144096,0.05879550509982639
3272,0.09813492604709204,0.17929691314697266,85.37325286865234,81.30210876464844,39.768333435058594,119.47673797607422,0.01952633327907986,0.019,0.3171428571428571,0.005828687879774305,0.3405660092830658,-3.0431219511718766,46.142250061035156,0.045234934488932295,0.05879550509982639
3273,0.10204117604709204,0.17929691314697266,87.64408874511719,81.24073791503906,39.70696258544922,119.39490509033203,0.02725490993923611,0.015,0.3167857142857143,0.004638544718424479,0.13183200359344482,-1.0216986113281266,46.142250061035156,0.0711483425564236,0.05902286105685764
3274,0.09032242604709204,0.17929691314697266,87.62362670898438,82.85691833496094,39.686500549316406,119.37444305419922,0.028846104939778645,0.011,0.31607142857142856,0.0036009470621744793,0.32958000898361206,0.38451001048088074,46.142250061035156,0.05296342637803819,0.05902286105685764
3275,0.06688492604709204,0.17929691314697266,85.57783508300781,78.21295166015625,39.788787841796875,119.4562759399414,0.0336196051703559,0.008666666666666666,0.315,0.0021056281195746527,1.3952220678329468,-0.4504267149658219,37.79269790649414,0.08183203803168403,0.059250132242838545
3276,0.11375992604709204,0.13945316314697265,87.6031723022461,80.19737243652344,39.686500549316406,119.37444305419922,0.019980960422092013,0.005,0.3132142857142857,0.0033568064371744793,1.7467740774154663,-0.3295809202880875,30.937278747558594,0.08228666517469618,0.05902286105685764
3277,0.11375992604709204,0.13945316314697265,83.552490234375,76.00348663330078,39.788787841796875,119.47673797607422,0.029300732082790798,0.0023333333333333335,0.30892857142857144,0.0026549445258246527,1.922550082206726,-0.3515516691894547,26.54277992248535,0.08387781778971354,0.059022776285807294
3278,0.10594742604709204,0.1195312786102295,84.43218231201172,78.35615539550781,39.70696258544922,119.4562759399414,0.029073418511284723,0.001,0.3057142857142857,0.0012206607394748264,3.152981996536255,0.45042601227760315,26.54277992248535,0.06751141018337674,0.058340962727864584
3279,0.09813492604709204,0.1195312786102295,87.95095825195312,82.12042999267578,39.70696258544922,119.39490509033203,0.032028452555338545,0.0003333333333333333,0.3,0.0012816958957248264,3.9000301361083984,1.6259280443191528,26.367000579833984,0.06478364732530383,0.05902286105685764
3280,0.04735367604709203,0.1195312786102295,83.26608276367188,77.27188110351562,39.788787841796875,119.47673797607422,0.03271039326985677,-0.0003333333333333333,0.2960714285714286,0.0012816958957248264,3.5814361572265625,0.4943700134754181,26.367000579833984,0.06660224066840278,0.059022776285807294
3281,0.03172867604709203,0.09960939407348633,84.75950622558594,77.12867736816406,39.788787841796875,119.47673797607422,0.023617935180664063,0.0,0.2885714285714286,0.0010985904269748264,3.131010055541992,-1.3183199339599625,26.367000579833984,0.0847869873046875,0.059022776285807294
3282,-0.01905257395290797,0.07968751907348633,84.69813537597656,78.540283203125,39.788787841796875,119.47673797607422,0.031801138983832467,0.0,0.2839285714285714,-0.0,2.834388017654419,-0.6152159147949234,26.279109954833984,0.06842057969835069,0.059022776285807294
