,WD,WS,AIL_1,AIL_2,ELEV_1,ELEV_2,RUDD,ALT,GS,TH,PTCH,ROLL,PLA_1,AIL,ELEV
7868,0.3465471625705296,0.5179688644409179,84.6572265625,84.22760009765625,-8.348880767822266,89.05569458007812,-0.012979168362087673,0.6926666666666667,0.4367857142857143,0.06237606472439236,-3.954960482666017,-2.933262484619142,26.015439987182617,0.004773627387152778,-0.137828614976671
7869,0.3426409125705296,0.5179688644409179,85.12775421142578,84.20714569091797,-8.328422546386719,88.97386169433594,-0.009114880032009548,0.6873333333333334,0.4328571428571429,0.060484059651692706,-3.87805809313965,-2.3290335112304703,26.015439987182617,0.010228983561197917,-0.13669204711914062
7870,0.3426409125705296,0.49804698944091796,84.92317199707031,84.14576721191406,-8.307964324951172,89.13752746582031,-0.009342193603515625,0.6826666666666666,0.4307142857142857,0.058683522542317706,-3.603409426757814,-1.9335371428222672,26.015439987182617,0.008637830946180555,-0.13828324211968315
7871,0.3387346625705296,0.49804698944091796,84.88226318359375,84.12531280517578,-8.369338989257812,89.40347290039062,-0.009342193603515625,0.6783333333333333,0.4253571428571429,0.05737135145399305,-3.163967745849611,-1.5709978514404312,26.015439987182617,0.008410559760199653,-0.14192013210720486
7872,0.3348284125705296,0.49804698944091796,84.96409606933594,84.08439636230469,-8.430713653564453,89.42393493652344,-0.007296371459960938,0.6736666666666666,0.42214285714285715,0.05584547254774305,-3.0870672636718766,-1.2084604674072281,26.015439987182617,0.009774441189236111,-0.14282942877875435
7873,0.3348284125705296,0.49804698944091796,84.69813537597656,81.60897827148438,-8.430713653564453,89.28073120117188,-0.006841744316948784,0.6696666666666666,0.41678571428571426,0.054746924506293405,-3.185940402099611,-0.9667688780517594,26.015439987182617,0.034323967827690975,-0.141238276163737
7874,0.3387346625705296,0.5179688644409179,83.75706481933594,83.79798889160156,-8.410255432128906,89.1170654296875,-0.008205625745985243,0.6656666666666666,0.4132142857142857,0.055296240912543405,-3.1310106688232437,0.1538040041923523,26.015439987182617,-0.0004547119140625,-0.1391924540201823
7875,0.3348284125705296,0.49804698944091796,84.92317199707031,84.26852416992188,-8.348880767822266,88.95339965820312,-0.005250591701931423,0.661,0.4075,0.055235205756293405,-2.944248812744142,1.1645159721374512,26.015439987182617,0.00727386474609375,-0.13669200473361545
7876,0.3309221625705296,0.49804698944091796,84.84133911132812,84.20714569091797,-8.307964324951172,88.87156677246094,-0.008660252888997395,0.6566666666666666,0.40464285714285714,0.05581495496961805,-2.7574869566650406,1.450152039527893,26.015439987182617,0.007046593560112847,-0.135328123304579
7877,0.3309221625705296,0.5179688644409179,85.0459213256836,84.39126586914062,-8.021553039550781,88.6056137084961,-0.009342193603515625,0.6516666666666666,0.3992857142857143,0.05706617567274305,-2.6036821776123062,1.5160679817199707,26.015439987182617,0.0072739495171440975,-0.12919074164496527
7878,0.3270159125705296,0.5179688644409179,85.06637573242188,84.47309875488281,-7.857891082763672,88.50332641601562,-0.010933346218532987,0.6476666666666666,0.39535714285714285,0.058591969807942706,-2.3070608549804703,1.3512780666351318,26.015439987182617,0.006591966417100695,-0.12623574998643664
7879,0.3231096903483073,0.5378907394409179,85.25050354003906,84.63676452636719,-7.837432861328125,88.50332641601562,-0.009569507175021702,0.643,0.39035714285714285,0.059690602620442706,-2.0324102812500016,1.175502061843872,26.015439987182617,0.006819322374131944,-0.12600843641493056
7880,0.3231096903483073,0.5378907394409179,85.27096557617188,84.69813537597656,-7.878349304199219,88.58515930175781,-0.011615286933051215,0.639,0.38642857142857145,0.060911305745442706,-1.6918455534667984,0.9118380546569824,26.015439987182617,0.006364780002170139,-0.12737231784396702
7881,0.3270159125705296,0.5378907394409179,85.33233642578125,84.554931640625,-7.878349304199219,88.29874420166016,-0.009796820746527778,0.6353333333333333,0.38107142857142856,0.06161312527126736,-1.6808592253417984,0.6042300462722778,26.015439987182617,0.008637830946180555,-0.12418992784288195
7882,0.3192034403483073,0.5578126525878906,85.14820861816406,84.37080383300781,-7.407814025878906,87.80775451660156,-0.010478719075520834,0.6303333333333333,0.37785714285714284,0.06222347683376736,-1.9225508146972672,0.24169200658798218,26.015439987182617,0.008637830946180555,-0.11350631713867188
7883,0.3231096903483073,0.5578126525878906,84.98455047607422,84.37080383300781,-7.305522918701172,88.17599487304688,-0.01320648193359375,0.6266666666666667,0.37285714285714283,0.06313900417751736,-2.1202989989013687,-0.06591667468261875,26.015439987182617,0.006819407145182292,-0.11646130879720053
7884,0.3231096903483073,0.5777345275878907,85.16867065429688,85.0050048828125,-7.469188690185547,88.6669921875,-0.012069914076063368,0.6226666666666667,0.3703571428571429,0.06381039089626736,-2.559738772460939,-0.10986007983398594,26.015439987182617,0.001818508572048611,-0.12373534308539497
7885,0.3270159125705296,0.5777345275878907,85.5164566040039,84.73905181884766,-7.796516418457031,89.2193603515625,-0.01320648193359375,0.6186666666666667,0.365,0.06432910495334201,-3.1529833250732437,-0.20873512561035312,26.015439987182617,0.008637830946180555,-0.13350974188910592
7886,0.3270159125705296,0.5777345275878907,85.43462371826172,84.73905181884766,-8.267051696777344,89.40347290039062,-0.01002409193250868,0.616,0.36142857142857143,0.06396297878689236,-3.92200340563965,-0.3405672484130875,26.015439987182617,0.00772857666015625,-0.14078360663519965
7887,0.3309221625705296,0.5578126525878906,85.14820861816406,84.12531280517578,-8.287506103515625,89.28073120117188,-0.007296371459960938,0.6133333333333333,0.3560714285714286,0.06271175808376736,-4.702007906982423,-0.5602861815185562,31.28883934020996,0.011365509033203125,-0.13964708116319444
7888,0.3270159125705296,0.5578126525878906,84.67768096923828,83.79798889160156,-8.082927703857422,89.0761489868164,-0.0054779052734375,0.6096666666666667,0.3525,0.061155446370442706,-5.075533526489259,-0.6701475554199234,33.837650299072266,0.009774356418185763,-0.1351008521185981
7889,0.3231096903483073,0.5578126525878906,84.26852416992188,83.552490234375,-7.9192657470703125,88.58515930175781,-0.0075236850314670135,0.606,0.3482142857142857,0.060545094807942706,-5.009617465087892,-0.7360617094726578,34.013431549072266,0.0079559326171875,-0.12782694498697916
7890,0.3231096903483073,0.5578126525878906,84.28897857666016,83.5934066772461,-7.571479797363281,88.21691131591797,-0.008887566460503472,0.602,0.3457142857142857,0.060331471761067706,-4.548205035278322,-0.6701475554199234,34.101318359375,0.00772857666015625,-0.11987101236979167
7891,0.3231096903483073,0.5777345275878907,84.37080383300781,84.06393432617188,-7.469188690185547,88.1555404663086,-0.011615286933051215,0.5983333333333334,0.34214285714285714,0.060728200276692706,-3.987919467041017,-0.4723993712158219,34.101318359375,0.003409661187065972,-0.11805254618326823
7892,0.3231096903483073,0.5777345275878907,84.77996826171875,84.14576721191406,-7.346439361572266,87.93049621582031,-0.009569507175021702,0.5943333333333334,0.33964285714285714,0.060575612386067706,-3.6253801756591812,-0.2856375151367203,34.101318359375,0.007046678331163195,-0.11418817308213976
7893,0.3231096903483073,0.5777345275878907,84.6572265625,83.79798889160156,-7.162319183349609,87.76683807373047,-0.009114880032009548,0.5906666666666667,0.3357142857142857,0.059812672932942706,-3.3507315092773453,-0.3295809202880875,34.277099609375,0.009547085232204862,-0.11032396952311198
7894,0.3192034403483073,0.5777345275878907,84.53446960449219,83.90027618408203,-6.9781951904296875,87.54179382324219,-0.007978312174479167,0.5873333333333334,0.33321428571428574,0.059354909261067706,-3.0321375303955094,-0.2966219359130875,34.277099609375,0.007046593560112847,-0.10577765570746528
7895,0.3192034403483073,0.5777345275878907,84.5140151977539,83.85935974121094,-6.732700347900391,87.35768127441406,-0.00843293931749132,0.5843333333333334,0.32857142857142857,0.059171803792317706,-2.6695982390136734,-0.2526785307617203,34.277099609375,0.0072739495171440975,-0.10100424024793837
7896,0.3231096903483073,0.5777345275878907,84.37080383300781,83.90027618408203,-6.630409240722656,87.29630279541016,-0.012297227647569445,0.581,0.32571428571428573,0.059354909261067706,-2.263117449829103,-0.2636648588867203,34.277099609375,0.005228084988064236,-0.09918568929036459
7897,0.3270159125705296,0.5777345275878907,84.80043029785156,84.49356079101562,-6.057586669921875,86.92805480957031,-0.01252454121907552,0.5786666666666667,0.32142857142857145,0.059965260823567706,-1.9445234709472672,-0.03295769030761875,34.277099609375,0.003409661187065972,-0.08872934977213541
7898,0.3231096903483073,0.5777345275878907,85.18913269042969,84.41172790527344,-41.900001525878906,86.62118530273438,-0.009114880032009548,0.576,0.31892857142857145,0.059568532307942706,-1.549027102539064,0.07690200209617615,34.364990234375,0.008637830946180555,-0.4835687425401476
7899,0.3192034403483073,0.5976564025878907,84.90271759033203,84.18669128417969,-5.832546234130859,86.47798156738281,-0.00843293931749132,0.5726666666666667,0.3142857142857143,0.059293874104817706,-1.0986010008544937,-0.04394401843261875,40.60517883300781,0.007955847846137152,-0.08122808668348525
7900,0.3231096903483073,0.5976564025878907,84.554931640625,83.81844329833984,-5.955295562744141,86.5188980102539,-0.012751854790581597,0.5703333333333334,0.3117857142857143,0.059965260823567706,-0.6371885710449234,-0.2746511870117203,40.60517883300781,0.008183203803168403,-0.08304659525553386
7901,0.3270159125705296,0.6175782775878906,84.63676452636719,84.6572265625,-5.9757537841796875,86.662109375,-0.0168434566921658,0.568,0.3092857142857143,0.06194881863064236,-0.2636648588867203,-0.2746511870117203,40.60517883300781,-0.00022735595703125,-0.08486514621310765
7902,0.3309221625705296,0.6175782775878906,85.39370727539062,84.75950622558594,-5.853004455566406,86.49844360351562,-0.01320648193359375,0.5653333333333334,0.3078571428571429,0.06243709988064236,-0.16478981311035312,-0.20873512561035312,43.153987884521484,0.007046678331163195,-0.08168275621202258
7903,0.3270159125705296,0.6175782775878906,85.25050354003906,84.53446960449219,-5.730258941650391,86.41661071777344,-0.009114880032009548,0.563,0.3057142857142857,0.06182674831814236,-0.10986007983398594,-0.3735243254394547,44.99967956542969,0.0079559326171875,-0.07940966288248698
7904,0.3309221625705296,0.6175782775878906,84.94363403320312,84.35034942626953,-41.900001525878906,86.33477783203125,-0.011387973361545138,0.5606666666666666,0.30428571428571427,0.06176571316189236,0.1538040041923523,-0.5822588377685562,46.84537124633789,0.0065920511881510414,-0.4803864373101128
7905,0.3309221625705296,0.6175782775878906,84.90271759033203,84.49356079101562,-5.7507171630859375,86.37569427490234,-0.01070603264702691,0.5576666666666666,0.30392857142857144,0.06158260769314236,0.4614120125770569,-0.6152159147949234,47.81216049194336,0.00454618665907118,-0.0791823493109809
7906,0.3348284125705296,0.6175782775878906,85.0459213256836,83.73661041259766,-41.900001525878906,86.37569427490234,-0.0043413374159071184,0.5553333333333333,0.30357142857142855,0.060636647542317706,0.6811320185661316,-0.6921183043212906,47.987937927246094,0.014547899034288195,-0.480841064453125
7907,0.3387346625705296,0.6375001525878906,84.35034942626953,84.0025634765625,-5.8939208984375,86.53935241699219,-0.014115693834092882,0.5523333333333333,0.3032142857142857,0.06173519558376736,0.8349360227584839,-0.856909411499025,48.075828552246094,0.003864288330078125,-0.08259192572699653
7908,0.3426409125705296,0.6574220275878906,84.6572265625,84.57539367675781,-6.078044891357422,86.76439666748047,-0.01616151597764757,0.551,0.3032142857142857,0.06344417995876736,0.8788800239562988,-0.845923083374025,48.075828552246094,0.0009092542860243056,-0.08713823954264323
7909,0.3465471625705296,0.6574220275878906,85.23004150390625,84.5140151977539,-6.1394195556640625,86.86668395996094,-0.01070603264702691,0.5476666666666666,0.3025,0.06329159206814236,0.6371880173683167,-0.8788801604003922,48.251609802246094,0.007955847846137152,-0.08895670572916667
7910,0.3465471625705296,0.6375001525878906,85.0459213256836,84.22760009765625,-6.1394195556640625,86.86668395996094,-0.0059324900309244795,0.5456666666666666,0.3025,0.06222347683376736,0.19774800539016724,-1.0216986113281266,48.251609802246094,0.009092458089192708,-0.08895670572916667
7911,0.3465471625705296,0.6574220275878906,84.28897857666016,84.02302551269531,-6.118961334228516,86.80531311035156,-0.010933346218532987,0.543,0.3028571428571429,0.06167416042751736,-0.2307058745117203,-1.164517062255861,49.13050842285156,0.0029550340440538192,-0.08804749382866753
7912,0.3465471625705296,0.6574220275878906,84.49356079101562,84.12531280517578,-6.180332183837891,86.82576751708984,-0.01002409193250868,0.54,0.3032142857142857,0.061124928792317706,-0.49437012011718906,-1.120571749755861,52.118770599365234,0.004091644287109375,-0.0889566633436415
7913,0.3504534125705296,0.6574220275878906,84.73905181884766,84.32989501953125,-6.3644561767578125,87.17355346679688,-0.009796820746527778,0.5373333333333333,0.3057142857142857,0.060178883870442706,-0.6042314940185562,-0.9338098936767594,52.118770599365234,0.00454618665907118,-0.0948667738172743
7914,0.3465471625705296,0.6375001525878906,84.73905181884766,84.16622924804688,-6.405372619628906,87.31675720214844,-0.0054779052734375,0.5343333333333333,0.3075,0.05843946668836805,-0.9228254729003922,-0.7909933500976578,52.29454803466797,0.006364695231119792,-0.09691255357530382
7915,0.3465471625705296,0.6375001525878906,84.08439636230469,83.16378784179688,-6.303081512451172,87.03034973144531,-0.004795964558919271,0.5303333333333333,0.30964285714285716,0.05669996473524305,-1.4611383848876969,-0.8788801604003922,52.030879974365234,0.010228983561197917,-0.09259368048773872
7916,0.3504534125705296,0.6375001525878906,83.96165466308594,83.71615600585938,-6.262165069580078,86.88714599609375,-0.00843293931749132,0.5266666666666666,0.3117857142857143,0.05654737684461805,-1.6808592253417984,-0.6591612272949234,51.2398681640625,0.002727762858072917,-0.0905479007297092
7917,0.3504534125705296,0.6375001525878906,84.47309875488281,83.30699157714844,-6.282623291015625,86.86668395996094,-0.007069057888454861,0.523,0.31392857142857145,0.05624220106336805,-1.549027102539064,-0.2636648588867203,51.151981353759766,0.012956746419270833,-0.09054785834418402
7918,0.3543596625705296,0.6375001525878906,82.52958679199219,81.40440368652344,-6.262165069580078,86.90760040283203,-0.004568650987413194,0.5193333333333333,0.315,0.05660841200086805,-1.3293062620849625,0.36253800988197327,51.151981353759766,0.012502034505208334,-0.09077517191569011
7919,0.3504534125705296,0.6574220275878906,81.64989471435547,83.53202819824219,-6.303081512451172,86.88714599609375,-0.002750142415364583,0.5153333333333333,0.31642857142857145,0.05810377332899305,-1.1974741392822281,2.197200059890747,51.151981353759766,-0.020912594265407987,-0.09100252787272135
7920,0.3504534125705296,0.6574220275878906,84.43218231201172,84.28897857666016,-6.384914398193359,87.25538635253906,-0.00047704908582899306,0.512,0.3171428571428571,0.059538014729817706,-1.0986010008544937,3.9110159873962402,50.27307891845703,0.001591152615017361,-0.09600334167480469
7921,0.3504534125705296,0.6375001525878906,84.80043029785156,84.32989501953125,-6.405372619628906,87.33721923828125,-0.0066144307454427086,0.509,0.3167857142857143,0.06204037136501736,-1.164517062255861,4.416372299194336,49.48207092285156,0.005228169759114583,-0.09713990953233508
7922,0.3621721625705296,0.6175782775878906,85.1072998046875,84.08439636230469,-6.241706848144531,86.98943328857422,-0.01002409193250868,0.5053333333333333,0.3157142857142857,0.06561084323459201,-1.4501520567626969,4.284540176391602,49.48207092285156,0.011365593804253473,-0.09145711263020834
7923,0.3621721625705296,0.6375001525878906,84.71859741210938,84.41172790527344,-6.078044891357422,86.68256378173828,-0.014115693834092882,0.5016666666666667,0.315,0.06960856119791667,-1.4831110411376969,3.8121421337127686,49.48207092285156,0.003409661187065972,-0.08622898525661893
7924,0.3738909125705296,0.6175782775878906,84.63676452636719,83.28652954101562,-6.078044891357422,86.662109375,-0.012751854790581597,0.499,0.3142857142857143,0.07299584282769098,-0.9777552061767594,2.9662201404571533,49.48207092285156,0.015002610948350694,-0.08600171407063802
7925,0.3738909125705296,0.6375001525878906,83.98210144042969,84.57539367675781,-6.1394195556640625,86.84622192382812,-0.011387973361545138,0.496,0.31357142857142856,0.07589492797851563,-0.5053564482421891,2.823402166366577,49.39418029785156,-0.006592135959201389,-0.08872934977213541
7926,0.3817034125705296,0.6175782775878906,84.84133911132812,84.43218231201172,-6.118961334228516,86.74394226074219,-0.01070603264702691,0.492,0.3125,0.07821426391601563,-0.3295809202880875,2.6915700435638428,49.39418029785156,0.00454618665907118,-0.08736559549967447
7927,0.3817034125705296,0.6175782775878906,85.0459213256836,84.92317199707031,-6.016670227050781,86.76439666748047,-0.014115693834092882,0.489,0.3117857142857143,0.08053351508246528,-0.2966219359130875,2.449877977371216,49.39418029785156,0.0013638814290364584,-0.086456298828125
7928,0.3777971625705296,0.6175782775878906,85.86424255371094,86.98943328857422,-6.016670227050781,86.62118530273438,-0.01616151597764757,0.48633333333333334,0.31142857142857144,0.08230344984266492,-0.2746511870117203,2.834388017654419,49.39418029785156,-0.01250211927625868,-0.08486506144205729
7929,0.3621721625705296,0.6175782775878906,87.1121826171875,87.48042297363281,-6.180332183837891,86.74394226074219,-0.0066144307454427086,0.48233333333333334,0.31,0.08184568617078992,-0.09887375170898594,3.2408699989318848,49.39418029785156,-0.004091559516059028,-0.08804749382866753
7930,0.3621721625705296,0.5777345275878907,86.5188980102539,84.90271759033203,-6.303081512451172,87.13264465332031,-0.005250591701931423,0.48,0.30964285714285716,0.08160154554578992,0.0,2.592696189880371,49.39418029785156,0.017957560221354165,-0.09373029073079427
7931,0.3699846625705296,0.5777345275878907,85.37325286865234,85.18913269042969,-6.098503112792969,86.92805480957031,-0.01320648193359375,0.47633333333333333,0.3092857142857143,0.08343260023328992,-0.3954969816894547,2.04339599609375,49.39418029785156,0.002045779758029514,-0.08918397691514757
7932,0.3856096625705296,0.5578126525878906,85.49600219726562,85.82332611083984,-5.7507171630859375,86.559814453125,-0.016388829549153647,0.4736666666666667,0.30892857142857144,0.08599599202473958,-0.7470480375976578,1.8786060810089111,49.39418029785156,-0.003636932373046875,-0.08122812906901042
7933,0.3777971625705296,0.5578126525878906,86.33477783203125,85.72103881835938,-5.853004455566406,86.39614868164062,-0.012297227647569445,0.4703333333333333,0.30964285714285716,0.08675893147786458,-0.7031046324462906,1.768746018409729,52.030879974365234,0.006819322374131944,-0.08054614596896702
7934,0.3817034125705296,0.5578126525878906,86.13019561767578,85.31187438964844,-6.180332183837891,86.90760040283203,-0.01252454121907552,0.4676666666666667,0.31035714285714283,0.08779644436306423,-0.2307058745117203,1.4171940088272095,52.118770599365234,0.009092458089192708,-0.0898659176296658
7935,0.3777971625705296,0.5578126525878906,86.39614868164062,84.5140151977539,-6.405372619628906,87.19401550292969,-0.01070603264702691,0.46366666666666667,0.31142857142857144,0.08904766506618923,-0.12084640795898594,1.175502061843872,52.118770599365234,0.020912594265407987,-0.0955487569173177
7936,0.3895159125705296,0.5578126525878906,85.18913269042969,85.57783508300781,-6.303081512451172,87.27584838867188,-0.01616151597764757,0.461,0.3125,0.09066501193576389,-0.4504267149658219,0.6921180486679077,52.118770599365234,-0.0043189154730902775,-0.09532144334581164
7937,0.3895159125705296,0.5578126525878906,85.76194763183594,84.08439636230469,-6.262165069580078,86.94851684570312,-0.008660252888997395,0.457,0.31392857142857145,0.09100070529513889,-0.8788801604003922,0.19774800539016724,52.118770599365234,0.018639458550347224,-0.09122979905870225
7938,0.4051409125705296,0.5378907394409179,86.19157409667969,85.5982894897461,-6.282623291015625,87.23492431640625,-0.014570320977105035,0.45466666666666666,0.3157142857142857,0.09228244357638889,-0.5383154326171891,0.45042601227760315,52.118770599365234,0.0065920511881510414,-0.09463941786024306
7939,0.4012346625705296,0.5378907394409179,86.29386138916016,85.02546691894531,-6.221248626708984,86.90760040283203,-0.0011589898003472221,0.45166666666666666,0.3171428571428571,0.09084811740451389,-0.845923083374025,0.2856360077857971,52.118770599365234,0.014093271891276042,-0.09032054477267795
7940,0.3895159125705296,0.5179688644409179,85.68012237548828,85.1072998046875,-6.630409240722656,87.27584838867188,-0.00843293931749132,0.448,0.31857142857142856,0.08892559475368923,-0.9008528166503922,0.2197200059890747,52.118770599365234,0.006364695231119792,-0.09895841810438367
7941,0.4129534125705296,0.478125114440918,85.57783508300781,83.61386108398438,-6.487205505371094,87.43951416015625,-0.0011589898003472221,0.44533333333333336,0.32035714285714284,0.08657582600911458,-1.0546575957031266,0.19774800539016724,52.118770599365234,0.02182193332248264,-0.09918577406141493
7942,0.3895159125705296,0.49804698944091796,84.14576721191406,81.85447692871094,-6.405372619628906,87.03034973144531,-0.003204769558376736,0.442,0.32142857142857145,0.08596547444661458,-1.4501520567626969,-0.3076082640380875,52.118770599365234,0.025458780924479167,-0.0937302483452691
7943,0.3973284125705296,0.5179688644409179,83.26608276367188,85.82332611083984,-7.100944519042969,87.6031723022461,-0.020480431450737847,0.43866666666666665,0.32357142857142857,0.08788799709743923,-1.3952223234863297,0.08788800239562988,52.118770599365234,-0.028413814968532985,-0.10782352023654514
7944,0.3895159125705296,0.5179688644409179,84.06393432617188,81.42485809326172,-6.8963623046875,87.68500518798828,0.0002048916286892361,0.43533333333333335,0.32535714285714284,0.08721661037868923,-1.7687460356445328,0.3185940086841583,52.118770599365234,0.029323069254557292,-0.10645963880750868
7945,0.4012346625705296,0.5179688644409179,81.19981384277344,81.01570129394531,-6.773616790771484,87.54179382324219,-0.0075236850314670135,0.43166666666666664,0.3267857142857143,0.08944439358181423,-2.1202989989013687,1.6918439865112305,52.118770599365234,0.0020456949869791666,-0.10350456237792968
7946,0.4168596625705296,0.49804698944091796,84.49356079101562,85.61874389648438,-6.855449676513672,87.5213394165039,-0.008205625745985243,0.42833333333333334,0.32821428571428574,0.09133639865451389,-2.0543829375000016,4.570176124572754,52.118770599365234,-0.012502034505208334,-0.1041865454779731
7947,0.3660784125705296,0.45820323944091795,87.21446990966797,86.5188980102539,-7.387355804443359,87.84866333007812,0.01066118876139323,0.426,0.3296428571428571,0.08794903225368923,-2.0873400145263687,5.734692096710205,52.118770599365234,0.00772857666015625,-0.1137335459391276
7948,0.3504534125705296,0.39843757629394533,87.25538635253906,82.20226287841797,-7.325981140136719,88.1146240234375,0.010206561618381077,0.42,0.33071428571428574,0.08434804280598958,-2.526779788085939,4.075806140899658,52.118770599365234,0.05614581637912326,-0.11600672403971354
7949,0.3621721625705296,0.41835948944091794,84.5140151977539,85.5982894897461,-6.9781951904296875,87.64408874511719,-0.0332098642985026,0.41733333333333333,0.33214285714285713,0.08938335842556423,-2.955235140869142,2.274101972579956,52.118770599365234,-0.012047492133246528,-0.10691426595052084
7950,0.3895159125705296,0.41835948944091794,86.21202850341797,85.5164566040039,-6.916820526123047,87.58271789550781,-0.02093505859375,0.41333333333333333,0.3335714285714286,0.09331995646158854,-3.0211512022705094,1.1205720901489258,52.118770599365234,0.00772857666015625,-0.10555042690700955
7951,0.3856096625705296,0.438281364440918,86.41661071777344,85.557373046875,-6.9781951904296875,87.5213394165039,-0.01616151597764757,0.4086666666666667,0.3360714285714286,0.09493738810221354,-2.6695982390136734,0.10986000299453735,52.118770599365234,0.009547085232204862,-0.10555038452148438
7952,0.3856096625705296,0.45820323944091795,86.29386138916016,86.96897888183594,-7.223690032958984,88.0737075805664,-0.01843460930718316,0.406,0.33785714285714286,0.0956392076280382,-2.3510042601318375,-0.6262022429199234,52.118770599365234,-0.007501305474175347,-0.114415529039171
7953,0.3817034125705296,0.45820323944091795,87.09172058105469,85.16867065429688,-7.264606475830078,88.23736572265625,-0.01616151597764757,0.40166666666666667,0.33964285714285714,0.09505945841471354,-2.537766116210939,-1.6149431639404312,52.118770599365234,0.02136722140842014,-0.11668857998318143
7954,0.3621721625705296,0.478125114440918,85.70057678222656,85.23004150390625,-7.285064697265625,88.19645690917969,-0.015252261691623263,0.39766666666666667,0.3410714285714286,0.09325892130533854,-2.878332751342775,-2.3180471831054703,52.030879974365234,0.005228169759114583,-0.1164613511827257
7955,0.3621721625705296,0.45820323944091795,82.75462341308594,85.76194763183594,-7.7555999755859375,88.42149353027344,-0.015024948120117187,0.394,0.34285714285714286,0.09002414279513889,-3.1310106688232437,-3.1529833250732437,51.4156494140625,-0.03341471354166667,-0.12418992784288195
7956,0.3817034125705296,0.438281364440918,82.73416900634766,85.06637573242188,-8.123844146728516,88.87156677246094,-0.01616151597764757,0.391,0.3432142857142857,0.08672841389973958,-2.845373766967775,-4.504261630126955,51.2398681640625,-0.02591340806749132,-0.13328234354654947
7957,0.4246721625705296,0.45820323944091795,88.50332641601562,87.15309143066406,-6.916820526123047,87.76683807373047,-0.032982550726996525,0.3873333333333333,0.34464285714285714,0.08871197170681423,-3.3946749144287125,-4.910742419311525,51.2398681640625,0.015002610948350694,-0.10759620666503907
7958,0.4090471625705296,0.45820323944091795,86.27340698242188,86.15065002441406,-6.814533233642578,87.0712661743164,-0.004568650987413194,0.38366666666666666,0.3457142857142857,0.08382932874891492,-3.504534380981447,-3.976933138916017,51.2398681640625,0.0013639662000868055,-0.0987311045328776
7959,0.3543596625705296,0.438281364440918,83.30699157714844,83.71615600585938,-7.469188690185547,87.91004180908203,0.010206561618381077,0.37966666666666665,0.34785714285714286,0.07415551079644098,-3.0321375303955094,-4.822855609008791,51.2398681640625,-0.004546271430121528,-0.11532478332519532
7960,0.3465471625705296,0.45820323944091795,41.900001525878906,83.83889770507812,-8.082927703857422,88.68744659423828,-0.01797998216417101,0.376,0.3489285714285714,0.07125642564561632,-2.955235140869142,-5.635819094726564,51.151981353759766,-0.46598773532443577,-0.1307819366455078
7961,0.3856096625705296,0.45820323944091795,82.0999755859375,83.38882446289062,-7.735141754150391,88.52378845214844,-0.012069914076063368,0.37266666666666665,0.35,0.06902872721354167,-3.4715773039550797,-5.734692233154298,50.888309478759766,-0.014320543077256944,-0.12509922451443142
7962,0.4168596625705296,0.438281364440918,87.19401550292969,84.57539367675781,-7.325981140136719,88.21691131591797,-0.029345575968424478,0.36933333333333335,0.35035714285714287,0.06722819010416667,-3.943974154541017,-5.48201431567383,50.712528228759766,0.02909579806857639,-0.11714324951171876
7963,0.4012346625705296,0.438281364440918,87.05081176757812,87.0098876953125,-7.1418609619140625,87.58271789550781,0.001341459486219618,0.36433333333333334,0.35214285714285715,0.061094411214192706,-4.042849200317384,-3.4825636320800797,50.53675079345703,0.0004547119140625,-0.1080508761935764
7964,0.4168596625705296,0.3585938262939453,86.559814453125,85.41416931152344,-7.325981140136719,87.86912536621094,0.011343129475911458,0.36133333333333334,0.3532142857142857,0.053037940131293405,-3.548477786132814,-2.6476274901123062,50.53675079345703,0.012729390462239584,-0.11327896118164063
7965,0.3895159125705296,0.3785157012939453,84.84133911132812,84.28897857666016,-7.44873046875,88.42149353027344,-0.015934202406141493,0.357,0.355,0.05047454833984375,-3.229883807250978,-2.966221468994142,50.53675079345703,0.006137339274088541,-0.12078026665581597
7966,0.3895159125705296,0.41835948944091794,85.5164566040039,84.63676452636719,-7.346439361572266,88.05325317382812,-0.0323006100124783,0.353,0.35535714285714287,0.05184783935546875,-3.548477786132814,-2.9881922178955094,50.36096954345703,0.009774356418185763,-0.11555213928222656
7967,0.4051409125705296,0.41835948944091794,83.63432312011719,83.20470428466797,-7.489646911621094,88.23736572265625,-0.007978312174479167,0.35033333333333333,0.35642857142857143,0.0494370354546441,-3.6363665037841812,-3.0211512022705094,50.36096954345703,0.004773542616102431,-0.11918902926974827
7968,0.4207659125705296,0.39843757629394533,86.47798156738281,87.70545959472656,-7.816974639892578,88.85111236572266,-0.021844270494249134,0.345,0.35714285714285715,0.0476364983452691,-3.3836885863037125,-2.526779788085939,50.36096954345703,-0.013638644748263888,-0.12964541117350262
7969,0.4324846625705296,0.3585938262939453,84.96409606933594,86.559814453125,-7.182777404785156,87.41905212402344,-0.0050232781304253475,0.3416666666666667,0.3578571428571429,0.04211298624674479,-3.976933138916017,-1.3073355131835953,50.36096954345703,-0.017730204264322917,-0.10668699476453992
7970,0.3856096625705296,0.3187500762939453,82.77508544921875,80.97477722167969,-7.387355804443359,87.72592163085938,0.009751976860894098,0.33766666666666667,0.3585714285714286,0.034331258138020834,-3.976933138916017,-2.0324102812500016,50.36096954345703,0.020003424750434026,-0.11236974928114149
7971,0.3934221625705296,0.3585938262939453,84.18669128417969,81.79310607910156,-7.387355804443359,88.19645690917969,-0.0323006100124783,0.3333333333333333,0.36,0.03698620266384549,-3.7681986265869156,-2.9881922178955094,50.36096954345703,0.02659539116753472,-0.11759791904025607
7972,0.3856096625705296,0.41835948944091794,84.26852416992188,84.49356079101562,-7.223690032958984,87.68500518798828,-0.02320815192328559,0.32866666666666666,0.3607142857142857,0.04028201633029514,-3.943974154541017,-2.230158465454103,50.36096954345703,-0.0025004069010416668,-0.11009661356608073
7973,0.4090471625705296,0.39843757629394533,85.84378051757812,82.59095764160156,-7.5305633544921875,88.31919860839844,-0.00775099860297309,0.32366666666666666,0.36142857142857143,0.037993240356445315,-3.3177725249023453,-1.8456484251709,50.36096954345703,0.03614247639973958,-0.12055291069878472
7974,0.4207659125705296,0.33867195129394534,85.557373046875,85.23004150390625,-7.612392425537109,88.31919860839844,0.010888502332899305,0.322,0.36178571428571427,0.030364100138346353,-3.0541082792968766,-0.7470480375976578,50.36096954345703,0.003637017144097222,-0.12146212259928385
7975,0.4090471625705296,0.25898443222045897,83.63432312011719,83.67523193359375,-6.5894927978515625,86.82576751708984,0.011115815904405382,0.31766666666666665,0.36214285714285716,0.02233818901909722,-3.515520709106447,-1.2084604674072281,49.7457389831543,-0.00045454237196180554,-0.09350289238823785
7976,0.4012346625705296,0.2789063262939453,83.38882446289062,82.67279052734375,-6.712242126464844,87.17355346679688,-0.018207295735677084,0.31333333333333335,0.3632142857142857,0.021788914998372395,-3.3287588530273453,-1.516068118164064,49.5699577331543,0.0079559326171875,-0.09873106214735243
7977,0.4168596625705296,0.29882820129394533,84.67768096923828,83.36836242675781,-6.814533233642578,87.37813568115234,-0.021844270494249134,0.31066666666666665,0.36392857142857143,0.02358940972222222,-2.3619905882568375,-1.0766283446044937,49.5699577331543,0.014547983805338541,-0.10214076571994357
7978,0.3856096625705296,0.33867195129394534,83.4501953125,82.36592102050781,-7.162319183349609,88.19645690917969,-0.028209008110894097,0.308,0.36357142857142855,0.025420379638671876,-1.8346620970459,-0.9008528166503922,49.5699577331543,0.012047492133246528,-0.1150975121392144
7979,0.3973284125705296,0.33867195129394534,83.85935974121094,83.61386108398438,-7.162319183349609,88.0737075805664,-0.0009316762288411458,0.305,0.3625,0.02419971889919705,-1.9774805479736344,-0.3076082640380875,49.5699577331543,0.002727762858072917,-0.11373363071017795
7980,0.3934221625705296,0.33867195129394534,86.25294494628906,83.0001220703125,-7.571479797363281,88.6669921875,-0.023435465494791665,0.30033333333333334,0.36178571428571427,0.025176239013671876,-1.9555078917236344,1.3293060064315796,49.5699577331543,0.03614247639973958,-0.12487191094292535
7981,0.3231096903483073,0.2789063262939453,86.08927917480469,85.96653747558594,-7.551021575927734,88.29874420166016,0.012025070190429688,0.3006666666666667,0.3603571428571429,0.017211405436197917,-2.790444033691408,3.779184103012085,49.5699577331543,0.0013637966579861111,-0.1205529530843099
7982,0.2957659403483073,0.219140682220459,84.26852416992188,82.52958679199219,-7.510105133056641,88.17599487304688,0.012025070190429688,0.29633333333333334,0.35964285714285715,0.012450790405273438,-3.0101648741455094,2.58171010017395,49.5699577331543,0.01932152642144097,-0.11873444451226128
7983,0.4051409125705296,0.239062557220459,89.567138671875,85.57783508300781,-7.571479797363281,88.89202880859375,-0.0323006100124783,0.29433333333333334,0.35892857142857143,0.020964940388997395,-2.537766116210939,2.285088062286377,49.5699577331543,0.04432559543185764,-0.12737231784396702
7984,0.3973284125705296,0.29882820129394533,87.43951416015625,86.68256378173828,-7.387355804443359,88.13508605957031,-0.02207158406575521,0.292,0.3578571428571429,0.028624640570746526,-2.966221468994142,2.75748610496521,49.13050842285156,0.008410559760199653,-0.11691602071126302
7985,0.4129534125705296,0.29882820129394533,87.09172058105469,86.78485107421875,-7.407814025878906,88.25782775878906,-0.015024948120117187,0.28833333333333333,0.3575,0.03152372572157118,-3.4715773039550797,0.9008520245552063,49.13050842285156,0.003409661187065972,-0.11850713094075521
7986,0.4207659125705296,0.3187500762939453,82.83645629882812,85.5982894897461,-7.346439361572266,88.0737075805664,-0.018889236450195312,0.284,0.35714285714285715,0.03326318528917101,-3.87805809313965,-0.9997259550781266,49.13050842285156,-0.030687035454644098,-0.11577941046820747
7987,0.4207659125705296,0.29882820129394533,83.16378784179688,82.07951354980469,-7.121402740478516,87.66455078125,-0.0075236850314670135,0.2793333333333333,0.3578571428571429,0.029906336466471353,-3.954960482666017,-1.3622652464599625,49.13050842285156,0.012047492133246528,-0.10873281690809462
7988,0.4442034125705296,0.25898443222045897,84.49356079101562,83.38882446289062,-7.039569854736328,87.48042297363281,0.0031599256727430558,0.2753333333333333,0.3582142857142857,0.02477955288357205,-3.7022825651855484,0.010986000299453735,48.95473098754883,0.012274848090277778,-0.10577769809299045
7989,0.3934221625705296,0.239062557220459,86.25294494628906,85.41416931152344,-7.162319183349609,87.76683807373047,-0.0013863033718532986,0.2703333333333333,0.35928571428571426,0.02252129448784722,-3.3067861967773453,1.0436700582504272,48.95473098754883,0.009319729275173612,-0.11032396952311198
7990,0.4051409125705296,0.25898443222045897,83.63432312011719,86.17111206054688,-7.1418609619140625,87.68500518798828,-0.0168434566921658,0.26566666666666666,0.36,0.025298309326171876,-3.3836885863037125,1.5709980726242065,48.95473098754883,-0.028186543782552084,-0.1091874016655816
7991,0.3934221625705296,0.2789063262939453,85.70057678222656,84.47309875488281,-7.060028076171875,87.58271789550781,-0.012979168362087673,0.26033333333333336,0.35964285714285715,0.027678638034396703,-3.3507315092773453,1.1095860004425049,48.95473098754883,0.013638644748263888,-0.10714162190755208
7992,0.3934221625705296,0.29882820129394533,84.20714569091797,84.08439636230469,-7.080486297607422,87.64408874511719,-0.02389009263780382,0.25633333333333336,0.36,0.03131010267469618,-3.0431219511718766,0.9557820558547974,48.95473098754883,0.0013638814290364584,-0.10805083380805122
7993,0.3543596625705296,0.3187500762939453,85.61874389648438,84.77996826171875,-7.162319183349609,87.66455078125,-0.009342193603515625,0.251,0.35928571428571426,0.03204252454969618,-2.845373766967775,1.1315580606460571,48.95473098754883,0.009319729275173612,-0.10918744405110677
7994,0.3621721625705296,0.3187500762939453,86.68256378173828,86.04837036132812,-7.203235626220703,87.93049621582031,-0.012297227647569445,0.24733333333333332,0.3585714285714286,0.03314111497667101,-2.7245279722900406,1.9335360527038574,49.13050842285156,0.007046593560112847,-0.1125970204671224
7995,0.4012346625705296,0.2789063262939453,84.92317199707031,86.08927917480469,-7.285064697265625,88.21691131591797,0.004523807101779514,0.24333333333333335,0.3578571428571429,0.03231714036729601,-2.856360095092775,0.9887400269508362,49.13050842285156,-0.012956746419270833,-0.1166886223687066
7996,0.3934221625705296,0.25898443222045897,83.5934066772461,83.0001220703125,-6.855449676513672,87.41905212402344,0.008160781860351563,0.24066666666666667,0.3578571428571429,0.030425135294596353,-3.548477786132814,-0.3295809202880875,48.95473098754883,0.0065920511881510414,-0.10305002000596789
7997,0.3817034125705296,0.2789063262939453,84.28897857666016,83.26608276367188,-7.080486297607422,87.62362670898438,-0.02684512668185764,0.237,0.3578571428571429,0.03188993665907118,-3.3617159300537125,-1.1974741392822281,48.95473098754883,0.011365509033203125,-0.10782347785101996
7998,0.4051409125705296,0.2789063262939453,84.26852416992188,83.63432312011719,-7.162319183349609,88.17599487304688,-0.01843460930718316,0.23366666666666666,0.3578571428571429,0.03256128099229601,-2.581711428710939,-1.4611383848876969,48.95473098754883,0.007046678331163195,-0.11487015618218316
7999,0.4090471625705296,0.25898443222045897,86.13019561767578,84.75950622558594,-7.264606475830078,88.05325317382812,0.003387239244249132,0.22933333333333333,0.3578571428571429,0.027892261081271703,-2.933262484619142,-0.3405672484130875,48.95473098754883,0.015229882134331598,-0.11464288499620226
8000,0.3973284125705296,0.19921878814697266,85.80287170410156,85.96653747558594,-7.182777404785156,87.82821655273438,0.010888502332899305,0.227,0.3575,0.021880467732747395,-3.4056612425537125,0.17577600479125977,48.95473098754883,-0.001818508572048611,-0.11123326619466146
8001,0.4246721625705296,0.17929691314697266,83.90027618408203,83.32745361328125,-7.203235626220703,87.80775451660156,-0.009114880032009548,0.22233333333333333,0.3575,0.01998842027452257,-3.207913058349611,-0.7140909605712906,48.95473098754883,0.006364695231119792,-0.11123322380913628
8002,0.4129534125705296,0.19921878814697266,84.08439636230469,83.36836242675781,-7.100944519042969,87.62362670898438,-0.01320648193359375,0.218,0.3578571428571429,0.02032411363389757,-3.3397451811523453,-1.3073355131835953,48.95473098754883,0.0079559326171875,-0.10805079142252604
8003,0.3660784125705296,0.239062557220459,82.91828918457031,83.77752685546875,-7.039569854736328,87.50088500976562,-0.014115693834092882,0.21366666666666667,0.3585714285714286,0.022033055623372395,-3.4496046477050797,-1.142544406005861,49.13050842285156,-0.009547085232204862,-0.1060050540500217
8004,0.4442034125705296,0.219140682220459,80.81111145019531,80.52470397949219,-6.9781951904296875,87.50088500976562,-0.007978312174479167,0.20833333333333334,0.35892857142857143,0.022216161092122395,-3.4715773039550797,-0.9997259550781266,48.95473098754883,0.003182305230034722,-0.10532311333550347
8005,0.4129534125705296,0.25898443222045897,85.39370727539062,83.4501953125,-7.1418609619140625,87.93049621582031,-0.015024948120117187,0.205,0.36,0.02423023647732205,-3.3946749144287125,0.6481740474700928,48.95473098754883,0.021594577365451388,-0.11191507975260416
8006,0.4363909125705296,0.25898443222045897,83.81844329833984,84.28897857666016,-6.794075012207031,87.17355346679688,-0.0043413374159071184,0.20033333333333334,0.36,0.02502369350857205,-3.504534380981447,1.219446063041687,48.95473098754883,-0.005228169759114583,-0.09964031643337673
8007,0.4012346625705296,0.2789063262939453,86.78485107421875,84.28897857666016,-6.998653411865234,87.76683807373047,-0.014797634548611112,0.19566666666666666,0.3603571428571429,0.026457977294921876,-3.0980535917968766,1.4171940088272095,48.95473098754883,0.02773191663953993,-0.10850546095106336
8008,0.4324846625705296,0.239062557220459,88.1555404663086,86.62118530273438,-6.814533233642578,87.21446990966797,-0.001613616943359375,0.19266666666666668,0.3603571428571429,0.025878143310546876,-2.6695982390136734,2.6476261615753174,48.95473098754883,0.017048390706380208,-0.10032225714789497
8009,0.3777971625705296,0.219140682220459,81.91584777832031,81.30210876464844,-6.9781951904296875,87.68500518798828,0.011115815904405382,0.18733333333333332,0.36,0.02349785698784722,-2.3839632445068375,1.4831100702285767,48.95473098754883,0.006819322374131944,-0.10736889309353298
8010,0.4559221625705296,0.219140682220459,88.78973388671875,87.31675720214844,-7.019111633300781,87.74638366699219,-0.030709415011935765,0.18633333333333332,0.35928571428571426,0.027373462253146703,-2.0983263426513687,1.0436700582504272,48.95473098754883,0.016366407606336807,-0.10850550333658854
8011,0.4598284125705296,0.219140682220459,82.26363372802734,84.75950622558594,-6.875904083251953,87.54179382324219,-0.002750142415364583,0.18233333333333332,0.35928571428571426,0.026854663425021703,-2.142269747802736,0.05493000149726868,48.95473098754883,-0.02773191663953993,-0.1046410878499349
8012,0.4559221625705296,0.19921878814697266,81.60897827148438,79.70639038085938,-6.834991455078125,87.31675720214844,-0.008205625745985243,0.179,0.3585714285714286,0.02450489468044705,-2.3619905882568375,-1.1864878111572281,48.95473098754883,0.02113986545138889,-0.10168609619140626
8013,0.3426409125705296,0.25898443222045897,85.43462371826172,85.63920593261719,-6.9781951904296875,87.21446990966797,-0.012751854790581597,0.17566666666666667,0.35892857142857143,0.026335906982421876,-2.2960745268554703,0.1538040041923523,48.95473098754883,-0.002273135715060764,-0.1021407233344184
8014,0.3777971625705296,0.25898443222045897,87.91004180908203,89.93538665771484,-7.898807525634766,88.83065795898438,-0.012069914076063368,0.174,0.3585714285714286,0.027983813815646703,-1.9994532042236344,1.3622640371322632,48.95473098754883,-0.022503831651475695,-0.130327394273546
8015,0.3621721625705296,0.25898443222045897,88.72836303710938,86.33477783203125,-7.5919342041015625,88.38057708740234,-0.004568650987413194,0.171,0.35714285714285715,0.028746710883246526,-2.548752444335939,1.0766279697418213,49.13050842285156,0.02659539116753472,-0.12191679212782118
8016,0.4676409125705296,0.239062557220459,86.53935241699219,85.98699188232422,-7.162319183349609,86.86668395996094,0.003387239244249132,0.168,0.35678571428571426,0.030180994669596353,-2.9772058897705094,0.9008520245552063,49.13050842285156,0.006137339274088541,-0.10032225714789497
8017,0.4481096625705296,0.25898443222045897,84.06393432617188,78.8880615234375,-7.060028076171875,87.78729248046875,-0.012979168362087673,0.16466666666666666,0.35678571428571426,0.03158476087782118,-2.570725100585939,-1.3952223234863297,49.13050842285156,0.057509697808159725,-0.1094146728515625
8018,0.4481096625705296,0.2789063262939453,86.90760040283203,86.15065002441406,-6.916820526123047,87.45996856689453,-0.012069914076063368,0.161,0.35678571428571426,0.03243921067979601,-2.834389346191408,0.08788800239562988,49.13050842285156,0.008410559760199653,-0.1041865454779731
8019,0.4051409125705296,0.25898443222045897,86.43707275390625,85.76194763183594,-6.794075012207031,87.21446990966797,0.010433875189887153,0.157,0.3575,0.030028406778971353,-2.955235140869142,0.7800060510635376,49.13050842285156,0.007501390245225694,-0.10009494357638889
8020,0.4207659125705296,0.25898443222045897,87.82821655273438,85.86424255371094,-7.039569854736328,87.48042297363281,-0.014343007405598959,0.153,0.3578571428571429,0.03158476087782118,-2.4279066496582047,0.7800060510635376,49.13050842285156,0.02182193332248264,-0.10577769809299045
8021,0.4246721625705296,0.219140682220459,86.35523986816406,86.35523986816406,-7.203235626220703,87.93049621582031,0.006342273288302952,0.15066666666666667,0.3578571428571429,0.028594122992621526,-2.208185809204103,0.6701459884643555,49.13050842285156,0.0,-0.1125970204671224
8022,0.4363909125705296,0.19921878814697266,85.96653747558594,85.84378051757812,-7.162319183349609,87.93049621582031,-0.010933346218532987,0.146,0.3575,0.026915698581271703,-2.559738772460939,-0.6811319761962906,49.13050842285156,0.0013639662000868055,-0.11214239332411025
8023,0.4402971625705296,0.219140682220459,85.29141998291016,84.86180114746094,-6.834991455078125,87.35768127441406,-0.01616151597764757,0.14333333333333334,0.3578571428571429,0.026702075534396703,-2.966221468994142,-1.6039568358154312,49.13050842285156,0.004773542616102431,-0.10214080810546874
8024,0.4051409125705296,0.239062557220459,82.9592056274414,84.57539367675781,-6.814533233642578,87.25538635253906,-0.01752539740668403,0.139,0.3578571428571429,0.026366424560546876,-3.0980535917968766,-1.9555078917236344,49.13050842285156,-0.017957644992404515,-0.10077688429090711
8025,0.3543596625705296,0.25898443222045897,82.20226287841797,82.48867797851562,-7.019111633300781,87.37813568115234,-0.011615286933051215,0.135,0.3585714285714286,0.02481007046169705,-2.570725100585939,-1.6808592253417984,49.13050842285156,-0.0031823900010850693,-0.10441385904947917
8026,0.3856096625705296,0.239062557220459,83.34790802001953,81.28164672851562,-7.489646911621094,88.1555404663086,-0.005250591701931423,0.132,0.3582142857142857,0.02307061089409722,-2.230158465454103,-0.5712725096435562,49.13050842285156,0.022958458794487848,-0.1182798597547743
8027,0.4090471625705296,0.219140682220459,83.5115737915039,83.32745361328125,-7.632850646972656,88.38057708740234,-0.002068201700846354,0.12766666666666668,0.3582142857142857,0.021941502888997395,-2.526779788085939,1.0107120275497437,48.95473098754883,0.002045779758029514,-0.12237141927083334
8028,0.3699846625705296,0.219140682220459,89.68988800048828,85.18913269042969,-7.510105133056641,88.50332641601562,-0.007978312174479167,0.12566666666666668,0.3578571428571429,0.02291802300347222,-3.251856463500978,2.0983259677886963,48.95473098754883,0.050008392333984374,-0.12237146165635851
8029,0.3699846625705296,0.219140682220459,83.94119262695312,85.06637573242188,-7.325981140136719,88.09416198730469,-0.005250591701931423,0.122,0.3578571428571429,0.02371148003472222,-3.548477786132814,2.13128399848938,48.95473098754883,-0.012502034505208334,-0.11577936808268229
8030,0.3856096625705296,0.19921878814697266,83.26608276367188,82.9592056274414,-7.325981140136719,88.05325317382812,-0.002068201700846354,0.11833333333333333,0.3575,0.02453541225857205,-3.526507037231447,1.2414180040359497,48.95473098754883,0.0034097459581163194,-0.11532482571072049
8031,0.3192034403483073,0.2789063262939453,85.49600219726562,82.5091323852539,-7.571479797363281,88.48286437988281,-0.022298897637261283,0.11533333333333333,0.3578571428571429,0.028746710883246526,-3.284815447875978,1.3512780666351318,48.95473098754883,0.03318744235568576,-0.12282604641384548
8032,0.3621721625705296,0.239062557220459,83.36836242675781,83.22515869140625,-7.428272247314453,88.19645690917969,0.0008868323432074653,0.11133333333333334,0.3578571428571429,0.029601160685221353,-3.6693254881591812,1.647900104522705,48.95473098754883,0.001591152615017361,-0.11805254618326823
8033,0.4481096625705296,0.239062557220459,86.68256378173828,85.92561340332031,-6.875904083251953,87.66455078125,-0.01957117716471354,0.108,0.3578571428571429,0.03152372572157118,-3.9989038878173844,1.1095860004425049,48.95473098754883,0.008410559760199653,-0.1060050540500217
8034,0.4402971625705296,0.219140682220459,81.69081115722656,86.13019561767578,-6.957736968994141,87.31675720214844,-0.012297227647569445,0.103,0.3578571428571429,0.03164579603407118,-3.6803099089355484,0.373524010181427,48.86684036254883,-0.04932649400499132,-0.10304993523491754
8035,0.5223284125705295,0.17929691314697266,77.57875061035156,76.78089141845703,-6.5894927978515625,87.23492431640625,-0.01252454121907552,0.099,0.35928571428571426,0.027831225925021703,-3.581436770507814,-1.4721247130126969,48.86684036254883,0.008865102132161459,-0.09804907904730903
8036,0.4598284125705296,0.15937503814697265,86.02790832519531,86.21202850341797,-6.8963623046875,87.45996856689453,0.010888502332899305,0.09533333333333334,0.36,0.02230767144097222,-3.559464114257814,1.0107120275497437,48.86684036254883,-0.002045779758029514,-0.10395923190646701
8037,0.3660784125705296,0.1195312786102295,84.0434799194336,84.82088470458984,-6.773616790771484,87.03034973144531,0.006342273288302952,0.09,0.3607142857142857,0.018981382581922744,-3.6473528319091812,0.8019779920578003,48.86684036254883,-0.008637830946180555,-0.0978218502468533
8038,0.3426409125705296,0.15937503814697265,83.40928649902344,82.01814270019531,-7.162319183349609,88.17599487304688,-0.027981694539388022,0.08533333333333333,0.36142857142857143,0.022216161092122395,-3.1090380125732437,-0.09887375170898594,48.86684036254883,0.0154571533203125,-0.11487015618218316
8039,0.4246721625705296,0.17929691314697266,83.79798889160156,89.34210205078125,-6.957736968994141,87.97142028808594,-0.030027474297417533,0.082,0.3607142857142857,0.026793628268771703,-2.889319079467775,0.19774800539016724,48.86684036254883,-0.06160125732421875,-0.11032396952311198
8040,0.4793596625705296,0.19921878814697266,82.61141967773438,86.47798156738281,-6.7531585693359375,86.98943328857422,-0.014797634548611112,0.07866666666666666,0.3603571428571429,0.028014289008246526,-2.801430361816408,-0.4284540587158219,48.86684036254883,-0.042961798773871525,-0.09713990953233508
8041,0.4168596625705296,0.19921878814697266,85.29141998291016,86.84622192382812,-6.855449676513672,87.66455078125,-0.0011589898003472221,0.07433333333333333,0.3610714285714286,0.026274871826171876,-2.911289828369142,-0.4174677305908219,48.86684036254883,-0.017275577121310764,-0.1057777828640408
8042,0.3582659125705296,0.19921878814697266,87.37813568115234,83.61386108398438,-6.916820526123047,87.88958740234375,-0.00775099860297309,0.07066666666666667,0.3610714285714286,0.02435230678982205,-3.1419969969482437,-0.6921183043212906,48.427391052246094,0.04182527330186632,-0.10896008809407552
8043,0.3348284125705296,0.19921878814697266,84.69813537597656,83.79798889160156,-7.080486297607422,88.1555404663086,-0.007978312174479167,0.06666666666666667,0.3603571428571429,0.02270439995659722,-2.9991785460205094,-0.8898664885253922,47.81216049194336,0.010001627604166667,-0.11373363071017795
8044,0.4129534125705296,0.13945316314697265,86.70301818847656,86.08927917480469,-7.3668975830078125,88.31919860839844,-0.006387117173936632,0.064,0.36,0.019439146253797744,-2.878332751342775,-0.20873512561035312,47.81216049194336,0.006819322374131944,-0.11873440212673611
8045,0.4207659125705296,0.1195312786102295,86.98943328857422,86.25294494628906,-6.7531585693359375,87.88958740234375,-0.003886710272894965,0.060333333333333336,0.35928571428571426,0.017150370279947917,-3.0431219511718766,-0.17577614123535312,46.933258056640625,0.008183203803168403,-0.10714162190755208
8046,0.3387346625705296,0.13945316314697265,84.92317199707031,81.24073791503906,-6.916820526123047,87.62362670898438,-0.01320648193359375,0.05633333333333333,0.3585714285714286,0.017089335123697917,-3.196926730224611,-1.560013430664064,46.40591812133789,0.04091593424479167,-0.10600496927897135
8047,0.3543596625705296,0.15937503814697265,86.53935241699219,85.47554016113281,-6.957736968994141,87.97142028808594,-0.01547957526312934,0.05266666666666667,0.3585714285714286,0.018035380045572917,-3.273829119750978,-0.3845106535644547,46.40591812133789,0.011820136176215277,-0.11032396952311198
8048,0.2996721903483073,0.15937503814697265,83.32745361328125,82.05905151367188,-6.773616790771484,87.19401550292969,-0.003204769558376736,0.049,0.3578571428571429,0.01599074469672309,-3.570450442382814,-0.5932451658935562,46.40591812133789,0.01409335666232639,-0.0996403588189019
8049,0.3817034125705296,0.15937503814697265,87.95095825195312,87.91004180908203,-7.735141754150391,88.95339965820312,-0.023435465494791665,0.046,0.35714285714285715,0.017028299967447917,-2.889319079467775,0.48338401317596436,46.40591812133789,0.0004546271430121528,-0.12987268235948352
8050,0.3113909403483073,0.15937503814697265,83.65477752685547,82.0385971069336,-7.407814025878906,87.99187469482422,0.0024779849582248262,0.041666666666666664,0.35678571428571426,0.014983707004123263,-3.4825636320800797,-0.49437012011718906,46.40591812133789,0.017957560221354165,-0.11555209689670139
8051,0.3543596625705296,0.15937503814697265,83.0001220703125,85.88470458984375,-7.776058197021484,88.13508605957031,-0.015252261691623263,0.03833333333333333,0.3557142857142857,0.017425028483072917,-3.273829119750978,-1.0876146727294937,46.40591812133789,-0.03205091688368056,-0.1212349361843533
8052,0.3738909125705296,0.17929691314697266,86.1097412109375,83.65477752685547,-7.878349304199219,88.97386169433594,-0.01547957526312934,0.035,0.35464285714285715,0.017699686686197917,-2.581711428710939,-0.6921183043212906,46.40591812133789,0.027277374267578126,-0.1316912333170573
8053,0.3895159125705296,0.13945316314697265,86.0074462890625,85.94607543945312,-7.857891082763672,88.54424285888672,0.0056603749593098955,0.031,0.35214285714285715,0.014739566379123263,-2.3949495726318375,-0.10986007983398594,46.40591812133789,0.0006818983289930556,-0.12669037712944878
8054,0.3113909403483073,0.15937503814697265,83.67523193359375,78.9494400024414,-7.816974639892578,88.93293762207031,-0.013661109076605903,0.027,0.3507142857142857,0.013640975952148438,-2.0653692656250016,-0.7140909605712906,46.40591812133789,0.05250879923502604,-0.13055458068847656
8055,0.3192034403483073,0.15937503814697265,83.73661041259766,83.42974090576172,-7.632850646972656,88.83065795898438,-0.00843293931749132,0.023,0.3482142857142857,0.013793521457248263,-2.3400179320068375,1.032684087753296,46.40591812133789,0.003409661187065972,-0.12737231784396702
8056,0.3348284125705296,0.13945316314697265,82.83645629882812,85.25050354003906,-7.346439361572266,87.78729248046875,-0.007069057888454861,0.019333333333333334,0.3464285714285714,0.013518905639648438,-2.2960745268554703,1.4281799793243408,46.40591812133789,-0.026822747124565973,-0.1125970204671224
8057,0.2879534403483073,0.13945316314697265,86.82576751708984,86.76439666748047,-7.019111633300781,87.54179382324219,-0.0059324900309244795,0.016,0.345,0.013244247436523438,-1.5819841795654312,1.1645159721374512,35.24388885498047,0.0006818983289930556,-0.10623228285047744
8058,0.2957659403483073,0.13945316314697265,81.36347961425781,82.0385971069336,-6.118961334228516,87.29630279541016,-0.008887566460503472,0.011,0.3417857142857143,0.013152694702148438,-1.4391657286376969,0.5822579860687256,26.103330612182617,-0.007501305474175347,-0.09350293477376302
8059,0.3934221625705296,0.13945316314697265,86.25294494628906,84.0434799194336,-4.216365814208984,85.08683776855469,-0.017070770263671875,0.008333333333333333,0.3389285714285714,0.01608229743109809,-1.0766283446044937,1.1205720901489258,26.103330612182617,0.02454961140950521,-0.04781337314181858
8060,0.3777971625705296,0.15937503814697265,80.40196228027344,90.32408142089844,-4.502777099609375,84.73905181884766,-0.03389176262749566,0.004666666666666667,0.3335714285714286,0.019133970472547744,0.4943700134754181,1.3732500076293945,26.015439987182617,-0.11024576822916667,-0.04713143242730035
8061,0.4207659125705296,0.1195312786102295,85.27096557617188,82.550048828125,-0.3088874816894531,80.50424194335938,-0.021389685736762153,0.0023333333333333335,0.33,0.017516581217447917,1.032684087753296,0.4614120125770569,26.015439987182617,0.030232408311631945,0.04652078416612413
8062,0.4715471625705296,0.1195312786102295,79.37905883789062,83.38882446289062,-2.0682754516601562,83.42974090576172,-0.03389176262749566,0.0013333333333333333,0.325,0.017241923014322917,2.3070600032806396,0.6811320185661316,26.015439987182617,-0.04455295138888889,-0.005533515082465278
8063,0.3152971903483073,0.1195312786102295,87.39859008789062,88.564697265625,-2.3956031799316406,81.83401489257812,-0.05162205166286892,0.0,0.32071428571428573,0.014159732394748263,1.9005780220031738,1.6039559841156006,26.015439987182617,-0.012956746419270833,0.008559799194335938
8064,0.2645159403483073,0.07968751907348633,79.64501190185547,78.86760711669922,-0.0224761962890625,81.38394165039062,-0.042984220716688365,-0.0003333333333333333,0.31464285714285717,0.008819325764973959,1.494096040725708,0.9228240251541138,26.015439987182617,0.008637830946180555,0.03992869059244792
8065,0.2879534403483073,0.05976563930511475,77.35371398925781,82.36592102050781,1.0208816528320312,81.32257080078125,-0.04616656833224826,-0.0006666666666666666,0.31107142857142855,0.006591627332899305,2.3070600032806396,0.7140899896621704,26.015439987182617,-0.05569118923611111,0.05220345391167535
8066,0.5027971625705295,0.03984375953674316,73.20074462890625,72.25967407226562,7.301486968994141,73.07799530029297,-0.09753888448079427,-0.001,0.30392857142857144,0.005584547254774305,2.065368175506592,0.08788800239562988,26.015439987182617,0.010456339518229166,0.21359435187445747
8067,0.3152971903483073,0.01992187976837158,74.46913146972656,73.79402160644531,8.815380096435547,72.01417541503906,-0.0007043626573350694,0.0,0.2985714285714286,-0.0,1.9774800539016724,0.3185940086841583,26.015439987182617,0.007501220703125,0.24223560757107204
