,WD,WS,AIL_1,AIL_2,ELEV_1,ELEV_2,RUDD,ALT,GS,TH,PTCH,ROLL,PLA_1,AIL,ELEV
5859,-0.5258484571316189,0.239062557220459,84.90271759033203,84.57539367675781,-9.085369110107422,89.73080444335938,-0.006841744316948784,0.8176666666666667,0.5164285714285715,-0.02914341820610894,-5.053560870239259,1.021697998046875,51.2398681640625,0.003636932373046875,-0.1535130394829644
5860,-0.5297547071316189,0.239062557220459,86.08927917480469,85.25050354003906,-9.064910888671875,89.77172088623047,-0.003204769558376736,0.8126666666666666,0.5167857142857143,-0.029692713419596353,-5.042574542114259,1.3732500076293945,51.2398681640625,0.009319729275173612,-0.15374035305447048
5861,-0.5258484571316189,0.25898443222045897,86.17111206054688,85.14820861816406,-9.146743774414062,89.85355377197266,-0.008887566460503472,0.808,0.5167857142857143,-0.029906336466471353,-5.086517947265627,0.7360620498657227,51.2398681640625,0.011365593804253473,-0.1555588616265191
5862,-0.5297547071316189,0.25898443222045897,85.43462371826172,84.12531280517578,-9.146743774414062,89.83309936523438,-0.011160659790039062,0.8026666666666666,0.5167857142857143,-0.029814783732096353,-5.163420336791994,-0.14281906420898594,51.2398681640625,0.014547899034288195,-0.15533159044053818
5863,-0.5297547071316189,0.239062557220459,85.82332611083984,85.76194763183594,-9.105827331542969,89.83309936523438,-0.00843293931749132,0.7983333333333333,0.5167857142857143,-0.02914341820610894,-5.240322726318361,-0.09887375170898594,51.2398681640625,0.0006819831000434028,-0.15487696329752604
5864,-0.5336609571316189,0.25898443222045897,86.0074462890625,84.22760009765625,-9.126285552978516,89.83309936523438,-0.007978312174479167,0.7933333333333333,0.5171428571428571,-0.03109647962782118,-5.262295382568361,-0.7909933500976578,51.2398681640625,0.01977606879340278,-0.1551042768690321
5865,-0.5141297071316189,0.25898443222045897,85.02546691894531,82.81600189208984,-9.105827331542969,89.85355377197266,-0.008887566460503472,0.7883333333333333,0.5171428571428571,-0.03103544447157118,-5.317225115844728,-1.2524038725585953,51.2398681640625,0.02454961140950521,-0.15510423448350694
5866,-0.5414734571316189,0.219140682220459,83.61386108398438,83.32745361328125,-9.105827331542969,89.87400817871094,-0.0054779052734375,0.783,0.5171428571428571,-0.029631678263346353,-5.306238787719728,0.0,51.2398681640625,0.003182305230034722,-0.15533150566948783
5867,-0.5336609571316189,0.239062557220459,84.16622924804688,85.12775421142578,-9.146743774414062,89.85355377197266,-2.242194281684028e-05,0.7783333333333333,0.5175,-0.030791314442952473,-5.383141177246095,1.8786060810089111,51.2398681640625,-0.01068361070421007,-0.1555588616265191
5868,-0.5336609571316189,0.2789063262939453,86.21202850341797,84.67768096923828,-9.208118438720703,89.89447021484375,-0.003204769558376736,0.773,0.5178571428571429,-0.0321645630730523,-5.50398697192383,2.1532559394836426,51.2398681640625,0.017048305935329862,-0.1566954294840495
5869,-0.5336609571316189,0.25898443222045897,84.96409606933594,85.14820861816406,-9.208118438720703,89.85355377197266,-0.01547957526312934,0.768,0.5185714285714286,-0.030486149258083767,-5.580889361450197,1.538040041923523,51.2398681640625,-0.0020456949869791666,-0.15624080234103732
5870,-0.5297547071316189,0.25898443222045897,86.31431579589844,85.0050048828125,-9.146743774414062,89.87400817871094,-0.011387973361545138,0.7616666666666667,0.5185714285714286,-0.02908238304985894,-5.547930377075197,1.0876140594482422,51.2398681640625,0.014547899034288195,-0.1557861328125
5871,-0.5336609571316189,0.25898443222045897,85.33233642578125,84.53446960449219,-9.22857666015625,89.89447021484375,-0.013661109076605903,0.7566666666666667,0.5189285714285714,-0.028533077239990233,-5.613846438476564,0.5493000149726868,51.2398681640625,0.008865186903211806,-0.15692274305555556
5872,-0.5453797071316189,0.25898443222045897,85.65966796875,85.0459213256836,-9.208118438720703,89.85355377197266,-0.003659396701388889,0.751,0.5192857142857142,-0.029295995500352646,-5.690748828002931,0.6371880173683167,51.2398681640625,0.006819407145182292,-0.15624080234103732
5873,-0.5375672071316189,0.25898443222045897,85.78240966796875,84.92317199707031,-9.16720199584961,89.77172088623047,-0.01320648193359375,0.745,0.52,-0.02905186547173394,-5.756664889404298,0.09887400269508362,51.2398681640625,0.009547085232204862,-0.15487692091200086
5874,-0.5414734571316189,0.25898443222045897,85.76194763183594,84.69813537597656,-9.126285552978516,89.79217529296875,-0.009796820746527778,0.7393333333333333,0.5203571428571429,-0.028655147552490233,-5.690748828002931,-0.2416922026367203,51.2398681640625,0.011820136176215277,-0.15464956495496962
5875,-0.5375672071316189,0.25898443222045897,85.49600219726562,84.92317199707031,-9.16720199584961,89.81263732910156,-0.010933346218532987,0.734,0.5210714285714285,-0.02889927758110894,-5.646805422851564,-0.5712725096435562,51.2398681640625,0.006364780002170139,-0.155331548055013
5876,-0.5453797071316189,0.25898443222045897,85.84378051757812,85.1072998046875,-9.146743774414062,89.83309936523438,-0.008205625745985243,0.728,0.5210714285714285,-0.029875818888346353,-5.679762499877931,-0.8898664885253922,51.2398681640625,0.008183119032118056,-0.15533159044053818
5877,-0.5414734571316189,0.2789063262939453,85.65966796875,83.38882446289062,-9.126285552978516,89.91493225097656,-0.00775099860297309,0.7223333333333334,0.5214285714285715,-0.03137112723456489,-5.668776171752931,-1.4171949797363297,51.2398681640625,0.02523159450954861,-0.15601353115505642
5878,-0.5414734571316189,0.25898443222045897,84.18669128417969,83.0410385131836,-9.208118438720703,89.95584106445312,-0.007069057888454861,0.717,0.5217857142857143,-0.03106596204969618,-5.668776171752931,-0.8898664885253922,51.2398681640625,0.012729475233289931,-0.15737732781304253
5879,-0.5492859571316189,0.25898443222045897,84.45263671875,84.37080383300781,-9.208118438720703,89.91493225097656,-0.0066144307454427086,0.7116666666666667,0.5221428571428571,-0.03109647962782118,-5.734692233154298,0.5053560137748718,51.2398681640625,0.0009092542860243056,-0.15692278544108074
5880,-0.5414734571316189,0.25898443222045897,85.557373046875,85.20958709716797,-9.269493103027344,89.91493225097656,-0.009114880032009548,0.706,0.5225,-0.03137112723456489,-5.745678561279298,1.307334065437317,51.2398681640625,0.003864288330078125,-0.15760472615559895
5881,-0.5492859571316189,0.2789063262939453,86.0688247680664,85.02546691894531,-9.208118438720703,89.89447021484375,-0.011387973361545138,0.7,0.5232142857142857,-0.03155423270331489,-5.789621966430666,1.0986000299453735,51.2398681640625,0.011592864990234375,-0.1566954294840495
5882,-0.5492859571316189,0.2789063262939453,85.84378051757812,84.98455047607422,-9.16720199584961,89.81263732910156,-0.007069057888454861,0.694,0.5235714285714286,-0.03149319754706489,-5.800608294555666,0.6701459884643555,51.2398681640625,0.009547000461154514,-0.155331548055013
5883,-0.5531922071316189,0.2789063262939453,86.19157409667969,85.43462371826172,-9.16720199584961,89.87400817871094,-0.010478719075520834,0.6886666666666666,0.5242857142857142,-0.03158475028143989,-5.712721484252931,0.09887400269508362,51.2398681640625,0.008410559760199653,-0.15601344638400608
5884,-0.5492859571316189,0.29882820129394533,86.08927917480469,84.32989501953125,-9.22857666015625,89.91493225097656,-0.00843293931749132,0.6826666666666666,0.5246428571428572,-0.03274438646104601,-5.701735156127931,-0.8898664885253922,50.976200103759766,0.019548712836371527,-0.1571500990125868
5885,-0.5492859571316189,0.2789063262939453,85.1072998046875,83.92073059082031,-9.146743774414062,89.79217529296875,-0.014570320977105035,0.6773333333333333,0.5246428571428572,-0.03164578543768989,-5.734692233154298,-1.1974741392822281,50.27307891845703,0.013184102376302083,-0.1548768785264757
5886,-0.5492859571316189,0.2789063262939453,85.0459213256836,83.96165466308594,-9.16720199584961,89.79217529296875,-0.003886710272894965,0.672,0.525,-0.032774893442789714,-5.690748828002931,-0.5932451658935562,49.5699577331543,0.01204740736219618,-0.15510419209798176
5887,-0.5492859571316189,0.2789063262939453,84.5958480834961,83.4501953125,-9.16720199584961,89.79217529296875,-0.006159803602430555,0.666,0.5246428571428572,-0.03332419925265842,-5.613846438476564,-0.15380539233398594,48.69105911254883,0.012729475233289931,-0.15510419209798176
5888,-0.5492859571316189,0.2789063262939453,84.77996826171875,84.82088470458984,-9.105827331542969,89.83309936523438,-0.00843293931749132,0.6606666666666666,0.5246428571428572,-0.032957998911539714,-5.536944048950197,0.5822579860687256,46.40591812133789,-0.0004546271430121528,-0.15487696329752604
5889,-0.5492859571316189,0.2789063262939453,86.08927917480469,85.72103881835938,-9.064910888671875,89.68988800048828,-0.0054779052734375,0.655,0.5232142857142857,-0.03359884685940213,-5.47102798754883,0.8019779920578003,45.79069137573242,0.004091559516059028,-0.1528310987684462
5890,-0.5492859571316189,0.29882820129394533,85.78240966796875,84.30943298339844,-9.044452667236328,89.66943359375,-0.009342193603515625,0.65,0.5221428571428571,-0.03454487058851454,-5.339195864746095,-0.16478981311035312,45.79069137573242,0.016366407606336807,-0.1523765140109592
5891,-0.5492859571316189,0.2789063262939453,84.554931640625,82.75462341308594,-9.023994445800781,89.71034240722656,-0.008660252888997395,0.6453333333333333,0.52,-0.03381246990627713,-5.207365649291994,-0.5712725096435562,45.79069137573242,0.020003424750434026,-0.15260374281141492
5892,-0.5531922071316189,0.25898443222045897,83.75706481933594,84.20714569091797,-9.064910888671875,89.68988800048828,-0.008660252888997395,0.6406666666666667,0.5189285714285714,-0.0322255982293023,-5.086517947265627,0.5822579860687256,45.79069137573242,-0.00500089857313368,-0.1528310987684462
5893,-0.5492859571316189,0.2789063262939453,85.43462371826172,85.18913269042969,-9.044452667236328,89.66943359375,-0.004568650987413194,0.636,0.5175,-0.032896963755289714,-4.987644808837892,1.4062080383300781,45.79069137573242,0.0027276780870225696,-0.1523765140109592
5894,-0.5492859571316189,0.2789063262939453,86.25294494628906,85.02546691894531,-9.064910888671875,89.66943359375,-0.011387973361545138,0.631,0.5164285714285715,-0.032774893442789714,-4.888771670410158,0.7580339908599854,45.70280075073242,0.013638644748263888,-0.15260382758246527
5895,-0.5492859571316189,0.25898443222045897,85.94607543945312,84.5140151977539,-9.044452667236328,89.64897155761719,-0.012979168362087673,0.6263333333333333,0.5142857142857142,-0.03161526785956489,-4.822855609008791,-0.09887375170898594,45.70280075073242,0.015911780463324653,-0.15214915805392795
5896,-0.5492859571316189,0.25898443222045897,85.27096557617188,84.22760009765625,-9.003536224365234,89.68988800048828,-0.009114880032009548,0.622,0.5128571428571429,-0.030760796864827473,-4.767923968383791,-0.21972145373535312,45.70280075073242,0.011592949761284723,-0.15214915805392795
5897,-0.5492859571316189,0.25898443222045897,85.0459213256836,84.39126586914062,-9.044452667236328,89.66943359375,-0.006387117173936632,0.6183333333333333,0.5107142857142857,-0.03121854994032118,-4.734966891357423,0.04394400119781494,45.70280075073242,0.0072739495171440975,-0.1523765140109592
5898,-0.5492859571316189,0.25898443222045897,85.08683776855469,84.30943298339844,-9.044452667236328,89.68988800048828,-0.008660252888997395,0.6136666666666667,0.5092857142857142,-0.03146267996893989,-4.767923968383791,0.13183200359344482,45.70280075073242,0.008637830946180555,-0.1526037851969401
5899,-0.5492859571316189,0.25898443222045897,85.1072998046875,84.71859741210938,-9.044452667236328,89.71034240722656,-0.009569507175021702,0.609,0.5075,-0.030943902333577473,-4.877785342285158,0.2746500074863434,45.70280075073242,0.0043189154730902775,-0.152831056382921
5900,-0.5531922071316189,0.25898443222045897,85.29141998291016,83.92073059082031,-9.003536224365234,89.66943359375,-0.007296371459960938,0.6046666666666667,0.5060714285714286,-0.03127958509657118,-5.020601885864259,0.19774800539016724,45.70280075073242,0.015229882134331598,-0.15192188686794705
5901,-0.5531922071316189,0.239062557220459,84.92317199707031,84.554931640625,-9.044452667236328,89.73080444335938,-0.01002409193250868,0.5996666666666667,0.505,-0.030394596523708767,-5.152434008666994,0.35155200958251953,45.17546081542969,0.004091559516059028,-0.15305841233995227
5902,-0.5570984571316189,0.239062557220459,85.5164566040039,83.81844329833984,-9.023994445800781,89.68988800048828,-0.0054779052734375,0.595,0.5039285714285714,-0.030425114101833767,-5.306238787719728,0.41746801137924194,44.91178894042969,0.01886681450737847,-0.15237647162543402
5903,-0.5570984571316189,0.239062557220459,85.08683776855469,84.39126586914062,-9.003536224365234,89.6080551147461,-0.007296371459960938,0.5896666666666667,0.5028571428571429,-0.029540136125352646,-5.383141177246095,0.6591600179672241,44.91178894042969,0.00772857666015625,-0.15123990376790364
5904,-0.5610047071316189,0.239062557220459,85.29141998291016,85.0050048828125,-9.003536224365234,89.54668426513672,-0.011160659790039062,0.5843333333333334,0.5021428571428571,-0.02886876000298394,-5.4380709105224625,0.8898659944534302,44.91178894042969,0.0031823900010850693,-0.1505580054389106
5905,-0.5610047071316189,0.239062557220459,86.19157409667969,84.94363403320312,-8.94216537475586,89.46485137939453,-0.00843293931749132,0.5783333333333334,0.5007142857142857,-0.02899083031548394,-5.372154849121095,0.5493000149726868,43.68132781982422,0.013866000705295138,-0.14896685282389324
5906,-0.5610047071316189,0.219140682220459,85.0459213256836,84.26852416992188,-8.901248931884766,89.48530578613281,-0.012069914076063368,0.573,0.5,-0.027770169576009116,-5.295252459594728,0.0,42.538761138916016,0.008637746175130209,-0.14873949686686197
5907,-0.5610047071316189,0.219140682220459,85.39370727539062,84.88226318359375,-8.839874267578125,89.42393493652344,-0.0075236850314670135,0.567,0.4982142857142857,-0.027068286471896703,-5.262295382568361,0.1538040041923523,41.83563995361328,0.005682712131076389,-0.1473756578233507
5908,-0.5688172071316189,0.219140682220459,85.68012237548828,84.32989501953125,-8.696666717529297,89.34210205078125,-0.00843293931749132,0.5616666666666666,0.49714285714285716,-0.02712931103176541,-5.218350070068361,-0.05493034655761875,41.57196807861328,0.015002526177300347,-0.14487520853678384
5909,-0.5688172071316189,0.219140682220459,84.6572265625,83.98210144042969,-41.900001525878906,89.28073120117188,-0.009342193603515625,0.556,0.4953571428571429,-0.026641050974527996,-5.075533526489259,-0.12084640795898594,41.48408126831055,0.007501390245225694,-0.5131192525227865
5910,-0.5688172071316189,0.19921878814697266,84.98455047607422,84.57539367675781,-8.533004760742188,89.23981475830078,-0.009114880032009548,0.5506666666666666,0.49392857142857144,-0.025389862060546876,-4.910742419311525,0.3954960107803345,41.48408126831055,0.00454618665907118,-0.1419202168782552
5911,-0.5727234571316189,0.19921878814697266,85.37325286865234,84.6572265625,-41.900001525878906,89.19889831542969,-0.009342193603515625,0.5453333333333333,0.49214285714285716,-0.025542449951171876,-4.778910296508791,0.6481740474700928,41.48408126831055,0.007955847846137152,-0.5122099982367622
5912,-0.5805359571316189,0.19921878814697266,85.35279846191406,84.98455047607422,-8.492088317871094,89.17843627929688,-0.008887566460503472,0.5403333333333333,0.49107142857142855,-0.02517624961005317,-4.669050829956056,0.5822579860687256,41.48408126831055,0.004091644287109375,-0.14078360663519965
5913,-0.5883484571316189,0.19921878814697266,85.76194763183594,84.96409606933594,-8.73758316040039,89.6080551147461,-0.011842600504557292,0.5353333333333333,0.48857142857142855,-0.02468798425462511,-4.647078173706056,0.14281800389289856,41.48408126831055,0.00886501736111111,-0.14828486972384983
5914,-0.6000672071316189,0.19921878814697266,86.39614868164062,85.31187438964844,-9.596820831298828,90.32408142089844,-0.015706888834635415,0.532,0.4860714285714286,-0.02404713100857205,-4.954685824462892,-0.48338379199218906,41.48408126831055,0.012047492133246528,-0.16578780280219185
5915,-0.6156922071316189,0.19921878814697266,86.0688247680664,84.26852416992188,-9.883232116699219,90.73324584960938,-0.01002409193250868,0.529,0.48214285714285715,-0.02398609585232205,-5.833567278930666,-1.1974741392822281,41.48408126831055,0.02000333997938368,-0.17351642184787328
5916,-0.6352234571316189,0.17929691314697266,85.02546691894531,84.0025634765625,-41.900001525878906,90.95828247070312,-0.006841744316948784,0.5266666666666666,0.47964285714285715,-0.024382813771565755,-6.723433154174806,-1.4501520567626969,41.48408126831055,0.011365593804253473,-0.5317587110731337
5917,-0.6586609571316189,0.17929691314697266,85.0459213256836,84.5958480834961,-10.210559844970703,91.24469757080078,-0.00843293931749132,0.5233333333333333,0.47464285714285714,-0.024260748757256402,-7.349634783813478,-1.2963491850585953,41.48408126831055,0.0050008138020833336,-0.18283619350857205
5918,-0.6586609571316189,0.17929691314697266,85.455078125,84.61630249023438,-9.658195495605469,90.79461669921875,-0.0066144307454427086,0.5196666666666667,0.4717857142857143,-0.02508469687567817,-7.800060885498048,-1.2414194517822281,41.48408126831055,0.009319729275173612,-0.17169791327582465
5919,-0.6586609571316189,0.17929691314697266,84.73905181884766,84.22760009765625,-9.535446166992188,90.59004211425781,-0.009569507175021702,0.5146666666666667,0.4689285714285714,-0.02508469687567817,-7.800060885498048,-1.1864878111572281,41.48408126831055,0.0056827969021267365,-0.16806098090277777
5920,-0.6469422071316189,0.17929691314697266,85.08683776855469,83.92073059082031,-9.494529724121094,90.44683837890625,-0.0022955152723524307,0.5096666666666667,0.4667857142857143,-0.026702086130777996,-7.52541031176758,-0.9338098936767594,41.48408126831055,0.012956746419270833,-0.16601520114474827
5921,-0.6391297071316189,0.17929691314697266,84.39126586914062,83.5115737915039,-9.474071502685547,90.40591430664062,-0.003204769558376736,0.504,0.4635714285714286,-0.02801429960462782,-7.371607440063478,-0.7800070219726578,41.48408126831055,0.009774356418185763,-0.16533317565917968
5922,-0.6469422071316189,0.17929691314697266,84.14576721191406,84.18669128417969,-41.900001525878906,90.38545989990234,-0.010251405504014757,0.49933333333333335,0.4614285714285714,-0.027678616841634116,-7.327662127563478,-0.2416922026367203,41.48408126831055,-0.0004547119140625,-0.5253940158420138
5923,-0.6391297071316189,0.17929691314697266,84.45263671875,83.94119262695312,-9.330867767333984,90.13996887207031,-0.0011589898003472221,0.494,0.4585714285714286,-0.02908238304985894,-7.239775317260744,0.3954960107803345,41.48408126831055,0.005682712131076389,-0.16078707377115886
5924,-0.6313172071316189,0.19921878814697266,84.71859741210938,84.88226318359375,-9.269493103027344,90.1195068359375,-0.0043413374159071184,0.48933333333333334,0.4567857142857143,-0.029601160685221353,-7.085970538208009,0.8569080233573914,41.48408126831055,-0.001818508572048611,-0.15987777709960938
5925,-0.6195984571316189,0.19921878814697266,85.557373046875,84.71859741210938,-9.249034881591797,90.09904479980469,-0.009114880032009548,0.4846666666666667,0.4546428571428571,-0.03002839618259006,-6.954138415405275,0.6921180486679077,41.48408126831055,0.009319729275173612,-0.15942310757107206
5926,-0.6117859571316189,0.19921878814697266,84.80043029785156,84.0025634765625,-9.22857666015625,90.09904479980469,-0.01252454121907552,0.4796666666666667,0.45321428571428574,-0.029448583390977646,-6.932167666503908,0.5053560137748718,41.48408126831055,0.008865186903211806,-0.15919579399956596
5927,-0.6156922071316189,0.19921878814697266,84.554931640625,84.39126586914062,-9.330867767333984,90.42637634277344,-0.009569507175021702,0.47533333333333333,0.4496428571428571,-0.029265477922227646,-7.107943194458009,0.8678940534591675,41.48408126831055,0.001818508572048611,-0.16396937900119357
5928,-0.6156922071316189,0.219140682220459,85.557373046875,85.25050354003906,-9.28995132446289,90.54912567138672,-0.0066144307454427086,0.4716666666666667,0.4471428571428571,-0.029875818888346353,-7.426537173339845,1.0546560287475586,41.48408126831055,0.003409661187065972,-0.16487863328721789
5929,-0.6195984571316189,0.219140682220459,85.86424255371094,85.1072998046875,-9.187660217285156,90.18087768554688,-0.012069914076063368,0.468,0.4442857142857143,-0.03027253680759006,-7.734144824096681,0.4394400119781494,41.48408126831055,0.008410474989149305,-0.15965042114257813
5930,-0.6156922071316189,0.219140682220459,85.70057678222656,84.24806213378906,-9.105827331542969,90.0785903930664,-0.010251405504014757,0.4633333333333333,0.4421428571428571,-0.030455631679958767,-7.657242434570314,-0.4174677305908219,41.48408126831055,0.016139051649305555,-0.1576046413845486
5931,-0.6078797071316189,0.19921878814697266,84.80043029785156,84.08439636230469,-9.064910888671875,90.0172119140625,-0.012979168362087673,0.45866666666666667,0.43892857142857145,-0.029814783732096353,-7.382591860839845,-0.7470480375976578,41.48408126831055,0.0079559326171875,-0.15646803114149305
5932,-0.5922547071316189,0.19921878814697266,84.20714569091797,83.67523193359375,-9.044452667236328,90.03767395019531,-0.0059324900309244795,0.4533333333333333,0.4367857142857143,-0.030486149258083767,-7.228788989135744,-0.4394403868408219,41.48408126831055,0.005910152859157986,-0.15646807352701822
5933,-0.5883484571316189,0.19921878814697266,84.73905181884766,84.53446960449219,-8.94216537475586,89.93538665771484,-0.007069057888454861,0.449,0.43392857142857144,-0.03134062025282118,-7.239775317260744,0.06591600179672241,41.48408126831055,0.002273135715060764,-0.15419502258300782
5934,-0.5766297071316189,0.219140682220459,85.06637573242188,83.67523193359375,-8.655750274658203,89.71034240722656,-0.007069057888454861,0.44466666666666665,0.43214285714285716,-0.0322561158074273,-7.206816332885744,0.17577600479125977,41.48408126831055,0.0154571533203125,-0.14851214090983073
5935,-0.5688172071316189,0.219140682220459,84.02302551269531,83.65477752685547,-8.717124938964844,89.58760070800781,-0.008205625745985243,0.44,0.43,-0.0322866333855523,-6.954138415405275,0.5822579860687256,41.48408126831055,0.004091644287109375,-0.14783028496636286
5936,-0.5610047071316189,0.239062557220459,84.73905181884766,84.16622924804688,-8.73758316040039,89.64897155761719,-0.003659396701388889,0.43533333333333335,0.4282142857142857,-0.033019034067789714,-6.657517092773439,1.1645159721374512,41.48408126831055,0.006364695231119792,-0.14873949686686197
5937,-0.5610047071316189,0.239062557220459,84.84133911132812,85.12775421142578,-8.758041381835938,89.71034240722656,-0.011160659790039062,0.43133333333333335,0.425,-0.03271386888292101,-6.580614703247072,1.4062080383300781,41.48408126831055,-0.0031823900010850693,-0.1496487087673611
5938,-0.5649109571316189,0.239062557220459,86.08927917480469,85.5982894897461,-8.717124938964844,89.64897155761719,-0.011615286933051215,0.427,0.4232142857142857,-0.03332419925265842,-6.646530764648439,1.032684087753296,41.48408126831055,0.005455440945095486,-0.1485121832953559
5939,-0.5610047071316189,0.25898443222045897,86.33477783203125,85.02546691894531,-8.594379425048828,89.567138671875,-0.01002409193250868,0.423,0.4207142857142857,-0.03430072996351454,-6.668503420898439,-0.04394401843261875,41.48408126831055,0.014547899034288195,-0.1462390899658203
5940,-0.5610047071316189,0.239062557220459,84.41172790527344,83.40928649902344,-8.307964324951172,89.36256408691406,-0.015024948120117187,0.41833333333333333,0.41928571428571426,-0.03350729412502713,-6.624558108398439,-0.8788801604003922,41.48408126831055,0.011138237847222222,-0.14078364902072482
5941,-0.5610047071316189,0.239062557220459,83.92073059082031,83.79798889160156,-8.22613525390625,89.17843627929688,-0.011842600504557292,0.4146666666666667,0.41678571428571426,-0.032896963755289714,-6.41582550341797,-0.4174677305908219,41.48408126831055,0.0013637966579861111,-0.13782857259114584
5942,-0.5570984571316189,0.239062557220459,85.02546691894531,85.31187438964844,-8.246593475341797,89.13752746582031,-0.009569507175021702,0.4096666666666667,0.41535714285714287,-0.03381246990627713,-6.163147585937502,0.2746500074863434,41.48408126831055,-0.003182305230034722,-0.1376013437906901
5943,-0.5531922071316189,0.25898443222045897,86.35523986816406,86.02790832519531,-8.246593475341797,89.13752746582031,-0.01002409193250868,0.4056666666666667,0.4125,-0.03555191887749566,-5.9653994017334,0.13183200359344482,41.48408126831055,0.003637017144097222,-0.1376013437906901
5944,-0.5531922071316189,0.25898443222045897,86.27340698242188,84.554931640625,-8.16476058959961,89.09660339355469,-0.010478719075520834,0.4013333333333333,0.4107142857142857,-0.03652844958835178,-5.910469668457033,-0.9008528166503922,41.48408126831055,0.019094170464409723,-0.1362373775906033
5945,-0.5531922071316189,0.239062557220459,84.84133911132812,84.30943298339844,-7.776058197021484,88.83065795898438,-0.011387973361545138,0.3973333333333333,0.4082142857142857,-0.03588760164048937,-5.899483340332033,-1.2194467955322281,41.48408126831055,0.0059100680881076385,-0.12896351284450955
5946,-0.5531922071316189,0.239062557220459,85.18913269042969,85.14820861816406,-7.735141754150391,88.64653015136719,-0.010251405504014757,0.3933333333333333,0.40714285714285714,-0.03637586169772678,-5.690748828002931,-0.834936755249025,41.48408126831055,0.0004547119140625,-0.12646302117241753
5947,-0.5492859571316189,0.25898443222045897,85.80287170410156,85.08683776855469,-7.7555999755859375,88.62606811523438,-0.009569507175021702,0.389,0.40464285714285714,-0.03857306374443902,-5.383141177246095,-0.7690206938476578,41.48408126831055,0.0079559326171875,-0.12646297878689236
5948,-0.5453797071316189,0.25898443222045897,85.37325286865234,84.02302551269531,-7.735141754150391,88.62606811523438,-0.009796820746527778,0.385,0.40285714285714286,-0.04003786510891384,-5.196379321166994,-1.0766283446044937,41.48408126831055,0.015002526177300347,-0.1262356652153863
5949,-0.5414734571316189,0.25898443222045897,84.41172790527344,83.96165466308594,-7.714683532714844,88.564697265625,-0.012751854790581597,0.38133333333333336,0.4,-0.03961062961154514,-5.086517947265627,-0.856909411499025,41.48408126831055,0.0050008138020833336,-0.12532645331488715
5950,-0.5414734571316189,0.25898443222045897,85.02546691894531,85.33233642578125,-7.632850646972656,88.50332641601562,-0.010478719075520834,0.37733333333333335,0.3982142857142857,-0.03982425265842014,-5.020601885864259,-0.09887375170898594,41.48408126831055,-0.003409661187065972,-0.1237353006998698
5951,-0.5453797071316189,0.2789063262939453,86.0074462890625,85.23004150390625,-7.5305633544921875,88.33966064453125,-0.01002409193250868,0.37366666666666665,0.39571428571428574,-0.04156370162963867,-4.965672152587892,0.06591600179672241,41.48408126831055,0.008637830946180555,-0.12078026665581597
5952,-0.5492859571316189,0.2789063262939453,85.80287170410156,84.73905181884766,-7.612392425537109,88.27828979492188,-0.010251405504014757,0.37066666666666664,0.3939285714285714,-0.0431200451321072,-4.844826357910158,-0.2966219359130875,41.48408126831055,0.011820220947265625,-0.12100758022732205
5953,-0.5570984571316189,0.2789063262939453,84.71859741210938,84.22760009765625,-7.551021575927734,88.29874420166016,-0.012751854790581597,0.367,0.3925,-0.043028502994113496,-4.789896624633791,-0.4723993712158219,41.48408126831055,0.005455525716145834,-0.1205529530843099
5954,-0.5570984571316189,0.2789063262939453,85.20958709716797,85.12775421142578,-7.489646911621094,88.29874420166016,-0.01320648193359375,0.363,0.39035714285714285,-0.04235713746812608,-4.833840029785158,-0.10986007983398594,41.48408126831055,0.0009092542860243056,-0.11987101236979167
5955,-0.5570984571316189,0.2789063262939453,86.29386138916016,86.21202850341797,-7.121402740478516,87.97142028808594,-0.010251405504014757,0.35933333333333334,0.38857142857142857,-0.042723327212863496,-4.899756091186525,0.010986000299453735,41.48408126831055,0.0009092542860243056,-0.11214247809516059
5956,-0.5610047071316189,0.29882820129394533,86.76439666748047,85.16867065429688,-6.9781951904296875,87.72592163085938,-0.009796820746527778,0.3556666666666667,0.3867857142857143,-0.04489001168145074,-4.822855609008791,-0.7690206938476578,35.50756072998047,0.017730289035373263,-0.10782352023654514
5957,-0.5610047071316189,0.29882820129394533,84.77996826171875,82.97966003417969,-6.834991455078125,87.68500518798828,-0.011160659790039062,0.3516666666666667,0.385,-0.04604964786105686,-4.603134768554689,-1.7467752867431656,35.41967010498047,0.020003424750434026,-0.10577774047851562
5958,-0.5570984571316189,0.2789063262939453,82.91828918457031,82.61141967773438,-6.507663726806641,87.48042297363281,-0.01320648193359375,0.3473333333333333,0.3817857142857143,-0.04553087022569444,-4.471302645751955,-1.3183199339599625,35.41967010498047,0.003409661187065972,-0.09986763000488282
5959,-0.5531922071316189,0.2789063262939453,84.0025634765625,84.92317199707031,-6.4462890625,87.21446990966797,-0.009569507175021702,0.3433333333333333,0.3796428571428571,-0.04711773130628798,-4.295527117797853,-0.05493034655761875,35.41967010498047,-0.010228983561197917,-0.09623065524631076
5960,-0.5570984571316189,0.29882820129394533,85.5164566040039,84.96409606933594,-6.1394195556640625,87.15309143066406,-0.01002409193250868,0.3393333333333333,0.3757142857142857,-0.049803204006618924,-4.009890215942384,0.07690200209617615,35.41967010498047,0.006137339274088541,-0.09213901095920139
5961,-0.5531922071316189,0.29882820129394533,84.96409606933594,83.63432312011719,-5.7507171630859375,86.68256378173828,-0.013433795505099827,0.335,0.37357142857142855,-0.05047456953260634,-3.7901712828369156,-0.6152159147949234,35.41967010498047,0.014775254991319445,-0.08259201049804688
5962,-0.5492859571316189,0.2789063262939453,83.30699157714844,83.49111938476562,-5.730258941650391,86.559814453125,-0.01616151597764757,0.332,0.3707142857142857,-0.04897925059000651,-3.3836885863037125,-0.6042314940185562,35.41967010498047,-0.002045864529079861,-0.08100081549750435
5963,-0.5492859571316189,0.2789063262939453,84.45263671875,84.63676452636719,-5.791633605957031,86.53935241699219,-0.01320648193359375,0.3283333333333333,0.36892857142857144,-0.0483384026421441,-2.9772058897705094,0.02197200059890747,35.41967010498047,-0.002045864529079861,-0.08145540025499132
5964,-0.5570984571316189,0.2789063262939453,85.49600219726562,85.0050048828125,-5.382472991943359,86.39614868164062,-0.010933346218532987,0.325,0.365,-0.048582532670762804,-2.7574869566650406,0.3185940086841583,35.41967010498047,0.005455525716145834,-0.07531801859537761
5965,-0.5610047071316189,0.2789063262939453,85.49600219726562,84.28897857666016,-5.157432556152344,85.96653747558594,-0.010478719075520834,0.32166666666666666,0.36214285714285716,-0.04913182788425022,-2.548752444335939,0.07690200209617615,35.41967010498047,0.013411373562282987,-0.06804411146375867
5966,-0.5531922071316189,0.2789063262939453,83.90027618408203,83.5934066772461,-5.177890777587891,85.90515899658203,-0.01252454121907552,0.31833333333333336,0.35892857142857143,-0.04907080332438151,-2.0983263426513687,-0.18676246936035312,40.42940139770508,0.003409661187065972,-0.06758944193522136
5967,-0.5570984571316189,0.2789063262939453,83.85935974121094,83.63432312011719,-5.259723663330078,85.92561340332031,-0.012979168362087673,0.31533333333333335,0.35714285714285715,-0.048643567827012804,-1.7028299742431656,0.13183200359344482,42.97821044921875,0.0025004069010416668,-0.06872596740722656
5968,-0.5570984571316189,0.2789063262939453,84.49356079101562,83.65477752685547,-5.177890777587891,85.92561340332031,-0.011615286933051215,0.31233333333333335,0.35535714285714287,-0.048521497514512804,-1.4501520567626969,0.7690200209617615,42.97821044921875,0.009319814046223958,-0.06781671312120226
5969,-0.5649109571316189,0.2789063262939453,85.29141998291016,84.75950622558594,-4.9733123779296875,85.84378051757812,-0.010933346218532987,0.30833333333333335,0.35464285714285715,-0.04876562754313151,-1.3293062620849625,1.2963480949401855,42.97821044921875,0.005910152859157986,-0.06463436550564236
5970,-0.5727234571316189,0.29882820129394533,85.14820861816406,84.86180114746094,-4.7482757568359375,85.57783508300781,-0.012751854790581597,0.305,0.3535714285714286,-0.048490979936387804,-1.1974741392822281,0.9997260570526123,43.241878509521484,0.003182305230034722,-0.05917900933159722
5971,-0.5805359571316189,0.29882820129394533,83.22515869140625,83.22515869140625,-4.5846099853515625,85.37325286865234,-0.011842600504557292,0.302,0.3525,-0.0481552971733941,-0.9338098936767594,0.36253800988197327,48.251609802246094,0.0,-0.05508736504448785
5972,-0.5844422071316189,0.2789063262939453,82.24317932128906,81.77264404296875,-5.177890777587891,85.78240966796875,-0.012979168362087673,0.29933333333333334,0.3532142857142857,-0.04727031919691298,-0.49437012011718906,0.2856360077857971,52.118770599365234,0.005228169759114583,-0.0662255605061849
5973,-0.6078797071316189,0.2789063262939453,84.61630249023438,83.61386108398438,-5.3620147705078125,86.0688247680664,-0.012979168362087673,0.2956666666666667,0.35464285714285715,-0.04620223575168186,-0.19774879748535312,1.340291976928711,52.64611053466797,0.011138237847222222,-0.07145377265082466
5974,-0.6274109571316189,0.29882820129394533,85.53691101074219,85.06637573242188,-5.3620147705078125,86.13019561767578,-0.010933346218532987,0.2926666666666667,0.35714285714285715,-0.04592757754855686,-0.4064833098144547,2.065368175506592,51.855098724365234,0.005228169759114583,-0.07213567097981771
5975,-0.6352234571316189,0.29882820129394533,85.14820861816406,84.73905181884766,-5.341556549072266,86.04837036132812,-0.014115693834092882,0.2886666666666667,0.3582142857142857,-0.04510363472832574,-0.7800070219726578,1.581984043121338,55.810150146484375,0.00454618665907118,-0.07099918789333767
5976,-0.6430359571316189,0.2789063262939453,85.0050048828125,85.1072998046875,-5.402931213378906,86.15065002441406,-0.018889236450195312,0.2853333333333333,0.36142857142857143,-0.041899384392632376,-0.9228254729003922,0.8019779920578003,55.98592758178711,-0.0011366102430555556,-0.07281756930881077
5977,-0.6781922071316189,0.25898443222045897,41.900001525878906,84.45263671875,-5.505218505859375,86.33477783203125,-0.01752539740668403,0.282,0.36428571428571427,-0.03851202858818902,-0.9118391447753922,0.16479000449180603,55.98592758178711,-0.47280705769856773,-0.07599995930989584
5978,-0.6860047071316189,0.239062557220459,84.02302551269531,83.49111938476562,-6.016670227050781,86.94851684570312,-0.012297227647569445,0.2783333333333333,0.3678571428571429,-0.03658948474460178,-1.0876146727294937,-0.13183273608398594,55.546478271484375,0.0059100680881076385,-0.08850207858615451
5979,-0.6820984571316189,0.219140682220459,82.85691833496094,83.552490234375,-6.180332183837891,87.0712661743164,-0.013888380262586805,0.2743333333333333,0.37,-0.03451435301038954,-1.7028299742431656,-0.04394401843261875,54.579689025878906,-0.00772857666015625,-0.09168442620171441
5980,-0.7289734571316189,0.219140682220459,84.554931640625,83.26608276367188,-6.2007904052734375,87.17355346679688,-0.013888380262586805,0.2713333333333333,0.37285714285714283,-0.0322561158074273,-2.482836382934572,0.7140899896621704,52.030879974365234,0.014320543077256944,-0.09304826524522569
5981,-0.7406922071316189,0.219140682220459,85.70057678222656,84.86180114746094,-6.057586669921875,86.82576751708984,-0.012069914076063368,0.2673333333333333,0.375,-0.030516666836208767,-2.9772058897705094,1.4062080383300781,51.767208099365234,0.009319729275173612,-0.08759282430013021
5982,-0.7524109571316189,0.219140682220459,85.43462371826172,84.75950622558594,-5.627967834472656,86.62118530273438,-0.010478719075520834,0.2633333333333333,0.37857142857142856,-0.029601160685221353,-3.4166475706787125,1.0546560287475586,51.2398681640625,0.007501305474175347,-0.08054614596896702
5983,-0.7524109571316189,0.19921878814697266,86.47798156738281,86.08927917480469,-5.914379119873047,86.41661071777344,-0.011160659790039062,0.259,0.3807142857142857,-0.02743448681301541,-3.4715773039550797,1.06564199924469,50.0094108581543,0.0043189154730902775,-0.08145544264051649
5984,-0.7563172071316189,0.219140682220459,84.41172790527344,84.39126586914062,-6.1394195556640625,87.0712661743164,-0.009114880032009548,0.25466666666666665,0.38321428571428573,-0.027770169576009116,-3.0431219511718766,0.5932440161705017,49.7457389831543,0.00022735595703125,-0.09122984144422742
5985,-0.7524109571316189,0.19921878814697266,83.0410385131836,82.69325256347656,-6.159877777099609,87.13264465332031,-0.01070603264702691,0.25033333333333335,0.3846428571428571,-0.027526028951009116,-3.229883807250978,-0.48338379199218906,49.7457389831543,0.003864288330078125,-0.09213913811577691
5986,-0.7992859571316189,0.19921878814697266,83.67523193359375,82.9592056274414,-6.1394195556640625,87.17355346679688,-0.015252261691623263,0.24633333333333332,0.3867857142857143,-0.024840566847059462,-3.6253801756591812,-0.3625379973144547,49.7457389831543,0.007955847846137152,-0.09236636691623264
5987,-0.8305359571316189,0.17929691314697266,86.64164733886719,85.27096557617188,-6.118961334228516,87.15309143066406,-0.010478719075520834,0.242,0.38821428571428573,-0.02242974705166287,-3.845101016113283,0.36253800988197327,49.7457389831543,0.01522979736328125,-0.09191169738769531
5988,-0.8305359571316189,0.17929691314697266,87.68500518798828,86.58027648925781,-6.098503112792969,87.1121826171875,-0.01002409193250868,0.23866666666666667,0.39071428571428574,-0.021941481696234808,-3.932987826416017,0.3954960107803345,47.72426986694336,0.01227476331922743,-0.09122984144422742
5989,-0.8344422071316189,0.19921878814697266,86.35523986816406,86.92805480957031,-6.118961334228516,87.05081176757812,-0.008660252888997395,0.234,0.3917857142857143,-0.02261284722222222,-3.856087344238283,-0.4174677305908219,47.72426986694336,-0.006364610460069444,-0.09077525668674045
5990,-0.8188172071316189,0.17929691314697266,81.36347961425781,82.85691833496094,-6.180332183837891,87.1121826171875,-0.009569507175021702,0.22933333333333333,0.39285714285714285,-0.023833513259887695,-3.7022825651855484,-1.6918455534667984,47.72426986694336,-0.016593763563368055,-0.09213905334472657
5991,-0.8813172071316189,0.19921878814697266,84.61630249023438,82.73416900634766,-6.118961334228516,87.23492431640625,-0.012751854790581597,0.22633333333333333,0.39357142857142857,-0.022765429814656575,-3.6912962370605484,-1.2524038725585953,47.72426986694336,0.020912594265407987,-0.09282095167371962
5992,-0.9047547071316189,0.15937503814697265,87.72592163085938,87.0712661743164,-6.118961334228516,86.84622192382812,-0.01661614312065972,0.222,0.3942857142857143,-0.01989686754014757,-3.559464114257814,0.9667680263519287,47.72426986694336,0.0072739495171440975,-0.08850203620062934
5993,-0.8735047071316189,0.15937503814697265,87.50088500976562,87.5213394165039,-7.039569854736328,87.84866333007812,-0.008660252888997395,0.218,0.39464285714285713,-0.020629262924194335,-3.1090380125732437,1.6698720455169678,47.54848861694336,-0.00022727118598090277,-0.10986925760904948
5994,-0.8344422071316189,0.17929691314697266,84.08439636230469,85.0459213256836,-6.855449676513672,87.91004180908203,-0.008205625745985243,0.21366666666666667,0.39464285714285713,-0.023345247904459635,-3.6583391600341812,0.5493000149726868,47.54848861694336,-0.01068361070421007,-0.10850546095106336
5995,-0.8383484571316189,0.17929691314697266,82.07951354980469,81.75218200683594,-6.7531585693359375,87.5213394165039,-0.010933346218532987,0.21,0.395,-0.023650413089328342,-4.3944002562255875,-0.6921183043212906,47.54848861694336,0.003637017144097222,-0.10304997762044271
5996,-0.8813172071316189,0.15937503814697265,83.98210144042969,83.5934066772461,-6.466747283935547,87.13264465332031,-0.01547957526312934,0.20633333333333334,0.39571428571428574,-0.021239598592122395,-4.493275302001955,0.2197200059890747,45.17546081542969,0.004318830702039931,-0.09554879930284288
5997,-0.8891297071316189,0.15937503814697265,84.35034942626953,83.73661041259766,-6.609951019287109,87.1121826171875,-0.01002409193250868,0.202,0.39571428571428574,-0.01995789739820692,-4.141722338745119,1.8346620798110962,44.99967956542969,0.006819322374131944,-0.09691259596082899
5998,-0.8461609571316189,0.15937503814697265,85.63920593261719,85.23004150390625,-6.630409240722656,87.21446990966797,-0.009796820746527778,0.19733333333333333,0.39535714285714285,-0.020812363094753688,-3.91101707751465,2.680583953857422,43.76921844482422,0.004546271430121528,-0.09827643500434027
5999,-0.8578797071316189,0.15937503814697265,85.31187438964844,84.0434799194336,-6.691783905029297,87.72592163085938,-0.015934202406141493,0.194,0.395,-0.019072914123535158,-3.7681986265869156,2.680583953857422,42.97821044921875,0.014093271891276042,-0.10464117262098524
6000,-0.8656922071316189,0.15937503814697265,85.82332611083984,85.63920593261719,-6.507663726806641,87.29630279541016,-0.015024948120117187,0.19033333333333333,0.3942857142857143,-0.01654002931382921,-4.064819949218752,2.7245280742645264,42.89031982421875,0.002045779758029514,-0.0978218502468533
6001,-0.8735047071316189,0.15937503814697265,85.455078125,84.77996826171875,-6.548576354980469,86.96897888183594,-0.014343007405598959,0.18566666666666667,0.3939285714285714,-0.014922650655110677,-4.108765261718752,2.2191720008850098,41.57196807861328,0.007501220703125,-0.0946395026312934
6002,-0.9086609571316189,0.17929691314697266,86.37569427490234,85.63920593261719,-6.5894927978515625,87.21446990966797,-0.015252261691623263,0.18266666666666667,0.39285714285714285,-0.011993047926161024,-3.8011576109619156,1.8676199913024902,41.13251876831055,0.008183203803168403,-0.09782180786132813
6003,-0.9203797071316189,0.15937503814697265,88.97386169433594,84.06393432617188,-6.323539733886719,86.94851684570312,-0.013661109076605903,0.179,0.3917857142857143,-0.009826363457573786,-3.845101016113283,1.307334065437317,40.95674133300781,0.05455474853515625,-0.09191173977322048
6004,-0.9203797071316189,0.13945316314697265,87.76683807373047,87.37813568115234,-5.7507171630859375,86.08927917480469,-0.01002409193250868,0.17466666666666666,0.39035714285714285,-0.007781749301486545,-3.7462259703369156,1.7797319889068604,40.95674133300781,0.0043189154730902775,-0.07599995930989584
6005,-0.9281922071316189,0.13945316314697265,85.53691101074219,84.73905181884766,-6.282623291015625,87.23492431640625,-0.012751854790581597,0.17133333333333334,0.3889285714285714,-0.006591595543755426,-3.207913058349611,0.12084600329399109,40.95674133300781,0.008865102132161459,-0.09463941786024306
6006,0.9975890706461589,0.13945316314697265,89.46485137939453,87.64408874511719,-6.1394195556640625,86.92805480957031,-0.014570320977105035,0.16766666666666666,0.3867857142857143,-0.003021150165134006,-3.207913058349611,-0.834936755249025,40.95674133300781,0.02023069593641493,-0.08963860405815972
6007,-0.9906922071316189,0.13945316314697265,88.72836303710938,86.92805480957031,-5.914379119873047,86.58027648925781,-0.006159803602430555,0.16266666666666665,0.38571428571428573,-0.004089233610365126,-3.4056612425537125,-1.4721247130126969,40.95674133300781,0.020003424750434026,-0.0832739512125651
6008,-0.9203797071316189,0.1195312786102295,84.26852416992188,84.39126586914062,-6.118961334228516,86.62118530273438,0.0004322052001953125,0.16,0.38357142857142856,-0.008697250154283312,-3.196926730224611,-3.1310106688232437,40.95674133300781,-0.0013637966579861111,-0.08600162929958767
6009,-0.9125672071316189,0.09960939407348633,80.58607482910156,80.9543228149414,-6.282623291015625,87.27584838867188,-0.00775099860297309,0.15533333333333332,0.3825,-0.011596330006917318,-3.0211512022705094,-3.7572122984619156,40.95674133300781,-0.004091644287109375,-0.09509412977430555
6010,-0.9789734571316189,0.13945316314697265,83.49111938476562,80.56562042236328,-5.566593170166016,86.559814453125,-0.009342193603515625,0.15233333333333332,0.38035714285714284,-0.012664413452148438,-3.493548052856447,-2.0873400145263687,39.462608337402344,0.03250554402669271,-0.07918230692545573
6011,-0.9399109571316189,0.09960939407348633,84.5140151977539,84.1048583984375,-5.934837341308594,86.27340698242188,-0.0075236850314670135,0.14833333333333334,0.3792857142857143,-0.015288845698038737,-3.3727022581787125,1.0107120275497437,39.462608337402344,0.00454618665907118,-0.0800916035970052
6012,-0.8656922071316189,0.1195312786102295,84.57539367675781,82.52958679199219,-5.9757537841796875,86.70301818847656,-0.008205625745985243,0.14433333333333334,0.3767857142857143,-0.018401548597547744,-3.1529833250732437,1.2743760347366333,39.462608337402344,0.022731187608506946,-0.08531968858506944
6013,-0.8422547071316189,0.09960939407348633,83.1024169921875,82.97966003417969,-6.037128448486328,86.64164733886719,-0.015024948120117187,0.14,0.3757142857142857,-0.01760811275906033,-3.262842791625978,0.7031040191650391,39.462608337402344,0.0013639662000868055,-0.08531973097059461
6014,-0.9320984571316189,0.07968751907348633,81.17935943603516,82.57050323486328,-6.057586669921875,86.80531311035156,-0.024799346923828125,0.13733333333333334,0.37357142857142855,-0.013305266698201498,-3.3836885863037125,0.6481740474700928,39.28683090209961,-0.0154571533203125,-0.0873655531141493
6015,-0.9711609571316189,0.09960939407348633,82.44775390625,82.550048828125,-5.300640106201172,86.02790832519531,-0.012979168362087673,0.13366666666666666,0.37214285714285716,-0.012237183252970378,-3.7022825651855484,0.6481740474700928,39.28683090209961,-0.0011366102430555556,-0.07031720479329427
6016,-0.9594422071316189,0.1195312786102295,86.29386138916016,85.39370727539062,-4.605068206787109,85.35279846191406,-0.009796820746527778,0.12966666666666668,0.3707142857142857,-0.012816996044582791,-3.240870135375978,1.6588860750198364,39.28683090209961,0.010001712375217013,-0.05508740743001302
6017,-0.8266297071316189,0.09960939407348633,86.662109375,86.94851684570312,-5.5870513916015625,85.80287170410156,-0.004795964558919271,0.12533333333333332,0.3703571428571429,-0.016204346550835504,-2.208185809204103,2.2521300315856934,39.28683090209961,-0.003182305230034722,-0.0709991455078125
6018,-0.7758484571316189,0.09960939407348633,84.22760009765625,85.49600219726562,-5.239265441894531,86.19157409667969,-0.014115693834092882,0.12033333333333333,0.36857142857142855,-0.01711984740363227,-2.0983263426513687,0.6591600179672241,39.28683090209961,-0.01409335666232639,-0.07145377265082466
6019,-0.8422547071316189,0.05976563930511475,85.02546691894531,85.53691101074219,-5.8120880126953125,86.662109375,-0.031164042154947915,0.11766666666666667,0.36678571428571427,-0.011870982911851671,-2.4498793059082047,-0.6811319761962906,39.28683090209961,-0.005682712131076389,-0.08304663764105903
6020,0.9624328206461589,0.07968751907348633,84.554931640625,84.554931640625,-5.627967834472656,86.64164733886719,-0.01547957526312934,0.11533333333333333,0.36428571428571427,-0.008239497078789605,-2.7135435515136734,-1.153530734130861,39.28683090209961,0.0,-0.08077350192599826
6021,0.9389953206461589,0.07968751907348633,84.1048583984375,84.26852416992188,-5.239265441894531,85.92561340332031,-0.010251405504014757,0.111,0.3628571428571429,-0.008453114827473959,-3.0650946074218766,-1.0546575957031266,39.28683090209961,-0.001818508572048611,-0.06849865383572049
6022,0.9585265706461589,0.05976563930511475,83.1024169921875,84.12531280517578,-5.3620147705078125,85.90515899658203,-0.009342193603515625,0.10733333333333334,0.36142857142857143,-0.010528246561686197,-2.7355143004150406,-0.6591612272949234,39.28683090209961,-0.011365509033203125,-0.06963526407877604
6023,0.9585265706461589,0.05976563930511475,82.69325256347656,81.05661010742188,-4.932395935058594,85.72103881835938,-0.010478719075520834,0.10433333333333333,0.36,-0.011047029495239257,-2.6586119108886734,-0.5273291044921891,39.28683090209961,0.018184916178385416,-0.0628159417046441
6024,0.9389953206461589,0.07968751907348633,84.5140151977539,83.69569396972656,-4.830104827880859,85.43462371826172,-0.01070603264702691,0.10033333333333333,0.3585714285714286,-0.010375663969251844,-2.219172137329103,1.0766279697418213,39.28683090209961,0.009092458089192708,-0.058496983846028645
6025,-0.9164734571316189,0.05976563930511475,84.53446960449219,84.22760009765625,-4.727817535400391,85.02546691894531,-0.0059324900309244795,0.096,0.3578571428571429,-0.013000096215142145,-1.7248026304931656,1.922550082206726,39.28683090209961,0.003409661187065972,-0.05281427171495226
6026,-0.8813172071316189,0.07968751907348633,84.69813537597656,83.26608276367188,-4.523235321044922,85.23004150390625,-0.010933346218532987,0.09266666666666666,0.3560714285714286,-0.01449541515774197,-1.505081790039064,1.3512780666351318,39.28683090209961,0.015911695692274304,-0.05281418694390191
6027,-0.8656922071316189,0.03984375953674316,85.41416931152344,85.14820861816406,-5.259723663330078,85.47554016113281,-0.020025804307725693,0.088,0.35464285714285715,-0.012145630518595378,-1.3622652464599625,1.538040041923523,39.28683090209961,0.0029551188151041665,-0.06372515360514323
6028,-0.9750672071316189,0.07968751907348633,87.43951416015625,85.47554016113281,-4.605068206787109,85.49600219726562,-0.018661922878689237,0.08566666666666667,0.35214285714285715,-0.008941380182902019,-1.3293062620849625,1.219446063041687,39.28683090209961,0.02182193332248264,-0.056678560045030385
6029,-0.9594422071316189,0.07968751907348633,85.63920593261719,87.6031723022461,-4.154991149902344,84.39126586914062,-0.009796820746527778,0.082,0.3507142857142857,-0.008666732576158312,-1.3732515745849625,1.5709980726242065,39.28683090209961,-0.02182184855143229,-0.0394028557671441
6030,-0.9242859571316189,0.07968751907348633,83.16378784179688,82.59095764160156,-4.298198699951172,84.75950622558594,-0.01002409193250868,0.079,0.3489285714285714,-0.009551715850830079,-0.7909933500976578,-0.3405672484130875,39.28683090209961,0.006364780002170139,-0.04508561028374566
6031,-0.9672547071316189,0.03984375953674316,86.94851684570312,83.90027618408203,-3.9913291931152344,84.6572265625,-0.013661109076605903,0.075,0.3475,-0.008270014656914605,-0.5053564482421891,-1.2963491850585953,39.550498962402344,0.03386934068467882,-0.04053950839572483
6032,0.9233703206461589,0.07968751907348633,84.12531280517578,86.35523986816406,-4.318656921386719,84.96409606933594,-0.004568650987413194,0.072,0.3457142857142857,-0.0062254005008273655,-0.20873512561035312,-1.1974741392822281,39.726280212402344,-0.024776967366536458,-0.047586144341362845
6033,0.7944640706461589,0.05976563930511475,86.19157409667969,85.02546691894531,-4.727817535400391,85.39370727539062,-0.011387973361545138,0.06866666666666667,0.3442857142857143,-0.004363881217108833,-0.2746511870117203,-0.801977770874025,39.726280212402344,0.012956746419270833,-0.056905831231011283
6034,0.8569640706461589,0.07968751907348633,90.0785903930664,86.27340698242188,-4.298198699951172,84.94363403320312,0.00770615471733941,0.06533333333333333,0.34214285714285714,-0.005157317055596245,-0.823950427124025,0.6921180486679077,38.14426040649414,0.042279815673828124,-0.04713147481282552
6035,0.8843078206461589,0.05976563930511475,82.550048828125,88.58515930175781,-3.684459686279297,83.92073059082031,0.010206561618381077,0.062,0.3407142857142857,-0.005065764321221245,-1.2524038725585953,1.0986000299453735,36.0349006652832,-0.06705678304036458,-0.028946558634440105
6036,0.9233703206461589,0.05976563930511475,86.27340698242188,84.43218231201172,-3.745830535888672,83.98210144042969,-0.006159803602430555,0.058,0.3385714285714286,-0.006866248448689779,-1.0216986113281266,-0.17577614123535312,36.0349006652832,0.02045805189344618,-0.030310355292426216
6037,0.9038390706461589,0.09960939407348633,86.559814453125,86.70301818847656,-3.66400146484375,84.0025634765625,-0.01252454121907552,0.05366666666666667,0.33714285714285713,-0.004760599136352539,-1.0216986113281266,0.4943700134754181,46.142250061035156,-0.001591152615017361,-0.029628499348958334
6038,0.8999328206461589,0.05976563930511475,86.6007308959961,85.84378051757812,-3.5617103576660156,83.98210144042969,-0.0050232781304253475,0.04933333333333333,0.3360714285714286,-0.0061033301883273655,-0.7470480375976578,0.26366400718688965,50.09729766845703,0.008410559760199653,-0.0282645755343967
6039,0.9116515706461589,0.05976563930511475,85.72103881835938,86.15065002441406,-2.10919189453125,80.97477722167969,-0.002750142415364583,0.04466666666666667,0.33785714285714286,-0.005950747595893012,-0.19774879748535312,0.2746500074863434,50.27307891845703,-0.004773457845052083,0.021289232042100696
6040,0.8608703206461589,0.07968751907348633,86.98943328857422,87.33721923828125,-4.093616485595703,85.41416931152344,-0.01661614312065972,0.043666666666666666,0.3417857142857143,-0.003600962956746419,1.9994521141052246,0.04394400119781494,50.36096954345703,-0.003864288330078125,-0.05008650885687934
6041,0.6968078206461589,0.07968751907348633,87.95095825195312,86.64164733886719,-4.789188385009766,86.31431579589844,-0.021162372165256075,0.039,0.3425,3.0517578125e-05,1.9774800539016724,-0.6042314940185562,49.48207092285156,0.014547899034288195,-0.06781671312120226
6042,0.7514953206461589,0.07968751907348633,81.85447692871094,81.77264404296875,-4.318656921386719,85.29141998291016,-0.01002409193250868,0.035333333333333335,0.34285714285714286,-0.0008239481184217664,0.6591600179672241,-1.142544406005861,48.251609802246094,0.0009092542860243056,-0.051223076714409725
6043,0.8335265706461589,0.07968751907348633,88.50332641601562,88.38057708740234,-4.1959075927734375,84.26852416992188,0.0015687730577256945,0.03233333333333333,0.3432142857142857,-0.0038145807054307725,-0.06591667468261875,0.20873400568962097,47.46059799194336,0.0013638814290364584,-0.03849368625217014
6044,0.8882140706461589,0.07968751907348633,79.33814239501953,85.94607543945312,-4.645984649658203,85.92561340332031,-0.012979168362087673,0.030333333333333334,0.3439285714285714,-0.005431964662339952,0.07690200209617615,-0.9997259550781266,47.196929931640625,-0.07342147827148438,-0.06190664503309462
6045,0.8569640706461589,0.07968751907348633,91.98118591308594,86.35523986816406,-5.280181884765625,86.49844360351562,-0.020480431450737847,0.026333333333333334,0.3439285714285714,-0.006683148278130426,-0.03295769030761875,0.5712720155715942,47.196929931640625,0.06251051161024306,-0.07531806098090278
6046,0.9038390706461589,0.05976563930511475,81.67034912109375,82.93875122070312,-6.016670227050781,87.19401550292969,0.004523807101779514,0.023666666666666666,0.3442857142857143,-0.007140896055433485,-0.9667688780517594,0.9338099956512451,47.196929931640625,-0.01409335666232639,-0.09122984144422742
6047,0.9038390706461589,0.07968751907348633,88.19645690917969,83.5115737915039,-4.8096466064453125,85.68012237548828,-0.008887566460503472,0.019333333333333334,0.3442857142857143,-0.0061338477664523655,-1.8456484251709,0.38451001048088074,47.196929931640625,0.05205425686306424,-0.06099743313259549
6048,0.8686828206461589,0.07968751907348633,83.24562072753906,85.0459213256836,-3.1934661865234375,85.20958709716797,-0.001613616943359375,0.015,0.345,-0.005065764321221245,-1.3293062620849625,0.8459219932556152,36.65013122558594,-0.02000333997938368,-0.03781170315212674
6049,0.8022765706461589,0.03984375953674316,82.52958679199219,81.547607421875,-0.9840011596679688,81.85447692871094,-0.0054779052734375,0.01,0.34464285714285714,-0.004730081558227539,0.06591600179672241,0.04394400119781494,28.65213966369629,0.010910881890190972,0.024016910129123263
6050,0.7788390706461589,0.05976563930511475,94.45660400390625,85.98699188232422,-2.1705665588378906,82.42729949951172,-0.012297227647569445,0.006333333333333333,0.3407142857142857,-0.0023802969190809464,1.6588860750198364,0.6701459884643555,26.71855926513672,0.09410680135091146,0.004468154907226562
6051,0.8296203206461589,0.09960939407348633,78.06974792480469,79.23585510253906,0.5094337463378906,82.44775390625,-0.007069057888454861,0.004333333333333333,0.3367857142857143,-0.0004577477773030599,2.296074151992798,-0.5053564482421891,26.103330612182617,-0.012956746419270833,0.03401866488986545
6052,0.8061828206461589,0.09960939407348633,81.547607421875,83.14332580566406,-0.002017974853515625,80.23829650878906,-0.006841744316948784,0.0023333333333333335,0.3317857142857143,6.103515625e-05,2.274101972579956,-0.812964098999025,26.103330612182617,-0.017730204264322917,0.05288539462619358
6053,0.8218078206461589,0.1195312786102295,87.91004180908203,85.27096557617188,-0.08385086059570312,80.34058380126953,-0.0050232781304253475,0.0013333333333333333,0.32785714285714285,-0.0002746476067437066,2.746500015258789,-0.13183273608398594,26.103330612182617,0.029323069254557292,0.05083961486816406
6054,0.8335265706461589,0.1195312786102295,85.88470458984375,85.29141998291016,3.3940086364746094,77.8856201171875,0.0006595187717013889,0.001,0.3221428571428571,-0.0016784138149685329,2.4718501567840576,0.36253800988197327,26.103330612182617,0.0065920511881510414,0.11675987243652344
6055,0.8296203206461589,0.09960939407348633,82.59095764160156,82.93875122070312,10.656600952148438,73.13936614990234,-0.009342193603515625,0.0006666666666666666,0.31892857142857145,-0.0021361668904622396,2.526780128479004,-0.02197326953125156,26.103330612182617,-0.0038643731011284723,0.25019149780273436
6056,0.8491515706461589,0.09960939407348633,82.73416900634766,82.69325256347656,10.943012237548828,69.84562683105469,-0.003886710272894965,0.0003333333333333333,0.31107142857142855,-0.0034178627861870658,2.142270088195801,-0.801977770874025,26.103330612182617,0.0004546271430121528,0.289970948961046
6057,0.7475890706461589,0.07968751907348633,82.83645629882812,82.40684509277344,13.909420013427734,65.7540283203125,0.021117528279622395,-0.0003333333333333333,0.30642857142857144,-0.0018615139855278863,2.0763540267944336,-0.3185945921630875,26.103330612182617,0.004773457845052083,0.36839324103461374
6058,0.5835265706461589,0.05976563930511475,82.24317932128906,82.550048828125,14.768657684326172,64.95616912841797,-0.01320648193359375,0.0,0.29642857142857143,-0.0,1.3622640371322632,-0.4723993712158219,26.103330612182617,-0.003409661187065972,0.38680542839898
