,WD,WS,AIL_1,AIL_2,ELEV_1,ELEV_2,RUDD,ALT,GS,TH,PTCH,ROLL,PLA_1,AIL,ELEV
6258,0.3002826266818576,0.3785157012939453,85.20958709716797,84.43218231201172,-2.1501083374023438,82.9592056274414,-0.010933346218532987,0.948,0.5946428571428571,0.17748489379882812,2.3180460929870605,2.197200059890747,29.706819534301758,0.008637830946180555,-0.001214599609375
6259,0.3041888766818576,0.3785157012939453,85.06637573242188,84.43218231201172,-2.1705665588378906,82.9592056274414,-0.011842600504557292,0.943,0.5935714285714285,0.17849197387695312,2.361989974975586,1.812690019607544,29.706819534301758,0.007046593560112847,-0.0014419131808810764
6260,0.3002826266818576,0.3585938262939453,85.14820861816406,84.37080383300781,-2.1705665588378906,82.9592056274414,-0.011160659790039062,0.938,0.5928571428571429,0.17910232543945312,2.372976064682007,1.494096040725708,30.322050094604492,0.008637830946180555,-0.0014419131808810764
6261,0.3002826266818576,0.3585938262939453,85.0050048828125,84.30943298339844,-2.1910247802734375,82.97966003417969,-0.011160659790039062,0.9333333333333333,0.5925,0.17962112426757812,2.372976064682007,1.175502061843872,31.28883934020996,0.00772857666015625,-0.0018964979383680556
6262,0.3041888766818576,0.3585938262939453,84.96409606933594,84.32989501953125,-2.1910247802734375,83.0001220703125,-0.011842600504557292,0.928,0.5917857142857142,0.18026190863715277,2.351004123687744,0.9667680263519287,31.816179275512695,0.007046678331163195,-0.0021238538953993057
6263,0.3080951266818576,0.3585938262939453,85.0459213256836,84.32989501953125,-2.1705665588378906,82.97966003417969,-0.011160659790039062,0.923,0.5914285714285714,0.18065863715277777,2.3400180339813232,0.8239500522613525,32.4314079284668,0.007955847846137152,-0.0016691843668619792
6264,0.3080951266818576,0.3585938262939453,84.98455047607422,84.32989501953125,-2.129650115966797,82.9592056274414,-0.011842600504557292,0.918,0.5910714285714286,0.18102484809027777,2.372976064682007,0.6701459884643555,33.13452911376953,0.0072739495171440975,-0.0009872860378689237
6265,0.3080951266818576,0.3585938262939453,85.02546691894531,84.26852416992188,-2.4569778442382812,83.1024169921875,-0.011842600504557292,0.9133333333333333,0.5910714285714286,0.18136054144965277,2.4059340953826904,0.5602860450744629,33.39820098876953,0.008410474989149305,-0.006215498182508681
6266,0.3080951266818576,0.3585938262939453,85.02546691894531,84.35034942626953,-2.641101837158203,83.36836242675781,-0.011387973361545138,0.9076666666666666,0.5903571428571428,0.18154364691840277,2.0763540267944336,0.4723980128765106,33.749759674072266,0.007501305474175347,-0.01121626959906684
6267,0.3080951266818576,0.3585938262939453,84.98455047607422,84.35034942626953,-2.641101837158203,83.5115737915039,-0.011160659790039062,0.9013333333333333,0.59,0.18166571723090277,1.4721240997314453,0.3954960107803345,33.749759674072266,0.007046678331163195,-0.012807506985134548
6268,0.3080951266818576,0.3585938262939453,84.94363403320312,84.28897857666016,-2.3956031799316406,83.12287139892578,-0.010933346218532987,0.8943333333333333,0.5903571428571428,0.18172675238715277,0.9118380546569824,0.29662200808525085,33.749759674072266,0.0072739495171440975,-0.0057608286539713545
6269,0.3120013766818576,0.3585938262939453,84.90271759033203,84.30943298339844,-2.129650115966797,83.02058410644531,-0.011387973361545138,0.8883333333333333,0.5907142857142857,0.18206244574652777,0.9557820558547974,0.20873400568962097,33.749759674072266,0.0065920511881510414,-0.0016692691379123264
6270,0.3120013766818576,0.3585938262939453,84.94363403320312,84.20714569091797,-1.8636970520019531,82.79554748535156,-0.011387973361545138,0.8803333333333333,0.5914285714285714,0.18221503363715277,1.1425440311431885,0.07690200209617615,33.39820098876953,0.008183203803168403,0.00378617180718316
6271,0.3159076266818576,0.3585938262939453,84.84133911132812,84.18669128417969,-1.8841552734375,82.75462341308594,-0.011615286933051215,0.8733333333333333,0.5921428571428572,0.18245917426215277,1.450152039527893,-0.03295769030761875,32.4314079284668,0.00727386474609375,0.004013570149739584
6272,0.32372009890407993,0.3585938262939453,84.94363403320312,84.35034942626953,-1.8227806091308594,82.77508544921875,-0.012297227647569445,0.8663333333333333,0.5925,0.18279486762152777,1.6698720455169678,0.0,31.991960525512695,0.0065920511881510414,0.004468154907226562
6273,0.32372009890407993,0.3585938262939453,85.06637573242188,84.26852416992188,-1.7409477233886719,82.63188171386719,-0.010933346218532987,0.859,0.5925,0.18264227973090277,1.8676199913024902,-0.02197326953125156,31.28883934020996,0.00886501736111111,0.006968561808268229
6274,0.32372009890407993,0.3585938262939453,84.88226318359375,84.24806213378906,-2.129650115966797,82.83645629882812,-0.011387973361545138,0.8533333333333334,0.5928571428571429,0.18258124457465277,2.2301580905914307,-0.10986007983398594,31.28883934020996,0.007046678331163195,0.00037659539116753475
6275,0.32372009890407993,0.3585938262939453,84.92317199707031,84.28897857666016,-2.252399444580078,83.06149291992188,-0.010933346218532987,0.8473333333333334,0.5925,0.18261176215277777,2.109312057495117,-0.06591667468261875,31.28883934020996,0.007046593560112847,-0.0034876929389105905
6276,0.32372009890407993,0.33867195129394534,84.96409606933594,84.30943298339844,-2.272857666015625,83.1024169921875,-0.01002409193250868,0.841,0.5921428571428572,0.18245917426215277,1.768746018409729,0.010986000299453735,31.28883934020996,0.007274034288194444,-0.0041697184244791664
6277,0.32372009890407993,0.33867195129394534,84.94363403320312,84.28897857666016,-2.1910247802734375,82.97966003417969,-0.009796820746527778,0.8356666666666667,0.5921428571428572,0.18227606879340277,1.5709980726242065,0.05493000149726868,31.28883934020996,0.0072739495171440975,-0.0018964979383680556
6278,0.32762634890407993,0.33867195129394534,84.90271759033203,84.24806213378906,-2.2319412231445312,83.0001220703125,-0.009796820746527778,0.8296666666666667,0.5921428571428572,0.18221503363715277,1.6039559841156006,0.07690200209617615,31.728290557861328,0.0072739495171440975,-0.002578481038411458
6279,0.33153259890407993,0.33867195129394534,84.24806213378906,84.02302551269531,-2.2114830017089844,83.02058410644531,-0.010478719075520834,0.824,0.5921428571428572,0.18239813910590277,1.494096040725708,0.4614120125770569,31.991960525512695,0.0025004069010416668,-0.002578523423936632
6280,0.33153259890407993,0.33867195129394534,84.96409606933594,83.22515869140625,-2.313770294189453,83.06149291992188,-0.009569507175021702,0.8163333333333334,0.5921428571428572,0.18276435004340277,1.4062080383300781,1.1315580606460571,32.34352111816406,0.01932152642144097,-0.004169591267903646
6281,0.33543884890407993,0.33867195129394534,84.08439636230469,84.20714569091797,-2.2933120727539062,83.12287139892578,-0.009114880032009548,0.8096666666666666,0.5921428571428572,0.18355772230360243,1.219446063041687,2.0104379653930664,32.34352111816406,-0.0013638814290364584,-0.004624260796440972
6282,0.33543884890407993,0.33867195129394534,84.86180114746094,84.24806213378906,-2.2319412231445312,83.08195495605469,-0.009796820746527778,0.802,0.5925,0.18465635511610243,1.0107120275497437,2.372976064682007,32.34352111816406,0.006819322374131944,-0.003487735324435764
6283,0.33934509890407993,0.33867195129394534,84.98455047607422,84.35034942626953,-2.2319412231445312,82.97966003417969,-0.01002409193250868,0.794,0.5925,0.18596852620442708,0.9667680263519287,2.3839621543884277,32.34352111816406,0.007046678331163195,-0.0023511250813802085
6284,0.34325134890407993,0.33867195129394534,85.06637573242188,84.45263671875,-2.2114830017089844,83.02058410644531,-0.009114880032009548,0.7863333333333333,0.5935714285714285,0.18740285237630208,0.9667680263519287,2.1752281188964844,32.34352111816406,0.006819322374131944,-0.002578523423936632
6285,0.34715759890407993,0.33867195129394534,85.12775421142578,84.43218231201172,-2.1705665588378906,82.97966003417969,-0.010933346218532987,0.7776666666666666,0.5942857142857143,0.18865407307942708,0.8788800239562988,1.8346620798110962,32.07984924316406,0.00772857666015625,-0.0016691843668619792
6286,0.34715759890407993,0.3585938262939453,85.14820861816406,84.49356079101562,-2.1910247802734375,82.93875122070312,-0.011387973361545138,0.77,0.595,0.18963055080837674,0.8569080233573914,1.538040041923523,31.46462059020996,0.00727386474609375,-0.00144195556640625
6287,0.34715759890407993,0.3585938262939453,85.20958709716797,84.45263671875,-2.2114830017089844,83.0001220703125,-0.010933346218532987,0.7613333333333333,0.595,0.19036297268337674,0.8788800239562988,1.2304320335388184,31.28883934020996,0.008410559760199653,-0.002351167466905382
6288,0.35106384890407993,0.3585938262939453,85.14820861816406,84.32989501953125,-2.313770294189453,83.1024169921875,-0.009569507175021702,0.7526666666666667,0.5960714285714286,0.19079021877712674,0.7800060510635376,0.8898659944534302,31.28883934020996,0.00909237331814236,-0.004624303181966146
6289,0.35887634890407993,0.33867195129394534,84.90271759033203,84.22760009765625,-2.3751449584960938,83.26608276367188,-0.010933346218532987,0.7436666666666667,0.5960714285714286,0.19146160549587674,0.4614120125770569,0.5712720155715942,31.28883934020996,0.007501305474175347,-0.0071247524685329865
6290,0.35887634890407993,0.3585938262939453,84.90271759033203,84.26852416992188,-2.3751449584960938,83.26608276367188,-0.01070603264702691,0.735,0.5971428571428572,0.1920413547092014,-0.01098694140625156,0.3954960107803345,31.28883934020996,0.007046593560112847,-0.0071247524685329865
6291,0.36278259890407993,0.33867195129394534,85.0050048828125,84.28897857666016,-2.334228515625,83.24562072753906,-0.009569507175021702,0.7256666666666667,0.5982142857142857,0.1922244601779514,-0.2746511870117203,0.3185940086841583,31.200950622558594,0.007955847846137152,-0.0064427693684895836
6292,0.36668884890407993,0.33867195129394534,84.94363403320312,84.26852416992188,-2.313770294189453,83.20470428466797,-0.010251405504014757,0.716,0.5996428571428571,0.1924075656467014,-0.5492998533935562,0.23070600628852844,31.200950622558594,0.007501220703125,-0.0057608286539713545
6293,0.37059509890407993,0.33867195129394534,85.0050048828125,84.28897857666016,-2.3751449584960938,83.20470428466797,-0.010478719075520834,0.7056666666666667,0.6010714285714286,0.1924686008029514,-0.6921183043212906,0.19774800539016724,31.200950622558594,0.007955847846137152,-0.0064427693684895836
6294,0.37840759890407993,0.33867195129394534,85.02546691894531,84.26852416992188,-2.4160614013671875,83.28652954101562,-0.010478719075520834,0.6956666666666667,0.6035714285714285,0.1925906711154514,-0.9118391447753922,0.17577600479125977,31.200950622558594,0.008410474989149305,-0.007806566026475694
6295,0.37840759890407993,0.3187500762939453,85.0459213256836,84.32989501953125,-2.4160614013671875,83.36836242675781,-0.010251405504014757,0.6836666666666666,0.605,0.1925906711154514,-1.2414194517822281,0.2197200059890747,31.200950622558594,0.007955847846137152,-0.0087158203125
6296,0.38231384890407993,0.3187500762939453,85.1072998046875,84.26852416992188,-2.3751449584960938,83.30699157714844,-0.009342193603515625,0.6716666666666666,0.6067857142857143,0.1925296359592014,-1.5819841795654312,0.20873400568962097,31.200950622558594,0.009319729275173612,-0.007579294840494791
6297,0.38622009890407993,0.3187500762939453,85.0459213256836,84.43218231201172,-2.354686737060547,83.20470428466797,-0.010933346218532987,0.66,0.6089285714285714,0.1926822238498264,-1.7028299742431656,0.2856360077857971,31.200950622558594,0.006819322374131944,-0.006215455796983507
6298,0.39012634890407993,0.29882820129394533,84.92317199707031,84.35034942626953,-2.10919189453125,82.93875122070312,-0.009569507175021702,0.6473333333333333,0.6117857142857143,0.1926211886935764,-1.6259294920654312,0.26366400718688965,31.200950622558594,0.006364695231119792,-0.0005327012803819444
6299,0.39793884890407993,0.29882820129394533,41.900001525878906,84.20714569091797,-1.8432388305664062,82.79554748535156,-0.011160659790039062,0.635,0.6139285714285714,0.1930789523654514,-1.2304331236572281,0.06591600179672241,31.200950622558594,-0.4700793796115451,0.004013485378689236
6300,0.40575134890407993,0.3187500762939453,85.31187438964844,84.45263671875,-1.7614059448242188,82.69325256347656,-0.011842600504557292,0.6233333333333333,0.6171428571428571,0.1937503390842014,-0.5822588377685562,0.09887400269508362,31.200950622558594,0.009547085232204862,0.006059349907769097
6301,0.41356384890407993,0.29882820129394533,85.06637573242188,84.35034942626953,-1.8636970520019531,82.65233612060547,-0.01070603264702691,0.6126666666666667,0.6185714285714285,0.1937808566623264,0.04394400119781494,-0.06591667468261875,31.200950622558594,0.007955847846137152,0.005377409193250868
6302,0.42918884890407993,0.29882820129394533,85.57783508300781,84.5140151977539,-2.129650115966797,82.87738037109375,-0.012297227647569445,0.6026666666666667,0.6207142857142857,0.1941775851779514,0.516342043876648,-0.09887375170898594,31.200950622558594,0.011820220947265625,-7.811652289496528e-05
6303,0.42528259890407993,0.2789063262939453,41.900001525878906,84.57539367675781,-2.4160614013671875,83.34790802001953,-0.009114880032009548,0.5926666666666667,0.6210714285714286,0.1934756808810764,0.7800060510635376,0.032958000898361206,31.200950622558594,-0.4741710238986545,-0.008488549126519097
6304,0.41747009890407993,0.25898443222045897,85.25050354003906,84.30943298339844,-2.6615562438964844,83.65477752685547,-0.00775099860297309,0.584,0.6207142857142857,0.1924991183810764,0.5932440161705017,0.032958000898361206,31.200950622558594,0.010456339518229166,-0.014625930786132812
6305,0.42137634890407993,0.25898443222045897,84.98455047607422,84.14576721191406,-3.0707168579101562,83.94119262695312,-0.009342193603515625,0.5753333333333334,0.6196428571428572,0.1925601535373264,0.23070600628852844,0.032958000898361206,31.200950622558594,0.009319814046223958,-0.022354549831814237
6306,0.42528259890407993,0.2789063262939453,41.900001525878906,84.5958480834961,-3.11163330078125,84.16622924804688,-0.010933346218532987,0.5666666666666667,0.6171428571428571,0.1932010226779514,-0.4064833098144547,0.23070600628852844,31.200950622558594,-0.47439829508463544,-0.025309583875868055
6307,0.41356384890407993,0.2789063262939453,85.20958709716797,84.41172790527344,-2.9275131225585938,83.96165466308594,-0.009796820746527778,0.5566666666666666,0.6146428571428572,0.1935977511935764,-0.9008528166503922,0.20873400568962097,31.200950622558594,0.008865102132161459,-0.020990753173828126
6308,0.39012634890407993,0.3187500762939453,84.35034942626953,83.83889770507812,-2.9479713439941406,83.92073059082031,-0.0066144307454427086,0.5453333333333333,0.6121428571428571,0.1937808566623264,-0.856909411499025,-0.09887375170898594,31.200950622558594,0.0056827969021267365,-0.020763354831271702
6309,0.37450134890407993,0.39843757629394533,84.86180114746094,83.96165466308594,-2.9275131225585938,84.02302551269531,-0.011160659790039062,0.535,0.6103571428571428,0.19539820353190104,-0.9557825499267594,-0.6042314940185562,31.200950622558594,0.010001627604166667,-0.02167265150282118
6310,0.37840759890407993,0.39843757629394533,84.92317199707031,84.22760009765625,-2.8865966796875,83.87982177734375,-0.008887566460503472,0.5243333333333333,0.6075,0.19518458048502604,-1.131558077880861,-0.6591612272949234,31.200950622558594,0.00772857666015625,-0.019626871744791666
6311,0.37450134890407993,0.3785157012939453,85.14820861816406,84.16622924804688,-2.8047637939453125,83.63432312011719,-0.0066144307454427086,0.514,0.6057142857142858,0.1942081027560764,-0.834936755249025,-0.5932451658935562,31.200950622558594,0.010910881890190972,-0.015989854600694443
6312,0.37450134890407993,0.39843757629394533,85.27096557617188,84.67768096923828,-2.8047637939453125,83.61386108398438,-0.01002409193250868,0.504,0.6035714285714285,0.1942996554904514,-0.3735243254394547,-0.21972145373535312,31.200950622558594,0.0065920511881510414,-0.015762498643663195
6313,0.37840759890407993,0.3585938262939453,84.92317199707031,83.92073059082031,-2.8865966796875,83.90027618408203,-0.006841744316948784,0.49333333333333335,0.6010714285714286,0.1935061984592014,-0.17577614123535312,-0.3735243254394547,31.200950622558594,0.011138237847222222,-0.01985414293077257
6314,0.39403259890407993,0.33867195129394534,85.20958709716797,84.53446960449219,-2.9888877868652344,84.08439636230469,-0.008205625745985243,0.484,0.5978571428571429,0.1935977511935764,-0.3625379973144547,-0.10986007983398594,31.200950622558594,0.007501305474175347,-0.023036490546332465
6315,0.39012634890407993,0.3585938262939453,85.23004150390625,84.43218231201172,-2.9275131225585938,84.06393432617188,-0.009569507175021702,0.474,0.595,0.1936893039279514,-0.5822588377685562,-0.02197326953125156,31.200950622558594,0.008865102132161459,-0.022127193874782985
6316,0.38231384890407993,0.3585938262939453,85.31187438964844,84.28897857666016,-2.8865966796875,83.90027618408203,-0.008205625745985243,0.4643333333333333,0.5921428571428572,0.1935061984592014,-0.6371885710449234,-0.03295769030761875,31.200950622558594,0.011365509033203125,-0.01985414293077257
6317,0.36668884890407993,0.39843757629394533,85.41416931152344,84.5958480834961,-2.866138458251953,83.85935974121094,-0.00775099860297309,0.45366666666666666,0.59,0.1935061984592014,-0.5383154326171891,0.1538040041923523,31.200950622558594,0.009092458089192708,-0.01917220221625434
6318,0.36278259890407993,0.3785157012939453,85.47554016113281,84.45263671875,-2.8865966796875,83.75706481933594,-0.01070603264702691,0.44366666666666665,0.5867857142857142,0.1933230929904514,-0.4174677305908219,0.14281800389289856,31.200950622558594,0.011365593804253473,-0.01826290554470486
6319,0.35887634890407993,0.39843757629394533,85.02546691894531,84.0434799194336,-2.8047637939453125,83.73661041259766,-0.009796820746527778,0.43133333333333335,0.5846428571428571,0.1933536105685764,-0.4284540587158219,0.06591600179672241,31.200950622558594,0.01091096666124132,-0.017126380072699652
6320,0.36278259890407993,0.3585938262939453,86.96897888183594,87.6031723022461,-2.722930908203125,83.65477752685547,-0.015706888834635415,0.416,0.5814285714285714,0.1933536105685764,0.04394400119781494,1.3952220678329468,31.200950622558594,-0.007046593560112847,-0.015307871500651042
6321,0.2768451266818576,0.239062557220459,85.23004150390625,84.57539367675781,-2.4569778442382812,83.22515869140625,0.0020233578152126738,0.41333333333333333,0.5796428571428571,0.18609059651692708,0.06591600179672241,1.8566340208053589,31.200950622558594,0.00727386474609375,-0.007579294840494791
6322,0.2651263766818576,0.239062557220459,85.57783508300781,84.0434799194336,-2.3751449584960938,83.30699157714844,-0.006841744316948784,0.403,0.5771428571428572,0.18642628987630208,0.373524010181427,2.0983259677886963,31.200950622558594,0.017048390706380208,-0.007579294840494791
6323,0.2534076266818576,0.3585938262939453,85.35279846191406,84.22760009765625,-2.6206436157226562,83.40928649902344,-0.005250591701931423,0.39,0.5753571428571429,0.18813527425130208,0.9667680263519287,1.9555079936981201,31.200950622558594,0.012502204047309028,-0.011443667941623263
6324,0.3041888766818576,0.29882820129394533,85.63920593261719,84.69813537597656,-2.702472686767578,83.71615600585938,-0.013433795505099827,0.38433333333333336,0.5721428571428572,0.1916751437717014,0.6921180486679077,1.6698720455169678,31.200950622558594,0.010456339518229166,-0.01576254102918837
6325,0.3002826266818576,0.29882820129394533,84.41172790527344,85.1072998046875,-2.722930908203125,83.73661041259766,-0.01070603264702691,0.37333333333333335,0.5696428571428571,0.1925296359592014,0.24169200658798218,1.5160679817199707,31.200950622558594,-0.00772857666015625,-0.01621712578667535
6326,0.3041888766818576,0.33867195129394534,86.1097412109375,84.57539367675781,-2.743389129638672,83.83889770507812,-0.012979168362087673,0.36566666666666664,0.5660714285714286,0.1938418918185764,0.2526780068874359,0.8019779920578003,31.200950622558594,0.017048305935329862,-0.017580964830186632
6327,0.3002826266818576,0.3785157012939453,86.53935241699219,85.5982894897461,-2.743389129638672,83.81844329833984,-0.012297227647569445,0.356,0.5635714285714286,0.19527613321940104,0.10986000299453735,0.9557820558547974,31.200950622558594,0.010456254747178819,-0.01735369364420573
6328,0.2807513766818576,0.3785157012939453,85.98699188232422,84.71859741210938,-2.722930908203125,83.65477752685547,-0.009342193603515625,0.3463333333333333,0.56,0.1939334445529514,0.07690200209617615,0.7360620498657227,31.200950622558594,0.014093271891276042,-0.015307871500651042
6329,0.2651263766818576,0.3187500762939453,85.74149322509766,85.49600219726562,-2.0069007873535156,83.47065734863281,-0.009342193603515625,0.336,0.5585714285714286,0.1924075656467014,-0.12084640795898594,1.0546560287475586,31.200950622558594,0.0027276780870225696,-0.005306201510959201
6330,0.24559512668185765,0.2789063262939453,85.80287170410156,85.18913269042969,-2.0069007873535156,82.9592056274414,-0.007978312174479167,0.32666666666666666,0.5560714285714285,0.19115642971462674,0.2197200059890747,0.5273280143737793,31.200950622558594,0.006819322374131944,0.00037659539116753475
6331,0.24950137668185765,0.2789063262939453,85.5982894897461,85.14820861816406,-1.945526123046875,82.40684509277344,-0.012069914076063368,0.317,0.555,0.1916141086154514,0.9338099956512451,-0.2636648588867203,31.200950622558594,0.00500089857313368,0.007195875379774306
6332,0.24168887668185765,0.2789063262939453,85.16867065429688,84.71859741210938,-1.6795730590820312,82.20226287841797,-0.008205625745985243,0.30833333333333335,0.5525,0.19069866604275174,1.5270540714263916,-0.9777552061767594,31.200950622558594,0.0050008138020833336,0.012424045138888888
6333,0.24559512668185765,0.33867195129394534,84.0434799194336,84.20714569091797,-2.129650115966797,82.73416900634766,-0.013661109076605903,0.3006666666666667,0.5507142857142857,0.19082073635525174,2.274101972579956,-1.8456484251709,32.25563049316406,-0.001818508572048611,0.001513120863172743
6334,0.24559512668185765,0.29882820129394533,85.39370727539062,82.77508544921875,-1.6591148376464844,82.46821594238281,-0.010933346218532987,0.292,0.5467857142857143,0.18935589260525174,2.603682041168213,-1.3402925902099625,34.716548919677734,0.02909579806857639,0.009696324666341146
6335,0.22606387668185765,0.2789063262939453,87.35768127441406,86.84622192382812,-1.9250717163085938,82.59095764160156,-0.015024948120117187,0.2856666666666667,0.5446428571428571,0.18789113362630208,3.163968086242676,1.307334065437317,34.892330169677734,0.005682881673177083,0.005377451578776042
6336,0.12840762668185765,0.19921878814697266,85.06637573242188,85.78240966796875,-2.252399444580078,82.87738037109375,-0.0011589898003472221,0.2803333333333333,0.5414285714285715,0.18331358167860243,3.383687973022461,1.5050820112228394,36.82590866088867,-0.0079559326171875,-0.0014419979519314236
6337,0.14012637668185765,0.17929691314697266,85.25050354003906,84.61630249023438,-1.5159111022949219,82.67279052734375,-0.017070770263671875,0.2776666666666667,0.5389285714285714,0.18477842542860243,3.2408699989318848,0.38451001048088074,37.00168991088867,0.007046678331163195,0.00901442633734809
6338,0.13231387668185765,0.19921878814697266,85.557373046875,85.0050048828125,-1.8432388305664062,82.46821594238281,-0.009114880032009548,0.2733333333333333,0.5364285714285715,0.18444273206922743,3.526506185531616,0.14281800389289856,37.17747116088867,0.006137424045138889,0.007650502522786458
6339,0.11668887668185764,0.219140682220459,85.33233642578125,84.82088470458984,-1.7614059448242188,82.48867797851562,-0.005250591701931423,0.269,0.535,0.18313047620985243,3.6693241596221924,-0.6701475554199234,37.17747116088867,0.0056827969021267365,0.008332400851779513
6340,0.14012637668185765,0.239062557220459,83.47065734863281,83.1024169921875,-1.7409477233886719,82.550048828125,-0.009796820746527778,0.2643333333333333,0.5321428571428571,0.18340513441297743,3.856086015701294,-2.471850054809572,37.17747116088867,0.004091559516059028,0.007877816094292535
6341,0.23387637668185765,0.17929691314697266,85.53691101074219,85.23004150390625,-1.945526123046875,82.20226287841797,-0.020480431450737847,0.26033333333333336,0.5307142857142857,0.18627370198567708,4.218624114990234,-1.6588865690917984,37.17747116088867,0.003409661187065972,0.00946901109483507
6342,0.22215762668185765,0.219140682220459,84.94363403320312,84.61630249023438,-1.2908706665039062,81.34302520751953,-0.00775099860297309,0.25733333333333336,0.5264285714285715,0.18593800862630208,5.031588077545166,-0.2966219359130875,37.17747116088867,0.003637017144097222,0.026290045844184026
6343,0.2573138766818576,0.19921878814697266,86.64164733886719,86.13019561767578,-1.4545364379882812,81.9567642211914,-0.021389685736762153,0.259,0.5235714285714286,0.18779958089192708,5.96539831161499,-0.19774879748535312,37.17747116088867,0.0056827969021267365,0.017652214898003473
6344,0.2651263766818576,0.15937503814697265,88.78973388671875,86.27340698242188,-1.6181983947753906,81.9976806640625,-0.005705218844943577,0.25766666666666665,0.5192857142857142,0.18758595784505208,5.96539831161499,1.1535300016403198,37.17747116088867,0.027959187825520832,0.015379121568467881
6345,0.20262637668185765,0.19921878814697266,85.06637573242188,83.98210144042969,-2.6001853942871094,83.73661041259766,-0.0066144307454427086,0.254,0.5178571428571429,0.18609059651692708,5.635818004608154,0.4064820110797882,37.17747116088867,0.012047492133246528,-0.014853286743164062
6346,0.17137637668185765,0.239062557220459,85.23004150390625,84.53446960449219,-3.3366737365722656,83.90027618408203,-0.003204769558376736,0.25266666666666665,0.5142857142857142,0.18398496839735243,5.152434349060059,-0.2966219359130875,37.17747116088867,0.00772857666015625,-0.024854999118381075
6347,0.21043887668185765,0.25898443222045897,85.06637573242188,84.37080383300781,-3.275299072265625,84.53446960449219,-0.021389685736762153,0.256,0.5117857142857143,0.18633473714192708,5.119476318359375,-0.9887415343017594,37.17747116088867,0.00772857666015625,-0.031219651963975695
6348,0.21043887668185765,0.2789063262939453,85.37325286865234,83.69569396972656,-3.4594192504882812,84.35034942626953,-0.011842600504557292,0.258,0.5078571428571429,0.18563291761610243,5.262294292449951,-0.834936755249025,37.17747116088867,0.01863954332139757,-0.031219651963975695
6349,0.17918887668185765,0.25898443222045897,84.45263671875,84.14576721191406,-3.9913291931152344,84.98455047607422,-0.0034320831298828127,0.259,0.505,0.18303900824652777,5.657790184020996,-1.4062086516113297,37.17747116088867,0.003409661187065972,-0.0441764407687717
6350,0.21043887668185765,0.2789063262939453,84.37080383300781,83.32745361328125,-4.380031585693359,86.08927917480469,-0.01979849073621962,0.26466666666666666,0.49892857142857144,0.18401548597547743,6.064271926879883,-2.186215060302736,37.17747116088867,0.011592780219184027,-0.06077011956108941
6351,0.24168887668185765,0.25898443222045897,86.33477783203125,83.98210144042969,-4.789188385009766,85.1072998046875,-0.013433795505099827,0.26866666666666666,0.49464285714285716,0.18444273206922743,5.7786359786987305,-1.0876146727294937,37.17747116088867,0.026140848795572918,-0.054405424329969615
6352,0.24559512668185765,0.239062557220459,84.75950622558594,89.48530578613281,-4.993770599365234,85.27096557617188,-0.0034320831298828127,0.275,0.4882142857142857,0.18483946058485243,6.30596399307251,1.9884660243988037,37.17747116088867,-0.05250888400607639,-0.05849706861707899
6353,0.19872012668185765,0.25898443222045897,83.69569396972656,83.73661041259766,-4.789188385009766,85.57783508300781,-0.009569507175021702,0.281,0.48392857142857143,0.18300849066840277,6.382866382598877,0.3185940086841583,37.17747116088867,-0.0004546271430121528,-0.0596335940890842
6354,0.19481387668185765,0.25898443222045897,83.85935974121094,83.30699157714844,-4.993770599365234,86.23248291015625,-0.006159803602430555,0.285,0.47714285714285715,0.18267279730902777,6.360894203186035,-0.8678938322753922,37.17747116088867,0.006137424045138889,-0.06918059455023871
6355,0.24168887668185765,0.2789063262939453,83.87982177734375,83.12287139892578,-4.8096466064453125,85.82332611083984,-0.01911655002170139,0.2926666666666667,0.4725,0.18532774183485243,5.976384162902832,-0.9777552061767594,37.17747116088867,0.008410559760199653,-0.06258858574761285
6356,0.23778262668185765,0.29882820129394533,84.96409606933594,84.30943298339844,-5.11651611328125,85.94607543945312,-0.010478719075520834,0.299,0.46714285714285714,0.18468687269422743,6.097229957580566,-0.05493034655761875,37.17747116088867,0.007274034288194444,-0.06736212836371527
6357,0.22215762668185765,0.3187500762939453,84.98455047607422,84.37080383300781,-5.1983489990234375,86.0688247680664,-0.0043413374159071184,0.30366666666666664,0.4625,0.18377134535047743,5.888496398925781,0.08788800239562988,37.17747116088867,0.006819407145182292,-0.06963526407877604
6358,0.24168887668185765,0.3187500762939453,83.47065734863281,82.83645629882812,-5.239265441894531,86.74394226074219,-0.011842600504557292,0.311,0.45571428571428574,0.18532774183485243,5.668776035308838,-0.4614130430908219,37.17747116088867,0.007046678331163195,-0.07759119669596354
6359,0.2690326266818576,0.29882820129394533,87.1121826171875,86.23248291015625,-5.505218505859375,87.23492431640625,-0.01070603264702691,0.31766666666666665,0.45107142857142857,0.18676198323567708,5.449056148529053,-0.12084640795898594,37.265357971191406,0.009774441189236111,-0.0860015869140625
6360,0.22997012668185765,0.3585938262939453,85.1072998046875,84.73905181884766,-5.525676727294922,86.49844360351562,-0.014797634548611112,0.31566666666666665,0.4432142857142857,0.18447324964735243,4.504260063171387,-0.2966219359130875,37.265357971191406,0.004091644287109375,-0.07804578145345052
6361,0.14012637668185765,0.25898443222045897,84.71859741210938,83.20470428466797,-6.241706848144531,87.0712661743164,0.004296493530273437,0.3233333333333333,0.43892857142857145,0.17608116997612847,4.482288360595703,-0.823950427124025,37.265357971191406,0.01682103474934896,-0.09236636691623264
6362,0.14403262668185765,0.25898443222045897,85.90515899658203,84.53446960449219,-6.732700347900391,87.54179382324219,-0.006387117173936632,0.326,0.43142857142857144,0.17568444146050347,3.8011560440063477,-1.6698728972167984,37.17747116088867,0.015229882134331598,-0.10304993523491754
6363,0.21825137668185765,0.239062557220459,85.16867065429688,85.23004150390625,-5.832546234130859,86.94851684570312,-0.02570855882432726,0.32766666666666666,0.42714285714285716,0.17974319458007812,2.5487520694732666,-1.9884668760986344,37.17747116088867,-0.0006818983289930556,-0.08645625644259983
6364,0.23387637668185765,0.25898443222045897,84.94363403320312,84.45263671875,-6.528118133544922,87.62362670898438,-0.013661109076605903,0.33,0.4210714285714286,0.18004837036132812,2.285088062286377,-3.229883807250978,37.265357971191406,0.005455525716145834,-0.10168605380588108
6365,0.2651263766818576,0.29882820129394533,84.88226318359375,84.26852416992188,-5.914379119873047,87.13264465332031,-0.014570320977105035,0.331,0.4175,0.18044501410590277,1.8017040491104126,-3.91101707751465,37.265357971191406,0.006819322374131944,-0.089411375257704
6366,0.2729388766818576,0.2789063262939453,84.98455047607422,84.35034942626953,-7.305522918701172,88.03279113769531,-0.01320648193359375,0.3323333333333333,0.4117857142857143,0.17846145629882812,1.7577600479125977,-3.603409426757814,38.671600341796875,0.007046678331163195,-0.11487015618218316
6367,0.2690326266818576,0.2789063262939453,84.86180114746094,84.22760009765625,-6.916820526123047,87.64408874511719,-0.013661109076605903,0.3313333333333333,0.40785714285714286,0.17571495903862847,0.9228240251541138,-3.262842791625978,38.84737777709961,0.007046678331163195,-0.10623232523600261
6368,0.22997012668185765,0.239062557220459,85.0050048828125,84.30943298339844,-7.960178375244141,88.44195556640625,-0.004114023844401042,0.33366666666666667,0.40285714285714286,0.16994730631510416,0.5822579860687256,-2.845373766967775,38.84737777709961,0.00772857666015625,-0.12669037712944878
6369,0.17918887668185765,0.239062557220459,85.53691101074219,85.33233642578125,-7.469188690185547,88.70790100097656,-0.0034320831298828127,0.335,0.39964285714285713,0.16411861843532985,0.05493000149726868,-3.845101016113283,35.7712287902832,0.0022730509440104167,-0.12418988545735678
6370,0.21434512668185765,0.19921878814697266,85.25050354003906,84.67768096923828,-7.67376708984375,88.74882507324219,-0.012297227647569445,0.337,0.39357142857142857,0.1630200703938802,-0.12084640795898594,-5.229336398193361,35.6833381652832,0.006364695231119792,-0.12691769070095485
6371,0.22606387668185765,0.19921878814697266,85.72103881835938,84.86180114746094,-7.325981140136719,88.85111236572266,-0.012751854790581597,0.338,0.3896428571428571,0.1605786641438802,-0.6371885710449234,-5.174406664916994,35.6833381652832,0.009547085232204862,-0.12418992784288195
6372,0.18700137668185765,0.17929691314697266,84.24806213378906,84.92317199707031,-8.94216537475586,89.50576782226562,-0.010478719075520834,0.3383333333333333,0.3842857142857143,0.15438385009765626,-0.7140909605712906,-6.536671298095705,35.6833381652832,-0.007501220703125,-0.14942147996690539
6373,0.22215762668185765,0.19921878814697266,81.85447692871094,79.15402221679688,-7.571479797363281,89.0147705078125,-0.02389009263780382,0.3363333333333333,0.38142857142857145,0.15218658447265626,-2.0104395323486344,-8.030766146728517,35.6833381652832,0.030005052354600693,-0.12873611450195313
6374,0.2651263766818576,0.19921878814697266,85.49600219726562,85.06637573242188,-8.144302368164062,88.99431610107422,-0.01843460930718316,0.333,0.3775,0.1502030266655816,-2.922276156494142,-6.305964129516603,35.6833381652832,0.004773627387152778,-0.13487353854709203
6375,0.21434512668185765,0.219140682220459,83.69569396972656,83.18424987792969,-7.5305633544921875,87.58271789550781,0.010206561618381077,0.329,0.37607142857142856,0.1433062235514323,-3.7791849547119156,-5.855538027832033,31.552509307861328,0.005682712131076389,-0.11236979166666666
6376,0.23387637668185765,0.2789063262939453,83.83889770507812,83.36836242675781,-7.653308868408203,89.52622985839844,-0.034346389770507815,0.3243333333333333,0.37392857142857144,0.14269595675998265,-3.548477786132814,-5.50398697192383,30.322050094604492,0.005228169759114583,-0.13532820807562934
6377,0.2534076266818576,0.2789063262939453,84.39126586914062,83.47065734863281,-7.5305633544921875,87.82821655273438,-0.015934202406141493,0.31833333333333336,0.3717857142857143,0.14086490207248265,-4.35045685107422,-4.537218707153322,26.367000579833984,0.010228983561197917,-0.11509755452473959
6378,0.2729388766818576,0.25898443222045897,84.45263671875,83.79798889160156,-7.714683532714844,88.85111236572266,-0.0018409305148654514,0.31233333333333335,0.3703571428571429,0.139033932156033,-4.789896624633791,-3.548477786132814,26.367000579833984,0.00727386474609375,-0.12850884331597223
6379,0.2690326266818576,0.2789063262939453,84.63676452636719,83.85935974121094,-8.67620849609375,89.79217529296875,-0.009342193603515625,0.306,0.36892857142857144,0.137721676296658,-5.372154849121095,-2.7025572233886734,26.367000579833984,0.008637830946180555,-0.1496487087673611
6380,0.2573138766818576,0.25898443222045897,84.43218231201172,84.0025634765625,-8.307964324951172,89.54668426513672,-0.00775099860297309,0.2996666666666667,0.36607142857142855,0.13442594740125868,-6.503712313720705,-2.0214239531250016,26.367000579833984,0.004773542616102431,-0.14282942877875435
6381,0.22606387668185765,0.239062557220459,84.554931640625,83.87982177734375,-8.67620849609375,89.1579818725586,-0.00297745598687066,0.2936666666666667,0.36428571428571427,0.12942114935980903,-6.723433154174806,-1.6039568358154312,26.367000579833984,0.007501220703125,-0.14260211520724828
6382,0.21434512668185765,0.239062557220459,85.25050354003906,84.67768096923828,-8.369338989257812,89.54668426513672,-0.008205625745985243,0.2876666666666667,0.3610714285714286,0.12722396850585938,-6.943152087280275,-1.2304331236572281,26.367000579833984,0.006364695231119792,-0.14351136949327256
6383,0.22997012668185765,0.19921878814697266,85.25050354003906,84.77996826171875,-8.798957824707031,89.40347290039062,-0.021389685736762153,0.2823333333333333,0.3585714285714286,0.12618645562065972,-7.349634783813478,-1.4062086516113297,26.367000579833984,0.005228169759114583,-0.1466936747233073
6384,0.21434512668185765,0.13945316314697265,84.98455047607422,84.61630249023438,-8.798957824707031,89.68988800048828,0.008160781860351563,0.276,0.3557142857142857,0.12261598375108507,-7.250761645385744,-1.549027102539064,26.279109954833984,0.004091644287109375,-0.14987606472439235
6385,0.2534076266818576,0.15937503814697265,88.97386169433594,84.53446960449219,-8.185218811035156,89.77172088623047,-0.02389009263780382,0.27,0.3535714285714286,0.12371453179253472,-8.162598269531252,-2.252131121704103,26.279109954833984,0.049326578776041664,-0.14396599663628473
6386,0.2846576266818576,0.15937503814697265,85.43462371826172,84.82088470458984,-8.267051696777344,89.0761489868164,-0.015934202406141493,0.263,0.3514285714285714,0.12350090874565972,-8.613024371215822,-2.933262484619142,26.279109954833984,0.006819322374131944,-0.13714667426215277
6387,0.2729388766818576,0.17929691314697266,84.94363403320312,84.57539367675781,-8.144302368164062,88.87156677246094,-0.022298897637261283,0.25633333333333336,0.3510714285714286,0.12112062242296007,-8.678940432617189,-4.207638400146486,26.279109954833984,0.004091559516059028,-0.13350965711805557
6388,0.2612201266818576,0.15937503814697265,82.40684509277344,80.87248992919922,-7.182777404785156,88.78973388671875,-0.008887566460503472,0.24866666666666667,0.3507142857142857,0.11648212009006076,-8.88767494494629,-5.394127505371095,26.279109954833984,0.017048390706380208,-0.12191679212782118
6389,0.2846576266818576,0.15937503814697265,85.0459213256836,84.71859741210938,-7.632850646972656,88.27828979492188,-0.01320648193359375,0.24033333333333334,0.3510714285714286,0.1129726833767361,-8.755842822143556,-5.064547198364259,26.279109954833984,0.003636932373046875,-0.12123489379882812
6390,0.2612201266818576,0.15937503814697265,86.68256378173828,85.1072998046875,-7.489646911621094,88.25782775878906,-0.00297745598687066,0.233,0.35035714285714287,0.10824262830946181,-8.305416720458986,-3.91101707751465,26.279109954833984,0.017502933078342015,-0.11941638522677951
6391,0.24559512668185765,0.15937503814697265,84.35034942626953,84.06393432617188,-7.5305633544921875,87.25538635253906,-0.009569507175021702,0.22533333333333333,0.3507142857142857,0.10412284003363716,-8.162598269531252,-4.559191363403322,26.279109954833984,0.0031823900010850693,-0.10873277452256945
6392,0.24168887668185765,0.15937503814697265,83.49111938476562,83.0001220703125,-7.162319183349609,87.35768127441406,-0.012979168362087673,0.218,0.35035714285714287,0.09966744316948785,-7.53639663989258,-5.119476931640627,26.279109954833984,0.005455525716145834,-0.1057777828640408
6393,0.21434512668185765,0.19921878814697266,83.57295227050781,82.81600189208984,-7.346439361572266,87.48042297363281,-0.02525397406684028,0.211,0.34964285714285714,0.0963105943467882,-7.031040804931642,-4.702007906982423,26.279109954833984,0.008410559760199653,-0.10918735928005642
6394,0.20653262668185765,0.219140682220459,84.0434799194336,83.34790802001953,-7.244148254394531,88.29874420166016,-0.0018409305148654514,0.20433333333333334,0.3475,0.09277064005533854,-6.591601031372072,-3.90003074938965,26.279109954833984,0.00772857666015625,-0.11714324951171876
6395,0.23387637668185765,0.19921878814697266,83.92073059082031,83.5115737915039,-7.100944519042969,88.17599487304688,-0.01775266859266493,0.198,0.3457142857142857,0.09063449435763889,-6.40483917529297,-3.976933138916017,26.279109954833984,0.00454618665907118,-0.11418821546766493
6396,0.24559512668185765,0.19921878814697266,84.18669128417969,83.53202819824219,-7.121402740478516,88.33966064453125,-0.02320815192328559,0.192,0.3432142857142857,0.08855938381618923,-5.910469668457033,-5.51497330004883,26.279109954833984,0.007274034288194444,-0.11623403761121961
6397,0.2963763766818576,0.219140682220459,84.0434799194336,83.63432312011719,-7.039569854736328,87.88958740234375,-0.03161866929796007,0.185,0.34214285714285714,0.08715557522243923,-5.690748828002931,-5.998356478759767,26.279109954833984,0.00454618665907118,-0.11032396952311198
6398,0.2846576266818576,0.17929691314697266,84.08439636230469,83.57295227050781,-6.5894927978515625,87.05081176757812,0.0006595187717013889,0.18033333333333335,0.34,0.08007575141059028,-5.888497012207033,-4.537218707153322,26.279109954833984,0.005682712131076389,-0.09600338406032986
6399,0.2534076266818576,0.15937503814697265,84.14576721191406,83.65477752685547,-6.712242126464844,87.35768127441406,-0.0054779052734375,0.17433333333333334,0.3385714285714286,0.07284325493706598,-5.4051119261474625,-4.515246050903322,28.65213966369629,0.005455440945095486,-0.10077692667643229
6400,0.20262637668185765,0.15937503814697265,82.79554748535156,83.06149291992188,-6.303081512451172,86.74394226074219,-0.006387117173936632,0.16966666666666666,0.3364285714285714,0.06686197916666667,-5.295252459594728,-4.306513445922853,29.003700256347656,-0.0029549492730034724,-0.089411375257704
6401,0.18309512668185765,0.17929691314697266,82.57050323486328,82.01814270019531,-6.323539733886719,86.70301818847656,-0.018889236450195312,0.16366666666666665,0.33464285714285713,0.06359676784939236,-4.4163729124755875,-3.954960482666017,33.749759674072266,0.006137339274088541,-0.08918397691514757
6402,0.21434512668185765,0.15937503814697265,84.39126586914062,83.98210144042969,-5.9757537841796875,87.37813568115234,-0.012069914076063368,0.15933333333333333,0.33214285714285713,0.06097225613064236,-3.6803099089355484,-2.2960745268554703,37.529029846191406,0.004546271430121528,-0.0928209940592448
6403,0.16356387668185765,0.17929691314697266,85.82332611083984,83.94119262695312,-6.691783905029297,87.27584838867188,0.0004322052001953125,0.15433333333333332,0.33107142857142857,0.05740186903211805,-3.91101707751465,-1.7687460356445328,37.704811096191406,0.020912594265407987,-0.0996403588189019
6404,0.16356387668185765,0.15937503814697265,86.62118530273438,86.74394226074219,-6.4462890625,87.1121826171875,-0.003659396701388889,0.14966666666666667,0.33,0.055021582709418405,-4.3944002562255875,-1.4831110411376969,37.704811096191406,-0.0013639662000868055,-0.09509412977430555
6405,0.12059512668185764,0.19921878814697266,85.41416931152344,85.06637573242188,-6.650867462158203,87.562255859375,-0.002750142415364583,0.14566666666666667,0.3296428571428571,0.052458106146918405,-3.856087344238283,-2.570725100585939,37.704811096191406,0.0038643731011284723,-0.10236803690592448
6406,0.19872012668185765,0.15937503814697265,84.45263671875,84.0434799194336,-5.934837341308594,86.94851684570312,-0.01957117716471354,0.141,0.32821428571428574,0.052915869818793405,-3.8011576109619156,-4.4053865843505875,37.704811096191406,0.00454618665907118,-0.08759282430013021
6407,0.22606387668185765,0.17929691314697266,79.46089172363281,82.32501220703125,-5.280181884765625,85.86424255371094,-0.014570320977105035,0.13533333333333333,0.3275,0.05209197998046875,-3.867073672363283,-6.4377962523193375,39.550498962402344,-0.03182356092664931,-0.06827138264973959
6408,0.2534076266818576,0.239062557220459,86.0074462890625,85.90515899658203,-6.2007904052734375,87.25538635253906,-0.03411907619900174,0.13033333333333333,0.3275,0.05200042724609375,-2.823403018066408,-5.833567278930666,39.726280212402344,0.0011365254720052083,-0.09395751953125
6409,0.20653262668185765,0.239062557220459,85.37325286865234,84.67768096923828,-6.487205505371094,87.50088500976562,0.01066118876139323,0.12633333333333333,0.3271428571428571,0.04418809678819444,-2.4608656340332047,-3.163967745849611,39.814170837402344,0.00772857666015625,-0.09986767239040799
6410,0.12450137668185764,0.239062557220459,85.49600219726562,84.86180114746094,-6.609951019287109,87.64408874511719,0.011343129475911458,0.12366666666666666,0.32607142857142857,0.034544881184895834,-2.845373766967775,-2.867346423217775,39.814170837402344,0.007046678331163195,-0.10282266404893663
6411,0.12840762668185765,0.239062557220459,81.8953857421875,82.89783477783203,-6.487205505371094,87.6031723022461,-0.013661109076605903,0.11866666666666667,0.32535714285714284,0.03234765794542101,-3.493548052856447,-4.031862872192384,39.814170837402344,-0.01113832261827257,-0.1010041978624132
6412,0.19090762668185765,0.219140682220459,86.76439666748047,81.30210876464844,-5.566593170166016,86.64164733886719,-0.03366444905598958,0.11533333333333333,0.3246428571428571,0.034087117513020834,-3.3507315092773453,-2.9991785460205094,39.814170837402344,0.060692087809244795,-0.08009156121148003
6413,0.14403262668185765,0.219140682220459,88.62606811523438,86.90760040283203,-5.832546234130859,86.04837036132812,0.011343129475911458,0.112,0.3242857142857143,0.028746710883246526,-2.3619905882568375,-0.3515516691894547,39.814170837402344,0.019094085693359374,-0.07645462883843315
6414,0.09325137668185764,0.17929691314697266,84.6572265625,84.5958480834961,-5.853004455566406,86.64164733886719,0.010888502332899305,0.109,0.32285714285714284,0.02313164605034722,-1.3073355131835953,-0.9008528166503922,39.814170837402344,0.0006819831000434028,-0.08327390882703993
6415,0.09325137668185764,0.239062557220459,81.71127319335938,82.28408813476562,-5.9757537841796875,86.88714599609375,-0.0050232781304253475,0.105,0.32142857142857145,0.02282647026909722,-1.1974741392822281,-2.1093126707763687,39.814170837402344,-0.006364610460069444,-0.0873655531141493
6416,0.16356387668185765,0.239062557220459,84.08439636230469,82.48867797851562,-6.855449676513672,87.70545959472656,-0.03389176262749566,0.10233333333333333,0.32035714285714284,0.026274829440646703,-1.3512789183349625,-2.0873400145263687,39.814170837402344,0.017730204264322917,-0.10623232523600261
6417,0.23778262668185765,0.19921878814697266,83.98210144042969,82.14088439941406,-6.405372619628906,87.17355346679688,-0.01547957526312934,0.10066666666666667,0.31857142857142856,0.028288947211371526,-1.5709978514404312,-1.2524038725585953,39.814170837402344,0.020457967122395834,-0.09532140096028646
6418,0.22215762668185765,0.239062557220459,87.41905212402344,87.99187469482422,-6.343997955322266,86.662109375,-0.01070603264702691,0.09866666666666667,0.31642857142857145,0.029326502482096353,-1.3842359953613297,-0.2856375151367203,39.814170837402344,-0.006364695231119792,-0.08895674811469184
6419,0.19872012668185765,0.2789063262939453,88.1555404663086,90.05813598632812,-4.66644287109375,86.31431579589844,-0.01070603264702691,0.09533333333333334,0.315,0.029631678263346353,-1.3293062620849625,0.24169200658798218,39.814170837402344,-0.021139950222439235,-0.06645287407769097
6420,0.19872012668185765,0.25898443222045897,85.70057678222656,84.12531280517578,-6.037128448486328,86.21202850341797,-0.0066144307454427086,0.09333333333333334,0.3132142857142857,0.027922736273871526,-0.5822588377685562,-0.7031046324462906,39.814170837402344,0.017502933078342015,-0.08054618835449219
6421,0.18309512668185765,0.239062557220459,85.08683776855469,85.90515899658203,-5.321098327636719,86.19157409667969,-0.0050232781304253475,0.091,0.3107142857142857,0.025634002685546876,-0.01098694140625156,-0.6042314940185562,39.814170837402344,-0.009092458089192708,-0.07236302693684896
6422,0.18700137668185765,0.17929691314697266,84.94363403320312,84.90271759033203,-5.259723663330078,87.1121826171875,-0.0059324900309244795,0.08866666666666667,0.30857142857142855,0.021331151326497395,0.19774800539016724,-1.538040774414064,39.814170837402344,0.0004546271430121528,-0.08191006978352865
6423,0.13622012668185765,0.19921878814697266,84.94363403320312,84.53446960449219,-5.914379119873047,86.76439666748047,-0.008887566460503472,0.08766666666666667,0.3075,0.017455546061197917,0.4064820110797882,-1.7357889586181656,39.814170837402344,0.004546271430121528,-0.08531973097059461
6424,0.15575137668185765,0.19921878814697266,83.4501953125,83.0001220703125,-5.709800720214844,86.0688247680664,-0.013888380262586805,0.08333333333333333,0.3053571428571429,0.016478983561197917,-0.2307058745117203,-1.5709978514404312,39.814170837402344,0.0050008138020833336,-0.07531806098090278
6425,0.18309512668185765,0.19921878814697266,85.78240966796875,84.12531280517578,-5.9757537841796875,86.23248291015625,-0.023435465494791665,0.08233333333333333,0.30428571428571427,0.017730161878797744,-0.07690300280761875,-0.9557825499267594,39.814170837402344,0.01841218736436632,-0.08009151882595486
6426,0.19872012668185765,0.13945316314697265,83.47065734863281,88.1146240234375,-6.159877777099609,87.17355346679688,0.005887646145290798,0.08,0.3025,0.014403873019748263,-0.08788933093261875,-0.19774879748535312,39.814170837402344,-0.05159962972005208,-0.09259368048773872
6427,0.10106387668185764,0.13945316314697265,77.08776092529297,76.06486511230469,-4.441402435302734,84.6572265625,0.01247969733344184,0.076,0.30214285714285716,0.0075681474473741316,-0.7800070219726578,-2.6586119108886734,39.814170837402344,0.011365509033203125,-0.04554032219780816
6428,0.17528262668185765,0.15937503814697265,86.92805480957031,86.17111206054688,-4.7482757568359375,85.06637573242188,-0.029345575968424478,0.07366666666666667,0.30214285714285716,0.010284127129448786,-0.6481748991699234,-1.3512789183349625,39.814170837402344,0.008410474989149305,-0.05349612765842014
6429,0.22997012668185765,0.17929691314697266,86.662109375,86.13019561767578,-4.993770599365234,85.47554016113281,-0.019343863593207465,0.07166666666666667,0.3025,0.013885074191623263,0.032958000898361206,-0.6152159147949234,39.814170837402344,0.005910152859157986,-0.06077011956108941
6430,0.22997012668185765,0.17929691314697266,84.80043029785156,86.559814453125,-4.380031585693359,84.6572265625,-0.004795964558919271,0.06866666666666667,0.3032142857142857,0.012847518920898438,0.09887400269508362,-0.3185945921630875,40.25362014770508,-0.019548712836371527,-0.044858423868815105
6431,0.14793887668185765,0.19921878814697266,83.0001220703125,83.79798889160156,-4.850563049316406,85.12775421142578,0.00770615471733941,0.065,0.30357142857142855,0.008666737874348959,0.29662200808525085,-0.2526785307617203,41.57196807861328,-0.008865186903211806,-0.05531463623046875
6432,0.14793887668185765,0.19921878814697266,85.0459213256836,82.42729949951172,-5.464302062988281,85.74149322509766,-0.006841744316948784,0.06166666666666667,0.30392857142857144,0.008056386311848959,0.45042601227760315,0.17577600479125977,41.74774932861328,0.02909579806857639,-0.06895328097873264
6433,0.13231387668185765,0.219140682220459,84.49356079101562,84.06393432617188,-5.014228820800781,86.19157409667969,-0.00297745598687066,0.058666666666666666,0.30392857142857144,0.008422597249348959,0.29662200808525085,0.41746801137924194,41.83563995361328,0.004773627387152778,-0.06895336574978299
6434,0.12059512668185764,0.239062557220459,84.06393432617188,84.0025634765625,-5.8120880126953125,86.76439666748047,-0.012751854790581597,0.056666666666666664,0.3032142857142857,0.008849843343098959,0.19774800539016724,1.0107120275497437,41.83563995361328,0.0006818983289930556,-0.08418316311306423
6435,0.11668887668185764,0.239062557220459,85.61874389648438,83.73661041259766,-6.1394195556640625,86.5188980102539,-0.00775099860297309,0.053,0.30214285714285716,0.009246529473198786,-0.5492998533935562,1.3512780666351318,41.83563995361328,0.020912594265407987,-0.08509241739908854
6436,0.13622012668185765,0.219140682220459,84.37080383300781,85.557373046875,-4.564151763916016,85.1072998046875,-0.012979168362087673,0.052333333333333336,0.3007142857142857,0.01165737575954861,-1.175503390380861,0.9667680263519287,41.83563995361328,-0.013184102376302083,-0.05190501742892795
6437,0.15575137668185765,0.19921878814697266,87.78729248046875,87.82821655273438,-5.402931213378906,86.27340698242188,-0.013888380262586805,0.048666666666666664,0.3007142857142857,0.012633895874023438,-0.7800070219726578,1.538040041923523,41.83563995361328,-0.0004547119140625,-0.07418153550889757
6438,0.09715762668185764,0.19921878814697266,82.40684509277344,81.8953857421875,-4.298198699951172,86.13019561767578,0.004751120673285591,0.046,0.3007142857142857,0.009154976738823786,-0.6042314940185562,0.9008520245552063,41.83563995361328,0.005682881673177083,-0.06031549241807726
6439,0.09715762668185764,0.19921878814697266,87.0712661743164,87.29630279541016,-6.8963623046875,86.96897888183594,-0.008660252888997395,0.044333333333333336,0.3007142857142857,0.009887398613823786,0.2746500074863434,1.4611380100250244,41.83563995361328,-0.0025004069010416668,-0.09850379096137153
6440,0.08153262668185764,0.19921878814697266,82.52958679199219,83.14332580566406,-5.66888427734375,85.47554016113281,-0.009342193603515625,0.04066666666666666,0.3003571428571429,0.009917916191948786,-0.7250772886962906,0.07690200209617615,41.83563995361328,-0.006819322374131944,-0.06827138264973959
6441,0.08153262668185764,0.19921878814697266,81.97721862792969,80.91340637207031,-5.648426055908203,86.27340698242188,-0.01320648193359375,0.037333333333333336,0.3,0.009307564629448786,-1.4831110411376969,-1.120571749755861,41.83563995361328,0.011820136176215277,-0.07690925598144531
6442,0.08934512668185764,0.239062557220459,85.92561340332031,85.35279846191406,-5.955295562744141,86.72348022460938,-0.011842600504557292,0.034666666666666665,0.3003571428571429,0.01052822536892361,-1.560013430664064,-0.05493034655761875,41.83563995361328,0.006364610460069444,-0.08531973097059461
6443,0.09715762668185764,0.219140682220459,83.5934066772461,85.53691101074219,-5.1983489990234375,85.78240966796875,-0.007069057888454861,0.030666666666666665,0.3007142857142857,0.01058926052517361,-1.7907186918945328,0.13183200359344482,41.83563995361328,-0.021594492594401042,-0.06645287407769097
6444,0.11278262668185764,0.219140682220459,85.20958709716797,81.71127319335938,-6.834991455078125,86.74394226074219,-0.008205625745985243,0.026333333333333334,0.3007142857142857,0.01187099880642361,-1.3952223234863297,-0.3735243254394547,41.83563995361328,0.038870154486762155,-0.09532148573133681
6445,0.17528262668185765,0.219140682220459,84.63676452636719,84.5140151977539,-6.303081512451172,87.23492431640625,-0.020025804307725693,0.024333333333333332,0.3,0.016540018717447917,-0.5822588377685562,-0.5932451658935562,41.83563995361328,0.0013638814290364584,-0.09486673143174913
6446,0.18309512668185765,0.25898443222045897,84.02302551269531,86.23248291015625,-6.343997955322266,87.84866333007812,-0.02616318596733941,0.02033333333333333,0.29892857142857143,0.01910341050889757,-0.3625379973144547,-0.2966219359130875,41.83563995361328,-0.02454952663845486,-0.10214068094889323
6447,0.15575137668185765,0.219140682220459,85.65966796875,85.25050354003906,-5.832546234130859,86.0688247680664,0.001341459486219618,0.016,0.29678571428571426,0.014220767550998263,-0.7140909605712906,0.8019779920578003,41.83563995361328,0.004546271430121528,-0.07668190002441407
6448,0.07372012668185764,0.19921878814697266,85.12775421142578,86.96897888183594,-4.175449371337891,84.57539367675781,0.004523807101779514,0.013333333333333334,0.2960714285714286,0.0067746904161241316,-0.3954969816894547,0.7360620498657227,28.65213966369629,-0.02045805189344618,-0.041676033867730035
6449,0.04637637668185764,0.17929691314697266,75.06242370605469,81.83401489257812,-3.0298004150390625,83.36836242675781,-0.012297227647569445,0.009666666666666667,0.2935714285714286,0.004028193155924479,0.5712720155715942,-1.2853628569335953,27.50956916809082,-0.07523990207248264,-0.015535142686631944
6450,0.15965762668185765,0.1195312786102295,85.27096557617188,83.81844329833984,-1.1476669311523438,84.22760009765625,-0.03411907619900174,0.008,0.2914285714285714,0.0074155595567491316,2.2191720008850098,-0.9997259550781266,27.50956916809082,0.0161391364203559,-0.00416963365342882
6451,0.14012637668185765,0.19921878814697266,80.56562042236328,80.27920532226562,-1.6386566162109375,82.44775390625,-0.01070603264702691,0.0036666666666666666,0.2864285714285714,0.009216011895073786,2.834388017654419,-0.7250772886962906,27.421680450439453,0.0031823900010850693,0.010150994194878473
6452,0.15965762668185765,0.219140682220459,83.4501953125,79.31768798828125,-1.6181983947753906,81.34302520751953,-0.019343863593207465,0.002,0.2825,0.012054061889648438,2.75748610496521,0.7580339908599854,27.421680450439453,0.045916748046875,0.02265307108561198
6453,0.22997012668185765,0.17929691314697266,85.63920593261719,84.02302551269531,5.01019287109375,77.3946304321289,-0.003204769558376736,0.002,0.2767857142857143,0.01525832282172309,2.5597381591796875,2.5707240104675293,27.421680450439453,0.017957560221354165,0.14017291598849826
6454,0.2573138766818576,0.15937503814697265,81.67034912109375,84.90271759033203,0.10027313232421875,81.17935943603516,-0.04571194118923611,0.0016666666666666668,0.2739285714285714,0.020446141560872395,3.7242541313171387,1.9884660243988037,27.421680450439453,-0.03591520521375868,0.04356570773654514
6455,0.17528262668185765,0.13945316314697265,87.25538635253906,85.92561340332031,12.088661193847656,68.3521957397461,-0.035028330485026044,0.0013333333333333333,0.2664285714285714,0.016448465983072917,1.4062080383300781,-2.6036821776123062,27.421680450439453,0.014775254991319445,0.31929406060112847
6456,0.05028262668185764,0.15937503814697265,84.6572265625,86.74394226074219,8.037975311279297,69.37509155273438,-0.05957794189453125,0.003,0.2621428571428571,0.009032948811848959,0.6371880173683167,-0.13183273608398594,27.421680450439453,-0.02318572998046875,0.26292093065049915
6457,-0.01612362331814236,0.219140682220459,84.39126586914062,84.35034942626953,10.431560516357422,69.29325866699219,-0.0663972642686632,0.0,0.25392857142857145,-0.0,0.5822579860687256,-0.21972145373535312,27.421680450439453,0.0004546271430121528,0.29042557610405817
