,WD,WS,AIL_1,AIL_2,ELEV_1,ELEV_2,RUDD,ALT,GS,TH,PTCH,ROLL,PLA_1,AIL,ELEV
1652,0.25092126570095485,0.3785157012939453,87.15309143066406,82.61141967773438,-2.313770294189453,87.93049621582031,-0.007296371459960938,0.7426666666666667,0.4732142857142857,0.008727773030598959,-0.2526785307617203,-0.3515516691894547,38.671600341796875,0.05046301947699653,-0.058269627888997394
1653,0.25092126570095485,0.3785157012939453,87.15309143066406,82.550048828125,-2.272857666015625,87.80775451660156,-0.006841744316948784,0.739,0.47285714285714286,0.008788808186848959,-0.2307058745117203,-0.08788933093261875,38.671600341796875,0.051144917805989586,-0.05645124647352431
1654,0.25092126570095485,0.3785157012939453,86.90760040283203,83.20470428466797,-2.3956031799316406,87.84866333007812,-0.007069057888454861,0.7346666666666667,0.4725,0.008788808186848959,-0.15380539233398594,-0.2636648588867203,38.671600341796875,0.04114329020182292,-0.058269627888997394
1655,0.25092126570095485,0.3785157012939453,87.19401550292969,82.48867797851562,-2.354686737060547,87.93049621582031,-0.0075236850314670135,0.7306666666666667,0.47214285714285714,0.009063466389973959,-0.3625379973144547,-0.14281906420898594,38.671600341796875,0.05228152804904514,-0.05872425503200955
1656,0.25092126570095485,0.3585938262939453,87.17355346679688,82.81600189208984,-2.313770294189453,87.88958740234375,-0.006387117173936632,0.7263333333333334,0.4725,0.009093983968098959,-0.4614130430908219,-0.04394401843261875,38.671600341796875,0.04841723971896701,-0.05781508551703559
1657,0.25092126570095485,0.3585938262939453,87.19401550292969,82.75462341308594,-2.272857666015625,87.86912536621094,-0.0066144307454427086,0.722,0.47214285714285714,0.009307607014973959,-0.49437012011718906,-0.02197326953125156,38.671600341796875,0.049326578776041664,-0.05713314480251736
1658,0.25482751570095485,0.3585938262939453,86.33477783203125,82.42729949951172,-2.252399444580078,87.82821655273438,-0.00775099860297309,0.7173333333333334,0.4717857142857143,0.00967373318142361,-0.5053564482421891,0.24169200658798218,38.671600341796875,0.04341642591688368,-0.05645128885904948
1659,0.25482751570095485,0.3585938262939453,86.88714599609375,81.91584777832031,-2.313770294189453,87.6031723022461,-0.0043413374159071184,0.7126666666666667,0.4717857142857143,0.01000942654079861,-0.49437012011718906,1.0876140594482422,38.671600341796875,0.05523664686414931,-0.05463269551595052
1660,0.25092126570095485,0.3585938262939453,87.09172058105469,82.97966003417969,-2.4365196228027344,87.82821655273438,-0.005705218844943577,0.7083333333333334,0.47214285714285714,0.01055874294704861,-0.5492998533935562,1.1864880323410034,38.671600341796875,0.045689561631944445,-0.05849706861707899
1661,0.25482751570095485,0.3585938262939453,86.86668395996094,82.0999755859375,-2.272857666015625,87.80775451660156,-0.0075236850314670135,0.7033333333333334,0.4717857142857143,0.01184048122829861,-0.6591612272949234,1.4062080383300781,38.671600341796875,0.05296342637803819,-0.05645124647352431
1662,0.25482751570095485,0.3585938262939453,87.43951416015625,83.34790802001953,-2.2933120727539062,87.88958740234375,-0.0066144307454427086,0.6986666666666667,0.47214285714285714,0.012908511691623263,-0.7031046324462906,1.1974740028381348,38.671600341796875,0.04546229044596354,-0.05758777194552951
1663,0.25873376570095485,0.3585938262939453,87.19401550292969,82.26363372802734,-2.4160614013671875,87.86912536621094,-0.008660252888997395,0.6933333333333334,0.47214285714285714,0.013946109347873263,-0.834936755249025,0.8569080233573914,38.671600341796875,0.05478201972113715,-0.058724297417534724
1664,0.25873376570095485,0.3585938262939453,87.23492431640625,83.12287139892578,-2.334228515625,87.95095825195312,-0.007296371459960938,0.6886666666666666,0.47214285714285714,0.014739566379123263,-0.9557825499267594,0.7360620498657227,38.671600341796875,0.0456894768608941,-0.058724297417534724
1665,0.25873376570095485,0.3585938262939453,87.39859008789062,83.61386108398438,-2.313770294189453,87.93049621582031,-0.006841744316948784,0.6833333333333333,0.4725,0.015227762858072917,-1.0326849394531266,0.38451001048088074,38.671600341796875,0.042052544487847225,-0.058269627888997394
1666,0.25873376570095485,0.3585938262939453,87.19401550292969,84.30943298339844,-2.272857666015625,87.86912536621094,-0.007069057888454861,0.678,0.47285714285714286,0.015716044108072917,-1.0546575957031266,0.14281800389289856,38.671600341796875,0.03205091688368056,-0.05713314480251736
1667,0.25873376570095485,0.3585938262939453,87.33721923828125,83.26608276367188,-2.272857666015625,87.82821655273438,-0.008887566460503472,0.6723333333333333,0.4732142857142857,0.015960184733072917,-1.0436712675781266,-0.20873512561035312,38.671600341796875,0.04523484971788194,-0.05667860243055556
1668,0.25873376570095485,0.3585938262939453,87.29630279541016,83.1024169921875,-2.272857666015625,87.80775451660156,-0.0075236850314670135,0.667,0.4739285714285714,0.015990702311197917,-0.9887415343017594,-0.2856375151367203,38.671600341796875,0.046598731146918405,-0.05645124647352431
1669,0.25482751570095485,0.3585938262939453,87.35768127441406,83.22515869140625,-2.272857666015625,87.84866333007812,-0.0066144307454427086,0.6613333333333333,0.47464285714285714,0.015777079264322917,-0.9557825499267594,-0.2307058745117203,38.671600341796875,0.045916917588975696,-0.05690578884548611
1670,0.25092126570095485,0.3585938262939453,87.33721923828125,83.0001220703125,-2.272857666015625,87.82821655273438,-0.0066144307454427086,0.656,0.47464285714285714,0.015471903483072917,-0.9447962218017594,-0.3515516691894547,38.671600341796875,0.04818996853298611,-0.05667860243055556
1671,0.25092126570095485,0.3585938262939453,87.05081176757812,82.83645629882812,-2.272857666015625,87.72592163085938,-0.0075236850314670135,0.6506666666666666,0.475,0.015410868326822917,-0.8678938322753922,-0.4394403868408219,38.671600341796875,0.046826171875,-0.0555419921875
1672,0.25092126570095485,0.3585938262939453,86.72348022460938,82.40684509277344,-2.2933120727539062,87.74638366699219,-0.007069057888454861,0.6453333333333333,0.47535714285714287,0.015319315592447917,-0.7580343657226578,-0.18676246936035312,38.671600341796875,0.04796261257595486,-0.05599661933051215
1673,0.25092126570095485,0.3585938262939453,87.15309143066406,82.79554748535156,-2.4160614013671875,87.88958740234375,-0.0066144307454427086,0.6403333333333333,0.47535714285714287,0.015319315592447917,-0.823950427124025,-0.06591667468261875,38.671600341796875,0.048417154947916666,-0.058951653374565975
1674,0.25092126570095485,0.3585938262939453,87.74638366699219,83.1024169921875,-2.3956031799316406,87.93049621582031,-0.0075236850314670135,0.6353333333333333,0.4757142857142857,0.015593973795572917,-0.9008528166503922,-0.3515516691894547,38.671600341796875,0.05159962972005208,-0.0591788821750217
1675,0.25482751570095485,0.3585938262939453,87.27584838867188,82.71371459960938,-2.334228515625,87.95095825195312,-0.00843293931749132,0.63,0.4760714285714286,0.015777079264322917,-0.9447962218017594,-0.812964098999025,38.671600341796875,0.050690375434027775,-0.058724297417534724
1676,0.25873376570095485,0.3585938262939453,87.33721923828125,83.16378784179688,-2.3956031799316406,88.0737075805664,-0.008205625745985243,0.6246666666666667,0.4764285714285714,0.015716044108072917,-0.9777552061767594,-0.834936755249025,38.671600341796875,0.0463714599609375,-0.06077011956108941
1677,0.25873376570095485,0.3585938262939453,87.31675720214844,82.89783477783203,-2.2933120727539062,87.93049621582031,-0.00775099860297309,0.6193333333333333,0.4764285714285714,0.015410868326822917,-1.0107122832031266,-0.9338098936767594,38.671600341796875,0.04909913804796007,-0.05804231431749132
1678,0.25482751570095485,0.3585938262939453,87.27584838867188,82.97966003417969,-2.2933120727539062,87.91004180908203,-0.007069057888454861,0.614,0.47714285714285715,0.014983707004123263,-0.9557825499267594,-0.9667688780517594,38.671600341796875,0.0477354261610243,-0.05781504313151042
1679,0.25482751570095485,0.3585938262939453,87.27584838867188,82.40684509277344,-2.313770294189453,87.93049621582031,-0.007069057888454861,0.609,0.47714285714285715,0.014586978488498263,-0.9008528166503922,-0.845923083374025,38.671600341796875,0.05410003662109375,-0.058269627888997394
1680,0.25482751570095485,0.3585938262939453,87.23492431640625,82.85691833496094,-2.334228515625,87.91004180908203,-0.007296371459960938,0.6036666666666667,0.4775,0.014373355441623263,-0.8898664885253922,-0.9667688780517594,38.671600341796875,0.04864451090494792,-0.05826967027452257
1681,0.25873376570095485,0.3585938262939453,87.0712661743164,82.46821594238281,-2.272857666015625,87.86912536621094,-0.008205625745985243,0.5983333333333334,0.47785714285714287,0.014342837863498263,-0.823950427124025,-0.9777552061767594,38.671600341796875,0.05114500257703993,-0.05713314480251736
1682,0.25873376570095485,0.3585938262939453,87.25538635253906,83.0001220703125,-2.2933120727539062,87.88958740234375,-0.0075236850314670135,0.5933333333333334,0.4782142857142857,0.014098697238498263,-0.7470480375976578,-0.9228254729003922,38.671600341796875,0.04728071424696181,-0.05758777194552951
1683,0.25873376570095485,0.3585938262939453,87.23492431640625,82.87738037109375,-2.313770294189453,87.93049621582031,-0.007296371459960938,0.5886666666666667,0.47785714285714287,0.013793521457248263,-0.7031046324462906,-1.0107122832031266,38.671600341796875,0.048417154947916666,-0.058269627888997394
1684,0.25873376570095485,0.3585938262939453,87.23492431640625,82.83645629882812,-2.2933120727539062,87.82821655273438,-0.007978312174479167,0.5836666666666667,0.4782142857142857,0.013579898410373263,-0.6262022429199234,-1.0326849394531266,38.671600341796875,0.04887186686197917,-0.056905873616536456
1685,0.25873376570095485,0.3585938262939453,86.80531311035156,82.14088439941406,-2.313770294189453,87.93049621582031,-0.006841744316948784,0.579,0.4782142857142857,0.013152652316623263,-0.5822588377685562,-0.7470480375976578,38.671600341796875,0.05182698567708333,-0.058269627888997394
1686,0.25873376570095485,0.3585938262939453,87.19401550292969,83.38882446289062,-2.334228515625,87.93049621582031,-0.005250591701931423,0.5743333333333334,0.4785714285714286,0.012786441379123263,-0.5822588377685562,-0.3735243254394547,38.671600341796875,0.04227990044487847,-0.05849694146050347
1687,0.25873376570095485,0.3585938262939453,87.13264465332031,82.81600189208984,-2.272857666015625,87.84866333007812,-0.007978312174479167,0.5703333333333334,0.4782142857142857,0.013000064425998263,-0.5163427763671891,-0.4394403868408219,38.671600341796875,0.04796269734700521,-0.05690578884548611
1688,0.25873376570095485,0.3785157012939453,87.05081176757812,82.22271728515625,-2.8252220153808594,88.42149353027344,-0.010251405504014757,0.5663333333333334,0.4775,0.013610415988498263,-0.5602861815185562,-0.12084640795898594,38.671600341796875,0.053645494249131946,-0.06940795050726997
1689,0.25482751570095485,0.3585938262939453,87.62362670898438,83.71615600585938,-2.8865966796875,88.46240997314453,-0.003204769558376736,0.5616666666666666,0.4760714285714286,0.012847476535373263,-0.9557825499267594,0.08788800239562988,38.671600341796875,0.043416341145833336,-0.07054451836480034
1690,0.25092126570095485,0.3585938262939453,86.86668395996094,82.0999755859375,-2.8456802368164062,88.42149353027344,-0.007069057888454861,0.556,0.47464285714285714,0.01220669216579861,-1.153530734130861,-0.3845106535644547,38.671600341796875,0.05296342637803819,-0.06963526407877604
1691,0.25092126570095485,0.33867195129394534,86.0688247680664,81.64989471435547,-3.357128143310547,88.97386169433594,-0.004114023844401042,0.5513333333333333,0.4725,0.01180996365017361,-1.3952223234863297,-0.19774879748535312,38.671600341796875,0.04909922281901042,-0.08145544264051649
1692,0.24310876570095488,0.33867195129394534,87.0098876953125,82.65233612060547,-3.7662887573242188,89.17843627929688,-0.0007043626573350694,0.5463333333333333,0.4707142857142857,0.01065029568142361,-1.7797323637695328,-0.09887375170898594,38.671600341796875,0.04841723971896701,-0.08827472262912327
1693,0.25482751570095485,0.33867195129394534,85.90515899658203,81.05661010742188,-4.277740478515625,89.93538665771484,-0.012297227647569445,0.5423333333333333,0.4675,0.01180996365017361,-2.263117449829103,-0.4284540587158219,38.671600341796875,0.053872765435112845,-0.10236807929144966
1694,0.26654626570095485,0.33867195129394534,86.47798156738281,83.85935974121094,-4.645984649658203,90.28317260742188,-0.00843293931749132,0.538,0.46464285714285714,0.012847476535373263,-2.845373766967775,-0.05493034655761875,38.671600341796875,0.02909579806857639,-0.11032396952311198
1695,0.26654626570095485,0.33867195129394534,86.84622192382812,82.12042999267578,-5.218807220458984,90.569580078125,-0.005250591701931423,0.5343333333333333,0.4607142857142857,0.012694888644748263,-3.1200243406982437,0.32958000898361206,38.671600341796875,0.05250879923502604,-0.1198709699842665
1696,0.26654626570095485,0.33867195129394534,86.62118530273438,81.58851623535156,-5.423389434814453,91.0196533203125,-0.006841744316948784,0.531,0.45785714285714285,0.013274722629123263,-3.559464114257814,0.8678940534591675,38.671600341796875,0.05591854519314236,-0.1271449195014106
1697,0.26654626570095485,0.33867195129394534,86.92805480957031,82.63188171386719,-4.911937713623047,91.65385437011719,-0.005705218844943577,0.527,0.4539285714285714,0.013915591769748263,-3.932987826416017,1.021697998046875,38.671600341796875,0.04773525661892361,-0.12850880093044706
1698,0.26654626570095485,0.33867195129394534,86.62118530273438,82.87738037109375,-4.871021270751953,90.69232940673828,-0.009569507175021702,0.523,0.4514285714285714,0.014770083957248263,-3.90003074938965,0.6811320185661316,38.671600341796875,0.04159783257378472,-0.11737056308322483
1699,0.27045251570095485,0.33867195129394534,88.42149353027344,82.61141967773438,-4.830104827880859,90.65141296386719,-0.009569507175021702,0.5183333333333333,0.44821428571428573,0.015960184733072917,-3.812142031738283,0.6481740474700928,38.671600341796875,0.06455637613932291,-0.11646130879720053
1700,0.26654626570095485,0.33867195129394534,86.80531311035156,82.14088439941406,-4.8096466064453125,90.50820922851562,-0.007296371459960938,0.5136666666666667,0.44607142857142856,0.016051737467447917,-3.8011576109619156,0.3185940086841583,38.671600341796875,0.05182698567708333,-0.11464284261067709
1701,0.26654626570095485,0.33867195129394534,87.37813568115234,83.92073059082031,-4.830104827880859,90.671875,-0.007978312174479167,0.509,0.44357142857142856,0.016265360514322917,-3.856087344238283,-0.06591667468261875,38.320037841796875,0.038415612114800345,-0.11668866475423177
1702,0.26654626570095485,0.33867195129394534,86.17111206054688,81.83401489257812,-4.686901092529297,89.95584106445312,-0.0066144307454427086,0.504,0.4417857142857143,0.016234842936197917,-3.6912962370605484,-0.18676246936035312,36.29856872558594,0.04818996853298611,-0.10714157952202691
1703,0.26264001570095485,0.33867195129394534,87.13264465332031,83.61386108398438,-4.727817535400391,90.24225616455078,-0.0066144307454427086,0.49933333333333335,0.43857142857142856,0.016112772623697917,-3.3946749144287125,-0.19774879748535312,35.24388885498047,0.03909759521484375,-0.11077859666612414
1704,0.26264001570095485,0.33867195129394534,86.86668395996094,82.16134643554688,-4.727817535400391,90.1604232788086,-0.005250591701931423,0.49466666666666664,0.43642857142857144,0.015746561686197917,-3.4276319914550797,-0.20873512561035312,34.013431549072266,0.05228152804904514,-0.10986934238009982
1705,0.26654626570095485,0.33867195129394534,86.5188980102539,82.63188171386719,-4.727817535400391,90.05813598632812,-0.00843293931749132,0.49,0.4332142857142857,0.015990702311197917,-3.3617159300537125,-0.4614130430908219,32.4314079284668,0.04318906995985243,-0.10873281690809462
1706,0.27045251570095485,0.33867195129394534,86.94851684570312,82.44775390625,-4.686901092529297,89.95584106445312,-0.00843293931749132,0.485,0.43107142857142855,0.016326395670572917,-3.3177725249023453,-0.3295809202880875,31.552509307861328,0.05000847710503472,-0.10714157952202691
1707,0.26264001570095485,0.33867195129394534,87.562255859375,83.26608276367188,-4.707359313964844,89.40347290039062,-0.003204769558376736,0.4806666666666667,0.4275,0.015410868326822917,-3.1529833250732437,-0.6262022429199234,30.849390029907227,0.04773525661892361,-0.1012314690483941
1708,0.26654626570095485,0.33867195129394534,86.70301818847656,82.16134643554688,-4.645984649658203,89.79217529296875,-0.012297227647569445,0.4756666666666667,0.425,0.015655008951822917,-3.1200243406982437,-1.0107122832031266,30.322050094604492,0.05046301947699653,-0.10486844380696615
1709,0.26264001570095485,0.33867195129394534,86.94851684570312,82.0385971069336,-4.625526428222656,89.54668426513672,-0.006841744316948784,0.471,0.42178571428571426,0.015410868326822917,-3.0211512022705094,-0.6811319761962906,26.89434051513672,0.0545546637641059,-0.1019134521484375
1710,0.25873376570095485,0.33867195129394534,87.1121826171875,82.9592056274414,-4.5846099853515625,89.46485137939453,-0.008205625745985243,0.466,0.41964285714285715,0.015105777316623263,-2.878332751342775,-0.7360617094726578,26.63067054748535,0.046144188774956595,-0.10054957071940104
1711,0.25873376570095485,0.33867195129394534,86.43707275390625,81.60897827148438,-4.502777099609375,89.40347290039062,-0.006159803602430555,0.4613333333333333,0.4160714285714286,0.014586978488498263,-2.7465006285400406,-0.2856375151367203,26.63067054748535,0.053645494249131946,-0.09895833333333333
1712,0.25482751570095485,0.33867195129394534,87.0098876953125,83.53202819824219,-4.461860656738281,89.36256408691406,-0.0075236850314670135,0.45666666666666667,0.4139285714285714,0.014709048800998263,-2.5926958494873062,-0.09887375170898594,23.81818962097168,0.03864288330078125,-0.09804916381835938
1713,0.25482751570095485,0.33867195129394534,86.90760040283203,82.32501220703125,-4.441402435302734,89.26026916503906,-0.008887566460503472,0.452,0.41035714285714286,0.015105777316623263,-2.4608656340332047,0.14281800389289856,23.81818962097168,0.05091764662000868,-0.09668524000379775
1714,0.25092126570095485,0.33867195129394534,86.92805480957031,82.67279052734375,-4.1959075927734375,89.1579818725586,-0.004568650987413194,0.44766666666666666,0.40785714285714286,0.015014224582248263,-2.3839632445068375,0.45042601227760315,23.81818962097168,0.04728071424696181,-0.0928209940592448
1715,0.24701501570095488,0.33867195129394534,86.94851684570312,82.5091323852539,-4.175449371337891,88.97386169433594,-0.0043413374159071184,0.44333333333333336,0.40464285714285714,0.014892154269748263,-2.142269747802736,0.5602860450744629,23.81818962097168,0.04932649400499132,-0.0905479007297092
1716,0.24310876570095488,0.33867195129394534,87.33721923828125,84.16622924804688,-4.073158264160156,88.81019592285156,-0.003659396701388889,0.439,0.40214285714285714,0.015349833170572917,-1.9115644865722672,0.32958000898361206,23.81818962097168,0.035233222113715275,-0.08759282430013021
1717,0.24701501570095488,0.3585938262939453,86.98943328857422,83.47065734863281,-3.9708709716796875,88.95339965820312,-0.009796820746527778,0.43433333333333335,0.3989285714285714,0.016387430826822917,-1.8017050200195328,-0.09887375170898594,23.81818962097168,0.0390975104437934,-0.08804745144314235
1718,0.25482751570095485,0.3585938262939453,87.25538635253906,82.38638305664062,-3.684459686279297,88.44195556640625,-0.011842600504557292,0.43033333333333335,0.3960714285714286,0.017333475748697917,-1.516068118164064,0.02197200059890747,23.81818962097168,0.05410003662109375,-0.07918239169650608
1719,0.25092126570095485,0.3585938262939453,87.43951416015625,84.02302551269531,-3.704914093017578,88.46240997314453,-0.007296371459960938,0.42633333333333334,0.39285714285714285,0.017333475748697917,-1.2414194517822281,-0.2636648588867203,23.73029899597168,0.037960984971788195,-0.07963693406846788
1720,0.24701501570095488,0.3585938262939453,87.35768127441406,82.91828918457031,-3.704914093017578,88.44195556640625,-0.0066144307454427086,0.4226666666666667,0.39035714285714285,0.017089335123697917,-1.120571749755861,-0.3405672484130875,23.73029899597168,0.049326578776041664,-0.07940966288248698
1721,0.25092126570095485,0.3585938262939453,86.82576751708984,82.85691833496094,-3.684459686279297,88.44195556640625,-0.011387973361545138,0.419,0.38607142857142857,0.017394510904947917,-1.0546575957031266,-0.2636648588867203,23.73029899597168,0.04409832424587674,-0.07918239169650608
1722,0.25092126570095485,0.3585938262939453,87.25538635253906,83.02058410644531,-3.684459686279297,88.6669921875,-0.0043413374159071184,0.4156666666666667,0.38321428571428573,0.017394510904947917,-0.9887415343017594,-0.01098694140625156,23.73029899597168,0.047053358289930555,-0.08168279859754775
1723,0.25092126570095485,0.3585938262939453,87.41905212402344,83.49111938476562,-3.9708709716796875,89.71034240722656,-0.007069057888454861,0.413,0.37785714285714284,0.017516581217447917,-1.3622652464599625,-0.14281906420898594,23.73029899597168,0.04364369710286458,-0.09645792643229166
1724,0.25092126570095485,0.3585938262939453,86.64164733886719,81.91584777832031,-4.277740478515625,89.93538665771484,-0.010478719075520834,0.41133333333333333,0.37357142857142855,0.017730204264322917,-1.9664942198486344,0.010986000299453735,23.73029899597168,0.05250888400607639,-0.10236807929144966
1725,0.24701501570095488,0.3585938262939453,86.82576751708984,82.69325256347656,-4.707359313964844,90.42637634277344,-0.003886710272894965,0.41,0.36714285714285716,0.017394510904947917,-2.6805845671386734,0.32958000898361206,24.433420181274414,0.04591683281792535,-0.11259706285264758
1726,0.25092126570095485,0.33867195129394534,86.88714599609375,82.59095764160156,-4.9733123779296875,90.73324584960938,-0.005250591701931423,0.4083333333333333,0.3625,0.017486063639322917,-3.515520709106447,0.5602860450744629,27.773239135742188,0.0477354261610243,-0.11896175808376735
1727,0.25482751570095485,0.33867195129394534,87.41905212402344,82.40684509277344,-4.830104827880859,90.73324584960938,-0.009796820746527778,0.407,0.35678571428571426,0.01861512925889757,-3.987919467041017,0.8129640221595764,30.58572006225586,0.05569118923611111,-0.11737056308322483
1728,0.25092126570095485,0.33867195129394534,87.17355346679688,83.12287139892578,-4.298198699951172,89.85355377197266,-0.004795964558919271,0.4043333333333333,0.35285714285714287,0.01885926988389757,-4.009890215942384,0.7580339908599854,30.673608779907227,0.045007578531901044,-0.10168613857693143
1729,0.25092126570095485,0.33867195129394534,86.29386138916016,81.46577453613281,-4.277740478515625,89.83309936523438,-0.007978312174479167,0.4013333333333333,0.34785714285714286,0.01946962144639757,-3.834114687988283,0.4723980128765106,31.816179275512695,0.0536454094780816,-0.10123155381944444
1730,0.25092126570095485,0.33867195129394534,88.23736572265625,81.87493133544922,-4.1959075927734375,89.30118560791016,-0.004795964558919271,0.39766666666666667,0.345,0.02023256089952257,-3.7572122984619156,0.8898659944534302,35.6833381652832,0.07069371541341146,-0.09441214667426215
1731,0.24310876570095488,0.3585938262939453,87.50088500976562,83.90027618408203,-4.216365814208984,89.54668426513672,-0.002750142415364583,0.394,0.3414285714285714,0.02053773668077257,-3.6912962370605484,0.7140899896621704,35.8591194152832,0.040006764729817706,-0.09736722310384115
1732,0.24310876570095488,0.3585938262939453,89.0761489868164,83.06149291992188,-4.175449371337891,88.97386169433594,-0.006841744316948784,0.38966666666666666,0.33785714285714286,0.02145317925347222,-3.7681986265869156,0.5712720155715942,35.8591194152832,0.06682951185438368,-0.0905479007297092
1733,0.23920251570095488,0.3585938262939453,87.48042297363281,82.0999755859375,-4.154991149902344,88.74882507324219,-0.0050232781304253475,0.38533333333333336,0.3360714285714286,0.02178887261284722,-3.7681986265869156,0.4394400119781494,37.00168991088867,0.05978274875217014,-0.08782018025716146
1734,0.23529626570095488,0.3585938262939453,86.74394226074219,82.79554748535156,-3.9504127502441406,88.68744659423828,-0.0054779052734375,0.38066666666666665,0.3335714285714286,0.02142266167534722,-3.6912962370605484,-0.04394401843261875,39.11104965209961,0.04387105305989583,-0.08486510382758247
1735,0.23139001570095488,0.3585938262939453,88.27828979492188,82.38638305664062,-3.8481216430664062,88.52378845214844,-0.009796820746527778,0.376,0.33285714285714285,0.02172783745659722,-3.4605909758300797,0.10986000299453735,40.60517883300781,0.06546563042534723,-0.08191011216905382
1736,0.22748376570095488,0.3585938262939453,87.39859008789062,83.42974090576172,-3.6230850219726562,88.05325317382812,-0.008205625745985243,0.37166666666666665,0.33107142857142857,0.02206353081597222,-3.207913058349611,0.3185940086841583,42.275089263916016,0.04409832424587674,-0.07418153550889757
1737,0.22748376570095488,0.3785157012939453,88.89202880859375,83.16378784179688,-3.3366737365722656,87.91004180908203,-0.006159803602430555,0.36666666666666664,0.33035714285714285,0.02246025933159722,-2.7684732847900406,0.5712720155715942,42.538761138916016,0.06364712185329861,-0.06940795050726997
1738,0.21967126570095488,0.3585938262939453,86.78485107421875,82.36592102050781,-3.2139244079589844,88.0123291015625,-0.002522828843858507,0.3626666666666667,0.3296428571428571,0.02218560112847222,-2.263117449829103,0.36253800988197327,42.62664794921875,0.04909922281901042,-0.06918059455023871
1739,0.21576501570095488,0.3585938262939453,87.19401550292969,84.6572265625,-3.2343826293945312,88.05325317382812,-0.0054779052734375,0.3586666666666667,0.3289285714285714,0.02154473198784722,-1.9555078917236344,-0.2856375151367203,43.153987884521484,0.028186543782552084,-0.06986262003580729
1740,0.21576501570095488,0.3585938262939453,86.43707275390625,82.26363372802734,-3.2343826293945312,41.900001525878906,-0.007069057888454861,0.355,0.3271428571428571,0.02133110894097222,-1.6479002409667984,-0.3295809202880875,43.241878509521484,0.046371544731987846,0.44295128716362847
1741,0.21576501570095488,0.3585938262939453,88.95339965820312,82.57050323486328,-3.132091522216797,87.91004180908203,-0.003204769558376736,0.3516666666666667,0.3264285714285714,0.02111748589409722,-1.1864878111572281,-0.05493034655761875,43.505550384521484,0.0709210713704427,-0.0671348147922092
1742,0.21576501570095488,0.3585938262939453,86.21202850341797,81.46577453613281,-3.0298004150390625,87.99187469482422,-0.0054779052734375,0.3486666666666667,0.3242857142857143,0.02075135972764757,-0.812964098999025,-0.05493034655761875,44.82389831542969,0.052736155192057294,-0.06690750122070313
1743,0.21576501570095488,0.3585938262939453,88.58515930175781,83.34790802001953,-3.0502586364746094,41.900001525878906,-0.00843293931749132,0.346,0.32285714285714284,0.02120903862847222,-0.49437012011718906,-0.08788933093261875,44.91178894042969,0.058191680908203126,0.44499710930718317
1744,0.21967126570095488,0.3585938262939453,86.78485107421875,85.29141998291016,-2.8456802368164062,87.99187469482422,-0.0075236850314670135,0.3436666666666667,0.32107142857142856,0.02133110894097222,-0.14281906420898594,-0.7909933500976578,45.966468811035156,0.01659367879231771,-0.0648617214626736
1745,0.21967126570095488,0.3585938262939453,88.25782775878906,84.43218231201172,-3.0707168579101562,88.0737075805664,-0.00775099860297309,0.3413333333333333,0.32035714285714284,0.02069032457139757,0.10986000299453735,-1.3183199339599625,47.46059799194336,0.042507171630859375,-0.06827138264973959
1746,0.21576501570095488,0.3785157012939453,85.78240966796875,83.18424987792969,-3.091175079345703,89.09660339355469,-0.009569507175021702,0.339,0.31892857142857145,0.01986634996202257,0.2197200059890747,-1.7577597075195328,49.13050842285156,0.02886844211154514,-0.07986420525444879
1747,0.21967126570095488,0.3785157012939453,86.35523986816406,83.85935974121094,-3.1934661865234375,88.85111236572266,-0.011160659790039062,0.337,0.31857142857142856,0.01956117418077257,0.12084600329399109,-1.0766283446044937,49.5699577331543,0.027732001410590276,-0.0782730950249566
1748,0.21185876570095488,0.3785157012939453,87.62362670898438,81.9567642211914,-3.1934661865234375,88.64653015136719,-0.0013863033718532986,0.335,0.3182142857142857,0.01800477769639757,-0.3076082640380875,-0.9228254729003922,49.5699577331543,0.06296513875325521,-0.07599995930989584
1749,0.21576501570095488,0.3585938262939453,85.80287170410156,41.900001525878906,-3.2139244079589844,88.62606811523438,-0.003886710272894965,0.333,0.31785714285714284,0.016936747233072917,-0.7690206938476578,-0.7800070219726578,48.339500427246094,0.4878096686469184,-0.07599991692437066
1750,0.21576501570095488,0.3585938262939453,86.80531311035156,83.40928649902344,-3.2139244079589844,88.50332641601562,-0.0050232781304253475,0.3303333333333333,0.31785714285714284,0.016540018717447917,-1.164517062255861,-0.20873512561035312,47.987937927246094,0.03773362901475694,-0.07463612026638455
1751,0.21576501570095488,0.3585938262939453,87.33721923828125,41.900001525878906,-3.2139244079589844,88.19645690917969,-0.002750142415364583,0.32766666666666666,0.31785714285714284,0.016173807779947917,-1.4171949797363297,-0.14281906420898594,47.81216049194336,0.5048579745822482,-0.07122645907931857
1752,0.21185876570095488,0.3585938262939453,86.43707275390625,82.30455017089844,-3.1525497436523438,89.03523254394531,-0.005250591701931423,0.3243333333333333,0.31785714285714284,0.016112772623697917,-1.3732515745849625,-0.3625379973144547,49.21839904785156,0.045916917588975696,-0.07986424763997396
1753,0.20795251570095488,0.3785157012939453,87.25538635253906,80.40196228027344,-3.1934661865234375,88.19645690917969,-0.0066144307454427086,0.32133333333333336,0.3182142857142857,0.016173807779947917,-1.2963491850585953,-0.3405672484130875,49.21839904785156,0.07614915635850694,-0.0709991455078125
1754,0.21576501570095488,0.3585938262939453,83.71615600585938,41.900001525878906,-3.1525497436523438,88.17599487304688,-0.012297227647569445,0.31766666666666665,0.31892857142857145,0.015716044108072917,-1.2414194517822281,-0.6152159147949234,49.21839904785156,0.46462393866644963,-0.0703171624077691
1755,0.21967126570095488,0.3585938262939453,85.455078125,85.5982894897461,-3.132091522216797,88.17599487304688,-0.002068201700846354,0.314,0.3192857142857143,0.014800601535373263,-1.2084604674072281,0.48338401317596436,49.21839904785156,-0.0015912373860677083,-0.07008984883626303
1756,0.20404626570095488,0.33867195129394534,87.58271789550781,41.900001525878906,-3.1525497436523438,88.36012268066406,0.002705298529730903,0.31033333333333335,0.32,0.013946109347873263,-1.1864878111572281,1.0436700582504272,49.21839904785156,0.5075857374403212,-0.07236302693684896
1757,0.20404626570095488,0.33867195129394534,86.29386138916016,82.57050323486328,-3.1525497436523438,87.95095825195312,-0.007069057888454861,0.307,0.32035714285714284,0.014525943332248263,-1.131558077880861,0.9887400269508362,49.21839904785156,0.04137064615885417,-0.06781675550672743
1758,0.20014001570095488,0.3585938262939453,88.17599487304688,85.14820861816406,-3.132091522216797,88.50332641601562,-0.005250591701931423,0.30333333333333334,0.32071428571428573,0.015746561686197917,-0.9118391447753922,1.3952220678329468,49.21839904785156,0.03364206949869792,-0.07372686598036024
1759,0.19623376570095488,0.3585938262939453,88.44195556640625,84.5958480834961,-3.1525497436523438,88.42149353027344,-0.006159803602430555,0.3,0.32071428571428573,0.016814676920572917,-0.812964098999025,1.263390064239502,49.21839904785156,0.042734527587890626,-0.07304492526584201
1760,0.19232751570095488,0.3585938262939453,88.38057708740234,84.06393432617188,-3.1730079650878906,87.99187469482422,-0.0066144307454427086,0.29633333333333334,0.32071428571428573,0.017882792154947917,-0.9447962218017594,0.8019779920578003,49.21839904785156,0.04796269734700521,-0.06849869622124566
1761,0.19232751570095488,0.3585938262939453,88.36012268066406,82.30455017089844,-3.11163330078125,88.85111236572266,-0.007296371459960938,0.29333333333333333,0.32035714285714284,0.01858461168077257,-0.9228254729003922,0.17577600479125977,49.21839904785156,0.06728413899739584,-0.0773638407389323
1762,0.19623376570095488,0.3785157012939453,86.90760040283203,82.67279052734375,-3.2139244079589844,88.54424285888672,-0.011160659790039062,0.2906666666666667,0.32035714285714284,0.01925599839952257,-0.9228254729003922,-0.2856375151367203,48.95473098754883,0.0470534430609809,-0.0750907474093967
1763,0.22357751570095488,0.33867195129394534,87.6031723022461,83.28652954101562,-3.1934661865234375,88.50332641601562,-0.01661614312065972,0.2866666666666667,0.32071428571428573,0.02001893785264757,-1.0876146727294937,-0.6481748991699234,48.339500427246094,0.04796269734700521,-0.07440880669487847
1764,0.20404626570095488,0.33867195129394534,84.41172790527344,84.80043029785156,-3.2343826293945312,88.17599487304688,0.0056603749593098955,0.2836666666666667,0.32071428571428573,0.01843202379014757,-1.2963491850585953,-0.3076082640380875,48.339500427246094,-0.0043189154730902775,-0.0712264166937934
1765,0.19232751570095488,0.3585938262939453,88.76927947998047,80.545166015625,-3.1730079650878906,88.68744659423828,-0.0007043626573350694,0.2806666666666667,0.32107142857142856,0.017882792154947917,-1.3952223234863297,-0.5383154326171891,48.339500427246094,0.09137903849283854,-0.07622727288140191
1766,0.25092126570095485,0.29882820129394533,85.33233642578125,79.78821563720703,-3.2139244079589844,87.78729248046875,-0.02752706739637587,0.278,0.32107142857142856,0.01916444566514757,-1.3622652464599625,-0.9447962218017594,48.251609802246094,0.061601342095269095,-0.06668018764919705
1767,0.20795251570095488,0.33867195129394534,83.28652954101562,86.74394226074219,-3.091175079345703,88.40103149414062,0.0008868323432074653,0.273,0.32107142857142856,0.017180887858072917,-1.3293062620849625,-0.7031046324462906,48.251609802246094,-0.0384156968858507,-0.07213562859429254
1768,0.23529626570095488,0.29882820129394533,90.671875,81.07707214355469,-3.1525497436523438,88.33966064453125,-0.013433795505099827,0.2713333333333333,0.32107142857142856,0.017608133951822917,-0.856909411499025,-0.03295769030761875,48.251609802246094,0.10660892062717015,-0.07213567097981771
1769,0.21967126570095488,0.29882820129394533,85.61874389648438,80.56562042236328,-3.132091522216797,88.13508605957031,0.0056603749593098955,0.2673333333333333,0.32107142857142856,0.015807596842447917,-0.5163427763671891,-0.5163427763671891,48.251609802246094,0.05614581637912326,-0.06963530646430122
1770,0.22357751570095488,0.29882820129394533,89.81263732910156,81.26119232177734,-3.1525497436523438,88.09416198730469,-0.009796820746527778,0.265,0.32142857142857145,0.015471903483072917,-0.3845106535644547,-0.04394401843261875,49.5699577331543,0.09501605563693577,-0.06940790812174479
1771,0.26264001570095485,0.239062557220459,88.6056137084961,80.07463073730469,-3.11163330078125,87.66455078125,-0.025935872395833334,0.26166666666666666,0.3217857142857143,0.015166727701822917,-0.5053564482421891,-0.2746511870117203,50.36096954345703,0.09478869967990451,-0.06417982313368055
1772,0.22748376570095488,0.219140682220459,90.77416229248047,81.40440368652344,-3.11163330078125,87.64408874511719,0.009070036146375868,0.25833333333333336,0.32357142857142857,0.01086391872829861,-0.9557825499267594,0.5712720155715942,50.36096954345703,0.10410842895507813,-0.0639524671766493
1773,0.17279626570095488,0.25898443222045897,89.2193603515625,77.00592803955078,-3.1730079650878906,88.27828979492188,-0.011842600504557292,0.25433333333333336,0.3246428571428571,0.00982632107204861,-1.0107122832031266,-0.4394403868408219,52.38243865966797,0.13570480346679686,-0.07168108622233073
1774,0.20014001570095488,0.25898443222045897,81.64989471435547,86.559814453125,-3.1525497436523438,88.564697265625,-0.01729808383517795,0.25033333333333335,0.3264285714285714,0.01126064724392361,-1.0546575957031266,-0.7031046324462906,52.55821990966797,-0.0545546637641059,-0.07463607788085938
1775,0.20795251570095488,0.2789063262939453,90.44683837890625,85.29141998291016,-3.1934661865234375,88.38057708740234,-0.012069914076063368,0.24733333333333332,0.32785714285714285,0.013091617160373263,-1.0326849394531266,0.10986000299453735,52.55821990966797,0.05728242662217882,-0.07304492526584201
1776,0.19623376570095488,0.25898443222045897,87.19401550292969,79.9518814086914,-3.1525497436523438,89.2193603515625,-0.002750142415364583,0.24433333333333335,0.3292857142857143,0.01138271755642361,-1.0216986113281266,-0.6481748991699234,52.55821990966797,0.08046815660264757,-0.08191011216905382
1777,0.20404626570095488,0.2789063262939453,82.91828918457031,84.84133911132812,-3.4185028076171875,89.2193603515625,-0.01752539740668403,0.241,0.33035714285714285,0.01229824490017361,-1.1864878111572281,-1.3512789183349625,52.29454803466797,-0.02136722140842014,-0.08486514621310765
1778,0.23139001570095488,0.25898443222045897,87.48042297363281,80.40196228027344,-3.3366737365722656,89.0761489868164,-0.008887566460503472,0.23833333333333334,0.33107142857142857,0.012969546847873263,-1.4721247130126969,-0.3295809202880875,51.767208099365234,0.07864956325954861,-0.0823646969265408
1779,0.20404626570095488,0.29882820129394533,84.06393432617188,84.69813537597656,-3.3775863647460938,88.44195556640625,-0.009796820746527778,0.235,0.33214285714285713,0.012603335910373263,-1.4940973692626969,-0.2746511870117203,51.6793212890625,-0.007046678331163195,-0.07577268812391492
1780,0.21185876570095488,0.2789063262939453,87.25538635253906,82.32501220703125,-3.7662887573242188,89.26026916503906,-0.00047704908582899306,0.232,0.33321428571428574,0.01156582302517361,-1.6039568358154312,-0.06591667468261875,51.6793212890625,0.054781934950086805,-0.08918397691514757
1781,0.22748376570095488,0.219140682220459,89.17843627929688,83.53202819824219,-3.6026268005371094,88.85111236572266,0.0006595187717013889,0.22866666666666666,0.3339285714285714,0.00967373318142361,-1.6698728972167984,0.12084600329399109,51.5035400390625,0.0627378675672743,-0.08281932406955295
1782,0.21576501570095488,0.19921878814697266,87.0712661743164,83.06149291992188,-3.357128143310547,88.74882507324219,-0.004568650987413194,0.22533333333333333,0.335,0.008178456624348959,-1.8236757689209,0.17577600479125977,51.5035400390625,0.04455303615993923,-0.07895503573947482
1783,0.17279626570095488,0.219140682220459,87.6031723022461,80.81111145019531,-3.3775863647460938,88.31919860839844,0.0004322052001953125,0.22133333333333333,0.3364285714285714,0.005859205457899305,-1.7797323637695328,-0.3185945921630875,51.5035400390625,0.07546734280056423,-0.07440872192382812
1784,0.18060876570095488,0.19921878814697266,85.61874389648438,81.17935943603516,-3.3366737365722656,88.99431610107422,-0.01252454121907552,0.218,0.33785714285714286,0.005492994520399305,-1.4281813078613297,-0.5602861815185562,51.5035400390625,0.04932649400499132,-0.08145544264051649
1785,0.23920251570095488,0.17929691314697266,86.37569427490234,82.91828918457031,-3.3980445861816406,88.31919860839844,-0.021616956922743055,0.214,0.3382142857142857,0.0068662007649739586,-1.3183199339599625,-0.7580343657226578,51.5035400390625,0.038415612114800345,-0.07463603549533421
1786,0.22748376570095488,0.17929691314697266,89.03523254394531,84.67768096923828,-3.2343826293945312,88.54424285888672,-0.0043413374159071184,0.21033333333333334,0.33964285714285714,0.005798170301649305,-1.1974741392822281,0.0,51.5035400390625,0.04841723971896701,-0.07531806098090278
1787,0.18451501570095488,0.17929691314697266,87.97142028808594,84.63676452636719,-3.3366737365722656,88.87156677246094,-0.011615286933051215,0.207,0.3407142857142857,0.003997633192274305,-0.8898664885253922,-0.02197326953125156,51.5035400390625,0.03705173068576389,-0.08009156121148003
1788,0.16498376570095488,0.17929691314697266,88.83065795898438,84.26852416992188,-3.6230850219726562,88.89202880859375,-0.0018409305148654514,0.20366666666666666,0.3417857142857143,0.0022582160101996527,-1.0656420164794937,-0.48338379199218906,51.5035400390625,0.050690375434027775,-0.08350126478407117
1789,0.14154626570095488,0.219140682220459,90.0785903930664,82.32501220703125,-3.357128143310547,89.1579818725586,-0.009342193603515625,0.2,0.34214285714285714,0.0024413214789496527,-1.3952223234863297,-1.2633902006835953,51.5035400390625,0.08615086873372396,-0.083501222398546
1790,0.16107751570095488,0.219140682220459,89.42393493652344,84.80043029785156,-3.3980445861816406,89.567138671875,-0.011615286933051215,0.19666666666666666,0.3432142857142857,0.0035399542914496527,-1.4501520567626969,-1.3842359953613297,51.5035400390625,0.05137227376302083,-0.08850203620062934
1791,0.15326501570095488,0.239062557220459,86.21202850341797,79.05172729492188,-3.5617103576660156,89.58760070800781,-0.00297745598687066,0.19433333333333333,0.3435714285714286,0.0023802863226996527,-1.7467752867431656,-2.1202989989013687,51.5035400390625,0.07955890231662327,-0.0905479007297092
1792,0.16889001570095488,0.219140682220459,83.16378784179688,82.12042999267578,-3.6026268005371094,90.0785903930664,-0.010478719075520834,0.191,0.3439285714285714,0.00091552734375,-2.186215060302736,-1.9884668760986344,51.151981353759766,0.011592864990234375,-0.09645796881781685
1793,0.15326501570095488,0.239062557220459,84.0434799194336,80.56562042236328,-3.5821685791015625,90.13996887207031,-0.0059324900309244795,0.18766666666666668,0.34464285714285714,-0.000396728515625,-2.3949495726318375,-0.3295809202880875,51.151981353759766,0.03864288330078125,-0.09691263834635416
1794,0.13764001570095488,0.219140682220459,84.5140151977539,85.5982894897461,-3.704914093017578,89.6080551147461,0.009751976860894098,0.185,0.34535714285714286,-0.0024108039008246527,-2.7245279722900406,0.9557820558547974,50.888309478759766,-0.012047492133246528,-0.09236632453070746
1795,0.13373376570095488,0.219140682220459,88.62606811523438,85.0050048828125,-3.868579864501953,89.62850952148438,-0.009342193603515625,0.18166666666666667,0.3457142857142857,-0.00067138671875,-2.944248812744142,0.5273280143737793,50.888309478759766,0.04023403591579861,-0.09441210428873698
1796,0.18060876570095488,0.19921878814697266,88.83065795898438,79.74729919433594,-3.7662887573242188,89.95584106445312,-0.014570320977105035,0.179,0.3464285714285714,0.00091552734375,-2.878332751342775,-0.3845106535644547,50.888309478759766,0.10092620849609375,-0.09691255357530382
1797,0.19623376570095488,0.17929691314697266,87.58271789550781,85.57783508300781,-4.073158264160156,89.567138671875,-0.011842600504557292,0.17433333333333334,0.3475,0.0009764777289496528,-2.7574869566650406,-0.2526785307617203,50.888309478759766,0.022276475694444443,-0.09600329928927952
1798,0.20404626570095488,0.17929691314697266,90.52867126464844,81.42485809326172,-3.704914093017578,90.1604232788086,-0.008205625745985243,0.171,0.3489285714285714,0.000885009765625,-3.0211512022705094,0.02197200059890747,50.888309478759766,0.10115347968207465,-0.09850374857584636
1799,0.20795251570095488,0.15937503814697265,85.74149322509766,83.69569396972656,-3.8890380859375,89.79217529296875,-0.00297745598687066,0.16566666666666666,0.35,0.00054931640625,-3.1200243406982437,-0.7250772886962906,50.888309478759766,0.022731102837456597,-0.09645792643229166
1800,0.28998376570095485,0.13945316314697265,89.2193603515625,86.02790832519531,-3.7662887573242188,90.1604232788086,-0.014115693834092882,0.16166666666666665,0.3517857142857143,0.000946044921875,-3.251856463500978,-0.12084640795898594,50.888309478759766,0.035460578070746526,-0.09918568929036459
1801,0.16107751570095488,0.17929691314697266,86.41661071777344,81.69081115722656,-3.2139244079589844,88.54424285888672,0.0036145528157552082,0.15666666666666668,0.3535714285714286,-0.001708984375,-3.526507037231447,-0.4723993712158219,50.62464141845703,0.05250888400607639,-0.0750907474093967
1802,0.13764001570095488,0.15937503814697265,86.27340698242188,77.84471130371094,-3.3366737365722656,89.567138671875,-0.00047704908582899306,0.153,0.35535714285714287,-0.004150305853949653,-2.6476274901123062,-1.0876146727294937,50.53675079345703,0.0936521742078993,-0.08782013787163628
1803,0.14935876570095488,0.15937503814697265,81.60897827148438,79.74729919433594,-3.704914093017578,89.05569458007812,-0.023435465494791665,0.14933333333333335,0.35642857142857143,-0.004516516791449653,-2.1202989989013687,-1.2743765288085953,50.53675079345703,0.020685323079427085,-0.08622898525661893
1804,0.25092126570095485,0.09960939407348633,84.14576721191406,82.9592056274414,-3.5821685791015625,89.0761489868164,0.0006595187717013889,0.146,0.3575,-0.004974195692274305,-2.3290335112304703,1.0436700582504272,50.53675079345703,0.013184017605251737,-0.08509241739908854
1805,0.20795251570095488,0.13945316314697265,90.24225616455078,82.57050323486328,-3.6026268005371094,89.68988800048828,-0.006159803602430555,0.143,0.3578571428571429,-0.0021056281195746527,-2.482836382934572,2.186213970184326,50.53675079345703,0.08524169921875,-0.09213905334472657
1806,0.18842126570095488,0.15937503814697265,87.45996856689453,86.78485107421875,-3.704914093017578,89.40347290039062,-0.01752539740668403,0.139,0.35892857142857143,-3.0517578125e-05,-2.911289828369142,0.9118380546569824,49.8336296081543,0.007501305474175347,-0.09009318881564671
1807,0.20404626570095488,0.13945316314697265,89.1170654296875,82.69325256347656,-3.8276634216308594,89.79217529296875,-0.0075236850314670135,0.13666666666666666,0.35964285714285715,0.00079345703125,-3.273829119750978,0.032958000898361206,48.60316848754883,0.07137569851345486,-0.09577598571777343
1808,0.28217126570095485,0.13945316314697265,86.6007308959961,83.94119262695312,-4.052700042724609,89.66943359375,-0.015024948120117187,0.134,0.36,0.0030516730414496527,-3.273829119750978,-0.6042314940185562,48.60316848754883,0.02955042521158854,-0.09691259596082899
1809,0.33295251570095485,0.13945316314697265,91.0196533203125,82.77508544921875,-4.1959075927734375,89.40347290039062,-0.01070603264702691,0.13133333333333333,0.3603571428571429,0.004119703504774305,-3.0101648741455094,-0.5383154326171891,48.427391052246094,0.09160630967881944,-0.09554867214626736
1810,0.35248376570095485,0.1195312786102295,88.52378845214844,83.87982177734375,-3.66400146484375,89.40347290039062,-0.002522828843858507,0.128,0.3607142857142857,0.0019835578070746527,-2.493822711059572,0.08788800239562988,48.427391052246094,0.05159962972005208,-0.08963860405815972
1811,0.22357751570095488,0.13945316314697265,89.50576782226562,81.17935943603516,-3.66400146484375,89.50576782226562,-0.0009316762288411458,0.12366666666666666,0.3610714285714286,0.00067138671875,-2.6146685057373062,0.0,48.427391052246094,0.0925156487358941,-0.09077521430121528
1812,0.25092126570095485,0.13945316314697265,85.557373046875,85.92561340332031,-3.7867469787597656,89.19889831542969,-0.009342193603515625,0.12,0.36142857142857143,0.0013121710883246527,-3.0431219511718766,-0.2636648588867203,48.427391052246094,-0.004091559516059028,-0.0887293921576606
1813,0.26264001570095485,0.1195312786102295,85.47554016113281,82.75462341308594,-3.868579864501953,90.0172119140625,0.0020233578152126738,0.11633333333333333,0.36178571428571427,0.000457763671875,-3.6693254881591812,-0.07690300280761875,48.427391052246094,0.030232408311631945,-0.09873101976182726
1814,0.27435876570095485,0.09960939407348633,84.0434799194336,78.76531982421875,-3.8890380859375,89.99675750732422,0.003387239244249132,0.11333333333333333,0.3625,-0.001373291015625,-3.6803099089355484,-0.21972145373535312,48.427391052246094,0.05864622328016493,-0.09873106214735243
1815,0.26264001570095485,0.1195312786102295,86.43707275390625,82.9592056274414,-3.8890380859375,89.58760070800781,-0.02570855882432726,0.10933333333333334,0.3632142857142857,0.00067138671875,-3.6803099089355484,1.1535300016403198,48.427391052246094,0.038642968071831596,-0.09418487548828125
1816,0.27045251570095485,0.1195312786102295,87.50088500976562,88.03279113769531,-3.8481216430664062,89.71034240722656,-0.005250591701931423,0.10566666666666667,0.36357142857142855,0.0018004523383246527,-3.7242552214355484,1.9884660243988037,48.427391052246094,-0.0059100680881076385,-0.0950940450032552
1817,0.25873376570095485,0.09960939407348633,89.0761489868164,79.87004852294922,-3.8072052001953125,89.77172088623047,-0.0011589898003472221,0.10166666666666667,0.36428571428571427,0.0022276984320746527,-3.4386183195800797,-0.2636648588867203,48.427391052246094,0.10229000515407986,-0.09532140096028646
1818,0.28217126570095485,0.09960939407348633,83.81844329833984,86.21202850341797,-3.745830535888672,89.0147705078125,-0.010478719075520834,0.09666666666666666,0.365,0.0025328742133246527,-3.4166475706787125,-0.6042314940185562,48.427391052246094,-0.02659539116753472,-0.08622890048556858
1819,0.20795251570095488,0.1195312786102295,89.34210205078125,81.19981384277344,-3.7662887573242188,89.2193603515625,-0.0043413374159071184,0.09233333333333334,0.3657142857142857,0.0016173468695746527,-3.3617159300537125,-0.5053564482421891,48.427391052246094,0.09046986897786459,-0.08872943454318577
1820,0.19623376570095488,0.13945316314697265,87.91004180908203,82.77508544921875,-3.8481216430664062,89.75126647949219,-0.012979168362087673,0.088,0.36607142857142855,0.0011290656195746527,-2.955235140869142,-0.7140909605712906,48.427391052246094,0.05705507066514757,-0.0955487569173177
1821,0.17279626570095488,0.13945316314697265,86.559814453125,80.21783447265625,-3.8276634216308594,89.93538665771484,0.0017960866292317708,0.085,0.3657142857142857,-0.000152587890625,-2.856360095092775,-1.2743765288085953,48.427391052246094,0.07046644422743055,-0.09736722310384115
1822,0.23139001570095488,0.13945316314697265,83.81844329833984,82.32501220703125,-3.9504127502441406,90.05813598632812,-0.014570320977105035,0.08166666666666667,0.3653571428571429,0.0016173468695746527,-2.812416689941408,-0.845923083374025,48.427391052246094,0.01659367879231771,-0.10009498596191406
1823,0.27435876570095485,0.15937503814697265,86.49844360351562,83.08195495605469,-3.8890380859375,89.28073120117188,-0.02684512668185764,0.07766666666666666,0.3653571428571429,0.004791090223524305,-3.0321375303955094,0.5493000149726868,48.427391052246094,0.037960984971788195,-0.09077521430121528
1824,0.21576501570095488,0.15937503814697265,88.62606811523438,83.69569396972656,-3.9913291931152344,89.71034240722656,0.009070036146375868,0.075,0.365,0.0031432257758246527,-3.1200243406982437,0.6921180486679077,48.427391052246094,0.054781934950086805,-0.09668524000379775
1825,0.22357751570095488,0.15937503814697265,84.90271759033203,79.70639038085938,-4.093616485595703,90.24225616455078,-0.01320648193359375,0.072,0.36464285714285716,0.0033263312445746527,-2.900305407592775,-0.812964098999025,48.427391052246094,0.057736968994140624,-0.10373191833496094
1826,0.26654626570095485,0.15937503814697265,90.24225616455078,83.92073059082031,-3.9913291931152344,90.05813598632812,-0.013433795505099827,0.068,0.36392857142857143,0.004241773817274305,-2.889319079467775,-0.2636648588867203,48.427391052246094,0.07023917304144965,-0.10054961310492622
1827,0.22748376570095488,0.15937503814697265,87.29630279541016,88.36012268066406,-4.380031585693359,89.38301849365234,-0.009114880032009548,0.065,0.36357142857142855,0.0036009894476996527,-2.878332751342775,-0.5602861815185562,48.427391052246094,-0.011820220947265625,-0.09736722310384115
1828,0.26654626570095485,0.1195312786102295,91.0196533203125,82.59095764160156,-4.1959075927734375,89.87400817871094,-0.005705218844943577,0.06166666666666667,0.36357142857142855,0.0018614874945746527,-2.944248812744142,-0.6371885710449234,48.427391052246094,0.0936521742078993,-0.10077684190538194
1829,0.24310876570095488,0.1195312786102295,84.43218231201172,81.34302520751953,-4.1959075927734375,90.85599517822266,-0.008660252888997395,0.058333333333333334,0.36392857142857143,0.000762939453125,-2.856360095092775,-1.4281813078613297,48.427391052246094,0.034323967827690975,-0.11168780856662326
1830,0.25092126570095485,0.13945316314697265,85.1072998046875,82.01814270019531,-4.277740478515625,88.99431610107422,-0.014797634548611112,0.054,0.36392857142857143,0.0014952765570746527,-3.4166475706787125,-0.9777552061767594,48.427391052246094,0.034323967827690975,-0.09191173977322048
1831,0.23920251570095488,0.13945316314697265,86.04837036132812,82.16134643554688,-4.011787414550781,89.17843627929688,-0.0054779052734375,0.051,0.36392857142857143,0.00042724609375,-3.812142031738283,0.14281800389289856,48.427391052246094,0.043189154730902776,-0.09100248548719618
1832,0.13764001570095488,0.15937503814697265,91.46973419189453,82.91828918457031,-4.11407470703125,89.46485137939453,0.009070036146375868,0.047,0.36464285714285716,-0.0023802863226996527,-3.559464114257814,0.36253800988197327,48.427391052246094,0.09501605563693577,-0.09532140096028646
1833,0.13373376570095488,0.17929691314697266,86.96897888183594,81.0975341796875,-4.134532928466797,90.24225616455078,-0.015024948120117187,0.044,0.36464285714285716,-0.0020445929633246527,-3.4496046477050797,-0.6262022429199234,48.427391052246094,0.06523827446831597,-0.1041865454779731
1834,0.16889001570095488,0.17929691314697266,81.69081115722656,81.30210876464844,-4.277740478515625,89.81263732910156,-0.024117406209309897,0.04033333333333333,0.36428571428571427,0.00018310546875,-3.163967745849611,-0.4394403868408219,48.427391052246094,0.0043189154730902775,-0.1010041978624132
1835,0.17670251570095488,0.17929691314697266,85.90515899658203,86.68256378173828,-4.154991149902344,89.30118560791016,-0.0002497355143229167,0.037333333333333336,0.36357142857142855,0.000213623046875,-3.0650946074218766,1.1864880323410034,48.427391052246094,-0.008637830946180555,-0.09395751953125
1836,0.22357751570095488,0.15937503814697265,92.24713897705078,80.52470397949219,-4.175449371337891,90.24225616455078,-0.006387117173936632,0.034,0.3628571428571429,0.0025939093695746527,-2.6695982390136734,0.4284540116786957,48.427391052246094,0.13024927775065104,-0.10464117262098524
1837,0.25873376570095485,0.15937503814697265,84.41172790527344,80.13600158691406,-5.44384765625,91.26515197753906,-0.0168434566921658,0.030333333333333334,0.3625,0.004150221082899305,-2.4608656340332047,-0.7800070219726578,48.075828552246094,0.04750807020399306,-0.1300999959309896
1838,0.25482751570095485,0.15937503814697265,84.67768096923828,84.0434799194336,-5.423389434814453,91.49018859863281,0.0049784342447916664,0.028,0.3603571428571429,0.0030516730414496527,-2.933262484619142,0.41746801137924194,46.58169937133789,0.007046678331163195,-0.13237308926052518
1839,0.23920251570095488,0.15937503814697265,89.40347290039062,85.14820861816406,-5.423389434814453,90.52867126464844,0.008615409003363715,0.024,0.35892857142857143,0.0025939093695746527,-3.0870672636718766,1.4611380100250244,46.40591812133789,0.04728071424696181,-0.12168956332736545
1840,0.24701501570095488,0.13945316314697265,87.93049621582031,80.36103820800781,-4.7482757568359375,91.20378112792969,-0.006387117173936632,0.020666666666666667,0.35714285714285715,0.0025328742133246527,-2.790444033691408,-0.3625379973144547,45.43912887573242,0.08410508897569445,-0.12168952094184028
1841,0.27435876570095485,0.13945316314697265,83.30699157714844,88.38057708740234,-4.7482757568359375,89.44439697265625,-0.015252261691623263,0.016666666666666666,0.35535714285714287,0.0031432257758246527,-2.471850054809572,-0.9008528166503922,44.03289031982422,-0.05637317233615451,-0.10214080810546874
1842,0.23139001570095488,0.13945316314697265,90.71278381347656,82.12042999267578,-4.277740478515625,89.34210205078125,0.014980104234483507,0.013333333333333334,0.3532142857142857,0.0018309699164496527,-1.7467752867431656,0.5273280143737793,42.01142120361328,0.09547059800889757,-0.0957760281032986
1843,0.30170251570095485,0.1195312786102295,88.42149353027344,80.81111145019531,-3.5412521362304688,88.40103149414062,-0.0059324900309244795,0.01,0.35035714285714287,0.0018309699164496527,-0.812964098999025,-0.3405672484130875,37.529029846191406,0.08455980088975694,-0.07713648478190104
1844,0.21185876570095488,0.13945316314697265,87.86912536621094,84.43218231201172,-3.1934661865234375,88.38057708740234,-0.01320648193359375,0.006333333333333333,0.3457142857142857,0.0003662109375,-0.19774879748535312,0.032958000898361206,33.486087799072266,0.0381882561577691,-0.07304492526584201
1845,0.18060876570095488,0.09960939407348633,87.80775451660156,84.61630249023438,-2.9479713439941406,88.03279113769531,0.007024214002821181,0.004666666666666667,0.34214285714285714,-0.0036009894476996527,0.5932440161705017,-0.09887375170898594,31.991960525512695,0.035460578070746526,-0.06645291646321615
1846,0.14935876570095488,0.09960939407348633,84.77996826171875,87.03034973144531,-1.4136199951171875,86.84622192382812,-0.0043413374159071184,0.0033333333333333335,0.335,-0.004943678114149305,0.7580339908599854,-0.4723993712158219,31.28883934020996,-0.02500423855251736,-0.03622046576605903
1847,0.10639001570095495,0.13945316314697265,82.73416900634766,80.15646362304688,-2.1910247802734375,86.0688247680664,-0.004568650987413194,0.001,0.33071428571428574,-0.005309889051649305,1.4281799793243408,-1.3622652464599625,29.179479598999023,0.028641170925564237,-0.036220550537109375
1848,0.15717126570095488,0.13945316314697265,85.16867065429688,77.25142669677734,-1.6795730590820312,85.88470458984375,-0.013661109076605903,0.001,0.32357142857142857,-0.0030516730414496527,1.5270540714263916,-0.3405672484130875,24.081859588623047,0.08796937730577258,-0.028491973876953125
1849,0.29389001570095485,0.09960939407348633,89.6080551147461,85.53691101074219,0.12073135375976562,83.61386108398438,-0.013433795505099827,0.002,0.31892857142857145,-0.00067138671875,2.0873401165008545,0.790992021560669,23.993968963623047,0.045234934488932295,0.01674300299750434
1850,0.30560876570095485,0.09960939407348633,88.76927947998047,85.41416931152344,0.3662261962890625,83.87982177734375,-0.01070603264702691,0.0013333333333333333,0.31285714285714283,0.00067138671875,3.076080083847046,1.032684087753296,23.993968963623047,0.037279001871744794,0.016515604654947915
1851,0.19232751570095488,0.13945316314697265,90.13996887207031,83.63432312011719,2.207447052001953,83.61386108398438,-0.006387117173936632,0.0,0.3082142857142857,-0.0,3.4825620651245117,0.5273280143737793,23.993968963623047,0.07228495279947916,0.03992873297797309
