,WD,WS,AIL_1,AIL_2,ELEV_1,ELEV_2,RUDD,ALT,GS,TH,PTCH,ROLL,PLA_1,AIL,ELEV
4931,-0.07122887505425347,0.239062557220459,85.92561340332031,81.97721862792969,-3.0502586364746094,88.05325317382812,-0.014797634548611112,0.8023333333333333,0.4992857142857143,0.004852210150824653,-2.142269747802736,-0.3845106535644547,28.124799728393555,0.04387105305989583,-0.0678167978922526
4932,-0.07122887505425347,0.239062557220459,86.6007308959961,82.71371459960938,-3.11163330078125,87.80775451660156,-0.006387117173936632,0.7943333333333333,0.4992857142857143,0.004394446478949653,-1.7248026304931656,-0.05493034655761875,27.773239135742188,0.04318906995985243,-0.06577097574869792
4933,-0.032166375054253474,0.25898443222045897,84.82088470458984,80.50424194335938,-2.8456802368164062,87.91004180908203,-0.02320815192328559,0.79,0.4992857142857143,0.006225416395399305,-1.6259294920654312,-0.801977770874025,27.773239135742188,0.04796269734700521,-0.0639524671766493
4934,0.03423984716796882,0.219140682220459,86.82576751708984,82.57050323486328,-2.8252220153808594,87.5213394165039,-0.015934202406141493,0.7853333333333333,0.49892857142857144,0.010008153271484351,-0.9228254729003922,0.7031040191650391,27.68535041809082,0.04728071424696181,-0.05940623813205295
4935,0.04986484716796882,0.239062557220459,87.6031723022461,84.57539367675781,-2.7843055725097656,87.43951416015625,-0.008887566460503472,0.779,0.49785714285714283,0.011381359516059003,-0.06591667468261875,1.6808580160140991,27.68535041809082,0.03364198472764757,-0.05804244147406684
4936,0.06158359716796882,0.239062557220459,86.49844360351562,82.85691833496094,-2.7843055725097656,87.54179382324219,-0.014797634548611112,0.7726666666666666,0.4967857142857143,0.012907238422309003,-0.15380539233398594,0.0,27.68535041809082,0.04046139187282986,-0.0591788821750217
4937,0.08892734716796882,0.219140682220459,84.84133911132812,80.21783447265625,-2.866138458251953,87.72592163085938,-0.014343007405598959,0.7683333333333333,0.4957142857142857,0.013487072406684003,-0.2966219359130875,-1.527054446289064,30.058380126953125,0.05137227376302083,-0.062134000990125865
4938,0.10455234716796882,0.239062557220459,85.16867065429688,81.71127319335938,-2.7843055725097656,87.562255859375,-0.008887566460503472,0.7636666666666667,0.49464285714285716,0.013792248187934003,-0.17577614123535312,-0.9887415343017594,31.113059997558594,0.03841552734375,-0.05940623813205295
4939,0.12017734716796882,0.2789063262939453,86.662109375,81.56806182861328,-2.743389129638672,87.74638366699219,-0.021389685736762153,0.758,0.49392857142857144,0.015043384120008656,0.1538040041923523,-0.3076082640380875,32.34352111816406,0.056600528293185765,-0.06099747551812066
4940,0.08892734716796882,0.2789063262939453,88.0123291015625,85.96653747558594,-2.9479713439941406,87.76683807373047,-0.005250591701931423,0.7543333333333333,0.4928571428571429,0.013090343891059003,0.3076080083847046,0.20873400568962097,32.8708610534668,0.02273101806640625,-0.06349788241916232
4941,0.06158359716796882,0.25898443222045897,84.5958480834961,81.48623657226562,-3.0502586364746094,87.84866333007812,-0.00297745598687066,0.749,0.49142857142857144,0.010587987255859351,0.3185940086841583,-0.7690206938476578,32.8708610534668,0.034551239013671874,-0.06554357740614149
4942,0.08892734716796882,0.25898443222045897,82.9592056274414,78.00836944580078,-2.7843055725097656,87.62362670898438,-0.010251405504014757,0.7443333333333333,0.4903571428571429,0.011778088031684003,0.23070600628852844,-0.16478981311035312,32.8708610534668,0.05500929090711806,-0.06008813646104601
4943,0.11236484716796882,0.2789063262939453,85.76194763183594,82.28408813476562,-2.7638473510742188,87.39859008789062,-0.009796820746527778,0.741,0.48928571428571427,0.014097339198133656,0.6701459884643555,1.538040041923523,33.837650299072266,0.03864288330078125,-0.05736041598849827
4944,0.11627109716796882,0.239062557220459,88.74882507324219,83.87982177734375,-2.9684295654296875,87.80775451660156,-0.009796820746527778,0.7363333333333333,0.4882142857142857,0.014249927088758656,1.06564199924469,1.8676199913024902,34.364990234375,0.05410003662109375,-0.06417982313368055
4945,0.08111484716796882,0.239062557220459,86.47798156738281,83.90027618408203,-2.7843055725097656,87.562255859375,-0.012297227647569445,0.732,0.48678571428571427,0.012937756000434003,0.9667680263519287,0.0,35.7712287902832,0.028641170925564237,-0.05940623813205295
4946,0.09283359716796882,0.219140682220459,85.61874389648438,81.52714538574219,-2.7843055725097656,87.6031723022461,-0.015024948120117187,0.7283333333333334,0.4860714285714286,0.012876720844184003,1.0107120275497437,-0.8898664885253922,36.91379928588867,0.04546220567491319,-0.0598608652750651
4947,0.10455234716796882,0.25898443222045897,86.68256378173828,81.42485809326172,-2.7638473510742188,87.88958740234375,-0.01729808383517795,0.727,0.4860714285714286,0.013761730609809003,1.021697998046875,-0.09887375170898594,38.14426040649414,0.058418952094184025,-0.0628159417046441
4948,0.07720859716796882,0.25898443222045897,86.33477783203125,82.59095764160156,-2.7843055725097656,87.39859008789062,-0.004114023844401042,0.7226666666666667,0.48678571428571427,0.011839123187934003,-0.14281906420898594,0.4723980128765106,39.11104965209961,0.041598002115885414,-0.05758772956000434
4949,0.05767734716796882,0.25898443222045897,84.49356079101562,80.62699890136719,-3.704914093017578,88.46240997314453,-0.004568650987413194,0.7206666666666667,0.4878571428571429,0.010465916943359351,-0.6152159147949234,0.24169200658798218,39.28683090209961,0.042961798773871525,-0.07963693406846788
4950,0.07330234716796882,0.19921878814697266,88.0123291015625,81.64989471435547,-4.707359313964844,89.05569458007812,-0.011160659790039062,0.7183333333333334,0.4878571428571429,0.010649022412109351,-1.0546575957031266,1.6149420738220215,37.529029846191406,0.07069371541341146,-0.09736726548936632
4951,0.04986484716796882,0.219140682220459,87.562255859375,83.81844329833984,-3.9504127502441406,88.64653015136719,-0.01616151597764757,0.7126666666666667,0.4878571428571429,0.010099706005859351,-2.0324102812500016,1.2304320335388184,37.17747116088867,0.04159791734483507,-0.08441047668457032
4952,0.06548984716796882,0.19921878814697266,85.20958709716797,82.550048828125,-3.8481216430664062,87.91004180908203,-0.020480431450737847,0.7083333333333334,0.48857142857142855,0.010832127880859351,-1.3952223234863297,-0.5492998533935562,38.671600341796875,0.02955042521158854,-0.07509070502387152
4953,0.06939609716796882,0.239062557220459,86.27340698242188,82.77508544921875,-2.9275131225585938,87.17355346679688,-0.006841744316948784,0.7013333333333334,0.4907142857142857,0.011106786083984351,-1.120571749755861,-0.4723993712158219,38.93526840209961,0.0388702392578125,-0.056678517659505205
4954,0.04595859716796882,0.239062557220459,83.67523193359375,80.17691802978516,-3.11163330078125,87.62362670898438,-0.0054779052734375,0.6943333333333334,0.49214285714285716,0.009001073193359351,-0.5163427763671891,-0.5822588377685562,36.38645935058594,0.038870154486762155,-0.06372511121961806
4955,0.06158359716796882,0.25898443222045897,85.86424255371094,81.56806182861328,-3.2139244079589844,87.82821655273438,-0.01070603264702691,0.689,0.4925,0.010282811474609351,-0.20873512561035312,1.1645159721374512,35.6833381652832,0.047735341389973956,-0.06713489956325955
4956,0.04595859716796882,0.239062557220459,86.6007308959961,83.5115737915039,-3.2139244079589844,87.97142028808594,-0.0022955152723524307,0.6813333333333333,0.49214285714285716,0.009672459912109351,-0.7140909605712906,1.538040041923523,33.837650299072266,0.034323967827690975,-0.0687260521782769
4957,0.06548984716796882,0.2789063262939453,84.61630249023438,81.62944030761719,-3.2139244079589844,87.70545959472656,-0.01661614312065972,0.6773333333333333,0.49178571428571427,0.011503429828559003,-0.4174677305908219,0.3954960107803345,33.573978424072266,0.03318735758463542,-0.06577093336317275
4958,0.11236484716796882,0.2789063262939453,85.33233642578125,81.17935943603516,-3.2139244079589844,88.1146240234375,-0.01752539740668403,0.673,0.49142857142857144,0.015073901698133656,-0.20873512561035312,0.8788800239562988,33.573978424072266,0.046144188774956595,-0.07031720479329427
4959,0.10455234716796882,0.25898443222045897,90.0785903930664,84.98455047607422,-3.2343826293945312,88.03279113769531,-0.0034320831298828127,0.6673333333333333,0.4903571428571429,0.014829761073133656,-0.3954969816894547,2.3290319442749023,32.4314079284668,0.05660044352213542,-0.06963526407877604
4960,0.08111484716796882,0.25898443222045897,86.58027648925781,82.30455017089844,-3.2139244079589844,88.09416198730469,-0.015934202406141493,0.6613333333333333,0.48964285714285716,0.014219409510633656,-0.7031046324462906,1.0436700582504272,32.07984924316406,0.04750807020399306,-0.07008984883626303
4961,0.08111484716796882,0.2789063262939453,85.25050354003906,81.64989471435547,-3.132091522216797,87.62362670898438,-0.011160659790039062,0.6553333333333333,0.48928571428571427,0.014982348963758656,-0.5273291044921891,0.05493000149726868,32.07984924316406,0.040006764729817706,-0.06395242479112413
4962,0.11236484716796882,0.29882820129394533,85.86424255371094,81.38394165039062,-3.132091522216797,87.70545959472656,-0.015706888834635415,0.651,0.48857142857142855,0.01702694192708331,-0.02197326953125156,-0.01098694140625156,32.07984924316406,0.049781121148003475,-0.06486167907714843
4963,0.13580234716796882,0.2789063262939453,86.19157409667969,82.42729949951172,-3.2139244079589844,87.72592163085938,-0.011387973361545138,0.646,0.4875,0.01846126809895831,0.14281800389289856,0.790992021560669,32.07984924316406,0.04182527330186632,-0.06599828932020399
4964,0.11236484716796882,0.3187500762939453,89.17843627929688,84.71859741210938,-3.2139244079589844,87.80775451660156,-0.010251405504014757,0.6413333333333333,0.48678571428571427,0.01806453958333331,-0.12084640795898594,0.9447960257530212,31.816179275512695,0.049553765190972224,-0.0669075436062283
4965,0.09283359716796882,0.3187500762939453,86.662109375,81.93630981445312,-3.1934661865234375,88.03279113769531,-0.018661922878689237,0.637,0.4857142857142857,0.016813403651258656,-0.3295809202880875,-0.6042314940185562,31.552509307861328,0.05250888400607639,-0.06918063693576389
4966,0.07720859716796882,0.29882820129394533,86.92805480957031,83.18424987792969,-3.2343826293945312,88.13508605957031,-0.008887566460503472,0.6336666666666667,0.485,0.014616138026258656,-0.6811319761962906,-0.4284540587158219,30.673608779907227,0.04159783257378472,-0.0707718743218316
4967,0.08111484716796882,0.17929691314697266,86.13019561767578,82.69325256347656,-3.1525497436523438,87.82821655273438,-0.014343007405598959,0.6296666666666667,0.48428571428571426,0.012144298969184003,-1.0436712675781266,-0.8898664885253922,30.146268844604492,0.0381882561577691,-0.06645295884874132
4968,0.01861484716796882,0.13945316314697265,85.82332611083984,83.02058410644531,-3.132091522216797,87.58271789550781,-0.006841744316948784,0.626,0.48464285714285715,0.008421239208984351,-1.4940973692626969,-1.6479002409667984,30.058380126953125,0.031141577826605902,-0.06349788241916232
4969,-0.020447625054253474,0.17929691314697266,84.75950622558594,79.87004852294922,-3.1525497436523438,87.562255859375,-0.0168434566921658,0.621,0.4860714285714286,0.004913245307074653,-2.0873400145263687,-2.208185809204103,34.101318359375,0.054327307807074655,-0.06349784003363715
4970,-0.004822625054253472,0.19921878814697266,83.47065734863281,80.68836975097656,-3.1525497436523438,87.50088500976562,-0.0059324900309244795,0.6153333333333333,0.48714285714285716,0.004180823432074653,-1.7907186918945328,-1.6149431639404312,35.7712287902832,0.030914306640625,-0.0628159417046441
4971,0.06939609716796882,0.219140682220459,83.67523193359375,79.19493103027344,-3.2343826293945312,87.91004180908203,-0.011842600504557292,0.613,0.48857142857142855,0.007627866948784698,-1.0326849394531266,-0.5932451658935562,36.65013122558594,0.049781121148003475,-0.06827138264973959
4972,0.12408359716796882,0.239062557220459,87.45996856689453,83.47065734863281,-3.1525497436523438,87.95095825195312,-0.014343007405598959,0.6066666666666667,0.48928571428571427,0.011411877094184003,-1.0216986113281266,1.6369140148162842,36.82590866088867,0.04432568020290799,-0.06781675550672743
4973,0.04986484716796882,0.25898443222045897,89.0147705078125,85.37325286865234,-3.1525497436523438,87.97142028808594,-0.0018409305148654514,0.6016666666666667,0.4903571428571429,0.007963560308159699,-1.4940973692626969,2.3839621543884277,35.6833381652832,0.04046130710177952,-0.06804411146375867
4974,-0.020447625054253474,0.239062557220459,87.21446990966797,83.61386108398438,-3.1934661865234375,87.66455078125,-0.010478719075520834,0.5983333333333334,0.49107142857142855,0.004363928900824653,-1.0546575957031266,0.4394400119781494,35.24388885498047,0.040006764729817706,-0.06508907741970486
4975,-0.051697625054253474,0.239062557220459,82.63188171386719,81.0361557006836,-3.2139244079589844,87.97142028808594,-0.006841744316948784,0.5923333333333334,0.49178571428571427,0.001617431640625,-1.153530734130861,-1.8676210814209,33.749759674072266,0.017730289035373263,-0.0687260521782769
4976,-0.012635125054253472,0.219140682220459,83.75706481933594,80.0950927734375,-3.1934661865234375,87.76683807373047,-0.01252454121907552,0.5873333333333334,0.49214285714285716,0.0027159796820746527,-1.7467752867431656,-0.7909933500976578,33.486087799072266,0.040688578287760416,-0.06622560289171008
4977,0.03423984716796882,0.239062557220459,85.12775421142578,81.11798858642578,-3.1525497436523438,87.84866333007812,-0.01752539740668403,0.5836666666666667,0.49214285714285716,0.005462476942274305,-1.2853628569335953,0.5712720155715942,32.07984924316406,0.04455295138888889,-0.06668014526367187
4978,0.04986484716796882,0.25898443222045897,86.41661071777344,82.28408813476562,-3.132091522216797,87.74638366699219,-0.012297227647569445,0.5783333333333334,0.49214285714285716,0.007200620855034698,-0.7909933500976578,1.9994521141052246,31.46462059020996,0.045916917588975696,-0.06531639099121093
4979,0.01470859716796882,0.25898443222045897,87.0098876953125,84.16622924804688,-3.1525497436523438,87.66455078125,-0.002068201700846354,0.574,0.49142857142857144,0.005889723036024305,-0.6701475554199234,2.2631161212921143,30.673608779907227,0.031596204969618055,-0.0646344502766927
4980,-0.012635125054253472,0.219140682220459,85.72103881835938,82.91828918457031,-3.1525497436523438,87.62362670898438,-0.0066144307454427086,0.5693333333333334,0.4907142857142857,0.005187903510199653,-0.2526785307617203,0.9887400269508362,29.794710159301758,0.03114166259765625,-0.0641797383626302
4981,-0.0009163750542534722,0.19921878814697266,87.99187469482422,82.65233612060547,-3.1730079650878906,87.76683807373047,-0.0168434566921658,0.5656666666666667,0.48964285714285716,0.005920240614149305,-0.3735243254394547,0.8239500522613525,29.53104019165039,0.05932820638020833,-0.06599828932020399
4982,-0.051697625054253474,0.19921878814697266,87.99187469482422,84.86180114746094,-3.2139244079589844,87.64408874511719,-0.01002409193250868,0.5633333333333334,0.48928571428571427,0.0034789191351996527,-0.2636648588867203,0.1867620050907135,30.40993881225586,0.034778594970703125,-0.06508903503417969
4983,-0.07513512505425347,0.219140682220459,83.96165466308594,82.12042999267578,-3.1934661865234375,88.1555404663086,-0.014343007405598959,0.5576666666666666,0.48892857142857143,0.001220703125,-1.0656420164794937,-2.3839632445068375,28.56424903869629,0.02045805189344618,-0.07054451836480034
4984,-0.039978875054253474,0.25898443222045897,85.1072998046875,80.91340637207031,-3.5821685791015625,88.13508605957031,-0.013888380262586805,0.554,0.48857142857142855,0.001312255859375,-1.7138163023681656,-2.0433966093750016,26.103330612182617,0.04659881591796875,-0.07463616265190973
4985,-0.043885125054253474,0.2789063262939453,86.08927917480469,83.16378784179688,-3.275299072265625,88.0123291015625,-0.0022955152723524307,0.5486666666666666,0.4878571428571429,-0.00033560858832465276,-1.5929705076904312,-1.549027102539064,26.015439987182617,0.03250545925564236,-0.06986253526475694
4986,-0.024353875054253474,0.239062557220459,84.71859741210938,79.74729919433594,-3.275299072265625,88.21691131591797,-0.018207295735677084,0.5446666666666666,0.48714285714285716,0.00042724609375,-1.4171949797363297,-1.4391657286376969,26.015439987182617,0.05523664686414931,-0.07213567097981771
4987,-0.047791375054253474,0.2789063262939453,88.05325317382812,84.84133911132812,-3.2343826293945312,87.88958740234375,-0.00297745598687066,0.541,0.4860714285714286,-0.0022582160101996527,-1.2743765288085953,0.032958000898361206,25.83966064453125,0.03568793402777778,-0.06804411146375867
4988,-0.07904137505425347,0.25898443222045897,82.40684509277344,80.29966735839844,-3.275299072265625,88.09416198730469,-0.008660252888997395,0.5346666666666666,0.485,-0.004638502332899305,-1.2963491850585953,-1.164517062255861,25.83966064453125,0.0234130859375,-0.07077178955078126
4989,-0.008728875054253472,0.239062557220459,83.71615600585938,79.62455749511719,-3.3162155151367188,88.33966064453125,-0.01661614312065972,0.529,0.4828571428571429,-0.0001220703125,-1.6259294920654312,0.5602860450744629,25.83966064453125,0.04546220567491319,-0.07395417955186633
4990,0.05767734716796882,0.219140682220459,87.76683807373047,83.65477752685547,-4.216365814208984,89.09660339355469,-0.01957117716471354,0.5233333333333333,0.4810714285714286,0.004638587103949653,-1.8895918303222672,2.66959810256958,25.83966064453125,0.045689561631944445,-0.09236632453070746
4991,-0.004822625054253472,0.219140682220459,87.72592163085938,85.18913269042969,-5.034687042236328,89.50576782226562,-0.001613616943359375,0.5196666666666667,0.4775,0.0026549445258246527,-2.493822711059572,2.0983259677886963,25.83966064453125,0.028186543782552084,-0.1060050540500217
4992,-0.024353875054253474,0.239062557220459,83.92073059082031,81.13844299316406,-5.382472991943359,90.1195068359375,-0.009342193603515625,0.514,0.47464285714285714,0.00146484375,-3.4276319914550797,0.05493000149726868,25.83966064453125,0.030914306640625,-0.11668866475423177
4993,0.03033359716796882,0.25898443222045897,85.0459213256836,81.34302520751953,-6.650867462158203,90.83554077148438,-0.015024948120117187,0.511,0.46964285714285714,0.004852210150824653,-4.042849200317384,1.0546560287475586,25.83966064453125,0.04114329020182292,-0.13873786926269532
4994,0.05767734716796882,0.25898443222045897,85.27096557617188,81.48623657226562,-6.957736968994141,91.83798217773438,-0.012751854790581597,0.5073333333333333,0.4667857142857143,0.007780454839409698,-5.163420336791994,2.3070600032806396,25.83966064453125,0.042052544487847225,-0.1532857682969835
4995,0.05377109716796882,0.19921878814697266,86.86668395996094,84.0434799194336,-6.1394195556640625,90.42637634277344,-0.0054779052734375,0.5026666666666667,0.46214285714285713,0.008055113042534699,-5.646805422851564,2.7355141639709473,25.83966064453125,0.03136893378363715,-0.12850884331597223
4996,0.02252109716796882,0.2789063262939453,88.17599487304688,82.97966003417969,-5.955295562744141,90.30363464355469,-0.01661614312065972,0.49566666666666664,0.46,0.008146665776909699,-4.789896624633791,2.3290319442749023,25.83966064453125,0.05773705376519097,-0.12509922451443142
4997,-0.016541375054253474,0.2789063262939453,88.64653015136719,84.30943298339844,-6.098503112792969,90.34454345703125,-0.004568650987413194,0.489,0.4567857142857143,0.006011793348524305,-4.141722338745119,1.6698720455169678,25.83966064453125,0.04818996853298611,-0.12714496188693578
4998,-0.020447625054253474,0.2789063262939453,86.92805480957031,85.76194763183594,-5.873462677001953,90.52867126464844,-0.01616151597764757,0.4836666666666667,0.4542857142857143,0.006316969129774305,-4.866799014160158,0.5932440161705017,25.83966064453125,0.012956746419270833,-0.12669037712944878
4999,-0.016541375054253474,0.2789063262939453,86.0688247680664,82.24317932128906,-5.689342498779297,89.79217529296875,-0.011842600504557292,0.4776666666666667,0.45071428571428573,0.006652662489149305,-4.152708666870119,-0.19774879748535312,25.83966064453125,0.042507171630859375,-0.11646130879720053
5000,-0.008728875054253472,0.2789063262939453,86.31431579589844,81.83401489257812,-5.730258941650391,90.24225616455078,-0.01320648193359375,0.4713333333333333,0.44821428571428573,0.007109068120659698,-3.4276319914550797,0.2746500074863434,25.83966064453125,0.049781121148003475,-0.12191683451334635
5001,-0.012635125054253472,0.2789063262939453,86.37569427490234,82.44775390625,-5.730258941650391,90.13996887207031,-0.01070603264702691,0.4656666666666667,0.44392857142857145,0.007109068120659698,-3.526507037231447,0.7800060510635376,25.83966064453125,0.04364378187391493,-0.12078030904134114
5002,-0.0009163750542534722,0.25898443222045897,86.37569427490234,82.550048828125,-5.464302062988281,89.50576782226562,-0.01002409193250868,0.45966666666666667,0.44142857142857145,0.008146665776909699,-3.570450442382814,-0.06591667468261875,25.83966064453125,0.042507171630859375,-0.11077855428059896
5003,0.04986484716796882,0.239062557220459,86.29386138916016,82.32501220703125,-5.239265441894531,89.54668426513672,-0.02434471978081597,0.45466666666666666,0.43785714285714283,0.011564464984809003,-2.889319079467775,-0.6811319761962906,25.83966064453125,0.04409832424587674,-0.10873277452256945
5004,0.02252109716796882,0.239062557220459,84.28897857666016,81.56806182861328,-5.239265441894531,89.40347290039062,-0.00775099860297309,0.44866666666666666,0.43535714285714283,0.008756932568359351,-2.2741018706054703,-0.7690206938476578,28.388469696044922,0.030232408311631945,-0.10714153713650174
5005,0.03033359716796882,0.239062557220459,84.63676452636719,79.62455749511719,-4.871021270751953,89.19889831542969,-0.01957117716471354,0.444,0.43107142857142855,0.008695897412109351,-2.186215060302736,0.24169200658798218,32.8708610534668,0.05569118923611111,-0.10077688429090711
5006,0.04205234716796882,0.19921878814697266,86.45751953125,82.48867797851562,-4.932395935058594,88.83065795898438,-0.012297227647569445,0.43966666666666665,0.42857142857142855,0.009825047802734351,-1.9445234709472672,1.768746018409729,35.15599822998047,0.04409823947482639,-0.09736726548936632
5007,0.01470859716796882,0.19921878814697266,86.82576751708984,83.12287139892578,-4.3595733642578125,89.32164001464844,-0.0013863033718532986,0.43433333333333335,0.4257142857142857,0.009580907177734351,-1.8676210814209,2.5487520694732666,35.15599822998047,0.04114329020182292,-0.09645792643229166
5008,0.002989874945746528,0.19921878814697266,86.80531311035156,83.49111938476562,-4.564151763916016,88.68744659423828,-0.012297227647569445,0.43,0.42392857142857143,0.010526952099609351,-1.4721247130126969,2.1642420291900635,35.15599822998047,0.03682437472873264,-0.09168442620171441
5009,-0.0009163750542534722,0.25898443222045897,87.41905212402344,83.73661041259766,-3.9708709716796875,87.74638366699219,-0.011842600504557292,0.426,0.4207142857142857,0.011411877094184003,-0.6701475554199234,1.5490260124206543,35.15599822998047,0.04091601901584201,-0.07463616265190973
5010,-0.008728875054253472,0.239062557220459,86.70301818847656,84.02302551269531,-4.011787414550781,88.27828979492188,0.0024779849582248262,0.422,0.41892857142857143,0.011503429828559003,0.2526780068874359,0.7031040191650391,35.15599822998047,0.029777696397569445,-0.08100085788302952
5011,0.01080234716796882,0.25898443222045897,85.25050354003906,81.34302520751953,-4.339115142822266,89.40347290039062,-0.010478719075520834,0.41833333333333333,0.4142857142857143,0.012998791156684003,0.19774800539016724,0.2746500074863434,35.15599822998047,0.04341642591688368,-0.0971398671468099
5012,0.04205234716796882,0.239062557220459,86.19157409667969,81.71127319335938,-4.1959075927734375,88.72836303710938,-0.021389685736762153,0.416,0.4110714285714286,0.015501147791883656,0.04394400119781494,0.7690200209617615,35.15599822998047,0.049781121148003475,-0.08804745144314235
5013,0.03423984716796882,0.25898443222045897,89.26026916503906,84.84133911132812,-4.8096466064453125,89.68988800048828,-0.010251405504014757,0.41233333333333333,0.4064285714285714,0.015714770838758656,-0.6152159147949234,1.4171940088272095,35.15599822998047,0.04909922281901042,-0.10555038452148438
5014,-0.016541375054253474,0.29882820129394533,86.21202850341797,82.36592102050781,-6.916820526123047,90.24225616455078,-0.014343007405598959,0.41,0.4032142857142857,0.011686535297309003,-1.2414194517822281,-0.6152159147949234,35.15599822998047,0.042734527587890626,-0.1351008521185981
5015,-0.028260125054253474,0.25898443222045897,87.17355346679688,81.97721862792969,-6.159877777099609,90.38545989990234,-0.02093505859375,0.409,0.39785714285714285,0.010465916943359351,-2.823403018066408,0.6371880173683167,35.15599822998047,0.05773705376519097,-0.12828152974446613
5016,-0.028260125054253474,0.239062557220459,90.28317260742188,86.39614868164062,-6.098503112792969,91.55156707763672,-0.008887566460503472,0.408,0.395,0.011961193500434003,-4.130736010620119,3.7352399826049805,35.15599822998047,0.043189154730902776,-0.14055633544921875
5017,-0.004822625054253472,0.19921878814697266,91.79705810546875,88.70790100097656,-6.241706848144531,90.73324584960938,-0.015934202406141493,0.405,0.39035714285714285,0.016813403651258656,-4.130736010620119,2.658612012863159,35.15599822998047,0.034323967827690975,-0.1330550299750434
5018,-0.032166375054253474,0.219140682220459,86.6007308959961,83.57295227050781,-6.507663726806641,91.91981506347656,-0.01797998216417101,0.4026666666666667,0.3871428571428571,0.015348559901258656,-5.053560870239259,-1.5709978514404312,35.15599822998047,0.03364198472764757,-0.1491942087809245
5019,-0.004822625054253472,0.19921878814697266,84.06393432617188,79.97233581542969,-6.118961334228516,90.97874450683594,-0.026390499538845487,0.40066666666666667,0.38285714285714284,0.015348559901258656,-6.273007052490236,-3.592423098632814,35.15599822998047,0.04546220567491319,-0.13441895378960503
5020,0.03423984716796882,0.2789063262939453,82.91828918457031,77.55829620361328,-5.996212005615234,91.67431640625,-0.03707415262858073,0.39466666666666667,0.38107142857142856,0.016630298182508656,-6.38286651904297,-3.1090380125732437,35.15599822998047,0.05955547756618924,-0.14078364902072482
5021,-0.012635125054253472,0.15937503814697265,84.6572265625,80.91340637207031,-6.037128448486328,90.30363464355469,0.012025070190429688,0.3913333333333333,0.37857142857142856,0.011015233349609351,-6.338923113891603,0.6811320185661316,35.15599822998047,0.041598002115885414,-0.12600847880045574
5022,-0.10638512505425347,0.219140682220459,86.15065002441406,83.16378784179688,-6.712242126464844,88.93293762207031,0.01066118876139323,0.38466666666666666,0.3775,0.004638587103949653,-6.009342806884767,2.0104379653930664,35.15599822998047,0.03318735758463542,-0.11827977498372395
5023,-0.047791375054253474,0.239062557220459,87.58271789550781,83.30699157714844,-5.873462677001953,91.49018859863281,-0.037756050957573783,0.381,0.3767857142857143,0.010160741162109351,-6.789349215576173,1.4171940088272095,35.15599822998047,0.04750807020399306,-0.1373739030626085
5024,-0.047791375054253474,0.219140682220459,88.72836303710938,86.17111206054688,-5.627967834472656,89.32164001464844,0.006342273288302952,0.37633333333333335,0.37607142857142856,0.011289806781684003,-7.51442398364258,0.9887400269508362,35.50756072998047,0.028413899739583335,-0.1105511983235677
5025,-0.07122887505425347,0.17929691314697266,84.08439636230469,81.5066909790039,-4.789188385009766,90.61050415039062,-0.004114023844401042,0.37166666666666665,0.3757142857142857,0.010130223583984351,-7.305691378662111,-1.153530734130861,36.0349006652832,0.028641170925564237,-0.11555213928222656
5026,0.01470859716796882,0.25898443222045897,84.14576721191406,80.0337142944336,-4.564151763916016,88.85111236572266,-0.03821067810058594,0.36533333333333334,0.37535714285714283,0.014829761073133656,-6.119202273437502,-2.504809039184572,37.00168991088867,0.0456894768608941,-0.09350293477376302
5027,0.09673984716796882,0.239062557220459,84.45263671875,80.21783447265625,-4.8914794921875,89.32164001464844,-0.025935872395833334,0.35933333333333334,0.37464285714285717,0.01894954934895831,-4.570175784179689,-1.6259294920654312,38.320037841796875,0.047053358289930555,-0.10236799452039931
5028,0.06939609716796882,0.29882820129394533,87.13264465332031,83.47065734863281,-4.911937713623047,90.05813598632812,-0.0009316762288411458,0.3546666666666667,0.37357142857142855,0.016813403651258656,-4.4383455687255875,0.7360620498657227,39.28683090209961,0.04068874782986111,-0.11077859666612414
5029,0.01080234716796882,0.239062557220459,87.78729248046875,84.1048583984375,-5.075603485107422,89.75126647949219,0.009751976860894098,0.3496666666666667,0.3717857142857143,0.012022228656684003,-4.822855609008791,1.219446063041687,39.814170837402344,0.04091593424479167,-0.10918744405110677
5030,-0.016541375054253474,0.25898443222045897,88.25782775878906,84.49356079101562,-5.11651611328125,90.36500549316406,-0.013888380262586805,0.344,0.3703571428571429,0.010496434521484351,-4.954685824462892,0.1867620050907135,40.07783889770508,0.041825188530815974,-0.1164613511827257
5031,0.01861484716796882,0.25898443222045897,87.1121826171875,86.23248291015625,-5.566593170166016,89.30118560791016,-0.025935872395833334,0.3393333333333333,0.36964285714285716,0.013120861469184003,-4.262568133422853,-1.2963491850585953,40.25362014770508,0.009774441189236111,-0.10964198642306858
5032,0.02642734716796882,0.219140682220459,87.41905212402344,83.34790802001953,-4.380031585693359,90.13996887207031,-0.009114880032009548,0.33466666666666667,0.3682142857142857,0.011869640766059003,-4.32848419482422,-1.9664942198486344,40.25362014770508,0.045234934488932295,-0.1057777828640408
5033,-0.028260125054253474,0.25898443222045897,84.14576721191406,83.32745361328125,-4.605068206787109,88.29874420166016,0.0036145528157552082,0.33,0.36678571428571427,0.005676099989149305,-3.965946810791017,-0.9667688780517594,40.69306945800781,0.00909237331814236,-0.08782013787163628
5034,-0.06341637505425347,0.25898443222045897,87.97142028808594,84.75950622558594,-4.605068206787109,89.09660339355469,-0.008205625745985243,0.32566666666666666,0.36607142857142855,0.001983642578125,-3.4605909758300797,-0.07690300280761875,41.13251876831055,0.03568793402777778,-0.09668524000379775
5035,-0.07513512505425347,0.19921878814697266,86.58027648925781,82.48867797851562,-4.686901092529297,89.77172088623047,-0.022753524780273437,0.32233333333333336,0.36464285714285716,0.00213623046875,-3.4166475706787125,-0.9228254729003922,41.74774932861328,0.04546220567491319,-0.1050957997639974
5036,-0.004822625054253472,0.19921878814697266,88.42149353027344,83.14332580566406,-4.686901092529297,89.75126647949219,-0.0323006100124783,0.31866666666666665,0.36357142857142855,0.006347486707899305,-3.493548052856447,0.29662200808525085,42.538761138916016,0.058646308051215276,-0.1048685285780165
5037,-0.032166375054253474,0.219140682220459,87.66455078125,84.57539367675781,-4.645984649658203,89.54668426513672,0.0015687730577256945,0.31366666666666665,0.3628571428571429,0.004394446478949653,-3.548477786132814,0.010986000299453735,42.71453857421875,0.034323967827690975,-0.10214076571994357
5038,0.01080234716796882,0.19921878814697266,86.45751953125,81.83401489257812,-4.052700042724609,89.19889831542969,-0.030027474297417533,0.31066666666666665,0.36214285714285716,0.007200620855034698,-3.284815447875978,-0.4394403868408219,42.97821044921875,0.05137227376302083,-0.09168442620171441
5039,0.03814609716796882,0.239062557220459,87.0712661743164,85.68012237548828,-3.9504127502441406,87.99187469482422,-0.022753524780273437,0.305,0.36142857142857143,0.009641942333984351,-2.6256548338623062,-0.14281906420898594,43.505550384521484,0.0154571533203125,-0.07713652716742622
5040,-0.0009163750542534722,0.219140682220459,87.88958740234375,83.85935974121094,-4.052700042724609,88.87156677246094,-0.0007043626573350694,0.302,0.3610714285714286,0.006378004286024305,-1.527054446289064,0.4394400119781494,43.76921844482422,0.04478030734592014,-0.08804740905761718
5041,-0.09466637505425347,0.219140682220459,86.47798156738281,82.5091323852539,-4.154991149902344,89.44439697265625,0.01066118876139323,0.2996666666666667,0.35928571428571426,-0.0012206183539496527,-1.3402925902099625,0.2526780068874359,44.12078094482422,0.04409832424587674,-0.0955487569173177
5042,-0.10638512505425347,0.239062557220459,86.5188980102539,82.44775390625,-4.093616485595703,88.81019592285156,-0.015706888834635415,0.297,0.3582142857142857,-0.0029296027289496527,-1.7248026304931656,-0.48338379199218906,44.56023025512695,0.045234934488932295,-0.08782013787163628
5043,-0.11419762505425347,0.19921878814697266,84.63676452636719,82.34546661376953,-4.830104827880859,89.87400817871094,-0.02207158406575521,0.295,0.35714285714285715,-0.0024108039008246527,-1.7577597075195328,-1.3952223234863297,44.99967956542969,0.025458865695529513,-0.10782347785101996
5044,-0.07904137505425347,0.19921878814697266,83.40928649902344,80.79066467285156,-4.768730163574219,89.05569458007812,-0.02548124525282118,0.2916666666666667,0.35642857142857143,-0.0014342414008246527,-2.6036821776123062,-2.911289828369142,45.52701950073242,0.02909579806857639,-0.09804916381835938
5045,-0.06341637505425347,0.13945316314697265,83.92073059082031,76.59677124023438,-4.625526428222656,89.03523254394531,-0.015706888834635415,0.2886666666666667,0.35678571428571426,-0.0019530402289496527,-2.7794596129150406,-1.6918455534667984,45.52701950073242,0.08137732611762152,-0.09623065524631076
5046,-0.07513512505425347,0.19921878814697266,84.30943298339844,81.17935943603516,-4.625526428222656,88.91248321533203,-0.008205625745985243,0.28633333333333333,0.35678571428571426,-0.004730055067274305,-2.5926958494873062,0.08788800239562988,45.79069137573242,0.034778594970703125,-0.0948667738172743
5047,-0.12591637505425346,0.17929691314697266,88.13508605957031,83.42974090576172,-3.684459686279297,89.87400817871094,-0.00297745598687066,0.2826666666666667,0.3578571428571429,-0.0070798238118489586,-3.0541082792968766,2.823402166366577,46.142250061035156,0.05228161282009548,-0.09509408738878038
5048,-0.14544762505425346,0.17929691314697266,89.6080551147461,86.74394226074219,-4.052700042724609,88.48286437988281,-0.0059324900309244795,0.279,0.3578571428571429,-0.0060727437337239586,-2.6146685057373062,2.4169201850891113,46.142250061035156,0.03182347615559896,-0.08372849358452691
5049,-0.08685387505425347,0.19921878814697266,87.48042297363281,83.75706481933594,-4.523235321044922,89.567138671875,-0.030027474297417533,0.276,0.35892857142857143,-0.0017394171820746527,-2.197201388427736,0.29662200808525085,46.142250061035156,0.04137064615885417,-0.10100415547688803
5050,-0.07513512505425347,0.19921878814697266,87.88958740234375,84.47309875488281,-4.4209442138671875,89.50576782226562,-0.001613616943359375,0.2723333333333333,0.35892857142857143,-0.0008544074164496528,-2.7135435515136734,-0.2307058745117203,46.142250061035156,0.037960984971788195,-0.09918568929036459
5051,-0.028260125054253474,0.19921878814697266,85.49600219726562,81.34302520751953,-4.502777099609375,89.46485137939453,-0.02866363525390625,0.269,0.35964285714285715,0.001800537109375,-3.229883807250978,-1.4611383848876969,46.318031311035156,0.046144188774956595,-0.09964031643337673
5052,0.06939609716796882,0.13945316314697265,87.35768127441406,82.20226287841797,-4.277740478515625,89.50576782226562,-0.02570855882432726,0.26666666666666666,0.3603571428571429,0.006072828504774305,-4.009890215942384,-0.4284540587158219,46.318031311035156,0.05728242662217882,-0.09759453667534722
5053,0.06939609716796882,0.15937503814697265,88.1146240234375,85.29141998291016,-3.254840850830078,87.95095825195312,-0.02320815192328559,0.2623333333333333,0.3632142857142857,0.006835767957899305,-3.6583391600341812,0.7690200209617615,46.318031311035156,0.03136893378363715,-0.06895332336425782
5054,-0.0009163750542534722,0.239062557220459,84.30943298339844,81.13844299316406,-5.1983489990234375,88.38057708740234,0.004296493530273437,0.26,0.36464285714285716,0.0032347785101996527,-2.6805845671386734,0.8129640221595764,46.318031311035156,0.035233222113715275,-0.09532140096028646
5055,-0.004822625054253472,0.25898443222045897,83.67523193359375,80.93386840820312,-5.3620147705078125,90.40591430664062,-0.015934202406141493,0.25733333333333336,0.36392857142857143,0.0032042609320746527,-2.7684732847900406,0.5712720155715942,46.318031311035156,0.0304595947265625,-0.11964365641276041
5056,0.01470859716796882,0.219140682220459,85.82332611083984,80.81111145019531,-4.400489807128906,89.64897155761719,-0.01616151597764757,0.25466666666666665,0.3632142857142857,0.005401526557074653,-3.3617159300537125,2.0214240550994873,46.318031311035156,0.05569127400716146,-0.10054957071940104
5057,0.002989874945746528,0.239062557220459,87.62362670898438,84.02302551269531,-4.5846099853515625,89.1579818725586,-0.006159803602430555,0.25266666666666665,0.36392857142857143,0.006347486707899305,-2.5926958494873062,2.768472194671631,46.318031311035156,0.04000667995876736,-0.09713990953233508
5058,-0.028260125054253474,0.19921878814697266,87.0098876953125,85.18913269042969,-5.177890777587891,90.30363464355469,-0.008887566460503472,0.249,0.36357142857142855,0.006530592176649305,-2.4608656340332047,1.8456480503082275,46.318031311035156,0.020230611165364582,-0.11646139356825087
5059,-0.051697625054253474,0.219140682220459,86.78485107421875,83.36836242675781,-5.157432556152344,89.38301849365234,-0.008205625745985243,0.24666666666666667,0.3628571428571429,0.005309973822699653,-2.4608656340332047,0.7031040191650391,46.318031311035156,0.037960984971788195,-0.10600501166449652
5060,-0.043885125054253474,0.239062557220459,86.45751953125,81.9976806640625,-5.11651611328125,90.52867126464844,-0.015706888834635415,0.24233333333333335,0.3625,0.005798170301649305,-3.0321375303955094,-0.04394401843261875,45.966468811035156,0.049553765190972224,-0.1182798597547743
5061,-0.012635125054253472,0.25898443222045897,86.92805480957031,83.96165466308594,-5.096061706542969,89.46485137939453,-0.030709415011935765,0.23966666666666667,0.36214285714285716,0.008360204052734351,-3.3836885863037125,-0.5163427763671891,45.79069137573242,0.032960001627604166,-0.10623236762152778
5062,0.002989874945746528,0.25898443222045897,80.68836975097656,79.80867004394531,-4.932395935058594,89.95584106445312,-0.01775266859266493,0.236,0.36214285714285716,0.008634862255859351,-3.0980535917968766,-0.5602861815185562,45.70280075073242,0.009774441189236111,-0.10986929999457465
5063,-0.004822625054253472,0.239062557220459,87.93049621582031,83.5115737915039,-6.282623291015625,90.79461669921875,-0.006387117173936632,0.23066666666666666,0.36178571428571427,0.007902525151909699,-3.3836885863037125,2.13128399848938,45.70280075073242,0.04909913804796007,-0.1341915554470486
5064,-0.043885125054253474,0.219140682220459,88.58515930175781,85.35279846191406,-5.157432556152344,90.71278381347656,-0.009569507175021702,0.228,0.36142857142857143,0.007139585698784698,-4.3834139281005875,3.4056601524353027,45.70280075073242,0.03591512044270833,-0.12078018188476562
5065,-0.06341637505425347,0.239062557220459,89.54668426513672,86.92805480957031,-5.239265441894531,90.1604232788086,-0.0050232781304253475,0.22266666666666668,0.3625,0.007994077886284699,-4.767923968383791,2.58171010017395,45.52701950073242,0.029095882839626736,-0.11555209689670139
5066,-0.059510125054253474,0.239062557220459,86.02790832519531,82.63188171386719,-4.830104827880859,89.26026916503906,-0.01616151597764757,0.218,0.3632142857142857,0.009672459912109351,-4.37242950732422,0.8459219932556152,45.52701950073242,0.03773362901475694,-0.10100415547688803
5067,-0.047791375054253474,0.219140682220459,86.68256378173828,83.18424987792969,-4.8914794921875,89.09660339355469,-0.013433795505099827,0.213,0.36428571428571427,0.010801610302734351,-3.6803099089355484,0.04394400119781494,45.52701950073242,0.038870154486762155,-0.09986758761935764
5068,-0.024353875054253474,0.239062557220459,86.64164733886719,83.47065734863281,-4.216365814208984,89.64897155761719,-0.022298897637261283,0.208,0.365,0.012083263812934003,-3.3617159300537125,-0.9667688780517594,45.52701950073242,0.035233222113715275,-0.09850374857584636
5069,-0.020447625054253474,0.219140682220459,86.6007308959961,82.97966003417969,-3.745830535888672,87.99187469482422,-0.008660252888997395,0.20366666666666666,0.3653571428571429,0.011503429828559003,-2.3619905882568375,-1.0436712675781266,45.52701950073242,0.04023412068684896,-0.07486339145236545
5070,-0.043885125054253474,0.219140682220459,84.5958480834961,80.74974060058594,-4.339115142822266,89.75126647949219,-0.008205625745985243,0.2,0.3653571428571429,0.008482274365234351,-1.6149431639404312,-1.2633902006835953,45.52701950073242,0.042734527587890626,-0.10100424024793837
5071,-0.059510125054253474,0.219140682220459,86.27340698242188,83.02058410644531,-4.482318878173828,89.93538665771484,-0.01070603264702691,0.19633333333333333,0.36464285714285716,0.006469557020399305,-1.9445234709472672,-1.0107122832031266,45.52701950073242,0.03614247639973958,-0.10464117262098524
5072,-0.055603875054253474,0.239062557220459,88.85111236572266,83.02058410644531,-4.871021270751953,89.95584106445312,-0.02434471978081597,0.193,0.36428571428571427,0.005737135145399305,-2.4608656340332047,-0.6591612272949234,45.43912887573242,0.06478364732530383,-0.10918735928005642
5073,-0.09857262505425347,0.219140682220459,86.6007308959961,83.69569396972656,-4.993770599365234,91.1219482421875,0.004751120673285591,0.19033333333333333,0.36357142857142855,0.0018310546875,-3.229883807250978,-1.2414194517822281,45.43912887573242,0.032278188069661456,-0.12350798712836372
5074,-0.11029137505425347,0.19921878814697266,83.81844329833984,79.9927978515625,-4.7482757568359375,89.28073120117188,-0.022526211208767362,0.18766666666666668,0.36357142857142855,0.000335693359375,-3.0211512022705094,-2.1202989989013687,45.43912887573242,0.042507171630859375,-0.10032229953342015
5075,-0.08685387505425347,0.219140682220459,82.24317932128906,79.87004852294922,-4.7482757568359375,89.97630310058594,-0.013433795505099827,0.183,0.36357142857142855,3.0517578125e-05,-2.900305407592775,-0.801977770874025,45.43912887573242,0.02636811998155382,-0.1080508761935764
5076,-0.08685387505425347,0.25898443222045897,86.49844360351562,81.26119232177734,-5.505218505859375,91.18331909179688,0.010888502332899305,0.17966666666666667,0.36392857142857143,-0.0013121710883246527,-3.592423098632814,2.351004123687744,45.43912887573242,0.058191680908203126,-0.12987263997395834
5077,-0.10247887505425347,0.19921878814697266,87.37813568115234,84.90271759033203,-5.239265441894531,89.79217529296875,-0.019343863593207465,0.17633333333333334,0.36428571428571427,0.00103759765625,-4.36144317919922,2.6366400718688965,45.43912887573242,0.02750464545355903,-0.11146045260959202
5078,-0.10247887505425347,0.219140682220459,87.54179382324219,84.20714569091797,-4.932395935058594,89.36256408691406,-0.0013863033718532986,0.173,0.365,0.00201416015625,-3.834114687988283,2.04339599609375,45.43912887573242,0.03705164591471354,-0.10327733357747396
5079,-0.08294762505425347,0.239062557220459,87.39859008789062,84.16622924804688,-5.014228820800781,90.26271057128906,-0.014343007405598959,0.16866666666666666,0.3653571428571429,0.004455481635199653,-3.0980535917968766,0.24169200658798218,45.17546081542969,0.03591512044270833,-0.11418821546766493
5080,-0.051697625054253474,0.2789063262939453,87.6031723022461,84.47309875488281,-4.9733123779296875,89.77172088623047,-0.004795964558919271,0.16433333333333333,0.3657142857142857,0.005981275770399305,-4.009890215942384,0.010986000299453735,44.91178894042969,0.034778594970703125,-0.1082781473795573
5081,-0.059510125054253474,0.25898443222045897,86.662109375,86.0074462890625,-5.566593170166016,91.2242431640625,-0.01843460930718316,0.161,0.36607142857142855,0.005432044135199653,-4.218624728271486,-1.6259294920654312,44.91178894042969,0.007274034288194444,-0.13100929260253907
5082,-0.039978875054253474,0.25898443222045897,89.0761489868164,83.20470428466797,-5.11651611328125,90.20133972167969,-0.024117406209309897,0.15633333333333332,0.3653571428571429,0.005371008978949653,-4.306513445922853,-1.9445234709472672,44.91178894042969,0.06523827446831597,-0.11464284261067709
5083,-0.06732262505425347,0.219140682220459,83.87982177734375,85.23004150390625,-3.254840850830078,90.05813598632812,0.009297349717881945,0.15166666666666667,0.3657142857142857,0.00250244140625,-4.3944002562255875,-1.9774805479736344,44.91178894042969,-0.01500244140625,-0.09236640930175781
5084,-0.020447625054253474,0.25898443222045897,84.80043029785156,79.62455749511719,-5.464302062988281,88.99431610107422,-0.024799346923828125,0.14733333333333334,0.36607142857142855,0.004058753119574653,-2.7574869566650406,-1.3842359953613297,44.91178894042969,0.057509697808159725,-0.10509575737847222
5085,0.02252109716796882,0.2789063262939453,85.25050354003906,81.75218200683594,-4.727817535400391,90.30363464355469,-0.021616956922743055,0.14266666666666666,0.3653571428571429,0.007048032964409698,-2.548752444335939,0.20873400568962097,44.91178894042969,0.0388702392578125,-0.11146057976616754
5086,0.03814609716796882,0.25898443222045897,92.06301879882812,84.69813537597656,-4.625526428222656,89.48530578613281,-0.0034320831298828127,0.13933333333333334,0.36428571428571427,0.009031590771484351,-3.0980535917968766,2.361989974975586,44.91178894042969,0.08183203803168403,-0.1012314690483941
5087,0.02642734716796882,0.239062557220459,85.16867065429688,85.16867065429688,-3.6026268005371094,88.13508605957031,-0.006841744316948784,0.13566666666666666,0.3632142857142857,0.009672459912109351,-2.5926958494873062,1.4171940088272095,44.91178894042969,0.0,-0.0748634762234158
5088,0.00689609716796882,0.239062557220459,85.47554016113281,81.0975341796875,-5.014228820800781,89.66943359375,-0.006387117173936632,0.133,0.3628571428571429,0.008695897412109351,-1.4391657286376969,1.5490260124206543,44.91178894042969,0.04864451090494792,-0.10759624905056424
5089,-0.004822625054253472,0.239062557220459,87.6031723022461,84.35034942626953,-4.993770599365234,90.1195068359375,-0.010933346218532987,0.12966666666666668,0.3607142857142857,0.009092625927734351,-2.252131121704103,1.6369140148162842,44.91178894042969,0.03614247639973958,-0.11236974928114149
5090,-0.0009163750542534722,0.25898443222045897,89.54668426513672,87.17355346679688,-4.871021270751953,89.1170654296875,-0.011387973361545138,0.127,0.35964285714285715,0.010404881787109351,-2.823403018066408,0.23070600628852844,44.91178894042969,0.02636811998155382,-0.09986763000488282
5091,0.02642734716796882,0.239062557220459,85.5164566040039,80.87248992919922,-4.830104827880859,89.38301849365234,-0.01979849073621962,0.12433333333333334,0.3585714285714286,0.011900158344184003,-2.4498793059082047,-1.9555078917236344,44.91178894042969,0.05159962972005208,-0.10236803690592448
5092,0.04986484716796882,0.25898443222045897,88.31919860839844,84.47309875488281,-4.830104827880859,90.0172119140625,-0.022753524780273437,0.12,0.3578571428571429,0.012632580219184003,-2.3290335112304703,-1.6698728972167984,44.91178894042969,0.04273444281684028,-0.10941463046603733
5093,0.03033359716796882,0.219140682220459,87.1121826171875,83.63432312011719,-4.8096466064453125,89.95584106445312,-0.003659396701388889,0.11833333333333333,0.3575,0.009519872021484351,-2.911289828369142,-0.8788801604003922,44.91178894042969,0.03864288330078125,-0.10850541856553819
5094,0.002989874945746528,0.219140682220459,85.90515899658203,82.34546661376953,-4.768730163574219,90.13996887207031,-0.009796820746527778,0.11433333333333333,0.35714285714285715,0.006133863661024305,-3.6693254881591812,-1.3293062620849625,44.91178894042969,0.03955213758680556,-0.1100966559516059
5095,0.05377109716796882,0.219140682220459,87.72592163085938,81.46577453613281,-5.280181884765625,89.95584106445312,-0.02980016072591146,0.11166666666666666,0.35678571428571426,0.009153661083984351,-3.88904442126465,-1.131558077880861,44.91178894042969,0.06955718994140625,-0.11373358832465277
5096,0.05377109716796882,0.219140682220459,86.08927917480469,82.01814270019531,-4.645984649658203,89.32164001464844,-0.009796820746527778,0.107,0.35678571428571426,0.007933042730034699,-3.6803099089355484,-1.2194467955322281,44.91178894042969,0.04523484971788194,-0.09964027404785156
5097,0.04595859716796882,0.19921878814697266,85.84378051757812,82.65233612060547,-4.5846099853515625,89.23981475830078,-0.0050232781304253475,0.10266666666666667,0.3578571428571429,0.006255933973524305,-2.900305407592775,-0.7800070219726578,44.82389831542969,0.03546049329969618,-0.09804916381835938
5098,0.05377109716796882,0.219140682220459,83.22515869140625,80.42241668701172,-3.1525497436523438,86.94851684570312,-0.0168434566921658,0.098,0.3578571428571429,0.006591627332899305,-2.2960745268554703,0.05493000149726868,44.82389831542969,0.031141577826605902,-0.056678517659505205
5099,0.03033359716796882,0.219140682220459,86.21202850341797,83.18424987792969,-3.745830535888672,89.38301849365234,0.004296493530273437,0.09466666666666666,0.3578571428571429,0.005126868353949653,-1.7138163023681656,2.1532559394836426,44.82389831542969,0.03364198472764757,-0.09032054477267795
5100,0.01080234716796882,0.219140682220459,85.80287170410156,82.34546661376953,-3.8481216430664062,89.09660339355469,-0.002750142415364583,0.09033333333333333,0.35714285714285715,0.005462476942274305,-1.8236757689209,2.9662201404571533,44.82389831542969,0.038415612114800345,-0.08827472262912327
5101,0.04986484716796882,0.2789063262939453,88.72836303710938,82.89783477783203,-4.277740478515625,90.44683837890625,-0.029118262396918403,0.088,0.3557142857142857,0.011961193500434003,-2.0653692656250016,3.0321359634399414,43.505550384521484,0.06478364732530383,-0.1080508761935764
5102,0.09283359716796882,0.25898443222045897,92.84042358398438,88.1555404663086,-3.6230850219726562,87.93049621582031,-0.020480431450737847,0.08566666666666667,0.35464285714285715,0.01794246927083331,-2.142269747802736,1.7138160467147827,43.505550384521484,0.05205425686306424,-0.07281756930881077
5103,0.12017734716796882,0.239062557220459,86.33477783203125,81.56806182861328,-3.9299545288085938,90.1195068359375,-0.021162372165256075,0.08266666666666667,0.3532142857142857,0.020536378640407964,-1.8017050200195328,0.8129640221595764,43.505550384521484,0.052963511149088545,-0.10054957071940104
5104,0.10845859716796882,0.25898443222045897,83.47065734863281,84.12531280517578,-5.464302062988281,90.85599517822266,-0.01320648193359375,0.081,0.35214285714285715,0.019987062234157964,-1.516068118164064,-0.3515516691894547,43.505550384521484,-0.0072739495171440975,-0.12578108045789932
5105,0.11627109716796882,0.239062557220459,85.1072998046875,80.97477722167969,-4.502777099609375,89.09660339355469,-0.00843293931749132,0.07733333333333334,0.3507142857142857,0.019956544656032964,-2.570725100585939,0.032958000898361206,43.505550384521484,0.045916917588975696,-0.09554867214626736
5106,0.11236484716796882,0.25898443222045897,86.78485107421875,82.32501220703125,-4.175449371337891,88.38057708740234,-0.0043413374159071184,0.075,0.35035714285714287,0.020017579812282964,-3.2957998686523453,1.0766279697418213,43.505550384521484,0.049553765190972224,-0.08395584954155816
5107,0.11627109716796882,0.25898443222045897,90.38545989990234,87.37813568115234,-5.218807220458984,89.2193603515625,-0.008887566460503472,0.07166666666666667,0.35,0.021299318093532964,-2.7574869566650406,0.2856360077857971,43.505550384521484,0.03341471354166667,-0.1048685285780165
5108,0.15923984716796882,0.239062557220459,83.552490234375,78.45845031738281,-4.564151763916016,89.68988800048828,-0.02980016072591146,0.06866666666666667,0.3492857142857143,0.023496498947482614,-2.581711428710939,-2.164242404052736,43.505550384521484,0.05660044352213542,-0.10282266404893663
5109,0.18658359716796882,0.2789063262939453,88.6669921875,83.0001220703125,-3.8072052001953125,91.24469757080078,-0.013661109076605903,0.06433333333333334,0.3492857142857143,0.02554109191080727,-3.0431219511718766,-0.801977770874025,43.505550384521484,0.06296522352430556,-0.11168780856662326
5110,0.18267734716796882,0.25898443222045897,87.19401550292969,85.29141998291016,-3.5617103576660156,87.82821655273438,0.0008868323432074653,0.060333333333333336,0.3489285714285714,0.023679604416232614,-3.0211512022705094,-0.06591667468261875,43.505550384521484,0.021139950222439235,-0.07099918789333767
5111,0.16705234716796882,0.239062557220459,88.36012268066406,83.77752685546875,-3.7867469787597656,89.17843627929688,-0.004114023844401042,0.056666666666666664,0.3492857142857143,0.022214845437282964,-2.4169203215332047,0.8019779920578003,43.505550384521484,0.050917731391059026,-0.08850203620062934
5112,0.15142734716796882,0.239062557220459,87.23492431640625,85.27096557617188,-4.298198699951172,88.91248321533203,-0.007978312174479167,0.05266666666666667,0.3492857142857143,0.021299318093532964,-1.9884668760986344,0.35155200958251953,43.505550384521484,0.021821763780381944,-0.09122979905870225
5113,0.19048984716796882,0.19921878814697266,83.69569396972656,84.6572265625,-3.66400146484375,89.0761489868164,-0.01911655002170139,0.048666666666666664,0.3489285714285714,0.022062257546657964,-2.164242404052736,0.05493000149726868,43.505550384521484,-0.010683695475260416,-0.08600167168511284
5114,0.22173984716796882,0.15937503814697265,85.23004150390625,83.12287139892578,-2.8252220153808594,88.23736572265625,-2.242194281684028e-05,0.046,0.34964285714285714,0.022062257546657964,-1.7028299742431656,0.9008520245552063,43.505550384521484,0.023413001166449652,-0.0673620859781901
5115,0.16705234716796882,0.17929691314697266,87.31675720214844,85.0050048828125,-4.093616485595703,88.29874420166016,-0.009342193603515625,0.04133333333333333,0.35,0.020933107156032964,-1.4831110411376969,2.0214240550994873,43.505550384521484,0.025686136881510415,-0.08213734096950955
5116,0.15923984716796882,0.09960939407348633,90.32408142089844,84.5140151977539,-2.9684295654296875,87.99187469482422,0.004296493530273437,0.039,0.35,0.01858333841145831,-2.0543829375000016,3.4166460037231445,43.505550384521484,0.06455629136827257,-0.06622560289171008
5117,0.12017734716796882,0.09960939407348633,91.53111267089844,87.76683807373047,-2.1501083374023438,87.68500518798828,-0.012069914076063368,0.034666666666666665,0.35,0.019926027077907964,-2.3729769163818375,0.9118380546569824,43.505550384521484,0.04182527330186632,-0.05372348361545139
5118,0.15142734716796882,0.15937503814697265,83.0410385131836,76.61722564697266,-2.702472686767578,87.54179382324219,-0.03661952548556858,0.032,0.35035714285714287,0.022916664963107614,-1.3732515745849625,-0.9997259550781266,43.505550384521484,0.07137569851345486,-0.058269627888997394
5119,0.19439609716796882,0.17929691314697266,86.662109375,85.14820861816406,-4.9733123779296875,87.93049621582031,-0.035028330485026044,0.027,0.3507142857142857,0.025327553634982614,-1.1864878111572281,0.13183200359344482,43.505550384521484,0.016821119520399306,-0.08782009548611111
5120,0.10455234716796882,0.15937503814697265,87.35768127441406,89.68988800048828,-2.702472686767578,87.86912536621094,0.011115815904405382,0.023666666666666666,0.35035714285714287,0.020505861062282964,-1.8456484251709,-0.2416922026367203,43.505550384521484,-0.02591340806749132,-0.06190664503309462
5121,0.04595859716796882,0.13945316314697265,84.02302551269531,80.07463073730469,-3.6026268005371094,90.40591430664062,-0.006159803602430555,0.02,0.35035714285714287,0.015501147791883656,-1.9115644865722672,-1.4171949797363297,43.505550384521484,0.04387105305989583,-0.10009490119086371
5122,-0.004822625054253472,0.09960939407348633,84.22760009765625,80.83157348632812,-2.129650115966797,85.68012237548828,-0.0859460194905599,0.016666666666666666,0.3507142857142857,0.011411877094184003,-1.6039568358154312,-0.03295769030761875,43.505550384521484,0.03773362901475694,-0.03121969434950087
5123,-0.18060387505425346,0.19921878814697266,84.08439636230469,80.0950927734375,-1.8227806091308594,87.23492431640625,-0.05889600118001302,0.009666666666666667,0.3507142857142857,-0.0031126234266493054,-0.4614130430908219,1.7577600479125977,43.505550384521484,0.04432559543185764,-0.04508561028374566
5124,-0.29388512505425346,0.19921878814697266,78.82669067382812,75.04196166992188,-1.8023223876953125,87.15309143066406,-0.06980692545572917,0.006666666666666667,0.3489285714285714,-0.01144375271267361,0.6811320185661316,0.29662200808525085,43.505550384521484,0.042052544487847225,-0.04394904242621528
5125,-0.21966637505425346,0.19921878814697266,78.29478454589844,74.63279724121094,-1.5363693237304688,88.09416198730469,-0.10390357971191407,0.003,0.3467857142857143,-0.008178456624348959,0.9557820558547974,0.19774800539016724,37.704811096191406,0.04068874782986111,-0.051450347900390624
5126,-0.30560387505425346,0.1195312786102295,87.64408874511719,82.07951354980469,-1.2499542236328125,88.50332641601562,-0.07503509521484375,0.002,0.3425,-0.005370924207899305,1.1425440311431885,1.7797319889068604,31.991960525512695,0.06182861328125,-0.05281422932942708
5127,-0.25482262505425346,0.13945316314697265,80.34058380126953,75.24653625488281,-1.6591148376464844,81.60897827148438,-0.07253464592827691,0.0016666666666666668,0.3389285714285714,-0.005767652723524305,1.724802017211914,2.66959810256958,28.036909103393555,0.056600528293185765,0.019243409898546008
5128,-0.36029137505425346,0.09960939407348633,79.58363342285156,80.64745330810547,0.4685173034667969,84.32989501953125,-0.0704888661702474,0.001,0.33321428571428574,-0.005554029676649305,3.460590124130249,2.746500015258789,24.345529556274414,-0.011820220947265625,0.012651358710394965
5129,-0.33685387505425346,0.09960939407348633,90.0785903930664,83.22515869140625,1.7573699951171875,85.0050048828125,-0.0859460194905599,0.0013333333333333333,0.3289285714285714,-0.0023497687445746527,3.317772150039673,3.372702121734619,24.081859588623047,0.07614924112955729,0.019470723470052083
5130,-0.26263512505425346,0.09960939407348633,82.97966003417969,78.86760711669922,3.5372161865234375,80.58607482910156,-0.09276534186469185,0.0,0.32285714285714284,-0.0,2.4828360080718994,2.04339599609375,24.081859588623047,0.0456894768608941,0.08834601508246528
