,WD,WS,AIL_1,AIL_2,ELEV_1,ELEV_2,RUDD,ALT,GS,TH,PTCH,ROLL,PLA_1,AIL,ELEV
5106,-0.2501320145996094,0.19921878814697266,87.6031723022461,83.02058410644531,-2.4365196228027344,87.27584838867188,-0.008660252888997395,0.7706666666666667,0.6075,-0.01119961208767361,-0.6921183043212906,2.3290319442749023,29.003700256347656,0.05091764662000868,-0.0523596445719401
5107,-0.2618507645996094,0.219140682220459,86.08927917480469,81.83401489257812,-2.4365196228027344,87.5213394165039,-0.008205625745985243,0.7646666666666667,0.6057142857142858,-0.01184048122829861,-0.9887415343017594,1.3183200359344482,29.003700256347656,0.04728071424696181,-0.05508732265896267
5108,-0.2813820145996094,0.17929691314697266,84.77996826171875,80.9543228149414,-2.8047637939453125,87.6031723022461,-0.008205625745985243,0.7586666666666667,0.6046428571428571,-0.010558785332573786,-1.4611383848876969,1.263390064239502,29.003700256347656,0.042507171630859375,-0.06008817884657118
5109,-0.2852882645996094,0.15937503814697265,85.14820861816406,80.72928619384766,-2.641101837158203,87.72592163085938,-0.005705218844943577,0.754,0.6035714285714285,-0.009032948811848959,-1.9445234709472672,2.0763540267944336,29.003700256347656,0.04909913804796007,-0.0596335940890842
5110,-0.3126320145996094,0.15937503814697265,86.41661071777344,81.67034912109375,-2.1705665588378906,87.31675720214844,-0.0066144307454427086,0.7473333333333333,0.6021428571428571,-0.007964875962999132,-1.6479002409667984,3.5924220085144043,29.003700256347656,0.05273623996310764,-0.04985915289984809
5111,-0.2931007645996094,0.17929691314697266,86.90760040283203,83.32745361328125,-2.129650115966797,87.09172058105469,-0.007978312174479167,0.7396666666666667,0.6014285714285714,-0.006408521864149305,-0.9228254729003922,4.075806140899658,29.003700256347656,0.039779408772786455,-0.04690411885579427
5112,-0.3087257645996094,0.15937503814697265,85.94607543945312,81.97721862792969,-2.3956031799316406,87.23492431640625,-0.006841744316948784,0.7316666666666667,0.5996428571428571,-0.005065790812174479,-0.7360617094726578,2.8124160766601562,29.003700256347656,0.04409840901692708,-0.05145030551486545
5113,-0.23841326459960935,0.13945316314697265,85.41416931152344,80.50424194335938,-2.477436065673828,87.58271789550781,-0.010251405504014757,0.7263333333333334,0.5985714285714285,-0.0014342837863498264,-1.0216986113281266,2.351004123687744,29.003700256347656,0.05455474853515625,-0.05622393290201823
5114,-0.17981951459960935,0.1195312786102295,87.29630279541016,82.42729949951172,-2.7843055725097656,87.95095825195312,-0.014115693834092882,0.7216666666666667,0.5971428571428572,0.0023497687445746527,-1.4391657286376969,3.0431220531463623,29.003700256347656,0.05410003662109375,-0.06372515360514323
5115,-0.17200701459960935,0.15937503814697265,86.64164733886719,82.77508544921875,-2.907054901123047,87.88958740234375,-0.007978312174479167,0.7153333333333334,0.5957142857142858,0.0026244269476996527,-1.9445234709472672,1.966494083404541,29.003700256347656,0.042961798773871525,-0.06440713670518664
5116,-0.19544451459960935,0.13945316314697265,86.13019561767578,81.4453125,-2.722930908203125,87.97142028808594,-0.007978312174479167,0.7096666666666667,0.5942857142857143,0.0027159796820746527,-1.6698728972167984,1.0986000299453735,29.179479598999023,0.05205425686306424,-0.06327056884765625
5117,-0.15247576459960935,0.15937503814697265,86.70301818847656,82.34546661376953,-2.6820144653320312,87.72592163085938,-0.012297227647569445,0.702,0.5928571428571429,0.004028193155924479,-1.0766283446044937,2.054382085800171,29.003700256347656,0.04841723971896701,-0.06008817884657118
5118,-0.20716326459960935,0.19921878814697266,87.37813568115234,83.71615600585938,-3.479877471923828,88.21691131591797,-0.003659396701388889,0.697,0.5910714285714286,0.0016173892550998264,-1.0546575957031266,2.0763540267944336,29.003700256347656,0.04068866305881076,-0.0744087643093533
5119,-0.2970070145996094,0.19921878814697266,85.92561340332031,82.38638305664062,-4.011787414550781,88.81019592285156,-0.006387117173936632,0.691,0.5892857142857143,9.1552734375e-05,-1.9225508146972672,0.6371880173683167,29.003700256347656,0.039324781629774305,-0.08691092597113716
5120,-0.3087257645996094,0.13945316314697265,84.73905181884766,79.97233581542969,-4.3595733642578125,89.1579818725586,-0.009796820746527778,0.6853333333333333,0.5864285714285714,0.0022276984320746527,-2.6476274901123062,0.32958000898361206,29.003700256347656,0.052963511149088545,-0.0946395026312934
5121,-0.19935076459960935,0.1195312786102295,85.25050354003906,80.64745330810547,-4.339115142822266,89.44439697265625,-0.011615286933051215,0.683,0.585,0.005554029676649305,-3.4056612425537125,0.7580339908599854,29.003700256347656,0.05114500257703993,-0.09759457906087239
5122,-0.21106951459960935,0.13945316314697265,85.78240966796875,82.16134643554688,-4.032245635986328,89.13752746582031,-0.0034320831298828127,0.6766666666666666,0.5828571428571429,0.005126783582899305,-3.592423098632814,1.1095860004425049,29.003700256347656,0.04023403591579861,-0.09077525668674045
5123,-0.21106951459960935,0.15937503814697265,85.84378051757812,81.9567642211914,-3.5617103576660156,88.81019592285156,-0.004795964558919271,0.671,0.5817857142857142,0.004394404093424479,-3.4276319914550797,0.6042300462722778,29.003700256347656,0.04318906995985243,-0.08191006978352865
5124,-0.13685076459960935,0.219140682220459,87.35768127441406,82.20226287841797,-3.66400146484375,88.78973388671875,-0.011160659790039062,0.6646666666666666,0.5796428571428571,0.005187818739149305,-2.581711428710939,0.4723980128765106,29.003700256347656,0.05728242662217882,-0.08281928168402777
5125,-0.19153826459960935,0.219140682220459,86.41661071777344,82.79554748535156,-3.9299545288085938,88.74882507324219,-0.0059324900309244795,0.6586666666666666,0.5764285714285714,0.0025023566351996527,-1.8895918303222672,-0.6042314940185562,29.003700256347656,0.04023403591579861,-0.08531977335611979
5126,-0.2579445145996094,0.19921878814697266,85.43462371826172,81.32257080078125,-4.11407470703125,88.99431610107422,-0.0022955152723524307,0.6543333333333333,0.5707142857142857,9.1552734375e-05,-1.6259294920654312,-0.5822588377685562,24.60919952392578,0.0456894768608941,-0.09009323120117188
5127,-0.2501320145996094,0.239062557220459,87.0098876953125,83.08195495605469,-4.502777099609375,89.64897155761719,-0.00775099860297309,0.65,0.5667857142857143,-0.001068115234375,-1.4062086516113297,0.6371880173683167,24.081859588623047,0.04364369710286458,-0.10168609619140626
5128,-0.22669451459960935,0.2789063262939453,85.88470458984375,83.18424987792969,-4.400489807128906,89.23981475830078,-0.0059324900309244795,0.646,0.5596428571428571,-0.0018310123019748264,-1.4940973692626969,0.05493000149726868,24.081859588623047,0.030005052354600693,-0.09600338406032986
5129,-0.2540382645996094,0.239062557220459,86.35523986816406,82.52958679199219,-4.400489807128906,89.58760070800781,-0.010251405504014757,0.6433333333333333,0.555,-0.00115966796875,-1.8236757689209,0.04394400119781494,24.081859588623047,0.04250725640190972,-0.09986767239040799
5130,-0.19544451459960935,0.29882820129394533,85.557373046875,81.64989471435547,-4.482318878173828,89.50576782226562,-0.008205625745985243,0.638,0.5482142857142858,-0.0014342837863498264,-2.4608656340332047,-1.2524038725585953,24.081859588623047,0.04341642591688368,-0.09986763000488282
5131,-0.12122576459960936,0.25898443222045897,86.02790832519531,81.38394165039062,-4.400489807128906,89.48530578613281,-0.020480431450737847,0.636,0.5439285714285714,0.0030211554633246527,-2.4279066496582047,-1.4831110411376969,24.081859588623047,0.05159962972005208,-0.09873106214735243
5132,-0.13294451459960935,0.25898443222045897,86.08927917480469,82.32501220703125,-3.9708709716796875,89.46485137939453,-0.00297745598687066,0.6323333333333333,0.5382142857142858,0.0018614874945746527,-2.526779788085939,-1.142544406005861,24.081859588623047,0.041825188530815974,-0.0937302483452691
5133,-0.15247576459960935,0.239062557220459,85.65966796875,80.85203552246094,-3.7662887573242188,89.17843627929688,-0.00843293931749132,0.6283333333333333,0.5342857142857143,-0.000152587890625,-2.3070608549804703,-0.9008528166503922,24.081859588623047,0.053418138292100695,-0.08827472262912327
5134,-0.15247576459960935,0.19921878814697266,86.21202850341797,82.46821594238281,-3.4594192504882812,88.27828979492188,-0.013888380262586805,0.624,0.5289285714285714,0.0010070376925998264,-1.4611383848876969,-0.834936755249025,24.081859588623047,0.04159791734483507,-0.07486343383789062
5135,-0.16028826459960935,0.17929691314697266,86.68256378173828,83.36836242675781,-3.1730079650878906,87.97142028808594,-0.011842600504557292,0.6193333333333333,0.5257142857142857,0.0010070376925998264,-0.8898664885253922,-1.164517062255861,24.081859588623047,0.03682445949978298,-0.06827142503526476
5136,-0.16810076459960935,0.239062557220459,85.96653747558594,82.81600189208984,-3.091175079345703,88.1555404663086,-0.002068201700846354,0.6166666666666667,0.5192857142857142,-0.0022582583957248266,-0.3954969816894547,-1.8236757689209,24.081859588623047,0.035005950927734376,-0.06940795050726997
5137,-0.13685076459960935,0.2789063262939453,84.35034942626953,79.9927978515625,-3.357128143310547,89.79217529296875,-0.009342193603515625,0.6123333333333333,0.5153571428571428,-0.0036315070258246527,-1.2304331236572281,-2.7355143004150406,24.081859588623047,0.04841723971896701,-0.09054781595865885
5138,-0.08606951459960936,0.2789063262939453,85.18913269042969,80.42241668701172,-4.298198699951172,89.6080551147461,-0.013433795505099827,0.6123333333333333,0.5089285714285714,-0.0018615298800998264,-1.4501520567626969,-1.6588865690917984,24.081859588623047,0.052963511149088545,-0.0989583757188585
5139,-0.09778826459960936,0.239062557220459,87.05081176757812,83.94119262695312,-4.850563049316406,90.48774719238281,-0.007978312174479167,0.611,0.5035714285714286,-0.0018615298800998264,-1.142544406005861,-0.2746511870117203,24.081859588623047,0.03455132378472222,-0.11487011379665799
5140,-0.10560076459960936,0.239062557220459,86.35523986816406,81.93630981445312,-4.707359313964844,90.18087768554688,-0.01252454121907552,0.608,0.49464285714285716,-0.0027464972601996527,-0.823950427124025,-0.7690206938476578,24.081859588623047,0.04909922281901042,-0.10986929999457465
5141,-0.11341326459960936,0.25898443222045897,83.98210144042969,82.28408813476562,-4.523235321044922,89.19889831542969,-0.002522828843858507,0.604,0.48928571428571427,-0.004363886515299479,-1.2963491850585953,-2.230158465454103,24.081859588623047,0.01886681450737847,-0.09691259596082899
5142,-0.08606951459960936,0.239062557220459,84.92317199707031,80.38150024414062,-4.461860656738281,89.28073120117188,-0.016388829549153647,0.601,0.48142857142857143,-0.0034789191351996527,-0.7690206938476578,-1.9005781584472672,24.081859588623047,0.05046301947699653,-0.09713990953233508
5143,-0.14075701459960935,0.239062557220459,86.13019561767578,82.77508544921875,-4.277740478515625,88.564697265625,0.0002048916286892361,0.5963333333333334,0.4767857142857143,-0.0077207353379991316,-1.3293062620849625,-0.4064833098144547,24.081859588623047,0.037279001871744794,-0.08713819715711806
5144,-0.18763201459960935,0.25898443222045897,85.53691101074219,81.77264404296875,-3.6026268005371094,88.52378845214844,-0.0007043626573350694,0.592,0.4714285714285714,-0.01126064724392361,-1.8017050200195328,0.02197200059890747,24.081859588623047,0.041825188530815974,-0.07918239169650608
5145,-0.20325701459960935,0.239062557220459,85.65966796875,82.14088439941406,-3.4389610290527344,88.17599487304688,-0.012751854790581597,0.5863333333333334,0.4689285714285714,-0.01113857693142361,-1.6039568358154312,0.06591600179672241,24.081859588623047,0.03909759521484375,-0.073499510023329
5146,-0.23060076459960935,0.239062557220459,85.57783508300781,81.0975341796875,-3.295757293701172,88.58515930175781,-0.006841744316948784,0.5806666666666667,0.4642857142857143,-0.01211513943142361,-1.4062086516113297,0.8129640221595764,24.081859588623047,0.049781121148003475,-0.07645462883843315
5147,-0.24622576459960935,0.25898443222045897,86.53935241699219,83.06149291992188,-3.3162155151367188,89.03523254394531,-0.0007043626573350694,0.5736666666666667,0.4607142857142857,-0.013702011108398438,-1.7467752867431656,1.0107120275497437,24.081859588623047,0.03864288330078125,-0.08168275621202258
5148,-0.18372576459960935,0.25898443222045897,86.04837036132812,82.28408813476562,-3.0298004150390625,89.52622985839844,-0.02457203335232205,0.5696666666666667,0.45535714285714285,-0.010375679863823786,-2.0653692656250016,-0.09887375170898594,24.081859588623047,0.041825358072916666,-0.08395589192708333
5149,-0.16810076459960935,0.239062557220459,87.39859008789062,82.75462341308594,-3.5412521362304688,89.81263732910156,-0.015934202406141493,0.5656666666666667,0.45107142857142857,-0.008575185139973959,-1.9664942198486344,-0.6262022429199234,24.081859588623047,0.05159962972005208,-0.0928209940592448
5150,-0.19935076459960935,0.219140682220459,85.47554016113281,81.48623657226562,-3.4389610290527344,90.61050415039062,-0.0034320831298828127,0.5636666666666666,0.4446428571428571,-0.009490712483723959,-2.2960745268554703,-0.8788801604003922,24.081859588623047,0.04432559543185764,-0.10054961310492622
5151,-0.19544451459960935,0.239062557220459,87.29630279541016,83.57295227050781,-1.720489501953125,91.06057739257812,-0.007069057888454861,0.56,0.4407142857142857,-0.010833443535698786,-3.91101707751465,-0.3295809202880875,24.081859588623047,0.04137056138780382,-0.086456298828125
5152,-0.2618507645996094,0.19921878814697266,87.0098876953125,83.71615600585938,-1.2090415954589844,89.58760070800781,-0.010251405504014757,0.558,0.435,-0.013061141967773438,-4.515246050903322,-0.6262022429199234,24.081859588623047,0.03659701877170139,-0.06440713670518664
5153,-0.24231951459960935,0.219140682220459,85.02546691894531,83.06149291992188,-0.9226264953613281,91.42881774902344,-0.012751854790581597,0.5563333333333333,0.43142857142857144,-0.013061141967773438,-4.152708666870119,-2.3400179320068375,24.081859588623047,0.02182193332248264,-0.0816827138264974
5154,-0.24622576459960935,0.13945316314697265,86.29386138916016,79.74729919433594,1.45050048828125,90.671875,-0.01775266859266493,0.553,0.42392857142857143,-0.010436715020073786,-3.559464114257814,-1.4062086516113297,24.081859588623047,0.07273957994249132,-0.04690416124131944
5155,-0.15247576459960935,0.13945316314697265,87.64408874511719,84.26852416992188,-5.239265441894531,91.79705810546875,-0.009342193603515625,0.5496666666666666,0.41892857142857143,-0.0074765947129991316,-3.976933138916017,0.032958000898361206,24.081859588623047,0.03750627305772569,-0.13373692830403647
5156,-0.14466326459960935,0.13945316314697265,87.86912536621094,84.43218231201172,-4.830104827880859,91.26515197753906,-0.002522828843858507,0.546,0.4110714285714286,-0.0072934892442491316,-4.482288973876955,0.5383139848709106,24.081859588623047,0.0381882561577691,-0.12328063117133246
5157,-0.19935076459960935,0.15937503814697265,86.43707275390625,84.16622924804688,-4.298198699951172,90.59004211425781,0.002705298529730903,0.5423333333333333,0.4067857142857143,-0.010375679863823786,-4.603134768554689,-0.18676246936035312,24.081859588623047,0.02523159450954861,-0.10986934238009982
5158,-0.14856951459960935,0.17929691314697266,84.84133911132812,80.38150024414062,-3.6026268005371094,90.50820922851562,-0.014115693834092882,0.539,0.40035714285714286,-0.008483632405598959,-4.614121096679689,-0.19774879748535312,24.081859588623047,0.049553765190972224,-0.10123151143391927
5159,-0.13685076459960935,0.15937503814697265,86.88714599609375,83.47065734863281,-2.518352508544922,90.569580078125,-0.004568650987413194,0.5346666666666666,0.3960714285714286,-0.0074765947129991316,-4.636091845581056,0.9338099956512451,24.081859588623047,0.037960984971788195,-0.0898659176296658
5160,-0.18372576459960935,0.17929691314697266,86.74394226074219,83.92073059082031,-5.689342498779297,89.73080444335938,0.0006595187717013889,0.5313333333333333,0.39071428571428574,-0.009368642171223959,-4.669050829956056,0.7140899896621704,24.081859588623047,0.0313690185546875,-0.11577941046820747
5161,-0.16810076459960935,0.17929691314697266,86.25294494628906,82.24317932128906,-5.648426055908203,89.79217529296875,-0.012751854790581597,0.5276666666666666,0.38642857142857145,-0.008270051744249132,-4.625107424804689,0.6371880173683167,31.816179275512695,0.04455295138888889,-0.11600668165418837
5162,-0.17200701459960935,0.15937503814697265,87.0712661743164,84.24806213378906,-5.280181884765625,89.42393493652344,-0.01002409193250868,0.5243333333333333,0.38107142857142856,-0.006774732801649305,-4.35045685107422,0.9777539968490601,40.34151077270508,0.03136893378363715,-0.10782352023654514
5163,-0.19935076459960935,0.15937503814697265,86.33477783203125,82.93875122070312,-5.218807220458984,89.42393493652344,0.0049784342447916664,0.5206666666666667,0.3775,-0.0077512529161241316,-3.8011576109619156,1.2414180040359497,43.417659759521484,0.03773362901475694,-0.10714157952202691
5164,-0.18372576459960935,0.17929691314697266,86.47798156738281,82.34546661376953,-5.1983489990234375,89.1579818725586,-0.0034320831298828127,0.517,0.37464285714285717,-0.0077512529161241316,-3.4605909758300797,1.175502061843872,43.76921844482422,0.04591683281792535,-0.10395923190646701
5165,-0.15638201459960935,0.19921878814697266,86.53935241699219,82.57050323486328,-5.136974334716797,89.26026916503906,-0.004795964558919271,0.5123333333333333,0.37357142857142855,-0.006316969129774305,-3.2957998686523453,0.7800060510635376,44.56023025512695,0.04409832424587674,-0.104413816663954
5166,-0.12122576459960936,0.17929691314697266,86.5188980102539,82.5091323852539,-5.321098327636719,89.75126647949219,-0.01957117716471354,0.509,0.37142857142857144,-0.0025634341769748266,-2.900305407592775,0.790992021560669,46.054359436035156,0.04455295138888889,-0.11191516452365452
5167,-0.10950701459960936,0.17929691314697266,86.64164733886719,82.73416900634766,-5.321098327636719,89.91493225097656,-0.005250591701931423,0.5046666666666667,0.3703571428571429,-0.0018310123019748264,-3.240870135375978,1.4831100702285767,46.142250061035156,0.04341642591688368,-0.11373367309570312
5168,-0.12903826459960935,0.19921878814697266,86.5188980102539,82.550048828125,-5.341556549072266,89.34210205078125,-0.003886710272894965,0.5003333333333333,0.3692857142857143,-0.0019530826144748264,-3.4605909758300797,1.8346620798110962,46.142250061035156,0.04409832424587674,-0.10759620666503907
5169,-0.12903826459960935,0.17929691314697266,86.53935241699219,82.67279052734375,-5.341556549072266,89.6080551147461,-0.013888380262586805,0.49566666666666664,0.3682142857142857,-0.00030517578125,-3.3507315092773453,1.9005780220031738,46.142250061035156,0.042961798773871525,-0.11055124070909288
5170,-0.13294451459960935,0.17929691314697266,86.58027648925781,82.79554748535156,-5.280181884765625,89.46485137939453,-0.010478719075520834,0.49066666666666664,0.3678571428571429,0.0011901431613498264,-3.3397451811523453,2.504807949066162,46.054359436035156,0.042052544487847225,-0.1082781473795573
5171,-0.16810076459960935,0.19921878814697266,86.84622192382812,83.90027618408203,-5.321098327636719,90.1195068359375,0.0056603749593098955,0.486,0.3675,0.0004577212863498264,-3.6912962370605484,2.680583953857422,44.38444900512695,0.03273273044162327,-0.11600672403971354
5172,-0.16810076459960935,0.17929691314697266,86.02790832519531,81.56806182861328,-5.280181884765625,89.44439697265625,-0.011842600504557292,0.481,0.36678571428571427,0.0030516730414496527,-4.075806277343752,2.2301580905914307,43.85710906982422,0.04955384996202257,-0.1080508761935764
5173,-0.12903826459960935,0.219140682220459,86.78485107421875,84.02302551269531,-5.239265441894531,89.17843627929688,-0.010478719075520834,0.47533333333333333,0.36642857142857144,0.005157301161024305,-4.152708666870119,1.7797319889068604,43.76921844482422,0.03068695068359375,-0.10464113023546007
5174,-0.18372576459960935,0.17929691314697266,89.2193603515625,84.18669128417969,-4.5846099853515625,89.42393493652344,-0.0168434566921658,0.47,0.36642857142857144,0.004852125379774305,-4.526232379028322,2.768472194671631,41.74774932861328,0.05591854519314236,-0.10009494357638889
5175,-0.24622576459960935,0.219140682220459,89.13752746582031,85.96653747558594,-4.932395935058594,89.567138671875,0.009297349717881945,0.4656666666666667,0.3657142857142857,0.0015563540988498264,-4.822855609008791,2.2191720008850098,41.74774932861328,0.035233222113715275,-0.10555038452148438
5176,-0.2540382645996094,0.19921878814697266,88.29874420166016,85.0459213256836,-4.277740478515625,89.34210205078125,-0.009569507175021702,0.46,0.36607142857142855,0.0032957712809244793,-5.4051119261474625,0.747048020362854,41.74774932861328,0.03614247639973958,-0.0957760281032986
5177,-0.2774757645996094,0.13945316314697265,88.97386169433594,85.33233642578125,-4.543693542480469,88.68744659423828,-0.01843460930718316,0.45566666666666666,0.36642857142857144,0.0065305497911241316,-5.086517947265627,1.3952220678329468,41.74774932861328,0.04046139187282986,-0.09145711263020834
5178,-0.2891945145996094,0.13945316314697265,91.0196533203125,88.05325317382812,-4.093616485595703,88.23736572265625,-0.00297745598687066,0.451,0.36642857142857144,0.008514149983723959,-4.647078173706056,2.274101972579956,41.74774932861328,0.032960001627604166,-0.08145535786946614
5179,-0.2735695145996094,0.15937503814697265,87.39859008789062,87.17355346679688,-4.400489807128906,89.64897155761719,-0.0009316762288411458,0.44533333333333336,0.3678571428571429,0.008178456624348959,-4.119751589843752,-0.6481748991699234,41.83563995361328,0.0025004069010416668,-0.10054957071940104
5180,-0.21888201459960935,0.17929691314697266,85.74149322509766,81.62944030761719,-4.236824035644531,88.564697265625,-0.01320648193359375,0.44,0.3675,0.0077512105305989586,-5.053560870239259,-2.3180471831054703,41.83563995361328,0.0456894768608941,-0.0866835700141059
5181,-0.20325701459960935,0.19921878814697266,83.73661041259766,81.5066909790039,-4.1959075927734375,88.6056137084961,0.00225067138671875,0.43633333333333335,0.3678571428571429,0.0059201982286241316,-5.361168520996095,-2.482836382934572,41.74774932861328,0.024776882595486112,-0.0866835700141059
5182,-0.23060076459960935,0.17929691314697266,84.0025634765625,79.74729919433594,-4.257282257080078,88.48286437988281,-0.009796820746527778,0.43233333333333335,0.3678571428571429,0.003967157999674479,-5.119476931640627,-1.8676210814209,41.74774932861328,0.04728071424696181,-0.08600162929958767
5183,-0.17200701459960935,0.239062557220459,87.62362670898438,81.81356048583984,-4.1959075927734375,88.97386169433594,-0.0075236850314670135,0.42766666666666664,0.3675,0.0024718390570746527,-5.009617465087892,-0.7470480375976578,41.74774932861328,0.06455629136827257,-0.09077521430121528
5184,-0.19153826459960935,0.219140682220459,86.5188980102539,82.52958679199219,-4.236824035644531,89.0761489868164,-0.008205625745985243,0.424,0.36678571428571427,0.0008544498019748264,-4.570175784179689,-1.3842359953613297,39.462608337402344,0.04432568020290799,-0.09236636691623264
5185,-0.14466326459960935,0.219140682220459,89.68988800048828,82.91828918457031,-4.482318878173828,89.58760070800781,-0.020253117879231772,0.4206666666666667,0.36607142857142855,0.0027464972601996527,-4.460316317626955,0.07690200209617615,38.05636978149414,0.07523998684353299,-0.10077688429090711
5186,-0.12903826459960935,0.219140682220459,85.25050354003906,88.62606811523438,-4.482318878173828,89.64897155761719,-0.012069914076063368,0.4156666666666667,0.365,0.004669019911024305,-4.680037158081056,-1.0876146727294937,37.96847915649414,-0.03750627305772569,-0.10145878261990017
5187,-0.10169451459960936,0.17929691314697266,85.70057678222656,81.77264404296875,-4.482318878173828,89.42393493652344,-0.021162372165256075,0.413,0.36392857142857143,0.0064084794786241316,-5.141449587890627,-2.3619905882568375,37.96847915649414,0.04364369710286458,-0.0989583757188585
5188,-0.07825701459960936,0.17929691314697266,85.63920593261719,81.48623657226562,-4.400489807128906,89.50576782226562,-0.02093505859375,0.4073333333333333,0.36178571428571427,0.0065305497911241316,-5.163420336791994,-1.6698728972167984,37.96847915649414,0.04614410400390625,-0.09895841810438367
5189,-0.18372576459960935,0.19921878814697266,87.23492431640625,85.5982894897461,-4.707359313964844,89.83309936523438,0.014980104234483507,0.4036666666666667,0.3610714285714286,-0.0012206607394748264,-4.833840029785158,-1.0107122832031266,37.96847915649414,0.01818483140733507,-0.10600509643554687
5190,-0.24622576459960935,0.219140682220459,84.24806213378906,81.28164672851562,-3.9299545288085938,88.1146240234375,0.012707010904947916,0.399,0.35892857142857143,-0.0073850419786241316,-5.185392993041994,-1.505081790039064,36.91379928588867,0.03296017116970486,-0.0782730950249566
5191,-0.2813820145996094,0.15937503814697265,87.82821655273438,83.65477752685547,-3.4389610290527344,88.21691131591797,-0.02866363525390625,0.39366666666666666,0.3585714285714286,-0.005615064832899305,-4.097778933593752,-0.49437012011718906,36.82590866088867,0.046371544731987846,-0.07395413716634115
5192,-0.2696632645996094,0.219140682220459,88.46240997314453,85.23004150390625,-3.254840850830078,88.70790100097656,0.0072515275743272566,0.3893333333333333,0.3582142857142857,-0.009643300374348959,-3.581436770507814,0.2746500074863434,36.82590866088867,0.03591520521375868,-0.07736379835340712
5193,-0.2891945145996094,0.219140682220459,88.564697265625,85.29141998291016,-1.9659843444824219,87.27584838867188,-0.007296371459960938,0.38266666666666665,0.3582142857142857,-0.011077584160698786,-4.262568133422853,-0.5163427763671891,36.82590866088867,0.03636974758572049,-0.04713147481282552
5194,-0.2618507645996094,0.239062557220459,83.26608276367188,79.66546630859375,-1.9046134948730469,87.66455078125,-0.0022955152723524307,0.378,0.3582142857142857,-0.013091659545898438,-4.273554461547853,-1.9774805479736344,37.441139221191406,0.04000684950086805,-0.05076849195692274
5195,-0.2774757645996094,0.19921878814697266,84.80043029785156,81.13844299316406,-1.7409477233886719,89.0761489868164,-0.027754380967881943,0.376,0.3575,-0.011077584160698786,-4.207638400146486,-0.834936755249025,37.704811096191406,0.04068874782986111,-0.06463440789116753
5196,-0.2696632645996094,0.19921878814697266,85.49600219726562,82.20226287841797,-1.4545364379882812,88.40103149414062,0.007933468288845487,0.37033333333333335,0.3557142857142857,-0.01190151638454861,-4.163694994995119,0.1867620050907135,37.79269790649414,0.03659710354275174,-0.05395075480143229
5197,-0.21106951459960935,0.17929691314697266,84.5140151977539,81.07707214355469,-1.5772857666015625,88.6669921875,-0.023435465494791665,0.366,0.35428571428571426,-0.008117463853624132,-4.185667651245119,-0.3735243254394547,37.79269790649414,0.0381882561577691,-0.05826975504557292
5198,-0.14466326459960935,0.17929691314697266,86.74394226074219,83.49111938476562,-2.4365196228027344,88.58515930175781,-0.027072440253363715,0.3616666666666667,0.35285714285714287,-0.0037230597601996527,-3.3946749144287125,0.16479000449180603,37.79269790649414,0.03614247639973958,-0.0669075436062283
5199,-0.14075701459960935,0.219140682220459,86.37569427490234,83.20470428466797,-2.477436065673828,88.89202880859375,-0.008205625745985243,0.355,0.3514285714285714,-0.004821650187174479,-3.273829119750978,0.5383139848709106,37.79269790649414,0.035233222113715275,-0.07077183193630643
5200,-0.16419451459960935,0.19921878814697266,86.62118530273438,83.42974090576172,-2.5797271728515625,86.86668395996094,-0.00843293931749132,0.3506666666666667,0.34964285714285714,-0.005676099989149305,-2.911289828369142,0.48338401317596436,39.11104965209961,0.03546049329969618,-0.04940456814236111
5201,-0.19153826459960935,0.219140682220459,86.68256378173828,83.61386108398438,-2.8252220153808594,87.80775451660156,0.004751120673285591,0.3466666666666667,0.3482142857142857,-0.008300526936848959,-2.175228732177736,0.5493000149726868,40.34151077270508,0.03409669664171007,-0.06258862813313802
5202,-0.20325701459960935,0.219140682220459,86.33477783203125,82.97966003417969,-2.9684295654296875,88.564697265625,-0.0075236850314670135,0.3423333333333333,0.3457142857142857,-0.008971913655598959,-1.9774805479736344,0.08788800239562988,41.83563995361328,0.03727908664279514,-0.07259029812282985
5203,-0.22278826459960935,0.19921878814697266,85.84378051757812,82.57050323486328,-3.0502586364746094,88.09416198730469,-0.012297227647569445,0.33866666666666667,0.3442857142857143,-0.008300526936848959,-1.8566347532959,0.032958000898361206,42.62664794921875,0.03636974758572049,-0.06827134026421441
5204,-0.18763201459960935,0.239062557220459,87.50088500976562,82.71371459960938,-3.0502586364746094,88.48286437988281,-0.01547957526312934,0.33366666666666667,0.34285714285714286,-0.0078122880723741316,-2.208185809204103,0.5493000149726868,42.71453857421875,0.05319078233506944,-0.07259025573730468
5205,-0.20716326459960935,0.239062557220459,87.33721923828125,84.63676452636719,-2.702472686767578,87.15309143066406,-0.0054779052734375,0.3293333333333333,0.3417857142857143,-0.008880360921223959,-2.4388929777832047,0.19774800539016724,42.97821044921875,0.030005052354600693,-0.05395071241590712
5206,-0.20325701459960935,0.239062557220459,86.29386138916016,82.79554748535156,-2.866138458251953,88.05325317382812,-0.005705218844943577,0.3263333333333333,0.3410714285714286,-0.009521230061848959,-1.9555078917236344,-0.09887375170898594,43.85710906982422,0.038870154486762155,-0.06577101813422309
5207,-0.18763201459960935,0.2789063262939453,86.6007308959961,82.52958679199219,-2.5388107299804688,87.45996856689453,-0.009796820746527778,0.322,0.3407142857142857,-0.009734810723198786,-1.8895918303222672,0.13183200359344482,44.82389831542969,0.045234934488932295,-0.0555419921875
5208,-0.21497576459960935,0.25898443222045897,85.86424255371094,82.36592102050781,-2.313770294189453,87.97142028808594,-0.0022955152723524307,0.31833333333333336,0.34035714285714286,-0.010741890801323786,-2.3729769163818375,-0.14281906420898594,44.82389831542969,0.0388702392578125,-0.0587243398030599
5209,-0.21888201459960935,0.219140682220459,86.19157409667969,82.20226287841797,-3.0502586364746094,88.6056137084961,-0.020025804307725693,0.316,0.34,-0.008849843343098959,-1.8017050200195328,-0.2307058745117203,45.52701950073242,0.04432568020290799,-0.07395413716634115
5210,-0.19935076459960935,0.219140682220459,88.31919860839844,82.59095764160156,-2.907054901123047,88.48286437988281,-0.01320648193359375,0.312,0.33964285714285714,-0.007903840806749132,-2.0873400145263687,0.29662200808525085,45.966468811035156,0.06364712185329861,-0.07099910312228733
5211,-0.22278826459960935,0.219140682220459,87.50088500976562,84.1048583984375,-2.8865966796875,88.42149353027344,-0.00047704908582899306,0.308,0.33964285714285714,-0.008605702718098959,-2.3949495726318375,0.3954960107803345,45.966468811035156,0.03773362901475694,-0.0700898912217882
5212,-0.21497576459960935,0.219140682220459,88.93293762207031,85.72103881835938,-2.722930908203125,87.74638366699219,-0.008887566460503472,0.304,0.34,-0.0077817704942491316,-2.471850054809572,0.4614120125770569,45.43912887573242,0.035687764485677086,-0.06077016194661458
5213,-0.20716326459960935,0.19921878814697266,87.88958740234375,85.08683776855469,-2.9479713439941406,88.29874420166016,-0.00843293931749132,0.29933333333333334,0.34,-0.006805250379774305,-2.186215060302736,-0.3076082640380875,45.43912887573242,0.03114166259765625,-0.06940795050726997
5214,-0.15638201459960935,0.239062557220459,86.70301818847656,83.77752685546875,-2.6820144653320312,87.21446990966797,-0.022980838351779515,0.29433333333333334,0.34,-0.005157343546549479,-1.7357889586181656,-1.2194467955322281,45.52701950073242,0.03250545925564236,-0.05440538194444444
5215,-0.18763201459960935,0.19921878814697266,86.1097412109375,82.05905151367188,-2.5797271728515625,87.58271789550781,-0.003659396701388889,0.29033333333333333,0.34,-0.006866285536024305,-1.4281813078613297,-0.856909411499025,45.966468811035156,0.04500766330295139,-0.05736050075954861
5216,-0.18763201459960935,0.239062557220459,85.74149322509766,82.57050323486328,-2.518352508544922,87.1121826171875,-0.00297745598687066,0.2856666666666667,0.34035714285714286,-0.010375679863823786,-1.1864878111572281,-1.0546575957031266,46.142250061035156,0.035233222113715275,-0.0514503902859158
5217,-0.23450701459960935,0.239062557220459,85.0050048828125,81.05661010742188,-2.1910247802734375,88.23736572265625,-0.0034320831298828127,0.283,0.34,-0.014800601535373263,-1.2304331236572281,-0.7250772886962906,46.142250061035156,0.04387105305989583,-0.060315450032552086
5218,-0.23060076459960935,0.2789063262939453,86.64164733886719,83.75706481933594,-2.5797271728515625,87.43951416015625,-0.014343007405598959,0.2793333333333333,0.34035714285714286,-0.017486063639322917,-1.2524038725585953,-0.2966219359130875,46.142250061035156,0.03205091688368056,-0.05576934814453125
5219,-0.2696632645996094,0.25898443222045897,86.47798156738281,83.28652954101562,-2.1705665588378906,87.13264465332031,-0.010933346218532987,0.2763333333333333,0.34,-0.018218485514322917,-1.3622652464599625,-0.2856375151367203,46.142250061035156,0.035460578070746526,-0.04781345791286892
5220,-0.21888201459960935,0.2789063262939453,82.83645629882812,79.97233581542969,-2.3751449584960938,88.89202880859375,-0.01911655002170139,0.2733333333333333,0.33964285714285714,-0.016997782389322917,-1.0656420164794937,-0.8678938322753922,46.142250061035156,0.03182356092664931,-0.06963526407877604
5221,-0.20325701459960935,0.239062557220459,86.37569427490234,83.14332580566406,-2.6206436157226562,88.70790100097656,-0.014570320977105035,0.2703333333333333,0.3389285714285714,-0.014495425754123263,-1.0766283446044937,0.09887400269508362,46.142250061035156,0.03591520521375868,-0.0703171624077691
5222,-0.17200701459960935,0.239062557220459,84.5140151977539,82.85691833496094,-1.4340782165527344,88.25782775878906,-0.026390499538845487,0.2673333333333333,0.3389285714285714,-0.01229824490017361,-1.8456484251709,-1.120571749755861,46.142250061035156,0.01841218736436632,-0.05213228861490885
5223,-0.15638201459960935,0.25898443222045897,84.28897857666016,79.46089172363281,-1.9250717163085938,87.86912536621094,-0.012751854790581597,0.265,0.3392857142857143,-0.013274765014648438,-1.7907186918945328,-0.6481748991699234,45.966468811035156,0.0536454094780816,-0.05326885647243924
5224,-0.19153826459960935,0.25898443222045897,83.96165466308594,80.27920532226562,-2.2933120727539062,88.44195556640625,0.013616265190972223,0.26033333333333336,0.33964285714285714,-0.01669264899359809,-2.3510042601318375,0.8239500522613525,45.79069137573242,0.04091610378689236,-0.0637251959906684
5225,-0.15638201459960935,0.17929691314697266,83.26608276367188,80.44287109375,-3.132091522216797,90.30363464355469,-0.03275523715549045,0.26,0.33964285714285714,-0.008819325764973959,-2.570725100585939,-0.02197326953125156,45.79069137573242,0.0313690185546875,-0.09373029073079427
5226,0.01939923540039064,0.19921878814697266,85.63920593261719,81.9567642211914,-2.4569778442382812,87.80775451660156,-0.034801016913519965,0.25866666666666666,0.3392857142857143,0.0026549445258246527,-2.6146685057373062,0.9338099956512451,45.79069137573242,0.04091601901584201,-0.05849702623155382
5227,0.02330548540039064,0.1195312786102295,90.2218017578125,85.94607543945312,-3.0093421936035156,88.83065795898438,0.013616265190972223,0.25633333333333336,0.33964285714285714,0.0036619822184244793,-2.0543829375000016,3.229884147644043,45.79069137573242,0.04750807020399306,-0.07600000169542101
5228,-0.03919451459960936,0.15937503814697265,87.0098876953125,86.04837036132812,-2.9479713439941406,88.564697265625,-0.0011589898003472221,0.25233333333333335,0.34,0.0031737009684244793,-2.3619905882568375,2.427906036376953,45.79069137573242,0.010683525933159722,-0.07236298455132378
5229,-0.06263201459960936,0.19921878814697266,89.05569458007812,85.41416931152344,-2.9275131225585938,87.99187469482422,-0.003204769558376736,0.24766666666666667,0.3407142857142857,0.0030516730414496527,-2.4608656340332047,2.2631161212921143,45.79069137573242,0.04046139187282986,-0.06577097574869792
5230,-0.14856951459960935,0.15937503814697265,88.97386169433594,86.04837036132812,-2.8252220153808594,88.64653015136719,0.007478841145833333,0.24433333333333335,0.3414285714285714,0.0007323794894748264,-2.6036821776123062,2.504807949066162,45.79069137573242,0.03250545925564236,-0.07190835740831163
5231,-0.23060076459960935,0.17929691314697266,90.26271057128906,87.13264465332031,-2.1501083374023438,88.33966064453125,0.01247969733344184,0.24,0.3425,-0.0026854621039496527,-2.966221468994142,1.5490260124206543,45.79069137573242,0.03477851019965278,-0.06099743313259549
5232,-0.17591326459960935,0.219140682220459,87.6031723022461,83.67523193359375,-1.8023223876953125,87.82821655273438,-0.020707745022243925,0.23566666666666666,0.3435714285714286,-0.00103759765625,-2.6695982390136734,0.0,45.79069137573242,0.04364378187391493,-0.05145043267144097
5233,-0.14856951459960935,0.219140682220459,85.06637573242188,83.36836242675781,-1.6795730590820312,87.21446990966797,-0.01843460930718316,0.23133333333333334,0.3442857142857143,-9.1552734375e-05,-2.208185809204103,-1.4171949797363297,45.79069137573242,0.01886681450737847,-0.043267144097222224
5234,-0.19544451459960935,0.17929691314697266,84.06393432617188,80.0337142944336,-0.3907203674316406,88.23736572265625,-0.003659396701388889,0.22733333333333333,0.34464285714285714,-0.0016479068332248264,-1.8566347532959,-1.6369139128417984,45.79069137573242,0.04478022257486979,-0.04031206766764323
5235,-0.14856951459960935,0.19921878814697266,87.86912536621094,82.28408813476562,-0.06339263916015625,86.76439666748047,-0.007296371459960938,0.223,0.345,-0.0018004947238498264,-1.8346620970459,-0.5712725096435562,45.52701950073242,0.06205596923828125,-0.02030877007378472
5236,-0.15247576459960935,0.19921878814697266,85.94607543945312,83.02058410644531,-0.9226264953613281,87.35768127441406,-0.008660252888997395,0.219,0.34535714285714286,-0.0026549445258246527,-1.516068118164064,-0.801977770874025,45.52701950073242,0.03250545925564236,-0.03644786410861545
5237,-0.14856951459960935,0.19921878814697266,87.88958740234375,83.22515869140625,-1.8227806091308594,87.58271789550781,-0.0022955152723524307,0.217,0.345,-0.0028990851508246527,-1.1974741392822281,0.04394400119781494,45.52701950073242,0.05182698567708333,-0.048949983384874135
5238,-0.19153826459960935,0.13945316314697265,82.46821594238281,78.80622863769531,-0.9226264953613281,88.68744659423828,-0.012069914076063368,0.213,0.345,-0.0026854621039496527,-1.9445234709472672,-1.527054446289064,45.43912887573242,0.04068874782986111,-0.051223034328884545
5239,-0.13685076459960935,0.15937503814697265,87.50088500976562,78.3970718383789,-1.5363693237304688,88.52378845214844,-0.02207158406575521,0.21166666666666667,0.3442857142857143,-0.0021056705050998266,-2.0104395323486344,-0.3405672484130875,45.26335144042969,0.10115347968207465,-0.0562239752875434
5240,-0.18763201459960935,0.15937503814697265,86.6007308959961,82.87738037109375,-2.1501083374023438,88.42149353027344,-0.007978312174479167,0.20833333333333334,0.3442857142857143,-0.004211298624674479,-2.4388929777832047,0.790992021560669,45.17546081542969,0.04137056138780382,-0.061906687418619794
5241,-0.21497576459960935,0.15937503814697265,86.39614868164062,85.23004150390625,-2.2319412231445312,41.900001525878906,-0.0034320831298828127,0.20566666666666666,0.345,-0.005492994520399305,-2.3619905882568375,1.3512780666351318,45.17546081542969,0.012956746419270833,0.4540895250108507
5242,-0.22669451459960935,0.15937503814697265,85.94607543945312,84.49356079101562,-2.1501083374023438,88.1555404663086,-0.020025804307725693,0.20166666666666666,0.345,-0.004028235541449653,-2.823403018066408,0.6811320185661316,45.17546081542969,0.016139051649305555,-0.058951653374565975
5243,-0.19935076459960935,0.17929691314697266,84.94363403320312,80.9543228149414,-2.6206436157226562,88.27828979492188,-0.011160659790039062,0.198,0.3457142857142857,-0.004028235541449653,-3.0211512022705094,0.5383139848709106,45.17546081542969,0.04432568020290799,-0.06554370456271702
5244,-0.24231951459960935,0.13945316314697265,86.72348022460938,85.78240966796875,-2.334228515625,87.97142028808594,-0.020707745022243925,0.194,0.3464285714285714,-0.0028075324164496527,-3.493548052856447,0.35155200958251953,44.91178894042969,0.010456339518229166,-0.058951653374565975
5245,-0.23841326459960935,0.13945316314697265,88.97386169433594,85.94607543945312,-1.4340782165527344,86.92805480957031,-0.01320648193359375,0.18933333333333333,0.3482142857142857,-0.0022887759738498266,-3.537493365356447,0.4943700134754181,44.82389831542969,0.03364206949869792,-0.03735703362358941
5246,-0.24622576459960935,0.15937503814697265,89.77172088623047,86.41661071777344,-1.9250717163085938,41.900001525878906,-0.004568650987413194,0.185,0.3489285714285714,-0.0035704718695746527,-2.4169203215332047,0.5493000149726868,44.64812088012695,0.037279001871744794,0.4574991861979167
5247,-0.2891945145996094,0.15937503814697265,85.25050354003906,81.87493133544922,-1.8841552734375,87.29630279541016,-0.0043413374159071184,0.181,0.3492857142857143,-0.005432001749674479,-1.527054446289064,-0.4284540587158219,44.64812088012695,0.037506357828776045,-0.046449534098307294
5248,-0.2735695145996094,0.15937503814697265,85.49600219726562,79.87004852294922,-1.6386566162109375,86.58027648925781,-0.0043413374159071184,0.17633333333333334,0.3489285714285714,-0.006347486707899305,-1.0876146727294937,0.32958000898361206,44.64812088012695,0.0625105963812934,-0.035765923394097225
5249,-0.2970070145996094,0.15937503814697265,86.31431579589844,82.93875122070312,-1.5772857666015625,87.62362670898438,-0.0043413374159071184,0.17266666666666666,0.3485714285714286,-0.006225416395399305,-0.4174677305908219,0.3405660092830658,45.79069137573242,0.03750627305772569,-0.04667680528428819
5250,-0.2813820145996094,0.15937503814697265,85.23004150390625,82.71371459960938,-0.9021682739257812,87.84866333007812,-0.004114023844401042,0.169,0.34785714285714286,-0.004913202921549479,-0.2636648588867203,0.010986000299453735,46.318031311035156,0.027959187825520832,-0.041675906711154516
5251,-0.2735695145996094,0.15937503814697265,87.19401550292969,84.0025634765625,-1.7409477233886719,88.25782775878906,-0.0043413374159071184,0.167,0.34714285714285714,-0.005889723036024305,-0.09887375170898594,0.8349360227584839,46.40591812133789,0.035460578070746526,-0.05554194980197483
5252,-0.2891945145996094,0.17929691314697266,87.29630279541016,84.43218231201172,-1.945526123046875,87.6031723022461,-0.0043413374159071184,0.163,0.34714285714285714,-0.0071714189317491316,-0.7360617094726578,0.35155200958251953,45.43912887573242,0.03182356092664931,-0.05054109361436632
5253,-0.3087257645996094,0.19921878814697266,88.23736572265625,84.5958480834961,-2.0273590087890625,89.0761489868164,-0.0043413374159071184,0.162,0.3467857142857143,-0.008758290608723959,-1.3952223234863297,0.2746500074863434,44.99967956542969,0.04046130710177952,-0.06781675550672743
5254,-0.39075701459960926,0.17929691314697266,87.37813568115234,84.69813537597656,-2.5797271728515625,87.5213394165039,-0.0043413374159071184,0.15766666666666668,0.3475,-0.010497750176323786,-1.3293062620849625,0.0,44.91178894042969,0.02977778116861979,-0.056678517659505205
5255,-0.3673195145996094,0.17929691314697266,90.34454345703125,81.71127319335938,-1.495452880859375,41.900001525878906,-0.0043413374159071184,0.15533333333333332,0.34785714285714286,-0.009399159749348959,-1.7357889586181656,0.26366400718688965,44.91178894042969,0.09592522515190972,0.4622727288140191
5256,-0.3126320145996094,0.17929691314697266,85.557373046875,79.82913208007812,-1.2294998168945312,88.89202880859375,-0.004114023844401042,0.15266666666666667,0.3482142857142857,-0.0078122880723741316,-1.7797323637695328,-2.241144793579103,45.79069137573242,0.06364712185329861,-0.056905873616536456
5257,-0.22278826459960935,0.13945316314697265,83.94119262695312,82.34546661376953,-1.9250717163085938,88.42149353027344,-0.0043413374159071184,0.14866666666666667,0.3489285714285714,-0.004058710734049479,-2.0104395323486344,-2.241144793579103,46.40591812133789,0.017730289035373263,-0.059406280517578125
5258,-0.23841326459960935,0.15937503814697265,88.83065795898438,83.67523193359375,-1.945526123046875,88.23736572265625,-0.0043413374159071184,0.14566666666666667,0.3489285714285714,-0.006744215223524305,-2.4388929777832047,0.3405660092830658,46.054359436035156,0.057282511393229166,-0.057587687174479166
5259,-0.2618507645996094,0.17929691314697266,84.35034942626953,82.0385971069336,-1.3727035522460938,88.42149353027344,-0.0043413374159071184,0.143,0.35,-0.009185536702473959,-2.6256548338623062,0.2746500074863434,45.79069137573242,0.025686136881510415,-0.05326885647243924
5260,-0.23841326459960935,0.13945316314697265,85.14820861816406,82.63188171386719,-1.945526123046875,88.62606811523438,-0.0043413374159071184,0.13933333333333334,0.3507142857142857,-0.004699579874674479,-2.6366411619873062,-0.10986007983398594,45.43912887573242,0.027959187825520832,-0.06190660264756945
5261,-0.12122576459960936,0.09960939407348633,86.49844360351562,84.61630249023438,-1.7409477233886719,88.25782775878906,-0.0043413374159071184,0.13533333333333333,0.3517857142857143,0.0011596255832248264,-3.0650946074218766,0.5822579860687256,45.26335144042969,0.020912679036458333,-0.05554194980197483
5262,-0.17591326459960935,0.1195312786102295,86.88714599609375,83.552490234375,-1.7000312805175781,89.23981475830078,-0.0043413374159071184,0.13266666666666665,0.3517857142857143,-0.000823974609375,-2.2741018706054703,0.8898659944534302,44.99967956542969,0.03705173068576389,-0.06599828932020399
5263,-0.23450701459960935,0.1195312786102295,84.84133911132812,82.91828918457031,-2.0069007873535156,88.13508605957031,-0.004114023844401042,0.12866666666666668,0.35214285714285715,-0.0026854621039496527,-1.527054446289064,0.4284540116786957,44.99967956542969,0.02136722140842014,-0.057133187188042535
5264,-0.23060076459960935,0.15937503814697265,86.21202850341797,41.900001525878906,-1.8636970520019531,88.17599487304688,-0.004795964558919271,0.123,0.35214285714285715,-0.005554029676649305,-1.9884668760986344,0.4943700134754181,44.99967956542969,0.4923558553059896,-0.05599657694498698
5265,-0.19935076459960935,0.15937503814697265,85.49600219726562,82.83645629882812,-1.945526123046875,88.54424285888672,-0.0043413374159071184,0.11933333333333333,0.3525,-0.0029601203070746527,-2.515795367309572,0.2746500074863434,44.99967956542969,0.02955050998263889,-0.06099743313259549
5266,-0.14856951459960935,0.13945316314697265,84.39126586914062,81.07707214355469,-2.1501083374023438,88.72836303710938,-0.004114023844401042,0.11666666666666667,0.35285714285714287,0.0005797915988498264,-2.6256548338623062,0.26366400718688965,44.99967956542969,0.03682437472873264,-0.06531634860568576
5267,-0.07825701459960936,0.13945316314697265,85.14820861816406,87.50088500976562,-2.2319412231445312,88.62606811523438,-0.003886710272894965,0.11266666666666666,0.35285714285714287,0.0036619822184244793,-3.0431219511718766,0.6481740474700928,44.99967956542969,-0.026140848795572918,-0.06508899264865452
5268,-0.06263201459960936,0.19921878814697266,91.28561401367188,83.40928649902344,-2.272857666015625,89.1579818725586,-0.0043413374159071184,0.109,0.3535714285714286,0.004241816202799479,-3.0650946074218766,0.7580339908599854,44.91178894042969,0.08751475016276042,-0.07145377265082466
5269,-0.08606951459960936,0.219140682220459,85.31187438964844,41.900001525878906,-2.7638473510742188,89.66943359375,0.0008868323432074653,0.10633333333333334,0.3525,0.0018920050726996527,-3.1529833250732437,-1.164517062255861,44.91178894042969,0.48235414293077256,-0.08259201049804688
5270,-0.09778826459960936,0.219140682220459,84.0025634765625,81.30210876464844,-2.702472686767578,87.95095825195312,-0.0050232781304253475,0.103,0.3525,-6.103515625e-05,-3.581436770507814,-1.4940973692626969,44.82389831542969,0.030005052354600693,-0.06281589931911892
5271,-0.08997576459960936,0.19921878814697266,87.58271789550781,86.49844360351562,-2.1501083374023438,87.54179382324219,-0.00843293931749132,0.09766666666666667,0.35214285714285715,0.0007323794894748264,-3.548477786132814,0.24169200658798218,44.64812088012695,0.012047492133246528,-0.05213224622938368
5272,-0.12903826459960935,0.219140682220459,86.35523986816406,82.05905151367188,-2.272857666015625,89.23981475830078,0.010433875189887153,0.09633333333333334,0.3517857142857143,-0.0027159796820746527,-2.4498793059082047,0.24169200658798218,44.64812088012695,0.0477354261610243,-0.07236302693684896
5273,-0.15638201459960935,0.239062557220459,84.77996826171875,80.77020263671875,-3.0707168579101562,88.52378845214844,-0.0075236850314670135,0.09166666666666666,0.3507142857142857,-0.006042310926649305,-1.8346620970459,-0.6481748991699234,44.64812088012695,0.04455295138888889,-0.07327228122287327
5274,-0.16028826459960935,0.15937503814697265,87.19401550292969,84.47309875488281,-2.7638473510742188,87.58271789550781,-0.03093672858344184,0.08933333333333333,0.34964285714285714,-0.0020141177707248266,-2.0873400145263687,-0.14281906420898594,44.82389831542969,0.030232408311631945,-0.059406280517578125
5275,-0.14856951459960935,0.1195312786102295,88.13508605957031,85.70057678222656,-2.477436065673828,87.562255859375,-0.021162372165256075,0.086,0.3485714285714286,0.0005187564425998264,-1.527054446289064,0.3405660092830658,45.17546081542969,0.02705010308159722,-0.05599657694498698
5276,-0.20716326459960935,0.13945316314697265,84.82088470458984,77.3946304321289,-2.497894287109375,87.78729248046875,0.002932612101236979,0.08266666666666667,0.34785714285714286,-0.0028990851508246527,-0.834936755249025,-0.9118391447753922,46.054359436035156,0.08251393636067708,-0.058724297417534724
5277,-0.21888201459960935,0.15937503814697265,82.20226287841797,41.900001525878906,-2.5388107299804688,87.88958740234375,0.0020233578152126738,0.079,0.3467857142857143,-0.006072828504774305,-0.9887415343017594,0.48338401317596436,46.84537124633789,0.4478029039171007,-0.06031553480360243
5278,-0.21497576459960935,0.19921878814697266,89.54668426513672,84.47309875488281,-2.334228515625,88.64653015136719,0.006796900431315104,0.07566666666666666,0.3467857142857143,-0.0077817704942491316,-1.131558077880861,2.054382085800171,46.933258056640625,0.05637317233615451,-0.06645287407769097
5279,-0.20325701459960935,0.219140682220459,87.6031723022461,80.83157348632812,-3.132091522216797,89.17843627929688,-0.009114880032009548,0.07166666666666667,0.3464285714285714,-0.006622144911024305,-1.3293062620849625,0.16479000449180603,46.933258056640625,0.07523998684353299,-0.08122808668348525
5280,-0.11341326459960936,0.25898443222045897,85.23004150390625,80.93386840820312,-2.9684295654296875,88.85111236572266,-0.03548295762803819,0.068,0.3460714285714286,-0.0024413638644748266,-2.4059339934082047,-1.3512789183349625,46.933258056640625,0.04773525661892361,-0.07577268812391492
5281,-0.11341326459960936,0.19921878814697266,84.5140151977539,86.98943328857422,-2.6206436157226562,88.76927947998047,-0.018889236450195312,0.06533333333333333,0.3457142857142857,-0.0017089419894748264,-2.790444033691408,-0.856909411499025,45.966468811035156,-0.02750464545355903,-0.0709991455078125
5282,-0.14075701459960935,0.219140682220459,90.0172119140625,81.9567642211914,-2.4365196228027344,88.91248321533203,0.0015687730577256945,0.062,0.3457142857142857,-0.004608027140299479,-3.251856463500978,1.032684087753296,45.26335144042969,0.08956052992078993,-0.07054447597927517
5283,-0.20716326459960935,0.239062557220459,88.50332641601562,81.8953857421875,-2.6001853942871094,88.85111236572266,0.009751976860894098,0.057666666666666665,0.3457142857142857,-0.009429677327473959,-3.229883807250978,1.1535300016403198,45.26335144042969,0.07342156304253472,-0.07168108622233073
5284,-0.22278826459960935,0.219140682220459,83.18424987792969,80.05416870117188,-2.722930908203125,87.99187469482422,-0.01661614312065972,0.05433333333333333,0.3460714285714286,-0.008514149983723959,-3.4276319914550797,-0.7580343657226578,45.26335144042969,0.03477867974175347,-0.06349784003363715
5285,-0.14856951459960935,0.17929691314697266,82.9592056274414,78.9903564453125,-2.5388107299804688,88.0737075805664,-0.03411907619900174,0.051666666666666666,0.3475,-0.0029906378851996527,-3.592423098632814,-1.8566347532959,45.17546081542969,0.04409832424587674,-0.06236131456163194
5286,-0.05872576459960936,0.19921878814697266,86.88714599609375,85.20958709716797,-2.1910247802734375,88.21691131591797,-0.02434471978081597,0.04733333333333333,0.3485714285714286,0.000213623046875,-4.174681323120119,0.06591600179672241,45.17546081542969,0.01863954332139757,-0.06008817884657118
5287,-0.08606951459960936,0.29882820129394533,86.0074462890625,85.65966796875,-2.477436065673828,89.09660339355469,0.01316163804796007,0.043666666666666666,0.3485714285714286,-0.0034178839789496527,-3.6912962370605484,1.5270540714263916,45.17546081542969,0.0038642035590277777,-0.07304488288031684
5288,-0.08216326459960936,0.29882820129394533,88.6669921875,83.65477752685547,-2.8252220153808594,89.75126647949219,-0.006387117173936632,0.04066666666666666,0.3482142857142857,-0.0021972232394748266,-3.273829119750978,1.735788106918335,43.241878509521484,0.05569127400716146,-0.0841832054985894
5289,-0.07825701459960936,0.2789063262939453,86.82576751708984,82.44775390625,-3.0093421936035156,89.38301849365234,-0.01979849073621962,0.037333333333333336,0.3460714285714286,-0.0,-3.1090380125732437,0.7360620498657227,42.97821044921875,0.04864459567599826,-0.08213734096950955
5290,-0.09388201459960936,0.25898443222045897,86.41661071777344,84.86180114746094,-3.0093421936035156,89.32164001464844,-0.0022955152723524307,0.033666666666666664,0.34535714285714286,-0.000762939453125,-3.4386183195800797,0.9008520245552063,42.97821044921875,0.01727566189236111,-0.08145535786946614
5291,-0.11731951459960936,0.25898443222045897,88.13508605957031,82.0385971069336,-2.5388107299804688,87.562255859375,0.002705298529730903,0.030666666666666665,0.3439285714285714,-0.0017699771457248264,-3.218899386474611,0.790992021560669,42.97821044921875,0.06773876614040798,-0.056678517659505205
5292,-0.11341326459960936,0.25898443222045897,88.50332641601562,86.80531311035156,-3.275299072265625,89.62850952148438,-0.014797634548611112,0.027,0.34285714285714286,-0.000762939453125,-2.7574869566650406,1.0986000299453735,42.97821044921875,0.01886681450737847,-0.08782009548611111
5293,-0.15638201459960935,0.19921878814697266,89.97630310058594,83.42974090576172,-3.11163330078125,88.1555404663086,-0.011387973361545138,0.024,0.33964285714285714,-0.000885009765625,-2.0104395323486344,0.2197200059890747,44.12078094482422,0.07273957994249132,-0.06963526407877604
5294,-0.18763201459960935,0.17929691314697266,87.23492431640625,87.0712661743164,-2.907054901123047,87.27584838867188,-0.01616151597764757,0.021333333333333333,0.33785714285714286,-0.0016479068332248264,-1.2633902006835953,-0.8788801604003922,46.84537124633789,0.0018184238009982638,-0.057587814331054685
5295,-0.19153826459960935,0.17929691314697266,86.31431579589844,80.60653686523438,-3.8890380859375,87.97142028808594,-0.010251405504014757,0.017,0.33714285714285713,-0.0030516730414496527,-0.5273291044921891,-1.5709978514404312,47.109039306640625,0.06341976589626735,-0.07622731526692708
5296,-0.15247576459960935,0.19921878814697266,85.5982894897461,78.51982116699219,-2.518352508544922,90.95828247070312,-0.026390499538845487,0.013333333333333334,0.3360714285714286,-0.0028380499945746527,-1.5819841795654312,-1.8017050200195328,46.318031311035156,0.07864964803059896,-0.09418483310275608
5297,-0.15638201459960935,0.19921878814697266,82.20226287841797,80.81111145019531,-2.0273590087890625,89.48530578613281,-0.009796820746527778,0.009,0.3357142857142857,-0.004821650187174479,-1.7138163023681656,-1.4611383848876969,45.52701950073242,0.015457238091362848,-0.07236294216579861
5298,-0.10169451459960936,0.2789063262939453,84.69813537597656,86.23248291015625,-2.2319412231445312,85.92561340332031,-0.01843460930718316,0.006,0.3342857142857143,-0.004913202921549479,-1.2414194517822281,-0.14281906420898594,43.153987884521484,-0.017048305935329862,-0.03508394029405382
5299,-0.14856951459960935,0.239062557220459,88.89202880859375,79.8905029296875,-3.3775863647460938,87.03034973144531,0.009070036146375868,0.0036666666666666666,0.3314285714285714,-0.006805250379774305,-0.01098694140625156,0.35155200958251953,39.814170837402344,0.10001695421006944,-0.06008817884657118
5300,-0.19544451459960935,0.17929691314697266,84.02302551269531,84.08439636230469,-0.20659637451171875,82.46821594238281,-0.0075236850314670135,0.0023333333333333335,0.32785714285714285,-0.0069883134629991316,0.5932440161705017,0.1867620050907135,24.96076011657715,-0.0006818983289930556,0.025835418701171876
5301,-0.20325701459960935,0.15937503814697265,91.1219482421875,76.4740219116211,4.089580535888672,85.92561340332031,-0.013888380262586805,-0.0003333333333333333,0.32321428571428573,-0.004821650187174479,1.724802017211914,0.8019779920578003,24.433420181274414,0.1627547370062934,0.03515519036187066
5302,-0.13294451459960935,0.19921878814697266,83.53202819824219,82.75462341308594,5.808052062988281,80.4837875366211,-0.023662779066297743,-0.001,0.3192857142857143,-0.0032958136664496527,1.6918439865112305,-0.06591667468261875,24.433420181274414,0.008637830946180555,0.11471405029296874
5303,-0.12513201459960935,0.19921878814697266,86.82576751708984,83.87982177734375,2.5552330017089844,82.28408813476562,-0.012069914076063368,-0.0013333333333333333,0.31285714285714283,-0.0020751529269748266,2.0214240550994873,0.2197200059890747,24.433420181274414,0.03273273044162327,0.05856827629937066
5304,-0.17591326459960935,0.13945316314697265,86.92805480957031,82.24317932128906,5.521640777587891,80.85203552246094,-0.00047704908582899306,-0.0013333333333333333,0.30857142857142855,-0.0018615298800998264,2.438892126083374,-0.19774879748535312,24.433420181274414,0.05205417209201389,0.10744005839029948
5305,-0.10560076459960936,0.13945316314697265,85.80287170410156,83.02058410644531,8.794921875,79.542724609375,0.009979248046875,0.0,0.3003571428571429,-0.0,1.1095860004425049,0.4064820110797882,24.433420181274414,0.030914306640625,0.15835774739583333
