,WD,WS,AIL_1,AIL_2,ELEV_1,ELEV_2,RUDD,ALT,GS,TH,PTCH,ROLL,PLA_1,AIL,ELEV
5789,0.1600855248697917,0.239062557220459,88.44195556640625,89.42393493652344,-1.8841552734375,87.43951416015625,-0.009342193603515625,0.7926666666666666,0.45107142857142857,0.009460194905598959,-1.3293062620849625,1.9115641117095947,29.970489501953125,-0.010910881890190972,-0.048040771484375
5790,0.1444605248697917,0.219140682220459,87.41905212402344,89.58760070800781,-1.9250717163085938,87.17355346679688,-0.0066144307454427086,0.7876666666666666,0.45071428571428573,0.009124501546223959,-1.2633902006835953,0.8239500522613525,29.970489501953125,-0.024094984266493057,-0.04554027981228299
5791,0.1522730248697917,0.219140682220459,86.43707275390625,87.23492431640625,-1.9250717163085938,86.92805480957031,-0.009342193603515625,0.782,0.45107142857142857,0.009216054280598959,-1.142544406005861,-0.3625379973144547,29.970489501953125,-0.00886501736111111,-0.04281251695421007
5792,0.1835230248697917,0.219140682220459,85.14820861816406,85.88470458984375,-1.945526123046875,86.96897888183594,-0.005705218844943577,0.7773333333333333,0.4514285714285714,0.010467232598198786,-0.801977770874025,-0.7690206938476578,29.794710159301758,-0.00818328857421875,-0.043494500054253475
5793,0.1874292748697917,0.239062557220459,87.0098876953125,87.1121826171875,-1.9250717163085938,87.1121826171875,-0.0066144307454427086,0.7723333333333333,0.4514285714285714,0.01098598904079861,-0.5822588377685562,-0.06591667468261875,31.113059997558594,-0.0011366102430555556,-0.04485838148328993
5794,0.1678980248697917,0.25898443222045897,87.17355346679688,89.26026916503906,-1.9864425659179688,87.15309143066406,-0.004114023844401042,0.767,0.4514285714285714,0.010162056816948786,-0.5822588377685562,0.29662200808525085,31.28883934020996,-0.02318572998046875,-0.04599482218424479
5795,0.1444605248697917,0.239062557220459,85.80287170410156,88.38057708740234,-1.9864425659179688,87.13264465332031,0.001341459486219618,0.7616666666666667,0.45107142857142857,0.008300526936848959,-0.6481748991699234,-0.2526785307617203,31.46462059020996,-0.028641170925564237,-0.04576763576931424
5796,0.1483667748697917,0.239062557220459,83.98210144042969,84.6572265625,-2.0478172302246094,87.09172058105469,-0.0034320831298828127,0.757,0.45107142857142857,0.007995393541124132,-0.4614130430908219,-0.6262022429199234,31.552509307861328,-0.007501390245225694,-0.045994864569769964
5797,0.1678980248697917,0.25898443222045897,85.76194763183594,85.23004150390625,-2.0478172302246094,87.23492431640625,-0.003886710272894965,0.752,0.45035714285714284,0.009612740410698786,-0.5492998533935562,1.0876140594482422,31.552509307861328,0.0059100680881076385,-0.047586017184787326
5798,0.1600855248697917,0.25898443222045897,87.74638366699219,89.58760070800781,-2.0682754516601562,87.21446990966797,-0.0054779052734375,0.7473333333333333,0.4496428571428571,0.010619820488823786,-0.6262022429199234,2.1532559394836426,30.849390029907227,-0.020457967122395834,-0.0475860595703125
5799,0.1444605248697917,0.25898443222045897,86.96897888183594,88.0737075805664,-2.0478172302246094,87.23492431640625,-0.0034320831298828127,0.7413333333333333,0.4492857142857143,0.010284127129448786,-0.5712725096435562,1.3293060064315796,30.849390029907227,-0.01227476331922743,-0.047586017184787326
5800,0.1405542748697917,0.25898443222045897,86.72348022460938,86.88714599609375,-2.10919189453125,87.29630279541016,-0.006841744316948784,0.7366666666666667,0.44892857142857145,0.010650338066948786,-0.5602861815185562,0.747048020362854,30.673608779907227,-0.001818508572048611,-0.048949940999348955
5801,0.1327417748697917,0.25898443222045897,87.23492431640625,89.19889831542969,-2.1501083374023438,87.19401550292969,0.0004322052001953125,0.7313333333333333,0.44785714285714284,0.010436715020073786,-0.4174677305908219,0.3076080083847046,30.146268844604492,-0.02182193332248264,-0.0482680426703559
5802,0.12102302486979168,0.29882820129394533,86.49844360351562,87.45996856689453,-2.2114830017089844,87.35768127441406,-0.008660252888997395,0.7263333333333334,0.4475,0.010406197441948786,-0.2856375151367203,-0.6591612272949234,29.970489501953125,-0.01068361070421007,-0.05076849195692274
5803,0.1288355248697917,0.29882820129394533,86.49844360351562,86.39614868164062,-2.334228515625,87.562255859375,-0.004114023844401042,0.7213333333333334,0.44642857142857145,0.010223091973198786,-0.5822588377685562,-0.3954969816894547,29.970489501953125,0.0011366102430555556,-0.05440538194444444
5804,0.11321052486979168,0.2789063262939453,86.53935241699219,87.80775451660156,-2.272857666015625,87.45996856689453,-0.0022955152723524307,0.716,0.44571428571428573,0.008910878499348959,-0.9338098936767594,0.3405660092830658,29.970489501953125,-0.01409335666232639,-0.05258695814344618
5805,0.10539802486979168,0.2789063262939453,86.70301818847656,88.6669921875,-2.313770294189453,87.31675720214844,-0.001613616943359375,0.7106666666666667,0.4446428571428571,0.008331044514973959,-0.8898664885253922,0.8898659944534302,29.970489501953125,-0.02182193332248264,-0.05145030551486545
5806,0.09367927486979168,0.2789063262939453,85.57783508300781,87.17355346679688,-2.2933120727539062,87.1121826171875,-0.002522828843858507,0.7056666666666667,0.4442857142857143,0.0076291826036241316,-0.6152159147949234,0.38451001048088074,29.970489501953125,-0.017730204264322917,-0.048949940999348955
5807,0.09367927486979168,0.2789063262939453,86.47798156738281,87.6031723022461,-2.2933120727539062,87.13264465332031,-0.005705218844943577,0.7006666666666667,0.44392857142857145,0.0078122880723741316,-0.3735243254394547,0.4394400119781494,29.970489501953125,-0.01250211927625868,-0.049177296956380206
5808,0.08977302486979168,0.25898443222045897,87.33721923828125,88.54424285888672,-2.272857666015625,87.1121826171875,-0.009796820746527778,0.6956666666666667,0.4432142857142857,0.0070188310411241316,-0.2856375151367203,0.26366400718688965,29.970489501953125,-0.013411373562282987,-0.04872266981336806
5809,0.06633552486979168,0.25898443222045897,86.88714599609375,88.64653015136719,-2.272857666015625,87.09172058105469,-0.005705218844943577,0.6903333333333334,0.4425,0.005462476942274305,-0.4394403868408219,-0.3185945921630875,29.970489501953125,-0.019548712836371527,-0.048495313856336805
5810,0.05461677486979168,0.25898443222045897,86.0688247680664,87.29630279541016,-2.252399444580078,87.15309143066406,-0.00297745598687066,0.6853333333333333,0.4417857142857143,0.003967157999674479,-0.5822588377685562,-0.9338098936767594,29.970489501953125,-0.013638644748263888,-0.04894989861382378
5811,0.06242927486979168,0.239062557220459,86.6007308959961,87.62362670898438,-2.2933120727539062,87.13264465332031,-0.0018409305148654514,0.681,0.44142857142857145,0.0034484015570746527,-0.6701475554199234,-0.5822588377685562,29.970489501953125,-0.011365509033203125,-0.049177296956380206
5812,0.05071052486979168,0.25898443222045897,85.0050048828125,86.72348022460938,-2.313770294189453,87.21446990966797,-0.0011589898003472221,0.6763333333333333,0.44142857142857145,0.0024413214789496527,-0.9118391447753922,-0.18676246936035312,29.970489501953125,-0.019094170464409723,-0.050313780042860246
5813,0.07414802486979168,0.219140682220459,84.39126586914062,85.18913269042969,-2.2933120727539062,87.15309143066406,-0.001613616943359375,0.671,0.44142857142857145,0.0031737433539496527,-0.9118391447753922,0.6921180486679077,30.322050094604492,-0.008865186903211806,-0.049404483371310766
5814,0.10930427486979168,0.219140682220459,86.13019561767578,86.70301818847656,-2.1910247802734375,86.88714599609375,-0.0066144307454427086,0.667,0.44142857142857145,0.006194898817274305,-0.5822588377685562,1.7467740774154663,31.113059997558594,-0.006364695231119792,-0.04531300862630208
5815,0.12492927486979168,0.239062557220459,85.70057678222656,86.96897888183594,-2.1705665588378906,86.98943328857422,-0.00775099860297309,0.6616666666666666,0.44142857142857145,0.008910878499348959,-0.5273291044921891,1.6369140148162842,32.07984924316406,-0.01409335666232639,-0.046222220526801215
5816,0.1522730248697917,0.219140682220459,87.74638366699219,89.58760070800781,-2.1910247802734375,87.05081176757812,-0.004114023844401042,0.6563333333333333,0.44142857142857145,0.010406197441948786,-0.5602861815185562,1.5600121021270752,32.8708610534668,-0.020457967122395834,-0.047131517198350695
5817,0.1327417748697917,0.25898443222045897,86.78485107421875,87.13264465332031,-2.1910247802734375,87.05081176757812,-0.01547957526312934,0.6523333333333333,0.4417857142857143,0.01123012966579861,-0.5932451658935562,0.45042601227760315,33.573978424072266,-0.0038643731011284723,-0.047131517198350695
5818,0.1327417748697917,0.2789063262939453,85.33233642578125,86.90760040283203,-2.252399444580078,87.21446990966797,-0.0054779052734375,0.6476666666666666,0.4425,0.01184048122829861,-0.4723993712158219,0.05493000149726868,34.277099609375,-0.017502933078342015,-0.04963188171386719
5819,0.1600855248697917,0.25898443222045897,86.76439666748047,88.1146240234375,-2.2933120727539062,87.43951416015625,-0.0013863033718532986,0.643,0.44285714285714284,0.013122177124023438,-0.7031046324462906,1.0546560287475586,34.277099609375,-0.015002526177300347,-0.05258695814344618
5820,0.1405542748697917,0.29882820129394533,87.33721923828125,88.95339965820312,-2.272857666015625,87.23492431640625,-0.0043413374159071184,0.638,0.44285714285714284,0.013579940795898438,-1.0216986113281266,1.1425440311431885,32.34352111816406,-0.017957560221354165,-0.05008646647135417
5821,0.1327417748697917,0.29882820129394533,87.35768127441406,89.17843627929688,-2.272857666015625,87.15309143066406,-0.00843293931749132,0.6333333333333333,0.44285714285714284,0.013244247436523438,-0.801977770874025,0.48338401317596436,32.25563049316406,-0.020230611165364582,-0.04917721218532986
5822,0.1288355248697917,0.2789063262939453,87.76683807373047,89.26026916503906,-2.272857666015625,87.27584838867188,-0.006387117173936632,0.629,0.44285714285714284,0.012450790405273438,-0.6921183043212906,-0.12084640795898594,31.46462059020996,-0.01659367879231771,-0.05054117838541667
5823,0.11321052486979168,0.2789063262939453,86.92805480957031,88.42149353027344,-2.272857666015625,87.23492431640625,-0.003204769558376736,0.6233333333333333,0.44285714285714284,0.010894478691948786,-0.9777552061767594,-1.0436712675781266,30.58572006225586,-0.016593763563368055,-0.05008646647135417
5824,0.1366480248697917,0.239062557220459,84.53446960449219,85.5982894897461,-2.252399444580078,87.17355346679688,-0.007296371459960938,0.619,0.4425,0.010467232598198786,-0.9228254729003922,-2.1312853270263687,30.322050094604492,-0.011820220947265625,-0.049177254570855033
5825,0.1444605248697917,0.25898443222045897,84.45263671875,84.32989501953125,-2.1910247802734375,86.92805480957031,-0.0022955152723524307,0.6143333333333333,0.4421428571428571,0.010009468926323786,-0.5273291044921891,-1.7467752867431656,30.322050094604492,0.0013637966579861111,-0.04576755099826389
5826,0.1522730248697917,0.25898443222045897,85.47554016113281,85.33233642578125,-2.1705665588378906,87.1121826171875,-2.242194281684028e-05,0.609,0.4417857142857143,0.009887398613823786,-0.4064833098144547,-0.4064833098144547,30.322050094604492,0.001591152615017361,-0.04758610195583767
5827,0.1444605248697917,0.25898443222045897,86.43707275390625,87.93049621582031,-2.10919189453125,87.17355346679688,0.0004322052001953125,0.6043333333333333,0.4417857142857143,0.008910878499348959,-0.48338379199218906,0.36253800988197327,31.200950622558594,-0.016593594021267363,-0.0475860595703125
5828,0.1288355248697917,0.239062557220459,86.62118530273438,87.86912536621094,-2.0682754516601562,87.0712661743164,-0.002522828843858507,0.599,0.4417857142857143,0.0075681474473741316,-0.5492998533935562,0.2526780068874359,31.552509307861328,-0.013866000705295138,-0.04599490695529514
5829,0.12492927486979168,0.239062557220459,86.80531311035156,88.93293762207031,-2.1501083374023438,87.17355346679688,-0.0018409305148654514,0.594,0.4417857142857143,0.0068662431504991316,-0.7140909605712906,-0.07690300280761875,32.34352111816406,-0.023640272352430554,-0.048040686713324655
5830,0.10930427486979168,0.239062557220459,85.53691101074219,86.43707275390625,-2.2319412231445312,87.0712661743164,-0.002068201700846354,0.5896666666666667,0.4417857142857143,0.005798170301649305,-0.6701475554199234,-0.4064833098144547,32.6950798034668,-0.01000179714626736,-0.04781341552734375
5831,0.10930427486979168,0.25898443222045897,85.78240966796875,85.80287170410156,-2.1910247802734375,87.13264465332031,-0.001613616943359375,0.5843333333333334,0.4421428571428571,0.005889723036024305,-0.6701475554199234,0.16479000449180603,32.95874786376953,-0.00022735595703125,-0.048040771484375
5832,0.1288355248697917,0.25898443222045897,85.98699188232422,86.94851684570312,-2.1705665588378906,87.17355346679688,-0.002522828843858507,0.5793333333333334,0.4425,0.0070493486192491316,-0.6152159147949234,0.8019779920578003,32.95874786376953,-0.01068361070421007,-0.04826800028483073
5833,0.1366480248697917,0.25898443222045897,86.82576751708984,87.88958740234375,-2.129650115966797,87.15309143066406,-0.013888380262586805,0.575,0.4425,0.008727773030598959,-0.4504267149658219,1.175502061843872,32.95874786376953,-0.011820220947265625,-0.047586017184787326
5834,0.12102302486979168,0.25898443222045897,86.21202850341797,88.1555404663086,-2.088733673095703,87.1121826171875,0.0002048916286892361,0.57,0.4425,0.007964875962999132,-0.20873512561035312,0.9557820558547974,32.07984924316406,-0.021594577365451388,-0.046676847669813365
5835,0.11711677486979168,0.25898443222045897,84.94363403320312,84.45263671875,-2.10919189453125,86.92805480957031,-0.0011589898003472221,0.5653333333333334,0.4417857142857143,0.007934358384874132,0.05493000149726868,0.8459219932556152,31.816179275512695,0.005455525716145834,-0.044858296712239586
5836,0.12102302486979168,0.25898443222045897,85.41416931152344,85.16867065429688,-2.0682754516601562,87.25538635253906,0.0002048916286892361,0.5603333333333333,0.44142857142857145,0.008910878499348959,-0.07690300280761875,1.450152039527893,31.728290557861328,0.002727762858072917,-0.048040686713324655
5837,0.1366480248697917,0.239062557220459,85.25050354003906,85.65966796875,-2.0478172302246094,87.27584838867188,-0.010478719075520834,0.5563333333333333,0.4407142857142857,0.010436715020073786,-0.6371885710449234,1.340291976928711,31.552509307861328,-0.004546271430121528,-0.04804072909884983
5838,0.1366480248697917,0.239062557220459,87.41905212402344,87.84866333007812,-2.0478172302246094,86.92805480957031,-0.0043413374159071184,0.552,0.4407142857142857,0.010772408379448786,-0.3295809202880875,1.5600121021270752,31.46462059020996,-0.004773457845052083,-0.04417635599772136
5839,0.10539802486979168,0.239062557220459,88.46240997314453,91.87889099121094,-2.088733673095703,86.86668395996094,-0.003886710272894965,0.5483333333333333,0.4407142857142857,0.009612740410698786,0.1538040041923523,1.0766279697418213,31.991960525512695,-0.03796090020073785,-0.04394908481174045
5840,0.09367927486979168,0.219140682220459,86.6007308959961,87.54179382324219,-2.0682754516601562,87.0098876953125,-0.008205625745985243,0.5436666666666666,0.44035714285714284,0.008117421468098959,0.1538040041923523,-1.1864878111572281,33.486087799072266,-0.010456254747178819,-0.045312923855251735
5841,0.12102302486979168,0.19921878814697266,85.49600219726562,86.45751953125,-2.10919189453125,87.15309143066406,-0.01320648193359375,0.5406666666666666,0.4407142857142857,0.008422597249348959,-0.02197326953125156,-2.142269747802736,34.101318359375,-0.010683525933159722,-0.04735870361328125
5842,0.12102302486979168,0.19921878814697266,84.26852416992188,84.5958480834961,-2.1501083374023438,87.15309143066406,-0.0007043626573350694,0.537,0.4407142857142857,0.0067441728379991316,-0.3185945921630875,-1.8236757689209,34.892330169677734,-0.003636932373046875,-0.047813330756293404
5843,0.11321052486979168,0.219140682220459,84.92317199707031,84.67768096923828,-2.129650115966797,87.17355346679688,0.0036145528157552082,0.5326666666666666,0.4417857142857143,0.005584547254774305,-0.4394403868408219,-0.4614130430908219,35.8591194152832,0.0027276780870225696,-0.04781337314181858
5844,0.1444605248697917,0.17929691314697266,87.86912536621094,87.82821655273438,-2.10919189453125,87.33721923828125,-0.005250591701931423,0.5296666666666666,0.4425,0.006133863661024305,-0.6152159147949234,0.7031040191650391,36.1227912902832,0.00045454237196180554,-0.04940456814236111
5845,0.12492927486979168,0.17929691314697266,89.68988800048828,92.1653060913086,-2.0682754516601562,87.1121826171875,-0.0009316762288411458,0.526,0.4432142857142857,0.005279371473524305,-0.6262022429199234,0.9777539968490601,36.1227912902832,-0.02750464545355903,-0.046449534098307294
5846,0.07805427486979168,0.17929691314697266,84.0025634765625,85.25050354003906,-2.088733673095703,86.98943328857422,-0.0034320831298828127,0.5213333333333333,0.44392857142857145,0.0028685675726996527,-0.3405672484130875,-1.3183199339599625,36.0349006652832,-0.013866000705295138,-0.04531296624077691
5847,0.09758552486979168,0.19921878814697266,86.72348022460938,86.21202850341797,-1.9659843444824219,87.0098876953125,-0.010251405504014757,0.5176666666666667,0.445,0.0035399542914496527,-0.17577614123535312,-0.4614130430908219,36.0349006652832,0.0056827969021267365,-0.04417635599772136
5848,0.09758552486979168,0.19921878814697266,88.83065795898438,89.23981475830078,-1.9659843444824219,87.0712661743164,-0.008205625745985243,0.514,0.44535714285714284,0.0033873664008246527,0.2526780068874359,0.5602860450744629,36.82590866088867,-0.00454618665907118,-0.04485833909776476
5849,0.03508552486979168,0.19921878814697266,88.09416198730469,89.58760070800781,-1.9250717163085938,87.35768127441406,-0.0013863033718532986,0.5093333333333333,0.44607142857142856,0.000213623046875,-0.03295769030761875,-0.15380539233398594,36.91379928588867,-0.016593763563368055,-0.047586144341362845
5850,0.003835524869791682,0.19921878814697266,85.25050354003906,87.58271789550781,-1.8023223876953125,87.35768127441406,0.0002048916286892361,0.505,0.44607142857142856,-0.0025633917914496527,-0.3405672484130875,-1.3622652464599625,35.41967010498047,-0.025913492838541666,-0.04622226291232639
5851,0.027273024869791683,0.239062557220459,83.75706481933594,82.12042999267578,-1.6795730590820312,87.41905212402344,-0.0059324900309244795,0.5016666666666667,0.44607142857142856,-0.0020140753851996527,-0.5053564482421891,-1.4062086516113297,34.540771484375,0.01818483140733507,-0.04554027981228299
5852,0.06242927486979168,0.219140682220459,85.80287170410156,86.41661071777344,-1.8227806091308594,87.64408874511719,-0.006841744316948784,0.49833333333333335,0.44642857142857145,-0.0004272037082248264,-0.6152159147949234,0.09887400269508362,29.267370223999023,-0.006819322374131944,-0.04963188171386719
5853,0.06242927486979168,0.239062557220459,86.41661071777344,87.27584838867188,-1.5568275451660156,87.66455078125,-0.005250591701931423,0.494,0.44571428571428573,-0.000274658203125,-1.2963491850585953,0.5822579860687256,28.036909103393555,-0.009547085232204862,-0.046904203626844616
5854,0.07805427486979168,0.219140682220459,83.69569396972656,87.03034973144531,-1.3522453308105469,87.54179382324219,0.0017960866292317708,0.49066666666666664,0.44571428571428573,0.0006103515625,-1.6259294920654312,0.516342043876648,27.773239135742188,-0.03705173068576389,-0.04326710171169705
5855,0.11711677486979168,0.219140682220459,85.53691101074219,84.43218231201172,-0.5952987670898438,87.35768127441406,-0.005250591701931423,0.4866666666666667,0.44535714285714284,0.0032347785101996527,-1.527054446289064,2.438892126083374,27.773239135742188,0.01227476331922743,-0.0328108893500434
5856,0.1288355248697917,0.219140682220459,88.89202880859375,87.80775451660156,-0.493011474609375,87.03034973144531,-0.007978312174479167,0.484,0.4446428571428571,0.005706617567274305,-0.8788801604003922,4.064820289611816,27.773239135742188,0.012047492133246528,-0.02803734673394097
5857,0.08196052486979168,0.239062557220459,88.81019592285156,91.572021484375,-0.8612556457519531,88.03279113769531,-0.003204769558376736,0.47633333333333333,0.4425,0.0067441728379991316,-1.4611383848876969,3.7462260723114014,27.773239135742188,-0.03068695068359375,-0.0432671864827474
5858,0.08977302486979168,0.239062557220459,86.31431579589844,86.21202850341797,-2.497894287109375,89.54668426513672,-0.01729808383517795,0.47333333333333333,0.44035714285714284,0.008544667561848959,-1.6259294920654312,2.04339599609375,27.773239135742188,0.0011365254720052083,-0.0782730950249566
5859,0.12492927486979168,0.19921878814697266,85.94607543945312,87.15309143066406,-2.8456802368164062,90.24225616455078,-0.0002497355143229167,0.47,0.43464285714285716,0.010314644707573786,-2.570725100585939,1.3293060064315796,27.773239135742188,-0.013411288791232639,-0.08986596001519097
5860,0.1405542748697917,0.219140682220459,88.23736572265625,89.46485137939453,-3.6230850219726562,90.38545989990234,-0.0007043626573350694,0.469,0.4317857142857143,0.01229824490017361,-3.6693254881591812,1.7467740774154663,27.773239135742188,-0.013638729519314236,-0.10009494357638889
5861,0.1522730248697917,0.19921878814697266,87.91004180908203,90.24225616455078,-3.500335693359375,91.0810317993164,-0.003886710272894965,0.4653333333333333,0.42678571428571427,0.013244247436523438,-4.449329989501955,1.1205720901489258,27.773239135742188,-0.025913492838541666,-0.10645963880750868
5862,0.1561792748697917,0.219140682220459,87.45996856689453,89.83309936523438,-3.091175079345703,90.6309585571289,-0.017070770263671875,0.4603333333333333,0.42392857142857143,0.014800601535373263,-4.987644808837892,-0.17577614123535312,27.68535041809082,-0.02636811998155382,-0.09691259596082899
5863,0.1991480248697917,0.19921878814697266,86.35523986816406,87.99187469482422,-2.518352508544922,90.03767395019531,-0.006841744316948784,0.4563333333333333,0.4207142857142857,0.01577712164984809,-5.745678561279298,-1.3732515745849625,27.68535041809082,-0.01818483140733507,-0.08395584954155816
5864,0.1874292748697917,0.239062557220459,87.0098876953125,88.23736572265625,-1.6795730590820312,89.46485137939453,-0.008660252888997395,0.4493333333333333,0.41928571428571426,0.01538039313422309,-5.174406664916994,-1.8017050200195328,27.68535041809082,-0.013638644748263888,-0.06827138264973959
5865,0.1718042748697917,0.239062557220459,85.02546691894531,85.29141998291016,-0.6157569885253906,88.83065795898438,0.0040691799587673615,0.44166666666666665,0.4164285714285714,0.012603378295898438,-4.207638400146486,-2.6915708952636734,27.68535041809082,-0.0029550340440538192,-0.049404610527886285
5866,0.2225855248697917,0.239062557220459,85.5164566040039,85.33233642578125,-1.4545364379882812,88.91248321533203,-0.014343007405598959,0.436,0.41464285714285715,0.013976626925998263,-3.0431219511718766,-1.8236757689209,27.68535041809082,0.002045779758029514,-0.05963355170355903
5867,0.2264917748697917,0.239062557220459,86.84622192382812,87.88958740234375,-3.3366737365722656,89.0147705078125,-0.0018409305148654514,0.42966666666666664,0.41214285714285714,0.014159732394748263,-2.581711428710939,0.1538040041923523,27.68535041809082,-0.011592949761284723,-0.0816827138264974
5868,0.1874292748697917,0.25898443222045897,86.80531311035156,88.68744659423828,-3.295757293701172,88.99431610107422,-0.0013863033718532986,0.424,0.40964285714285714,0.012847518920898438,-2.7135435515136734,0.9447960257530212,27.68535041809082,-0.020912594265407987,-0.08100081549750435
5869,0.1991480248697917,0.25898443222045897,88.27828979492188,88.31919860839844,-3.275299072265625,89.44439697265625,-0.012297227647569445,0.42,0.4060714285714286,0.014068179660373263,-2.7135435515136734,1.2743760347366333,29.706819534301758,-0.00045454237196180554,-0.08577440049913194
5870,0.1757105248697917,0.25898443222045897,88.58515930175781,91.20378112792969,-3.132091522216797,89.0147705078125,-0.005705218844943577,0.415,0.4039285714285714,0.013702011108398438,-2.6805845671386734,0.4723980128765106,31.28883934020996,-0.02909579806857639,-0.07940957811143663
5871,0.1639917748697917,0.239062557220459,87.58271789550781,88.40103149414062,-3.1525497436523438,89.19889831542969,-0.006159803602430555,0.411,0.4007142857142857,0.01184048122829861,-2.3400179320068375,-0.7140909605712906,33.39820098876953,-0.00909237331814236,-0.08168275621202258
5872,0.1483667748697917,0.25898443222045897,85.61874389648438,86.04837036132812,-3.0502586364746094,89.50576782226562,-0.0066144307454427086,0.4063333333333333,0.3989285714285714,0.010497750176323786,-2.537766116210939,-0.49437012011718906,34.628658294677734,-0.004773627387152778,-0.08395584954155816
5873,0.1600855248697917,0.239062557220459,85.84378051757812,85.53691101074219,-2.9479713439941406,89.19889831542969,-0.006159803602430555,0.402,0.3967857142857143,0.010223091973198786,-3.0431219511718766,0.3954960107803345,35.7712287902832,0.003409661187065972,-0.07940966288248698
5874,0.1639917748697917,0.219140682220459,88.40103149414062,89.54668426513672,-2.9275131225585938,89.05569458007812,-0.006387117173936632,0.398,0.3960714285714286,0.010467232598198786,-2.856360095092775,1.2414180040359497,36.65013122558594,-0.012729475233289931,-0.07759119669596354
5875,0.1522730248697917,0.219140682220459,88.6669921875,90.48774719238281,-2.722930908203125,89.17843627929688,-0.006387117173936632,0.3933333333333333,0.39535714285714285,0.010223091973198786,-2.7025572233886734,0.6591600179672241,37.704811096191406,-0.020230611165364582,-0.07668185763888889
5876,0.1639917748697917,0.219140682220459,86.559814453125,88.50332641601562,-2.6206436157226562,88.81019592285156,-0.006387117173936632,0.389,0.395,0.01132168240017361,-2.252131121704103,-0.6701475554199234,38.84737777709961,-0.021594577365451388,-0.07145377265082466
5877,0.1835230248697917,0.239062557220459,86.53935241699219,87.15309143066406,-2.5592689514160156,89.05569458007812,-0.006159803602430555,0.38433333333333336,0.3942857142857143,0.012969589233398438,-1.9115644865722672,-0.5273291044921891,39.550498962402344,-0.006819322374131944,-0.07349959479437934
5878,0.1874292748697917,0.239062557220459,88.38057708740234,89.34210205078125,-2.4569778442382812,88.91248321533203,-0.005705218844943577,0.379,0.39357142857142857,0.013366317749023438,-1.8676210814209,1.263390064239502,40.07783889770508,-0.01068361070421007,-0.07077178955078126
5879,0.1678980248697917,0.219140682220459,88.52378845214844,91.7152328491211,-2.334228515625,89.0761489868164,-0.00297745598687066,0.37533333333333335,0.39285714285714285,0.01190151638454861,-1.6808592253417984,1.3732500076293945,40.69306945800781,-0.03546049329969618,-0.0712264166937934
5880,0.1522730248697917,0.219140682220459,86.68256378173828,88.36012268066406,-2.0682754516601562,88.89202880859375,-0.005705218844943577,0.37066666666666664,0.3925,0.01132168240017361,-1.6259294920654312,-0.2636648588867203,41.48408126831055,-0.01863954332139757,-0.06622560289171008
5881,0.1874292748697917,0.219140682220459,85.49600219726562,86.1097412109375,-1.8227806091308594,89.1579818725586,-0.0066144307454427086,0.366,0.3925,0.012908554077148438,-1.4940973692626969,-0.856909411499025,42.538761138916016,-0.006819322374131944,-0.06645291646321615
5882,0.2069605248697917,0.239062557220459,86.17111206054688,86.74394226074219,-1.4545364379882812,89.1170654296875,-0.0066144307454427086,0.36133333333333334,0.39285714285714285,0.014892154269748263,-1.5709978514404312,0.20873400568962097,43.153987884521484,-0.006364780002170139,-0.061906687418619794
5883,0.2108667748697917,0.239062557220459,89.1579818725586,90.75370788574219,-2.743389129638672,89.28073120117188,-0.005705218844943577,0.3566666666666667,0.39321428571428574,0.01553298102484809,-1.505081790039064,1.263390064239502,43.85710906982422,-0.017730289035373263,-0.07804578145345052
5884,0.1913355248697917,0.219140682220459,88.23736572265625,90.93782806396484,-2.702472686767578,89.34210205078125,-0.002750142415364583,0.352,0.39357142857142857,0.013824039035373263,-1.8566347532959,0.10986000299453735,44.03289031982422,-0.030005137125651043,-0.07827305263943142
5885,0.1835230248697917,0.219140682220459,86.72348022460938,87.39859008789062,-2.6615562438964844,89.1170654296875,-0.005705218844943577,0.3473333333333333,0.39464285714285713,0.013152694702148438,-1.9225508146972672,-0.9557825499267594,44.38444900512695,-0.007501220703125,-0.07531801859537761
5886,0.2030542748697917,0.219140682220459,87.29630279541016,88.64653015136719,-2.5797271728515625,89.26026916503906,-0.006159803602430555,0.3426666666666667,0.395,0.013671493530273438,-1.9555078917236344,-0.2966219359130875,44.56023025512695,-0.015002526177300347,-0.07599995930989584
5887,0.2030542748697917,0.219140682220459,87.86912536621094,90.30363464355469,-2.4365196228027344,89.1579818725586,-0.004795964558919271,0.33766666666666667,0.3960714285714286,0.013610458374023438,-1.7797323637695328,0.3954960107803345,44.56023025512695,-0.02705010308159722,-0.0732722388373481
5888,0.1678980248697917,0.239062557220459,88.91248321533203,90.34454345703125,-2.313770294189453,89.26026916503906,-0.005705218844943577,0.333,0.3964285714285714,0.012572860717773438,-1.8346620970459,0.5822579860687256,44.56023025512695,-0.015911780463324653,-0.07304488288031684
5889,0.1796167748697917,0.219140682220459,88.19645690917969,89.58760070800781,-2.252399444580078,89.79217529296875,-0.006387117173936632,0.3283333333333333,0.3975,0.013152694702148438,-2.164242404052736,0.08788800239562988,44.03289031982422,-0.0154571533203125,-0.07827305263943142
5890,0.1757105248697917,0.239062557220459,87.15309143066406,88.03279113769531,-1.9864425659179688,89.71034240722656,-0.006159803602430555,0.32366666666666666,0.39785714285714285,0.013671493530273438,-2.845373766967775,-0.3076082640380875,43.241878509521484,-0.009774441189236111,-0.07440872192382812
5891,0.1757105248697917,0.239062557220459,87.95095825195312,88.89202880859375,-1.4749946594238281,89.46485137939453,-0.005705218844943577,0.31933333333333336,0.3989285714285714,0.013335800170898438,-3.0541082792968766,0.13183200359344482,42.71453857421875,-0.010456339518229166,-0.06599828932020399
5892,0.1600855248697917,0.219140682220459,89.2193603515625,89.89447021484375,-3.520793914794922,89.48530578613281,-0.0050232781304253475,0.31466666666666665,0.3989285714285714,0.01208462185329861,-3.251856463500978,0.010986000299453735,41.57196807861328,-0.007501220703125,-0.0889566633436415
5893,0.1561792748697917,0.219140682220459,87.97142028808594,88.62606811523438,-3.3980445861816406,88.97386169433594,-0.0059324900309244795,0.31033333333333335,0.3992857142857143,0.01156582302517361,-2.955235140869142,-0.9228254729003922,40.86885070800781,-0.00727386474609375,-0.08191006978352865
5894,0.1327417748697917,0.239062557220459,87.17355346679688,88.42149353027344,-3.3366737365722656,89.28073120117188,-0.004114023844401042,0.306,0.3989285714285714,0.009917916191948786,-2.4608656340332047,-1.2194467955322281,40.25362014770508,-0.013866000705295138,-0.08463783264160156
5895,0.10930427486979168,0.25898443222045897,85.82332611083984,87.13264465332031,-3.275299072265625,89.66943359375,-0.003886710272894965,0.30133333333333334,0.3985714285714286,0.008025911119249132,-2.7025572233886734,-0.7360617094726578,39.98994827270508,-0.014547983805338541,-0.08827480740017361
5896,0.10149177486979168,0.239062557220459,85.25050354003906,85.20958709716797,-3.1934661865234375,89.13752746582031,-0.0054779052734375,0.29733333333333334,0.3982142857142857,0.006347486707899305,-2.812416689941408,-0.06591667468261875,38.93526840209961,0.0004546271430121528,-0.08145548502604166
5897,0.10930427486979168,0.239062557220459,85.80287170410156,85.72103881835938,-3.0502586364746094,89.17843627929688,-0.0066144307454427086,0.29333333333333333,0.3967857142857143,0.0070188310411241316,-2.548752444335939,0.5493000149726868,38.320037841796875,0.0009092542860243056,-0.08031883239746093
5898,0.12492927486979168,0.239062557220459,87.93049621582031,87.86912536621094,-2.9888877868652344,89.23981475830078,-0.007296371459960938,0.28933333333333333,0.3960714285714286,0.008819325764973959,-2.3180471831054703,1.175502061843872,37.96847915649414,0.0006818983289930556,-0.08031891716851128
5899,0.12492927486979168,0.239062557220459,88.03279113769531,89.93538665771484,-2.8865966796875,89.17843627929688,-0.0066144307454427086,0.2856666666666667,0.39464285714285713,0.009368642171223959,-2.252131121704103,1.307334065437317,37.96847915649414,-0.021139950222439235,-0.0785003662109375
5900,0.10539802486979168,0.219140682220459,87.80775451660156,90.40591430664062,-2.907054901123047,89.17843627929688,-0.005250591701931423,0.2823333333333333,0.39357142857142857,0.008483632405598959,-2.1093126707763687,0.9997260570526123,39.11104965209961,-0.02886844211154514,-0.07872767978244358
5901,0.08977302486979168,0.239062557220459,86.35523986816406,88.03279113769531,-2.8456802368164062,89.23981475830078,-0.0059324900309244795,0.278,0.3925,0.007842805650499132,-2.142269747802736,0.08788800239562988,39.814170837402344,-0.018639458550347224,-0.07872772216796875
5902,0.09758552486979168,0.25898443222045897,86.31431579589844,86.70301818847656,-2.8252220153808594,89.28073120117188,-0.006387117173936632,0.27466666666666667,0.3925,0.008758290608723959,-2.2741018706054703,-0.16478981311035312,40.60517883300781,-0.0043189154730902775,-0.07895503573947482
5903,0.10539802486979168,0.219140682220459,86.74394226074219,88.93293762207031,-2.702472686767578,89.40347290039062,-0.0050232781304253475,0.271,0.3917857142857143,0.008453114827473959,-2.3510042601318375,-0.2416922026367203,40.69306945800781,-0.024322170681423613,-0.07895495096842448
5904,0.09758552486979168,0.219140682220459,86.84622192382812,87.91004180908203,-2.3956031799316406,89.1579818725586,-0.0059324900309244795,0.267,0.3917857142857143,0.0077817704942491316,-2.482836382934572,-0.3845106535644547,40.86885070800781,-0.011820220947265625,-0.07281761169433594
5905,0.10539802486979168,0.219140682220459,86.80531311035156,88.09416198730469,-2.129650115966797,89.23981475830078,-0.006387117173936632,0.2633333333333333,0.3917857142857143,0.0077512529161241316,-2.241144793579103,-0.6591612272949234,41.22040939331055,-0.014320543077256944,-0.07077183193630643
5906,0.1288355248697917,0.219140682220459,87.50088500976562,86.62118530273438,-1.8432388305664062,89.0761489868164,-0.007296371459960938,0.25933333333333336,0.3917857142857143,0.008758290608723959,-2.186215060302736,-0.3845106535644547,41.57196807861328,0.009774441189236111,-0.06577097574869792
5907,0.1405542748697917,0.239062557220459,88.29874420166016,89.95584106445312,-1.5363693237304688,88.70790100097656,-0.0066144307454427086,0.25533333333333336,0.3921428571428571,0.010101021660698786,-1.8895918303222672,-0.3295809202880875,42.099308013916016,-0.01841218736436632,-0.05826967027452257
5908,0.1796167748697917,0.219140682220459,88.21691131591797,90.05813598632812,-1.2908706665039062,89.13752746582031,-0.0066144307454427086,0.252,0.3925,0.01159634060329861,-1.3842359953613297,-0.812964098999025,42.362979888916016,-0.02045805189344618,-0.06031553480360243
5909,0.1639917748697917,0.25898443222045897,86.39614868164062,87.23492431640625,-3.704914093017578,88.72836303710938,-0.0050232781304253475,0.24766666666666667,0.3925,0.01132168240017361,-1.120571749755861,-1.164517062255861,42.97821044921875,-0.009319729275173612,-0.0825919681125217
5910,0.1522730248697917,0.239062557220459,87.23492431640625,88.48286437988281,-3.8276634216308594,89.1579818725586,-0.002522828843858507,0.245,0.3925,0.009368642171223959,-0.823950427124025,-0.13183273608398594,43.76921844482422,-0.013866000705295138,-0.0887293921576606
5911,0.12102302486979168,0.219140682220459,87.1121826171875,89.0147705078125,-4.073158264160156,88.83065795898438,-0.003659396701388889,0.24166666666666667,0.3921428571428571,0.006591627332899305,-0.6921183043212906,-0.19774879748535312,43.85710906982422,-0.02113986545138889,-0.08782018025716146
5912,0.1405542748697917,0.219140682220459,87.1121826171875,89.32164001464844,-4.011787414550781,89.64897155761719,-0.0066144307454427086,0.239,0.3921428571428571,0.0068357255723741316,-0.9777552061767594,-0.5602861815185562,44.56023025512695,-0.02454952663845486,-0.09623065524631076
5913,0.1483667748697917,0.219140682220459,86.17111206054688,87.72592163085938,-3.9913291931152344,89.62850952148438,-0.0066144307454427086,0.236,0.3921428571428571,0.0077207353379991316,-1.3842359953613297,-0.7470480375976578,44.56023025512695,-0.01727566189236111,-0.09577598571777343
5914,0.1444605248697917,0.239062557220459,85.88470458984375,86.39614868164062,-4.093616485595703,89.81263732910156,-0.006387117173936632,0.23333333333333334,0.39285714285714285,0.0075071122911241316,-1.8346620970459,-0.2416922026367203,44.91178894042969,-0.005682712131076389,-0.0989583757188585
5915,0.1366480248697917,0.239062557220459,86.92805480957031,89.48530578613281,-4.400489807128906,89.81263732910156,-0.005250591701931423,0.22933333333333333,0.39357142857142857,0.0068357255723741316,-2.2850881987304703,0.2856360077857971,44.99967956542969,-0.028413899739583335,-0.10236807929144966
5916,0.12102302486979168,0.25898443222045897,86.58027648925781,87.37813568115234,-4.5846099853515625,90.1195068359375,-0.0059324900309244795,0.22533333333333333,0.39321428571428574,0.005981275770399305,-2.801430361816408,0.0,37.79269790649414,-0.008865102132161459,-0.10782352023654514
5917,0.1327417748697917,0.25898443222045897,85.0459213256836,86.58027648925781,-4.298198699951172,89.6080551147461,-0.0075236850314670135,0.22066666666666668,0.3917857142857143,0.0073545244004991316,-3.4276319914550797,0.24169200658798218,31.552509307861328,-0.017048390706380208,-0.0989583757188585
5918,0.1522730248697917,0.25898443222045897,86.37569427490234,88.40103149414062,-4.277740478515625,89.2193603515625,-0.0075236850314670135,0.216,0.3889285714285714,0.009734810723198786,-3.3507315092773453,0.8678940534591675,27.773239135742188,-0.02250374688042535,-0.0944122314453125
5919,0.1678980248697917,0.239062557220459,87.76683807373047,89.32164001464844,-3.9913291931152344,89.17843627929688,-0.0059324900309244795,0.21,0.3875,0.010589302910698786,-3.174954073974611,1.5709980726242065,27.68535041809082,-0.017275577121310764,-0.09077517191569011
5920,0.1483667748697917,0.17929691314697266,84.43218231201172,86.1097412109375,-3.8890380859375,89.03523254394531,0.0020233578152126738,0.205,0.3846428571428571,0.007842805650499132,-3.0431219511718766,0.8678940534591675,27.68535041809082,-0.01863954332139757,-0.08804745144314235
5921,0.1444605248697917,0.19921878814697266,84.20714569091797,81.77264404296875,-3.7867469787597656,89.1579818725586,-0.008205625745985243,0.19966666666666666,0.38321428571428573,0.008147939046223959,-2.933262484619142,-0.2416922026367203,27.68535041809082,0.027050018310546875,-0.08827476501464844
5922,0.1835230248697917,0.239062557220459,86.15065002441406,86.6007308959961,-4.154991149902344,89.75126647949219,-0.01002409193250868,0.19566666666666666,0.3792857142857143,0.01220669216579861,-3.3836885863037125,0.5493000149726868,27.68535041809082,-0.00500089857313368,-0.09895841810438367
5923,0.1874292748697917,0.239062557220459,89.44439697265625,89.40347290039062,-4.564151763916016,90.48774719238281,-0.006159803602430555,0.192,0.37535714285714283,0.013640975952148438,-4.086792605468752,1.7138160467147827,27.68535041809082,0.0004547119140625,-0.11168776618109809
5924,0.1600855248697917,0.219140682220459,89.44439697265625,92.41080474853516,-4.502777099609375,90.69232940673828,-0.002750142415364583,0.18866666666666668,0.3703571428571429,0.01208462185329861,-4.647078173706056,0.9118380546569824,27.68535041809082,-0.03296008639865451,-0.11327896118164063
5925,0.1405542748697917,0.219140682220459,86.90760040283203,89.09660339355469,-4.236824035644531,90.0785903930664,-0.004568650987413194,0.18533333333333332,0.3675,0.010741890801323786,-4.998631136962892,-0.801977770874025,27.68535041809082,-0.02432225545247396,-0.10350460476345485
5926,0.1600855248697917,0.219140682220459,86.0074462890625,86.53935241699219,-3.9504127502441406,89.30118560791016,-0.007296371459960938,0.18166666666666667,0.3628571428571429,0.01187099880642361,-4.658064501831056,-1.164517062255861,27.68535041809082,-0.0059100680881076385,-0.09168442620171441
5927,0.1757105248697917,0.239062557220459,86.662109375,87.23492431640625,-4.073158264160156,90.24225616455078,-0.007069057888454861,0.17766666666666667,0.35928571428571426,0.012908554077148438,-4.097778933593752,-0.20873512561035312,27.68535041809082,-0.006364610460069444,-0.10350460476345485
5928,0.1600855248697917,0.219140682220459,87.25538635253906,88.68744659423828,-3.909496307373047,89.87400817871094,0.0015687730577256945,0.17466666666666666,0.3539285714285714,0.010375679863823786,-4.35045685107422,0.516342043876648,27.68535041809082,-0.015911780463324653,-0.09759449428982205
5929,0.10930427486979168,0.239062557220459,86.68256378173828,88.19645690917969,-3.8276634216308594,89.89447021484375,-0.0034320831298828127,0.17033333333333334,0.35,0.0075681474473741316,-4.4383455687255875,0.06591600179672241,27.68535041809082,-0.01682103474934896,-0.09691259596082899
5930,0.1288355248697917,0.19921878814697266,85.78240966796875,86.64164733886719,-3.520793914794922,89.83309936523438,-0.006841744316948784,0.16733333333333333,0.34535714285714286,0.0076902177598741316,-4.833840029785158,-0.2746511870117203,27.68535041809082,-0.009547085232204862,-0.09282103644476997
5931,0.10149177486979168,0.219140682220459,87.50088500976562,90.2218017578125,-2.866138458251953,88.52378845214844,-0.004795964558919271,0.16333333333333333,0.34214285714285714,0.006561109754774305,-4.4273592406005875,0.6262019872665405,27.68535041809082,-0.030232408311631945,-0.07099918789333767
5932,0.07414802486979168,0.219140682220459,89.13752746582031,89.30118560791016,-2.7843055725097656,88.95339965820312,-0.0034320831298828127,0.15866666666666668,0.33785714285714286,0.004669062296549479,-3.7462259703369156,1.307334065437317,27.50956916809082,-0.0018184238009982638,-0.07486339145236545
5933,0.04289802486979168,0.17929691314697266,87.64408874511719,89.48530578613281,-1.7818641662597656,88.03279113769531,-0.005705218844943577,0.155,0.33464285714285713,0.0024718390570746527,-3.196926730224611,0.4064820110797882,27.50956916809082,-0.020457967122395834,-0.053496170043945315
5934,0.04680427486979168,0.19921878814697266,86.662109375,88.6669921875,-1.7818641662597656,87.99187469482422,-0.00775099860297309,0.15066666666666667,0.33107142857142857,0.0032652960883246527,-2.7245279722900406,-0.2856375151367203,27.50956916809082,-0.022276475694444443,-0.05304154290093316
5935,0.10149177486979168,0.15937503814697265,85.49600219726562,86.70301818847656,-1.4340782165527344,87.64408874511719,-0.009569507175021702,0.14933333333333335,0.32821428571428574,0.005401441786024305,-2.1202989989013687,-0.2966219359130875,32.07984924316406,-0.013411288791232639,-0.04531296624077691
5936,0.11321052486979168,0.19921878814697266,87.76683807373047,88.72836303710938,-1.6386566162109375,88.68744659423828,-0.008660252888997395,0.14533333333333334,0.32571428571428573,0.0077512529161241316,-1.9555078917236344,0.5712720155715942,35.15599822998047,-0.01068361070421007,-0.059178924560546874
5937,0.08977302486979168,0.219140682220459,89.1579818725586,90.95828247070312,-0.8612556457519531,87.58271789550781,-0.006159803602430555,0.14166666666666666,0.325,0.0075071122911241316,-2.3729769163818375,0.38451001048088074,38.05636978149414,-0.02000333997938368,-0.03826637268066406
5938,0.06633552486979168,0.239062557220459,87.66455078125,89.87400817871094,-1.4749946594238281,87.91004180908203,-0.0059324900309244795,0.13866666666666666,0.32357142857142857,0.005645582411024305,-1.3842359953613297,-0.5273291044921891,39.11104965209961,-0.02454952663845486,-0.048722627427842884
5939,0.09758552486979168,0.219140682220459,84.75950622558594,85.94607543945312,-2.0273590087890625,88.97386169433594,-0.010251405504014757,0.13633333333333333,0.32142857142857145,0.0071103837754991316,-1.4281813078613297,-1.0986010008544937,39.11104965209961,-0.013184102376302083,-0.06668023003472222
5940,0.12492927486979168,0.239062557220459,87.64408874511719,88.78973388671875,-1.4136199951171875,88.70790100097656,-0.009114880032009548,0.133,0.3192857142857143,0.009795845879448786,-2.197201388427736,-0.14281906420898594,38.671600341796875,-0.012729390462239584,-0.05690578884548611
5941,0.12102302486979168,0.239062557220459,88.21691131591797,89.87400817871094,0.18210220336914062,87.45996856689453,-0.007296371459960938,0.13,0.31857142857142856,0.010039986504448786,-2.186215060302736,0.4064820110797882,38.84737777709961,-0.01841218736436632,-0.025309626261393228
5942,0.11321052486979168,0.239062557220459,88.23736572265625,89.567138671875,-0.002017974853515625,88.0123291015625,-0.006387117173936632,0.12766666666666668,0.31785714285714284,0.009063466389973959,-1.4831110411376969,0.3954960107803345,40.25362014770508,-0.014775254991319445,-0.03349274529351128
5943,0.09758552486979168,0.239062557220459,88.19645690917969,90.32408142089844,1.9414901733398438,89.28073120117188,-0.007069057888454861,0.124,0.3167857142857143,0.0077512529161241316,-2.0873400145263687,0.5822579860687256,40.25362014770508,-0.023640272352430554,-0.02599156697591146
5944,0.08977302486979168,0.239062557220459,87.0098876953125,88.74882507324219,-3.3366737365722656,87.97142028808594,-0.008205625745985243,0.12033333333333333,0.31642857142857145,0.0076291826036241316,-3.0541082792968766,0.08788800239562988,40.86885070800781,-0.01932152642144097,-0.07008993360731337
5945,0.10539802486979168,0.25898443222045897,86.49844360351562,88.33966064453125,-3.357128143310547,87.1121826171875,-0.008205625745985243,0.11733333333333333,0.31607142857142856,0.009155019124348959,-2.4279066496582047,-0.01098694140625156,40.86885070800781,-0.020457967122395834,-0.06077011956108941
5946,0.12492927486979168,0.239062557220459,86.94851684570312,87.31675720214844,-3.704914093017578,88.46240997314453,-0.007978312174479167,0.11366666666666667,0.3157142857142857,0.010589302910698786,-1.9555078917236344,0.5932440161705017,39.726280212402344,-0.004091559516059028,-0.07963693406846788
5947,0.10930427486979168,0.25898443222045897,87.97142028808594,88.83065795898438,-3.091175079345703,87.50088500976562,-0.007296371459960938,0.11033333333333334,0.31464285714285717,0.010162056816948786,-2.0653692656250016,1.0766279697418213,39.462608337402344,-0.009547085232204862,-0.062134000990125865
5948,0.09758552486979168,0.25898443222045897,88.25782775878906,90.28317260742188,-3.3366737365722656,87.21446990966797,-0.007296371459960938,0.107,0.31357142857142856,0.009368642171223959,-1.4391657286376969,0.8569080233573914,39.462608337402344,-0.022503831651475695,-0.061679373847113715
5949,0.10149177486979168,0.239062557220459,88.21691131591797,90.34454345703125,-4.257282257080078,89.09660339355469,-0.007978312174479167,0.104,0.31285714285714283,0.009978951348198786,-1.4611383848876969,0.17577600479125977,39.462608337402344,-0.023640357123480903,-0.09282095167371962
5950,0.11321052486979168,0.219140682220459,86.04837036132812,90.03767395019531,-3.357128143310547,87.1121826171875,-0.0075236850314670135,0.1,0.31142857142857144,0.010802925957573786,-1.8126913481445328,-0.4064833098144547,40.42940139770508,-0.04432559543185764,-0.06077011956108941
5951,0.1327417748697917,0.219140682220459,89.1170654296875,90.50820922851562,-2.3956031799316406,86.45751953125,-0.008887566460503472,0.09733333333333333,0.31142857142857144,0.01205410427517361,-1.3842359953613297,-0.2966219359130875,40.86885070800781,-0.0154571533203125,-0.042812474568684894
5952,0.1366480248697917,0.219140682220459,85.25050354003906,89.2193603515625,-2.8456802368164062,86.35523986816406,-0.004568650987413194,0.094,0.31107142857142855,0.01171841091579861,-0.10986007983398594,-0.812964098999025,41.83563995361328,-0.04409840901692708,-0.046676890055338545
5953,0.1327417748697917,0.239062557220459,87.93049621582031,86.62118530273438,-3.0093421936035156,87.25538635253906,-0.0034320831298828127,0.09133333333333334,0.3107142857142857,0.010924996270073786,0.4064820110797882,-0.4064833098144547,42.275089263916016,0.014547899034288195,-0.058496983846028645
5954,0.1288355248697917,0.239062557220459,87.41905212402344,89.6080551147461,-3.7662887573242188,88.27828979492188,-0.0043413374159071184,0.08833333333333333,0.31,0.010497750176323786,0.2856360077857971,-0.2416922026367203,43.76921844482422,-0.02432225545247396,-0.0782730950249566
5955,0.1444605248697917,0.219140682220459,87.23492431640625,88.70790100097656,-3.684459686279297,88.564697265625,-0.011160659790039062,0.085,0.30964285714285716,0.01101650661892361,-0.5712725096435562,-0.3625379973144547,44.38444900512695,-0.016366407606336807,-0.08054618835449219
5956,0.1561792748697917,0.219140682220459,87.562255859375,89.34210205078125,-2.8252220153808594,86.47798156738281,-0.0075236850314670135,0.08266666666666667,0.31035714285714283,0.01138271755642361,-0.6152159147949234,-0.2526785307617203,44.64812088012695,-0.01977606879340278,-0.04781337314181858
5957,0.1444605248697917,0.219140682220459,86.53935241699219,89.46485137939453,-3.132091522216797,87.84866333007812,-0.0013863033718532986,0.07966666666666666,0.3107142857142857,0.010101021660698786,-0.2636648588867203,-0.4504267149658219,44.64812088012695,-0.03250554402669271,-0.0664528316921658
5958,0.1366480248697917,0.219140682220459,88.89202880859375,90.71278381347656,-3.3366737365722656,88.25782775878906,-0.001613616943359375,0.07633333333333334,0.31107142857142855,0.008575185139973959,-0.5822588377685562,-0.6591612272949234,44.64812088012695,-0.020230611165364582,-0.0732722388373481
5959,0.1444605248697917,0.219140682220459,83.75706481933594,83.34790802001953,-3.4594192504882812,88.29874420166016,-0.014797634548611112,0.07333333333333333,0.3117857142857143,0.008025911119249132,-1.2633902006835953,-1.4831110411376969,44.82389831542969,0.00454618665907118,-0.07509070502387152
5960,0.1600855248697917,0.19921878814697266,87.13264465332031,87.70545959472656,-2.1501083374023438,86.21202850341797,-0.003886710272894965,0.06933333333333333,0.3132142857142857,0.0077207353379991316,-1.3293062620849625,-0.3295809202880875,44.82389831542969,-0.006364610460069444,-0.03735707600911458
5961,0.1327417748697917,0.17929691314697266,88.03279113769531,90.54912567138672,-3.5412521362304688,88.52378845214844,-0.00047704908582899306,0.068,0.31392857142857145,0.005065790812174479,-0.2746511870117203,0.0,44.82389831542969,-0.02795927259657118,-0.07850045098198785
5962,0.1288355248697917,0.15937503814697265,84.94363403320312,87.562255859375,-3.4185028076171875,88.21691131591797,-0.0050232781304253475,0.064,0.315,0.0032652960883246527,-0.7031046324462906,-0.5602861815185562,44.82389831542969,-0.02909579806857639,-0.07372682359483507
5963,0.1405542748697917,0.15937503814697265,87.48042297363281,87.58271789550781,-3.4185028076171875,87.91004180908203,-0.008887566460503472,0.060333333333333336,0.31607142857142856,0.0036925421820746527,-1.120571749755861,0.1867620050907135,44.82389831542969,-0.0011366102430555556,-0.0703171624077691
5964,0.11711677486979168,0.17929691314697266,87.82821655273438,90.38545989990234,-3.2139244079589844,87.6031723022461,-0.003659396701388889,0.056666666666666664,0.3171428571428571,0.0028380499945746527,-1.3622652464599625,0.06591600179672241,44.82389831542969,-0.028413814968532985,-0.06463440789116753
5965,0.12492927486979168,0.17929691314697266,85.53691101074219,85.53691101074219,-2.6615562438964844,86.5188980102539,-0.01547957526312934,0.05333333333333334,0.31785714285714284,0.0033263312445746527,-0.4614130430908219,-0.2636648588867203,44.82389831542969,0.0,-0.04644949171278212
5966,0.1327417748697917,0.19921878814697266,87.78729248046875,87.86912536621094,-4.073158264160156,90.81507873535156,-0.015024948120117187,0.050666666666666665,0.31892857142857145,0.004608027140299479,-0.04394401843261875,0.3405660092830658,44.82389831542969,-0.0009092542860243056,-0.10986929999457465
5967,0.1444605248697917,0.19921878814697266,87.562255859375,90.32408142089844,-4.134532928466797,88.33966064453125,-0.006159803602430555,0.04733333333333333,0.31857142857142856,0.005187861124674479,-1.0436712675781266,0.8459219932556152,44.64812088012695,-0.03068695068359375,-0.08304659525553386
5968,0.1522730248697917,0.17929691314697266,89.13752746582031,85.82332611083984,-4.9733123779296875,87.03034973144531,0.012252383761935763,0.045,0.31857142857142856,0.006530592176649305,-0.6042314940185562,1.6698720455169678,44.64812088012695,0.03682445949978298,-0.07781846788194445
5969,0.1561792748697917,0.19921878814697266,88.50332641601562,91.1219482421875,-2.334228515625,88.93293762207031,0.009524663289388021,0.041666666666666664,0.31785714285714284,0.009460194905598959,-0.5712725096435562,1.9115641117095947,44.64812088012695,-0.02909579806857639,-0.0696351793077257
5970,0.1561792748697917,0.17929691314697266,88.564697265625,91.0810317993164,-4.523235321044922,90.26271057128906,-0.002522828843858507,0.03933333333333333,0.3167857142857143,0.010680855645073786,-0.04394401843261875,1.7907180786132812,44.64812088012695,-0.02795927259657118,-0.10873273213704428
5971,0.1288355248697917,0.19921878814697266,88.0737075805664,90.71278381347656,-4.216365814208984,88.78973388671875,0.0004322052001953125,0.03666666666666667,0.31535714285714284,0.010528267754448786,0.4394400119781494,1.1425440311431885,44.64812088012695,-0.029323069254557292,-0.0889566633436415
5972,0.10930427486979168,0.219140682220459,88.21691131591797,90.34454345703125,-4.789188385009766,90.6309585571289,-0.005250591701931423,0.034,0.3132142857142857,0.010619820488823786,0.13183200359344482,0.6701459884643555,44.56023025512695,-0.023640357123480903,-0.11577941046820747
5973,0.12102302486979168,0.19921878814697266,87.13264465332031,89.83309936523438,-4.66644287109375,89.62850952148438,-0.00775099860297309,0.03133333333333333,0.3117857142857143,0.01116909450954861,-0.2307058745117203,0.36253800988197327,44.56023025512695,-0.030005052354600693,-0.10327724880642361
5974,0.1366480248697917,0.17929691314697266,87.39859008789062,89.83309936523438,-4.523235321044922,89.54668426513672,-0.009796820746527778,0.028666666666666667,0.3107142857142857,0.01211513943142361,-0.4064833098144547,0.4943700134754181,44.38444900512695,-0.02705010308159722,-0.10077688429090711
5975,0.1444605248697917,0.17929691314697266,87.70545959472656,87.03034973144531,-3.8890380859375,89.28073120117188,-0.015024948120117187,0.025333333333333333,0.31,0.01226772732204861,-0.19774879748535312,0.8678940534591675,44.12078094482422,0.007501220703125,-0.09077521430121528
5976,0.12102302486979168,0.15937503814697265,90.09904479980469,93.39279174804688,-3.5821685791015625,88.29874420166016,-0.018207295735677084,0.023,0.30857142857142855,0.01126064724392361,0.24169200658798218,0.08788800239562988,43.85710906982422,-0.036597188313802084,-0.07645458645290798
5977,0.12492927486979168,0.1195312786102295,84.86180114746094,82.16134643554688,-3.4185028076171875,88.58515930175781,-0.020480431450737847,0.019333333333333334,0.30857142857142855,0.008147939046223959,0.6591600179672241,-0.2856375151367203,43.68132781982422,0.030005052354600693,-0.07781846788194445
5978,0.07805427486979168,0.09960939407348633,82.91828918457031,90.30363464355469,-2.641101837158203,87.35768127441406,-0.01775266859266493,0.015666666666666666,0.3075,0.004150263468424479,0.6481740474700928,-0.7360617094726578,41.39619064331055,-0.08205939398871528,-0.05554203457302517
5979,0.07024177486979168,0.13945316314697265,87.25538635253906,87.33721923828125,-1.0044593811035156,85.68012237548828,-0.024799346923828125,0.012,0.3067857142857143,0.003967157999674479,0.9447960257530212,0.32958000898361206,40.34151077270508,-0.0009092542860243056,-0.018717575073242187
5980,0.06242927486979168,0.13945316314697265,86.62118530273438,87.93049621582031,-0.37026214599609375,86.0688247680664,-0.02752706739637587,0.009,0.305,0.0031737433539496527,1.9115641117095947,0.6811320185661316,29.267370223999023,-0.014547899034288195,-0.015989854600694443
5981,0.08977302486979168,0.1195312786102295,86.13019561767578,87.99187469482422,0.40714263916015625,85.47554016113281,-0.04116571214463976,0.005666666666666667,0.3025,0.004150263468424479,2.6476261615753174,0.4284540116786957,24.169750213623047,-0.020685323079427085,-0.0007599724663628472
5982,0.1327417748697917,0.09960939407348633,88.48286437988281,90.671875,3.823627471923828,84.71859741210938,-0.04230228000217014,0.0033333333333333335,0.2978571428571429,0.005065790812174479,2.8014299869537354,0.07690200209617615,24.081859588623047,-0.024322340223524305,0.04561144510904948
5983,0.1874292748697917,0.07968751907348633,85.16867065429688,82.93875122070312,6.749122619628906,80.66790771484375,-0.04639388190375434,0.002,0.295,0.005340406629774305,4.0977783203125,-0.4394403868408219,24.081859588623047,0.024776882595486112,0.12312461005316841
5984,0.31242927486979166,0.05976563930511475,84.6572265625,85.06637573242188,6.401336669921875,79.68592834472656,-0.037528737386067705,0.0023333333333333335,0.29,0.004913202921549479,6.382866382598877,-0.15380539233398594,24.081859588623047,-0.004546101888020833,0.13017120361328124
5985,0.27336677486979166,0.05976563930511475,83.552490234375,85.43462371826172,11.679500579833984,77.55829620361328,-0.01957117716471354,0.0006666666666666666,0.28535714285714286,0.0038451300726996527,5.756664276123047,0.14281800389289856,24.081859588623047,-0.020912594265407987,0.21245782640245225
5986,0.1288355248697917,0.07968751907348633,83.0001220703125,81.52714538574219,15.07552719116211,70.70486450195312,-0.020480431450737847,0.0003333333333333333,0.2782142857142857,0.0025939093695746527,5.427083969116211,-0.20873512561035312,24.081859588623047,0.016366407606336807,0.3263406965467665
5987,0.05461677486979168,0.1195312786102295,82.81600189208984,82.46821594238281,20.517356872558594,67.02242279052734,-0.0168434566921658,0.0003333333333333333,0.2732142857142857,0.0010680728488498264,4.6031341552734375,-0.04394401843261875,24.081859588623047,0.003864288330078125,0.42772148980034724
5988,0.031179274869791683,0.15937503814697265,82.07951354980469,79.9927978515625,20.844684600830078,63.483192443847656,-0.012069914076063368,0.0,0.265,-0.0,4.625106334686279,-0.08788933093261875,24.081859588623047,0.02318572998046875,0.47068324618869356
