,WD,WS,AIL_1,AIL_2,ELEV_1,ELEV_2,RUDD,ALT,GS,TH,PTCH,ROLL,PLA_1,AIL,ELEV
5004,0.13023403527289498,0.17929691314697266,86.23248291015625,82.75462341308594,-2.0478172302246094,86.43707275390625,-0.0054779052734375,0.7706666666666667,0.48,0.005370924207899305,-0.4174677305908219,0.9338099956512451,34.364990234375,0.03864288330078125,-0.038720999823676217
5005,0.13414028527289498,0.15937503814697265,85.78240966796875,81.52714538574219,-1.8432388305664062,86.53935241699219,-0.01070603264702691,0.7666666666666667,0.48,0.005737135145399305,0.010986000299453735,1.032684087753296,34.364990234375,0.04728071424696181,-0.037584347195095485
5006,0.14976528527289498,0.15937503814697265,86.33477783203125,83.0410385131836,-1.8841552734375,87.0098876953125,-0.006841744316948784,0.762,0.47964285714285715,0.0065915849473741316,0.373524010181427,1.252403974533081,34.364990234375,0.03659710354275174,-0.043267144097222224
5007,0.13804653527289498,0.15937503814697265,86.29386138916016,82.93875122070312,-1.4136199951171875,86.6007308959961,-0.0050232781304253475,0.7573333333333333,0.4789285714285714,0.0068052079942491316,0.5273280143737793,1.3732500076293945,34.364990234375,0.037279001871744794,-0.033492787679036455
5008,0.12242153527289498,0.19921878814697266,84.67768096923828,79.33814239501953,-1.3113288879394531,86.70301818847656,-0.013661109076605903,0.754,0.47785714285714287,0.0078122456868489586,0.9667680263519287,1.5709980726242065,34.540771484375,0.05932820638020833,-0.03349274529351128
5009,0.16148403527289498,0.17929691314697266,85.96653747558594,81.9567642211914,-1.2294998168945312,86.662109375,-0.00775099860297309,0.751,0.4767857142857143,0.010162056816948786,1.0876140594482422,3.4276320934295654,34.540771484375,0.04455303615993923,-0.032128991021050345
5010,0.17320278527289498,0.15937503814697265,87.39859008789062,83.81844329833984,-1.1681251525878906,87.33721923828125,-0.004114023844401042,0.7466666666666667,0.475,0.012481307983398438,0.7140899896621704,3.5924220085144043,34.540771484375,0.039779408772786455,-0.038948271009657115
5011,0.24742153527289498,0.13945316314697265,88.13508605957031,84.69813537597656,-0.9635429382324219,86.74394226074219,-0.007978312174479167,0.7443333333333333,0.4739285714285714,0.01608229743109809,0.6152160167694092,2.285088062286377,32.6950798034668,0.038188340928819446,-0.03008316887749566
5012,0.23570278527289498,0.19921878814697266,87.78729248046875,85.31187438964844,-0.6362152099609375,86.84622192382812,-0.013433795505099827,0.741,0.4725,0.019011900160047744,0.8459219932556152,0.9447960257530212,32.6071891784668,0.02750464545355903,-0.027582634819878472
5013,0.24742153527289498,0.17929691314697266,87.562255859375,83.61386108398438,1.3277511596679688,86.58027648925781,-0.009569507175021702,0.737,0.4714285714285714,0.018706724378797744,1.1095860004425049,0.26366400718688965,32.4314079284668,0.04387105305989583,-0.0028058369954427082
5014,0.22398403527289498,0.15937503814697265,87.5213394165039,83.67523193359375,2.1665306091308594,87.09172058105469,-0.004568650987413194,0.734,0.46964285714285714,0.016997782389322917,0.9887400269508362,0.4394400119781494,32.6071891784668,0.042734527587890626,0.0008312225341796875
5015,0.20835903527289498,0.13945316314697265,87.50088500976562,83.69569396972656,1.7982864379882812,86.5188980102539,-0.0066144307454427086,0.7303333333333333,0.4685714285714286,0.01586867438422309,0.9008520245552063,0.02197200059890747,32.6071891784668,0.04227990044487847,0.003104315863715278
5016,0.20054653527289498,0.15937503814697265,87.1121826171875,83.1024169921875,1.3686676025390625,86.662109375,-0.012297227647569445,0.7263333333333334,0.46714285714285714,0.016448465983072917,0.9008520245552063,-0.6042314940185562,32.6071891784668,0.04455295138888889,-0.003260464138454861
5017,0.22398403527289498,0.15937503814697265,87.15309143066406,83.08195495605469,-0.6157569885253906,86.62118530273438,-0.011615286933051215,0.7226666666666667,0.4664285714285714,0.016662089029947917,0.9667680263519287,-1.131558077880861,32.4314079284668,0.04523484971788194,-0.02485491434733073
5018,0.22007778527289498,0.17929691314697266,87.1121826171875,83.08195495605469,-1.4136199951171875,86.662109375,-0.015252261691623263,0.7186666666666667,0.46464285714285714,0.017180887858072917,0.8898659944534302,-1.2194467955322281,32.4314079284668,0.04478030734592014,-0.03417477077907986
5019,0.22789028527289498,0.17929691314697266,85.455078125,80.56562042236328,-1.7409477233886719,86.88714599609375,-0.007978312174479167,0.7146666666666667,0.4639285714285714,0.016540018717447917,0.6921180486679077,-0.4284540587158219,32.6071891784668,0.054327307807074655,-0.04031215243869358
5020,0.21617153527289498,0.17929691314697266,85.82332611083984,82.57050323486328,-1.8023223876953125,86.98943328857422,-0.006387117173936632,0.7103333333333334,0.4625,0.01605177985297309,0.24169200658798218,0.41746801137924194,32.4314079284668,0.03614247639973958,-0.04213061862521701
5021,0.22398403527289498,0.17929691314697266,86.25294494628906,82.48867797851562,-1.3113288879394531,86.74394226074219,-0.012069914076063368,0.706,0.4617857142857143,0.016356913248697917,0.0,0.9228240251541138,32.6071891784668,0.041825188530815974,-0.033947457207573785
5022,0.16929653527289498,0.19921878814697266,86.49844360351562,82.67279052734375,-1.5772857666015625,86.662109375,-0.002068201700846354,0.702,0.4610714285714286,0.01553298102484809,0.29662200808525085,1.5709980726242065,32.6071891784668,0.04250725640190972,-0.03599327935112847
5023,0.14585903527289498,0.19921878814697266,86.559814453125,82.97966003417969,-1.4136199951171875,86.78485107421875,-0.00775099860297309,0.6963333333333334,0.46035714285714285,0.01510573493109809,0.19774800539016724,1.219446063041687,32.6071891784668,0.03977949354383681,-0.035538567437065974
5024,0.16148403527289498,0.17929691314697266,86.68256378173828,82.61141967773438,-1.3522453308105469,86.74394226074219,-0.008887566460503472,0.6916666666666667,0.45964285714285713,0.01583815680609809,0.35155200958251953,1.3293060064315796,32.6071891784668,0.045234934488932295,-0.034402084350585935
5025,0.13804653527289498,0.219140682220459,86.82576751708984,82.73416900634766,-1.2499542236328125,86.88714599609375,-0.0066144307454427086,0.6866666666666666,0.4589285714285714,0.016662089029947917,0.5712720155715942,1.8236761093139648,32.6071891784668,0.04546220567491319,-0.03485666910807292
5026,0.12632778527289498,0.219140682220459,86.84622192382812,83.18424987792969,-0.9226264953613281,86.53935241699219,-0.007296371459960938,0.681,0.45785714285714285,0.017455546061197917,0.12084600329399109,2.285088062286377,32.6071891784668,0.040688578287760416,-0.027355321248372397
5027,0.11460903527289498,0.219140682220459,86.82576751708984,83.14332580566406,-0.12476730346679688,86.662109375,-0.00775099860297309,0.676,0.4575,0.017913267347547744,0.07690200209617615,2.4828360080718994,32.6071891784668,0.04091601901584201,-0.01985418531629774
5028,0.09117153527289498,0.219140682220459,87.31675720214844,85.31187438964844,0.9390487670898438,86.86668395996094,-0.0043413374159071184,0.6706666666666666,0.4567857142857143,0.018279478285047744,0.1867620050907135,2.427906036376953,32.6071891784668,0.022276475694444443,-0.010307057698567709
5029,0.07945278527289498,0.219140682220459,88.76927947998047,86.31431579589844,-0.14522552490234375,86.58027648925781,-0.010933346218532987,0.6653333333333333,0.45607142857142857,0.018584654066297744,0.19774800539016724,0.4943700134754181,32.6071891784668,0.027277374267578126,-0.019172244601779513
5030,0.08726528527289498,0.219140682220459,88.40103149414062,84.49356079101562,-0.37026214599609375,86.45751953125,-0.01752539740668403,0.6606666666666666,0.45535714285714285,0.018828794691297744,0.5602860450744629,-1.7577597075195328,32.6071891784668,0.043416341145833336,-0.020308685302734376
5031,0.09898403527289498,0.219140682220459,87.562255859375,83.42974090576172,-0.329345703125,86.58027648925781,-0.016388829549153647,0.655,0.455,0.018065855238172744,0.6701459884643555,-3.196926730224611,32.4314079284668,0.04591683281792535,-0.02121802435980903
5032,0.09507778527289498,0.219140682220459,86.0688247680664,81.58851623535156,-0.3907203674316406,86.43707275390625,-0.008205625745985243,0.651,0.4539285714285714,0.01519728766547309,0.8019779920578003,-3.548477786132814,32.4314079284668,0.04978120591905382,-0.020308812459309895
5033,0.07945278527289498,0.219140682220459,86.74394226074219,83.42974090576172,-0.493011474609375,86.76439666748047,-0.009796820746527778,0.646,0.45357142857142857,0.012115097045898438,0.7690200209617615,-3.6473528319091812,32.4314079284668,0.03682445949978298,-0.025082312689887153
5034,0.07554653527289498,0.219140682220459,86.88714599609375,84.1048583984375,-0.9021682739257812,87.64408874511719,-0.009796820746527778,0.6413333333333333,0.4517857142857143,0.009429634941948786,0.38451001048088074,-4.240597384521486,32.4314079284668,0.030914306640625,-0.0394028557671441
5035,0.08335903527289498,0.219140682220459,86.80531311035156,83.34790802001953,-1.1885833740234375,86.86668395996094,-0.011387973361545138,0.6363333333333333,0.4514285714285714,0.0070188310411241316,-0.13183273608398594,-4.745953219482423,32.4314079284668,0.038415612114800345,-0.03394741482204861
5036,0.07554653527289498,0.219140682220459,84.43218231201172,83.20470428466797,-1.10675048828125,86.53935241699219,-0.011842600504557292,0.6323333333333333,0.45107142857142857,0.0039061228434244793,0.0,-5.086517947265627,32.4314079284668,0.013638644748263888,-0.029401143391927082
5037,0.07554653527289498,0.219140682220459,84.20714569091797,80.19737243652344,-1.0249176025390625,86.43707275390625,-0.009114880032009548,0.6263333333333333,0.45107142857142857,0.0006408267550998264,0.4064820110797882,-3.6363665037841812,32.4314079284668,0.04455303615993923,-0.027355448404947916
5038,0.05992153527289498,0.219140682220459,85.14820861816406,81.87493133544922,-1.0658340454101562,86.47798156738281,-0.003204769558376736,0.62,0.45035714285714284,-0.0021667056613498266,0.6262019872665405,-1.516068118164064,32.4314079284668,0.03636974758572049,-0.028264617919921874
5039,0.05601528527289498,0.219140682220459,83.69569396972656,80.40196228027344,-0.9021682739257812,86.84622192382812,-0.009342193603515625,0.6156666666666667,0.4496428571428571,-0.0031127081976996527,0.38451001048088074,-0.2856375151367203,32.4314079284668,0.03659701877170139,-0.03053766886393229
5040,0.06382778527289498,0.239062557220459,86.45751953125,83.20470428466797,-0.45209503173828125,86.23248291015625,-0.0059324900309244795,0.6096666666666667,0.44892857142857145,-0.0025328742133246527,0.35155200958251953,1.3952220678329468,32.4314079284668,0.036142391628689235,-0.018717532687717014
5041,0.06773403527289498,0.239062557220459,86.39614868164062,83.5115737915039,0.18210220336914062,86.41661071777344,-0.00843293931749132,0.6043333333333333,0.44821428571428573,-0.0012511783175998264,0.7580339908599854,1.4611380100250244,32.4314079284668,0.032050832112630205,-0.013716761271158855
5042,0.07945278527289498,0.239062557220459,86.35523986816406,83.02058410644531,0.673095703125,86.39614868164062,-0.010478719075520834,0.5986666666666667,0.4471428571428571,0.0003662109375,0.9228240251541138,1.2963480949401855,32.4314079284668,0.03705173068576389,-0.008033921983506944
5043,0.09117153527289498,0.239062557220459,86.39614868164062,83.08195495605469,-0.6362152099609375,86.49844360351562,-0.010251405504014757,0.5946666666666667,0.44642857142857145,0.0016479068332248264,1.021697998046875,1.3622640371322632,32.4314079284668,0.03682437472873264,-0.023718431260850693
5044,0.07945278527289498,0.239062557220459,86.41661071777344,83.14332580566406,-1.1885833740234375,86.53935241699219,-0.004795964558919271,0.5893333333333334,0.44535714285714284,0.0018310123019748264,0.8678940534591675,1.5929700136184692,32.4314079284668,0.03636983235677083,-0.03031039767795139
5045,0.07554653527289498,0.219140682220459,86.29386138916016,82.9592056274414,-1.4340782165527344,86.47798156738281,-0.009569507175021702,0.584,0.4446428571428571,0.0025328742133246527,0.8459219932556152,1.8346620798110962,36.1227912902832,0.03705173068576389,-0.03235621982150608
5046,0.06773403527289498,0.239062557220459,86.19157409667969,82.93875122070312,-1.3727035522460938,86.25294494628906,-0.007296371459960938,0.58,0.44357142857142856,0.0032652960883246527,0.9887400269508362,2.142270088195801,42.538761138916016,0.03614247639973958,-0.02917387220594618
5047,0.05992153527289498,0.219140682220459,87.66455078125,83.1024169921875,-1.495452880859375,86.33477783203125,-0.004568650987413194,0.5756666666666667,0.44392857142857145,0.004119745890299479,1.06564199924469,3.065093994140625,42.62664794921875,0.050690375434027775,-0.03144700792100694
5048,0.04429653527289498,0.219140682220459,87.43951416015625,84.12531280517578,-1.4749946594238281,86.33477783203125,-0.006387117173936632,0.571,0.4446428571428571,0.004882685343424479,1.1535300016403198,2.8893179893493652,42.71453857421875,0.03682445949978298,-0.03121969434950087
5049,0.03648403527289498,0.219140682220459,88.17599487304688,84.94363403320312,-1.4136199951171875,86.23248291015625,-0.008887566460503472,0.567,0.44535714285714284,0.006072828504774305,1.4062080383300781,2.065368175506592,42.62664794921875,0.03591512044270833,-0.029401143391927082
5050,0.02867153527289498,0.219140682220459,87.31675720214844,83.61386108398438,-1.2294998168945312,86.39614868164062,-0.011842600504557292,0.563,0.44607142857142856,0.0067136552598741316,1.6259280443191528,0.8788800239562988,42.71453857421875,0.04114329020182292,-0.02917387220594618
5051,0.02085903527289498,0.219140682220459,87.29630279541016,83.57295227050781,-1.0249176025390625,86.58027648925781,-0.010478719075520834,0.5603333333333333,0.44642857142857145,0.0066221025254991316,1.7797319889068604,0.6371880173683167,45.79069137573242,0.04137056138780382,-0.02894660101996528
5052,0.005234035272894981,0.19921878814697266,87.6031723022461,83.53202819824219,-1.4749946594238281,86.78485107421875,-0.009342193603515625,0.559,0.4471428571428571,0.006011793348524305,1.7797319889068604,1.4281799793243408,45.966468811035156,0.045234934488932295,-0.0362205081515842
5053,-0.01429721472710502,0.19921878814697266,87.21446990966797,83.30699157714844,-0.9226264953613281,86.74394226074219,-0.006387117173936632,0.5533333333333333,0.44785714285714284,0.005950758192274305,1.219446063041687,1.966494083404541,45.966468811035156,0.04341642591688368,-0.029628541734483507
5054,-0.01039096472710502,0.19921878814697266,87.31675720214844,84.45263671875,-0.493011474609375,86.559814453125,-0.009796820746527778,0.5506666666666666,0.4496428571428571,0.0071103837754991316,1.538040041923523,1.3732500076293945,45.966468811035156,0.03182356092664931,-0.02280917697482639
5055,0.01304653527289498,0.19921878814697266,87.29630279541016,83.63432312011719,0.673095703125,87.0712661743164,-0.013661109076605903,0.5476666666666666,0.45071428571428573,0.008819325764973959,1.8676199913024902,0.4614120125770569,45.966468811035156,0.04068866305881076,-0.015535227457682292
5056,0.02867153527289498,0.17929691314697266,87.23492431640625,83.30699157714844,-2.1501083374023438,86.92805480957031,-0.010251405504014757,0.5433333333333333,0.4514285714285714,0.009643257988823786,1.494096040725708,-0.2746511870117203,45.966468811035156,0.04364369710286458,-0.045312923855251735
5057,0.04429653527289498,0.17929691314697266,86.68256378173828,82.63188171386719,-2.1705665588378906,86.82576751708984,-0.011615286933051215,0.5403333333333333,0.4521428571428571,0.010070504082573786,1.5600121021270752,-0.7360617094726578,45.966468811035156,0.045007578531901044,-0.0444037119547526
5058,0.05210903527289498,0.17929691314697266,86.41661071777344,82.22271728515625,-2.1501083374023438,86.80531311035156,-0.006159803602430555,0.5376666666666666,0.45321428571428574,0.009521187676323786,1.6698720455169678,-0.834936755249025,46.054359436035156,0.04659881591796875,-0.043949127197265625
5059,0.03257778527289498,0.17929691314697266,88.0737075805664,84.5140151977539,-2.2319412231445312,86.96897888183594,-0.0043413374159071184,0.5336666666666666,0.4539285714285714,0.008117421468098959,1.647900104522705,-0.9228254729003922,46.054359436035156,0.03955213758680556,-0.046676890055338545
5060,0.01304653527289498,0.17929691314697266,87.13264465332031,84.554931640625,-2.2114830017089844,87.0098876953125,-0.010251405504014757,0.5306666666666666,0.455,0.006255933973524305,1.450152039527893,-2.164242404052736,46.054359436035156,0.028641255696614583,-0.04690411885579427
5061,0.00914028527289498,0.15937503814697265,85.72103881835938,81.36347961425781,-2.252399444580078,87.31675720214844,-0.013888380262586805,0.5266666666666666,0.45571428571428574,0.004424921671549479,1.4831100702285767,-2.6146685057373062,46.054359436035156,0.04841732449001736,-0.050768407185872395
5062,0.0013277852728949804,0.15937503814697265,86.19157409667969,81.9976806640625,-2.252399444580078,86.94851684570312,-0.006387117173936632,0.5236666666666666,0.4567857142857143,0.0023192511664496527,1.0876140594482422,-1.7687460356445328,46.054359436035156,0.04659881591796875,-0.046676847669813365
5063,-0.01039096472710502,0.15937503814697265,85.5982894897461,82.46821594238281,-2.1910247802734375,86.80531311035156,-0.006159803602430555,0.521,0.45785714285714285,0.0007628970675998264,1.1864880323410034,-1.3952223234863297,46.054359436035156,0.034778594970703125,-0.044403754340277775
5064,0.01304653527289498,0.17929691314697266,85.08683776855469,80.9952392578125,-2.2319412231445312,87.25538635253906,-0.009796820746527778,0.516,0.4592857142857143,0.0008544498019748264,1.1315580606460571,-0.7909933500976578,45.966468811035156,0.04546220567491319,-0.04985919528537326
5065,0.03257778527289498,0.19921878814697266,85.25050354003906,81.05661010742188,-2.2114830017089844,87.21446990966797,-0.00775099860297309,0.5116666666666667,0.46,0.0014648013644748264,0.9008520245552063,0.23070600628852844,45.966468811035156,0.04659881591796875,-0.049177254570855033
5066,0.05601528527289498,0.17929691314697266,85.68012237548828,81.38394165039062,-2.2933120727539062,87.50088500976562,-0.006159803602430555,0.5083333333333333,0.4614285714285714,0.0028075324164496527,0.9667680263519287,1.0436700582504272,45.966468811035156,0.047735341389973956,-0.05326885647243924
5067,0.08335903527289498,0.219140682220459,85.84378051757812,82.16134643554688,-2.10919189453125,87.41905212402344,-0.0075236850314670135,0.5033333333333333,0.46214285714285713,0.005309889051649305,0.8129640221595764,1.6369140148162842,45.966468811035156,0.04091593424479167,-0.05031382242838542
5068,0.11851528527289498,0.219140682220459,85.86424255371094,82.26363372802734,-2.10919189453125,86.86668395996094,-0.010933346218532987,0.499,0.4632142857142857,0.008300526936848959,1.307334065437317,2.0983259677886963,45.966468811035156,0.040006764729817706,-0.04417639838324653
5069,0.13023403527289498,0.219140682220459,88.29874420166016,85.57783508300781,-2.6001853942871094,88.0123291015625,-0.005705218844943577,0.49533333333333335,0.4639285714285714,0.010345162285698786,1.4281799793243408,2.592696189880371,46.054359436035156,0.0302323235405816,-0.06236127217610677
5070,0.11460903527289498,0.219140682220459,87.54179382324219,84.20714569091797,-2.1910247802734375,87.562255859375,-0.009114880032009548,0.49133333333333334,0.4642857142857143,0.01129116482204861,0.8569080233573914,1.7028300762176514,44.82389831542969,0.03705164591471354,-0.05281422932942708
5071,0.12242153527289498,0.219140682220459,87.37813568115234,83.22515869140625,-2.088733673095703,87.27584838867188,-0.007978312174479167,0.486,0.465,0.012420272827148438,0.9667680263519287,1.3732500076293945,44.38444900512695,0.046144188774956595,-0.04849535624186198
5072,0.12242153527289498,0.219140682220459,89.2193603515625,83.32745361328125,-2.3751449584960938,87.23492431640625,-0.008205625745985243,0.4826666666666667,0.46535714285714286,0.013152694702148438,1.307334065437317,1.3512780666351318,44.38444900512695,0.06546563042534723,-0.05122299194335937
5073,0.11070278527289498,0.219140682220459,87.25538635253906,85.80287170410156,-1.9864425659179688,87.58271789550781,-0.013888380262586805,0.474,0.46535714285714286,0.013335800170898438,0.9008520245552063,-0.7800070219726578,44.38444900512695,0.016139051649305555,-0.05076844957139757
5074,0.11460903527289498,0.219140682220459,87.48042297363281,83.38882446289062,-1.9046134948730469,87.41905212402344,-0.011160659790039062,0.4696666666666667,0.4657142857142857,0.012786483764648438,0.8459219932556152,-1.9225508146972672,44.38444900512695,0.04546220567491319,-0.04804072909884983
5075,0.10289028527289498,0.239062557220459,87.27584838867188,83.18424987792969,-1.7818641662597656,87.25538635253906,-0.007069057888454861,0.4663333333333333,0.4660714285714286,0.01080288357204861,1.06564199924469,-2.2960745268554703,44.38444900512695,0.04546220567491319,-0.04485833909776476
5076,0.09898403527289498,0.219140682220459,86.90760040283203,83.26608276367188,-1.8227806091308594,87.39859008789062,-0.008660252888997395,0.46066666666666667,0.4667857142857143,0.008849843343098959,1.06564199924469,-2.4608656340332047,44.38444900512695,0.04046130710177952,-0.04690411885579427
5077,0.09507778527289498,0.239062557220459,86.04837036132812,81.4453125,-2.2933120727539062,87.82821655273438,-0.008205625745985243,0.45666666666666667,0.4667857142857143,0.0074155595567491316,0.6591600179672241,-1.6918455534667984,44.38444900512695,0.05114508734809028,-0.056905873616536456
5078,0.09507778527289498,0.239062557220459,86.0688247680664,82.34546661376953,-2.6001853942871094,87.95095825195312,-0.007296371459960938,0.452,0.46785714285714286,0.0064084794786241316,0.1867620050907135,-1.1974741392822281,44.38444900512695,0.04137064615885417,-0.061679373847113715
5079,0.11070278527289498,0.219140682220459,86.04837036132812,82.12042999267578,-2.6820144653320312,87.99187469482422,-0.016388829549153647,0.44733333333333336,0.46785714285714286,0.006103346082899305,-0.2966219359130875,-1.3293062620849625,44.38444900512695,0.04364378187391493,-0.063043212890625
5080,0.11070278527289498,0.17929691314697266,86.0688247680664,82.28408813476562,-2.4569778442382812,88.0737075805664,-0.009796820746527778,0.44233333333333336,0.4682142857142857,0.004638544718424479,-0.5492998533935562,-0.5492998533935562,44.38444900512695,0.04205262925889757,-0.06145206027560764
5081,0.09507778527289498,0.13945316314697265,86.78485107421875,84.35034942626953,-2.3751449584960938,87.80775451660156,0.009297349717881945,0.438,0.4689285714285714,0.0021971808539496527,-0.5383154326171891,0.516342043876648,44.38444900512695,0.027050018310546875,-0.05758777194552951
5082,0.07164028527289498,0.17929691314697266,86.84622192382812,82.87738037109375,-2.5388107299804688,87.97142028808594,-0.010478719075520834,0.43133333333333335,0.4689285714285714,0.0023192511664496527,-0.7140909605712906,0.6811320185661316,44.38444900512695,0.04409823947482639,-0.06122478908962674
5083,0.06382778527289498,0.15937503814697265,86.86668395996094,82.75462341308594,-3.254840850830078,88.1146240234375,-0.004114023844401042,0.42533333333333334,0.4689285714285714,0.0020751105414496527,-0.9557825499267594,0.5053560137748718,44.38444900512695,0.045689561631944445,-0.07077183193630643
5084,0.09507778527289498,0.17929691314697266,86.86668395996094,82.97966003417969,-3.520793914794922,89.28073120117188,-0.009796820746527778,0.4206666666666667,0.46714285714285714,0.0036314646402994793,-1.549027102539064,-0.3405672484130875,44.38444900512695,0.043189154730902776,-0.08668361239963107
5085,0.12632778527289498,0.17929691314697266,86.88714599609375,82.83645629882812,-4.5846099853515625,90.42637634277344,-0.014570320977105035,0.41733333333333333,0.4660714285714286,0.004577509562174479,-2.3400179320068375,-0.6591612272949234,44.38444900512695,0.04500766330295139,-0.1112331814236111
5086,0.13804653527289498,0.15937503814697265,86.86668395996094,82.73416900634766,-4.5846099853515625,91.0196533203125,-0.0066144307454427086,0.413,0.4639285714285714,0.003997675577799479,-3.603409426757814,-0.856909411499025,44.38444900512695,0.04591683281792535,-0.11782514784071181
5087,0.16539028527289498,0.13945316314697265,86.80531311035156,82.69325256347656,-4.502777099609375,91.30607604980469,-0.009796820746527778,0.4093333333333333,0.46285714285714286,0.003936640421549479,-4.680037158081056,-1.0107122832031266,44.38444900512695,0.045689561631944445,-0.12009836832682291
5088,0.16929653527289498,0.13945316314697265,86.70301818847656,82.57050323486328,-4.3595733642578125,91.34698486328125,-0.01002409193250868,0.4046666666666667,0.4617857142857143,0.0036009470621744793,-5.4600435667724625,-0.5602861815185562,44.38444900512695,0.04591683281792535,-0.11896175808376735
5089,0.15367153527289498,0.13945316314697265,86.70301818847656,82.59095764160156,-3.4185028076171875,89.6080551147461,-0.01070603264702691,0.39866666666666667,0.4614285714285714,0.0022276984320746527,-5.624832766601564,-0.4723993712158219,44.38444900512695,0.045689561631944445,-0.08918397691514757
5090,0.09898403527289498,0.15937503814697265,86.72348022460938,82.44775390625,-4.052700042724609,90.95828247070312,-0.006841744316948784,0.39166666666666666,0.4617857142857143,0.000579833984375,-4.855812686035158,-0.14281906420898594,44.38444900512695,0.04750807020399306,-0.11123313903808593
5091,0.07945278527289498,0.219140682220459,86.74394226074219,82.5091323852539,-3.2343826293945312,88.78973388671875,-0.01320648193359375,0.385,0.4614285714285714,0.0009154849582248264,-4.119751589843752,0.06591600179672241,44.38444900512695,0.0470534430609809,-0.07804573906792535
5092,0.09507778527289498,0.219140682220459,86.72348022460938,82.57050323486328,-4.073158264160156,90.75370788574219,-0.002522828843858507,0.379,0.4607142857142857,0.0016784244113498264,-3.218899386474611,0.9008520245552063,44.38444900512695,0.046144188774956595,-0.1091874016655816
5093,0.09117153527289498,0.239062557220459,86.70301818847656,82.44775390625,-4.1959075927734375,90.95828247070312,-0.007978312174479167,0.37533333333333335,0.4592857142857143,0.0025939093695746527,-4.196652072021486,1.0876140594482422,44.38444900512695,0.04728071424696181,-0.11282433403862847
5094,0.11460903527289498,0.239062557220459,86.76439666748047,82.48867797851562,-2.722930908203125,88.40103149414062,-0.01002409193250868,0.37066666666666664,0.4585714285714286,0.004455439249674479,-3.526507037231447,1.1645159721374512,44.38444900512695,0.047507985432942705,-0.06804402669270833
5095,0.11851528527289498,0.239062557220459,86.72348022460938,82.44775390625,-3.8481216430664062,91.49018859863281,-0.008205625745985243,0.36633333333333334,0.45714285714285713,0.005401441786024305,-3.0870672636718766,1.3842360973358154,44.38444900512695,0.04750807020399306,-0.11487011379665799
5096,0.11851528527289498,0.219140682220459,86.72348022460938,82.5091323852539,-5.464302062988281,91.46973419189453,-0.008660252888997395,0.363,0.4546428571428571,0.005828687879774305,-4.647078173706056,1.6918439865112305,44.38444900512695,0.04682608710394965,-0.13260040283203126
5097,0.11070278527289498,0.239062557220459,86.92805480957031,82.57050323486328,-5.5870513916015625,90.32408142089844,-0.0059324900309244795,0.35933333333333334,0.45357142857142857,0.0064389970567491316,-4.36144317919922,2.4828360080718994,44.38444900512695,0.04841723971896701,-0.12123480902777778
5098,0.10289028527289498,0.239062557220459,87.41905212402344,83.77752685546875,-5.996212005615234,91.30607604980469,-0.006387117173936632,0.35533333333333333,0.45107142857142857,0.0078122456868489586,-4.185667651245119,2.4608640670776367,27.421680450439453,0.04046139187282986,-0.1366920895046658
5099,0.11851528527289498,0.219140682220459,87.29630279541016,83.81844329833984,-6.569034576416016,91.79705810546875,-0.01320648193359375,0.352,0.44857142857142857,0.009460152520073786,-4.712994235107423,1.647900104522705,24.081859588623047,0.03864288330078125,-0.14851214090983073
5100,0.13804653527289498,0.19921878814697266,87.23492431640625,83.77752685546875,-6.855449676513672,92.28805541992188,-0.011615286933051215,0.35,0.44285714285714284,0.01061977810329861,-5.778637545654298,1.0436700582504272,24.081859588623047,0.03841552734375,-0.15715005662706164
5101,0.13023403527289498,0.17929691314697266,87.09172058105469,83.552490234375,-6.507663726806641,91.83798217773438,-0.007978312174479167,0.34833333333333333,0.43857142857142856,0.010162056816948786,-6.39385284716797,0.7800060510635376,24.081859588623047,0.039324781629774305,-0.14828495449490017
5102,0.11070278527289498,0.19921878814697266,87.05081176757812,83.30699157714844,-6.487205505371094,91.89935302734375,-0.009796820746527778,0.3453333333333333,0.4328571428571429,0.009826363457573786,-6.174132006713869,0.17577600479125977,24.081859588623047,0.041598002115885414,-0.14873953925238714
5103,0.11851528527289498,0.19921878814697266,87.03034973144531,83.20470428466797,-6.609951019287109,91.98118591308594,-0.01320648193359375,0.3416666666666667,0.42892857142857144,0.010467232598198786,-6.152161257812502,-0.18676246936035312,24.081859588623047,0.042507171630859375,-0.15101263258192274
5104,0.13023403527289498,0.19921878814697266,86.98943328857422,83.16378784179688,-6.548576354980469,92.10392761230469,-0.015024948120117187,0.338,0.4232142857142857,0.01116909450954861,-6.602587359497072,-0.6921183043212906,24.081859588623047,0.042507171630859375,-0.15169448852539064
5105,0.14195278527289498,0.219140682220459,86.27340698242188,82.9592056274414,-6.5894927978515625,92.02210235595703,-0.012979168362087673,0.33366666666666667,0.41964285714285715,0.01144375271267361,-6.976111071655275,-0.7690206938476578,24.081859588623047,0.03682445949978298,-0.1512399461534288
5106,0.15367153527289498,0.19921878814697266,85.70057678222656,81.67034912109375,-5.996212005615234,91.75614929199219,-0.011615286933051215,0.329,0.415,0.01129116482204861,-7.4485079222412125,-0.2856375151367203,23.993968963623047,0.04478030734592014,-0.14169290330674914
5107,0.13414028527289498,0.219140682220459,85.455078125,80.68836975097656,-5.832546234130859,90.44683837890625,-0.004795964558919271,0.32366666666666666,0.4125,0.010436715020073786,-6.877236025878908,0.9667680263519287,23.993968963623047,0.05296342637803819,-0.12532649570041232
5108,0.11851528527289498,0.219140682220459,86.27340698242188,82.69325256347656,-6.016670227050781,91.55156707763672,-0.0066144307454427086,0.318,0.4085714285714286,0.010284127129448786,-6.4707552366943375,1.9884660243988037,23.993968963623047,0.03977949354383681,-0.13964708116319444
5109,0.11070278527289498,0.239062557220459,87.5213394165039,82.81600189208984,-5.791633605957031,91.04011535644531,-0.009114880032009548,0.31233333333333335,0.4057142857142857,0.012084579467773438,-6.855265276977541,2.2631161212921143,23.993968963623047,0.05228152804904514,-0.13146387736002604
5110,0.14195278527289498,0.239062557220459,87.41905212402344,83.94119262695312,-5.730258941650391,90.65141296386719,-0.016388829549153647,0.30733333333333335,0.4014285714285714,0.01565505133734809,-6.767376559326173,1.812690019607544,23.993968963623047,0.03864288330078125,-0.12646302117241753
5111,0.14195278527289498,0.25898443222045897,87.0098876953125,83.87982177734375,-5.9757537841796875,90.50820922851562,-0.006387117173936632,0.30233333333333334,0.3985714285714286,0.017119852701822917,-6.042299883911134,1.4611380100250244,23.993968963623047,0.03477851019965278,-0.12759958902994792
5112,0.13414028527289498,0.25898443222045897,85.16867065429688,83.1024169921875,-5.832546234130859,91.1219482421875,-0.007296371459960938,0.298,0.39285714285714285,0.017791197035047744,-6.316950457641603,1.219446063041687,23.993968963623047,0.0229583740234375,-0.13282771640353733
5113,0.12632778527289498,0.25898443222045897,86.02790832519531,82.0385971069336,-5.66888427734375,90.20133972167969,-0.00775099860297309,0.2936666666666667,0.3896428571428571,0.018126890394422744,-6.229063647338869,1.9994521141052246,23.993968963623047,0.04432568020290799,-0.12078026665581597
5114,0.10679653527289498,0.25898443222045897,87.0712661743164,83.98210144042969,-5.44384765625,90.38545989990234,-0.003204769558376736,0.2896666666666667,0.385,0.018279478285047744,-5.9653994017334,2.3400180339813232,23.993968963623047,0.03432405259874132,-0.12032563951280383
5115,0.10679653527289498,0.25898443222045897,88.09416198730469,84.96409606933594,-4.482318878173828,90.20133972167969,-0.011387973361545138,0.2853333333333333,0.3817857142857143,0.01965272691514757,-5.569903033325197,1.9335360527038574,23.993968963623047,0.03477851019965278,-0.10759620666503907
5116,0.10289028527289498,0.25898443222045897,87.33721923828125,85.25050354003906,-4.318656921386719,90.34454345703125,-0.01252454121907552,0.2816666666666667,0.3767857142857143,0.02035463121202257,-4.965672152587892,0.8788800239562988,23.993968963623047,0.02318572998046875,-0.10736889309353298
5117,0.10289028527289498,0.25898443222045897,87.29630279541016,83.12287139892578,-3.909496307373047,90.2218017578125,-0.010933346218532987,0.278,0.37357142857142855,0.020568211873372395,-4.844826357910158,0.373524010181427,23.993968963623047,0.0463714599609375,-0.10145886739095052
5118,0.10289028527289498,0.25898443222045897,87.76683807373047,84.26852416992188,-2.518352508544922,89.62850952148438,-0.010478719075520834,0.2743333333333333,0.3682142857142857,0.020781834920247395,-5.031588213989259,0.032958000898361206,24.60919952392578,0.038870154486762155,-0.07940957811143663
5119,0.11851528527289498,0.25898443222045897,87.70545959472656,84.45263671875,-2.9888877868652344,89.50576782226562,-0.01729808383517795,0.27066666666666667,0.3653571428571429,0.021910985310872395,-4.240597384521486,-0.5932451658935562,33.22241973876953,0.03614247639973958,-0.0832739512125651
5120,0.12242153527289498,0.2789063262939453,88.1555404663086,85.80287170410156,-3.0502586364746094,90.18087768554688,-0.009342193603515625,0.2673333333333333,0.3607142857142857,0.02239922417534722,-4.130736010620119,-1.1974741392822281,33.573978424072266,0.02614076402452257,-0.09145707024468316
5121,0.12632778527289498,0.25898443222045897,87.72592163085938,83.53202819824219,-2.518352508544922,89.52622985839844,-0.007069057888454861,0.264,0.3578571428571429,0.021209081013997395,-4.33947052294922,-1.4062086516113297,34.892330169677734,0.04659881591796875,-0.07827313741048177
5122,0.10679653527289498,0.2789063262939453,87.86912536621094,84.43218231201172,-2.4160614013671875,89.0147705078125,-0.005705218844943577,0.261,0.3539285714285714,0.018828794691297744,-4.075806277343752,-1.5709978514404312,38.320037841796875,0.0381882561577691,-0.07145368787977431
5123,0.10289028527289498,0.2789063262939453,87.37813568115234,84.57539367675781,-2.743389129638672,89.79217529296875,-0.008887566460503472,0.25766666666666665,0.3517857142857143,0.017028299967447917,-3.90003074938965,-1.9335371428222672,40.25362014770508,0.031141577826605902,-0.08372849358452691
5124,0.10289028527289498,0.2789063262939453,87.0712661743164,82.52958679199219,-2.5797271728515625,88.21691131591797,-0.012979168362087673,0.254,0.3489285714285714,0.01547194586859809,-3.504534380981447,-1.538040774414064,41.39619064331055,0.050463104248046876,-0.06440709431966146
5125,0.09117153527289498,0.2789063262939453,87.31675720214844,84.0025634765625,-3.0502586364746094,89.71034240722656,-0.0013863033718532986,0.25066666666666665,0.3475,0.013061141967773438,-3.0541082792968766,-0.9008528166503922,41.83563995361328,0.03682437472873264,-0.08622890048556858
5126,0.09117153527289498,0.2789063262939453,87.35768127441406,83.77752685546875,-2.9479713439941406,88.70790100097656,-0.01320648193359375,0.24733333333333332,0.345,0.012359237670898438,-3.0760809355468766,-0.9008528166503922,42.62664794921875,0.03977949354383681,-0.07395413716634115
5127,0.09507778527289498,0.239062557220459,87.74638366699219,84.35034942626953,-2.7638473510742188,88.50332641601562,-0.0075236850314670135,0.24466666666666667,0.3435714285714286,0.01132168240017361,-2.548752444335939,-1.1095873289794937,43.153987884521484,0.03773371378580729,-0.06963526407877604
5128,0.08726528527289498,0.25898443222045897,86.64164733886719,82.87738037109375,-2.641101837158203,89.2193603515625,-0.021616956922743055,0.23966666666666667,0.3414285714285714,0.009643257988823786,-2.1093126707763687,-1.9115644865722672,43.417659759521484,0.041825188530815974,-0.07622735765245225
5129,0.08335903527289498,0.25898443222045897,85.72103881835938,81.19981384277344,-2.6206436157226562,89.1170654296875,-0.01252454121907552,0.23633333333333334,0.34,0.0077817281087239586,-2.482836382934572,-1.153530734130861,43.76921844482422,0.05023583306206597,-0.07486343383789062
5130,0.07554653527289498,0.2789063262939453,87.50088500976562,83.38882446289062,-2.4569778442382812,88.19645690917969,-0.003204769558376736,0.233,0.3382142857142857,0.0067746904161241316,-2.570725100585939,0.5053560137748718,44.56023025512695,0.045689561631944445,-0.0628159417046441
5131,0.07945278527289498,0.2789063262939453,87.48042297363281,84.24806213378906,-2.7843055725097656,87.84866333007812,-0.0168434566921658,0.22966666666666666,0.33714285714285713,0.0077817281087239586,-1.8236757689209,0.6921180486679077,44.99967956542969,0.03591512044270833,-0.06258854336208768
5132,0.08335903527289498,0.2789063262939453,87.43951416015625,84.30943298339844,-3.2343826293945312,88.1146240234375,-0.010251405504014757,0.22633333333333333,0.3357142857142857,0.008605702718098959,-1.2524038725585953,0.8898659944534302,44.99967956542969,0.03477867974175347,-0.07054451836480034
5133,0.07554653527289498,0.2789063262939453,87.50088500976562,84.20714569091797,-2.641101837158203,87.37813568115234,-0.0066144307454427086,0.22366666666666668,0.33464285714285713,0.008392079671223959,-0.834936755249025,0.6371880173683167,45.17546081542969,0.03659710354275174,-0.05576930575900608
5134,0.07945278527289498,0.2789063262939453,87.5213394165039,84.20714569091797,-3.0707168579101562,87.72592163085938,-0.011387973361545138,0.221,0.33321428571428574,0.009063466389973959,-0.19774879748535312,0.4614120125770569,46.40591812133789,0.03682437472873264,-0.06440709431966146
5135,0.09117153527289498,0.25898443222045897,87.13264465332031,84.22760009765625,-3.091175079345703,88.78973388671875,-0.015024948120117187,0.21866666666666668,0.33107142857142857,0.010223091973198786,-0.3515516691894547,0.20873400568962097,47.196929931640625,0.0322782728407118,-0.07645454406738281
5136,0.09898403527289498,0.25898443222045897,87.03034973144531,83.18424987792969,-2.9275131225585938,88.64653015136719,-0.012979168362087673,0.21633333333333332,0.3292857142857143,0.01113857693142361,-0.8788801604003922,-0.03295769030761875,47.81216049194336,0.04273444281684028,-0.07304492526584201
5137,0.11070278527289498,0.25898443222045897,87.0098876953125,83.16378784179688,-2.6206436157226562,88.54424285888672,-0.015252261691623263,0.21366666666666667,0.32857142857142857,0.012481307983398438,-1.153530734130861,0.5273280143737793,47.987937927246094,0.04273444281684028,-0.06849873860677083
5138,0.10679653527289498,0.25898443222045897,88.52378845214844,85.20958709716797,-2.2114830017089844,88.46240997314453,-0.0066144307454427086,0.21066666666666667,0.3275,0.012511825561523438,-1.3073355131835953,1.0436700582504272,47.987937927246094,0.03682445949978298,-0.06304325527615018
5139,0.09117153527289498,0.25898443222045897,88.564697265625,85.455078125,-1.2908706665039062,87.91004180908203,-0.003886710272894965,0.208,0.3271428571428571,0.01165737575954861,-1.2084604674072281,0.5493000149726868,47.987937927246094,0.03455132378472222,-0.04667680528428819
5140,0.09117153527289498,0.25898443222045897,88.17599487304688,85.14820861816406,-0.6157569885253906,87.66455078125,-0.01616151597764757,0.20466666666666666,0.3267857142857143,0.012115097045898438,-0.7250772886962906,-0.2307058745117203,48.60316848754883,0.03364206949869792,-0.03644786410861545
5141,0.09898403527289498,0.25898443222045897,88.03279113769531,84.75950622558594,-0.4316368103027344,87.95095825195312,-0.011387973361545138,0.20166666666666666,0.3264285714285714,0.012084579467773438,-0.5163427763671891,-0.4174677305908219,49.21839904785156,0.03636983235677083,-0.03758438958062066
5142,0.09117153527289498,0.25898443222045897,86.74394226074219,83.57295227050781,-0.329345703125,88.21691131591797,-0.009114880032009548,0.19833333333333333,0.3264285714285714,0.01107754177517361,-0.6152159147949234,-0.3625379973144547,49.48207092285156,0.035233222113715275,-0.0394028557671441
5143,0.08726528527289498,0.25898443222045897,86.62118530273438,82.73416900634766,-0.4316368103027344,88.25782775878906,-0.011160659790039062,0.19533333333333333,0.3264285714285714,0.01058926052517361,-0.7690206938476578,0.13183200359344482,49.48207092285156,0.04318906995985243,-0.040994050767686634
5144,0.09117153527289498,0.25898443222045897,87.21446990966797,82.24317932128906,-0.4725532531738281,88.31919860839844,-0.009342193603515625,0.192,0.3264285714285714,0.01077236599392361,-0.9997259550781266,1.06564199924469,49.48207092285156,0.055236562093098955,-0.04213057623969184
5145,0.08335903527289498,0.25898443222045897,87.66455078125,84.0434799194336,0.2025604248046875,88.36012268066406,-0.00775099860297309,0.18833333333333332,0.3264285714285714,0.01126064724392361,-1.2414194517822281,1.4281799793243408,49.48207092285156,0.04023412068684896,-0.03508402506510417
5146,0.09117153527289498,0.239062557220459,87.66455078125,84.1048583984375,0.40714263916015625,88.36012268066406,-0.010478719075520834,0.185,0.3271428571428571,0.012755966186523438,-1.4940973692626969,1.5490260124206543,49.48207092285156,0.03955213758680556,-0.0328108893500434
5147,0.09898403527289498,0.239062557220459,88.19645690917969,84.08439636230469,0.22301864624023438,88.05325317382812,-0.010251405504014757,0.18133333333333335,0.3275,0.014373355441623263,-1.6039568358154312,1.1645159721374512,49.48207092285156,0.045689561631944445,-0.031447050306532116
5148,0.12242153527289498,0.219140682220459,88.19645690917969,85.0459213256836,0.2639350891113281,87.54179382324219,-0.021162372165256075,0.17766666666666667,0.32821428571428574,0.016753641764322917,-0.9997259550781266,0.48338401317596436,49.48207092285156,0.035005950927734376,-0.025309541490342882
5149,0.09898403527289498,0.239062557220459,88.21691131591797,84.98455047607422,0.12073135375976562,87.48042297363281,0.0002048916286892361,0.17433333333333334,0.32857142857142857,0.01513625250922309,-0.3295809202880875,0.10986000299453735,49.48207092285156,0.03591512044270833,-0.02621879577636719
5150,0.06773403527289498,0.239062557220459,85.41416931152344,84.28897857666016,1.9619483947753906,87.97142028808594,-0.0007043626573350694,0.17066666666666666,0.3289285714285714,0.01190151638454861,-0.20873512561035312,-0.6701475554199234,51.5035400390625,0.01250211927625868,-0.011216354370117188
5151,0.07945278527289498,0.17929691314697266,85.90515899658203,81.56806182861328,1.1231727600097656,87.6031723022461,-0.020707745022243925,0.16733333333333333,0.3292857142857143,0.01132168240017361,-0.3845106535644547,-0.3405672484130875,52.29454803466797,0.04818996853298611,-0.016444439358181424
5152,0.04820278527289498,0.219140682220459,86.23248291015625,83.12287139892578,-0.5748405456542969,87.6031723022461,0.009524663289388021,0.164,0.33035714285714285,0.008971913655598959,-0.4064833098144547,0.09887400269508362,53.70079040527344,0.034551239013671874,-0.035311253865559895
5153,0.05992153527289498,0.219140682220459,85.92561340332031,82.26363372802734,-0.943084716796875,87.6031723022461,-0.021616956922743055,0.161,0.3314285714285714,0.010223091973198786,-0.21972145373535312,-0.49437012011718906,53.70079040527344,0.04068866305881076,-0.0394028557671441
5154,0.07945278527289498,0.239062557220459,87.19401550292969,83.98210144042969,-1.0249176025390625,87.62362670898438,-0.01252454121907552,0.15766666666666668,0.3325,0.01165737575954861,0.24169200658798218,-0.05493034655761875,53.70079040527344,0.03568793402777778,-0.040539381239149304
5155,0.07554653527289498,0.19921878814697266,87.48042297363281,84.30943298339844,-1.8227806091308594,89.30118560791016,0.0011141459147135417,0.15566666666666668,0.33285714285714285,0.010284127129448786,0.1538040041923523,0.7250760197639465,53.70079040527344,0.035233222113715275,-0.0680440690782335
5156,0.07164028527289498,0.15937503814697265,87.45996856689453,84.37080383300781,-1.9046134948730469,88.27828979492188,-0.003204769558376736,0.154,0.33321428571428574,0.009917916191948786,-0.3735243254394547,0.5383139848709106,52.8218879699707,0.03432405259874132,-0.057587814331054685
5157,0.11070278527289498,0.15937503814697265,90.81507873535156,88.42149353027344,-2.0069007873535156,89.34210205078125,-0.03343713548448351,0.14866666666666667,0.3339285714285714,0.012664413452148438,-0.801977770874025,0.0,52.8218879699707,0.02659539116753472,-0.07054447597927517
5158,0.04429653527289498,0.1195312786102295,86.92805480957031,84.0434799194336,-0.6771316528320312,86.64164733886719,0.01316163804796007,0.14733333333333334,0.3357142857142857,0.0078122456868489586,-1.0986010008544937,-0.6042314940185562,52.8218879699707,0.032050832112630205,-0.02576421101888021
5159,0.02476528527289498,0.15937503814697265,86.78485107421875,82.89783477783203,-0.943084716796875,88.52378845214844,-0.006387117173936632,0.14466666666666667,0.3367857142857143,0.006133863661024305,-1.0436712675781266,-1.9335371428222672,52.64611053466797,0.04318906995985243,-0.04963192409939236
5160,0.11070278527289498,0.17929691314697266,82.38638305664062,81.62944030761719,2.432483673095703,88.48286437988281,-0.03593758477105035,0.14066666666666666,0.3385714285714286,0.010009468926323786,-1.2743765288085953,-3.163967745849611,52.64611053466797,0.008410474989149305,-0.011670896742078994
5161,0.19664028527289498,0.15937503814697265,84.35034942626953,81.17935943603516,2.862102508544922,88.78973388671875,-0.015934202406141493,0.13766666666666666,0.33964285714285714,0.012115097045898438,-1.6259294920654312,-1.3183199339599625,52.64611053466797,0.035233222113715275,-0.010307015313042536
5162,0.18882778527289498,0.15937503814697265,84.61630249023438,80.42241668701172,2.841644287109375,88.54424285888672,0.0008868323432074653,0.13433333333333333,0.3417857142857143,0.010375679863823786,-1.120571749755861,0.6042300462722778,52.64611053466797,0.046598731146918405,-0.007806650797526042
5163,0.12242153527289498,0.15937503814697265,91.34698486328125,84.75950622558594,-2.722930908203125,88.564697265625,0.008388095431857638,0.13133333333333333,0.34285714285714286,0.007995351155598959,-1.120571749755861,2.6915700435638428,52.64611053466797,0.07319420708550348,-0.06986253526475694
5164,0.07554653527289498,0.17929691314697266,86.82576751708984,82.97966003417969,-2.9684295654296875,88.13508605957031,-0.007069057888454861,0.12733333333333333,0.34464285714285714,0.0076902177598741316,-1.4501520567626969,1.5709980726242065,52.64611053466797,0.042734527587890626,-0.06781684027777778
5165,0.07554653527289498,0.17929691314697266,86.0074462890625,81.93630981445312,-3.66400146484375,88.91248321533203,-0.019343863593207465,0.12466666666666666,0.3457142857142857,0.008788808186848959,-1.6479002409667984,0.373524010181427,52.64611053466797,0.04523484971788194,-0.08418316311306423
5166,0.09898403527289498,0.15937503814697265,86.80531311035156,83.24562072753906,-3.3366737365722656,89.34210205078125,-0.008205625745985243,0.12,0.3460714285714286,0.009673775566948786,-2.0214239531250016,0.41746801137924194,50.09729766845703,0.03955213758680556,-0.08531973097059461
5167,0.08726528527289498,0.19921878814697266,86.80531311035156,83.08195495605469,-3.3162155151367188,88.31919860839844,-0.015706888834635415,0.117,0.3467857142857143,0.010039986504448786,-1.7248026304931656,0.2197200059890747,49.39418029785156,0.04137064615885417,-0.07372682359483507
5168,0.07945278527289498,0.239062557220459,87.29630279541016,83.79798889160156,-3.1525497436523438,88.29874420166016,-0.01320648193359375,0.11366666666666667,0.3467857142857143,0.01058926052517361,-1.3732515745849625,0.7360620498657227,49.21839904785156,0.038870154486762155,-0.07168104383680556
5169,0.06382778527289498,0.19921878814697266,88.78973388671875,84.84133911132812,-5.096061706542969,88.81019592285156,-0.003204769558376736,0.11066666666666666,0.3464285714285714,0.009490670098198786,-0.7909933500976578,1.1205720901489258,49.21839904785156,0.04387105305989583,-0.09895841810438367
5170,0.04039028527289498,0.15937503814697265,88.05325317382812,84.08439636230469,-4.277740478515625,89.58760070800781,-0.008887566460503472,0.10766666666666666,0.34535714285714286,0.007964833577473959,-1.7687460356445328,0.4394400119781494,49.21839904785156,0.04409840901692708,-0.09850379096137153
5171,0.05992153527289498,0.19921878814697266,87.74638366699219,84.26852416992188,-3.520793914794922,87.84866333007812,-0.018889236450195312,0.10466666666666667,0.34535714285714286,0.009856881035698786,-1.9774805479736344,-0.9997259550781266,49.21839904785156,0.03864288330078125,-0.07077174716525608
5172,0.11070278527289498,0.15937503814697265,85.5164566040039,83.42974090576172,-3.6230850219726562,88.87156677246094,-0.005705218844943577,0.101,0.34535714285714286,0.010528267754448786,-1.538040774414064,-1.9115644865722672,49.21839904785156,0.02318572998046875,-0.08327390882703993
5173,0.14195278527289498,0.17929691314697266,88.13508605957031,83.87982177734375,-3.6026268005371094,89.34210205078125,-0.012069914076063368,0.09766666666666667,0.34535714285714286,0.01190151638454861,-1.8126913481445328,0.6042300462722778,49.21839904785156,0.04728071424696181,-0.08827476501464844
5174,0.08726528527289498,0.15937503814697265,92.26759338378906,84.37080383300781,-3.2343826293945312,88.62606811523438,0.00225067138671875,0.09333333333333334,0.3457142857142857,0.009124501546223959,-2.6476274901123062,1.2084600925445557,49.21839904785156,0.08774210611979166,-0.07622723049587674
5175,0.08335903527289498,0.15937503814697265,87.13264465332031,83.94119262695312,-2.8456802368164062,87.72592163085938,-0.01547957526312934,0.08966666666666667,0.3460714285714286,0.009246529473198786,-2.164242404052736,-0.3076082640380875,49.21839904785156,0.035460578070746526,-0.061906687418619794
5176,0.10679653527289498,0.19921878814697266,89.99675750732422,85.70057678222656,-3.254840850830078,88.52378845214844,-0.01661614312065972,0.086,0.3464285714285714,0.01144375271267361,-1.3183199339599625,-0.6701475554199234,49.21839904785156,0.047735341389973956,-0.07531810336642795
5177,0.17710903527289498,0.15937503814697265,86.62118530273438,86.23248291015625,-3.4185028076171875,88.72836303710938,-0.02684512668185764,0.08233333333333333,0.3464285714285714,0.013915591769748263,-1.5819841795654312,-1.9115644865722672,49.21839904785156,0.0043189154730902775,-0.0794096204969618
5178,0.24351528527289498,0.1195312786102295,82.65233612060547,82.18180847167969,-3.132091522216797,88.93293762207031,-0.0034320831298828127,0.07866666666666666,0.3467857142857143,0.01159634060329861,-2.2850881987304703,-2.526779788085939,49.21839904785156,0.005228084988064236,-0.07850032382541233
5179,0.16148403527289498,0.13945316314697265,86.662109375,78.4789047241211,-3.2139244079589844,87.91004180908203,-0.0043413374159071184,0.07333333333333333,0.34785714285714286,0.0075986650254991316,-2.197201388427736,0.0,49.21839904785156,0.09092449612087673,-0.0680440690782335
5180,0.04820278527289498,0.1195312786102295,85.23004150390625,87.43951416015625,-3.295757293701172,88.17599487304688,0.013388951619466146,0.07133333333333333,0.3489285714285714,0.0024413214789496527,-1.9884668760986344,0.23070600628852844,49.21839904785156,-0.024549696180555556,-0.07190835740831163
5181,0.00914028527289498,0.15937503814697265,85.92561340332031,80.81111145019531,-3.6026268005371094,88.58515930175781,-0.002750142415364583,0.06766666666666667,0.3492857142857143,0.00042724609375,-2.0324102812500016,0.4064820110797882,49.21839904785156,0.05682779947916667,-0.07986429002549914
5182,-0.006484714727105019,0.1195312786102295,81.34302520751953,80.0950927734375,-2.8456802368164062,88.0123291015625,-0.008887566460503472,0.065,0.35,-0.000213623046875,-1.9884668760986344,1.4611380100250244,49.21839904785156,0.013865915934244792,-0.06508899264865452
5183,0.02867153527289498,0.13945316314697265,91.0196533203125,89.81263732910156,-3.684459686279297,89.1579818725586,-0.012297227647569445,0.06066666666666667,0.35,0.0037230173746744793,-1.7577597075195328,2.054382085800171,49.21839904785156,0.013411288791232639,-0.08713823954264323
5184,0.05601528527289498,0.13945316314697265,85.90515899658203,83.67523193359375,-2.6820144653320312,88.03279113769531,-0.01661614312065972,0.057666666666666665,0.35035714285714287,0.005920240614149305,-1.8346620970459,1.1645159721374512,49.21839904785156,0.024776967366536458,-0.06349784003363715
5185,0.08335903527289498,0.05976563930511475,93.04499816894531,86.15065002441406,-3.295757293701172,88.87156677246094,-0.010478719075520834,0.05366666666666667,0.3507142857142857,0.0064695146348741316,-1.6588865690917984,1.9774800539016724,49.21839904785156,0.07660386827256944,-0.07963693406846788
5186,-0.01429721472710502,0.1195312786102295,87.562255859375,82.44775390625,-3.254840850830078,87.80775451660156,-0.009342193603515625,0.050333333333333334,0.3517857142857143,0.004943678114149305,-1.6479002409667984,-0.03295769030761875,49.21839904785156,0.05682779947916667,-0.06736217074924045
5187,-0.0025784647271050194,0.13945316314697265,85.16867065429688,83.0001220703125,-3.909496307373047,89.81263732910156,-0.014797634548611112,0.04666666666666667,0.35214285714285715,0.004882685343424479,-2.153256075927736,-1.164517062255861,49.21839904785156,0.024094984266493057,-0.09691259596082899
5188,0.02476528527289498,0.1195312786102295,84.35034942626953,82.18180847167969,-2.5797271728515625,88.87156677246094,-0.006387117173936632,0.043333333333333335,0.3525,0.004699579874674479,-2.922276156494142,-1.0326849394531266,48.075828552246094,0.024094899495442707,-0.07168104383680556
5189,0.04039028527289498,0.13945316314697265,84.26852416992188,81.13844299316406,-3.5412521362304688,89.0761489868164,-0.01616151597764757,0.04066666666666666,0.35285714285714287,0.005035230848524305,-1.9994532042236344,-0.10986007983398594,47.72426986694336,0.03477867974175347,-0.08463779025607639
5190,0.03257778527289498,0.13945316314697265,86.27340698242188,82.46821594238281,-3.66400146484375,89.30118560791016,-0.0013863033718532986,0.037,0.35214285714285715,0.004882685343424479,-1.9555078917236344,1.5490260124206543,47.72426986694336,0.04227990044487847,-0.08850207858615451
5191,0.00914028527289498,0.09960939407348633,86.559814453125,85.455078125,-3.2343826293945312,88.29874420166016,-0.003659396701388889,0.034,0.3517857142857143,0.005096266004774305,-2.0104395323486344,1.1315580606460571,47.72426986694336,0.012274848090277778,-0.07259029812282985
5192,0.00914028527289498,0.1195312786102295,85.20958709716797,82.44775390625,-3.6026268005371094,88.54424285888672,-0.00843293931749132,0.030666666666666665,0.3517857142857143,0.005523512098524305,-1.8456484251709,0.0,47.72426986694336,0.030687035454644098,-0.07940966288248698
5193,0.06382778527289498,0.09960939407348633,87.27584838867188,81.42485809326172,-3.5821685791015625,88.58515930175781,-0.014115693834092882,0.02666666666666667,0.3514285714285714,0.0076597001817491316,-2.0324102812500016,0.23070600628852844,47.72426986694336,0.06501100328233507,-0.07963697645399305
5194,0.03257778527289498,0.13945316314697265,84.86180114746094,87.37813568115234,-5.157432556152344,90.13996887207031,-0.005705218844943577,0.023333333333333334,0.3507142857142857,0.0064084794786241316,-1.505081790039064,-2.1202989989013687,47.72426986694336,-0.02795927259657118,-0.11441557142469617
5195,0.05601528527289498,0.19921878814697266,85.41416931152344,80.9543228149414,-4.523235321044922,89.26026916503906,-0.020253117879231772,0.019666666666666666,0.3489285714285714,0.0063779619004991316,-1.6588865690917984,-1.6698728972167984,47.72426986694336,0.04955384996202257,-0.09759449428982205
5196,0.05601528527289498,0.13945316314697265,85.76194763183594,81.58851623535156,-5.689342498779297,90.50820922851562,-0.009114880032009548,0.017666666666666667,0.3464285714285714,0.004699579874674479,-1.4940973692626969,0.9118380546569824,45.43912887573242,0.0463714599609375,-0.12441724141438802
5197,0.0013277852728949804,0.15937503814697265,89.34210205078125,84.0434799194336,-3.3366737365722656,87.82821655273438,0.005887646145290798,0.013,0.34535714285714286,0.0031127081976996527,-2.0104395323486344,1.9335360527038574,42.62664794921875,0.05887357923719618,-0.068498780992296
5198,0.00914028527289498,0.13945316314697265,90.36500549316406,86.90760040283203,-2.6001853942871094,88.76927947998047,-0.02548124525282118,0.010333333333333333,0.3425,0.005126783582899305,-0.9557825499267594,1.263390064239502,23.027179718017578,0.038415612114800345,-0.07077183193630643
5199,-0.0025784647271050194,0.13945316314697265,86.39614868164062,84.96409606933594,-1.9659843444824219,89.1170654296875,-0.020025804307725693,0.007333333333333333,0.3392857142857143,0.004730097452799479,-0.4174677305908219,-0.2966219359130875,23.027179718017578,0.015911695692274304,-0.06758944193522136
5200,0.02867153527289498,0.1195312786102295,84.43218231201172,83.0410385131836,-2.1910247802734375,86.5188980102539,-0.037301423814561634,0.005333333333333333,0.3339285714285714,0.005218336317274305,0.516342043876648,-1.142544406005861,22.939289093017578,0.0154571533203125,-0.041221364339192705
5201,0.07945278527289498,0.07968751907348633,87.41905212402344,82.05905151367188,0.32530975341796875,85.29141998291016,-0.026617813110351562,0.003,0.33035714285714285,0.005218336317274305,1.0876140594482422,0.05493000149726868,22.939289093017578,0.05955556233723958,0.0003765530056423611
5202,0.005234035272894981,0.05976563930511475,88.31919860839844,85.98699188232422,3.823627471923828,81.42485809326172,-0.012297227647569445,0.0006666666666666666,0.325,0.0028685675726996527,2.5487520694732666,0.7690200209617615,22.939289093017578,0.02591340806749132,0.08220854865180122
5203,-0.06507846472710502,0.1195312786102295,85.94607543945312,84.86180114746094,2.0028648376464844,82.63188171386719,-0.006159803602430555,0.0,0.32107142857142856,-0.0,2.7135419845581055,0.26366400718688965,22.939289093017578,0.012047492133246528,0.0485664791531033
