,WD,WS,AIL_1,AIL_2,ELEV_1,ELEV_2,RUDD,ALT,GS,TH,PTCH,ROLL,PLA_1,AIL,ELEV
5293,0.026966985066731772,0.438281364440918,84.98455047607422,81.07707214355469,-8.962623596191406,92.34942626953125,-0.014570320977105035,0.6166666666666667,0.3482142857142857,0.009307607014973959,-5.789621966430666,-0.834936755249025,28.915809631347656,0.04341642591688368,-0.18124499850802953
5294,0.04649823506673177,0.41835948944091794,85.557373046875,82.0999755859375,-8.798957824707031,92.24713897705078,-0.009342193603515625,0.614,0.3442857142857143,0.01147427029079861,-6.778362887451173,-0.09887375170898594,28.915809631347656,0.03841552734375,-0.1782899644639757
5295,0.05431073506673177,0.438281364440918,86.53935241699219,84.92317199707031,-8.22613525390625,91.20378112792969,-0.017070770263671875,0.6103333333333333,0.3389285714285714,0.012847518920898438,-7.4814669066162125,0.8129640221595764,28.915809631347656,0.017957560221354165,-0.16033240424262152
5296,0.04649823506673177,0.41835948944091794,88.52378845214844,83.81844329833984,-8.001094818115234,91.0810317993164,-0.004568650987413194,0.6056666666666667,0.3357142857142857,0.01174892849392361,-7.074984210083009,0.9338099956512451,28.915809631347656,0.05228161282009548,-0.15646807352701822
5297,0.05040448506673177,0.41835948944091794,86.88714599609375,82.61141967773438,-7.939720153808594,90.50820922851562,-0.01616151597764757,0.6006666666666667,0.3325,0.01223720974392361,-6.4597689085693375,0.10986000299453735,28.915809631347656,0.04750807020399306,-0.1494214375813802
5298,0.05431073506673177,0.45820323944091795,86.88714599609375,85.20958709716797,-7.346439361572266,90.32408142089844,-0.020480431450737847,0.5963333333333334,0.3292857142857143,0.013335800170898438,-5.888497012207033,0.41746801137924194,28.915809631347656,0.01863954332139757,-0.14078356424967448
5299,0.030873235066731772,0.39843757629394533,88.50332641601562,84.94363403320312,-7.407814025878906,90.83554077148438,0.008842722574869791,0.591,0.32535714285714284,0.010131539238823786,-4.921728747436525,0.9667680263519287,28.915809631347656,0.03955213758680556,-0.1471483866373698
5300,-0.004283014933268229,0.41835948944091794,87.25538635253906,82.36592102050781,-7.489646911621094,90.46729278564453,-0.0059324900309244795,0.5866666666666667,0.3225,0.005493036905924479,-4.987644808837892,-0.2966219359130875,28.915809631347656,0.054327392578125,-0.14396599663628473
5301,0.01134198506673177,0.478125114440918,85.16867065429688,80.72928619384766,-7.080486297607422,90.0785903930664,-0.012979168362087673,0.5836666666666667,0.31857142857142856,0.006866285536024305,-5.196379321166994,-0.8898664885253922,28.915809631347656,0.04932649400499132,-0.1351008521185981
5302,0.026966985066731772,0.478125114440918,86.33477783203125,84.63676452636719,-7.244148254394531,90.61050415039062,-0.009342193603515625,0.5796666666666667,0.31535714285714284,0.009399159749348959,-4.702007906982423,0.9228240251541138,28.915809631347656,0.01886681450737847,-0.14282947116427952
5303,0.023060735066731772,0.45820323944091795,87.91004180908203,84.69813537597656,-7.325981140136719,90.38545989990234,-0.009796820746527778,0.576,0.3107142857142857,0.009399159749348959,-4.669050829956056,1.8566340208053589,28.915809631347656,0.03568784925672743,-0.14123823377821182
5304,0.019154485066731772,0.478125114440918,88.48286437988281,84.18669128417969,-7.100944519042969,89.85355377197266,-0.014115693834092882,0.5723333333333334,0.3075,0.010070504082573786,-4.877785342285158,1.581984043121338,28.915809631347656,0.04773525661892361,-0.1328277587890625
5305,0.019154485066731772,0.478125114440918,87.6031723022461,82.97966003417969,-6.875904083251953,89.79217529296875,-0.014570320977105035,0.5686666666666667,0.30357142857142855,0.011291207207573786,-4.647078173706056,0.7250760197639465,28.915809631347656,0.05137235853407118,-0.12964532640245224
5306,0.03868573506673177,0.478125114440918,86.98943328857422,84.554931640625,-6.773616790771484,89.54668426513672,-0.02093505859375,0.5653333333333334,0.30107142857142855,0.014281802707248263,-4.35045685107422,0.6921180486679077,28.915809631347656,0.027050018310546875,-0.1257811228434245
5307,0.04259198506673177,0.49804698944091796,88.97386169433594,84.43218231201172,-6.3644561767578125,88.91248321533203,-0.022980838351779515,0.5613333333333334,0.29714285714285715,0.01641799079047309,-4.064819949218752,0.6481740474700928,28.915809631347656,0.050463104248046876,-0.11418821546766493
5308,0.04259198506673177,0.49804698944091796,88.81019592285156,85.25050354003906,-5.914379119873047,89.1170654296875,-0.010933346218532987,0.5576666666666666,0.295,0.01635695563422309,-3.3946749144287125,0.14281800389289856,30.322050094604492,0.03955213758680556,-0.11146049499511719
5309,0.030873235066731772,0.49804698944091796,88.17599487304688,83.63432312011719,-6.2007904052734375,89.2193603515625,-0.01070603264702691,0.5543333333333333,0.2914285714285714,0.014281802707248263,-2.856360095092775,-0.6701475554199234,32.25563049316406,0.05046301947699653,-0.11577945285373265
5310,0.026966985066731772,0.49804698944091796,87.50088500976562,83.49111938476562,-6.098503112792969,88.97386169433594,-0.005250591701931423,0.5506666666666666,0.2892857142857143,0.012878036499023438,-2.7135435515136734,-0.6591612272949234,33.837650299072266,0.04455295138888889,-0.11191516452365452
5311,0.026966985066731772,0.5179688644409179,87.48042297363281,85.90515899658203,-5.873462677001953,88.68744659423828,-0.008887566460503472,0.5473333333333333,0.2860714285714286,0.01220669216579861,-2.4608656340332047,0.032958000898361206,35.8591194152832,0.017502933078342015,-0.10623232523600261
5312,0.01524823506673177,0.49804698944091796,88.81019592285156,84.94363403320312,-5.730258941650391,88.50332641601562,-0.002068201700846354,0.5443333333333333,0.28464285714285714,0.009948433770073786,-1.9774805479736344,0.26366400718688965,37.529029846191406,0.042961798773871525,-0.10259539286295573
5313,0.01134198506673177,0.49804698944091796,87.78729248046875,82.5091323852539,-5.525676727294922,88.42149353027344,-0.009796820746527778,0.5413333333333333,0.2825,0.009032948811848959,-1.3952223234863297,-0.4504267149658219,39.19894027709961,0.05864622328016493,-0.09941300286187066
5314,0.023060735066731772,0.5378907394409179,86.43707275390625,84.45263671875,-5.382472991943359,88.564697265625,-0.013888380262586805,0.5383333333333333,0.2814285714285714,0.010894478691948786,-0.8678938322753922,-0.18676246936035312,40.34151077270508,0.022049289279513887,-0.09941300286187066
5315,0.023060735066731772,0.5179688644409179,87.84866333007812,86.70301818847656,-5.607509613037109,89.32164001464844,-0.0059324900309244795,0.5356666666666666,0.2792857142857143,0.010741890801323786,-0.2966219359130875,0.8129640221595764,41.39619064331055,0.012729390462239584,-0.11032388475206163
5316,-0.004283014933268229,0.5179688644409179,89.0761489868164,85.27096557617188,-5.8939208984375,88.87156677246094,-0.0007043626573350694,0.5336666666666666,0.2782142857142857,0.006866285536024305,-0.3185945921630875,0.4943700134754181,42.099308013916016,0.042279815673828124,-0.10850541856553819
5317,-0.016001764933268228,0.5179688644409179,86.72348022460938,80.38150024414062,-5.832546234130859,88.97386169433594,-0.007069057888454861,0.5313333333333333,0.2760714285714286,0.0033873664008246527,-0.7140909605712906,-1.4721247130126969,43.241878509521484,0.07046644422743055,-0.10896008809407552
5318,0.003529485066731771,0.49804698944091796,83.96165466308594,81.73172760009766,-5.832546234130859,89.1170654296875,-0.017070770263671875,0.5293333333333333,0.2760714285714286,0.005218378702799479,-0.8788801604003922,-1.7687460356445328,43.76921844482422,0.024776967366536458,-0.11055124070909288
5319,0.01134198506673177,0.45820323944091795,86.88714599609375,85.61874389648438,-5.853004455566406,88.62606811523438,-0.007069057888454861,0.5273333333333333,0.27535714285714286,0.005889723036024305,-1.1095873289794937,0.02197200059890747,44.38444900512695,0.01409335666232639,-0.10532302856445312
5320,0.003529485066731771,0.5179688644409179,88.76927947998047,85.80287170410156,-5.280181884765625,88.29874420166016,-0.011160659790039062,0.5243333333333333,0.2757142857142857,0.004821650187174479,-1.1864878111572281,0.4394400119781494,45.17546081542969,0.03296008639865451,-0.09532140096028646
5321,-0.004283014933268229,0.49804698944091796,89.05569458007812,84.18669128417969,-5.66888427734375,89.40347290039062,-0.003659396701388889,0.5223333333333333,0.2760714285714286,0.0031737433539496527,-0.6371885710449234,-0.13183273608398594,45.52701950073242,0.05410003662109375,-0.11191507975260416
5322,-0.01209551493326823,0.5179688644409179,87.97142028808594,84.35034942626953,-5.8120880126953125,89.19889831542969,-0.010251405504014757,0.5193333333333333,0.2760714285714286,0.001251220703125,-0.834936755249025,-0.801977770874025,45.52701950073242,0.04023412068684896,-0.1112331814236111
5323,-0.016001764933268228,0.5179688644409179,87.93049621582031,79.87004852294922,-5.7507171630859375,88.33966064453125,0.002932612101236979,0.5166666666666667,0.2757142857142857,-0.0007323794894748264,-1.4940973692626969,-1.3842359953613297,44.82389831542969,0.08956052992078993,-0.1010041978624132
5324,-0.00818926493326823,0.478125114440918,82.89783477783203,80.74974060058594,-5.44384765625,88.50332641601562,-0.010251405504014757,0.514,0.2757142857142857,-0.00021358066134982638,-1.120571749755861,-1.3732515745849625,44.56023025512695,0.02386771308051215,-0.09941304524739583
5325,-0.004283014933268229,0.478125114440918,86.96897888183594,87.29630279541016,-5.341556549072266,88.44195556640625,-0.023662779066297743,0.5116666666666667,0.27535714285714286,6.103515625e-05,-0.9008528166503922,0.8898659944534302,44.38444900512695,-0.003636932373046875,-0.09759457906087239
5326,-0.023814264933268228,0.45820323944091795,91.20378112792969,86.15065002441406,-5.5870513916015625,88.33966064453125,-0.007069057888454861,0.5086666666666667,0.2760714285714286,-0.0024718390570746527,-0.5492998533935562,0.8788800239562988,45.43912887573242,0.05614590115017361,-0.09918568929036459
5327,-0.03553301493326823,0.478125114440918,88.25782775878906,79.87004852294922,-5.3620147705078125,89.0147705078125,-0.010933346218532987,0.5063333333333333,0.2767857142857143,-0.004699537489149305,-0.3295809202880875,-1.9115644865722672,45.79069137573242,0.09319754706488716,-0.10418650309244791
5328,-0.01209551493326823,0.45820323944091795,83.08195495605469,79.15402221679688,-5.730258941650391,89.36256408691406,-0.018889236450195312,0.504,0.2775,-0.0027464972601996527,-0.48338379199218906,-2.3839632445068375,46.318031311035156,0.04364369710286458,-0.11214247809516059
5329,0.01524823506673177,0.478125114440918,83.12287139892578,81.67034912109375,-5.709800720214844,88.83065795898438,-0.001613616943359375,0.501,0.27785714285714286,0.0006103515625,-1.0986010008544937,0.38451001048088074,46.40591812133789,0.0161391364203559,-0.10600509643554687
5330,0.007435735066731771,0.438281364440918,85.08683776855469,85.0459213256836,-5.730258941650391,88.54424285888672,0.014980104234483507,0.49833333333333335,0.2782142857142857,0.00067138671875,-1.6039568358154312,4.493274211883545,46.40591812133789,0.0004546271430121528,-0.10305002000596789
5331,-0.019908014933268228,0.438281364440918,92.24713897705078,87.80775451660156,-5.66888427734375,88.74882507324219,-0.005705218844943577,0.49666666666666665,0.27964285714285714,9.1552734375e-05,-1.4171949797363297,6.4927263259887695,46.054359436035156,0.04932649400499132,-0.10464121500651041
5332,-0.04725176493326823,0.41835948944091794,91.34698486328125,88.17599487304688,-5.709800720214844,88.91248321533203,-0.020707745022243925,0.49266666666666664,0.28035714285714286,0.001129150390625,-1.2524038725585953,4.833840370178223,45.79069137573242,0.035233222113715275,-0.10691426595052084
5333,-0.03553301493326823,0.41835948944091794,90.73324584960938,84.22760009765625,-5.709800720214844,88.76927947998047,-0.035028330485026044,0.49133333333333334,0.2825,0.005615107218424479,-1.6479002409667984,1.494096040725708,45.79069137573242,0.07228495279947916,-0.10532311333550347
5334,-0.016001764933268228,0.39843757629394533,85.92561340332031,78.9903564453125,-5.3620147705078125,88.76927947998047,-0.007978312174479167,0.48733333333333334,0.2839285714285714,0.008910878499348959,-2.219172137329103,-0.4504267149658219,46.58169937133789,0.07705841064453126,-0.10145882500542534
5335,-0.004283014933268229,0.41835948944091794,84.32989501953125,83.24562072753906,-5.66888427734375,88.64653015136719,-0.014343007405598959,0.48533333333333334,0.2864285714285714,0.010070504082573786,-2.164242404052736,-0.3185945921630875,46.84537124633789,0.012047492133246528,-0.10350460476345485
5336,-0.00037676493326822916,0.3585938262939453,87.17355346679688,86.53935241699219,-5.402931213378906,87.66455078125,-0.008887566460503472,0.48133333333333334,0.2892857142857143,0.010772408379448786,-2.0433966093750016,1.6259280443191528,46.84537124633789,0.007046678331163195,-0.08963868882921007
5337,-0.027720514933268228,0.3585938262939453,92.1243896484375,85.84378051757812,-4.871021270751953,87.99187469482422,-0.0007043626573350694,0.478,0.2910714285714286,0.008514149983723959,-1.6149431639404312,1.538040041923523,46.84537124633789,0.0697845458984375,-0.08736551072862413
5338,-0.04725176493326823,0.33867195129394534,88.40103149414062,85.02546691894531,-5.075603485107422,88.0123291015625,-0.015934202406141493,0.4746666666666667,0.2932142857142857,0.005981275770399305,-1.1095873289794937,-0.9228254729003922,46.318031311035156,0.03750627305772569,-0.0898659176296658
5339,-0.04334551493326823,0.33867195129394534,87.58271789550781,83.20470428466797,-5.177890777587891,89.42393493652344,-0.009796820746527778,0.4723333333333333,0.295,0.005096308390299479,-0.48338379199218906,-1.7577597075195328,46.142250061035156,0.04864459567599826,-0.10668695237901475
5340,-0.03553301493326823,0.3585938262939453,87.70545959472656,83.28652954101562,-5.832546234130859,89.87400817871094,-0.01002409193250868,0.469,0.2960714285714286,0.004821650187174479,-0.49437012011718906,-1.4611383848876969,47.109039306640625,0.04909922281901042,-0.11896171569824218
5341,-0.03553301493326823,0.3585938262939453,88.81019592285156,85.53691101074219,-5.8939208984375,89.17843627929688,-0.01002409193250868,0.4663333333333333,0.29642857142857143,0.0030516730414496527,-1.5709978514404312,-0.7031046324462906,47.109039306640625,0.03636983235677083,-0.11191507975260416
5342,-0.05897051493326823,0.3785157012939453,89.09660339355469,83.0001220703125,-5.5870513916015625,88.48286437988281,-0.00775099860297309,0.4633333333333333,0.2978571428571429,-0.0012511783175998264,-2.3070608549804703,-0.5492998533935562,46.933258056640625,0.06773868136935764,-0.10077684190538194
5343,-0.06678301493326823,0.41835948944091794,86.78485107421875,81.28164672851562,-5.566593170166016,89.83309936523438,-0.011842600504557292,0.4603333333333333,0.2985714285714286,-0.004363844129774305,-1.9555078917236344,-1.4501520567626969,45.79069137573242,0.061146714952256945,-0.11555213928222656
5344,-0.05506426493326823,0.3785157012939453,85.65966796875,84.63676452636719,-6.159877777099609,90.0172119140625,-0.022980838351779515,0.4583333333333333,0.2978571428571429,-0.0031126658121744793,-1.8676210814209,-1.0656420164794937,44.03289031982422,0.011365593804253473,-0.12418988545735678
5345,-0.04725176493326823,0.3585938262939453,89.30118560791016,85.5164566040039,-5.8939208984375,88.46240997314453,-0.015252261691623263,0.45566666666666666,0.29714285714285715,-0.0026244269476996527,-2.252131121704103,-0.20873512561035312,43.505550384521484,0.042052544487847225,-0.10395923190646701
5346,-0.04725176493326823,0.3785157012939453,88.62606811523438,85.06637573242188,-5.3620147705078125,88.38057708740234,-0.014797634548611112,0.45266666666666666,0.2975,-0.0032957712809244793,-2.0653692656250016,-0.48338379199218906,43.153987884521484,0.03955213758680556,-0.09713990953233508
5347,-0.05506426493326823,0.3585938262939453,88.40103149414062,84.24806213378906,-5.464302062988281,89.46485137939453,-0.014797634548611112,0.44966666666666666,0.2978571428571429,-0.004852125379774305,-1.4062086516113297,-0.6262022429199234,42.97821044921875,0.04614410400390625,-0.1103239271375868
5348,-0.06678301493326823,0.3585938262939453,88.21691131591797,83.67523193359375,-5.9757537841796875,90.54912567138672,-0.012297227647569445,0.44733333333333336,0.2978571428571429,-0.0070798661973741316,-1.4281813078613297,-0.6701475554199234,43.85710906982422,0.050463104248046876,-0.12805421617296006
5349,-0.06678301493326823,0.33867195129394534,88.38057708740234,82.79554748535156,-6.5894927978515625,88.17599487304688,-0.01616151597764757,0.44333333333333336,0.2975,-0.0074765523274739586,-2.7465006285400406,-0.05493034655761875,44.03289031982422,0.062055884467230905,-0.10850541856553819
5350,-0.05506426493326823,0.3785157012939453,87.1121826171875,84.06393432617188,-4.441402435302734,87.86912536621094,-0.021844270494249134,0.44066666666666665,0.2982142857142857,-0.0070188310411241316,-3.251856463500978,0.02197200059890747,44.03289031982422,0.033869425455729164,-0.08122808668348525
5351,-0.03943926493326823,0.438281364440918,88.50332641601562,82.48867797851562,-5.5870513916015625,91.2242431640625,-0.020025804307725693,0.43633333333333335,0.2985714285714286,-0.0057370927598741316,-1.7138163023681656,0.6042300462722778,43.153987884521484,0.06682942708333334,-0.13123660617404515
5352,-0.019908014933268228,0.41835948944091794,86.29386138916016,83.552490234375,-6.855449676513672,88.91248321533203,-0.02752706739637587,0.433,0.29678571428571426,-0.0026244269476996527,-2.823403018066408,0.6701459884643555,40.69306945800781,0.030459679497612847,-0.1196436987982856
5353,-0.01209551493326823,0.41835948944091794,86.96897888183594,83.06149291992188,-5.934837341308594,88.85111236572266,-0.020025804307725693,0.43033333333333335,0.2960714285714286,-0.0006408267550998264,-3.196926730224611,0.790992021560669,42.97821044921875,0.04341651068793403,-0.10873277452256945
5354,-0.01209551493326823,0.39843757629394533,86.94851684570312,82.63188171386719,-6.057586669921875,89.13752746582031,-0.015934202406141493,0.427,0.295,-0.0006713443332248264,-2.537766116210939,0.8129640221595764,45.17546081542969,0.04796261257595486,-0.11327904595269098
5355,-0.019908014933268228,0.41835948944091794,86.5188980102539,84.86180114746094,-6.159877777099609,89.77172088623047,-0.01661614312065972,0.42333333333333334,0.2953571428571429,-0.0017394171820746527,-1.7028299742431656,1.7797319889068604,48.251609802246094,0.01841218736436632,-0.1214622073703342
5356,-0.03553301493326823,0.438281364440918,87.50088500976562,84.41172790527344,-6.262165069580078,89.73080444335938,0.002705298529730903,0.41933333333333334,0.2960714285714286,-0.0024718390570746527,-1.9115644865722672,2.6256539821624756,48.339500427246094,0.034323967827690975,-0.12214410569932725
5357,-0.03553301493326823,0.438281364440918,87.74638366699219,85.68012237548828,-6.262165069580078,89.05569458007812,-0.01252454121907552,0.416,0.29678571428571426,-0.0009460025363498264,-2.3949495726318375,2.3949480056762695,48.339500427246094,0.022958458794487848,-0.11464288499620226
5358,-0.03553301493326823,0.438281364440918,89.64897155761719,84.80043029785156,-6.2007904052734375,89.73080444335938,-0.009342193603515625,0.41233333333333333,0.2985714285714286,0.001190185546875,-2.4608656340332047,1.5490260124206543,48.339500427246094,0.0538726806640625,-0.12146216498480902
5359,-0.03553301493326823,0.41835948944091794,86.21202850341797,83.18424987792969,-6.303081512451172,89.89447021484375,-0.02434471978081597,0.4096666666666667,0.29892857142857143,0.0015563540988498264,-2.241144793579103,0.032958000898361206,48.339500427246094,0.03364198472764757,-0.12441724141438802
5360,-0.03943926493326823,0.41835948944091794,87.39859008789062,84.80043029785156,-6.303081512451172,89.81263732910156,-0.008887566460503472,0.4063333333333333,0.3003571428571429,0.00030517578125,-2.3729769163818375,0.5712720155715942,48.339500427246094,0.02886844211154514,-0.12350798712836372
5361,-0.04725176493326823,0.438281364440918,87.78729248046875,84.63676452636719,-6.282623291015625,89.52622985839844,-0.009796820746527778,0.4033333333333333,0.30107142857142855,-0.0005797915988498264,-2.5926958494873062,0.7690200209617615,48.339500427246094,0.03500586615668403,-0.12009836832682291
5362,-0.04334551493326823,0.41835948944091794,87.72592163085938,84.67768096923828,-6.241706848144531,89.42393493652344,-0.01843460930718316,0.4003333333333333,0.30214285714285716,0.000457763671875,-2.6036821776123062,0.35155200958251953,48.339500427246094,0.03386934068467882,-0.11850713094075521
5363,-0.03943926493326823,0.41835948944091794,87.43951416015625,82.5091323852539,-6.221248626708984,89.66943359375,-0.011387973361545138,0.397,0.3025,0.0008544921875,-2.3180471831054703,0.04394400119781494,48.339500427246094,0.05478201972113715,-0.12100758022732205
5364,-0.03162676493326823,0.41835948944091794,86.662109375,85.49600219726562,-6.241706848144531,90.03767395019531,-0.028436321682400175,0.394,0.3025,0.0022277408175998266,-2.0873400145263687,0.3405660092830658,47.284820556640625,0.012956746419270833,-0.12532645331488715
5365,-0.03943926493326823,0.41835948944091794,88.54424285888672,84.61630249023438,-6.262165069580078,89.71034240722656,0.0036145528157552082,0.3913333333333333,0.3025,0.0013427734375,-2.219172137329103,1.0436700582504272,47.284820556640625,0.04364378187391493,-0.12191674974229601
5366,-0.05115801493326823,0.41835948944091794,87.39859008789062,83.83889770507812,-6.262165069580078,89.58760070800781,-0.013661109076605903,0.3883333333333333,0.3028571428571429,0.00018310546875,-2.4388929777832047,0.7360620498657227,47.284820556640625,0.03955213758680556,-0.1205529530843099
5367,-0.05897051493326823,0.39843757629394533,87.86912536621094,84.69813537597656,-6.282623291015625,89.48530578613281,-0.004568650987413194,0.385,0.3032142857142857,-0.0004272037082248264,-2.471850054809572,0.9667680263519287,47.284820556640625,0.035233222113715275,-0.11964365641276041
5368,-0.04334551493326823,0.41835948944091794,87.86912536621094,84.80043029785156,-6.221248626708984,89.2193603515625,-0.02570855882432726,0.38233333333333336,0.30357142857142855,0.0017699771457248264,-2.537766116210939,0.32958000898361206,47.284820556640625,0.034096611870659724,-0.11600676642523872
5369,-0.05115801493326823,0.39843757629394533,87.99187469482422,84.39126586914062,-6.118961334228516,89.26026916503906,-0.008205625745985243,0.37933333333333336,0.30392857142857144,0.000885009765625,-2.3510042601318375,0.29662200808525085,47.284820556640625,0.040006764729817706,-0.11532478332519532
5370,-0.06287676493326823,0.3785157012939453,86.02790832519531,82.57050323486328,-6.221248626708984,89.23981475830078,-0.020025804307725693,0.377,0.30464285714285716,-0.0007323794894748264,-1.9445234709472672,0.13183200359344482,47.284820556640625,0.038415612114800345,-0.11623403761121961
5371,-0.05897051493326823,0.39843757629394533,86.559814453125,82.73416900634766,-6.221248626708984,89.28073120117188,0.001341459486219618,0.37366666666666665,0.30464285714285716,-0.0005187564425998264,-1.6918455534667984,1.3183200359344482,47.196929931640625,0.042507171630859375,-0.11668866475423177
5372,-0.06287676493326823,0.39843757629394533,88.87156677246094,85.90515899658203,-6.282623291015625,90.03767395019531,-0.016388829549153647,0.37166666666666665,0.30428571428571427,0.000457763671875,-1.560013430664064,1.3183200359344482,47.284820556640625,0.03296008639865451,-0.12578108045789932
5373,-0.04334551493326823,0.3785157012939453,88.03279113769531,84.08439636230469,-6.3644561767578125,90.05813598632812,-0.03343713548448351,0.36966666666666664,0.30392857142857144,0.0035094367133246527,-1.9225508146972672,-0.10986007983398594,47.284820556640625,0.04387105305989583,-0.12691769070095485
5374,-0.03162676493326823,0.39843757629394533,87.62362670898438,84.08439636230469,-6.323539733886719,89.50576782226562,-0.0050232781304253475,0.36733333333333335,0.30357142857142855,0.004730097452799479,-2.4279066496582047,-0.17577614123535312,47.284820556640625,0.039324781629774305,-0.12032563951280383
5375,-0.03162676493326823,0.3785157012939453,87.562255859375,85.43462371826172,-6.241706848144531,89.52622985839844,-0.011387973361545138,0.36433333333333334,0.30357142857142855,0.004730097452799479,-2.3949495726318375,0.17577600479125977,47.284820556640625,0.023640357123480903,-0.11964374118381077
5376,-0.04725176493326823,0.3785157012939453,88.74882507324219,85.12775421142578,-6.405372619628906,90.05813598632812,0.00770615471733941,0.362,0.30392857142857144,0.0022582583957248266,-2.3729769163818375,0.35155200958251953,47.284820556640625,0.04023412068684896,-0.12737231784396702
5377,-0.04334551493326823,0.3785157012939453,87.09172058105469,82.97966003417969,-6.405372619628906,89.97630310058594,-0.027981694539388022,0.359,0.30392857142857144,0.0028685675726996527,-2.570725100585939,-1.1864878111572281,47.284820556640625,0.045689561631944445,-0.1264630635579427
5378,-0.03162676493326823,0.3585938262939453,87.58271789550781,83.83889770507812,-6.282623291015625,89.2193603515625,-0.009342193603515625,0.3556666666666667,0.30464285714285716,0.0033873664008246527,-2.900305407592775,-1.120571749755861,47.284820556640625,0.041598002115885414,-0.11668870713975694
5379,-0.05115801493326823,0.33867195129394534,87.23492431640625,84.0025634765625,-6.241706848144531,89.17843627929688,-0.010478719075520834,0.3526666666666667,0.3053571428571429,0.000244140625,-2.7245279722900406,-0.6701475554199234,47.284820556640625,0.03591512044270833,-0.11577936808268229
5380,-0.06287676493326823,0.3585938262939453,87.27584838867188,84.1048583984375,-6.262165069580078,89.38301849365234,-0.0054779052734375,0.349,0.30642857142857144,-0.0024718390570746527,-2.581711428710939,-0.01098694140625156,47.284820556640625,0.035233222113715275,-0.11827981736924913
5381,-0.07850176493326823,0.33867195129394534,87.27584838867188,84.61630249023438,-6.241706848144531,89.32164001464844,-0.0018409305148654514,0.3456666666666667,0.30714285714285716,-0.003997675577799479,-2.7025572233886734,0.4723980128765106,47.284820556640625,0.02955050998263889,-0.11737052069769965
5382,-0.07068926493326823,0.33867195129394534,88.0737075805664,86.64164733886719,-6.241706848144531,89.30118560791016,-0.015934202406141493,0.342,0.3082142857142857,-0.0032042185465494793,-2.7465006285400406,0.41746801137924194,47.284820556640625,0.015911780463324653,-0.11714324951171876
5383,-0.07068926493326823,0.3585938262939453,90.89691162109375,84.1048583984375,-6.241706848144531,89.34210205078125,-0.021389685736762153,0.33866666666666667,0.30857142857142855,-0.0031431833902994793,-2.6476274901123062,-0.9667688780517594,47.284820556640625,0.07546725802951389,-0.1175978766547309
5384,-0.06287676493326823,0.33867195129394534,87.93049621582031,83.90027618408203,-6.221248626708984,89.28073120117188,-0.015934202406141493,0.3353333333333333,0.30857142857142855,-0.0034483591715494793,-2.6036821776123062,-1.8456484251709,47.196929931640625,0.04478022257486979,-0.11668866475423177
5385,-0.05506426493326823,0.39843757629394533,88.05325317382812,82.87738037109375,-6.262165069580078,89.52622985839844,-0.0075236850314670135,0.33166666666666667,0.30857142857142855,-0.005309889051649305,-2.4498793059082047,-1.9115644865722672,47.196929931640625,0.057509697808159725,-0.11987105475531684
5386,-0.05506426493326823,0.39843757629394533,85.557373046875,84.41172790527344,-6.303081512451172,90.0785903930664,-0.013433795505099827,0.329,0.30857142857142855,-0.0067441728379991316,-2.4169203215332047,-1.4501520567626969,47.196929931640625,0.012729390462239584,-0.12646302117241753
5387,-0.05897051493326823,0.3585938262939453,87.562255859375,84.57539367675781,-6.303081512451172,90.0785903930664,-0.002522828843858507,0.3263333333333333,0.30857142857142855,-0.008331044514973959,-2.6036821776123062,-0.5712725096435562,47.196929931640625,0.03318735758463542,-0.12646302117241753
5388,-0.05506426493326823,0.3785157012939453,87.76683807373047,84.80043029785156,-6.3644561767578125,90.1604232788086,-0.019343863593207465,0.32366666666666666,0.30857142857142855,-0.007995351155598959,-2.823403018066408,-0.3076082640380875,47.196929931640625,0.03296008639865451,-0.12805421617296006
5389,-0.05506426493326823,0.39843757629394533,87.48042297363281,83.63432312011719,-6.384914398193359,89.6080551147461,-0.0022955152723524307,0.32033333333333336,0.30857142857142855,-0.008849800957573786,-3.174954073974611,-0.07690300280761875,47.196929931640625,0.04273444281684028,-0.12214410569932725
5390,-0.05115801493326823,0.39843757629394533,87.39859008789062,83.57295227050781,-6.282623291015625,89.38301849365234,-0.008887566460503472,0.31666666666666665,0.3082142857142857,-0.009093941582573786,-3.0870672636718766,-0.4723993712158219,47.284820556640625,0.04250708685980903,-0.11850713094075521
5391,-0.027720514933268228,0.3585938262939453,87.03034973144531,83.53202819824219,-6.221248626708984,89.68988800048828,-0.030027474297417533,0.31366666666666665,0.30857142857142855,-0.0060422685411241316,-2.6915708952636734,-0.6042314940185562,47.284820556640625,0.0388702392578125,-0.12123485141330295
5392,-0.023814264933268228,0.3585938262939453,87.0098876953125,84.14576721191406,-6.303081512451172,89.66943359375,-0.006159803602430555,0.31033333333333335,0.30857142857142855,-0.0058896806504991316,-2.6036821776123062,0.45042601227760315,47.284820556640625,0.03182356092664931,-0.12191683451334635
5393,-0.03553301493326823,0.3585938262939453,88.03279113769531,86.45751953125,-6.323539733886719,89.6080551147461,0.002932612101236979,0.30733333333333335,0.30857142857142855,-0.0068967607286241316,-2.6256548338623062,1.6588860750198364,47.284820556640625,0.01750301784939236,-0.12146216498480902
5394,-0.05115801493326823,0.33867195129394534,88.81019592285156,84.32989501953125,-6.303081512451172,89.567138671875,-0.007978312174479167,0.304,0.30857142857142855,-0.0076596577962239586,-2.7355143004150406,0.8898659944534302,47.284820556640625,0.049781121148003475,-0.1207802242702908
5395,-0.04725176493326823,0.33867195129394534,88.19645690917969,84.35034942626953,-6.303081512451172,89.50576782226562,-0.015024948120117187,0.3006666666666667,0.30857142857142855,-0.0067746904161241316,-2.9772058897705094,0.8459219932556152,47.284820556640625,0.042734527587890626,-0.12009832594129774
5396,-0.04725176493326823,0.3585938262939453,88.19645690917969,84.6572265625,-6.282623291015625,89.32164001464844,-0.010478719075520834,0.29733333333333334,0.3092857142857143,-0.0065000322129991316,-3.229883807250978,0.6371880173683167,47.284820556640625,0.039324781629774305,-0.11782514784071181
5397,-0.03162676493326823,0.33867195129394534,87.27584838867188,83.42974090576172,-6.282623291015625,89.54668426513672,-0.02320815192328559,0.2946666666666667,0.30964285714285716,-0.004363844129774305,-3.0541082792968766,-0.3735243254394547,47.284820556640625,0.042734527587890626,-0.12032563951280383
5398,-0.023814264933268228,0.33867195129394534,87.62362670898438,85.86424255371094,-6.241706848144531,89.66943359375,-0.012751854790581597,0.2906666666666667,0.30964285714285716,-0.0035399119059244793,-2.7135435515136734,0.5932440161705017,47.284820556640625,0.019548712836371527,-0.12123489379882812
5399,-0.07068926493326823,0.33867195129394534,89.05569458007812,82.71371459960938,-6.303081512451172,88.81019592285156,0.011115815904405382,0.2876666666666667,0.30964285714285716,-0.009002388848198786,-2.7684732847900406,1.735788106918335,47.284820556640625,0.07046644422743055,-0.11236974928114149
5400,-0.07850176493326823,0.3187500762939453,86.5188980102539,84.98455047607422,-6.057586669921875,89.30118560791016,-0.028436321682400175,0.2843333333333333,0.31,-0.008788765801323786,-2.482836382934572,1.6259280443191528,47.284820556640625,0.017048305935329862,-0.11509746975368923
5401,-0.07459551493326823,0.33867195129394534,91.34698486328125,85.06637573242188,-6.2007904052734375,89.83309936523438,-0.01729808383517795,0.2813333333333333,0.31,-0.0066221025254991316,-2.0324102812500016,1.3622640371322632,47.284820556640625,0.0697845458984375,-0.12259877522786458
5402,-0.07068926493326823,0.3785157012939453,87.99187469482422,82.36592102050781,-6.282623291015625,89.567138671875,-0.016388829549153647,0.27666666666666667,0.30964285714285716,-0.0068052079942491316,-2.3619905882568375,-0.3405672484130875,47.284820556640625,0.0625105963812934,-0.12055291069878472
5403,-0.06678301493326823,0.39843757629394533,86.62118530273438,83.61386108398438,-6.221248626708984,89.44439697265625,-0.008660252888997395,0.2743333333333333,0.3092857142857143,-0.0072324117024739586,-2.7025572233886734,0.06591600179672241,47.284820556640625,0.03341471354166667,-0.11850717332628039
5404,-0.08240801493326823,0.33867195129394534,88.03279113769531,85.12775421142578,-6.241706848144531,89.77172088623047,0.0006595187717013889,0.2713333333333333,0.30964285714285716,-0.008117421468098959,-2.3400179320068375,1.3952220678329468,47.196929931640625,0.032278188069661456,-0.12237141927083334
5405,-0.09412676493326823,0.3585938262939453,88.13508605957031,85.23004150390625,-6.262165069580078,89.83309936523438,-0.002522828843858507,0.2683333333333333,0.30964285714285716,-0.009277047051323786,-2.186215060302736,1.6588860750198364,47.196929931640625,0.0322782728407118,-0.12328071594238281
5406,-0.09022051493326823,0.3585938262939453,87.78729248046875,84.24806213378906,-6.262165069580078,89.64897155761719,-0.0168434566921658,0.26566666666666666,0.30892857142857144,-0.0078122456868489586,-2.241144793579103,1.0107120275497437,46.58169937133789,0.039324781629774305,-0.12123485141330295
5407,-0.08240801493326823,0.33867195129394534,88.13508605957031,80.32012939453125,-6.282623291015625,89.77172088623047,-0.017070770263671875,0.2633333333333333,0.30857142857142855,-0.005615064832899305,-2.3729769163818375,-0.05493034655761875,45.43912887573242,0.08683285183376736,-0.12282604641384548
5408,-0.06287676493326823,0.33867195129394534,86.96897888183594,80.19737243652344,-6.303081512451172,89.71034240722656,-0.01320648193359375,0.26,0.30857142857142855,-0.0037840525309244793,-2.493822711059572,-0.3405672484130875,45.26335144042969,0.07524007161458333,-0.12237137688530816
5409,-0.04334551493326823,0.29882820129394533,87.15309143066406,83.53202819824219,-6.159877777099609,88.54424285888672,-0.027981694539388022,0.257,0.30857142857142855,-0.0011291080050998264,-2.845373766967775,-0.07690300280761875,45.26335144042969,0.04023403591579861,-0.10782356262207031
5410,-0.04334551493326823,0.29882820129394533,86.5188980102539,84.63676452636719,-6.037128448486328,89.52622985839844,-0.004795964558919271,0.25333333333333335,0.30857142857142855,-0.0010985904269748264,-2.559738772460939,0.6921180486679077,45.26335144042969,0.020912594265407987,-0.11737064785427517
5411,-0.05115801493326823,0.33867195129394534,87.70545959472656,84.30943298339844,-6.159877777099609,89.44439697265625,-0.0002497355143229167,0.24933333333333332,0.30892857142857144,-0.0020445929633246527,-2.219172137329103,1.0766279697418213,45.26335144042969,0.03773362901475694,-0.11782527499728733
5412,-0.04725176493326823,0.3585938262939453,87.43951416015625,84.47309875488281,-6.159877777099609,89.36256408691406,-0.012751854790581597,0.24566666666666667,0.30892857142857144,-0.0012511783175998264,-2.164242404052736,0.9777539968490601,45.26335144042969,0.03296017116970486,-0.11691602071126302
5413,-0.03553301493326823,0.33867195129394534,88.23736572265625,87.5213394165039,-6.159877777099609,89.68988800048828,-0.01843460930718316,0.24166666666666667,0.30857142857142855,0.00128173828125,-2.1312853270263687,1.768746018409729,45.26335144042969,0.007955847846137152,-0.1205529530843099
5414,-0.03553301493326823,0.39843757629394533,91.18331909179688,84.63676452636719,-6.221248626708984,90.0785903930664,-0.011615286933051215,0.23833333333333334,0.30857142857142855,0.0022887759738498266,-2.3070608549804703,0.8349360227584839,45.26335144042969,0.07273949517144097,-0.12555376688639322
5415,-0.04334551493326823,0.3785157012939453,87.43951416015625,83.26608276367188,-6.303081512451172,89.44439697265625,-0.006841744316948784,0.23466666666666666,0.30857142857142855,0.001007080078125,-2.944248812744142,-0.4504267149658219,45.26335144042969,0.0463714599609375,-0.11941642761230468
5416,-0.05897051493326823,0.3585938262939453,87.82821655273438,84.0434799194336,-6.241706848144531,89.62850952148438,0.0036145528157552082,0.231,0.30857142857142855,-0.0015257941351996527,-2.6805845671386734,-1.0656420164794937,45.26335144042969,0.04205262925889757,-0.12078018188476562
5417,-0.04725176493326823,0.33867195129394534,84.22760009765625,83.34790802001953,-6.303081512451172,89.81263732910156,-0.02207158406575521,0.229,0.30857142857142855,-0.0006103091769748264,-2.7135435515136734,-1.3952223234863297,45.26335144042969,0.009774356418185763,-0.12350798712836372
5418,-0.04725176493326823,0.3585938262939453,88.13508605957031,84.92317199707031,-6.262165069580078,89.17843627929688,0.0015687730577256945,0.22533333333333333,0.3082142857142857,-0.0019530402289496527,-3.0101648741455094,-0.18676246936035312,45.26335144042969,0.03568793402777778,-0.11600668165418837
5419,-0.05897051493326823,0.33867195129394534,87.84866333007812,84.08439636230469,-6.221248626708984,89.83309936523438,-0.001613616943359375,0.22233333333333333,0.30857142857142855,-0.0035093943277994793,-2.845373766967775,0.29662200808525085,45.26335144042969,0.041825188530815974,-0.12282608879937065
5420,-0.07068926493326823,0.3187500762939453,87.39859008789062,84.24806213378906,-6.282623291015625,89.73080444335938,-0.007069057888454861,0.21866666666666668,0.30892857142857144,-0.004455396864149305,-2.911289828369142,0.7580339908599854,45.26335144042969,0.03500586615668403,-0.12237141927083334
5421,-0.08631426493326823,0.33867195129394534,87.43951416015625,82.30455017089844,-6.241706848144531,89.1170654296875,0.0008868323432074653,0.215,0.30892857142857144,-0.0064695146348741316,-3.2957998686523453,0.9557820558547974,45.26335144042969,0.057055155436197914,-0.11509746975368923
5422,-0.08240801493326823,0.29882820129394533,86.23248291015625,85.1072998046875,-6.241706848144531,89.13752746582031,-0.022980838351779515,0.21133333333333335,0.31,-0.004241816202799479,-3.163967745849611,1.0436700582504272,45.26335144042969,0.012502034505208334,-0.11532482571072049
5423,-0.05506426493326823,0.33867195129394534,88.0737075805664,86.80531311035156,-6.241706848144531,89.34210205078125,-0.01843460930718316,0.20733333333333334,0.31035714285714283,-0.0006713443332248264,-2.834389346191408,1.538040041923523,45.26335144042969,0.014093271891276042,-0.1175978766547309
5424,-0.06287676493326823,0.33867195129394534,90.75370788574219,84.28897857666016,-6.221248626708984,89.32164001464844,-0.00775099860297309,0.204,0.31107142857142855,-0.0005797915988498264,-2.7574869566650406,1.307334065437317,45.26335144042969,0.07183032565646702,-0.11714320712619358
5425,-0.08631426493326823,0.3187500762939453,88.13508605957031,84.39126586914062,-6.2007904052734375,89.2193603515625,-0.004795964558919271,0.20066666666666666,0.31142857142857144,-0.0022887335883246527,-2.867346423217775,1.032684087753296,45.26335144042969,0.041598002115885414,-0.11577945285373265
5426,-0.09803301493326823,0.33867195129394534,87.93049621582031,83.75706481933594,-6.241706848144531,89.66943359375,-0.007296371459960938,0.19733333333333333,0.3117857142857143,-0.0033568064371744793,-2.834389346191408,0.8898659944534302,45.26335144042969,0.0463714599609375,-0.12123489379882812
5427,-0.09412676493326823,0.33867195129394534,87.88958740234375,84.92317199707031,-6.221248626708984,89.19889831542969,-0.004795964558919271,0.19366666666666665,0.3117857142857143,-0.0024413214789496527,-2.845373766967775,1.219446063041687,45.26335144042969,0.03296017116970486,-0.11577941046820747
5428,-0.10975176493326823,0.33867195129394534,88.50332641601562,84.12531280517578,-6.262165069580078,89.36256408691406,0.0008868323432074653,0.19066666666666668,0.3125,-0.0034483591715494793,-2.7355143004150406,0.8569080233573914,45.26335144042969,0.04864459567599826,-0.11805254618326823
5429,-0.09412676493326823,0.3187500762939453,87.93049621582031,82.61141967773438,-41.900001525878906,89.62850952148438,-0.02866363525390625,0.188,0.3125,-0.0008239322238498264,-2.4608656340332047,-0.17577614123535312,45.26335144042969,0.05910085042317708,-0.5169834560818143
5430,-0.05506426493326823,0.29882820129394533,87.33721923828125,85.08683776855469,-6.2007904052734375,89.42393493652344,-0.027072440253363715,0.18533333333333332,0.31214285714285717,0.0033568488226996527,-2.570725100585939,-0.4394403868408219,45.26335144042969,0.02500423855251736,-0.11805250379774306
5431,-0.03943926493326823,0.29882820129394533,87.97142028808594,86.45751953125,-41.900001525878906,89.40347290039062,-0.014797634548611112,0.18233333333333332,0.31214285714285717,0.004882685343424479,-2.4498793059082047,-0.2416922026367203,45.26335144042969,0.016821119520399306,-0.5144830491807726
5432,-0.03943926493326823,0.2789063262939453,89.48530578613281,85.53691101074219,-6.221248626708984,89.19889831542969,-0.014115693834092882,0.17866666666666667,0.31214285714285717,0.004821650187174479,-2.4279066496582047,-0.4174677305908219,45.26335144042969,0.04387105305989583,-0.11577941046820747
5433,-0.03162676493326823,0.3187500762939453,87.88958740234375,84.96409606933594,-41.900001525878906,89.30118560791016,-0.010478719075520834,0.17433333333333334,0.3125,0.004302851359049479,-2.537766116210939,-0.49437012011718906,45.26335144042969,0.03250545925564236,-0.5133465237087673
5434,-0.04725176493326823,0.2789063262939453,89.64897155761719,82.83645629882812,-6.2007904052734375,89.30118560791016,-0.008205625745985243,0.17066666666666666,0.3125,0.0028380499945746527,-2.526779788085939,-0.12084640795898594,45.26335144042969,0.07569461398654515,-0.1166886223687066
5435,-0.07068926493326823,0.3187500762939453,86.94851684570312,84.84133911132812,-41.900001525878906,89.26026916503906,0.007933468288845487,0.168,0.31285714285714283,-0.0006103091769748264,-2.6036821776123062,0.6262019872665405,45.26335144042969,0.0234130859375,-0.5128918965657552
5436,-0.09412676493326823,0.29882820129394533,87.54179382324219,82.81600189208984,-6.180332183837891,89.1579818725586,-0.008205625745985243,0.165,0.3132142857142857,-0.0023497687445746527,-2.471850054809572,0.0,45.26335144042969,0.05250879923502604,-0.11487015618218316
5437,-0.09412676493326823,0.2789063262939453,84.554931640625,84.84133911132812,-6.2007904052734375,89.13752746582031,-0.020253117879231772,0.16166666666666665,0.3132142857142857,-0.0028685675726996527,-2.2741018706054703,-0.2746511870117203,45.26335144042969,-0.003182305230034722,-0.11487019856770833
5438,-0.10193926493326823,0.29882820129394533,87.97142028808594,84.24806213378906,-6.2007904052734375,88.78973388671875,0.0020233578152126738,0.15766666666666668,0.31392857142857145,-0.004424879286024305,-2.1202989989013687,0.516342043876648,45.26335144042969,0.04137064615885417,-0.11100582546657986
5439,-0.12147051493326823,0.25898443222045897,85.39370727539062,82.89783477783203,-6.037128448486328,88.85111236572266,-0.011615286933051215,0.15566666666666668,0.31392857142857145,-0.005004713270399305,-1.9774805479736344,0.1538040041923523,45.26335144042969,0.02773191663953993,-0.10986934238009982
5440,-0.10193926493326823,0.239062557220459,87.54179382324219,86.86668395996094,-6.180332183837891,88.93293762207031,-0.01752539740668403,0.152,0.3142857142857143,-0.0023497687445746527,-1.7357889586181656,1.1315580606460571,45.26335144042969,0.007501220703125,-0.11236966451009114
5441,-0.10193926493326823,0.25898443222045897,89.89447021484375,84.57539367675781,-6.118961334228516,89.1170654296875,-0.01320648193359375,0.14866666666666667,0.3142857142857143,-0.0021361456976996527,-1.8017050200195328,0.3954960107803345,45.26335144042969,0.05910085042317708,-0.11373363071017795
5442,-0.08240801493326823,0.25898443222045897,88.42149353027344,83.4501953125,-6.2007904052734375,89.17843627929688,-0.02093505859375,0.146,0.31464285714285717,-0.0003356509738498264,-2.0653692656250016,-0.20873512561035312,45.26335144042969,0.05523664686414931,-0.11532474093967014
5443,-0.07459551493326823,0.2789063262939453,88.78973388671875,84.12531280517578,-6.2007904052734375,89.64897155761719,-0.010251405504014757,0.14266666666666666,0.31464285714285717,-0.0002746158175998264,-2.263117449829103,-0.19774879748535312,45.26335144042969,0.05182690090603299,-0.12055291069878472
5444,-0.08631426493326823,0.25898443222045897,85.1072998046875,84.49356079101562,-6.221248626708984,89.30118560791016,-0.005250591701931423,0.13933333333333334,0.31464285714285717,-0.0017394171820746527,-2.6256548338623062,-0.14281906420898594,45.26335144042969,0.006819322374131944,-0.11691593594021267
5445,-0.09022051493326823,0.2789063262939453,87.19401550292969,82.79554748535156,-6.180332183837891,89.19889831542969,-0.012751854790581597,0.13633333333333333,0.31464285714285717,-0.0030516306559244793,-2.7465006285400406,-0.2526785307617203,45.26335144042969,0.04887186686197917,-0.11532478332519532
5446,-0.09022051493326823,0.25898443222045897,86.559814453125,82.52958679199219,-41.900001525878906,89.19889831542969,-0.008887566460503472,0.13333333333333333,0.315,-0.0029905954996744793,-2.515795367309572,-0.2416922026367203,45.26335144042969,0.04478030734592014,-0.5122099982367622
5447,-0.07850176493326823,0.239062557220459,86.47798156738281,83.0410385131836,-6.098503112792969,89.13752746582031,-0.023662779066297743,0.13,0.31535714285714284,-0.0018309699164496527,-2.6586119108886734,-0.4284540587158219,45.26335144042969,0.0381882561577691,-0.11373367309570312
5448,-0.08631426493326823,0.219140682220459,86.39614868164062,82.18180847167969,-6.1394195556640625,89.09660339355469,-0.01320648193359375,0.12733333333333333,0.31607142857142856,-0.0027159796820746527,-2.4279066496582047,-0.4284540587158219,45.26335144042969,0.046826002332899304,-0.11373358832465277
5449,-0.09022051493326823,0.25898443222045897,88.21691131591797,84.0434799194336,-6.159877777099609,89.36256408691406,0.0049784342447916664,0.124,0.3167857142857143,-0.004638502332899305,-2.526779788085939,0.3405660092830658,45.26335144042969,0.0463714599609375,-0.11691602071126302
5450,-0.08240801493326823,0.2789063262939453,87.50088500976562,84.43218231201172,-6.180332183837891,89.28073120117188,-0.011842600504557292,0.12066666666666667,0.3167857142857143,-0.004272333780924479,-2.6805845671386734,0.7690200209617615,45.26335144042969,0.03409669664171007,-0.11623403761121961
5451,-0.08240801493326823,0.25898443222045897,87.6031723022461,85.1072998046875,-6.221248626708984,89.58760070800781,-0.0059324900309244795,0.11766666666666667,0.3171428571428571,-0.0030516306559244793,-2.515795367309572,1.263390064239502,45.26335144042969,0.02773191663953993,-0.12009832594129774
5452,-0.09412676493326823,0.25898443222045897,90.03767395019531,85.43462371826172,-6.221248626708984,89.50576782226562,-0.0054779052734375,0.115,0.3175,-0.0028685675726996527,-2.4388929777832047,1.3183200359344482,45.26335144042969,0.05114500257703993,-0.11918907165527344
5453,-0.09412676493326823,0.29882820129394533,87.27584838867188,81.93630981445312,-6.2007904052734375,89.32164001464844,-0.009569507175021702,0.11133333333333334,0.3175,-0.0034788767496744793,-2.812416689941408,0.010986000299453735,45.26335144042969,0.05932820638020833,-0.1169158935546875
5454,-0.09022051493326823,0.2789063262939453,85.80287170410156,83.34790802001953,-6.241706848144531,89.54668426513672,-0.006159803602430555,0.10833333333333334,0.3175,-0.0032652537027994793,-2.900305407592775,0.1867620050907135,45.26335144042969,0.027277374267578126,-0.11987101236979167
5455,-0.07068926493326823,0.2789063262939453,86.6007308959961,81.0361557006836,-6.241706848144531,89.85355377197266,-0.009342193603515625,0.10466666666666667,0.3175,-0.0014037662082248264,-2.7025572233886734,0.05493000149726868,45.26335144042969,0.06182861328125,-0.12328067355685764
5456,-0.027720514933268228,0.25898443222045897,86.35523986816406,87.72592163085938,-6.262165069580078,89.85355377197266,-0.03161866929796007,0.10266666666666667,0.3171428571428571,0.0032652960883246527,-3.1310106688232437,0.9008520245552063,45.26335144042969,-0.01522979736328125,-0.12350798712836372
5457,-0.05115801493326823,0.25898443222045897,88.6056137084961,85.76194763183594,-6.180332183837891,89.567138671875,-0.005705218844943577,0.09866666666666667,0.3171428571428571,0.0020751529269748266,-3.4276319914550797,1.2084600925445557,45.26335144042969,0.0315962897406684,-0.11941634284125434
5458,-0.08631426493326823,0.25898443222045897,86.41661071777344,83.69569396972656,-6.159877777099609,89.0761489868164,0.003841866387261285,0.095,0.3175,-0.0007323794894748264,-3.6583391600341812,0.6042300462722778,45.26335144042969,0.030232408311631945,-0.11373363071017795
5459,-0.06678301493326823,0.239062557220459,85.47554016113281,85.18913269042969,-5.5870513916015625,89.23981475830078,-0.028209008110894097,0.09166666666666666,0.31857142857142856,0.0014342837863498264,-3.92200340563965,-0.05493034655761875,44.64812088012695,0.003182305230034722,-0.1091874016655816
5460,-0.03943926493326823,0.219140682220459,83.1024169921875,81.52714538574219,-5.484760284423828,88.70790100097656,-0.023435465494791665,0.08766666666666667,0.3196428571428571,0.0036620246039496527,-3.834114687988283,-0.7360617094726578,44.38444900512695,0.01750301784939236,-0.10214068094889323
5461,-0.09803301493326823,0.19921878814697266,88.68744659423828,85.02546691894531,-5.832546234130859,89.68988800048828,0.011570443047417535,0.085,0.32071428571428573,-0.0009154849582248264,-3.1419969969482437,0.8129640221595764,44.38444900512695,0.04068866305881076,-0.11691593594021267
5462,-0.12928301493326824,0.239062557220459,88.76927947998047,84.18669128417969,-5.66888427734375,88.62606811523438,0.004296493530273437,0.08,0.32142857142857145,-0.004913160536024305,-3.559464114257814,0.9447960257530212,44.38444900512695,0.05091764662000868,-0.10327724880642361
5463,-0.10193926493326823,0.25898443222045897,86.45751953125,88.1555404663086,-5.5870513916015625,88.50332641601562,-0.0168434566921658,0.07666666666666666,0.3217857142857143,-0.0024413214789496527,-3.526507037231447,0.14281800389289856,44.38444900512695,-0.01886689927842882,-0.1010041978624132
5464,-0.10193926493326823,0.219140682220459,84.73905181884766,80.46333312988281,-5.709800720214844,89.05569458007812,-0.011842600504557292,0.07266666666666667,0.32285714285714284,-0.0018614874945746527,-3.0431219511718766,-1.3183199339599625,44.38444900512695,0.047507985432942705,-0.10850550333658854
5465,-0.08631426493326823,0.239062557220459,87.5213394165039,85.02546691894531,-6.078044891357422,88.83065795898438,-0.020707745022243925,0.06933333333333333,0.32321428571428573,-0.0022887335883246527,-2.790444033691408,-1.175503390380861,44.38444900512695,0.02773191663953993,-0.11009669833713108
5466,-0.11365801493326823,0.219140682220459,88.36012268066406,83.42974090576172,-5.832546234130859,89.93538665771484,-0.006387117173936632,0.066,0.32321428571428573,-0.004638502332899305,-2.6695982390136734,-0.7909933500976578,44.38444900512695,0.05478201972113715,-0.1196436987982856
5467,-0.14490801493326824,0.239062557220459,85.84378051757812,80.36103820800781,-5.832546234130859,89.48530578613281,0.004296493530273437,0.06266666666666666,0.32285714285714284,-0.008971871270073786,-2.911289828369142,-1.0876146727294937,44.38444900512695,0.06091935899522569,-0.11464280022515191
5468,-0.10975176493326823,0.219140682220459,83.38882446289062,82.85691833496094,-5.832546234130859,89.52622985839844,-0.03821067810058594,0.06,0.32285714285714284,-0.0065305497911241316,-3.3287588530273453,-0.812964098999025,42.97821044921875,0.0059100680881076385,-0.1150975121392144
5469,-0.12928301493326824,0.219140682220459,85.94607543945312,82.07951354980469,-5.66888427734375,87.50088500976562,0.011797756618923612,0.05633333333333333,0.32285714285714284,-0.008910836113823786,-3.570450442382814,0.38451001048088074,42.89031982421875,0.042961798773871525,-0.09077521430121528
5470,-0.13709551493326824,0.219140682220459,87.5213394165039,83.81844329833984,-5.566593170166016,88.91248321533203,-0.003204769558376736,0.05333333333333334,0.32285714285714284,-0.009460152520073786,-3.0541082792968766,1.7797319889068604,42.89031982421875,0.04114329020182292,-0.1053230709499783
5471,-0.16834551493326824,0.19921878814697266,86.80531311035156,87.21446990966797,-5.627967834472656,89.17843627929688,-0.005250591701931423,0.05,0.3225,-0.009338082207573786,-2.6146685057373062,2.2411441802978516,42.71453857421875,-0.00454618665907118,-0.10896004570855035
5472,-0.12537676493326824,0.25898443222045897,87.45996856689453,83.30699157714844,-5.66888427734375,88.97386169433594,-0.014570320977105035,0.046,0.3221428571428571,-0.0072324117024739586,-2.526779788085939,1.0986000299453735,42.71453857421875,0.046144188774956595,-0.10714162190755208
5473,-0.15272051493326824,0.219140682220459,87.31675720214844,79.8905029296875,-5.546134948730469,88.58515930175781,-0.003886710272894965,0.043666666666666666,0.3221428571428571,-0.0070188310411241316,-2.581711428710939,1.0436700582504272,42.71453857421875,0.08251393636067708,-0.10145882500542534
5474,-0.14490801493326824,0.219140682220459,89.73080444335938,88.78973388671875,-5.9757537841796875,88.17599487304688,-0.013888380262586805,0.03966666666666667,0.32142857142857145,-0.005462476942274305,-2.966221468994142,2.3949480056762695,42.71453857421875,0.010456339518229166,-0.10168609619140626
5475,-0.09412676493326823,0.2789063262939453,88.42149353027344,85.78240966796875,-5.8939208984375,89.71034240722656,-0.02616318596733941,0.037333333333333336,0.32107142857142856,-0.0014952765570746527,-2.7025572233886734,1.494096040725708,42.71453857421875,0.029323154025607638,-0.11782514784071181
5476,-0.10193926493326823,0.239062557220459,88.78973388671875,88.19645690917969,-6.528118133544922,88.87156677246094,-0.0002497355143229167,0.034,0.32,-0.00024409823947482638,-3.1310106688232437,0.7690200209617615,42.71453857421875,0.006591966417100695,-0.11555205451117621
5477,-0.08631426493326823,0.239062557220459,81.93630981445312,77.49691772460938,-6.057586669921875,89.75126647949219,-0.026390499538845487,0.03133333333333333,0.3192857142857143,0.0006103515625,-2.966221468994142,-1.8676210814209,42.71453857421875,0.049326578776041664,-0.12009836832682291
5478,-0.08240801493326823,0.219140682220459,87.0098876953125,78.09020233154297,-7.612392425537109,91.572021484375,-0.005705218844943577,0.028333333333333332,0.3175,-0.0006103091769748264,-2.230158465454103,-0.4064833098144547,42.71453857421875,0.0991076151529948,-0.15760459899902343
5479,-0.10975176493326823,0.219140682220459,92.92225646972656,92.00164794921875,-6.548576354980469,88.85111236572266,0.011343129475911458,0.025,0.31607142857142856,-0.0022582160101996527,-2.6366411619873062,2.6256539821624756,42.71453857421875,0.010228983561197917,-0.11555209689670139
5480,-0.10193926493326823,0.219140682220459,91.36744689941406,84.75950622558594,-6.343997955322266,89.50576782226562,-0.024799346923828125,0.021666666666666667,0.3142857142857143,0.000152587890625,-2.3290335112304703,0.05493000149726868,42.71453857421875,0.07342156304253472,-0.1205529530843099
5481,-0.08240801493326823,0.19921878814697266,88.03279113769531,82.77508544921875,-6.384914398193359,89.62850952148438,-0.015252261691623263,0.018,0.3132142857142857,0.0018004947238498264,-1.6698728972167984,-0.4174677305908219,42.71453857421875,0.058418952094184025,-0.12237137688530816
5482,-0.10975176493326823,0.19921878814697266,87.03034973144531,86.02790832519531,-4.543693542480469,85.72103881835938,0.0024779849582248262,0.014333333333333333,0.31142857142857144,-0.0012511783175998264,-1.4391657286376969,0.02197200059890747,42.71453857421875,0.011138237847222222,-0.05849702623155382
5483,-0.16053301493326824,0.15937503814697265,92.24713897705078,76.69905853271484,-4.093616485595703,87.5213394165039,-0.003204769558376736,0.011,0.3107142857142857,-0.0029600779215494793,-0.4614130430908219,-1.0107122832031266,42.71453857421875,0.1727564493815104,-0.073499510023329
5484,-0.13318926493326824,0.17929691314697266,83.87982177734375,88.68744659423828,-4.216365814208984,87.50088500976562,-0.002522828843858507,0.007666666666666666,0.30857142857142855,-0.0028685675726996527,0.5822579860687256,0.2746500074863434,31.113059997558594,-0.05341805352105035,-0.07463612026638455
5485,-0.13709551493326824,0.17929691314697266,86.62118530273438,80.79066467285156,-1.3727035522460938,86.31431579589844,-0.011842600504557292,0.0036666666666666666,0.3067857142857143,-0.0031431833902994793,0.6042300462722778,-0.5053564482421891,24.60919952392578,0.06478356255425347,-0.029855770534939235
5486,-0.15662676493326824,0.15937503814697265,87.74638366699219,83.18424987792969,-0.042934417724609375,84.71859741210938,-0.010251405504014757,0.0026666666666666666,0.30178571428571427,-0.003967157999674479,1.219446063041687,0.0,24.433420181274414,0.050690375434027775,0.0026496463351779512
5487,-0.22303301493326824,0.13945316314697265,88.74882507324219,84.18669128417969,0.3866844177246094,83.90027618408203,0.027709537082248263,0.002,0.2982142857142857,-0.0063779619004991316,2.142270088195801,0.08788800239562988,24.433420181274414,0.050690375434027775,0.01651564704047309
5488,-0.19178301493326824,0.13945316314697265,41.900001525878906,85.65966796875,-0.9021682739257812,84.24806213378906,-0.008660252888997395,0.0006666666666666666,0.2935714285714286,-0.005615064832899305,2.9442481994628906,0.08788800239562988,24.433420181274414,-0.486218516031901,-0.0016692267523871528
5489,-0.16443926493326824,0.15937503814697265,87.72592163085938,84.92317199707031,0.6117210388183594,81.73172760009766,-0.014343007405598959,0.0003333333333333333,0.2892857142857143,-0.005157301161024305,2.04339599609375,-0.2416922026367203,24.345529556274414,0.03114166259765625,0.04311103820800781
5490,-0.13318926493326824,0.15937503814697265,91.1628646850586,78.45845031738281,0.5708045959472656,83.12287139892578,-0.015934202406141493,-0.0003333333333333333,0.2842857142857143,-0.004394361707899305,2.3839621543884277,-0.7580343657226578,24.345529556274414,0.14116015964084203,0.02719925774468316
5491,-0.10975176493326823,0.15937503814697265,85.94607543945312,86.37569427490234,7.772022247314453,79.76776123046875,0.01543473137749566,0.0006666666666666666,0.28035714285714286,-0.0029905954996744793,2.5487520694732666,0.3185940086841583,24.345529556274414,-0.004773542616102431,0.14449178907606336
5492,-0.05115801493326823,0.15937503814697265,85.65966796875,80.87248992919922,8.406219482421875,75.12379455566406,0.057487275865342885,0.0,0.2725,-0.0,1.9994521141052246,0.10986000299453735,24.433420181274414,0.05319086710611979,0.20313805474175348
