,WD,WS,AIL_1,AIL_2,ELEV_1,ELEV_2,RUDD,ALT,GS,TH,PTCH,ROLL,PLA_1,AIL,ELEV
4146,0.24333877563476564,0.45820323944091795,85.57783508300781,80.36103820800781,-5.730258941650391,89.42393493652344,-0.007069057888454861,0.567,0.38321428571428573,0.04376093546549479,-0.7140909605712906,-5.141449587890627,48.86684036254883,0.05796440972222222,-0.11282437642415365
4147,0.24333877563476564,0.45820323944091795,85.57783508300781,80.27920532226562,-5.546134948730469,89.26026916503906,-0.01070603264702691,0.5656666666666667,0.38357142857142856,0.04055667453342014,-0.8788801604003922,-4.4273592406005875,47.284820556640625,0.05887366400824653,-0.10896004570855035
4148,0.23943252563476564,0.45820323944091795,85.5982894897461,80.25875091552734,-5.566593170166016,89.13752746582031,-0.006841744316948784,0.564,0.38357142857142856,0.03744396633572049,-0.8898664885253922,-3.7132688933105484,46.66958999633789,0.05932820638020833,-0.10782356262207031
4149,0.23943252563476564,0.45820323944091795,85.57783508300781,80.25875091552734,-5.791633605957031,89.28073120117188,-0.0075236850314670135,0.562,0.38392857142857145,0.034880574544270834,-0.9667688780517594,-3.0431219511718766,46.142250061035156,0.05910093519422743,-0.11191516452365452
4150,0.24333877563476564,0.45820323944091795,85.63920593261719,80.29966735839844,-5.5870513916015625,89.32164001464844,-0.013433795505099827,0.5596666666666666,0.38392857142857145,0.033812459309895834,-1.2633902006835953,-2.3729769163818375,46.142250061035156,0.05932820638020833,-0.11009657118055556
4151,0.24333877563476564,0.45820323944091795,85.63920593261719,80.60653686523438,-5.464302062988281,89.0761489868164,-0.008660252888997395,0.557,0.3842857142857143,0.03204252454969618,-1.4611383848876969,-1.7248026304931656,46.142250061035156,0.05591854519314236,-0.10600501166449652
4152,0.23552627563476564,0.45820323944091795,85.63920593261719,80.4837875366211,-5.505218505859375,89.09660339355469,-0.009114880032009548,0.5546666666666666,0.3846428571428571,0.029967414008246526,-1.4611383848876969,-1.3842359953613297,46.142250061035156,0.05728242662217882,-0.10668690999348958
4153,0.23943252563476564,0.45820323944091795,85.63920593261719,80.21783447265625,-5.402931213378906,89.03523254394531,-0.009569507175021702,0.5513333333333333,0.385,0.028868781195746526,-1.560013430664064,-1.2633902006835953,41.22040939331055,0.06023746066623264,-0.10486848619249133
4154,0.23943252563476564,0.45820323944091795,85.68012237548828,80.50424194335938,-5.3620147705078125,88.70790100097656,-0.010251405504014757,0.5483333333333333,0.38357142857142856,0.028594122992621526,-1.5709978514404312,-1.0546575957031266,35.7712287902832,0.05750978257921007,-0.10077684190538194
4155,0.23552627563476564,0.45820323944091795,85.65966796875,80.34058380126953,-5.239265441894531,88.50332641601562,-0.010933346218532987,0.5453333333333333,0.3821428571428571,0.027495490180121526,-1.4062086516113297,-0.9997259550781266,30.322050094604492,0.05910093519422743,-0.09713990953233508
4156,0.23943252563476564,0.45820323944091795,85.65966796875,80.21783447265625,-5.157432556152344,88.25782775878906,-0.01320648193359375,0.5423333333333333,0.37857142857142856,0.026915740966796876,-1.142544406005861,-0.9667688780517594,28.56424903869629,0.06046481662326389,-0.09350289238823785
4157,0.23943252563476564,0.45820323944091795,85.63920593261719,80.13600158691406,-4.952854156494141,87.99187469482422,-0.007296371459960938,0.5396666666666666,0.37607142857142856,0.026244354248046876,-0.7360617094726578,-0.8678938322753922,28.56424903869629,0.061146714952256945,-0.08827476501464844
4158,0.23552627563476564,0.45820323944091795,85.65966796875,79.93142700195312,-4.911937713623047,87.95095825195312,-0.010933346218532987,0.537,0.3717857142857143,0.025267791748046876,-0.3845106535644547,-0.7580343657226578,28.388469696044922,0.06364712185329861,-0.08736551072862413
4159,0.23162002563476564,0.45820323944091795,85.61874389648438,79.78821563720703,-4.871021270751953,87.93049621582031,-0.010251405504014757,0.5343333333333333,0.36892857142857144,0.02441338433159722,-0.2307058745117203,-0.6481748991699234,28.388469696044922,0.06478364732530383,-0.08668352762858073
4160,0.23162002563476564,0.45820323944091795,85.61874389648438,79.542724609375,-4.911937713623047,87.93049621582031,-0.006841744316948784,0.532,0.36464285714285716,0.02386406792534722,-0.17577614123535312,-0.49437012011718906,28.388469696044922,0.06751132541232639,-0.08713815477159288
4161,0.23162002563476564,0.45820323944091795,85.5982894897461,79.27676391601562,-4.871021270751953,87.93049621582031,-0.005705218844943577,0.5293333333333333,0.36142857142857143,0.02340630425347222,-0.2416922026367203,-0.2307058745117203,28.388469696044922,0.07023917304144965,-0.08668352762858073
4162,0.23162002563476564,0.45820323944091795,85.47554016113281,78.92898559570312,-4.461860656738281,87.62362670898438,-0.00843293931749132,0.527,0.35714285714285715,0.02346733940972222,-0.3076082640380875,0.12084600329399109,28.388469696044922,0.07273949517144097,-0.0787276373969184
4163,0.23162002563476564,0.45820323944091795,85.57783508300781,79.13356018066406,-3.8072052001953125,87.13264465332031,-0.0059324900309244795,0.524,0.35428571428571426,0.02386406792534722,-0.14281906420898594,0.6481740474700928,28.388469696044922,0.07160305447048611,-0.06599833170572916
4164,0.23162002563476564,0.45820323944091795,85.63920593261719,79.29722595214844,-3.3162155151367188,86.68256378173828,-0.009796820746527778,0.5216666666666666,0.35035714285714287,0.02453545464409722,0.38451001048088074,1.0766279697418213,28.388469696044922,0.07046644422743055,-0.0555419921875
4165,0.22771377563476564,0.478125114440918,85.63920593261719,79.62455749511719,-3.520793914794922,86.559814453125,-0.011387973361545138,0.5193333333333333,0.3460714285714286,0.025450897216796876,1.0766279697418213,1.4831100702285767,28.388469696044922,0.06682942708333334,-0.056451204087999134
4166,0.22771377563476564,0.478125114440918,86.76439666748047,81.11798858642578,-3.5412521362304688,86.68256378173828,-0.01252454121907552,0.5166666666666667,0.3432142857142857,0.026183319091796876,1.3842360973358154,1.3732500076293945,28.388469696044922,0.0627378675672743,-0.05804239908854167
4167,0.22380752563476564,0.45820323944091795,85.47554016113281,79.4404296875,-3.275299072265625,86.47798156738281,-0.007978312174479167,0.5143333333333333,0.3389285714285714,0.026030731201171876,1.4831100702285767,0.7250760197639465,28.388469696044922,0.06705678304036458,-0.05281422932942708
4168,0.22380752563476564,0.45820323944091795,83.81844329833984,77.41508483886719,-3.11163330078125,86.25294494628906,-0.0054779052734375,0.5123333333333333,0.33535714285714285,0.026824188232421876,1.6588860750198364,0.790992021560669,28.388469696044922,0.07114842732747396,-0.048495313856336805
4169,0.22771377563476564,0.478125114440918,84.57539367675781,76.9854736328125,-3.295757293701172,86.33477783203125,-0.005705218844943577,0.5103333333333333,0.33107142857142857,0.028594122992621526,1.8566340208053589,1.9445220232009888,28.388469696044922,0.0843324449327257,-0.0514503902859158
4170,0.22771377563476564,0.478125114440918,86.21202850341797,78.92898559570312,-3.2139244079589844,86.33477783203125,-0.0043413374159071184,0.508,0.32785714285714285,0.03076078626844618,1.7907180786132812,3.2408699989318848,28.388469696044922,0.08092269897460938,-0.05054113599989149
4171,0.22380752563476564,0.478125114440918,86.21202850341797,79.3995132446289,-2.9684295654296875,86.19157409667969,-0.007069057888454861,0.5053333333333333,0.32321428571428573,0.03253080579969618,1.6259280443191528,3.383687973022461,28.388469696044922,0.07569461398654515,-0.04622226291232639
4172,0.22380752563476564,0.478125114440918,86.37569427490234,79.19493103027344,-2.0682754516601562,85.49600219726562,-0.012979168362087673,0.5026666666666667,0.32035714285714284,0.034666951497395834,1.6369140148162842,2.84537410736084,28.388469696044922,0.07978625827365451,-0.028491973876953125
4173,0.21990127563476564,0.478125114440918,86.1097412109375,79.11309814453125,-1.720489501953125,84.96409606933594,-0.012979168362087673,0.5,0.3167857142857143,0.03658947414822049,2.1752281188964844,2.0873401165008545,28.388469696044922,0.077740478515625,-0.01871761745876736
4174,0.21990127563476564,0.478125114440918,85.86424255371094,78.25386810302734,-1.6795730590820312,84.92317199707031,-0.012751854790581597,0.49733333333333335,0.3142857142857143,0.03826794094509549,2.7904441356658936,1.3842360973358154,28.388469696044922,0.0845597161187066,-0.017808278401692707
4175,0.22380752563476564,0.478125114440918,85.98699188232422,77.537841796875,-2.0069007873535156,84.98455047607422,-0.013888380262586805,0.49466666666666664,0.30964285714285716,0.03967166476779514,3.087066173553467,1.1974740028381348,28.388469696044922,0.09387944539388021,-0.02212723626030816
4176,0.21990127563476564,0.478125114440918,86.04837036132812,78.04928588867188,-2.3751449584960938,85.88470458984375,-0.009569507175021702,0.49233333333333335,0.30714285714285716,0.04034305148654514,3.087066173553467,1.252403974533081,32.6071891784668,0.08887871636284722,-0.036220550537109375
4177,0.21599502563476564,0.478125114440918,85.74149322509766,76.96501159667969,-3.295757293701172,86.96897888183594,-0.006841744316948784,0.48933333333333334,0.3025,0.04052615695529514,2.427906036376953,1.175502061843872,35.7712287902832,0.09751646253797742,-0.05849706861707899
4178,0.21990127563476564,0.478125114440918,85.78240966796875,75.9216537475586,-4.011787414550781,87.72592163085938,-0.010478719075520834,0.48733333333333334,0.3,0.04180781046549479,1.3732500076293945,1.2963480949401855,38.93526840209961,0.10956395467122396,-0.07486343383789062
4179,0.22380752563476564,0.478125114440918,86.45751953125,77.12867736816406,-4.605068206787109,88.27828979492188,-0.010478719075520834,0.486,0.29678571428571426,0.04299799601236979,0.19774800539016724,1.4721240997314453,41.74774932861328,0.10365380181206597,-0.08759286668565539
4180,0.21990127563476564,0.45820323944091795,86.98943328857422,77.537841796875,-4.66644287109375,88.50332641601562,-0.012979168362087673,0.484,0.2960714285714286,0.04354731241861979,-0.9557825499267594,1.219446063041687,43.85710906982422,0.10501768324110243,-0.09077521430121528
4181,0.22380752563476564,0.45820323944091795,86.94851684570312,79.82913208007812,-4.011787414550781,87.76683807373047,-0.015934202406141493,0.4816666666666667,0.2960714285714286,0.04415766398111979,-1.7357889586181656,0.5932440161705017,44.99967956542969,0.07910427517361111,-0.07531806098090278
4182,0.22771377563476564,0.45820323944091795,86.45751953125,80.97477722167969,-3.9299545288085938,87.19401550292969,-0.015706888834635415,0.479,0.29678571428571426,0.04464586046006944,-1.5929705076904312,-0.13183273608398594,45.43912887573242,0.06091935899522569,-0.06804411146375867
4183,0.22771377563476564,0.45820323944091795,86.19157409667969,80.4837875366211,-3.9504127502441406,87.19401550292969,-0.00843293931749132,0.476,0.2982142857142857,0.04449327256944444,-1.0876146727294937,-0.5492998533935562,45.52701950073242,0.06341985066731771,-0.06827142503526476
4184,0.22771377563476564,0.45820323944091795,85.37325286865234,79.09264373779297,-3.9913291931152344,87.33721923828125,-0.0059324900309244795,0.4726666666666667,0.2985714285714286,0.04373041788736979,-0.834936755249025,-0.49437012011718906,45.52701950073242,0.0697845458984375,-0.07031720479329427
4185,0.22771377563476564,0.45820323944091795,86.88714599609375,80.68836975097656,-3.9299545288085938,87.37813568115234,-0.00843293931749132,0.4693333333333333,0.29928571428571427,0.04351679484049479,-0.9447962218017594,0.032958000898361206,45.52701950073242,0.0688752916124132,-0.0700898912217882
4186,0.21990127563476564,0.45820323944091795,87.95095825195312,82.20226287841797,-3.9708709716796875,87.29630279541016,-0.008660252888997395,0.466,0.29964285714285716,0.04180781046549479,-1.0326849394531266,-0.15380539233398594,45.26335144042969,0.06387439303927951,-0.06963526407877604
4187,0.21599502563476564,0.438281364440918,86.98943328857422,81.30210876464844,-4.011787414550781,87.35768127441406,-0.013661109076605903,0.4623333333333333,0.3003571428571429,0.04003787570529514,-1.0876146727294937,-1.3842359953613297,45.26335144042969,0.06319249471028646,-0.0707718743218316
4188,0.21990127563476564,0.438281364440918,84.12531280517578,78.9903564453125,-4.1959075927734375,87.91004180908203,-0.01070603264702691,0.459,0.30107142857142855,0.03924441867404514,-1.2414194517822281,-2.186215060302736,45.26335144042969,0.05705507066514757,-0.07895499335394965
4189,0.23162002563476564,0.45820323944091795,84.12531280517578,77.70149993896484,-4.011787414550781,87.48042297363281,-0.005705218844943577,0.45566666666666666,0.30178571428571427,0.03927493625217014,-1.6369139128417984,-1.516068118164064,45.26335144042969,0.07137569851345486,-0.07213567097981771
4190,0.23552627563476564,0.45820323944091795,85.72103881835938,78.74485778808594,-4.052700042724609,87.48042297363281,-0.006387117173936632,0.452,0.3025,0.03939700656467014,-1.7028299742431656,-0.02197326953125156,45.26335144042969,0.07751312255859374,-0.07259025573730468
4191,0.22771377563476564,0.438281364440918,87.72592163085938,81.26119232177734,-3.9504127502441406,87.39859008789062,-0.008660252888997395,0.4483333333333333,0.3028571428571429,0.03839001125759549,-1.6698728972167984,0.8349360227584839,44.99967956542969,0.07183032565646702,-0.07054447597927517
4192,0.21990127563476564,0.438281364440918,86.84622192382812,81.26119232177734,-3.9504127502441406,87.25538635253906,-0.010251405504014757,0.445,0.3032142857142857,0.03713879055447049,-1.516068118164064,0.3405660092830658,44.91178894042969,0.062055884467230905,-0.06895332336425782
4193,0.21599502563476564,0.438281364440918,84.75950622558594,78.72439575195312,-3.868579864501953,86.84622192382812,-0.010251405504014757,0.44133333333333336,0.30357142857142855,0.03634533352322049,-1.153530734130861,-0.3076082640380875,44.64812088012695,0.06705678304036458,-0.06349779764811198
4194,0.21990127563476564,0.438281364440918,84.37080383300781,76.86272430419922,-3.909496307373047,87.05081176757812,-0.011387973361545138,0.43833333333333335,0.30357142857142855,0.03680309719509549,-0.7470480375976578,-0.02197326953125156,44.56023025512695,0.08342310587565104,-0.06622564527723525
4195,0.22380752563476564,0.438281364440918,86.0074462890625,77.45600891113281,-3.909496307373047,87.17355346679688,-0.011387973361545138,0.43533333333333335,0.3028571428571429,0.03805431789822049,-0.5383154326171891,1.0986000299453735,44.56023025512695,0.09501597086588541,-0.06758944193522136
4196,0.21990127563476564,0.438281364440918,87.35768127441406,78.25386810302734,-3.909496307373047,86.92805480957031,-0.01070603264702691,0.43233333333333335,0.3025,0.03814587063259549,-0.3515516691894547,1.6259280443191528,44.56023025512695,0.10115347968207465,-0.06486167907714843
4197,0.20818252563476564,0.438281364440918,87.5213394165039,83.4501953125,-4.257282257080078,87.78729248046875,-0.010251405504014757,0.43,0.30142857142857143,0.03759655422634549,-0.17577614123535312,0.9557820558547974,44.56023025512695,0.045234934488932295,-0.07827305263943142
4198,0.21208877563476564,0.438281364440918,86.1097412109375,82.18180847167969,-4.7482757568359375,88.44195556640625,-0.012069914076063368,0.427,0.3007142857142857,0.03863415188259549,-0.7800070219726578,-0.21972145373535312,44.82389831542969,0.04364369710286458,-0.09100257025824653
4199,0.22380752563476564,0.438281364440918,86.13019561767578,81.34302520751953,-4.11407470703125,88.23736572265625,-0.011615286933051215,0.4236666666666667,0.3007142857142857,0.04049563937717014,-1.8017050200195328,-0.4723993712158219,44.82389831542969,0.05319078233506944,-0.08168267144097222
4200,0.23162002563476564,0.438281364440918,86.1097412109375,80.91340637207031,-3.9913291931152344,87.41905212402344,-0.010933346218532987,0.4206666666666667,0.30107142857142855,0.04119754367404514,-2.164242404052736,0.08788800239562988,44.82389831542969,0.05773705376519097,-0.07122645907931857
4201,0.22380752563476564,0.438281364440918,86.33477783203125,81.69081115722656,-3.9708709716796875,87.0712661743164,-0.009114880032009548,0.41733333333333333,0.30214285714285716,0.04003787570529514,-1.7687460356445328,0.8129640221595764,44.91178894042969,0.05159962972005208,-0.06713485717773438
4202,0.21208877563476564,0.438281364440918,86.35523986816406,82.30455017089844,-3.6026268005371094,86.70301818847656,-0.009114880032009548,0.4136666666666667,0.30214285714285716,0.03826794094509549,-1.153530734130861,0.8678940534591675,44.82389831542969,0.04500766330295139,-0.058951610989040795
4203,0.20427627563476564,0.438281364440918,86.0074462890625,81.56806182861328,-3.6230850219726562,86.47798156738281,-0.010933346218532987,0.4103333333333333,0.30214285714285716,0.03781017727322049,-0.4394403868408219,0.373524010181427,44.38444900512695,0.04932649400499132,-0.056678517659505205
4204,0.20818252563476564,0.438281364440918,85.86424255371094,80.58607482910156,-3.8072052001953125,87.17355346679688,-0.012069914076063368,0.4073333333333333,0.30178571428571427,0.03915286593967014,0.02197200059890747,0.2197200059890747,44.12078094482422,0.058646308051215276,-0.06645287407769097
4205,0.21599502563476564,0.438281364440918,86.33477783203125,81.38394165039062,-3.8072052001953125,87.25538635253906,-0.011615286933051215,0.405,0.3003571428571429,0.04058719211154514,-0.08788933093261875,0.5383139848709106,44.12078094482422,0.05500929090711806,-0.06736212836371527
4206,0.21599502563476564,0.438281364440918,87.45996856689453,83.18424987792969,-4.154991149902344,87.72592163085938,-0.010251405504014757,0.4023333333333333,0.3003571428571429,0.04061770968967014,-0.3076082640380875,0.5383139848709106,44.12078094482422,0.047507985432942705,-0.07645458645290798
4207,0.21208877563476564,0.438281364440918,86.86668395996094,83.08195495605469,-3.909496307373047,87.84866333007812,-0.010251405504014757,0.4,0.29928571428571427,0.03997684054904514,-0.7690206938476578,-0.2526785307617203,44.82389831542969,0.042052544487847225,-0.07509066263834635
4208,0.21599502563476564,0.438281364440918,86.6007308959961,81.81356048583984,-3.8276634216308594,87.23492431640625,-0.010933346218532987,0.39766666666666667,0.29928571428571427,0.04015994601779514,-0.9557825499267594,-1.142544406005861,44.82389831542969,0.05319078233506944,-0.0673620859781901
4209,0.22380752563476564,0.45820323944091795,86.0074462890625,81.46577453613281,-3.8890380859375,87.29630279541016,-0.01070603264702691,0.395,0.29964285714285716,0.04073978000217014,-0.6921183043212906,-1.4611383848876969,44.91178894042969,0.05046301947699653,-0.06872600979275173
4210,0.22771377563476564,0.45820323944091795,86.29386138916016,81.32257080078125,-3.9913291931152344,87.70545959472656,-0.01002409193250868,0.3923333333333333,0.3,0.04000735812717014,-0.6811319761962906,-1.142544406005861,44.91178894042969,0.055236562093098955,-0.0744087643093533
4211,0.22380752563476564,0.438281364440918,86.64164733886719,81.81356048583984,-3.8890380859375,87.6031723022461,-0.008887566460503472,0.3893333333333333,0.3,0.03826794094509549,-1.0216986113281266,-0.9008528166503922,44.91178894042969,0.0536454094780816,-0.07213567097981771
4212,0.21599502563476564,0.438281364440918,86.53935241699219,82.38638305664062,-3.8276634216308594,87.15309143066406,-0.008660252888997395,0.3863333333333333,0.3,0.03597912258572049,-1.120571749755861,-1.2524038725585953,44.91178894042969,0.04614410400390625,-0.0664528316921658
4213,0.21599502563476564,0.438281364440918,86.04837036132812,81.11798858642578,-3.909496307373047,87.35768127441406,-0.010251405504014757,0.38366666666666666,0.3003571428571429,0.034727986653645834,-0.9447962218017594,-1.8566347532959,44.91178894042969,0.05478201972113715,-0.06963530646430122
4214,0.22380752563476564,0.45820323944091795,85.02546691894531,80.66790771484375,-3.909496307373047,87.66455078125,-0.01070603264702691,0.38033333333333336,0.3007142857142857,0.034514363606770834,-1.0656420164794937,-1.8566347532959,44.91178894042969,0.04841732449001736,-0.07304496765136718
4215,0.22380752563476564,0.45820323944091795,85.25050354003906,79.52226257324219,-3.8481216430664062,87.62362670898438,-0.01070603264702691,0.37733333333333335,0.30142857142857143,0.033537801106770834,-1.3952223234863297,-1.0546575957031266,44.91178894042969,0.06364712185329861,-0.07190831502278645
4216,0.21990127563476564,0.438281364440918,85.53691101074219,80.85203552246094,-3.8276634216308594,87.17355346679688,-0.009796820746527778,0.374,0.30178571428571427,0.03173734876844618,-1.516068118164064,-0.18676246936035312,44.91178894042969,0.05205417209201389,-0.06668018764919705
4217,0.21599502563476564,0.438281364440918,85.72103881835938,81.22027587890625,-3.8481216430664062,87.09172058105469,-0.010251405504014757,0.37066666666666664,0.30214285714285716,0.029906378851996526,-1.2304331236572281,0.05493000149726868,44.91178894042969,0.05000847710503472,-0.06599824693467882
4218,0.21208877563476564,0.438281364440918,84.73905181884766,80.19737243652344,-3.9504127502441406,87.54179382324219,-0.011387973361545138,0.36766666666666664,0.3025,0.029509650336371526,-1.0326849394531266,-0.14281906420898594,44.91178894042969,0.050463104248046876,-0.07213562859429254
4219,0.21990127563476564,0.438281364440918,85.23004150390625,79.70639038085938,-4.093616485595703,87.76683807373047,-0.013888380262586805,0.364,0.30214285714285716,0.03085233900282118,-1.3293062620849625,0.3076080083847046,44.56023025512695,0.0613739013671875,-0.07622727288140191
4220,0.22380752563476564,0.45820323944091795,86.27340698242188,81.36347961425781,-3.9299545288085938,87.80775451660156,-0.011842600504557292,0.36033333333333334,0.30214285714285716,0.03204252454969618,-1.8566347532959,1.032684087753296,44.29655838012695,0.05455474853515625,-0.07486343383789062
4221,0.21990127563476564,0.438281364440918,85.78240966796875,80.93386840820312,-3.8481216430664062,87.27584838867188,-0.011387973361545138,0.357,0.3025,0.03243925306532118,-2.0873400145263687,1.219446063041687,44.12078094482422,0.0538726806640625,-0.06804411146375867
4222,0.21990127563476564,0.45820323944091795,85.78240966796875,80.81111145019531,-3.7867469787597656,86.80531311035156,-0.01252454121907552,0.3536666666666667,0.3028571428571429,0.033781941731770834,-1.6369139128417984,1.4611380100250244,44.12078094482422,0.05523664686414931,-0.062134000990125865
4223,0.21990127563476564,0.45820323944091795,85.86424255371094,81.19981384277344,-3.8481216430664062,87.0712661743164,-0.011387973361545138,0.35,0.3025,0.035155232747395834,-1.0436712675781266,1.812690019607544,44.12078094482422,0.05182698567708333,-0.06577097574869792
4224,0.21990127563476564,0.45820323944091795,86.96897888183594,82.18180847167969,-3.8481216430664062,87.15309143066406,-0.011387973361545138,0.347,0.30142857142857143,0.03607067532009549,-0.834936755249025,1.7907180786132812,42.89031982421875,0.05319078233506944,-0.06668014526367187
4225,0.21599502563476564,0.45820323944091795,86.35523986816406,82.01814270019531,-3.909496307373047,87.17355346679688,-0.011615286933051215,0.344,0.3007142857142857,0.03735241360134549,-0.823950427124025,1.2414180040359497,42.71453857421875,0.04818996853298611,-0.06758944193522136
4226,0.22380752563476564,0.45820323944091795,86.25294494628906,81.22027587890625,-4.380031585693359,88.05325317382812,-0.012979168362087673,0.3413333333333333,0.3,0.03948855929904514,-1.120571749755861,0.8678940534591675,42.71453857421875,0.05591854519314236,-0.08259205288357205
4227,0.22771377563476564,0.45820323944091795,86.96897888183594,81.73172760009766,-4.011787414550781,87.84866333007812,-0.011387973361545138,0.338,0.29928571428571427,0.04113650851779514,-1.8236757689209,1.021697998046875,43.153987884521484,0.058191680908203126,-0.07622723049587674
4228,0.22771377563476564,0.45820323944091795,86.96897888183594,82.20226287841797,-3.9913291931152344,87.68500518798828,-0.01002409193250868,0.33466666666666667,0.29928571428571427,0.04113650851779514,-2.1202989989013687,0.9777539968490601,43.241878509521484,0.052963511149088545,-0.0741814931233724
4229,0.21990127563476564,0.438281364440918,86.43707275390625,81.87493133544922,-3.684459686279297,87.03034973144531,-0.01002409193250868,0.33166666666666667,0.29964285714285716,0.04028201633029514,-2.0543829375000016,0.516342043876648,43.241878509521484,0.05069046020507813,-0.06349788241916232
4230,0.21990127563476564,0.438281364440918,86.04837036132812,80.60653686523438,-3.3980445861816406,86.37569427490234,-0.01070603264702691,0.3283333333333333,0.3,0.04025149875217014,-1.3073355131835953,0.08788800239562988,43.241878509521484,0.06046481662326389,-0.05304154290093316
4231,0.21990127563476564,0.45820323944091795,85.86424255371094,79.97233581542969,-3.704914093017578,86.86668395996094,-0.011160659790039062,0.3253333333333333,0.3,0.04077029758029514,-0.4284540587158219,0.17577600479125977,43.153987884521484,0.06546563042534723,-0.06190664503309462
4232,0.21990127563476564,0.45820323944091795,86.62118530273438,81.75218200683594,-3.704914093017578,86.98943328857422,-0.011160659790039062,0.32233333333333336,0.29964285714285716,0.04113650851779514,-0.2307058745117203,0.5273280143737793,42.97821044921875,0.05410003662109375,-0.06327052646213108
4233,0.21990127563476564,0.438281364440918,86.21202850341797,80.81111145019531,-3.8072052001953125,87.50088500976562,-0.010251405504014757,0.31966666666666665,0.2985714285714286,0.04083133273654514,-0.19774879748535312,0.41746801137924194,42.89031982421875,0.06001018948025173,-0.0700898912217882
4234,0.21990127563476564,0.438281364440918,86.19157409667969,81.19981384277344,-4.011787414550781,87.74638366699219,-0.013433795505099827,0.31733333333333336,0.2978571428571429,0.04089236789279514,-0.5273291044921891,0.29662200808525085,42.89031982421875,0.05546400282118055,-0.07509078979492187
4235,0.21990127563476564,0.438281364440918,86.17111206054688,81.0975341796875,-4.052700042724609,87.80775451660156,-0.01070603264702691,0.31466666666666665,0.29714285714285715,0.04107547336154514,-1.120571749755861,0.2746500074863434,46.318031311035156,0.05637308756510417,-0.07622727288140191
4236,0.21990127563476564,0.438281364440918,86.19157409667969,80.77020263671875,-4.011787414550781,87.70545959472656,-0.01252454121907552,0.312,0.29714285714285715,0.04131961398654514,-1.516068118164064,0.4394400119781494,46.318031311035156,0.06023746066623264,-0.07463607788085938
4237,0.21599502563476564,0.438281364440918,82.32501220703125,83.79798889160156,-3.909496307373047,87.37813568115234,-0.004795964558919271,0.309,0.3003571428571429,0.04083133273654514,-1.538040774414064,0.5712720155715942,46.318031311035156,-0.016366407606336807,-0.06986257765028211
4238,0.21599502563476564,0.438281364440918,86.19157409667969,78.68348693847656,-3.909496307373047,87.68500518798828,-0.0075236850314670135,0.306,0.3025,0.04125857883029514,-1.2853628569335953,1.5160679817199707,46.318031311035156,0.0834231906467014,-0.0732722388373481
4239,0.21208877563476564,0.438281364440918,87.78729248046875,84.35034942626953,-4.4209442138671875,88.1555404663086,-0.011160659790039062,0.303,0.30464285714285716,0.04214350382486979,-1.2524038725585953,1.263390064239502,46.40591812133789,0.0381882561577691,-0.08418316311306423
4240,0.21599502563476564,0.438281364440918,86.72348022460938,81.46577453613281,-4.400489807128906,88.13508605957031,-0.014570320977105035,0.2996666666666667,0.3057142857142857,0.04321161905924479,-1.6808592253417984,0.48338401317596436,45.26335144042969,0.058418952094184025,-0.08372862074110243
4241,0.21599502563476564,0.438281364440918,87.62362670898438,81.30210876464844,-4.093616485595703,88.03279113769531,-0.011842600504557292,0.29633333333333334,0.30714285714285716,0.04345575968424479,-2.0763555937500016,0.29662200808525085,44.99967956542969,0.0702390882703993,-0.07918230692545573
4242,0.21599502563476564,0.438281364440918,87.31675720214844,82.14088439941406,-4.073158264160156,87.50088500976562,-0.014343007405598959,0.2936666666666667,0.3078571428571429,0.04327265421549479,-1.9335371428222672,-0.4504267149658219,44.99967956542969,0.057509697808159725,-0.07304492526584201
4243,0.21599502563476564,0.438281364440918,87.19401550292969,82.07951354980469,-4.625526428222656,88.42149353027344,-0.010933346218532987,0.2906666666666667,0.30857142857142855,0.04281489054361979,-1.9115644865722672,-1.153530734130861,44.99967956542969,0.05682779947916667,-0.08941133287217883
4244,0.22380752563476564,0.438281364440918,86.94851684570312,81.85447692871094,-4.461860656738281,88.40103149414062,-0.015934202406141493,0.28733333333333333,0.30857142857142855,0.04263178507486979,-2.3290335112304703,-1.6588865690917984,44.64812088012695,0.05660044352213542,-0.08736546834309895
4245,0.22380752563476564,0.438281364440918,86.94851684570312,81.77264404296875,-4.134532928466797,87.82821655273438,-0.012979168362087673,0.284,0.3092857142857143,0.04156375461154514,-2.6146685057373062,-1.7357889586181656,44.29655838012695,0.057509697808159725,-0.07736388312445747
4246,0.22380752563476564,0.438281364440918,84.0434799194336,78.45845031738281,-4.298198699951172,86.27340698242188,-0.012979168362087673,0.281,0.31,0.03997684054904514,-1.9884668760986344,-1.2304331236572281,44.12078094482422,0.062055884467230905,-0.061906729804144967
4247,0.21990127563476564,0.438281364440918,86.23248291015625,85.08683776855469,-3.9913291931152344,88.1146240234375,-0.002750142415364583,0.278,0.31035714285714283,0.03857311672634549,-1.527054446289064,-0.01098694140625156,44.12078094482422,0.012729390462239584,-0.07895503573947482
4248,0.21208877563476564,0.438281364440918,88.50332641601562,83.14332580566406,-4.011787414550781,87.78729248046875,-0.003204769558376736,0.275,0.30964285714285716,0.03738293117947049,-1.6259294920654312,0.05493000149726868,44.03289031982422,0.05955556233723958,-0.07554533216688368
4249,0.21208877563476564,0.438281364440918,84.47309875488281,80.13600158691406,-3.9913291931152344,87.70545959472656,-0.015706888834635415,0.272,0.30964285714285716,0.03701672024197049,-1.6149431639404312,-0.7800070219726578,44.03289031982422,0.04818996853298611,-0.0744087643093533
4250,0.21990127563476564,0.438281364440918,84.94363403320312,79.64501190185547,-4.257282257080078,87.86912536621094,-0.014570320977105035,0.26966666666666667,0.3092857142857143,0.03774914211697049,-1.516068118164064,-0.21972145373535312,44.03289031982422,0.05887357923719618,-0.07918230692545573
4251,0.21990127563476564,0.438281364440918,87.562255859375,82.48867797851562,-5.075603485107422,88.09416198730469,-0.009342193603515625,0.267,0.30892857142857144,0.03768810696072049,-1.6039568358154312,0.24169200658798218,44.03289031982422,0.05637308756510417,-0.09077517191569011
4252,0.21990127563476564,0.438281364440918,86.70301818847656,81.67034912109375,-4.727817535400391,88.6056137084961,-0.011387973361545138,0.2643333333333333,0.30857142857142855,0.03735241360134549,-2.219172137329103,0.02197200059890747,44.03289031982422,0.05591854519314236,-0.09259368048773872
4253,0.21990127563476564,0.438281364440918,86.45751953125,81.30210876464844,-4.461860656738281,88.33966064453125,-0.014343007405598959,0.261,0.30857142857142855,0.03756603664822049,-2.7574869566650406,-0.07690300280761875,44.03289031982422,0.057282341851128474,-0.0866835700141059
4254,0.22380752563476564,0.438281364440918,88.0123291015625,81.30210876464844,-4.236824035644531,87.43951416015625,-0.007978312174479167,0.258,0.30857142857142855,0.03790173000759549,-2.7245279722900406,0.24169200658798218,44.03289031982422,0.07455800374348959,-0.07418153550889757
4255,0.21990127563476564,0.438281364440918,87.74638366699219,82.9592056274414,-4.236824035644531,87.86912536621094,-0.013433795505099827,0.25433333333333336,0.30857142857142855,0.03799328274197049,-2.2960745268554703,-0.15380539233398594,44.03289031982422,0.05319086710611979,-0.07895499335394965
4256,0.21990127563476564,0.438281364440918,87.17355346679688,82.57050323486328,-4.216365814208984,87.84866333007812,-0.011387973361545138,0.251,0.30857142857142855,0.03784069485134549,-2.241144793579103,-0.7470480375976578,43.68132781982422,0.05114500257703993,-0.07850032382541233
4257,0.21990127563476564,0.438281364440918,85.49600219726562,81.28164672851562,-4.277740478515625,87.78729248046875,-0.011615286933051215,0.24733333333333332,0.3082142857142857,0.03695568508572049,-2.3510042601318375,-1.0876146727294937,43.68132781982422,0.046826171875,-0.0785003662109375
4258,0.22380752563476564,0.438281364440918,85.41416931152344,80.42241668701172,-4.257282257080078,87.70545959472656,-0.013661109076605903,0.24366666666666667,0.3082142857142857,0.03661999172634549,-2.3729769163818375,-0.7031046324462906,42.97821044921875,0.055463918050130206,-0.07736379835340712
4259,0.21990127563476564,0.438281364440918,85.88470458984375,80.545166015625,-4.277740478515625,87.74638366699219,-0.00843293931749132,0.24033333333333334,0.3082142857142857,0.035704549153645834,-2.3729769163818375,0.02197200059890747,42.89031982421875,0.05932820638020833,-0.0780458238389757
4260,0.21990127563476564,0.438281364440918,86.76439666748047,82.18180847167969,-4.257282257080078,87.74638366699219,-0.012751854790581597,0.23666666666666666,0.3082142857142857,0.035429890950520834,-2.3729769163818375,-0.19774879748535312,42.89031982421875,0.05091764662000868,-0.07781851026746962
4261,0.21990127563476564,0.438281364440918,86.53935241699219,81.64989471435547,-4.277740478515625,87.76683807373047,-0.014797634548611112,0.23266666666666666,0.3082142857142857,0.035612996419270834,-2.3729769163818375,-0.3625379973144547,42.89031982421875,0.054327307807074655,-0.0782730950249566
4262,0.21990127563476564,0.438281364440918,87.41905212402344,83.85935974121094,-4.216365814208984,87.31675720214844,-0.011387973361545138,0.22966666666666666,0.3082142857142857,0.034972127278645834,-2.263117449829103,-0.4284540587158219,42.89031982421875,0.03955213758680556,-0.07259025573730468
4263,0.21599502563476564,0.438281364440918,86.49844360351562,82.73416900634766,-3.684459686279297,86.25294494628906,-0.008887566460503472,0.226,0.3082142857142857,0.033263142903645834,-1.6479002409667984,-0.9667688780517594,42.89031982421875,0.04182527330186632,-0.05486005147298177
4264,0.21208877563476564,0.438281364440918,85.455078125,83.75706481933594,-3.8481216430664062,86.70301818847656,-0.01320648193359375,0.223,0.3078571428571429,0.03216459486219618,-0.6371885710449234,-1.4171949797363297,42.89031982421875,0.01886681450737847,-0.06167933146158854
4265,0.20818252563476564,0.438281364440918,84.84133911132812,79.68592834472656,-4.789188385009766,88.74882507324219,-0.007296371459960938,0.22033333333333333,0.30607142857142855,0.029936896430121526,-0.5932451658935562,-0.9338098936767594,42.89031982421875,0.057282341851128474,-0.09486681620279948
4266,0.20037002563476564,0.41835948944091794,86.25294494628906,82.48867797851562,-4.11407470703125,86.90760040283203,-0.004568650987413194,0.21766666666666667,0.3057142857142857,0.027983771430121526,-1.131558077880861,-0.823950427124025,42.89031982421875,0.041825188530815974,-0.06690750122070313
4267,0.19646377563476564,0.41835948944091794,87.48042297363281,83.96165466308594,-4.339115142822266,88.13508605957031,-0.011615286933051215,0.215,0.30428571428571427,0.026915740966796876,-1.142544406005861,-1.0436712675781266,42.89031982421875,0.039097425672743054,-0.0830466800265842
4268,0.19646377563476564,0.41835948944091794,85.43462371826172,80.60653686523438,-3.7662887573242188,86.47798156738281,-0.015706888834635415,0.21233333333333335,0.30357142857142855,0.025664520263671876,-1.0436712675781266,-1.6039568358154312,42.89031982421875,0.0536454094780816,-0.05826967027452257
4269,0.20427627563476564,0.41835948944091794,85.41416931152344,80.8929443359375,-3.8276634216308594,87.13264465332031,-0.01979849073621962,0.20966666666666667,0.3028571428571429,0.025359344482421876,-0.5053564482421891,-1.2194467955322281,42.89031982421875,0.05023583306206597,-0.06622564527723525
4270,0.19646377563476564,0.41835948944091794,85.39370727539062,80.87248992919922,-3.8481216430664062,87.15309143066406,-0.007296371459960938,0.20733333333333334,0.30214285714285716,0.02328423394097222,-0.2966219359130875,-0.3515516691894547,42.89031982421875,0.050235748291015625,-0.06668014526367187
4271,0.18865127563476564,0.41835948944091794,85.41416931152344,80.93386840820312,-3.8481216430664062,87.19401550292969,-0.005705218844943577,0.205,0.3007142857142857,0.02172783745659722,-0.2856375151367203,0.4614120125770569,42.89031982421875,0.049781121148003475,-0.06713485717773438
4272,0.18474502563476564,0.41835948944091794,85.76194763183594,81.34302520751953,-3.868579864501953,87.19401550292969,-0.008660252888997395,0.20266666666666666,0.3007142857142857,0.02163636949327257,-0.2746511870117203,1.2743760347366333,42.89031982421875,0.04909913804796007,-0.06736217074924045
4273,0.18474502563476564,0.39843757629394533,85.78240966796875,81.38394165039062,-3.8481216430664062,87.35768127441406,-0.010251405504014757,0.20033333333333334,0.3,0.02255181206597222,-0.2416922026367203,1.922550082206726,42.89031982421875,0.04887186686197917,-0.06895336574978299
4274,0.18083877563476564,0.39843757629394533,86.19157409667969,82.0385971069336,-3.8481216430664062,86.96897888183594,-0.006841744316948784,0.198,0.29928571428571427,0.02349785698784722,-0.2966219359130875,2.515794038772583,42.89031982421875,0.046144188774956595,-0.0646344502766927
4275,0.17693252563476564,0.39843757629394533,86.13019561767578,82.48867797851562,-3.868579864501953,87.0712661743164,-0.009342193603515625,0.19533333333333333,0.29892857142857143,0.025176239013671876,-0.21972145373535312,2.4938220977783203,42.89031982421875,0.04046130710177952,-0.06599828932020399
4276,0.17693252563476564,0.39843757629394533,86.15065002441406,82.5091323852539,-3.868579864501953,87.13264465332031,-0.011842600504557292,0.193,0.2985714285714286,0.027373504638671876,-0.13183273608398594,2.3400180339813232,42.89031982421875,0.04046130710177952,-0.06668027242024739
4277,0.18083877563476564,0.39843757629394533,87.6031723022461,84.43218231201172,-3.8276634216308594,87.25538635253906,-0.01252454121907552,0.19066666666666668,0.2982142857142857,0.029784308539496526,-0.06591667468261875,2.120298147201538,42.89031982421875,0.035233222113715275,-0.06758944193522136
4278,0.18083877563476564,0.41835948944091794,87.95095825195312,84.84133911132812,-3.868579864501953,87.23492431640625,-0.013433795505099827,0.18833333333333332,0.2982142857142857,0.03127958509657118,0.032958000898361206,1.1315580606460571,42.89031982421875,0.03455132378472222,-0.06781671312120226
4279,0.18474502563476564,0.39843757629394533,87.27584838867188,83.06149291992188,-4.032245635986328,87.82821655273438,-0.01911655002170139,0.186,0.2982142857142857,0.03256132337782118,-0.09887375170898594,-0.08788933093261875,42.89031982421875,0.046826171875,-0.07622735765245225
4280,0.19255752563476564,0.41835948944091794,84.94363403320312,82.44775390625,-3.9299545288085938,87.45996856689453,-0.01547957526312934,0.18366666666666667,0.2978571428571429,0.033232625325520834,-0.48338379199218906,-0.5822588377685562,42.89031982421875,0.027732001410590276,-0.0709991455078125
4281,0.19255752563476564,0.39843757629394533,85.72103881835938,81.13844299316406,-4.768730163574219,87.80775451660156,-0.0066144307454427086,0.18133333333333335,0.2975,0.03228666517469618,-0.7140909605712906,0.04394400119781494,42.89031982421875,0.050917731391059026,-0.08418316311306423
4282,0.18474502563476564,0.39843757629394533,88.93293762207031,82.44775390625,-4.175449371337891,88.36012268066406,-0.00843293931749132,0.178,0.29714285714285715,0.03131010267469618,-1.560013430664064,0.38451001048088074,42.89031982421875,0.07205759684244792,-0.08372857835557726
4283,0.18474502563476564,0.39843757629394533,87.35768127441406,83.65477752685547,-4.154991149902344,87.21446990966797,-0.01547957526312934,0.17533333333333334,0.2978571428571429,0.03134062025282118,-1.7357889586181656,-0.6042314940185562,42.89031982421875,0.041143374972873265,-0.07077178955078126
4284,0.18865127563476564,0.39843757629394533,86.43707275390625,82.22271728515625,-4.134532928466797,87.23492431640625,-0.015934202406141493,0.17166666666666666,0.2985714285714286,0.03127958509657118,-1.516068118164064,-1.2853628569335953,42.89031982421875,0.046826171875,-0.07077174716525608
4285,0.18865127563476564,0.39843757629394533,85.455078125,82.12042999267578,-4.236824035644531,87.84866333007812,-0.011160659790039062,0.16833333333333333,0.29928571428571427,0.03048612806532118,-1.4391657286376969,-1.2743765288085953,42.89031982421875,0.03705164591471354,-0.0787276373969184
4286,0.18865127563476564,0.39843757629394533,86.90760040283203,81.40440368652344,-4.1959075927734375,87.72592163085938,-0.007069057888454861,0.16433333333333333,0.3,0.029082404242621526,-1.9115644865722672,-0.49437012011718906,42.89031982421875,0.0611466301812066,-0.07690921359592014
4287,0.18474502563476564,0.39843757629394533,87.97142028808594,83.30699157714844,-3.9708709716796875,86.68256378173828,-0.009342193603515625,0.16033333333333333,0.30107142857142855,0.027770148383246526,-1.9115644865722672,-0.4614130430908219,42.89031982421875,0.05182698567708333,-0.0628159417046441
4288,0.17693252563476564,0.39843757629394533,85.65966796875,81.60897827148438,-4.073158264160156,87.25538635253906,-0.012069914076063368,0.15733333333333333,0.30178571428571427,0.026610565185546876,-1.3402925902099625,-0.7580343657226578,42.89031982421875,0.04500766330295139,-0.0703171624077691
4289,0.17693252563476564,0.39843757629394533,85.14820861816406,80.83157348632812,-4.134532928466797,87.562255859375,-0.01070603264702691,0.15333333333333332,0.3025,0.025695037841796876,-1.2853628569335953,-0.2966219359130875,42.89031982421875,0.04796261257595486,-0.0744087643093533
4290,0.17302627563476564,0.39843757629394533,88.09416198730469,85.14820861816406,-4.032245635986328,86.78485107421875,-0.004568650987413194,0.15,0.3032142857142857,0.024962615966796876,-1.4281813078613297,0.1867620050907135,42.89031982421875,0.03273281521267361,-0.06463440789116753
4291,0.16912002563476564,0.39843757629394533,87.33721923828125,84.73905181884766,-4.093616485595703,87.66455078125,-0.01070603264702691,0.14666666666666667,0.3032142857142857,0.02426079644097222,-1.3073355131835953,-0.7140909605712906,42.89031982421875,0.028868526882595485,-0.0750907474093967
4292,0.17693252563476564,0.39843757629394533,84.94363403320312,81.42485809326172,-3.5617103576660156,86.37569427490234,-0.016388829549153647,0.14366666666666666,0.3032142857142857,0.02407769097222222,-1.2414194517822281,-1.2743765288085953,42.89031982421875,0.0390975104437934,-0.05486005147298177
4293,0.17693252563476564,0.39843757629394533,85.74149322509766,81.71127319335938,-3.9299545288085938,87.35768127441406,-0.010933346218532987,0.14133333333333334,0.30357142857142855,0.02361992730034722,-0.6262022429199234,-0.7909933500976578,42.89031982421875,0.04478022257486979,-0.06986262003580729
4294,0.17302627563476564,0.39843757629394533,88.81019592285156,83.69569396972656,-3.8890380859375,87.27584838867188,-0.00775099860297309,0.13833333333333334,0.3028571428571429,0.02267388237847222,-0.5053564482421891,-0.3845106535644547,42.89031982421875,0.05682779947916667,-0.06849873860677083
4295,0.17693252563476564,0.39843757629394533,83.71615600585938,84.02302551269531,-3.868579864501953,86.82576751708984,-0.018207295735677084,0.136,0.30214285714285716,0.02181939019097222,-0.3735243254394547,-1.4171949797363297,42.89031982421875,-0.003409661187065972,-0.06327052646213108
4296,0.18083877563476564,0.39843757629394533,84.32989501953125,80.0337142944336,-3.9299545288085938,87.21446990966797,-0.010251405504014757,0.13366666666666666,0.30178571428571427,0.02087343004014757,-0.13183273608398594,-0.7690206938476578,42.89031982421875,0.047735341389973956,-0.06827138264973959
4297,0.16912002563476564,0.3785157012939453,84.554931640625,80.29966735839844,-4.236824035644531,87.91004180908203,-0.003204769558376736,0.13166666666666665,0.3007142857142857,0.01895082261827257,-0.13183273608398594,0.6591600179672241,42.89031982421875,0.04728071424696181,-0.0794096204969618
4298,0.16130752563476564,0.3785157012939453,89.6080551147461,80.87248992919922,-4.052700042724609,87.82821655273438,-0.010251405504014757,0.12933333333333333,0.3,0.018401590983072917,-0.6371885710449234,1.7797319889068604,42.89031982421875,0.09706183539496528,-0.07645462883843315
4299,0.15349502563476564,0.3785157012939453,87.97142028808594,84.96409606933594,-4.032245635986328,87.6031723022461,-0.01002409193250868,0.127,0.29928571428571427,0.018676249186197917,-0.9887415343017594,1.1315580606460571,42.89031982421875,0.03341471354166667,-0.07372686598036024
4300,0.16130752563476564,0.3785157012939453,86.43707275390625,82.52958679199219,-4.339115142822266,88.36012268066406,-0.018889236450195312,0.12466666666666666,0.3,0.02041566636827257,-1.2194467955322281,0.10986000299453735,42.89031982421875,0.04341651068793403,-0.08554708692762587
4301,0.17302627563476564,0.3785157012939453,85.16867065429688,80.23829650878906,-4.134532928466797,88.0737075805664,-0.019343863593207465,0.12166666666666667,0.30107142857142855,0.02215508355034722,-1.6479002409667984,0.29662200808525085,42.89031982421875,0.054781934950086805,-0.08009156121148003
4302,0.17302627563476564,0.39843757629394533,87.68500518798828,85.08683776855469,-3.9913291931152344,87.21446990966797,-0.011842600504557292,0.11833333333333333,0.30178571428571427,0.02297905815972222,-1.7138163023681656,0.6042300462722778,42.89031982421875,0.028868526882595485,-0.06895332336425782
4303,0.17693252563476564,0.3785157012939453,86.23248291015625,82.16134643554688,-4.4209442138671875,88.0737075805664,-0.013433795505099827,0.11533333333333333,0.3032142857142857,0.02322319878472222,-1.3732515745849625,0.48338401317596436,42.89031982421875,0.04523484971788194,-0.08327390882703993
4304,0.17302627563476564,0.3785157012939453,88.6056137084961,82.12042999267578,-4.032245635986328,88.13508605957031,-0.01252454121907552,0.11166666666666666,0.30357142857142855,0.02346733940972222,-1.7577597075195328,0.8459219932556152,42.89031982421875,0.07205759684244792,-0.07963701883951822
4305,0.16521377563476564,0.3585938262939453,87.562255859375,83.34790802001953,-3.9913291931152344,87.19401550292969,-0.008660252888997395,0.10833333333333334,0.30392857142857144,0.02273491753472222,-1.8017050200195328,0.5383139848709106,42.89031982421875,0.04682608710394965,-0.0687260521782769
4306,0.15740127563476564,0.3585938262939453,83.73661041259766,79.31768798828125,-4.11407470703125,87.27584838867188,-0.006159803602430555,0.105,0.30428571428571427,0.02160585191514757,-1.4721247130126969,0.8349360227584839,42.89031982421875,0.04909913804796007,-0.0709991455078125
4307,0.14568252563476564,0.3585938262939453,91.0810317993164,80.87248992919922,-4.073158264160156,88.05325317382812,-0.0043413374159071184,0.101,0.30464285714285716,0.02114808824327257,-1.6918455534667984,2.2631161212921143,42.89031982421875,0.11342824300130208,-0.0791823493109809
4308,0.14177627563476564,0.3585938262939453,86.76439666748047,82.63188171386719,-4.011787414550781,87.21446990966797,-0.014570320977105035,0.098,0.30464285714285716,0.02221611870659722,-1.6918455534667984,1.219446063041687,42.89031982421875,0.04591683281792535,-0.06918063693576389
4309,0.14958877563476564,0.33867195129394534,85.49600219726562,86.23248291015625,-4.011787414550781,87.15309143066406,-0.017070770263671875,0.09433333333333334,0.30464285714285716,0.02325371636284722,-1.4501520567626969,0.3185940086841583,42.89031982421875,-0.008183119032118056,-0.06849865383572049
4310,0.14568252563476564,0.33867195129394534,86.5188980102539,82.93875122070312,-3.8481216430664062,86.5188980102539,-0.014115693834092882,0.09133333333333334,0.30464285714285716,0.02307061089409722,-1.0326849394531266,-0.08788933093261875,42.89031982421875,0.039779408772786455,-0.05963355170355903
4311,0.14177627563476564,0.33867195129394534,86.58027648925781,83.12287139892578,-3.868579864501953,86.662109375,-0.010478719075520834,0.08866666666666667,0.30464285714285716,0.02194146050347222,-0.4394403868408219,-0.3954969816894547,42.89031982421875,0.038415612114800345,-0.06145210266113281
4312,0.13396377563476564,0.33867195129394534,86.21202850341797,82.0999755859375,-4.727817535400391,88.27828979492188,-0.010251405504014757,0.086,0.30392857142857144,0.02059877183702257,-0.14281906420898594,-0.7470480375976578,42.89031982421875,0.0456894768608941,-0.08895674811469184
4313,0.13396377563476564,0.3585938262939453,86.15065002441406,82.20226287841797,-3.66400146484375,86.662109375,-0.018889236450195312,0.082,0.3032142857142857,0.02065980699327257,-0.8898664885253922,-0.6701475554199234,42.89031982421875,0.043870968288845485,-0.05917900933159722
4314,0.13005752563476564,0.33867195129394534,86.23248291015625,82.14088439941406,-2.6615562438964844,86.37569427490234,-0.005250591701931423,0.08066666666666666,0.3032142857142857,0.018737284342447917,-0.5273291044921891,-0.4284540587158219,42.89031982421875,0.04546220567491319,-0.04485833909776476
4315,0.12224502563476562,0.33867195129394534,85.25050354003906,81.19981384277344,-3.3162155151367188,86.92805480957031,-0.01729808383517795,0.07866666666666666,0.3028571428571429,0.018065897623697917,0.45042601227760315,-0.21972145373535312,42.89031982421875,0.04500766330295139,-0.05826967027452257
4316,0.13396377563476564,0.29882820129394533,84.43218231201172,80.46333312988281,-3.3366737365722656,86.96897888183594,-0.013661109076605903,0.07566666666666666,0.3025,0.017760721842447917,0.516342043876648,0.3405660092830658,42.89031982421875,0.04409832424587674,-0.05895169576009115
4317,0.12224502563476562,0.3187500762939453,87.48042297363281,82.61141967773438,-4.1959075927734375,87.64408874511719,0.0004322052001953125,0.074,0.30214285714285716,0.017455546061197917,0.29662200808525085,1.2304320335388184,42.89031982421875,0.05410003662109375,-0.07599995930989584
4318,0.11833877563476562,0.3187500762939453,89.1579818725586,84.98455047607422,-3.500335693359375,87.68500518798828,-0.007296371459960938,0.07166666666666667,0.30178571428571427,0.017516581217447917,-0.2636648588867203,0.7360620498657227,42.89031982421875,0.0463714599609375,-0.06872600979275173
4319,0.13005752563476564,0.29882820129394533,88.0123291015625,84.43218231201172,-4.339115142822266,88.46240997314453,-0.02320815192328559,0.06966666666666667,0.30214285714285716,0.018310038248697917,-0.2966219359130875,-1.0876146727294937,42.89031982421875,0.039779408772786455,-0.08668361239963107
4320,0.13396377563476564,0.29882820129394533,85.12775421142578,80.77020263671875,-3.868579864501953,87.31675720214844,-0.018207295735677084,0.06666666666666667,0.30214285714285716,0.017363993326822917,-0.856909411499025,-1.8895918303222672,42.89031982421875,0.04841723971896701,-0.06872596740722656
4321,0.12615127563476564,0.2789063262939453,85.02546691894531,81.0361557006836,-3.8276634216308594,87.0712661743164,-0.003659396701388889,0.06366666666666666,0.30357142857142855,0.014739566379123263,-0.9557825499267594,-1.2084604674072281,42.89031982421875,0.04432568020290799,-0.06554366217719185
4322,0.10662002563476562,0.2789063262939453,85.0459213256836,80.93386840820312,-4.523235321044922,88.70790100097656,0.004296493530273437,0.06066666666666667,0.305,0.01132168240017361,-1.3512789183349625,-0.3076082640380875,42.89031982421875,0.0456894768608941,-0.09145707024468316
4323,0.10271377563476562,0.25898443222045897,88.33966064453125,85.0459213256836,-3.66400146484375,85.86424255371094,-0.009796820746527778,0.057666666666666665,0.3075,0.010040028889973959,-1.527054446289064,-0.5273291044921891,42.89031982421875,0.03659710354275174,-0.05031382242838542
4324,0.09099502563476562,0.2789063262939453,84.63676452636719,79.74729919433594,-4.8096466064453125,87.54179382324219,-0.015934202406141493,0.054,0.3092857142857143,0.009124501546223959,-1.2084604674072281,-1.6918455534667984,42.89031982421875,0.054327392578125,-0.08168267144097222
4325,0.11443252563476562,0.25898443222045897,84.92317199707031,80.70883178710938,-4.134532928466797,87.66455078125,-0.020253117879231772,0.050333333333333334,0.31142857142857144,0.009032948811848959,-1.5929705076904312,-1.5709978514404312,42.89031982421875,0.046826002332899304,-0.07554537455240885
4326,0.12224502563476562,0.239062557220459,84.94363403320312,80.81111145019531,-4.66644287109375,87.39859008789062,-0.01002409193250868,0.04666666666666667,0.3132142857142857,0.007140943739149305,-1.7907186918945328,-0.5273291044921891,42.89031982421875,0.045916917588975696,-0.0785003662109375
4327,0.11443252563476562,0.219140682220459,88.64653015136719,85.84378051757812,-3.909496307373047,87.23492431640625,-0.00843293931749132,0.043333333333333335,0.31535714285714284,0.005370924207899305,-2.0543829375000016,-0.09887375170898594,42.89031982421875,0.03114166259765625,-0.06827134026421441
4328,0.09490127563476562,0.239062557220459,85.39370727539062,81.42485809326172,-3.9708709716796875,86.45751953125,-0.01911655002170139,0.03966666666666667,0.3171428571428571,0.004089270697699653,-1.4281813078613297,-1.549027102539064,42.89031982421875,0.04409832424587674,-0.060315450032552086
4329,0.11443252563476562,0.219140682220459,83.79798889160156,80.87248992919922,-3.909496307373047,87.95095825195312,-0.022980838351779515,0.035666666666666666,0.31857142857142856,0.0035704718695746527,-1.2963491850585953,-1.8456484251709,42.89031982421875,0.03250554402669271,-0.07622727288140191
4330,0.11052627563476562,0.219140682220459,83.83889770507812,79.60409545898438,-3.7867469787597656,87.17355346679688,-0.008205625745985243,0.03266666666666666,0.32,0.001556396484375,-0.9228254729003922,-0.6811319761962906,42.89031982421875,0.047053358289930555,-0.0662255605061849
4331,0.07927627563476562,0.19921878814697266,85.1072998046875,80.17691802978516,-3.8276634216308594,87.1121826171875,0.002932612101236979,0.029333333333333333,0.32071428571428573,-0.0014952765570746527,-0.6591612272949234,1.0986000299453735,42.89031982421875,0.05478201972113715,-0.06599828932020399
4332,0.04802627563476562,0.19921878814697266,87.93049621582031,85.41416931152344,-3.745830535888672,86.662109375,-0.00775099860297309,0.026333333333333334,0.32107142857142856,-0.0025328742133246527,-0.4284540587158219,1.0766279697418213,42.89031982421875,0.027959187825520832,-0.06008822123209635
4333,0.06365127563476562,0.19921878814697266,83.85935974121094,78.92898559570312,-4.093616485595703,86.72348022460938,-0.022526211208767362,0.024,0.32107142857142856,-0.000946044921875,-0.01098694140625156,0.6921180486679077,42.89031982421875,0.054781934950086805,-0.06463440789116753
4334,0.07927627563476562,0.219140682220459,84.90271759033203,81.4453125,-3.8890380859375,87.35768127441406,-0.018207295735677084,0.021666666666666667,0.32035714285714284,0.001220703125,-0.07690300280761875,1.5600121021270752,42.89031982421875,0.038415612114800345,-0.06940799289279515
4335,0.09099502563476562,0.15937503814697265,84.90271759033203,81.30210876464844,-3.8890380859375,87.66455078125,-0.011387973361545138,0.019666666666666666,0.32,0.0023192511664496527,-0.3625379973144547,2.3400180339813232,42.89031982421875,0.040006764729817706,-0.07281765407986111
4336,0.06365127563476562,0.19921878814697266,90.71278381347656,87.33721923828125,-3.8276634216308594,87.0098876953125,-0.010478719075520834,0.017333333333333333,0.3192857142857143,0.0034484015570746527,-0.3954969816894547,1.7028300762176514,42.89031982421875,0.03750627305772569,-0.06486167907714843
4337,0.08318252563476562,0.17929691314697266,85.53691101074219,81.62944030761719,-4.952854156494141,87.41905212402344,-0.02570855882432726,0.015333333333333332,0.3182142857142857,0.005065748426649305,0.2856360077857971,-0.4614130430908219,42.89031982421875,0.043416341145833336,-0.08191006978352865
4338,0.07927627563476562,0.17929691314697266,82.77508544921875,80.05416870117188,-4.257282257080078,87.50088500976562,-0.012297227647569445,0.013,0.3171428571428571,0.004180823432074653,0.790992021560669,-0.2966219359130875,42.89031982421875,0.030232408311631945,-0.0750907474093967
4339,0.05974502563476562,0.15937503814697265,90.79461669921875,82.57050323486328,-4.952854156494141,88.72836303710938,0.0015687730577256945,0.011333333333333334,0.3157142857142857,0.0023497687445746527,0.8129640221595764,1.1425440311431885,42.89031982421875,0.09137903849283854,-0.09645796881781685
4340,0.03630752563476562,0.15937503814697265,83.90027618408203,79.64501190185547,-4.236824035644531,86.37569427490234,-0.014797634548611112,0.009,0.31464285714285717,0.00140380859375,0.9777539968490601,-0.3076082640380875,42.89031982421875,0.04728071424696181,-0.06236131456163194
4341,0.06365127563476562,0.13945316314697265,91.55156707763672,82.28408813476562,-4.482318878173828,89.77172088623047,-0.01752539740668403,0.007333333333333333,0.31285714285714283,0.0024718390570746527,1.2084600925445557,-0.2526785307617203,42.89031982421875,0.10297198825412326,-0.10282266404893663
4342,0.05583877563476562,0.15937503814697265,81.67034912109375,78.41752624511719,-3.8276634216308594,86.31431579589844,-0.01002409193250868,0.004666666666666667,0.31214285714285717,0.001556396484375,1.5600121021270752,-1.6039568358154312,44.82389831542969,0.03614247639973958,-0.05713310241699219
4343,0.09880752563476562,0.1195312786102295,84.69813537597656,77.00592803955078,-3.684459686279297,87.17355346679688,-0.015252261691623263,0.0033333333333333335,0.3107142857142857,0.00152587890625,1.9994521141052246,0.36253800988197327,44.99967956542969,0.0854689704047309,-0.06508903503417969
4344,0.03630752563476562,0.1195312786102295,91.89935302734375,87.50088500976562,-1.5159111022949219,83.12287139892578,0.009297349717881945,0.002,0.31035714285714283,-0.000518798828125,2.8783321380615234,1.3183200359344482,44.99967956542969,0.04887186686197917,0.00401352776421441
4345,0.028495025634765626,0.15937503814697265,81.15890502929688,77.35371398925781,-2.354686737060547,86.45751953125,-0.027754380967881943,0.0,0.3092857142857143,-0.0,3.3397440910339355,-0.03295769030761875,41.74774932861328,0.04227990044487847,-0.042357847425672744
