,WD,WS,AIL_1,AIL_2,ELEV_1,ELEV_2,RUDD,ALT,GS,TH,PTCH,ROLL,PLA_1,AIL,ELEV
7897,0.1511126200358073,0.09960939407348633,85.88470458984375,82.30455017089844,-6.262165069580078,90.61050415039062,-0.0034320831298828127,0.7783333333333333,0.5117857142857143,0.000518798828125,-5.635819094726564,4.229609966278076,36.65013122558594,0.03977949354383681,-0.13191854688856336
7898,0.1472063700358073,0.09960939407348633,85.70057678222656,82.22271728515625,-6.303081512451172,90.65141296386719,-0.0054779052734375,0.7726666666666666,0.5114285714285715,0.0025939093695746527,-5.50398697192383,3.9549601078033447,36.65013122558594,0.03864288330078125,-0.13282771640353733
7899,0.1589251200358073,0.09960939407348633,85.70057678222656,81.81356048583984,-6.282623291015625,90.6309585571289,-0.006841744316948784,0.767,0.5103571428571428,0.004821650187174479,-5.4380709105224625,3.9549601078033447,36.65013122558594,0.04318906995985243,-0.13237313164605036
7900,0.1550188700358073,0.09960939407348633,86.08927917480469,82.65233612060547,-6.323539733886719,90.71278381347656,-0.005705218844943577,0.7616666666666667,0.5103571428571428,0.0067746904161241316,-5.383141177246095,3.8011560440063477,36.65013122558594,0.0381882561577691,-0.13373692830403647
7901,0.1550188700358073,0.09960939407348633,86.31431579589844,82.69325256347656,-6.303081512451172,90.73324584960938,-0.006841744316948784,0.7563333333333333,0.5089285714285714,0.008666737874348959,-5.372154849121095,3.218898057937622,36.65013122558594,0.04023403591579861,-0.13373697068956164
7902,0.1511126200358073,0.09960939407348633,86.0688247680664,83.0001220703125,-6.282623291015625,90.69232940673828,-0.0066144307454427086,0.751,0.5085714285714286,0.009887398613823786,-5.361168520996095,2.427906036376953,36.82590866088867,0.03409669664171007,-0.1330550299750434
7903,0.1550188700358073,0.09960939407348633,85.94607543945312,82.0999755859375,-6.303081512451172,90.69232940673828,-0.00775099860297309,0.7456666666666667,0.5075,0.01086391872829861,-5.306238787719728,1.6808580160140991,36.82590866088867,0.04273444281684028,-0.13328234354654947
7904,0.1628313700358073,0.09960939407348633,85.94607543945312,82.01814270019531,-6.3644561767578125,90.73324584960938,-0.007978312174479167,0.7406666666666667,0.5071428571428571,0.01168789333767361,-5.273281710693361,1.340291976928711,36.65013122558594,0.04364369710286458,-0.13441891140407985
7905,0.1511126200358073,0.09960939407348633,85.92561340332031,81.83401489257812,-6.528118133544922,90.89691162109375,-0.006841744316948784,0.7356666666666667,0.5060714285714286,0.01190151638454861,-5.372154849121095,1.307334065437317,36.65013122558594,0.04546220567491319,-0.1380558861626519
7906,0.1393938700358073,0.09960939407348633,86.04837036132812,82.44775390625,-6.405372619628906,90.77416229248047,-0.004795964558919271,0.7306666666666667,0.5053571428571428,0.01196255154079861,-5.602860110351564,0.9777539968490601,36.65013122558594,0.04000684950086805,-0.13532816569010417
7907,0.1393938700358073,0.09960939407348633,86.0074462890625,82.36592102050781,-6.241706848144531,90.671875,-0.007978312174479167,0.7253333333333334,0.505,0.01220669216579861,-5.657789843627931,0.4394400119781494,36.65013122558594,0.04046139187282986,-0.13237313164605036
7908,0.1393938700358073,0.09960939407348633,85.96653747558594,81.81356048583984,-6.221248626708984,90.569580078125,-0.007296371459960938,0.7193333333333334,0.5039285714285714,0.01202358669704861,-5.47102798754883,0.29662200808525085,36.65013122558594,0.046144188774956595,-0.13100920783148873
7909,0.1276751200358073,0.09960939407348633,85.96653747558594,81.8953857421875,-6.221248626708984,90.569580078125,-0.0059324900309244795,0.714,0.5035714285714286,0.01153530544704861,-5.350182192871095,0.3076080083847046,36.65013122558594,0.04523501925998264,-0.13100920783148873
7910,0.11595637003580729,0.09960939407348633,85.65966796875,81.87493133544922,-6.241706848144531,90.6309585571289,-0.0059324900309244795,0.7086666666666667,0.5017857142857143,0.01110805935329861,-5.317225115844728,0.2526780068874359,36.65013122558594,0.04205262925889757,-0.1319185045030382
7911,0.11205012003580729,0.09960939407348633,86.23248291015625,83.18424987792969,-6.3644561767578125,90.71278381347656,-0.006387117173936632,0.704,0.5010714285714286,0.01095547146267361,-5.339195864746095,0.2197200059890747,36.65013122558594,0.03386925591362847,-0.1341915554470486
7912,0.11986262003580729,0.09960939407348633,86.17111206054688,82.34546661376953,-6.343997955322266,90.75370788574219,-0.00843293931749132,0.6986666666666667,0.5,0.010741890801323786,-5.4380709105224625,-0.4394403868408219,36.65013122558594,0.042507171630859375,-0.13441895378960503
7913,0.12376887003580729,0.09960939407348633,86.15065002441406,82.07951354980469,-6.323539733886719,90.77416229248047,-0.007296371459960938,0.6936666666666667,0.49892857142857144,0.010253609551323786,-5.558916705200197,-0.8788801604003922,36.65013122558594,0.04523484971788194,-0.13441891140407985
7914,0.1276751200358073,0.09960939407348633,86.08927917480469,81.8953857421875,-6.323539733886719,90.73324584960938,-0.008660252888997395,0.688,0.49785714285714283,0.009551705254448786,-5.657789843627931,-1.131558077880861,36.65013122558594,0.04659881591796875,-0.1339642842610677
7915,0.12376887003580729,0.09960939407348633,86.08927917480469,81.56806182861328,-6.303081512451172,90.69232940673828,-0.0059324900309244795,0.6823333333333333,0.49714285714285716,0.008361562093098959,-5.723705905029298,-1.0436712675781266,36.65013122558594,0.050235748291015625,-0.13328234354654947
7916,0.11986262003580729,0.09960939407348633,86.1097412109375,81.9567642211914,-6.282623291015625,90.65141296386719,-0.007069057888454861,0.6763333333333333,0.49642857142857144,0.0074765947129991316,-5.789621966430666,-0.845923083374025,36.65013122558594,0.046144188774956595,-0.13260040283203126
7917,0.11986262003580729,0.09960939407348633,85.92561340332031,81.71127319335938,-6.1394195556640625,90.30363464355469,-0.007069057888454861,0.6703333333333333,0.49607142857142855,0.0066221025254991316,-5.756664889404298,-0.823950427124025,36.65013122558594,0.046826002332899304,-0.12714504665798612
7918,0.10814387003580729,0.09960939407348633,85.88470458984375,81.36347961425781,-6.2007904052734375,90.20133972167969,-0.0066144307454427086,0.6643333333333333,0.4953571428571429,0.005645582411024305,-5.317225115844728,-0.5053564482421891,36.65013122558594,0.05023583306206597,-0.1266903347439236
7919,0.09642512003580729,0.09960939407348633,86.04837036132812,81.40440368652344,-6.180332183837891,90.30363464355469,-0.005705218844943577,0.659,0.49464285714285716,0.004791132609049479,-4.998631136962892,0.02197200059890747,36.65013122558594,0.05159962972005208,-0.1275996314154731
7920,0.08861262003580729,0.09960939407348633,86.04837036132812,82.34546661376953,-6.159877777099609,90.36500549316406,-0.007296371459960938,0.654,0.49392857142857144,0.004394404093424479,-4.844826357910158,0.010986000299453735,36.65013122558594,0.041143374972873265,-0.12805425855848523
7921,0.08861262003580729,0.09960939407348633,86.04837036132812,82.24317932128906,-6.159877777099609,90.30363464355469,-0.00775099860297309,0.649,0.4925,0.004180781046549479,-4.712994235107423,-0.3295809202880875,36.65013122558594,0.04227990044487847,-0.1273723602294922
7922,0.08861262003580729,0.09960939407348633,86.02790832519531,81.91584777832031,-6.2007904052734375,90.34454345703125,-0.007069057888454861,0.645,0.49142857142857144,0.0036009894476996527,-4.570175784179689,-0.4723993712158219,36.65013122558594,0.045689561631944445,-0.12828148735894096
7923,0.08080012003580729,0.1195312786102295,86.02790832519531,81.77264404296875,-6.159877777099609,90.52867126464844,-0.0066144307454427086,0.6406666666666667,0.49,0.0028990851508246527,-4.570175784179689,-0.4614130430908219,36.65013122558594,0.04728071424696181,-0.12987276713053386
7924,0.07689387003580729,0.1195312786102295,86.02790832519531,81.93630981445312,-6.180332183837891,90.52867126464844,-0.007296371459960938,0.6363333333333333,0.48857142857142855,0.0023192511664496527,-4.647078173706056,-0.4723993712158219,36.65013122558594,0.04546220567491319,-0.13010003831651476
7925,0.08470637003580729,0.09960939407348633,86.02790832519531,81.87493133544922,-6.118961334228516,90.50820922851562,-0.007978312174479167,0.6316666666666667,0.48714285714285716,0.0018920474582248264,-4.723980563232423,-0.5383154326171891,36.65013122558594,0.046144188774956595,-0.12919078403049045
7926,0.08080012003580729,0.1195312786102295,86.0074462890625,81.91584777832031,-6.159877777099609,90.48774719238281,-0.0066144307454427086,0.6276666666666667,0.4857142857142857,0.0012511783175998264,-4.800882952758791,-0.5492998533935562,36.65013122558594,0.04546220567491319,-0.12941805521647134
7927,0.08080012003580729,0.1195312786102295,85.98699188232422,81.52714538574219,-6.159877777099609,90.50820922851562,-0.007296371459960938,0.623,0.48464285714285715,0.000579833984375,-4.888771670410158,-0.5273291044921891,36.65013122558594,0.04955384996202257,-0.12964541117350262
7928,0.07298762003580729,0.09960939407348633,85.98699188232422,81.5066909790039,-6.180332183837891,90.48774719238281,-0.006159803602430555,0.618,0.4832142857142857,-0.000274658203125,-4.954685824462892,-0.3076082640380875,36.65013122558594,0.049781121148003475,-0.12964532640245224
7929,0.07298762003580729,0.1195312786102295,86.0074462890625,81.56806182861328,-6.159877777099609,90.50820922851562,-0.0075236850314670135,0.613,0.4825,-0.0005797915988498264,-5.086517947265627,-0.05493034655761875,36.65013122558594,0.04932649400499132,-0.12964541117350262
7930,0.06908137003580729,0.09960939407348633,86.0074462890625,81.64989471435547,-6.159877777099609,90.26271057128906,-0.005705218844943577,0.608,0.48142857142857143,-0.0009765201144748264,-5.119476931640627,0.3076080083847046,36.65013122558594,0.04841723971896701,-0.12691764831542968
7931,0.05736262003580729,0.1195312786102295,85.27096557617188,81.69081115722656,-6.159877777099609,90.34454345703125,-0.006159803602430555,0.6026666666666667,0.48142857142857143,-0.0012816958957248264,-5.009617465087892,0.5822579860687256,36.65013122558594,0.03977949354383681,-0.127826902601454
7932,0.05345637003580729,0.1195312786102295,85.63920593261719,81.11798858642578,-6.159877777099609,90.26271057128906,-0.005705218844943577,0.5973333333333334,0.48035714285714287,-0.0013122134738498264,-4.943701403686525,1.252403974533081,36.65013122558594,0.050235748291015625,-0.12691764831542968
7933,0.04173762003580729,0.1195312786102295,85.68012237548828,81.32257080078125,-6.1394195556640625,90.05813598632812,-0.0043413374159071184,0.5923333333333334,0.48,-0.0010070376925998264,-4.767923968383791,1.9774800539016724,36.65013122558594,0.04841723971896701,-0.1244172837999132
7934,0.04173762003580729,0.1195312786102295,85.74149322509766,81.60897827148438,-6.1394195556640625,90.18087768554688,-0.0054779052734375,0.5873333333333334,0.4785714285714286,-6.103515625e-05,-4.537218707153322,2.515794038772583,36.65013122558594,0.04591683281792535,-0.12578108045789932
7935,0.03392512003580729,0.1195312786102295,85.74149322509766,82.01814270019531,-6.159877777099609,90.26271057128906,-0.005705218844943577,0.5823333333333334,0.47785714285714287,0.0011901431613498264,-4.548205035278322,2.746500015258789,36.65013122558594,0.04137056138780382,-0.12691764831542968
7936,0.04173762003580729,0.1195312786102295,85.78240966796875,82.14088439941406,-6.1394195556640625,90.32408142089844,-0.00843293931749132,0.5796666666666667,0.4757142857142857,0.0029601203070746527,-4.625107424804689,2.7355141639709473,36.65013122558594,0.04046139187282986,-0.12737223307291667
7937,0.04564387003580729,0.1195312786102295,86.0074462890625,82.73416900634766,-6.159877777099609,90.34454345703125,-0.004795964558919271,0.575,0.4742857142857143,0.004424921671549479,-4.537218707153322,2.658612012863159,36.65013122558594,0.03636974758572049,-0.127826902601454
7938,0.04955012003580729,0.1195312786102295,86.04837036132812,82.61141967773438,-6.282623291015625,90.569580078125,-0.006387117173936632,0.5696666666666667,0.4714285714285714,0.005920240614149305,-4.4383455687255875,2.2521300315856934,36.65013122558594,0.038188340928819446,-0.13169114854600694
7939,0.07689387003580729,0.1195312786102295,86.17111206054688,83.0001220703125,-6.691783905029297,91.18331909179688,-0.008205625745985243,0.5646666666666667,0.4689285714285714,0.007873323228624132,-4.570175784179689,1.8236761093139648,36.65013122558594,0.035233222113715275,-0.14305669996473525
7940,0.04955012003580729,0.1195312786102295,86.0074462890625,82.59095764160156,-6.343997955322266,91.04011535644531,-0.003659396701388889,0.5606666666666666,0.46464285714285714,0.0074765947129991316,-5.196379321166994,1.3512780666351318,36.65013122558594,0.037960984971788195,-0.13760125901963977
7941,0.07298762003580729,0.1195312786102295,86.39614868164062,83.67523193359375,-6.180332183837891,90.40591430664062,-0.008660252888997395,0.5556666666666666,0.4625,0.008880360921223959,-5.328211443969728,0.6701459884643555,36.65013122558594,0.030232408311631945,-0.12873607211642796
7942,0.06126887003580729,0.1195312786102295,86.29386138916016,82.24317932128906,-6.159877777099609,90.59004211425781,-0.005705218844943577,0.5503333333333333,0.45964285714285713,0.008483632405598959,-5.108490603515627,0.1867620050907135,36.65013122558594,0.045007578531901044,-0.1305546654595269
7943,0.04955012003580729,0.1195312786102295,86.25294494628906,82.05905151367188,-6.159877777099609,90.44683837890625,-0.012069914076063368,0.545,0.4575,0.008025868733723959,-5.207365649291994,0.010986000299453735,36.65013122558594,0.04659881591796875,-0.12896351284450955
7944,0.06126887003580729,0.1195312786102295,86.13019561767578,81.85447692871094,-6.098503112792969,90.36500549316406,-0.0066144307454427086,0.5393333333333333,0.4546428571428571,0.008361562093098959,-5.251309054443361,0.36253800988197327,36.65013122558594,0.047507985432942705,-0.12737231784396702
7945,0.04564387003580729,0.1195312786102295,86.92805480957031,82.26363372802734,-6.098503112792969,90.1604232788086,-0.004114023844401042,0.5333333333333333,0.45321428571428574,0.008025868733723959,-5.251309054443361,0.8569080233573914,36.65013122558594,0.05182690090603299,-0.12509918212890625
7946,0.04564387003580729,0.1195312786102295,86.37569427490234,82.16134643554688,-6.078044891357422,89.93538665771484,-0.007978312174479167,0.5276666666666666,0.45035714285714284,0.008483632405598959,-4.976658480712892,0.6921180486679077,36.65013122558594,0.04682608710394965,-0.12237146165635851
7947,0.04564387003580729,0.1195312786102295,86.41661071777344,82.24317932128906,-6.037128448486328,90.0172119140625,-0.007296371459960938,0.522,0.44857142857142857,0.008849843343098959,-4.658064501831056,0.8239500522613525,36.65013122558594,0.0463714599609375,-0.12282600402832031
7948,0.04564387003580729,0.1195312786102295,86.662109375,84.06393432617188,-6.078044891357422,89.97630310058594,-0.003204769558376736,0.5166666666666667,0.44571428571428573,0.009246571858723959,-4.603134768554689,0.6152160167694092,36.65013122558594,0.028868611653645834,-0.12282608879937065
7949,0.03783137003580729,0.1195312786102295,86.559814453125,83.16378784179688,-5.996212005615234,89.87400817871094,-0.01002409193250868,0.5113333333333333,0.4442857142857143,0.009124501546223959,-4.603134768554689,-0.18676246936035312,36.65013122558594,0.03773362901475694,-0.1207802242702908
7950,0.04564387003580729,0.1195312786102295,86.559814453125,83.14332580566406,-6.016670227050781,89.66943359375,-0.007978312174479167,0.5063333333333333,0.44142857142857145,0.009124501546223959,-4.482288973876955,-0.845923083374025,36.65013122558594,0.037960984971788195,-0.11873448689778646
7951,0.05345637003580729,0.1195312786102295,86.53935241699219,82.87738037109375,-5.791633605957031,89.26026916503906,-0.007978312174479167,0.501,0.44,0.008636220296223959,-4.086792605468752,-1.2633902006835953,36.65013122558594,0.040688578287760416,-0.11168780856662326
7952,0.05736262003580729,0.13945316314697265,86.53935241699219,82.79554748535156,-5.873462677001953,89.34210205078125,-0.010251405504014757,0.49633333333333335,0.43714285714285717,0.0077817704942491316,-3.537493365356447,-1.5929705076904312,36.65013122558594,0.04159783257378472,-0.1135062747531467
7953,0.05345637003580729,0.13945316314697265,86.49844360351562,82.81600189208984,-5.934837341308594,89.93538665771484,-0.008887566460503472,0.492,0.43535714285714283,0.006408521864149305,-3.537493365356447,-1.9774805479736344,36.65013122558594,0.04091601901584201,-0.12078026665581597
7954,0.06517512003580729,0.1195312786102295,85.53691101074219,81.30210876464844,-5.8939208984375,89.58760070800781,-0.012751854790581597,0.4876666666666667,0.43214285714285716,0.005309889051649305,-3.91101707751465,-2.0324102812500016,36.65013122558594,0.047053358289930555,-0.1164613511827257
7955,0.05736262003580729,0.1195312786102295,86.19157409667969,81.48623657226562,-5.3620147705078125,89.05569458007812,-0.01002409193250868,0.48333333333333334,0.4307142857142857,0.0036925421820746527,-3.7242552214355484,-1.2743765288085953,36.65013122558594,0.05228152804904514,-0.10464121500651041
7956,0.05736262003580729,0.13945316314697265,86.0688247680664,82.79554748535156,-5.546134948730469,88.97386169433594,-0.007069057888454861,0.479,0.4278571428571429,0.0030516730414496527,-3.0211512022705094,-1.0656420164794937,36.65013122558594,0.03636974758572049,-0.10577774047851562
7957,0.05736262003580729,0.13945316314697265,86.02790832519531,82.69325256347656,-5.484760284423828,89.0147705078125,-0.010933346218532987,0.475,0.4257142857142857,0.0021056705050998266,-2.7025572233886734,-1.2853628569335953,36.65013122558594,0.03705173068576389,-0.10555034213595921
7958,0.06908137003580729,0.13945316314697265,85.5164566040039,81.01570129394531,-5.525676727294922,88.85111236572266,-0.0050232781304253475,0.4713333333333333,0.4225,0.0016479068332248264,-2.4608656340332047,-0.8788801604003922,36.65013122558594,0.050008392333984374,-0.1041865454779731
7959,0.06126887003580729,0.13945316314697265,86.98943328857422,81.97721862792969,-5.627967834472656,89.03523254394531,-0.008887566460503472,0.4683333333333333,0.4203571428571429,0.0008544921875,-2.3070608549804703,-0.02197326953125156,36.65013122558594,0.05569127400716146,-0.10736889309353298
7960,0.04955012003580729,0.13945316314697265,86.31431579589844,82.87738037109375,-5.627967834472656,89.30118560791016,-0.004568650987413194,0.465,0.41678571428571426,0.0003662109375,-2.4279066496582047,0.08788800239562988,36.65013122558594,0.03818817138671875,-0.1103239271375868
7961,0.05736262003580729,0.13945316314697265,86.31431579589844,82.57050323486328,-5.853004455566406,90.0785903930664,-0.009796820746527778,0.462,0.41464285714285715,0.000579833984375,-2.878332751342775,-0.04394401843261875,36.65013122558594,0.04159791734483507,-0.12146216498480902
7962,0.06126887003580729,0.1195312786102295,87.05081176757812,82.63188171386719,-6.343997955322266,90.50820922851562,-0.007069057888454861,0.4593333333333333,0.41,0.000579833984375,-3.812142031738283,-0.04394401843261875,36.65013122558594,0.04909922281901042,-0.13169119093153211
7963,0.06126887003580729,0.1195312786102295,86.31431579589844,83.22515869140625,-5.955295562744141,90.671875,-0.0043413374159071184,0.45666666666666667,0.4075,9.1552734375e-05,-4.800882952758791,-0.5383154326171891,36.65013122558594,0.034323967827690975,-0.12919078403049045
7964,0.06908137003580729,0.1195312786102295,86.25294494628906,82.01814270019531,-5.934837341308594,89.79217529296875,-0.009114880032009548,0.45366666666666666,0.4032142857142857,-0.000213623046875,-4.811869280883791,-0.7800070219726578,36.82590866088867,0.047053358289930555,-0.11918902926974827
7965,0.08080012003580729,0.1195312786102295,86.29386138916016,82.22271728515625,-6.282623291015625,90.69232940673828,-0.011842600504557292,0.451,0.4,-0.000274658203125,-4.636091845581056,-0.4723993712158219,41.13251876831055,0.045234934488932295,-0.1330550299750434
7966,0.08861262003580729,0.1195312786102295,86.64164733886719,83.30699157714844,-6.5894927978515625,91.06057739257812,-0.007978312174479167,0.4493333333333333,0.39535714285714285,-0.00048828125,-5.174406664916994,-0.20873512561035312,41.22040939331055,0.03705173068576389,-0.14055633544921875
7967,0.07689387003580729,0.09960939407348633,86.31431579589844,83.0001220703125,-6.262165069580078,90.569580078125,-0.003659396701388889,0.44733333333333336,0.39357142857142857,-0.0013732486300998264,-5.690748828002931,-0.4174677305908219,41.22040939331055,0.03682437472873264,-0.13146383497450087
7968,0.08470637003580729,0.09960939407348633,85.39370727539062,80.36103820800781,-6.773616790771484,91.36744689941406,-0.013888380262586805,0.44466666666666665,0.39071428571428574,-0.0014953189425998264,-5.877510684082033,-0.3845106535644547,41.22040939331055,0.05591854519314236,-0.1460118187798394
7969,0.07689387003580729,0.09960939407348633,87.0712661743164,81.52714538574219,-6.507663726806641,90.83554077148438,-0.00047704908582899306,0.44133333333333336,0.38857142857142857,-0.0021361456976996527,-6.327936785766603,0.4723980128765106,41.22040939331055,0.061601342095269095,-0.13714671664767794
7970,0.05345637003580729,0.09960939407348633,86.74394226074219,83.57295227050781,-6.466747283935547,90.81507873535156,-0.006841744316948784,0.43733333333333335,0.38642857142857145,-0.0025939093695746527,-6.668503420898439,0.4614120125770569,41.22040939331055,0.035233222113715275,-0.13646473354763455
7971,0.06517512003580729,0.09960939407348633,85.65966796875,81.22027587890625,-6.1394195556640625,90.77416229248047,-0.012069914076063368,0.43266666666666664,0.385,-0.0019225650363498264,-6.965124743530275,0.26366400718688965,41.48408126831055,0.049326578776041664,-0.13237313164605036
7972,0.06908137003580729,0.09960939407348633,86.08927917480469,81.64989471435547,-6.057586669921875,90.0172119140625,-0.0059324900309244795,0.428,0.3842857142857143,-0.0015868716769748264,-7.053013461181642,0.9997260570526123,41.48408126831055,0.04932649400499132,-0.12305331759982639
7973,0.05345637003580729,0.1195312786102295,86.1097412109375,82.73416900634766,-6.466747283935547,90.79461669921875,-0.003886710272894965,0.4226666666666667,0.38392857142857145,-0.0014648013644748264,-6.811319964477541,1.3732500076293945,41.48408126831055,0.037506357828776045,-0.1362373775906033
7974,0.04564387003580729,0.09960939407348633,86.08927917480469,82.63188171386719,-6.3644561767578125,90.93782806396484,-0.007069057888454861,0.41733333333333333,0.38285714285714284,-0.0008239322238498264,-7.305691378662111,1.3732500076293945,41.48408126831055,0.03841552734375,-0.13669204711914062
7975,0.05736262003580729,0.09960939407348633,85.96653747558594,82.0385971069336,-6.282623291015625,90.73324584960938,-0.009796820746527778,0.4116666666666667,0.3825,0.00042724609375,-7.865976946899416,1.5600121021270752,41.48408126831055,0.04364378187391493,-0.13350965711805557
7976,0.04955012003580729,0.09960939407348633,86.94851684570312,82.73416900634766,-6.037128448486328,89.64897155761719,-0.0054779052734375,0.4056666666666667,0.38321428571428573,0.0011596255832248264,-8.00879539782715,1.966494083404541,41.48408126831055,0.04682608710394965,-0.11873444451226128
7977,0.03783137003580729,0.1195312786102295,86.559814453125,83.18424987792969,-6.057586669921875,90.1604232788086,-0.007978312174479167,0.399,0.38321428571428573,0.0021667056613498266,-7.404564517089845,1.6149420738220215,41.48408126831055,0.03750627305772569,-0.1246445549858941
7978,0.04564387003580729,0.1195312786102295,86.5188980102539,83.18424987792969,-6.037128448486328,90.18087768554688,-0.012297227647569445,0.39266666666666666,0.38357142857142856,0.0036009894476996527,-7.195830004760744,1.0107120275497437,41.48408126831055,0.03705164591471354,-0.12464451260036892
7979,0.06126887003580729,0.1195312786102295,87.84866333007812,83.20470428466797,-6.016670227050781,89.97630310058594,-0.005250591701931423,0.38666666666666666,0.38392857142857145,0.004730097452799479,-7.184845583984377,0.6701459884643555,41.48408126831055,0.051599544949001735,-0.12214414808485242
7980,0.06126887003580729,0.1195312786102295,86.49844360351562,83.36836242675781,-5.996212005615234,90.05813598632812,-0.014797634548611112,0.38066666666666665,0.38392857142857145,0.005218336317274305,-6.987097399780275,-0.16478981311035312,41.48408126831055,0.03477867974175347,-0.12282608879937065
7981,0.07298762003580729,0.1195312786102295,86.0074462890625,81.64989471435547,-5.9757537841796875,89.85355377197266,-0.008205625745985243,0.375,0.38357142857142856,0.005370924207899305,-6.690474169799806,-0.15380539233398594,41.48408126831055,0.04841723971896701,-0.12032563951280383
7982,0.07298762003580729,0.1195312786102295,86.19157409667969,81.73172760009766,-5.955295562744141,89.83309936523438,-0.007069057888454861,0.36966666666666664,0.38321428571428573,0.005492994520399305,-6.37188019091797,0.5712720155715942,41.48408126831055,0.04955384996202257,-0.11987105475531684
7983,0.06126887003580729,0.13945316314697265,86.39614868164062,82.26363372802734,-5.955295562744141,89.64897155761719,-0.004568650987413194,0.365,0.38285714285714284,0.005554029676649305,-6.042299883911134,1.3732500076293945,41.48408126831055,0.04591683281792535,-0.11782519022623698
7984,0.03783137003580729,0.1195312786102295,86.39614868164062,82.550048828125,-5.9757537841796875,89.567138671875,-0.003659396701388889,0.3606666666666667,0.3821428571428571,0.005767652723524305,-5.547930377075197,1.735788106918335,41.48408126831055,0.04273444281684028,-0.11714324951171876
7985,0.04564387003580729,0.13945316314697265,86.47798156738281,83.0001220703125,-5.9757537841796875,89.46485137939453,-0.009569507175021702,0.3566666666666667,0.38107142857142856,0.0075071122911241316,-5.097504275390627,1.8676199913024902,41.48408126831055,0.03864288330078125,-0.11600672403971354
7986,0.04564387003580729,0.13945316314697265,88.03279113769531,83.47065734863281,-5.7507171630859375,89.1579818725586,-0.011387973361545138,0.35333333333333333,0.3792857142857143,0.008971913655598959,-4.504261630126955,1.6369140148162842,41.48408126831055,0.050690375434027775,-0.1100966559516059
7987,0.05345637003580729,0.13945316314697265,87.21446990966797,83.53202819824219,-5.8120880126953125,89.17843627929688,-0.009569507175021702,0.3506666666666667,0.3775,0.010253609551323786,-3.845101016113283,0.8788800239562988,41.48408126831055,0.04091601901584201,-0.11100582546657986
7988,0.04955012003580729,0.13945316314697265,86.92805480957031,82.69325256347656,-5.853004455566406,89.66943359375,-0.010251405504014757,0.34833333333333333,0.3742857142857143,0.010619820488823786,-3.4166475706787125,0.1538040041923523,41.48408126831055,0.047053358289930555,-0.11691597832573784
7989,0.04173762003580729,0.13945316314697265,86.94851684570312,82.59095764160156,-6.303081512451172,90.79461669921875,-0.003886710272894965,0.3466666666666667,0.3725,0.010101021660698786,-3.526507037231447,-0.12084640795898594,41.48408126831055,0.04841732449001736,-0.13441886901855468
7990,0.04955012003580729,0.13945316314697265,87.0712661743164,83.49111938476562,-5.955295562744141,90.50820922851562,-0.012751854790581597,0.3453333333333333,0.36892857142857144,0.010375679863823786,-4.526232379028322,-0.5712725096435562,41.48408126831055,0.039779408772786455,-0.12737227545844185
7991,0.06126887003580729,0.1195312786102295,87.0098876953125,83.14332580566406,-5.853004455566406,89.36256408691406,-0.004795964558919271,0.343,0.3675,0.010009468926323786,-4.636091845581056,-0.9667688780517594,41.48408126831055,0.042961798773871525,-0.11350631713867188
7992,0.05345637003580729,0.13945316314697265,87.03034973144531,83.1024169921875,-5.914379119873047,89.89447021484375,-0.011387973361545138,0.34,0.3653571428571429,0.009124501546223959,-4.218624728271486,-1.4171949797363297,41.48408126831055,0.04364369710286458,-0.12009832594129774
7993,0.06126887003580729,0.13945316314697265,87.03034973144531,83.16378784179688,-5.914379119873047,89.91493225097656,-0.0066144307454427086,0.3373333333333333,0.36392857142857143,0.008147939046223959,-4.36144317919922,-1.6918455534667984,41.48408126831055,0.042961798773871525,-0.120325681898329
7994,0.06908137003580729,0.13945316314697265,87.0098876953125,82.93875122070312,-5.914379119873047,89.95584106445312,-0.01661614312065972,0.3343333333333333,0.36214285714285716,0.0072324540879991316,-4.734966891357423,-2.1202989989013687,41.48408126831055,0.04523484971788194,-0.1207802242702908
7995,0.08080012003580729,0.13945316314697265,87.0098876953125,82.81600189208984,-5.914379119873047,89.95584106445312,-0.00775099860297309,0.33066666666666666,0.3610714285714286,0.006103346082899305,-5.119476931640627,-1.8786074095459,41.48408126831055,0.046598731146918405,-0.1207802242702908
7996,0.04173762003580729,0.13945316314697265,87.0098876953125,82.79554748535156,-5.873462677001953,89.62850952148438,-0.00297745598687066,0.327,0.36,0.0027770148383246527,-5.372154849121095,-1.5709978514404312,41.48408126831055,0.046826002332899304,-0.11668857998318143
7997,0.03392512003580729,0.13945316314697265,85.92561340332031,82.0385971069336,-5.566593170166016,89.05569458007812,-0.0066144307454427086,0.323,0.35928571428571426,0.0010375552707248264,-5.4160982542724625,-1.4721247130126969,38.84737777709961,0.04318906995985243,-0.10691430833604601
7998,0.03001887003580729,0.13945316314697265,84.92317199707031,80.52470397949219,-5.034687042236328,88.40103149414062,-0.011615286933051215,0.31833333333333336,0.3585714285714286,-9.1552734375e-05,-4.987644808837892,-1.0876146727294937,37.441139221191406,0.04887186686197917,-0.09373020595974392
7999,0.03783137003580729,0.15937503814697265,85.557373046875,80.83157348632812,-5.382472991943359,88.81019592285156,-0.008887566460503472,0.31333333333333335,0.3578571428571429,-0.000274658203125,-4.4273592406005875,-0.15380539233398594,37.265357971191406,0.05250888400607639,-0.10214076571994357
8000,0.04564387003580729,0.15937503814697265,86.64164733886719,83.79798889160156,-5.484760284423828,89.52622985839844,-0.009342193603515625,0.30966666666666665,0.35535714285714287,0.00042724609375,-4.526232379028322,0.20873400568962097,37.265357971191406,0.031596204969618055,-0.11123322380913628
8001,0.04173762003580729,0.15937503814697265,84.26852416992188,82.85691833496094,-4.911937713623047,89.0761489868164,-0.00843293931749132,0.30566666666666664,0.35428571428571426,0.0001220703125,-4.800882952758791,0.032958000898361206,37.265357971191406,0.01568450927734375,-0.09986763000488282
8002,0.01830012003580729,0.13945316314697265,85.5982894897461,81.62944030761719,-5.177890777587891,88.72836303710938,-0.002750142415364583,0.3016666666666667,0.3525,-0.0011596255832248264,-4.4273592406005875,0.7031040191650391,37.265357971191406,0.04409832424587674,-0.0989583757188585
8003,0.02220637003580729,0.13945316314697265,85.16867065429688,81.11798858642578,-5.177890777587891,88.74882507324219,-0.009342193603515625,0.2976666666666667,0.3510714285714286,-0.00048828125,-4.207638400146486,1.2414180040359497,37.265357971191406,0.045007578531901044,-0.09918573167588976
8004,0.02611262003580729,0.15937503814697265,87.35768127441406,82.24317932128906,-5.136974334716797,89.1170654296875,-0.00843293931749132,0.2936666666666667,0.3485714285714286,0.0011596255832248264,-4.32848419482422,2.285088062286377,37.265357971191406,0.05682779947916667,-0.10282266404893663
8005,0.01830012003580729,0.15937503814697265,87.03034973144531,86.39614868164062,-4.7482757568359375,88.48286437988281,-0.0066144307454427086,0.2896666666666667,0.3475,0.0025328742133246527,-4.196652072021486,2.1642420291900635,37.265357971191406,0.007046678331163195,-0.09145711263020834
8006,0.014393870035807292,0.13945316314697265,87.05081176757812,82.81600189208984,-4.543693542480469,88.1555404663086,-0.007296371459960938,0.2856666666666667,0.3457142857142857,0.0036009894476996527,-3.965946810791017,1.6039559841156006,37.265357971191406,0.0470534430609809,-0.0855470445421007
8007,0.006581370035807292,0.13945316314697265,87.09172058105469,83.14332580566406,-4.318656921386719,87.91004180908203,-0.00843293931749132,0.2816666666666667,0.345,0.004424921671549479,-3.559464114257814,1.252403974533081,37.265357971191406,0.04387105305989583,-0.0803188747829861
8008,0.01830012003580729,0.13945316314697265,86.70301818847656,82.85691833496094,-4.3595733642578125,87.91004180908203,-0.008887566460503472,0.278,0.3435714285714286,0.005676099989149305,-3.163967745849611,0.9008520245552063,37.265357971191406,0.04273444281684028,-0.08077350192599826
8009,0.03392512003580729,0.13945316314697265,87.33721923828125,82.79554748535156,-4.318656921386719,87.54179382324219,-0.015024948120117187,0.27466666666666667,0.34214285714285714,0.0072934892442491316,-2.911289828369142,1.0546560287475586,37.265357971191406,0.05046301947699653,-0.07622723049587674
8010,0.02611262003580729,0.15937503814697265,88.36012268066406,84.06393432617188,-4.4209442138671875,88.0123291015625,-0.005705218844943577,0.27166666666666667,0.34,0.0076902177598741316,-2.6146685057373062,0.8129640221595764,37.265357971191406,0.0477354261610243,-0.08259192572699653
8011,0.014393870035807292,0.15937503814697265,86.47798156738281,83.24562072753906,-4.4209442138671875,88.36012268066406,-0.009114880032009548,0.2683333333333333,0.33785714285714286,0.0075986650254991316,-2.7794596129150406,0.04394400119781494,37.265357971191406,0.03591512044270833,-0.086456298828125
8012,0.03001887003580729,0.13945316314697265,86.27340698242188,82.12042999267578,-4.339115142822266,87.86912536621094,-0.012297227647569445,0.2653333333333333,0.3357142857142857,0.008178456624348959,-2.889319079467775,0.0,37.265357971191406,0.046144188774956595,-0.08009156121148003
8013,0.010487620035807292,0.13945316314697265,87.17355346679688,84.1048583984375,-4.380031585693359,87.91004180908203,-0.0013863033718532986,0.26266666666666666,0.33464285714285713,0.0072019365098741316,-2.812416689941408,0.45042601227760315,37.265357971191406,0.034096611870659724,-0.08100081549750435
8014,-0.009043629964192708,0.15937503814697265,86.19157409667969,83.26608276367188,-3.8890380859375,87.54179382324219,-0.006159803602430555,0.25933333333333336,0.33285714285714285,0.006286451551649305,-2.812416689941408,0.08788800239562988,37.441139221191406,0.03250545925564236,-0.07145368787977431
8015,0.0026751200358072916,0.15937503814697265,86.45751953125,82.550048828125,-3.9299545288085938,87.41905212402344,-0.011842600504557292,0.256,0.3314285714285714,0.0069272783067491316,-2.581711428710939,0.1867620050907135,37.704811096191406,0.043416341145833336,-0.07054451836480034
8016,-0.0012311299641927084,0.15937503814697265,88.91248321533203,84.6572265625,-4.216365814208984,87.84866333007812,-0.007069057888454861,0.25266666666666665,0.33,0.0071103837754991316,-2.3510042601318375,0.5822579860687256,37.79269790649414,0.04728062947591146,-0.07850032382541233
8017,-0.012949879964192708,0.15937503814697265,87.43951416015625,84.20714569091797,-4.073158264160156,87.76683807373047,-0.009114880032009548,0.24933333333333332,0.32857142857142857,0.0066831376817491316,-2.4498793059082047,-0.6481748991699234,38.14426040649414,0.03591520521375868,-0.07599995930989584
8018,0.010487620035807292,0.15937503814697265,86.43707275390625,82.89783477783203,-4.032245635986328,87.562255859375,-0.01775266859266493,0.24566666666666667,0.3267857142857143,0.0073850419786241316,-2.6146685057373062,-1.6698728972167984,39.550498962402344,0.03932486640082465,-0.0732722388373481
8019,0.02611262003580729,0.15937503814697265,86.15065002441406,81.8953857421875,-3.9708709716796875,87.54179382324219,-0.00775099860297309,0.242,0.32571428571428573,0.0066831376817491316,-2.6915708952636734,-1.4171949797363297,39.726280212402344,0.04728071424696181,-0.07236294216579861
8020,0.006581370035807292,0.15937503814697265,86.74394226074219,82.32501220703125,-3.8481216430664062,87.31675720214844,-0.005250591701931423,0.238,0.32535714285714284,0.004516474405924479,-2.7355143004150406,-0.6371885710449234,39.726280212402344,0.04909922281901042,-0.06849865383572049
8021,-0.0012311299641927084,0.15937503814697265,86.62118530273438,83.53202819824219,-3.520793914794922,87.29630279541016,-0.006387117173936632,0.23466666666666666,0.3246428571428571,0.0034789191351996527,-2.6805845671386734,-0.4174677305908219,40.34151077270508,0.034323967827690975,-0.06463440789116753
8022,-0.0012311299641927084,0.15937503814697265,86.662109375,83.36836242675781,-3.5617103576660156,87.03034973144531,-0.01070603264702691,0.23066666666666666,0.3242857142857143,0.0030211554633246527,-2.471850054809572,-0.4614130430908219,41.39619064331055,0.036597188313802084,-0.062134000990125865
8023,0.0026751200358072916,0.15937503814697265,86.64164733886719,83.5115737915039,-3.5617103576660156,87.05081176757812,-0.00843293931749132,0.227,0.3242857142857143,0.0026244269476996527,-2.164242404052736,-0.801977770874025,41.39619064331055,0.034778594970703125,-0.062361356947157116
8024,0.014393870035807292,0.15937503814697265,85.88470458984375,83.02058410644531,-3.2343826293945312,86.80531311035156,-0.015706888834635415,0.22333333333333333,0.32357142857142857,0.0027464972601996527,-1.8786074095459,-1.2743765288085953,41.39619064331055,0.03182356092664931,-0.05599661933051215
8025,0.014393870035807292,0.15937503814697265,86.13019561767578,81.97721862792969,-3.4185028076171875,86.90760040283203,-0.002522828843858507,0.22033333333333333,0.32357142857142857,0.0014342837863498264,-1.516068118164064,-0.9557825499267594,41.39619064331055,0.046144188774956595,-0.059178924560546874
8026,0.010487620035807292,0.15937503814697265,85.86424255371094,81.9976806640625,-3.3980445861816406,86.92805480957031,-0.0050232781304253475,0.21733333333333332,0.32285714285714284,0.00030517578125,-1.2194467955322281,-0.6811319761962906,41.39619064331055,0.042961798773871525,-0.0591788821750217
8027,0.01830012003580729,0.15937503814697265,85.53691101074219,81.42485809326172,-3.6026268005371094,86.96897888183594,-0.007296371459960938,0.21466666666666667,0.3217857142857143,6.103515625e-05,-1.0107122832031266,-0.01098694140625156,41.39619064331055,0.0456894768608941,-0.061906729804144967
8028,0.006581370035807292,0.15937503814697265,86.0074462890625,81.71127319335938,-3.684459686279297,87.09172058105469,-0.0043413374159071184,0.212,0.32107142857142856,-0.00042724609375,-0.9228254729003922,0.8678940534591675,41.39619064331055,0.04773525661892361,-0.06417978074815538
8029,0.0026751200358072916,0.15937503814697265,86.08927917480469,82.16134643554688,-3.745830535888672,87.43951416015625,-0.0059324900309244795,0.20933333333333334,0.32035714285714284,0.0003662109375,-1.0326849394531266,1.5929700136184692,41.39619064331055,0.04364369710286458,-0.0687260521782769
8030,-0.005137379964192708,0.15937503814697265,88.19645690917969,83.20470428466797,-3.7662887573242188,87.45996856689453,-0.004114023844401042,0.20666666666666667,0.31892857142857145,0.0012511783175998264,-1.2414194517822281,2.2301580905914307,41.39619064331055,0.055463918050130206,-0.06918063693576389
8031,-0.01685612996419271,0.15937503814697265,86.31431579589844,85.35279846191406,-3.7662887573242188,87.27584838867188,-0.008660252888997395,0.204,0.3192857142857143,0.0022582583957248266,-1.4940973692626969,1.2084600925445557,41.39619064331055,0.010683525933159722,-0.06713485717773438
8032,0.014393870035807292,0.17929691314697266,86.98943328857422,84.08439636230469,-3.8072052001953125,87.5213394165039,-0.018661922878689237,0.20133333333333334,0.3192857142857143,0.004974238077799479,-1.6588865690917984,0.1538040041923523,41.39619064331055,0.032278188069661456,-0.0703171624077691
8033,0.03783137003580729,0.15937503814697265,88.6669921875,84.96409606933594,-3.8072052001953125,87.5213394165039,-0.011615286933051215,0.198,0.3192857142857143,0.006408521864149305,-1.8566347532959,-0.4064833098144547,41.39619064331055,0.04114329020182292,-0.0703171624077691
8034,0.03783137003580729,0.15937503814697265,86.92805480957031,83.63432312011719,-3.7662887573242188,87.31675720214844,-0.011160659790039062,0.19466666666666665,0.3196428571428571,0.005706617567274305,-2.0104395323486344,-1.4501520567626969,41.39619064331055,0.03659701877170139,-0.06758939954969619
8035,0.04564387003580729,0.15937503814697265,85.70057678222656,81.62944030761719,-3.520793914794922,87.09172058105469,-0.008660252888997395,0.19133333333333333,0.3196428571428571,0.004577509562174479,-1.9555078917236344,-1.3402925902099625,41.39619064331055,0.04523484971788194,-0.06236127217610677
8036,0.03392512003580729,0.15937503814697265,86.662109375,81.87493133544922,-3.5821685791015625,87.1121826171875,-0.0054779052734375,0.18766666666666668,0.32035714285714284,0.0029296027289496527,-1.7248026304931656,-0.5163427763671891,41.39619064331055,0.05319086710611979,-0.06327056884765625
8037,0.01830012003580729,0.15937503814697265,86.82576751708984,82.57050323486328,-3.7662887573242188,87.35768127441406,-0.002068201700846354,0.18433333333333332,0.32071428571428573,0.0016784244113498264,-1.6479002409667984,0.0,41.39619064331055,0.04728071424696181,-0.06804411146375867
8038,0.010487620035807292,0.17929691314697266,86.82576751708984,82.73416900634766,-3.7662887573242188,87.54179382324219,-0.008660252888997395,0.18066666666666667,0.32107142857142856,0.0011901431613498264,-1.8895918303222672,0.07690200209617615,41.39619064331055,0.04546220567491319,-0.07008980645073784
8039,0.006581370035807292,0.15937503814697265,86.82576751708984,83.20470428466797,-3.7867469787597656,87.6031723022461,-0.005705218844943577,0.17766666666666667,0.32107142857142856,0.0008544921875,-2.142269747802736,-0.21972145373535312,41.39619064331055,0.04023403591579861,-0.07099910312228733
8040,0.02220637003580729,0.15937503814697265,87.05081176757812,84.22760009765625,-3.7867469787597656,87.6031723022461,-0.014797634548611112,0.17433333333333334,0.32142857142857145,0.0016784244113498264,-2.252131121704103,-0.8788801604003922,41.39619064331055,0.0313690185546875,-0.07099910312228733
8041,0.04955012003580729,0.15937503814697265,87.74638366699219,82.9592056274414,-3.7867469787597656,87.66455078125,-0.018207295735677084,0.17066666666666666,0.3217857142857143,0.0025023566351996527,-2.2850881987304703,-1.2743765288085953,41.48408126831055,0.05319086710611979,-0.07168108622233073
8042,0.04564387003580729,0.15937503814697265,86.37569427490234,83.16378784179688,-3.8072052001953125,87.58271789550781,-0.006387117173936632,0.167,0.3225,0.0010070376925998264,-2.482836382934572,-1.3293062620849625,41.48408126831055,0.03568784925672743,-0.0709991455078125
8043,0.03392512003580729,0.15937503814697265,85.18913269042969,81.17935943603516,-3.7867469787597656,87.27584838867188,-0.006159803602430555,0.16333333333333333,0.32285714285714284,-0.0010375552707248264,-2.581711428710939,-1.0216986113281266,41.48408126831055,0.04455303615993923,-0.06736217074924045
8044,0.01830012003580729,0.15937503814697265,85.76194763183594,81.40440368652344,-3.7662887573242188,87.23492431640625,-0.005705218844943577,0.16,0.32357142857142857,-0.0026244269476996527,-2.3949495726318375,-0.4394403868408219,41.48408126831055,0.048417154947916666,-0.06668014526367187
8045,0.010487620035807292,0.17929691314697266,85.78240966796875,81.71127319335938,-3.1525497436523438,86.62118530273438,-0.01070603264702691,0.156,0.32392857142857145,-0.0034788767496744793,-2.1312853270263687,-0.10986007983398594,41.39619064331055,0.04523484971788194,-0.053041500515407985
8046,0.014393870035807292,0.17929691314697266,86.68256378173828,81.93630981445312,-3.5821685791015625,86.88714599609375,-0.009114880032009548,0.153,0.3246428571428571,-0.0030516730414496527,-1.4940973692626969,0.7690200209617615,41.39619064331055,0.052736155192057294,-0.06077016194661458
8047,0.0026751200358072916,0.15937503814697265,86.35523986816406,82.83645629882812,-3.7867469787597656,87.64408874511719,-0.004568650987413194,0.15,0.3246428571428571,-0.0032042609320746527,-1.2084604674072281,1.0546560287475586,41.39619064331055,0.03909759521484375,-0.07145373026529948
8048,0.014393870035807292,0.15937503814697265,87.45996856689453,84.53446960449219,-3.8481216430664062,87.86912536621094,-0.013888380262586805,0.14766666666666667,0.32392857142857145,-0.0016784244113498264,-1.4940973692626969,0.7690200209617615,41.39619064331055,0.03250554402669271,-0.07463607788085938
8049,0.03001887003580729,0.17929691314697266,87.76683807373047,85.63920593261719,-4.011787414550781,88.564697265625,-0.01252454121907552,0.14466666666666667,0.32357142857142857,6.103515625e-05,-2.0104395323486344,0.23070600628852844,41.39619064331055,0.023640357123480903,-0.08418316311306423
8050,0.04173762003580729,0.15937503814697265,87.35768127441406,83.4501953125,-3.9708709716796875,88.48286437988281,-0.009569507175021702,0.14166666666666666,0.32357142857142857,0.00067138671875,-2.7684732847900406,-0.12084640795898594,41.39619064331055,0.04341651068793403,-0.08281928168402777
8051,0.04564387003580729,0.13945316314697265,87.25538635253906,83.26608276367188,-3.868579864501953,88.05325317382812,-0.008660252888997395,0.13866666666666666,0.32357142857142857,0.000274658203125,-3.218899386474611,-0.3954969816894547,41.39619064331055,0.04432559543185764,-0.07690925598144531
8052,0.04173762003580729,0.15937503814697265,84.71859741210938,80.38150024414062,-3.1934661865234375,86.70301818847656,-0.011387973361545138,0.13466666666666666,0.3246428571428571,-9.1552734375e-05,-2.966221468994142,-0.7800070219726578,41.39619064331055,0.04818996853298611,-0.05440538194444444
8053,0.04173762003580729,0.17929691314697266,84.90271759033203,81.32257080078125,-3.6026268005371094,86.80531311035156,-0.0059324900309244795,0.131,0.32535714285714284,-0.00048828125,-2.0104395323486344,0.23070600628852844,41.39619064331055,0.039779408772786455,-0.06008822123209635
8054,0.010487620035807292,0.17929691314697266,84.92317199707031,81.58851623535156,-4.257282257080078,88.58515930175781,0.003387239244249132,0.12733333333333333,0.32535714285714284,-0.0020445929633246527,-1.7687460356445328,1.307334065437317,41.39619064331055,0.03705173068576389,-0.08713823954264323
8055,0.0026751200358072916,0.17929691314697266,85.57783508300781,82.52958679199219,-4.318656921386719,89.05569458007812,-0.008887566460503472,0.12366666666666666,0.32571428571428573,-0.0015563540988498264,-2.867346423217775,1.8676199913024902,41.39619064331055,0.033869425455729164,-0.09304835001627604
8056,0.006581370035807292,0.15937503814697265,88.0737075805664,82.52958679199219,-4.175449371337891,88.33966064453125,-0.009569507175021702,0.12033333333333333,0.32571428571428573,0.000213623046875,-3.954960482666017,2.2521300315856934,41.39619064331055,0.061601342095269095,-0.083501222398546
8057,0.010487620035807292,0.13945316314697265,88.46240997314453,86.19157409667969,-3.5617103576660156,86.92805480957031,-0.005705218844943577,0.11633333333333333,0.3264285714285714,0.0024108039008246527,-3.965946810791017,1.9335360527038574,41.39619064331055,0.025231509738498265,-0.060997390747070314
8058,0.02220637003580729,0.15937503814697265,87.13264465332031,83.94119262695312,-4.052700042724609,88.23736572265625,-0.013888380262586805,0.11166666666666666,0.32821428571428574,0.004363886515299479,-3.163967745849611,0.35155200958251953,41.39619064331055,0.035460578070746526,-0.08100073072645399
8059,0.03783137003580729,0.17929691314697266,86.33477783203125,82.20226287841797,-4.052700042724609,88.70790100097656,-0.01547957526312934,0.10733333333333334,0.3289285714285714,0.005431959364149305,-3.3727022581787125,-0.2746511870117203,41.39619064331055,0.04591683281792535,-0.08622890048556858
8060,0.04173762003580729,0.17929691314697266,89.567138671875,86.37569427490234,-4.052700042724609,88.564697265625,-0.007069057888454861,0.10266666666666667,0.3296428571428571,0.005462476942274305,-4.053835528442384,-0.5712725096435562,41.39619064331055,0.03546049329969618,-0.08463774787055121
8061,0.03783137003580729,0.15937503814697265,86.64164733886719,82.42729949951172,-4.011787414550781,88.13508605957031,-0.013888380262586805,0.09833333333333333,0.33035714285714285,0.004241816202799479,-4.306513445922853,-2.175228732177736,41.39619064331055,0.04682608710394965,-0.07940970526801215
8062,0.05736262003580729,0.15937503814697265,83.85935974121094,82.0999755859375,-2.334228515625,86.53935241699219,-0.012751854790581597,0.094,0.33214285714285713,0.0032347785101996527,-3.6363665037841812,-2.4279066496582047,41.39619064331055,0.019548712836371527,-0.04303978814019097
8063,0.04955012003580729,0.15937503814697265,84.41172790527344,79.4813461303711,-3.4389610290527344,86.04837036132812,-0.004568650987413194,0.09066666666666667,0.33321428571428574,0.000640869140625,-1.5929705076904312,-1.0107122832031266,41.39619064331055,0.05478201972113715,-0.049859237670898435
8064,0.02220637003580729,0.17929691314697266,84.57539367675781,80.36103820800781,-4.073158264160156,88.33966064453125,-0.0002497355143229167,0.087,0.33321428571428574,-0.0012816958957248264,-1.0546575957031266,0.7140899896621704,41.39619064331055,0.046826171875,-0.08236465454101563
8065,0.01830012003580729,0.17929691314697266,86.35523986816406,82.52958679199219,-4.052700042724609,88.42149353027344,-0.0066144307454427086,0.08433333333333333,0.33214285714285713,-0.000457763671875,-1.8456484251709,2.0763540267944336,41.39619064331055,0.04250725640190972,-0.08304659525553386
8066,0.014393870035807292,0.17929691314697266,87.19401550292969,84.06393432617188,-4.052700042724609,88.46240997314453,-0.01002409193250868,0.082,0.33071428571428574,0.0013122134738498264,-2.6366411619873062,2.3949480056762695,41.39619064331055,0.03477867974175347,-0.083501222398546
8067,0.02611262003580729,0.15937503814697265,86.62118530273438,82.65233612060547,-3.479877471923828,88.40103149414062,-0.012979168362087673,0.07966666666666666,0.33,0.0037535349527994793,-2.9991785460205094,2.1532559394836426,41.39619064331055,0.04409832424587674,-0.07645454406738281
8068,0.04564387003580729,0.15937503814697265,86.64164733886719,83.552490234375,-3.357128143310547,86.88714599609375,-0.01070603264702691,0.07766666666666666,0.3289285714285714,0.006469557020399305,-1.9994532042236344,1.8566340208053589,41.22040939331055,0.034323967827690975,-0.05826971266004774
8069,0.04955012003580729,0.15937503814697265,86.64164733886719,82.71371459960938,-3.745830535888672,87.80775451660156,-0.007978312174479167,0.075,0.32821428571428574,0.008086903889973959,-1.3402925902099625,2.04339599609375,41.22040939331055,0.04364369710286458,-0.07281761169433594
8070,0.03392512003580729,0.13945316314697265,89.40347290039062,84.14576721191406,-4.339115142822266,88.31919860839844,-0.002750142415364583,0.07233333333333333,0.3264285714285714,0.008880360921223959,-1.6369139128417984,1.9555079936981201,41.22040939331055,0.058418952094184025,-0.08509237501356337
8071,0.03392512003580729,0.13945316314697265,87.0712661743164,85.1072998046875,-3.868579864501953,88.27828979492188,-0.012979168362087673,0.06933333333333333,0.32535714285714284,0.009948433770073786,-2.3729769163818375,-0.02197326953125156,39.726280212402344,0.02182184855143229,-0.07940966288248698
8072,0.05736262003580729,0.15937503814697265,87.0712661743164,82.97966003417969,-3.3162155151367188,87.0098876953125,-0.01252454121907552,0.066,0.32357142857142857,0.01083340115017361,-3.0431219511718766,-1.0546575957031266,38.05636978149414,0.04546229044596354,-0.059178924560546874
8073,0.04173762003580729,0.15937503814697265,87.25538635253906,83.22515869140625,-3.295757293701172,86.25294494628906,-0.01252454121907552,0.06266666666666666,0.32321428571428573,0.009155019124348959,-2.3839632445068375,-1.3732515745849625,38.05636978149414,0.04478030734592014,-0.05054113599989149
8074,0.03392512003580729,0.15937503814697265,88.23736572265625,83.49111938476562,-4.236824035644531,88.31919860839844,-0.00775099860297309,0.059666666666666666,0.3217857142857143,0.0074155595567491316,-1.549027102539064,-1.8346620970459,37.96847915649414,0.05273607042100695,-0.08395580715603299
8075,0.04173762003580729,0.13945316314697265,83.75706481933594,79.76776123046875,-3.357128143310547,88.64653015136719,-0.012751854790581597,0.05533333333333333,0.32107142857142856,0.005645582411024305,-2.3949495726318375,-2.0983263426513687,37.96847915649414,0.04432559543185764,-0.07781842549641928
8076,0.010487620035807292,0.13945316314697265,84.67768096923828,81.58851623535156,-2.641101837158203,88.46240997314453,0.001341459486219618,0.051666666666666666,0.3196428571428571,0.0023497687445746527,-3.1200243406982437,-0.7470480375976578,37.96847915649414,0.03432405259874132,-0.0678167978922526
8077,-0.0012311299641927084,0.13945316314697265,86.23248291015625,83.02058410644531,-2.0682754516601562,85.455078125,-0.008887566460503472,0.048666666666666664,0.3196428571428571,0.0013732486300998264,-2.581711428710939,0.0,37.96847915649414,0.035687764485677086,-0.028037261962890626
8078,-0.01685612996419271,0.1195312786102295,86.92805480957031,83.552490234375,-2.743389129638672,86.25294494628906,-0.007069057888454861,0.04466666666666667,0.31892857142857145,0.000701904296875,-1.3732515745849625,0.02197200059890747,37.96847915649414,0.03750627305772569,-0.0444037119547526
8079,-0.02466862996419271,0.13945316314697265,85.80287170410156,82.32501220703125,-2.8865966796875,87.39859008789062,-0.012979168362087673,0.04066666666666666,0.31857142857142856,0.000213623046875,-1.0436712675781266,-0.17577614123535312,37.96847915649414,0.03864288330078125,-0.058724297417534724
8080,-0.02466862996419271,0.15937503814697265,85.86424255371094,79.97233581542969,-3.479877471923828,85.18913269042969,-0.009796820746527778,0.037,0.3175,-3.0517578125e-05,-0.9777552061767594,0.4064820110797882,37.96847915649414,0.06546563042534723,-0.04076677958170573
8081,-0.03638737996419271,0.1195312786102295,89.23981475830078,84.18669128417969,-3.479877471923828,87.64408874511719,-0.013433795505099827,0.034,0.31607142857142856,0.000152587890625,-1.4940973692626969,0.9777539968490601,37.96847915649414,0.05614581637912326,-0.0680440690782335
8082,-0.06373112996419271,0.13945316314697265,88.09416198730469,84.90271759033203,-3.357128143310547,87.19401550292969,-0.01911655002170139,0.030333333333333334,0.3157142857142857,-0.0006103091769748264,-2.0433966093750016,-0.3845106535644547,37.96847915649414,0.03546049329969618,-0.061679373847113715
8083,-0.05201237996419271,0.1195312786102295,82.83645629882812,79.9927978515625,-3.4185028076171875,86.98943328857422,-0.014115693834092882,0.027,0.31464285714285717,-0.0006408267550998264,-1.7577597075195328,-1.5929705076904312,37.96847915649414,0.031596204969618055,-0.06008817884657118
8084,-0.05982487996419271,0.1195312786102295,84.88226318359375,81.77264404296875,-4.523235321044922,87.50088500976562,-0.002750142415364583,0.023666666666666666,0.31357142857142856,-0.0025328742133246527,-0.9447962218017594,-0.6591612272949234,37.704811096191406,0.03455132378472222,-0.07804578145345052
8085,-0.1535748799641927,0.07968751907348633,82.05905151367188,78.76531982421875,-3.0298004150390625,85.98699188232422,-0.0066144307454427086,0.019333333333333334,0.31142857142857144,-0.005554029676649305,-0.9667688780517594,0.32958000898361206,37.529029846191406,0.03659701877170139,-0.04463102552625868
8086,-0.1691998799641927,0.09960939407348633,90.32408142089844,83.0001220703125,-1.9659843444824219,86.62118530273438,-0.00047704908582899306,0.015,0.3107142857142857,-0.006194898817274305,-0.5712725096435562,1.8236761093139648,36.56224060058594,0.08137732611762152,-0.039857440524631076
8087,-0.2238873799641927,0.09960939407348633,84.08439636230469,81.547607421875,0.1411895751953125,83.85935974121094,-0.01661614312065972,0.010666666666666666,0.3092857142857143,-0.006011793348524305,0.4723980128765106,0.48338401317596436,32.07984924316406,0.028186543782552084,0.0142425537109375
8088,-0.1887311299641927,0.07968751907348633,86.08927917480469,80.36103820800781,0.32530975341796875,84.80043029785156,-0.015934202406141493,0.006666666666666667,0.30714285714285716,-0.004424921671549479,1.735788106918335,0.6371880173683167,28.827919006347656,0.06364712185329861,0.0058319939507378475
8089,-0.2395123799641927,0.07968751907348633,88.1555404663086,85.0050048828125,2.841644287109375,81.24073791503906,-0.02684512668185764,0.003,0.3032142857142857,-0.004150263468424479,2.2521300315856934,0.38451001048088074,24.87286949157715,0.035005950927734376,0.07334340413411458
8090,-0.2941998799641927,0.07968751907348633,84.47309875488281,82.81600189208984,0.44805908203125,78.80622863769531,-0.0323006100124783,0.001,0.3003571428571429,-0.005859205457899305,3.7352399826049805,-0.6042314940185562,24.69709014892578,0.01841218736436632,0.07379811604817708
8091,-0.2981061299641927,0.07968751907348633,83.90027618408203,80.0337142944336,6.994617462158203,79.11309814453125,-0.0009316762288411458,0.001,0.29392857142857143,-0.008880360921223959,2.900304079055786,0.16479000449180603,24.69709014892578,0.042961798773871525,0.14312799241807725
8092,-0.2629498799641927,0.05976563930511475,82.87738037109375,79.78821563720703,12.743316650390625,73.63035583496094,0.04339400397406684,0.0006666666666666666,0.2882142857142857,-0.0074460771348741316,1.3732500076293945,0.5273280143737793,24.69709014892578,0.03432405259874132,0.26792178683810763
8093,0.006581370035807292,0.05976563930511475,83.06149291992188,79.29722595214844,11.986370086669922,70.68440246582031,0.02839147779676649,0.0003333333333333333,0.2810714285714286,-0.000152587890625,0.7580339908599854,-0.3185945921630875,24.69709014892578,0.041825188530815974,0.2922440846761068
8094,0.04564387003580729,0.1195312786102295,83.4501953125,79.70639038085938,9.490493774414062,72.01417541503906,-0.010478719075520834,0.0003333333333333333,0.2742857142857143,0.004241816202799479,0.8349360227584839,-0.6811319761962906,24.69709014892578,0.04159783257378472,0.24973687065972222
8095,-0.0012311299641927084,0.15937503814697265,84.69813537597656,81.79310607910156,3.434925079345703,79.62455749511719,-0.0009316762288411458,0.0,0.26535714285714285,0.0025023566351996527,0.36253800988197327,-0.3295809202880875,24.69709014892578,0.03227810329861111,0.09789297315809461
8096,-0.01685612996419271,0.219140682220459,85.14820861816406,82.48867797851562,1.5937042236328125,82.61141967773438,0.0002048916286892361,0.0,0.2596428571428571,-0.0,-0.14281906420898594,-0.09887375170898594,24.69709014892578,0.029550340440538194,0.044247606065538195
