,WD,WS,AIL_1,AIL_2,ELEV_1,ELEV_2,RUDD,ALT,GS,TH,PTCH,ROLL,PLA_1,AIL,ELEV
5897,0.03777499728732639,0.438281364440918,41.900001525878906,41.900001525878906,-41.900001525878906,41.900001525878906,-0.46555557250976565,0.5346666666666666,0.4132142857142857,0.008239491780598959,3.4935481548309326,-2.482836382934572,44.29655838012695,0.0,0.013333299424913195
5898,0.05339999728732639,0.438281364440918,41.900001525878906,41.900001525878906,-41.900001525878906,41.900001525878906,-0.46555557250976565,0.536,0.4125,0.009002431233723959,3.47157621383667,-2.2741018706054703,44.29655838012695,0.0,0.013333299424913195
5899,0.06511874728732639,0.41835948944091794,41.900001525878906,41.900001525878906,-41.900001525878906,41.900001525878906,-0.46555557250976565,0.534,0.41214285714285714,0.009155019124348959,3.548478126525879,-0.9997259550781266,44.12078094482422,0.0,0.013333299424913195
5900,0.03777499728732639,0.41835948944091794,41.900001525878906,41.900001525878906,-41.900001525878906,41.900001525878906,-0.46555557250976565,0.5346666666666666,0.41214285714285714,0.005828687879774305,3.4825620651245117,-0.2746511870117203,44.99967956542969,0.0,0.013333299424913195
5901,0.01433749728732639,0.41835948944091794,41.900001525878906,41.900001525878906,-41.900001525878906,41.900001525878906,-0.46555557250976565,0.5356666666666666,0.4125,0.0027770148383246527,3.5045340061187744,-0.812964098999025,45.70280075073242,0.0,0.013333299424913195
5902,0.01433749728732639,0.39843757629394533,41.900001525878906,41.900001525878906,-41.900001525878906,41.900001525878906,-0.46555557250976565,0.5346666666666666,0.4135714285714286,0.0017394171820746527,3.3507301807403564,-1.8676210814209,45.79069137573242,0.0,0.013333299424913195
5903,0.03777499728732639,0.41835948944091794,41.900001525878906,41.900001525878906,-41.900001525878906,41.900001525878906,-0.46555557250976565,0.5353333333333333,0.4135714285714286,0.0030516730414496527,3.5155200958251953,-2.263117449829103,45.79069137573242,0.0,0.013333299424913195
5904,0.05339999728732639,0.438281364440918,41.900001525878906,41.900001525878906,-41.900001525878906,41.900001525878906,-0.46555557250976565,0.5353333333333333,0.4139285714285714,0.0038451300726996527,3.537492036819458,-1.9445234709472672,45.79069137573242,0.0,0.013333299424913195
5905,0.06902499728732639,0.438281364440918,41.900001525878906,41.900001525878906,-41.900001525878906,41.900001525878906,-0.46555557250976565,0.5353333333333333,0.4142857142857143,0.004577467176649305,3.537492036819458,-1.5929705076904312,45.79069137573242,0.0,0.013333299424913195
5906,0.06902499728732639,0.438281364440918,41.900001525878906,41.900001525878906,-41.900001525878906,41.900001525878906,-0.46555557250976565,0.5343333333333333,0.41464285714285715,0.0036620246039496527,3.3617160320281982,-1.3732515745849625,45.79069137573242,0.0,0.013333299424913195
5907,0.06121249728732639,0.41835948944091794,41.900001525878906,41.900001525878906,-41.900001525878906,41.900001525878906,-0.46555557250976565,0.5343333333333333,0.41464285714285715,0.0020140753851996527,3.3507301807403564,-0.856909411499025,45.79069137573242,0.0,0.013333299424913195
5908,0.05339999728732639,0.39843757629394533,41.900001525878906,41.900001525878906,-41.900001525878906,41.900001525878906,-0.46555557250976565,0.5346666666666666,0.41535714285714287,0.0006103515625,3.614394187927246,-1.0436712675781266,45.26335144042969,0.0,0.013333299424913195
5909,0.04558749728732639,0.438281364440918,41.900001525878906,41.900001525878906,-41.900001525878906,41.900001525878906,-0.46555557250976565,0.5343333333333333,0.41535714285714287,-0.00054931640625,3.614394187927246,-0.3954969816894547,45.17546081542969,0.0,0.013333299424913195
5910,0.03386874728732639,0.39843757629394533,41.900001525878906,41.900001525878906,-41.900001525878906,41.900001525878906,-0.46555557250976565,0.5336666666666666,0.4157142857142857,-0.0027464972601996527,3.460590124130249,-1.0656420164794937,45.79069137573242,0.0,0.013333299424913195
5911,0.03777499728732639,0.438281364440918,41.900001525878906,41.900001525878906,-41.900001525878906,41.900001525878906,-0.46555557250976565,0.5343333333333333,0.4157142857142857,-0.0025939093695746527,3.768198013305664,-1.3622652464599625,45.79069137573242,0.0,0.013333299424913195
5912,0.05339999728732639,0.438281364440918,41.900001525878906,41.900001525878906,-41.900001525878906,41.900001525878906,-0.46555557250976565,0.5336666666666666,0.4157142857142857,-0.001312255859375,3.8231282234191895,-0.03295769030761875,45.79069137573242,0.0,0.013333299424913195
5913,0.04558749728732639,0.41835948944091794,41.900001525878906,41.900001525878906,-41.900001525878906,41.900001525878906,-0.46555557250976565,0.533,0.41535714285714287,-0.0021056281195746527,3.614394187927246,1.3622640371322632,40.86885070800781,0.0,0.013333299424913195
5914,0.06121249728732639,0.41835948944091794,41.900001525878906,41.900001525878906,-41.900001525878906,41.900001525878906,-0.46555557250976565,0.533,0.4135714285714286,0.001007080078125,3.7462260723114014,3.702282190322876,35.7712287902832,0.0,0.013333299424913195
5915,0.08074374728732639,0.39843757629394533,41.900001525878906,41.900001525878906,-41.900001525878906,41.900001525878906,-0.46555557250976565,0.5336666666666666,0.4114285714285714,0.005645582411024305,3.8341140747070312,5.449056148529053,31.113059997558594,0.0,0.013333299424913195
5916,0.06902499728732639,0.39843757629394533,41.900001525878906,41.900001525878906,-41.900001525878906,41.900001525878906,-0.46555557250976565,0.533,0.40785714285714286,0.008178456624348959,3.614394187927246,5.96539831161499,29.179479598999023,0.0,0.013333299424913195
5917,0.05730624728732639,0.39843757629394533,41.900001525878906,41.900001525878906,-41.900001525878906,41.900001525878906,-0.46555557250976565,0.5326666666666666,0.4060714285714286,0.01071133083767361,3.8341140747070312,5.361167907714844,29.179479598999023,0.0,0.013333299424913195
5918,0.06121249728732639,0.3785157012939453,41.900001525878906,41.900001525878906,-41.900001525878906,41.900001525878906,-0.46555557250976565,0.5333333333333333,0.40214285714285714,0.014098697238498263,4.306511878967285,4.6800360679626465,29.003700256347656,0.0,0.013333299424913195
5919,0.04558749728732639,0.3785157012939453,41.900001525878906,41.900001525878906,-41.900001525878906,41.900001525878906,-0.46555557250976565,0.5333333333333333,0.3989285714285714,0.015410953097873263,4.482288360595703,3.9659461975097656,29.003700256347656,0.0,0.013333299424913195
5920,0.002618747287326389,0.3785157012939453,41.900001525878906,41.900001525878906,-41.900001525878906,41.900001525878906,-0.46555557250976565,0.53,0.3942857142857143,0.01214565700954861,4.394400119781494,1.7907180786132812,29.003700256347656,0.0,0.013333299424913195
5921,-0.02081875271267361,0.39843757629394533,41.900001525878906,41.900001525878906,-41.900001525878906,41.900001525878906,-0.46555557250976565,0.5316666666666666,0.39,0.01013149685329861,5.108489990234375,-0.7580343657226578,32.6071891784668,0.0,0.013333299424913195
5922,0.01824374728732639,0.438281364440918,41.900001525878906,41.900001525878906,-41.900001525878906,41.900001525878906,-0.46555557250976565,0.5316666666666666,0.38357142857142856,0.014251285129123263,4.778910160064697,-0.7800070219726578,35.6833381652832,0.0,0.013333299424913195
5923,0.04168124728732639,0.39843757629394533,41.900001525878906,41.900001525878906,-41.900001525878906,41.900001525878906,-0.46555557250976565,0.5326666666666666,0.3792857142857143,0.016387430826822917,4.5262322425842285,-0.19774879748535312,37.529029846191406,0.0,0.013333299424913195
5924,0.04168124728732639,0.3785157012939453,41.900001525878906,41.900001525878906,-41.900001525878906,41.900001525878906,-0.46555557250976565,0.5343333333333333,0.37285714285714283,0.015960184733072917,4.130736351013184,-0.6262022429199234,40.34151077270508,0.0,0.013333299424913195
5925,0.03777499728732639,0.41835948944091794,41.900001525878906,41.900001525878906,-41.900001525878906,41.900001525878906,-0.46555557250976565,0.536,0.36964285714285716,0.014586978488498263,3.790170192718506,-2.581711428710939,43.85710906982422,0.0,0.013333299424913195
5926,0.05339999728732639,0.39843757629394533,41.900001525878906,41.900001525878906,-41.900001525878906,41.900001525878906,-0.46555557250976565,0.538,0.3653571428571429,0.014709048800998263,3.372702121734619,-3.3617159300537125,46.142250061035156,0.0,0.013333299424913195
5927,0.07683749728732639,0.39843757629394533,41.900001525878906,41.900001525878906,-41.900001525878906,41.900001525878906,-0.46555557250976565,0.54,0.36357142857142855,0.015349917941623263,2.7794580459594727,-2.6586119108886734,48.60316848754883,0.0,0.013333299424913195
5928,0.08074374728732639,0.41835948944091794,41.900001525878906,41.900001525878906,-41.900001525878906,41.900001525878906,-0.46555557250976565,0.5393333333333333,0.36214285714285716,0.015258365207248263,1.7907180786132812,-0.8788801604003922,50.888309478759766,0.0,0.013333299424913195
5929,0.04949374728732639,0.39843757629394533,41.900001525878906,41.900001525878906,-41.900001525878906,41.900001525878906,-0.46555557250976565,0.5406666666666666,0.36214285714285716,0.01061977810329861,0.9667680263519287,0.6152160167694092,51.767208099365234,0.0,0.013333299424913195
5930,0.02214999728732639,0.438281364440918,41.900001525878906,41.900001525878906,-41.900001525878906,41.900001525878906,-0.46555557250976565,0.54,0.3628571428571429,0.0077817281087239586,0.38451001048088074,0.17577600479125977,51.767208099365234,0.0,0.013333299424913195
5931,0.02605624728732639,0.438281364440918,41.900001525878906,41.900001525878906,-41.900001525878906,41.900001525878906,-0.46555557250976565,0.538,0.3628571428571429,0.008453114827473959,-0.4284540587158219,-0.4174677305908219,51.5035400390625,0.0,0.013333299424913195
5932,0.05339999728732639,0.438281364440918,41.900001525878906,41.900001525878906,-41.900001525878906,41.900001525878906,-0.46555557250976565,0.5353333333333333,0.36392857142857143,0.01174892849392361,-0.9777552061767594,-0.2526785307617203,49.39418029785156,0.0,0.013333299424913195
5933,0.06511874728732639,0.41835948944091794,41.900001525878906,41.900001525878906,-41.900001525878906,41.900001525878906,-0.46555557250976565,0.5313333333333333,0.36428571428571427,0.013396792941623263,-1.7577597075195328,0.45042601227760315,44.64812088012695,0.0,0.013333299424913195
5934,0.07293124728732639,0.39843757629394533,41.900001525878906,41.900001525878906,-41.900001525878906,41.900001525878906,-0.46555557250976565,0.5266666666666666,0.36464285714285716,0.014373355441623263,-1.7797323637695328,0.5712720155715942,38.320037841796875,0.0,0.013333299424913195
5935,0.04558749728732639,0.3785157012939453,41.900001525878906,41.900001525878906,-41.900001525878906,41.900001525878906,-0.46555557250976565,0.5203333333333333,0.36392857142857143,0.01119961208767361,-3.493548052856447,-0.14281906420898594,32.4314079284668,0.0,0.013333299424913195
5936,0.006524997287326389,0.41835948944091794,41.900001525878906,41.900001525878906,-41.900001525878906,41.900001525878906,-0.46555557250976565,0.5143333333333333,0.3632142857142857,0.006103346082899305,-4.240597384521486,-0.9338098936767594,28.036909103393555,0.0,0.013333299424913195
5937,0.002618747287326389,0.39843757629394533,41.900001525878906,41.900001525878906,-41.900001525878906,41.900001525878906,-0.46555557250976565,0.5076666666666667,0.3628571428571429,0.004669019911024305,-3.515520709106447,-1.2084604674072281,28.036909103393555,0.0,0.013333299424913195
5938,0.03777499728732639,0.41835948944091794,41.900001525878906,41.900001525878906,-41.900001525878906,41.900001525878906,-0.46555557250976565,0.5,0.3625,0.009155019124348959,-2.7245279722900406,0.7031040191650391,27.861129760742188,0.0,0.013333299424913195
5939,0.04949374728732639,0.39843757629394533,41.900001525878906,41.900001525878906,-41.900001525878906,41.900001525878906,-0.46555557250976565,0.49166666666666664,0.36214285714285716,0.01168789333767361,-2.0763555937500016,2.3070600032806396,27.861129760742188,0.0,0.013333299424913195
5940,0.01433749728732639,0.41835948944091794,41.900001525878906,41.900001525878906,-41.900001525878906,41.900001525878906,-0.46555557250976565,0.48633333333333334,0.3607142857142857,0.009551747639973959,-1.1095873289794937,1.768746018409729,27.861129760742188,0.0,0.013333299424913195
5941,0.006524997287326389,0.39843757629394533,41.900001525878906,41.900001525878906,-41.900001525878906,41.900001525878906,-0.46555557250976565,0.481,0.3585714285714286,0.008941396077473959,-1.2633902006835953,0.13183200359344482,27.861129760742188,0.0,0.013333299424913195
5942,0.03386874728732639,0.39843757629394533,41.900001525878906,41.900001525878906,-41.900001525878906,41.900001525878906,-0.46555557250976565,0.47733333333333333,0.3539285714285714,0.01214565700954861,-2.252131121704103,-0.2746511870117203,27.861129760742188,0.0,0.013333299424913195
5943,0.05339999728732639,0.3785157012939453,41.900001525878906,41.900001525878906,-41.900001525878906,41.900001525878906,-0.46555557250976565,0.47333333333333333,0.3510714285714286,0.014739566379123263,-3.4825636320800797,0.45042601227760315,27.773239135742188,0.0,0.013333299424913195
5944,0.03777499728732639,0.39843757629394533,41.900001525878906,41.900001525878906,-41.900001525878906,41.900001525878906,-0.46555557250976565,0.471,0.3457142857142857,0.013396792941623263,-4.504261630126955,0.7140899896621704,27.773239135742188,0.0,0.013333299424913195
5945,0.01433749728732639,0.39843757629394533,41.900001525878906,41.900001525878906,-41.900001525878906,41.900001525878906,-0.46555557250976565,0.468,0.3432142857142857,0.01068081325954861,-4.471302645751955,-0.9228254729003922,27.773239135742188,0.0,0.013333299424913195
5946,0.02605624728732639,0.3785157012939453,41.900001525878906,41.900001525878906,-41.900001525878906,41.900001525878906,-0.46555557250976565,0.46366666666666667,0.3392857142857143,0.01098598904079861,-4.119751589843752,-1.7687460356445328,27.773239135742188,0.0,0.013333299424913195
5947,0.04168124728732639,0.39843757629394533,41.900001525878906,41.900001525878906,-41.900001525878906,41.900001525878906,-0.46555557250976565,0.459,0.3364285714285714,0.01281704372829861,-3.1529833250732437,-1.4611383848876969,27.773239135742188,0.0,0.013333299424913195
5948,0.04558749728732639,0.41835948944091794,41.900001525878906,41.900001525878906,-41.900001525878906,41.900001525878906,-0.46555557250976565,0.45466666666666666,0.33285714285714285,0.01238979763454861,-2.3839632445068375,-1.2194467955322281,27.773239135742188,0.0,0.013333299424913195
5949,0.04168124728732639,0.41835948944091794,41.900001525878906,41.900001525878906,-41.900001525878906,41.900001525878906,-0.46555557250976565,0.45066666666666666,0.33,0.01129116482204861,-2.1202989989013687,-0.9667688780517594,27.773239135742188,0.0,0.013333299424913195
5950,0.03777499728732639,0.41835948944091794,41.900001525878906,41.900001525878906,-41.900001525878906,41.900001525878906,-0.46555557250976565,0.44733333333333336,0.325,0.01016201443142361,-2.0653692656250016,-1.1864878111572281,27.773239135742188,0.0,0.013333299424913195
5951,0.02996249728732639,0.438281364440918,41.900001525878906,41.900001525878906,-41.900001525878906,41.900001525878906,-0.46555557250976565,0.44366666666666665,0.3217857142857143,0.008239491780598959,-2.1093126707763687,-1.516068118164064,32.25563049316406,0.0,0.013333299424913195
5952,0.02996249728732639,0.41835948944091794,41.900001525878906,41.900001525878906,-41.900001525878906,41.900001525878906,-0.46555557250976565,0.44133333333333336,0.3182142857142857,0.006744215223524305,-2.186215060302736,-1.538040774414064,35.15599822998047,0.0,0.013333299424913195
5953,0.02996249728732639,0.438281364440918,41.900001525878906,41.900001525878906,-41.900001525878906,41.900001525878906,-0.46555557250976565,0.43833333333333335,0.31607142857142856,0.006316969129774305,-1.527054446289064,-1.3293062620849625,37.704811096191406,0.0,0.013333299424913195
5954,0.02605624728732639,0.41835948944091794,41.900001525878906,41.900001525878906,-41.900001525878906,41.900001525878906,-0.46555557250976565,0.43533333333333335,0.31357142857142856,0.004394361707899305,-1.0326849394531266,-0.14281906420898594,39.19894027709961,0.0,0.013333299424913195
5955,-0.0012875027126736111,0.41835948944091794,41.900001525878906,41.900001525878906,-41.900001525878906,41.900001525878906,-0.46555557250976565,0.43266666666666664,0.3125,0.000640869140625,-1.0766283446044937,0.29662200808525085,40.60517883300781,0.0,0.013333299424913195
5956,-0.01300625271267361,0.41835948944091794,41.900001525878906,41.900001525878906,-41.900001525878906,41.900001525878906,-0.46555557250976565,0.42933333333333334,0.31035714285714283,-0.00079345703125,-1.0436712675781266,-0.16478981311035312,42.01142120361328,0.0,0.013333299424913195
5957,-0.0012875027126736111,0.39843757629394533,41.900001525878906,41.900001525878906,-41.900001525878906,41.900001525878906,-0.46555557250976565,0.427,0.3092857142857143,0.00091552734375,-0.9118391447753922,-0.3625379973144547,43.241878509521484,0.0,0.013333299424913195
5958,0.01043124728732639,0.41835948944091794,41.900001525878906,41.900001525878906,-41.900001525878906,41.900001525878906,-0.46555557250976565,0.4236666666666667,0.30857142857142855,0.0023497687445746527,-0.8678938322753922,-0.21972145373535312,44.38444900512695,0.0,0.013333299424913195
5959,-0.005193752712673611,0.39843757629394533,41.900001525878906,41.900001525878906,-41.900001525878906,41.900001525878906,-0.46555557250976565,0.42133333333333334,0.30857142857142855,-0.0,-0.7800070219726578,-0.7800070219726578,44.64812088012695,0.0,0.013333299424913195
5960,-0.0012875027126736111,0.41835948944091794,41.900001525878906,41.900001525878906,-41.900001525878906,41.900001525878906,-0.46555557250976565,0.4176666666666667,0.3082142857142857,-0.00048828125,-0.7031046324462906,-1.3842359953613297,44.91178894042969,0.0,0.013333299424913195
5961,0.01824374728732639,0.41835948944091794,41.900001525878906,41.900001525878906,-41.900001525878906,41.900001525878906,-0.46555557250976565,0.41433333333333333,0.3078571428571429,0.0018920050726996527,-0.6701475554199234,-0.7140909605712906,45.43912887573242,0.0,0.013333299424913195
5962,0.01824374728732639,0.41835948944091794,41.900001525878906,41.900001525878906,-41.900001525878906,41.900001525878906,-0.46555557250976565,0.4126666666666667,0.3078571428571429,0.0017088996039496527,-0.3625379973144547,1.0436700582504272,45.966468811035156,0.0,0.013333299424913195
5963,-0.005193752712673611,0.41835948944091794,41.900001525878906,41.900001525878906,-41.900001525878906,41.900001525878906,-0.46555557250976565,0.4096666666666667,0.3067857142857143,-0.000732421875,-0.18676246936035312,1.9115641117095947,46.142250061035156,0.0,0.013333299424913195
5964,-0.02081875271267361,0.41835948944091794,41.900001525878906,41.900001525878906,-41.900001525878906,41.900001525878906,-0.46555557250976565,0.4073333333333333,0.30642857142857144,-0.001312255859375,-0.01098694140625156,1.4062080383300781,46.142250061035156,0.0,0.013333299424913195
5965,-0.01300625271267361,0.39843757629394533,41.900001525878906,41.900001525878906,-41.900001525878906,41.900001525878906,-0.46555557250976565,0.405,0.3067857142857143,0.001495361328125,0.29662200808525085,1.3293060064315796,46.933258056640625,0.0,0.013333299424913195
5966,-0.01300625271267361,0.41835948944091794,41.900001525878906,41.900001525878906,-41.900001525878906,41.900001525878906,-0.46555557250976565,0.4023333333333333,0.30642857142857144,0.0018614874945746527,0.2856360077857971,0.35155200958251953,47.72426986694336,0.0,0.013333299424913195
5967,-0.01300625271267361,0.39843757629394533,41.900001525878906,41.900001525878906,-41.900001525878906,41.900001525878906,-0.46555557250976565,0.39966666666666667,0.3067857142857143,0.0021361456976996527,0.14281800389289856,-0.09887375170898594,48.95473098754883,0.0,0.013333299424913195
5968,-0.00910000271267361,0.39843757629394533,41.900001525878906,41.900001525878906,-41.900001525878906,41.900001525878906,-0.46555557250976565,0.39666666666666667,0.30714285714285716,0.0023192511664496527,-0.6371885710449234,-0.12084640795898594,49.13050842285156,0.0,0.013333299424913195
5969,-0.00910000271267361,0.39843757629394533,41.900001525878906,41.900001525878906,-41.900001525878906,41.900001525878906,-0.46555557250976565,0.3943333333333333,0.3078571428571429,0.0023497687445746527,-0.7140909605712906,-0.3405672484130875,49.21839904785156,0.0,0.013333299424913195
5970,-0.0012875027126736111,0.41835948944091794,41.900001525878906,41.900001525878906,-41.900001525878906,41.900001525878906,-0.46555557250976565,0.392,0.30857142857142855,0.0036620246039496527,-0.15380539233398594,-0.5492998533935562,49.21839904785156,0.0,0.013333299424913195
5971,0.006524997287326389,0.41835948944091794,41.900001525878906,41.900001525878906,-41.900001525878906,41.900001525878906,-0.46555557250976565,0.3883333333333333,0.30857142857142855,0.0038756476508246527,-0.4723993712158219,-0.834936755249025,49.21839904785156,0.0,0.013333299424913195
5972,0.006524997287326389,0.41835948944091794,41.900001525878906,41.900001525878906,-41.900001525878906,41.900001525878906,-0.46555557250976565,0.38533333333333336,0.30857142857142855,0.0037230597601996527,-1.2853628569335953,-0.9338098936767594,49.21839904785156,0.0,0.013333299424913195
5973,0.01043124728732639,0.39843757629394533,41.900001525878906,41.900001525878906,-41.900001525878906,41.900001525878906,-0.46555557250976565,0.38233333333333336,0.30892857142857144,0.0031432257758246527,-1.3732515745849625,-2.0214239531250016,47.196929931640625,0.0,0.013333299424913195
5974,0.02214999728732639,0.39843757629394533,41.900001525878906,41.900001525878906,-41.900001525878906,41.900001525878906,-0.46555557250976565,0.37866666666666665,0.30892857142857144,0.0035704718695746527,-1.3952223234863297,-1.8346620970459,46.84537124633789,0.0,0.013333299424913195
5975,0.01824374728732639,0.3785157012939453,41.900001525878906,41.900001525878906,-41.900001525878906,41.900001525878906,-0.46555557250976565,0.37533333333333335,0.30964285714285716,0.0021971808539496527,-1.3622652464599625,0.20873400568962097,46.84537124633789,0.0,0.013333299424913195
5976,-0.00910000271267361,0.3785157012939453,41.900001525878906,41.900001525878906,-41.900001525878906,41.900001525878906,-0.46555557250976565,0.37166666666666665,0.31,-0.0010986328125,-0.8678938322753922,1.3952220678329468,46.66958999633789,0.0,0.013333299424913195
5977,-0.04425625271267361,0.41835948944091794,41.900001525878906,41.900001525878906,-41.900001525878906,41.900001525878906,-0.46555557250976565,0.36766666666666664,0.31035714285714283,-0.005584547254774305,-0.7140909605712906,-0.7031046324462906,46.933258056640625,0.0,0.013333299424913195
5978,-0.04035000271267361,0.438281364440918,41.900001525878906,41.900001525878906,-41.900001525878906,41.900001525878906,-0.46555557250976565,0.3636666666666667,0.3107142857142857,-0.006194898817274305,-0.6811319761962906,-2.6036821776123062,47.196929931640625,0.0,0.013333299424913195
5979,-0.02863125271267361,0.41835948944091794,41.900001525878906,41.900001525878906,-41.900001525878906,41.900001525878906,-0.46555557250976565,0.36133333333333334,0.31035714285714283,-0.006042310926649305,-0.5822588377685562,-1.175503390380861,46.66958999633789,0.0,0.013333299424913195
5980,-0.04816250271267361,0.3785157012939453,41.900001525878906,41.900001525878906,-41.900001525878906,41.900001525878906,-0.46555557250976565,0.35833333333333334,0.31,-0.009368642171223959,-1.2743765288085953,1.2084600925445557,45.52701950073242,0.0,0.013333299424913195
5981,-0.05597500271267361,0.39843757629394533,41.900001525878906,41.900001525878906,-41.900001525878906,41.900001525878906,-0.46555557250976565,0.353,0.30964285714285716,-0.009765370686848959,-1.2963491850585953,2.6915700435638428,45.26335144042969,0.0,0.013333299424913195
5982,-0.03253750271267361,0.39843757629394533,41.900001525878906,41.900001525878906,-41.900001525878906,41.900001525878906,-0.46555557250976565,0.351,0.30964285714285716,-0.0036620246039496527,-0.5602861815185562,1.9774800539016724,46.142250061035156,0.0,0.013333299424913195
5983,0.002618747287326389,0.39843757629394533,41.900001525878906,41.900001525878906,-41.900001525878906,41.900001525878906,-0.46555557250976565,0.3486666666666667,0.3092857142857143,0.0024413214789496527,-0.2856375151367203,0.6042300462722778,46.40591812133789,0.0,0.013333299424913195
5984,0.01824374728732639,0.39843757629394533,41.900001525878906,41.900001525878906,-41.900001525878906,41.900001525878906,-0.46555557250976565,0.3453333333333333,0.30964285714285716,0.005401441786024305,-0.3735243254394547,0.4943700134754181,46.40591812133789,0.0,0.013333299424913195
5985,0.01043124728732639,0.3785157012939453,41.900001525878906,41.900001525878906,-41.900001525878906,41.900001525878906,-0.46555557250976565,0.3413333333333333,0.3092857142857143,0.004760572645399305,-0.6371885710449234,0.2746500074863434,46.40591812133789,0.0,0.013333299424913195
5986,-0.00910000271267361,0.33867195129394534,41.900001525878906,41.900001525878906,-41.900001525878906,41.900001525878906,-0.46555557250976565,0.3396666666666667,0.3092857142857143,0.0026549445258246527,-0.3295809202880875,0.5932440161705017,47.196929931640625,0.0,0.013333299424913195
5987,-0.02472500271267361,0.39843757629394533,41.900001525878906,41.900001525878906,-41.900001525878906,41.900001525878906,-0.46555557250976565,0.337,0.30964285714285716,0.00030517578125,0.032958000898361206,0.5712720155715942,48.60316848754883,0.0,0.013333299424913195
5988,-0.02863125271267361,0.41835948944091794,41.900001525878906,41.900001525878906,-41.900001525878906,41.900001525878906,-0.46555557250976565,0.33366666666666667,0.31035714285714283,0.000274658203125,-0.03295769030761875,0.6262019872665405,49.39418029785156,0.0,0.013333299424913195
5989,-0.02081875271267361,0.39843757629394533,41.900001525878906,41.900001525878906,-41.900001525878906,41.900001525878906,-0.46555557250976565,0.331,0.31035714285714283,0.0021056281195746527,-0.4504267149658219,0.2746500074863434,49.39418029785156,0.0,0.013333299424913195
5990,-0.005193752712673611,0.3785157012939453,41.900001525878906,41.900001525878906,-41.900001525878906,41.900001525878906,-0.46555557250976565,0.328,0.31035714285714283,0.005035230848524305,-0.9228254729003922,0.373524010181427,47.987937927246094,0.0,0.013333299424913195
5991,-0.005193752712673611,0.3785157012939453,41.900001525878906,41.900001525878906,-41.900001525878906,41.900001525878906,-0.46555557250976565,0.32566666666666666,0.31107142857142855,0.005370924207899305,-0.7800070219726578,0.6262019872665405,47.72426986694336,0.0,0.013333299424913195
5992,-0.01300625271267361,0.39843757629394533,41.900001525878906,41.900001525878906,-41.900001525878906,41.900001525878906,-0.46555557250976565,0.32233333333333336,0.31107142857142855,0.004516432020399305,-0.2966219359130875,0.5602860450744629,47.72426986694336,0.0,0.013333299424913195
5993,-0.02081875271267361,0.39843757629394533,41.900001525878906,41.900001525878906,-41.900001525878906,41.900001525878906,-0.46555557250976565,0.32,0.31142857142857144,0.004058753119574653,0.4064820110797882,0.8569080233573914,48.339500427246094,0.0,0.013333299424913195
5994,-0.03253750271267361,0.39843757629394533,41.900001525878906,41.900001525878906,-41.900001525878906,41.900001525878906,-0.46555557250976565,0.31733333333333336,0.31107142857142855,0.0031127081976996527,0.373524010181427,1.263390064239502,48.427391052246094,0.0,0.013333299424913195
5995,-0.05206875271267361,0.3785157012939453,41.900001525878906,41.900001525878906,-41.900001525878906,41.900001525878906,-0.46555557250976565,0.315,0.31,0.001190185546875,-0.03295769030761875,0.7031040191650391,48.075828552246094,0.0,0.013333299424913195
5996,-0.06378750271267361,0.3785157012939453,41.900001525878906,41.900001525878906,-41.900001525878906,41.900001525878906,-0.46555557250976565,0.313,0.31,0.000396728515625,-0.3954969816894547,-0.7909933500976578,47.72426986694336,0.0,0.013333299424913195
5997,-0.03644375271267361,0.39843757629394533,41.900001525878906,41.900001525878906,-41.900001525878906,41.900001525878906,-0.46555557250976565,0.30966666666666665,0.31035714285714283,0.0028685675726996527,-0.3845106535644547,-1.5709978514404312,49.48207092285156,0.0,0.013333299424913195
5998,-0.04816250271267361,0.33867195129394534,41.900001525878906,41.900001525878906,-41.900001525878906,41.900001525878906,-0.46555557250976565,0.30866666666666664,0.31107142857142855,0.001434326171875,-0.09887375170898594,-0.04394401843261875,49.5699577331543,0.0,0.013333299424913195
5999,-0.08331875271267361,0.3585938262939453,41.900001525878906,41.900001525878906,-41.900001525878906,41.900001525878906,-0.46555557250976565,0.30566666666666664,0.31142857142857144,-0.0035399542914496527,-0.49437012011718906,0.41746801137924194,49.7457389831543,0.0,0.013333299424913195
6000,-0.07941250271267361,0.3785157012939453,41.900001525878906,41.900001525878906,-41.900001525878906,41.900001525878906,-0.46555557250976565,0.30266666666666664,0.3125,-0.0028685675726996527,-0.10986007983398594,0.2856360077857971,50.0094108581543,0.0,0.013333299424913195
6001,-0.04816250271267361,0.3785157012939453,41.900001525878906,41.900001525878906,-41.900001525878906,41.900001525878906,-0.46555557250976565,0.3006666666666667,0.3142857142857143,0.001068115234375,0.3954960107803345,0.5383139848709106,51.5035400390625,0.0,0.013333299424913195
6002,-0.03253750271267361,0.3785157012939453,41.900001525878906,41.900001525878906,-41.900001525878906,41.900001525878906,-0.46555557250976565,0.29833333333333334,0.3142857142857143,0.004363928900824653,0.2746500074863434,0.7140899896621704,51.5035400390625,0.0,0.013333299424913195
6003,-0.02863125271267361,0.3585938262939453,41.900001525878906,41.900001525878906,-41.900001525878906,41.900001525878906,-0.46555557250976565,0.295,0.31392857142857145,0.005218336317274305,-0.2966219359130875,-0.2416922026367203,50.53675079345703,0.0,0.013333299424913195
6004,-0.03253750271267361,0.39843757629394533,41.900001525878906,41.900001525878906,-41.900001525878906,41.900001525878906,-0.46555557250976565,0.2916666666666667,0.3142857142857143,0.003967200385199653,-1.164517062255861,-0.834936755249025,49.13050842285156,0.0,0.013333299424913195
6005,-0.04816250271267361,0.39843757629394533,41.900001525878906,41.900001525878906,-41.900001525878906,41.900001525878906,-0.46555557250976565,0.28933333333333333,0.3142857142857143,0.001068115234375,-1.6039568358154312,-1.0656420164794937,48.69105911254883,0.0,0.013333299424913195
6006,-0.05206875271267361,0.3785157012939453,41.900001525878906,41.900001525878906,-41.900001525878906,41.900001525878906,-0.46555557250976565,0.2866666666666667,0.3142857142857143,6.103515625e-05,-1.6369139128417984,-1.0216986113281266,47.196929931640625,0.0,0.013333299424913195
6007,-0.04035000271267361,0.3785157012939453,41.900001525878906,41.900001525878906,-41.900001525878906,41.900001525878906,-0.46555557250976565,0.283,0.3142857142857143,0.0015563117133246527,-1.7248026304931656,0.2197200059890747,46.142250061035156,0.0,0.013333299424913195
6008,-0.04035000271267361,0.3785157012939453,41.900001525878906,41.900001525878906,-41.900001525878906,41.900001525878906,-0.46555557250976565,0.279,0.31464285714285717,0.0020445929633246527,-1.4831110411376969,0.9118380546569824,46.054359436035156,0.0,0.013333299424913195
6009,-0.05597500271267361,0.39843757629394533,41.900001525878906,41.900001525878906,-41.900001525878906,41.900001525878906,-0.46555557250976565,0.27566666666666667,0.31464285714285717,0.000457763671875,-1.0216986113281266,-0.20873512561035312,46.054359436035156,0.0,0.013333299424913195
6010,-0.05988125271267361,0.39843757629394533,41.900001525878906,41.900001525878906,-41.900001525878906,41.900001525878906,-0.46555557250976565,0.272,0.3142857142857143,-0.001190185546875,-0.7031046324462906,-2.3949495726318375,45.79069137573242,0.0,0.013333299424913195
6011,-0.04425625271267361,0.3785157012939453,41.900001525878906,41.900001525878906,-41.900001525878906,41.900001525878906,-0.46555557250976565,0.268,0.31285714285714283,-0.000274658203125,-1.175503390380861,-2.6586119108886734,45.17546081542969,0.0,0.013333299424913195
6012,-0.04816250271267361,0.3785157012939453,41.900001525878906,41.900001525878906,-41.900001525878906,41.900001525878906,-0.46555557250976565,0.26566666666666666,0.3125,-0.0025328742133246527,-1.6808592253417984,-1.6149431639404312,45.17546081542969,0.0,0.013333299424913195
6013,-0.05597500271267361,0.39843757629394533,41.900001525878906,41.900001525878906,-41.900001525878906,41.900001525878906,-0.46555557250976565,0.262,0.3117857142857143,-0.004791090223524305,-1.6039568358154312,-1.3183199339599625,45.17546081542969,0.0,0.013333299424913195
6014,-0.05206875271267361,0.3785157012939453,41.900001525878906,41.900001525878906,-41.900001525878906,41.900001525878906,-0.46555557250976565,0.258,0.31142857142857144,-0.004791090223524305,-1.3402925902099625,-0.9447962218017594,45.17546081542969,0.0,0.013333299424913195
6015,-0.05597500271267361,0.3187500762939453,41.900001525878906,41.900001525878906,-41.900001525878906,41.900001525878906,-0.46555557250976565,0.254,0.3107142857142857,-0.004791090223524305,-1.0436712675781266,-0.7031046324462906,45.17546081542969,0.0,0.013333299424913195
6016,-0.06378750271267361,0.33867195129394534,41.900001525878906,41.900001525878906,-41.900001525878906,41.900001525878906,-0.46555557250976565,0.25066666666666665,0.3107142857142857,-0.006896803114149305,-0.5383154326171891,-0.02197326953125156,45.17546081542969,0.0,0.013333299424913195
6017,-0.10285000271267361,0.33867195129394534,41.900001525878906,41.900001525878906,-41.900001525878906,41.900001525878906,-0.46555557250976565,0.24733333333333332,0.31,-0.01147427029079861,-0.3076082640380875,1.263390064239502,45.70280075073242,0.0,0.013333299424913195
6018,-0.10285000271267361,0.3585938262939453,41.900001525878906,41.900001525878906,-41.900001525878906,41.900001525878906,-0.46555557250976565,0.245,0.30964285714285716,-0.01061977810329861,0.17577600479125977,0.4943700134754181,45.79069137573242,0.0,0.013333299424913195
6019,-0.08722500271267361,0.3585938262939453,41.900001525878906,41.900001525878906,-41.900001525878906,41.900001525878906,-0.46555557250976565,0.24066666666666667,0.30892857142857144,-0.008056386311848959,-0.07690300280761875,-0.5383154326171891,47.54848861694336,0.0,0.013333299424913195
6020,-0.09113125271267361,0.3785157012939453,41.900001525878906,41.900001525878906,-41.900001525878906,41.900001525878906,-0.46555557250976565,0.23766666666666666,0.30892857142857144,-0.009368642171223959,-0.5053564482421891,0.17577600479125977,47.54848861694336,0.0,0.013333299424913195
6021,-0.11847500271267361,0.3785157012939453,41.900001525878906,41.900001525878906,-41.900001525878906,41.900001525878906,-0.46555557250976565,0.234,0.30964285714285716,-0.013122134738498263,-0.8788801604003922,-0.823950427124025,47.54848861694336,0.0,0.013333299424913195
6022,-0.09113125271267361,0.3585938262939453,41.900001525878906,41.900001525878906,-41.900001525878906,41.900001525878906,-0.46555557250976565,0.23133333333333334,0.30964285714285716,-0.01061977810329861,-0.5602861815185562,-4.240597384521486,47.54848861694336,0.0,0.013333299424913195
6023,-0.01300625271267361,0.39843757629394533,41.900001525878906,41.900001525878906,-41.900001525878906,41.900001525878906,-0.46555557250976565,0.22733333333333333,0.31035714285714283,-0.004424879286024305,-0.2966219359130875,-4.37242950732422,47.54848861694336,0.0,0.013333299424913195
6024,-0.01300625271267361,0.33867195129394534,41.900001525878906,41.900001525878906,-41.900001525878906,41.900001525878906,-0.46555557250976565,0.22233333333333333,0.3107142857142857,-0.006774732801649305,-1.0436712675781266,-0.7250772886962906,47.54848861694336,0.0,0.013333299424913195
6025,-0.07550625271267361,0.33867195129394534,41.900001525878906,41.900001525878906,-41.900001525878906,41.900001525878906,-0.46555557250976565,0.22033333333333333,0.31107142857142855,-0.014678531222873263,-1.2084604674072281,2.5707240104675293,47.54848861694336,0.0,0.013333299424913195
6026,-0.1341000027126736,0.3785157012939453,41.900001525878906,41.900001525878906,-41.900001525878906,41.900001525878906,-0.46555557250976565,0.217,0.31214285714285717,-0.02020204332139757,-0.9008528166503922,2.7355141639709473,47.54848861694336,0.0,0.013333299424913195
6027,-0.1341000027126736,0.39843757629394533,41.900001525878906,41.900001525878906,-41.900001525878906,41.900001525878906,-0.46555557250976565,0.213,0.31285714285714283,-0.01931703355577257,-0.3845106535644547,0.5383139848709106,47.54848861694336,0.0,0.013333299424913195
6028,-0.08722500271267361,0.39843757629394533,41.900001525878906,41.900001525878906,-41.900001525878906,41.900001525878906,-0.46555557250976565,0.21033333333333334,0.3125,-0.013549380832248263,0.2526780068874359,-1.8346620970459,47.54848861694336,0.0,0.013333299424913195
6029,-0.04425625271267361,0.3785157012939453,41.900001525878906,41.900001525878906,-41.900001525878906,41.900001525878906,-0.46555557250976565,0.20733333333333334,0.31214285714285717,-0.008819325764973959,0.6701459884643555,-1.6369139128417984,47.54848861694336,0.0,0.013333299424913195
6030,-0.05988125271267361,0.3585938262939453,41.900001525878906,41.900001525878906,-41.900001525878906,41.900001525878906,-0.46555557250976565,0.20433333333333334,0.31107142857142855,-0.01104702419704861,0.48338401317596436,0.36253800988197327,47.54848861694336,0.0,0.013333299424913195
6031,-0.12238125271267361,0.3187500762939453,41.900001525878906,41.900001525878906,-41.900001525878906,41.900001525878906,-0.46555557250976565,0.203,0.31,-0.017638651529947917,0.02197200059890747,0.7580339908599854,47.54848861694336,0.0,0.013333299424913195
6032,-0.1497250027126736,0.33867195129394534,41.900001525878906,41.900001525878906,-41.900001525878906,41.900001525878906,-0.46555557250976565,0.2,0.31035714285714283,-0.02096498277452257,-0.2966219359130875,0.38451001048088074,47.54848861694336,0.0,0.013333299424913195
6033,-0.1575375027126736,0.2789063262939453,41.900001525878906,41.900001525878906,-41.900001525878906,41.900001525878906,-0.46555557250976565,0.198,0.31107142857142855,-0.01892030504014757,-0.16478981311035312,1.8786060810089111,47.54848861694336,0.0,0.013333299424913195
6034,-0.1614437527126736,0.29882820129394533,41.900001525878906,41.900001525878906,-41.900001525878906,41.900001525878906,-0.46555557250976565,0.19433333333333333,0.3117857142857143,-0.01852357652452257,0.5932440161705017,1.8346620798110962,47.54848861694336,0.0,0.013333299424913195
6035,-0.09503750271267361,0.3187500762939453,41.900001525878906,41.900001525878906,-41.900001525878906,41.900001525878906,-0.46555557250976565,0.192,0.31214285714285717,-0.01055874294704861,0.3954960107803345,0.7031040191650391,48.60316848754883,0.0,0.013333299424913195
6036,-0.06378750271267361,0.33867195129394534,41.900001525878906,41.900001525878906,-41.900001525878906,41.900001525878906,-0.46555557250976565,0.18833333333333332,0.31214285714285717,-0.006988355848524305,0.02197200059890747,1.3512780666351318,50.0094108581543,0.0,0.013333299424913195
6037,-0.08331875271267361,0.33867195129394534,41.900001525878906,41.900001525878906,-41.900001525878906,41.900001525878906,-0.46555557250976565,0.186,0.3125,-0.007995351155598959,0.04394400119781494,1.6808580160140991,50.0094108581543,0.0,0.013333299424913195
6038,-0.11066250271267361,0.3585938262939453,41.900001525878906,41.900001525878906,-41.900001525878906,41.900001525878906,-0.46555557250976565,0.18266666666666667,0.3132142857142857,-0.009673817952473959,0.41746801137924194,2.208186149597168,50.0094108581543,0.0,0.013333299424913195
6039,-0.11456875271267361,0.33867195129394534,41.900001525878906,41.900001525878906,-41.900001525878906,41.900001525878906,-0.46555557250976565,0.18066666666666667,0.31285714285714283,-0.008392079671223959,0.6371880173683167,-0.02197326953125156,50.0094108581543,0.0,0.013333299424913195
6040,-0.06378750271267361,0.33867195129394534,41.900001525878906,41.900001525878906,-41.900001525878906,41.900001525878906,-0.46555557250976565,0.17833333333333334,0.3132142857142857,-0.0030516730414496527,0.7580339908599854,-2.0324102812500016,50.0094108581543,0.0,0.013333299424913195
6041,-0.05988125271267361,0.2789063262939453,41.900001525878906,41.900001525878906,-41.900001525878906,41.900001525878906,-0.46555557250976565,0.17633333333333334,0.31285714285714283,-0.0033873664008246527,0.12084600329399109,-2.3619905882568375,50.0094108581543,0.0,0.013333299424913195
6042,-0.07160000271267361,0.25898443222045897,41.900001525878906,41.900001525878906,-41.900001525878906,41.900001525878906,-0.46555557250976565,0.17366666666666666,0.31357142857142856,-0.006194898817274305,-0.5602861815185562,-1.0986010008544937,50.0094108581543,0.0,0.013333299424913195
6043,-0.1262875027126736,0.239062557220459,41.900001525878906,41.900001525878906,-41.900001525878906,41.900001525878906,-0.46555557250976565,0.17066666666666666,0.31464285714285717,-0.01068081325954861,-0.9777552061767594,0.5932440161705017,50.0094108581543,0.0,0.013333299424913195
6044,-0.1458187527126736,0.29882820129394533,41.900001525878906,41.900001525878906,-41.900001525878906,41.900001525878906,-0.46555557250976565,0.16733333333333333,0.31607142857142856,-0.014434390597873263,-0.5932451658935562,2.0104379653930664,50.0094108581543,0.0,0.013333299424913195
6045,-0.1419125027126736,0.29882820129394533,41.900001525878906,41.900001525878906,-41.900001525878906,41.900001525878906,-0.46555557250976565,0.164,0.3175,-0.01193203396267361,-0.5383154326171891,4.163693904876709,50.0094108581543,0.0,0.013333299424913195
6046,-0.1380062527126736,0.29882820129394533,41.900001525878906,41.900001525878906,-41.900001525878906,41.900001525878906,-0.46555557250976565,0.15933333333333333,0.31857142857142856,-0.0073849995930989586,-0.9118391447753922,5.525958061218262,50.0094108581543,0.0,0.013333299424913195
6047,-0.11847500271267361,0.3187500762939453,41.900001525878906,41.900001525878906,-41.900001525878906,41.900001525878906,-0.46555557250976565,0.15566666666666668,0.32035714285714284,-0.0015257941351996527,-1.5929705076904312,5.273280143737793,50.0094108581543,0.0,0.013333299424913195
6048,-0.11847500271267361,0.29882820129394533,41.900001525878906,41.900001525878906,-41.900001525878906,41.900001525878906,-0.46555557250976565,0.15233333333333332,0.32107142857142856,0.0035094367133246527,-1.505081790039064,3.779184103012085,50.0094108581543,0.0,0.013333299424913195
6049,-0.11847500271267361,0.29882820129394533,41.900001525878906,41.900001525878906,-41.900001525878906,41.900001525878906,-0.46555557250976565,0.14766666666666667,0.32321428571428573,0.006164381239149305,-0.9777552061767594,2.208186149597168,50.0094108581543,0.0,0.013333299424913195
6050,-0.1536312527126736,0.29882820129394533,41.900001525878906,41.900001525878906,-41.900001525878906,41.900001525878906,-0.46555557250976565,0.14466666666666667,0.3242857142857143,0.004028235541449653,-0.8788801604003922,0.14281800389289856,50.0094108581543,0.0,0.013333299424913195
6051,-0.1536312527126736,0.2789063262939453,41.900001525878906,41.900001525878906,-41.900001525878906,41.900001525878906,-0.46555557250976565,0.141,0.32571428571428573,0.0038451300726996527,-1.2304331236572281,-1.2084604674072281,50.0094108581543,0.0,0.013333299424913195
6052,-0.1380062527126736,0.2789063262939453,41.900001525878906,41.900001525878906,-41.900001525878906,41.900001525878906,-0.46555557250976565,0.137,0.3264285714285714,0.004577467176649305,-1.9225508146972672,-0.5492998533935562,50.0094108581543,0.0,0.013333299424913195
6053,-0.1380062527126736,0.2789063262939453,41.900001525878906,41.900001525878906,-41.900001525878906,41.900001525878906,-0.46555557250976565,0.13366666666666666,0.3289285714285714,0.004699537489149305,-1.8566347532959,-1.549027102539064,50.0094108581543,0.0,0.013333299424913195
6054,-0.11456875271267361,0.2789063262939453,41.900001525878906,41.900001525878906,-41.900001525878906,41.900001525878906,-0.46555557250976565,0.12966666666666668,0.33,0.004485914442274305,-1.527054446289064,-3.6253801756591812,50.0094108581543,0.0,0.013333299424913195
6055,-0.10675625271267361,0.25898443222045897,41.900001525878906,41.900001525878906,-41.900001525878906,41.900001525878906,-0.46555557250976565,0.12566666666666668,0.33107142857142857,0.0031432257758246527,-1.4611383848876969,-3.592423098632814,50.0094108581543,0.0,0.013333299424913195
6056,-0.10285000271267361,0.29882820129394533,41.900001525878906,41.900001525878906,-41.900001525878906,41.900001525878906,-0.46555557250976565,0.12233333333333334,0.33214285714285713,-0.001129150390625,-1.6918455534667984,-3.3727022581787125,50.0094108581543,0.0,0.013333299424913195
6057,-0.1419125027126736,0.219140682220459,41.900001525878906,41.900001525878906,-41.900001525878906,41.900001525878906,-0.46555557250976565,0.11866666666666667,0.33321428571428574,-0.004180738661024305,-1.3293062620849625,-3.218899386474611,50.0094108581543,0.0,0.013333299424913195
6058,-0.1575375027126736,0.239062557220459,41.900001525878906,41.900001525878906,-41.900001525878906,41.900001525878906,-0.46555557250976565,0.115,0.3342857142857143,-0.008971913655598959,-1.9994532042236344,-4.31749786669922,50.0094108581543,0.0,0.013333299424913195
6059,-0.11456875271267361,0.239062557220459,41.900001525878906,41.900001525878906,-41.900001525878906,41.900001525878906,-0.46555557250976565,0.111,0.3357142857142857,-0.008910878499348959,-2.6695982390136734,-3.943974154541017,49.13050842285156,0.0,0.013333299424913195
6060,-0.10285000271267361,0.2789063262939453,41.900001525878906,41.900001525878906,-41.900001525878906,41.900001525878906,-0.46555557250976565,0.107,0.3367857142857143,-0.01159634060329861,-2.3070608549804703,-2.0763555937500016,47.81216049194336,0.0,0.013333299424913195
6061,-0.1380062527126736,0.25898443222045897,41.900001525878906,41.900001525878906,-41.900001525878906,41.900001525878906,-0.46555557250976565,0.10366666666666667,0.33785714285714286,-0.015532938639322917,-1.9445234709472672,-2.6036821776123062,47.81216049194336,0.0,0.013333299424913195
6062,-0.1380062527126736,0.239062557220459,41.900001525878906,41.900001525878906,-41.900001525878906,41.900001525878906,-0.46555557250976565,0.09933333333333333,0.3382142857142857,-0.016845194498697917,-2.186215060302736,-1.9555078917236344,47.72426986694336,0.0,0.013333299424913195
6063,-0.11847500271267361,0.219140682220459,41.900001525878906,41.900001525878906,-41.900001525878906,41.900001525878906,-0.46555557250976565,0.09533333333333334,0.3389285714285714,-0.015593973795572917,-1.6259294920654312,-0.16478981311035312,47.72426986694336,0.0,0.013333299424913195
6064,-0.1458187527126736,0.19921878814697266,41.900001525878906,41.900001525878906,-41.900001525878906,41.900001525878906,-0.46555557250976565,0.09266666666666666,0.3392857142857143,-0.016723124186197917,-0.9997259550781266,1.6259280443191528,47.72426986694336,0.0,0.013333299424913195
6065,-0.1731625027126736,0.219140682220459,41.900001525878906,41.900001525878906,-41.900001525878906,41.900001525878906,-0.46555557250976565,0.08833333333333333,0.34,-0.017791239420572917,-0.7800070219726578,2.6256539821624756,47.72426986694336,0.0,0.013333299424913195
6066,-0.2005062527126736,0.17929691314697266,41.900001525878906,41.900001525878906,-41.900001525878906,41.900001525878906,-0.46555557250976565,0.086,0.34,-0.014281802707248263,-0.8898664885253922,3.548478126525879,47.72426986694336,0.0,0.013333299424913195
6067,-0.2122250027126736,0.15937503814697265,41.900001525878906,41.900001525878906,-41.900001525878906,41.900001525878906,-0.46555557250976565,0.08333333333333333,0.34035714285714286,-0.01168789333767361,-1.0216986113281266,3.614394187927246,47.72426986694336,0.0,0.013333299424913195
6068,-0.1848812527126736,0.17929691314697266,41.900001525878906,41.900001525878906,-41.900001525878906,41.900001525878906,-0.46555557250976565,0.07966666666666666,0.3407142857142857,-0.0074460347493489586,-0.5932451658935562,3.47157621383667,47.72426986694336,0.0,0.013333299424913195
6069,-0.1497250027126736,0.239062557220459,41.900001525878906,41.900001525878906,-41.900001525878906,41.900001525878906,-0.46555557250976565,0.07633333333333334,0.3410714285714286,-0.006225416395399305,-0.7031046324462906,1.6918439865112305,47.72426986694336,0.0,0.013333299424913195
6070,-0.1380062527126736,0.25898443222045897,41.900001525878906,41.900001525878906,-41.900001525878906,41.900001525878906,-0.46555557250976565,0.074,0.3407142857142857,-0.004699537489149305,-0.6262022429199234,0.6152160167694092,47.72426986694336,0.0,0.013333299424913195
6071,-0.1926937527126736,0.19921878814697266,41.900001525878906,41.900001525878906,-41.900001525878906,41.900001525878906,-0.46555557250976565,0.07233333333333333,0.34,-0.005340406629774305,-0.4394403868408219,-0.5602861815185562,47.72426986694336,0.0,0.013333299424913195
6072,-0.1497250027126736,0.19921878814697266,41.900001525878906,41.900001525878906,-41.900001525878906,41.900001525878906,-0.46555557250976565,0.06833333333333333,0.34,-0.004363844129774305,-0.6591612272949234,-1.6479002409667984,47.72426986694336,0.0,0.013333299424913195
6073,-0.11066250271267361,0.239062557220459,41.900001525878906,41.900001525878906,-41.900001525878906,41.900001525878906,-0.46555557250976565,0.06366666666666666,0.3385714285714286,-0.0034484015570746527,-2.186215060302736,-0.6262022429199234,47.72426986694336,0.0,0.013333299424913195
6074,-0.1575375027126736,0.2789063262939453,41.900001525878906,41.900001525878906,-41.900001525878906,41.900001525878906,-0.46555557250976565,0.06166666666666667,0.3389285714285714,-0.009093983968098959,-2.548752444335939,-1.527054446289064,47.72426986694336,0.0,0.013333299424913195
6075,-0.1966000027126736,0.239062557220459,41.900001525878906,41.900001525878906,-41.900001525878906,41.900001525878906,-0.46555557250976565,0.058666666666666666,0.33964285714285714,-0.012969546847873263,-2.900305407592775,-3.603409426757814,47.72426986694336,0.0,0.013333299424913195
6076,-0.2200375027126736,0.15937503814697265,41.900001525878906,41.900001525878906,-41.900001525878906,41.900001525878906,-0.46555557250976565,0.05566666666666667,0.34035714285714286,-0.01129116482204861,-2.933262484619142,-0.14281906420898594,47.72426986694336,0.0,0.013333299424913195
6077,-0.2395687527126736,0.17929691314697266,41.900001525878906,41.900001525878906,-41.900001525878906,41.900001525878906,-0.46555557250976565,0.052333333333333336,0.34285714285714286,-0.01202358669704861,-2.241144793579103,0.19774800539016724,47.72426986694336,0.0,0.013333299424913195
6078,-0.2161312527126736,0.15937503814697265,41.900001525878906,41.900001525878906,-41.900001525878906,41.900001525878906,-0.46555557250976565,0.04733333333333333,0.3442857142857143,-0.01068081325954861,-1.8456484251709,-1.0546575957031266,47.72426986694336,0.0,0.013333299424913195
6079,-0.1926937527126736,0.19921878814697266,41.900001525878906,41.900001525878906,-41.900001525878906,41.900001525878906,-0.46555557250976565,0.042333333333333334,0.3457142857142857,-0.01248135036892361,-1.6588865690917984,-1.175503390380861,47.72426986694336,0.0,0.013333299424913195
6080,-0.1770687527126736,0.239062557220459,41.900001525878906,41.900001525878906,-41.900001525878906,41.900001525878906,-0.46555557250976565,0.038,0.3460714285714286,-0.014159732394748263,-1.2743765288085953,0.45042601227760315,47.72426986694336,0.0,0.013333299424913195
6081,-0.2122250027126736,0.19921878814697266,41.900001525878906,41.900001525878906,-41.900001525878906,41.900001525878906,-0.46555557250976565,0.035333333333333335,0.3464285714285714,-0.013732486300998263,-1.2304331236572281,0.10986000299453735,47.72426986694336,0.0,0.013333299424913195
6082,-0.1966000027126736,0.19921878814697266,41.900001525878906,41.900001525878906,-41.900001525878906,41.900001525878906,-0.46555557250976565,0.030666666666666665,0.3460714285714286,-0.013122134738498263,-2.153256075927736,1.768746018409729,47.72426986694336,0.0,0.013333299424913195
6083,-0.29816250271267364,0.15937503814697265,41.900001525878906,41.900001525878906,-41.900001525878906,41.900001525878906,-0.46555557250976565,0.027,0.3467857142857143,-0.01196255154079861,-1.7138163023681656,1.4171940088272095,47.72426986694336,0.0,0.013333299424913195
6084,-0.2005062527126736,0.13945316314697265,41.900001525878906,41.900001525878906,-41.900001525878906,41.900001525878906,-0.46555557250976565,0.024333333333333332,0.3464285714285714,-0.005950758192274305,-1.4721247130126969,0.4394400119781494,47.72426986694336,0.0,0.013333299424913195
6085,-0.1926937527126736,0.1195312786102295,41.900001525878906,41.900001525878906,-41.900001525878906,41.900001525878906,-0.46555557250976565,0.018333333333333333,0.3464285714285714,-0.0035399542914496527,-0.6811319761962906,-0.6811319761962906,45.70280075073242,0.0,0.013333299424913195
6086,-0.1770687527126736,0.09960939407348633,41.900001525878906,41.900001525878906,-41.900001525878906,41.900001525878906,-0.46555557250976565,0.014333333333333333,0.3457142857142857,-0.0036620246039496527,0.2526780068874359,-0.834936755249025,42.275089263916016,0.0,0.013333299424913195
6087,-0.1848812527126736,0.15937503814697265,41.900001525878906,41.900001525878906,-41.900001525878906,41.900001525878906,-0.46555557250976565,0.010333333333333333,0.34285714285714286,-0.0076901753743489586,0.2856360077857971,-0.15380539233398594,27.773239135742188,0.0,0.013333299424913195
6088,-0.1770687527126736,0.17929691314697266,41.900001525878906,41.900001525878906,-41.900001525878906,41.900001525878906,-0.46555557250976565,0.007666666666666666,0.3392857142857143,-0.008056386311848959,-0.3076082640380875,0.8019779920578003,26.54277992248535,0.0,0.013333299424913195
6089,-0.2434750027126736,0.17929691314697266,41.900001525878906,41.900001525878906,-41.900001525878906,41.900001525878906,-0.46555557250976565,0.006666666666666667,0.3335714285714286,-0.01061977810329861,-0.3076082640380875,0.23070600628852844,26.54277992248535,0.0,0.013333299424913195
6090,-0.26300625271267364,0.17929691314697266,41.900001525878906,41.900001525878906,-41.900001525878906,41.900001525878906,-0.46555557250976565,0.005,0.33035714285714285,-0.01238979763454861,0.4284540116786957,-1.142544406005861,26.54277992248535,0.0,0.013333299424913195
6091,-0.27081875271267364,0.15937503814697265,41.900001525878906,41.900001525878906,-41.900001525878906,41.900001525878906,-0.46555557250976565,0.0026666666666666666,0.3242857142857143,-0.01153530544704861,1.8566340208053589,-1.175503390380861,26.54277992248535,0.0,0.013333299424913195
6092,-0.27863125271267364,0.13945316314697265,41.900001525878906,41.900001525878906,-41.900001525878906,41.900001525878906,-0.46555557250976565,0.002,0.32071428571428573,-0.01220669216579861,2.614668130874634,-0.7909933500976578,26.54277992248535,0.0,0.013333299424913195
6093,-0.32550625271267364,0.13945316314697265,41.900001525878906,41.900001525878906,-41.900001525878906,41.900001525878906,-0.46555557250976565,0.002,0.315,-0.014129214816623263,2.8124160766601562,-0.3625379973144547,26.367000579833984,0.0,0.013333299424913195
6094,-0.34503750271267364,0.13945316314697265,41.900001525878906,41.900001525878906,-41.900001525878906,41.900001525878906,-0.46555557250976565,0.0003333333333333333,0.31107142857142855,-0.014434390597873263,2.922276020050049,-0.8898664885253922,26.367000579833984,0.0,0.013333299424913195
6095,-0.1926937527126736,0.09960939407348633,41.900001525878906,41.900001525878906,-41.900001525878906,41.900001525878906,-0.46555557250976565,-0.0003333333333333333,0.30464285714285716,-0.0072629292805989586,1.2084600925445557,1.4281799793243408,26.54277992248535,0.0,0.013333299424913195
6096,-0.09503750271267361,0.05976563930511475,41.900001525878906,41.900001525878906,-41.900001525878906,41.900001525878906,-0.46555557250976565,0.0,0.29964285714285716,-0.0,0.5932440161705017,-0.3515516691894547,26.367000579833984,0.0,0.013333299424913195
