,WD,WS,AIL_1,AIL_2,ELEV_1,ELEV_2,RUDD,ALT,GS,TH,PTCH,ROLL,PLA_1,AIL,ELEV
3705,0.3696947627597385,0.09960939407348633,85.47554016113281,84.86180114746094,-4.8096466064453125,87.76683807373047,-0.006159803602430555,0.767,0.5014285714285714,-0.1212427192264133,0.7250760197639465,1.1645159721374512,40.69306945800781,0.006819322374131944,-0.08418316311306423
3706,0.3657885127597385,0.1195312786102295,84.28897857666016,84.08439636230469,-4.7482757568359375,87.97142028808594,-0.015024948120117187,0.7643333333333333,0.5010714285714286,-0.12072393629286024,0.9338099956512451,-0.4394403868408219,40.69306945800781,0.002273135715060764,-0.08577440049913194
3707,0.3579760127597385,0.1195312786102295,85.20958709716797,84.26852416992188,-4.830104827880859,87.97142028808594,-0.01797998216417101,0.762,0.5007142857142857,-0.12026618586646186,1.263390064239502,-0.08788933093261875,40.69306945800781,0.010456254747178819,-0.08668361239963107
3708,0.3501635127597385,0.09960939407348633,85.68012237548828,84.88226318359375,-4.850563049316406,88.0123291015625,-0.0043413374159071184,0.759,0.5003571428571428,-0.12191408740149604,1.1645159721374512,1.5160679817199707,40.69306945800781,0.008865102132161459,-0.08736546834309895
3709,0.3111010127597385,0.09960939407348633,85.41416931152344,85.41416931152344,-5.280181884765625,88.29874420166016,-0.008887566460503472,0.757,0.4992857142857143,-0.121608919567532,1.1205720901489258,1.9115641117095947,40.69306945800781,0.0,-0.09532140096028646
3710,0.2642260127597385,0.09960939407348633,84.61630249023438,84.08439636230469,-5.218807220458984,88.33966064453125,-0.01752539740668403,0.7543333333333333,0.49892857142857144,-0.12014411820305718,0.7250760197639465,0.5383139848709106,40.69306945800781,0.0059100680881076385,-0.09509408738878038
3711,0.3970385127597385,0.09960939407348633,84.69813537597656,83.96165466308594,-5.177890777587891,88.23736572265625,-0.011842600504557292,0.7523333333333333,0.49857142857142855,-0.11956430276234944,0.45042601227760315,0.1867620050907135,40.34151077270508,0.008183119032118056,-0.09350285000271268
3712,0.3345385127597385,0.09960939407348633,84.90271759033203,84.12531280517578,-5.1983489990234375,88.27828979492188,-0.012751854790581597,0.7493333333333333,0.4982142857142857,-0.11959482034047444,0.4614120125770569,0.38451001048088074,39.11104965209961,0.008637830946180555,-0.09418487548828125
3713,0.3579760127597385,0.09960939407348633,84.92317199707031,84.30943298339844,-5.157432556152344,88.31919860839844,-0.007296371459960938,0.745,0.49785714285714283,-0.11986947059631348,0.12084600329399109,0.7690200209617615,37.704811096191406,0.006819322374131944,-0.0941847907172309
3714,0.3579760127597385,0.09960939407348633,84.84133911132812,84.18669128417969,-5.11651611328125,88.38057708740234,-0.012069914076063368,0.7413333333333333,0.4975,-0.1197779205110338,-0.08788933093261875,0.2526780068874359,35.6833381652832,0.00727386474609375,-0.09441214667426215
3715,0.3736010127597385,0.09960939407348633,84.73905181884766,83.83889770507812,-5.034687042236328,88.1146240234375,-0.014570320977105035,0.7373333333333333,0.4967857142857143,-0.11913706991407606,-0.6811319761962906,-0.12084640795898594,35.50756072998047,0.010001712375217013,-0.0905479007297092
3716,0.3462572627597385,0.1195312786102295,84.92317199707031,84.12531280517578,-5.096061706542969,88.05325317382812,-0.01070603264702691,0.7326666666666667,0.4967857142857143,-0.11874035199483236,-0.9997259550781266,0.2856360077857971,35.50756072998047,0.008865102132161459,-0.09054794311523437
3717,0.3267260127597385,0.09960939407348633,85.18913269042969,84.39126586914062,-5.075603485107422,88.1146240234375,-0.012751854790581597,0.7276666666666667,0.49642857142857144,-0.11880138715108236,-0.8898664885253922,0.6371880173683167,35.50756072998047,0.008865186903211806,-0.09100252787272135
3718,0.2681322627597385,0.09960939407348633,85.06637573242188,84.41172790527344,-4.993770599365234,88.0737075805664,-0.0059324900309244795,0.7216666666666667,0.49642857142857144,-0.11999153561062283,-0.9228254729003922,0.790992021560669,35.50756072998047,0.00727386474609375,-0.0896386464436849
3719,0.2525072627597385,0.07968751907348633,85.06637573242188,84.45263671875,-5.014228820800781,88.05325317382812,-0.01070603264702691,0.716,0.49607142857142855,-0.12014411820305718,-0.9887415343017594,0.8239500522613525,35.50756072998047,0.006819322374131944,-0.08963868882921007
3720,0.2642260127597385,0.07968751907348633,85.0050048828125,84.49356079101562,-4.952854156494141,88.1555404663086,-0.013661109076605903,0.7093333333333334,0.49642857142857144,-0.11950327025519478,-1.2194467955322281,1.1535300016403198,35.15599822998047,0.005682712131076389,-0.09009327358669705
3721,0.2876635127597385,0.07968751907348633,84.73905181884766,84.14576721191406,-4.830104827880859,87.86912536621094,-0.009569507175021702,0.704,0.4967857142857143,-0.11889293723636203,-1.3183199339599625,0.4394400119781494,31.816179275512695,0.0065920511881510414,-0.08554700215657553
3722,0.2603197627597385,0.1195312786102295,84.53446960449219,83.85935974121094,-4.707359313964844,87.68500518798828,-0.012069914076063368,0.6976666666666667,0.4967857142857143,-0.11678728527492947,-1.2194467955322281,0.06591600179672241,28.65213966369629,0.007501220703125,-0.08213738335503472
3723,0.2486010127597385,0.13945316314697265,84.75950622558594,84.12531280517578,-4.789188385009766,87.93049621582031,-0.012979168362087673,0.6913333333333334,0.49607142857142855,-0.11489525371127658,-0.8678938322753922,0.4723980128765106,25.575990676879883,0.007046593560112847,-0.08577427334255643
3724,0.2915697627597385,0.13945316314697265,85.02546691894531,84.43218231201172,-4.952854156494141,88.05325317382812,-0.010478719075520834,0.6856666666666666,0.49607142857142855,-0.11407130029466417,-0.823950427124025,0.9447960257530212,25.575990676879883,0.0065920511881510414,-0.08895674811469184
3725,0.3189135127597385,0.13945316314697265,85.14820861816406,84.47309875488281,-5.218807220458984,88.1146240234375,-0.008887566460503472,0.68,0.4953571428571429,-0.11416285302903917,-0.9228254729003922,1.0107120275497437,25.575990676879883,0.007501220703125,-0.09259368048773872
3726,0.2017260127597385,0.13945316314697265,84.92317199707031,84.28897857666016,-5.300640106201172,88.25782775878906,-0.01252454121907552,0.675,0.49464285714285716,-0.11413233545091417,-1.5819841795654312,0.8788800239562988,25.575990676879883,0.007046593560112847,-0.09509408738878038
3727,0.2446947627597385,0.1195312786102295,84.86180114746094,84.28897857666016,-5.484760284423828,88.42149353027344,-0.00843293931749132,0.6693333333333333,0.4932142857142857,-0.11510887145996093,-1.7357889586181656,1.1095860004425049,25.575990676879883,0.006364695231119792,-0.0989583757188585
3728,0.3189135127597385,0.09960939407348633,84.6572265625,84.08439636230469,-5.382472991943359,88.33966064453125,-0.011615286933051215,0.6626666666666666,0.4925,-0.1152004188961453,-2.0983263426513687,0.3405660092830658,25.575990676879883,0.006364780002170139,-0.09691259596082899
3729,0.2954760127597385,0.13945316314697265,84.63676452636719,84.5140151977539,-5.096061706542969,88.21691131591797,-0.012069914076063368,0.656,0.49,-0.1131863170199924,-2.3180471831054703,-0.02197326953125156,25.575990676879883,0.0013638814290364584,-0.09236636691623264
3730,0.2290697627597385,0.15937503814697265,84.61630249023438,84.16622924804688,-5.177890777587891,88.27828979492188,-0.01775266859266493,0.65,0.48892857142857143,-0.11193513340420193,-2.230158465454103,-0.09887375170898594,25.575990676879883,0.0050008138020833336,-0.09395756191677518
3731,0.2446947627597385,0.15937503814697265,84.20714569091797,83.94119262695312,-5.177890777587891,88.29874420166016,-0.013888380262586805,0.6453333333333333,0.48678571428571427,-0.11169100337558323,-2.219172137329103,0.35155200958251953,25.575990676879883,0.0029550340440538192,-0.09418483310275608
3732,0.3579760127597385,0.1195312786102295,83.69569396972656,83.1024169921875,-5.055145263671875,88.13508605957031,-0.008660252888997395,0.6403333333333333,0.4857142857142857,-0.11339993476867676,-2.4279066496582047,-0.812964098999025,25.575990676879883,0.006591966417100695,-0.09100257025824653
3733,0.4087572627597385,0.1195312786102295,83.75706481933594,83.18424987792969,-4.952854156494141,88.03279113769531,-0.010933346218532987,0.6346666666666667,0.48428571428571426,-0.11443750063578288,-2.4059339934082047,-0.20873512561035312,25.575990676879883,0.006364610460069444,-0.0887293921576606
3734,0.4009447627597385,0.1195312786102295,84.49356079101562,83.71615600585938,-4.8096466064453125,87.84866333007812,-0.009796820746527778,0.6283333333333333,0.4828571428571429,-0.11373561753167047,-2.0763555937500016,1.6698720455169678,25.575990676879883,0.008637830946180555,-0.0850923326280382
3735,0.3032885127597385,0.09960939407348633,84.47309875488281,84.24806213378906,-4.707359313964844,87.64408874511719,0.0017960866292317708,0.621,0.4810714285714286,-0.1152004188961453,-1.5819841795654312,3.3397440910339355,25.575990676879883,0.0025004069010416668,-0.08168275621202258
3736,0.1782885127597385,0.09960939407348633,84.43218231201172,83.83889770507812,-4.871021270751953,87.82821655273438,-0.00775099860297309,0.6136666666666667,0.4785714285714286,-0.11471215354071723,-0.845923083374025,3.537492036819458,25.575990676879883,0.0065920511881510414,-0.08554708692762587
3737,0.1509447627597385,0.13945316314697265,83.81844329833984,82.89783477783203,-5.055145263671875,88.13508605957031,-0.015706888834635415,0.607,0.4757142857142857,-0.11037878460354275,-1.0436712675781266,2.4608640670776367,25.575990676879883,0.010228983561197917,-0.09100257025824653
3738,0.1626635127597385,0.19921878814697266,85.63920593261719,84.1048583984375,-5.566593170166016,88.6669921875,-0.019343863593207465,0.601,0.4735714285714286,-0.10427545441521538,-1.560013430664064,3.1090381145477295,25.575990676879883,0.017048305935329862,-0.10259539286295573
3739,0.2017260127597385,0.17929691314697266,85.61874389648438,85.35279846191406,-6.712242126464844,89.83309936523438,-0.00843293931749132,0.597,0.47,-0.10171205202738444,-1.8017050200195328,5.5479302406311035,25.575990676879883,0.0029549492730034724,-0.1282815721299913
3740,0.1821947627597385,0.13945316314697265,86.27340698242188,86.0074462890625,-7.100944519042969,89.93538665771484,-0.002522828843858507,0.594,0.4667857142857143,-0.10088810390896268,-2.164242404052736,6.382866382598877,25.575990676879883,0.0029551188151041665,-0.1337370130750868
3741,0.2095385127597385,0.09960939407348633,85.88470458984375,85.5164566040039,-7.632850646972656,90.2218017578125,-0.006841744316948784,0.5906666666666667,0.4625,-0.09853831926981609,-2.966221468994142,6.712446212768555,25.575990676879883,0.004091644287109375,-0.14282947116427952
3742,0.2446947627597385,0.09960939407348633,86.49844360351562,84.98455047607422,-7.735141754150391,90.83554077148438,-0.006841744316948784,0.5876666666666667,0.4592857142857143,-0.0946321858300103,-3.570450442382814,6.558642387390137,25.575990676879883,0.01682103474934896,-0.15078536139594184
3743,0.3189135127597385,0.13945316314697265,86.68256378173828,84.86180114746094,-7.305522918701172,90.46729278564453,-0.018207295735677084,0.586,0.4546428571428571,-0.0865757836235894,-3.7352415495605484,6.020328044891357,25.575990676879883,0.02023069593641493,-0.14192017449273003
3744,0.3462572627597385,0.15937503814697265,86.35523986816406,87.21446990966797,-6.957736968994141,90.34454345703125,-0.01843460930718316,0.581,0.4514285714285714,-0.08022831810845268,-3.548477786132814,6.679488182067871,25.575990676879883,-0.009547000461154514,-0.13669200473361545
3745,0.3579760127597385,0.1195312786102295,85.23004150390625,85.68012237548828,-6.7531585693359375,89.62850952148438,0.0036145528157552082,0.5766666666666667,0.4471428571428571,-0.08022831810845268,-3.3727022581787125,6.547656059265137,25.575990676879883,-0.00500089857313368,-0.12646297878689236
3746,0.2876635127597385,0.09960939407348633,84.14576721191406,83.5934066772461,-6.4462890625,89.52622985839844,0.006342273288302952,0.5696666666666667,0.4442857142857143,-0.07885506947835287,-3.3067861967773453,4.976658344268799,25.575990676879883,0.006137339274088541,-0.12191687689887153
3747,0.3540697627597385,0.13945316314697265,85.33233642578125,84.43218231201172,-6.405372619628906,89.40347290039062,-0.035028330485026044,0.5666666666666667,0.44142857142857145,-0.07070711983574761,-3.0980535917968766,4.636092185974121,25.575990676879883,0.010001712375217013,-0.12009828355577257
3748,0.2486010127597385,0.13945316314697265,86.13019561767578,85.74149322509766,-6.241706848144531,89.30118560791016,-0.0002497355143229167,0.561,0.4382142857142857,-0.0696390363905165,-2.7465006285400406,6.053286075592041,25.575990676879883,0.0043189154730902775,-0.11714324951171876
3749,0.2486010127597385,0.1195312786102295,87.09172058105469,85.5982894897461,-6.159877777099609,89.0761489868164,-0.009114880032009548,0.5556666666666666,0.435,-0.06689253913031684,-2.6476274901123062,6.393852233886719,25.575990676879883,0.01659367879231771,-0.11373363071017795
3750,0.2525072627597385,0.09960939407348633,85.70057678222656,84.0434799194336,-6.078044891357422,89.0761489868164,-0.0059324900309244795,0.5513333333333333,0.4325,-0.06377983093261719,-2.3510042601318375,6.240048408508301,25.575990676879883,0.01841218736436632,-0.11282437642415365
3751,0.1978197627597385,0.07968751907348633,85.18913269042969,86.0074462890625,-5.771175384521484,88.6056137084961,-0.006159803602430555,0.546,0.42892857142857144,-0.061002816094292533,-2.0324102812500016,5.657790184020996,25.575990676879883,-0.00909237331814236,-0.1041865454779731
3752,0.2368822627597385,0.07968751907348633,84.49356079101562,84.53446960449219,-5.934837341308594,89.13752746582031,-0.015934202406141493,0.5413333333333333,0.42607142857142855,-0.05669996473524305,-1.6369139128417984,4.71299409866333,25.575990676879883,-0.00045454237196180554,-0.11191516452365452
3753,0.2525072627597385,0.09960939407348633,85.57783508300781,84.92317199707031,-5.832546234130859,88.72836303710938,-0.016388829549153647,0.537,0.42214285714285715,-0.05163420571221246,-1.7467752867431656,4.800882339477539,25.575990676879883,0.007274034288194444,-0.10623232523600261
3754,0.2329760127597385,0.1195312786102295,85.29141998291016,84.94363403320312,-5.934837341308594,88.62606811523438,-0.00775099860297309,0.532,0.41964285714285715,-0.0484299553765191,-1.549027102539064,4.899755954742432,25.575990676879883,0.003864288330078125,-0.10623228285047744
3755,0.2368822627597385,0.1195312786102295,83.94119262695312,83.36836242675781,-5.853004455566406,88.85111236572266,-0.015024948120117187,0.5276666666666666,0.41535714285714287,-0.04437123404608832,-1.2084604674072281,3.932988166809082,25.575990676879883,0.006364780002170139,-0.10782352023654514
3756,0.3032885127597385,0.1195312786102295,84.75950622558594,83.42974090576172,-5.791633605957031,88.68744659423828,-0.017070770263671875,0.523,0.41285714285714287,-0.03985477023654514,-1.3732515745849625,3.6583380699157715,25.575990676879883,0.014775170220269097,-0.10532311333550347
3757,0.2681322627597385,0.13945316314697265,85.02546691894531,84.57539367675781,-5.44384765625,88.36012268066406,-0.009796820746527778,0.5176666666666667,0.4092857142857143,-0.03646741443210178,-1.7687460356445328,4.625106334686279,25.575990676879883,0.0050008138020833336,-0.09782189263237848
3758,0.2993822627597385,0.13945316314697265,86.53935241699219,86.0688247680664,-5.607509613037109,88.46240997314453,-0.003204769558376736,0.513,0.40714285714285714,-0.033049551645914714,-1.527054446289064,6.503712177276611,25.575990676879883,0.005228084988064236,-0.10077688429090711
3759,0.2876635127597385,0.1195312786102295,86.41661071777344,86.02790832519531,-5.5870513916015625,88.42149353027344,-0.003886710272894965,0.5076666666666667,0.4035714285714286,-0.02905186547173394,-1.505081790039064,6.240048408508301,25.575990676879883,0.0043189154730902775,-0.10009494357638889
3760,0.3306322627597385,0.13945316314697265,87.23492431640625,86.02790832519531,-5.607509613037109,88.58515930175781,-0.01661614312065972,0.5023333333333333,0.4014285714285714,-0.02279595269097222,-1.8017050200195328,5.251307964324951,25.575990676879883,0.013411288791232639,-0.10214076571994357
3761,0.3267260127597385,0.15937503814697265,87.09172058105469,86.72348022460938,-5.730258941650391,88.64653015136719,-0.02320815192328559,0.497,0.39785714285714285,-0.017119852701822917,-2.175228732177736,4.427358150482178,25.575990676879883,0.004091559516059028,-0.1041865454779731
3762,0.2915697627597385,0.15937503814697265,85.90515899658203,85.41416931152344,-6.303081512451172,89.32164001464844,-0.006841744316948784,0.492,0.395,-0.015410921308729383,-2.3290335112304703,3.845100164413452,25.575990676879883,0.005455440945095486,-0.11805246141221788
3763,0.2603197627597385,0.13945316314697265,85.82332611083984,85.41416931152344,-6.67132568359375,89.73080444335938,-0.004795964558919271,0.4876666666666667,0.39035714285714285,-0.014007155100504558,-2.570725100585939,3.3507301807403564,25.575990676879883,0.00454618665907118,-0.1266903347439236
3764,0.2486010127597385,0.1195312786102295,85.78240966796875,85.29141998291016,-6.7531585693359375,89.73080444335938,-0.003886710272894965,0.4836666666666667,0.38642857142857145,-0.013213719262017145,-2.900305407592775,2.6915700435638428,25.575990676879883,0.005455440945095486,-0.12759958902994792
3765,0.2681322627597385,0.1195312786102295,84.73905181884766,84.14576721191406,-6.957736968994141,90.13996887207031,-0.014797634548611112,0.4806666666666667,0.3807142857142857,-0.010833411746554904,-3.218899386474611,1.922550082206726,25.575990676879883,0.0065920511881510414,-0.13441895378960503
3766,0.2837572627597385,0.13945316314697265,84.6572265625,84.24806213378906,-6.773616790771484,89.87400817871094,-0.018661922878689237,0.47733333333333333,0.37642857142857145,-0.007690196567111545,-3.537493365356447,1.6588860750198364,25.575990676879883,0.004546271430121528,-0.12941805521647134
3767,0.3150072627597385,0.13945316314697265,86.19157409667969,84.57539367675781,-6.548576354980469,89.73080444335938,-0.01547957526312934,0.47433333333333333,0.37107142857142855,-0.005035252041286893,-3.6583391600341812,2.3839621543884277,29.706819534301758,0.017957560221354165,-0.12532645331488715
3768,0.2603197627597385,0.15937503814697265,87.03034973144531,86.19157409667969,-6.180332183837891,89.05569458007812,-0.007069057888454861,0.47,0.3675,-0.0032652854919433595,-3.537493365356447,3.9000301361083984,36.1227912902832,0.009319729275173612,-0.11373363071017795
3769,0.1978197627597385,0.15937503814697265,86.39614868164062,86.49844360351562,-6.241706848144531,89.03523254394531,0.005205747816297743,0.4656666666666667,0.3628571428571429,-0.0039061334398057725,-2.933262484619142,3.8121421337127686,39.28683090209961,-0.0011366102430555556,-0.11418821546766493
3770,0.1978197627597385,0.15937503814697265,85.0050048828125,84.61630249023438,-6.037128448486328,88.93293762207031,-0.014797634548611112,0.4623333333333333,0.3607142857142857,-0.0009765307108561198,-2.6146685057373062,2.0104379653930664,41.74774932861328,0.0043189154730902775,-0.11077851189507379
3771,0.2993822627597385,0.13945316314697265,84.96409606933594,84.554931640625,-5.730258941650391,88.6669921875,-0.029572847154405384,0.4583333333333333,0.35928571428571426,0.0031126976013183595,-2.3070608549804703,0.6371880173683167,42.89031982421875,0.004546271430121528,-0.10441390143500434
3772,0.2251635127597385,0.17929691314697266,85.61874389648438,85.08683776855469,-5.730258941650391,88.6056137084961,-0.013661109076605903,0.4533333333333333,0.3585714285714286,0.0038756158616807725,-2.142269747802736,0.9777539968490601,44.38444900512695,0.0059100680881076385,-0.10373191833496094
3773,0.2446947627597385,0.15937503814697265,84.77996826171875,84.28897857666016,-5.771175384521484,88.54424285888672,-0.006387117173936632,0.44966666666666666,0.3578571428571429,0.004333368937174479,-1.6588865690917984,0.9777539968490601,45.966468811035156,0.005455440945095486,-0.10350464714898003
3774,0.2720385127597385,0.15937503814697265,85.25050354003906,84.6572265625,-5.832546234130859,88.62606811523438,-0.018889236450195312,0.44666666666666666,0.3578571428571429,0.006439018249511719,-1.2304331236572281,1.1425440311431885,46.142250061035156,0.006591966417100695,-0.10509571499294705
3775,0.2407885127597385,0.17929691314697266,85.88470458984375,84.43218231201172,-5.9757537841796875,88.93293762207031,-0.006387117173936632,0.44333333333333336,0.3575,0.006805218590630426,-0.9557825499267594,1.4721240997314453,46.142250061035156,0.0161391364203559,-0.11009657118055556
3776,0.2954760127597385,0.13945316314697265,84.61630249023438,83.81844329833984,-6.118961334228516,89.0761489868164,-0.00843293931749132,0.44033333333333335,0.35642857142857143,0.007598654429117838,-0.9447962218017594,1.3952220678329468,46.142250061035156,0.008865102132161459,-0.1132790035671658
3777,0.2720385127597385,0.15937503814697265,85.0459213256836,84.86180114746094,-5.996212005615234,88.91248321533203,-0.0168434566921658,0.437,0.3557142857142857,0.008453114827473959,-1.4281813078613297,1.5270540714263916,46.142250061035156,0.002045779758029514,-0.11009661356608073
3778,0.2681322627597385,0.15937503814697265,84.90271759033203,84.30943298339844,-5.7507171630859375,88.564697265625,-0.012297227647569445,0.43466666666666665,0.35535714285714287,0.009948433770073786,-1.6259294920654312,1.3842360973358154,46.142250061035156,0.0065920511881510414,-0.10350460476345485
3779,0.2642260127597385,0.17929691314697266,85.02546691894531,84.43218231201172,-5.525676727294922,88.40103149414062,-0.015024948120117187,0.432,0.355,0.012908554077148438,-1.527054446289064,1.4171940088272095,46.142250061035156,0.0065920511881510414,-0.09918564690483941
3780,0.2876635127597385,0.17929691314697266,86.25294494628906,85.88470458984375,-5.709800720214844,88.74882507324219,-0.02093505859375,0.42966666666666664,0.355,0.01577712164984809,-1.3952223234863297,1.768746018409729,46.142250061035156,0.004091559516059028,-0.10509584214952257
3781,0.2720385127597385,0.17929691314697266,85.76194763183594,85.39370727539062,-5.955295562744141,88.70790100097656,-0.007069057888454861,0.42833333333333334,0.35428571428571426,0.01580763922797309,-1.0986010008544937,1.8346620798110962,46.142250061035156,0.004091559516059028,-0.10736885070800781
3782,0.2251635127597385,0.17929691314697266,87.43951416015625,86.43707275390625,-6.221248626708984,89.03523254394531,-0.01320648193359375,0.42533333333333334,0.3539285714285714,0.015899181365966797,-1.3512789183349625,2.3180460929870605,46.142250061035156,0.011138237847222222,-0.11396090189615886
3783,0.2486010127597385,0.13945316314697265,88.72836303710938,88.03279113769531,-6.691783905029297,89.42393493652344,-0.009114880032009548,0.42433333333333334,0.3535714285714286,0.01644847657945421,-1.5819841795654312,3.1200242042541504,46.142250061035156,0.00772857666015625,-0.12350798712836372
3784,0.2251635127597385,0.13945316314697265,85.31187438964844,85.31187438964844,-6.241706848144531,89.03523254394531,-0.00775099860297309,0.42333333333333334,0.3539285714285714,0.017272429996066624,-2.493822711059572,1.7028300762176514,46.142250061035156,0.0,-0.11418821546766493
3785,0.2993822627597385,0.1195312786102295,85.74149322509766,85.31187438964844,-6.221248626708984,89.17843627929688,-0.02548124525282118,0.42333333333333334,0.35464285714285715,0.019408596886528864,-3.0980535917968766,0.9667680263519287,46.142250061035156,0.004773542616102431,-0.11555205451117621
3786,0.3189135127597385,0.1195312786102295,86.04837036132812,85.53691101074219,-6.303081512451172,89.1170654296875,-0.017070770263671875,0.421,0.35535714285714287,0.020140997568766274,-3.273829119750978,0.6042300462722778,46.142250061035156,0.005682881673177083,-0.11577941046820747
3787,0.2368822627597385,0.13945316314697265,84.77996826171875,85.16867065429688,-6.487205505371094,89.40347290039062,-0.010478719075520834,0.419,0.35642857142857143,0.020079962412516274,-3.493548052856447,0.3185940086841583,46.142250061035156,-0.0043189154730902775,-0.12100753784179688
3788,0.2212572627597385,0.15937503814697265,84.0025634765625,83.47065734863281,-6.650867462158203,89.44439697265625,-0.01729808383517795,0.4166666666666667,0.35714285714285715,0.020476690928141274,-3.4166475706787125,-0.07690300280761875,46.142250061035156,0.0059100680881076385,-0.12328071594238281
3789,0.2486010127597385,0.13945316314697265,85.25050354003906,84.20714569091797,-6.466747283935547,89.48530578613281,-0.009796820746527778,0.4136666666666667,0.3578571428571429,0.021117538876003688,-3.4056612425537125,0.4614120125770569,46.142250061035156,0.011592864990234375,-0.12168947855631511
3790,0.2564135127597385,0.13945316314697265,83.12287139892578,84.6572265625,-6.221248626708984,89.13752746582031,-0.02684512668185764,0.4106666666666667,0.3578571428571429,0.0220330450269911,-3.3067861967773453,0.45042601227760315,46.142250061035156,-0.017048390706380208,-0.1150975121392144
3791,0.2564135127597385,0.09960939407348633,84.0434799194336,83.02058410644531,-6.016670227050781,88.97386169433594,0.0004322052001953125,0.407,0.3575,0.019439114464653864,-2.889319079467775,0.5383139848709106,46.142250061035156,0.011365509033203125,-0.1110059102376302
3792,0.2173510127597385,0.13945316314697265,84.49356079101562,84.0434799194336,-6.343997955322266,89.36256408691406,-0.001613616943359375,0.402,0.3578571428571429,0.020385138193766274,-2.230158465454103,0.8569080233573914,46.142250061035156,0.00500089857313368,-0.11896180046929253
3793,0.3579760127597385,0.09960939407348633,82.63188171386719,83.08195495605469,-5.996212005615234,88.81019592285156,-0.020707745022243925,0.39766666666666667,0.3575,0.0218499395582411,-2.6586119108886734,-0.3185945921630875,46.142250061035156,-0.0050008138020833336,-0.10896008809407552
3794,0.3696947627597385,0.09960939407348633,84.02302551269531,82.83645629882812,-5.7507171630859375,88.58515930175781,-0.02320815192328559,0.39266666666666666,0.3575,0.02288749482896593,-3.0760809355468766,-0.2636648588867203,46.142250061035156,0.013184102376302083,-0.10373196072048611
3795,0.4009447627597385,0.07968751907348633,85.33233642578125,84.75950622558594,-5.525676727294922,88.13508605957031,-0.0009316762288411458,0.38866666666666666,0.3578571428571429,0.0213616583082411,-2.834389346191408,1.1205720901489258,46.142250061035156,0.006364780002170139,-0.09623069763183593
3796,0.3618822627597385,0.07968751907348633,86.70301818847656,85.82332611083984,-5.566593170166016,88.31919860839844,-0.012069914076063368,0.38366666666666666,0.3582142857142857,0.0219414922926161,-2.3290335112304703,2.186213970184326,46.142250061035156,0.009774356418185763,-0.09873101976182726
3797,0.3150072627597385,0.09960939407348633,87.70545959472656,87.29630279541016,-5.853004455566406,88.81019592285156,-0.014797634548611112,0.37833333333333335,0.3585714285714286,0.024199708302815755,-2.1093126707763687,1.9555079936981201,46.142250061035156,0.00454618665907118,-0.10736889309353298
3798,0.3150072627597385,0.09960939407348633,87.562255859375,87.25538635253906,-5.832546234130859,88.6669921875,-0.014343007405598959,0.373,0.3585714285714286,0.026122273339165582,-2.3729769163818375,1.252403974533081,46.142250061035156,0.003409661187065972,-0.10555042690700955
3799,0.3423510127597385,0.09960939407348633,84.24806213378906,84.63676452636719,-5.382472991943359,88.31919860839844,-0.010933346218532987,0.368,0.35928571428571426,0.02773964140150282,-2.581711428710939,-0.15380539233398594,46.142250061035156,-0.0043189154730902775,-0.09668524000379775
3800,0.3150072627597385,0.15937503814697265,84.12531280517578,83.83889770507812,-5.402931213378906,88.0737075805664,-0.017070770263671875,0.363,0.36,0.030882867177327473,-2.3619905882568375,-1.131558077880861,46.142250061035156,0.0031823900010850693,-0.09418487548828125
3801,0.3618822627597385,0.15937503814697265,84.73905181884766,83.96165466308594,-5.873462677001953,89.0147705078125,-0.02570855882432726,0.35933333333333334,0.3610714285714286,0.03176785575018989,-1.8786074095459,-1.4171949797363297,46.142250061035156,0.008637746175130209,-0.10986925760904948
3802,0.3579760127597385,0.1195312786102295,84.49356079101562,84.02302551269531,-6.303081512451172,89.17843627929688,0.006342273288302952,0.3556666666666667,0.36178571428571427,0.02719034618801541,-2.142269747802736,-0.2746511870117203,46.142250061035156,0.005228169759114583,-0.11646130879720053
3803,0.2642260127597385,0.1195312786102295,84.37080383300781,84.20714569091797,-6.078044891357422,89.05569458007812,0.004523807101779514,0.3526666666666667,0.3625,0.02325370576646593,-2.834389346191408,-0.4614130430908219,46.142250061035156,0.0018184238009982638,-0.11259710523817275
3804,0.2915697627597385,0.09960939407348633,83.26608276367188,83.14332580566406,-6.384914398193359,89.48530578613281,-0.015706888834635415,0.349,0.3628571428571429,0.02310111787584093,-2.900305407592775,-1.1974741392822281,46.142250061035156,0.0013639662000868055,-0.1207802242702908
3805,0.2954760127597385,0.13945316314697265,85.86424255371094,84.26852416992188,-6.343997955322266,89.38301849365234,-0.027754380967881943,0.346,0.3632142857142857,0.02526780234442817,-2.6146685057373062,0.05493000149726868,46.142250061035156,0.017730204264322917,-0.11918907165527344
3806,0.2798510127597385,0.13945316314697265,87.72592163085938,85.68012237548828,-6.3644561767578125,89.40347290039062,-0.007069057888454861,0.342,0.3628571428571429,0.025633992089165582,-2.5926958494873062,1.252403974533081,46.142250061035156,0.022731102837456597,-0.11964365641276041
3807,0.2915697627597385,0.13945316314697265,87.562255859375,86.74394226074219,-6.323539733886719,89.48530578613281,-0.01661614312065972,0.3373333333333333,0.3628571428571429,0.026885191599527996,-2.559738772460939,0.9997260570526123,46.142250061035156,0.00909237331814236,-0.12009828355577257
3808,0.2290697627597385,0.17929691314697266,87.97142028808594,87.39859008789062,-6.323539733886719,89.30118560791016,-0.01252454121907552,0.333,0.3625,0.02761759228176541,-2.823403018066408,0.5053560137748718,46.142250061035156,0.006364780002170139,-0.11805250379774306
3809,0.2876635127597385,0.1195312786102295,87.29630279541016,87.35768127441406,-6.5894927978515625,89.46485137939453,0.0024779849582248262,0.331,0.36214285714285716,0.026122273339165582,-3.0431219511718766,0.24169200658798218,46.142250061035156,-0.0006819831000434028,-0.12282604641384548
3810,0.2564135127597385,0.15937503814697265,88.74882507324219,86.27340698242188,-6.262165069580078,89.34210205078125,-0.030027474297417533,0.326,0.36178571428571427,0.028899288177490233,-3.0760809355468766,-0.5383154326171891,46.142250061035156,0.02750464545355903,-0.11782519022623698
3811,0.3345385127597385,0.13945316314697265,86.49844360351562,88.89202880859375,-6.1394195556640625,88.97386169433594,-0.020025804307725693,0.323,0.3625,0.029601171281602646,-3.185940402099611,-0.49437012011718906,46.142250061035156,-0.02659539116753472,-0.11236979166666666
3812,0.2407885127597385,0.15937503814697265,83.75706481933594,83.26608276367188,-6.098503112792969,88.91248321533203,0.0006595187717013889,0.319,0.3625,0.025939167870415582,-3.548477786132814,-2.142269747802736,46.142250061035156,0.005455356174045139,-0.1112331814236111
3813,0.3111010127597385,0.13945316314697265,87.91004180908203,83.49111938476562,-6.262165069580078,88.89202880859375,-0.011615286933051215,0.31566666666666665,0.3632142857142857,0.02532883750067817,-3.4276319914550797,-2.0983263426513687,46.142250061035156,0.04909913804796007,-0.11282437642415365
3814,0.4243822627597385,0.13945316314697265,88.97386169433594,88.09416198730469,-6.159877777099609,89.30118560791016,-0.014797634548611112,0.31333333333333335,0.36357142857142855,0.02780067655775282,-2.7574869566650406,-0.01098694140625156,46.142250061035156,0.009774441189236111,-0.11623403761121961
3815,0.3462572627597385,0.15937503814697265,87.74638366699219,87.74638366699219,-5.8939208984375,88.85111236572266,-0.015706888834635415,0.30833333333333335,0.36428571428571427,0.02828895780775282,-2.7684732847900406,0.4394400119781494,46.142250061035156,0.0,-0.1082781473795573
3816,0.3540697627597385,0.1195312786102295,83.36836242675781,83.5115737915039,-6.159877777099609,89.1579818725586,0.00543306138780382,0.305,0.365,0.02508469687567817,-3.0321375303955094,-0.8788801604003922,46.142250061035156,-0.0015912373860677083,-0.11464288499620226
3817,0.3657885127597385,0.13945316314697265,84.02302551269531,83.14332580566406,-6.118961334228516,89.05569458007812,-0.01979849073621962,0.302,0.365,0.026427427927652996,-2.801430361816408,-2.1202989989013687,46.142250061035156,0.009774441189236111,-0.11305173238118489
3818,0.4439135127597385,0.15937503814697265,85.63920593261719,84.53446960449219,-6.303081512451172,89.23981475830078,-0.02207158406575521,0.29833333333333334,0.3653571428571429,0.02831947538587782,-2.526779788085939,-1.6588865690917984,46.142250061035156,0.012274848090277778,-0.11714329189724393
3819,0.3540697627597385,0.19921878814697266,87.64408874511719,87.15309143066406,-6.425830841064453,89.46485137939453,-0.020025804307725693,0.29433333333333334,0.3657142857142857,0.028533077239990233,-2.823403018066408,-0.7800070219726578,46.142250061035156,0.005455525716145834,-0.12100758022732205
3820,0.3384447627597385,0.17929691314697266,87.17355346679688,86.0688247680664,-6.282623291015625,89.38301849365234,0.009070036146375868,0.29133333333333333,0.36607142857142855,0.025786579979790582,-3.515520709106447,-0.7580343657226578,46.142250061035156,0.01227476331922743,-0.11850713094075521
3821,0.3345385127597385,0.13945316314697265,84.53446960449219,84.20714569091797,-6.855449676513672,89.66943359375,-0.010933346218532987,0.288,0.36714285714285716,0.022307682037353515,-4.075806277343752,-1.560013430664064,46.142250061035156,0.003636932373046875,-0.12805425855848523
3822,0.2486010127597385,0.07968751907348633,83.30699157714844,83.94119262695312,-6.794075012207031,89.73080444335938,0.012025070190429688,0.2866666666666667,0.3675,0.012969589233398438,-4.811869280883791,-1.7028299742431656,46.142250061035156,-0.007046678331163195,-0.12805421617296006
3823,0.1275072627597385,0.09960939407348633,82.89783477783203,82.24317932128906,-6.650867462158203,89.567138671875,-0.015706888834635415,0.2833333333333333,0.3678571428571429,0.009277068244086372,-4.954685824462892,-2.7135435515136734,46.142250061035156,0.0072739495171440975,-0.12464451260036892
3824,0.1978197627597385,0.1195312786102295,84.16622924804688,83.32745361328125,-6.67132568359375,89.71034240722656,-0.019343863593207465,0.2786666666666667,0.36857142857142855,0.010528246561686197,-4.504261630126955,-2.1202989989013687,46.054359436035156,0.009319729275173612,-0.12646297878689236
3825,0.2290697627597385,0.13945316314697265,85.76194763183594,83.85935974121094,-6.855449676513672,89.64897155761719,-0.01320648193359375,0.275,0.3692857142857143,0.012298213111029731,-4.4273592406005875,-1.0766283446044937,44.64812088012695,0.02113986545138889,-0.127826902601454
3826,0.2837572627597385,0.13945316314697265,85.1072998046875,85.02546691894531,-6.855449676513672,89.71034240722656,-0.014343007405598959,0.2713333333333333,0.3692857142857143,0.012267695532904731,-4.4273592406005875,-0.5932451658935562,44.38444900512695,0.0009092542860243056,-0.12850880093044706
3827,0.2407885127597385,0.15937503814697265,86.0688247680664,85.47554016113281,-6.794075012207031,89.87400817871094,-0.029572847154405384,0.2663333333333333,0.36892857142857144,0.012359248267279731,-4.789896624633791,0.0,44.38444900512695,0.0065920511881510414,-0.12964536878797744
3828,0.1782885127597385,0.1195312786102295,88.95339965820312,88.6669921875,-6.569034576416016,89.48530578613281,0.0024779849582248262,0.263,0.36892857142857144,0.008056396908230252,-4.844826357910158,2.0983259677886963,44.29655838012695,0.003182305230034722,-0.12282600402832031
3829,0.0571947627597385,0.13945316314697265,87.03034973144531,86.49844360351562,-6.425830841064453,89.44439697265625,0.003387239244249132,0.25766666666666665,0.3692857142857143,0.005431969960530599,-5.152434008666994,1.0546560287475586,44.29655838012695,0.0059100680881076385,-0.12078030904134114
3830,0.0728197627597385,0.1195312786102295,83.02058410644531,82.81600189208984,-6.569034576416016,89.66943359375,-0.013888380262586805,0.254,0.37,0.006011782752143012,-5.108490603515627,-1.3952223234863297,44.29655838012695,0.002273135715060764,-0.12487186855740018
3831,0.0884447627597385,0.13945316314697265,83.63432312011719,82.44775390625,-6.855449676513672,89.83309936523438,-0.016388829549153647,0.24966666666666668,0.3703571428571429,0.005248864491780599,-4.998631136962892,-2.175228732177736,44.29655838012695,0.013184102376302083,-0.12987276713053386
3832,0.1392260127597385,0.1195312786102295,87.62362670898438,85.1072998046875,-6.957736968994141,89.99675750732422,-0.01797998216417101,0.24633333333333332,0.3703571428571429,0.005126804775661893,-4.921728747436525,-1.0876146727294937,44.29655838012695,0.027959187825520832,-0.13282771640353733
3833,0.0611010127597385,0.15937503814697265,87.35768127441406,85.5164566040039,-7.244148254394531,89.97630310058594,0.009979248046875,0.24233333333333335,0.3707142857142857,0.0021056493123372396,-4.888771670410158,-0.5822588377685562,44.29655838012695,0.02045805189344618,-0.1357827928331163
3834,0.0728197627597385,0.17929691314697266,82.93875122070312,82.77508544921875,-7.285064697265625,90.34454345703125,-0.023662779066297743,0.23833333333333334,0.3703571428571429,0.0022277196248372396,-4.998631136962892,-2.515795367309572,44.29655838012695,0.001818508572048611,-0.1403289794921875
3835,0.1392260127597385,0.15937503814697265,85.35279846191406,84.94363403320312,-7.305522918701172,90.32408142089844,-0.03616489834255642,0.23433333333333334,0.3703571428571429,0.0040282037523057725,-5.185392993041994,-2.2850881987304703,44.29655838012695,0.004546271430121528,-0.14032893710666233
3836,0.0962572627597385,0.13945316314697265,83.85935974121094,84.69813537597656,-7.285064697265625,90.20133972167969,0.00543306138780382,0.23033333333333333,0.3707142857142857,-0.0004882706536187066,-5.4270845823974625,-1.3293062620849625,44.29655838012695,-0.009319729275173612,-0.13873782687717015
3837,0.0806322627597385,0.15937503814697265,82.65233612060547,82.36592102050781,-7.44873046875,90.48774719238281,-0.019343863593207465,0.227,0.3703571428571429,-0.0022887547810872396,-5.339195864746095,-2.0214239531250016,44.29655838012695,0.0031823900010850693,-0.14373864067925346
3838,0.0806322627597385,0.219140682220459,82.12042999267578,81.15890502929688,-7.694225311279297,90.46729278564453,-0.014115693834092882,0.22133333333333333,0.3703571428571429,-0.0025634023878309464,-5.4380709105224625,-2.3070608549804703,44.29655838012695,0.01068361070421007,-0.1462390899658203
3839,0.1314135127597385,0.19921878814697266,82.91828918457031,82.07951354980469,-8.22613525390625,91.30607604980469,-0.020253117879231772,0.21833333333333332,0.3703571428571429,-0.0009154955546061198,-5.811594622680666,-1.5929705076904312,44.29655838012695,0.009319729275173612,-0.16146901448567708
3840,0.2486010127597385,0.15937503814697265,83.0410385131836,82.61141967773438,-7.489646911621094,90.83554077148438,-0.028209008110894097,0.21466666666666667,0.3703571428571429,0.0016173786587185329,-6.547657626220705,-1.120571749755861,44.29655838012695,0.004773542616102431,-0.1480576409233941
3841,0.2095385127597385,0.15937503814697265,86.23248291015625,84.80043029785156,-7.182777404785156,90.2218017578125,-0.002068201700846354,0.20966666666666667,0.3703571428571429,-0.0007324006822374132,-6.580614703247072,0.747048020362854,44.29655838012695,0.015911695692274304,-0.13782865736219618
3842,0.0767260127597385,0.15937503814697265,83.06149291992188,81.19981384277344,-6.650867462158203,89.52622985839844,0.012252383761935763,0.20466666666666666,0.3707142857142857,-0.006377983093261719,-6.229063647338869,0.9777539968490601,44.29655838012695,0.020685323079427085,-0.12418997022840712
3843,0.1118822627597385,0.17929691314697266,83.65477752685547,82.97966003417969,-6.834991455078125,89.97630310058594,-0.02548124525282118,0.19933333333333333,0.3707142857142857,-0.0032042503356933595,-5.339195864746095,1.0986000299453735,44.29655838012695,0.007501305474175347,-0.13123660617404515
3844,0.1861010127597385,0.19921878814697266,86.80531311035156,84.73905181884766,-6.834991455078125,90.09904479980469,-0.035255644056532115,0.19466666666666665,0.3703571428571429,0.0027464972601996527,-4.471302645751955,2.0983259677886963,44.29655838012695,0.022958458794487848,-0.13260040283203126
3845,0.1665697627597385,0.17929691314697266,87.23492431640625,86.76439666748047,-6.875904083251953,90.0172119140625,0.007478841145833333,0.18933333333333333,0.36964285714285716,0.0037840631273057725,-3.867073672363283,3.1749541759490967,44.29655838012695,0.005228084988064236,-0.1321457333034939
3846,0.1704760127597385,0.17929691314697266,86.41661071777344,86.41661071777344,-6.487205505371094,89.40347290039062,-0.0075236850314670135,0.18533333333333332,0.3682142857142857,0.005523512098524305,-3.493548052856447,2.7025561332702637,44.29655838012695,0.0,-0.12100753784179688
3847,0.1861010127597385,0.13945316314697265,87.13264465332031,85.43462371826172,-6.303081512451172,89.13752746582031,-0.014115693834092882,0.181,0.36642857142857144,0.006896771325005426,-2.7355143004150406,1.8017040491104126,44.29655838012695,0.01886689927842882,-0.11600676642523872
3848,0.1861010127597385,0.13945316314697265,87.09172058105469,87.13264465332031,-6.016670227050781,88.74882507324219,-0.01070603264702691,0.17766666666666667,0.365,0.008178467220730252,-1.9335371428222672,1.2084600925445557,44.29655838012695,-0.0004547119140625,-0.10850550333658854
3849,0.1900072627597385,0.13945316314697265,85.02546691894531,85.92561340332031,-5.607509613037109,88.38057708740234,-0.01752539740668403,0.174,0.3625,0.008880350324842665,-1.3402925902099625,0.02197200059890747,44.29655838012695,-0.010001627604166667,-0.09986763000488282
3850,0.1548510127597385,0.15937503814697265,82.28408813476562,83.49111938476562,-5.8939208984375,88.76927947998047,-0.006159803602430555,0.17033333333333334,0.3607142857142857,0.007537619272867838,-1.0436712675781266,-1.2414194517822281,44.29655838012695,-0.013411458333333333,-0.10736889309353298
3851,0.2056322627597385,0.13945316314697265,86.33477783203125,81.42485809326172,-6.732700347900391,89.62850952148438,-0.018889236450195312,0.16866666666666666,0.3582142857142857,0.007720714145236545,-1.0436712675781266,-1.7248026304931656,44.29655838012695,0.0545546637641059,-0.1262356652153863
3852,0.3071947627597385,0.1195312786102295,83.83889770507812,82.28408813476562,-5.627967834472656,88.48286437988281,-0.014115693834092882,0.16433333333333333,0.3575,0.007568136850992838,-1.8017050200195328,-0.4723993712158219,44.29655838012695,0.01727566189236111,-0.1012314690483941
3853,0.1001635127597385,0.13945316314697265,82.89783477783203,82.18180847167969,-6.282623291015625,89.19889831542969,0.011797756618923612,0.16433333333333333,0.3557142857142857,0.0009154955546061198,-2.0873400145263687,0.6591600179672241,44.29655838012695,0.007955847846137152,-0.1164613511827257
3854,0.1040697627597385,0.09960939407348633,85.47554016113281,84.69813537597656,-5.934837341308594,88.6669921875,0.0017960866292317708,0.162,0.355,0.0011291186014811198,-2.6036821776123062,1.3293060064315796,44.29655838012695,0.008637830946180555,-0.10668699476453992
3855,0.1040697627597385,0.15937503814697265,83.53202819824219,82.0385971069336,-6.323539733886719,89.50576782226562,-0.007978312174479167,0.15966666666666668,0.3539285714285714,0.0038450982835557725,-2.197201388427736,0.4723980128765106,44.29655838012695,0.01659367879231771,-0.12032563951280383
3856,0.1978197627597385,0.15937503814697265,85.25050354003906,85.27096557617188,-6.466747283935547,89.6080551147461,-0.034346389770507815,0.15766666666666668,0.3532142857142857,0.008880350324842665,-2.4169203215332047,0.6262019872665405,44.29655838012695,-0.00022735595703125,-0.12305335998535157
3857,0.2446947627597385,0.1195312786102295,85.31187438964844,84.96409606933594,-6.2007904052734375,89.23981475830078,-0.005250591701931423,0.15533333333333332,0.3525,0.008910867902967665,-2.955235140869142,0.6701459884643555,44.29655838012695,0.0038642035590277777,-0.11600672403971354
3858,0.2251635127597385,0.1195312786102295,88.81019592285156,84.94363403320312,-6.078044891357422,88.85111236572266,-0.01002409193250868,0.15266666666666667,0.3525,0.009277068244086372,-3.229883807250978,1.263390064239502,44.29655838012695,0.042961798773871525,-0.11032396952311198
3859,0.1587572627597385,0.17929691314697266,85.72103881835938,86.5188980102539,-6.180332183837891,89.1579818725586,-0.0011589898003472221,0.14833333333333334,0.35214285714285715,0.010589281717936197,-3.251856463500978,0.9777539968490601,44.29655838012695,-0.008865102132161459,-0.11487015618218316
3860,0.2486010127597385,0.15937503814697265,85.31187438964844,84.28897857666016,-5.832546234130859,88.74882507324219,-0.02389009263780382,0.14633333333333334,0.35214285714285715,0.014068179660373263,-2.9881922178955094,0.08788800239562988,44.29655838012695,0.011365509033203125,-0.10645968119303385
3861,0.2915697627597385,0.13945316314697265,85.61874389648438,85.14820861816406,-5.955295562744141,89.09660339355469,0.0020233578152126738,0.143,0.3525,0.014800580342610677,-2.790444033691408,0.5602860450744629,44.29655838012695,0.005228169759114583,-0.11168776618109809
3862,0.2212572627597385,0.17929691314697266,85.02546691894531,86.80531311035156,-6.712242126464844,89.62850952148438,-0.012069914076063368,0.139,0.3525,0.01559401618109809,-2.812416689941408,0.3076080083847046,44.29655838012695,-0.01977606879340278,-0.12600835164388022
3863,0.2368822627597385,0.19921878814697266,85.29141998291016,84.69813537597656,-6.507663726806641,89.48530578613281,-0.01547957526312934,0.13533333333333333,0.35214285714285715,0.017211394839816624,-3.0431219511718766,-0.845923083374025,44.29655838012695,0.0065920511881510414,-0.12214410569932725
3864,0.2993822627597385,0.19921878814697266,85.57783508300781,85.02546691894531,-6.405372619628906,89.26026916503906,-0.023435465494791665,0.13333333333333333,0.35214285714285715,0.020202032725016274,-3.1090380125732437,-0.7580343657226578,44.29655838012695,0.006137424045138889,-0.11850713094075521
3865,0.2837572627597385,0.219140682220459,84.26852416992188,85.65966796875,-6.384914398193359,89.62850952148438,-0.018661922878689237,0.129,0.3525,0.020202032725016274,-3.218899386474611,-0.3845106535644547,44.29655838012695,-0.0154571533203125,-0.12237137688530816
3866,0.2564135127597385,0.219140682220459,85.455078125,83.18424987792969,-6.241706848144531,88.91248321533203,-0.005705218844943577,0.12566666666666668,0.35214285714285715,0.01885930167304145,-3.7132688933105484,-0.4504267149658219,44.29655838012695,0.025231424967447916,-0.11282433403862847
3867,0.3267260127597385,0.17929691314697266,81.77264404296875,81.83401489257812,-6.609951019287109,89.79217529296875,-0.009342193603515625,0.12233333333333334,0.3525,0.017882760365804037,-3.273829119750978,-1.3402925902099625,44.29655838012695,-0.0006818983289930556,-0.12669029235839843
3868,0.2642260127597385,0.17929691314697266,81.36347961425781,77.76287841796875,-6.384914398193359,89.36256408691406,0.0072515275743272566,0.117,0.3525,0.014068179660373263,-3.7681986265869156,-1.4611383848876969,44.29655838012695,0.04000667995876736,-0.11941642761230468
3869,0.3345385127597385,0.13945316314697265,80.07463073730469,84.1048583984375,-6.016670227050781,89.03523254394531,-0.0059324900309244795,0.11366666666666667,0.3525,0.012267695532904731,-3.526507037231447,0.08788800239562988,44.29655838012695,-0.04478030734592014,-0.11168780856662326
3870,0.2954760127597385,0.13945316314697265,79.80867004394531,83.0410385131836,-5.11651611328125,87.95095825195312,-0.00843293931749132,0.109,0.3532142857142857,0.01135219997829861,-3.581436770507814,0.16479000449180603,44.29655838012695,-0.03591520521375868,-0.08963860405815972
3871,0.3150072627597385,0.13945316314697265,89.62850952148438,89.03523254394531,-6.078044891357422,88.81019592285156,-0.02207158406575521,0.10333333333333333,0.3539285714285714,0.013396814134385851,-3.0431219511718766,1.581984043121338,44.29655838012695,0.006591966417100695,-0.10986934238009982
3872,0.2173510127597385,0.15937503814697265,84.98455047607422,84.18669128417969,-5.730258941650391,88.54424285888672,-0.004568650987413194,0.09833333333333333,0.35428571428571426,0.011932012769911024,-2.867346423217775,1.3622640371322632,44.29655838012695,0.008865102132161459,-0.10305002000596789
3873,0.2368822627597385,0.15937503814697265,85.41416931152344,82.42729949951172,-5.096061706542969,88.1146240234375,-0.022980838351779515,0.095,0.3535714285714286,0.013030613793267145,-2.153256075927736,-0.10986007983398594,44.29655838012695,0.03318744235568576,-0.09122984144422742
3874,0.2681322627597385,0.15937503814697265,87.50088500976562,86.13019561767578,-6.282623291015625,89.19889831542969,-0.02752706739637587,0.09,0.3532142857142857,0.01556349860297309,-1.3512789183349625,0.8569080233573914,44.29655838012695,0.015229882134331598,-0.1164613511827257
3875,0.1665697627597385,0.15937503814697265,85.94607543945312,86.15065002441406,-6.303081512451172,89.0147705078125,0.009751976860894098,0.08633333333333333,0.35285714285714287,0.01135219997829861,-1.9555078917236344,1.2743760347366333,44.29655838012695,-0.0022730509440104167,-0.11464280022515191
3876,0.1431322627597385,0.1195312786102295,84.06393432617188,84.18669128417969,-5.014228820800781,89.0761489868164,-0.004568650987413194,0.08233333333333333,0.35214285714285715,0.008910867902967665,-2.6695982390136734,0.06591600179672241,44.29655838012695,-0.0013639662000868055,-0.1010041978624132
3877,0.1782885127597385,0.1195312786102295,86.35523986816406,86.1097412109375,-5.648426055908203,88.42149353027344,-0.020707745022243925,0.07966666666666666,0.3517857142857143,0.01025359895494249,-2.175228732177736,0.32958000898361206,44.29655838012695,0.002727762858072917,-0.10077688429090711
3878,0.1939135127597385,0.09960939407348633,87.13264465332031,87.27584838867188,-6.3644561767578125,89.46485137939453,-0.006841744316948784,0.077,0.3514285714285714,0.01040618684556749,-1.5929705076904312,0.8569080233573914,44.29655838012695,-0.001591152615017361,-0.12032563951280383
3879,0.2134447627597385,0.09960939407348633,84.28897857666016,84.12531280517578,-5.136974334716797,88.09416198730469,-0.013888380262586805,0.07333333333333333,0.35035714285714287,0.010558764139811197,-1.7687460356445328,-0.12084640795898594,44.29655838012695,0.001818508572048611,-0.09145707024468316
3880,0.2329760127597385,0.09960939407348633,85.5164566040039,85.16867065429688,-5.689342498779297,88.50332641601562,-0.015934202406141493,0.07,0.35,0.011840470631917318,-1.5929705076904312,-0.5053564482421891,44.29655838012695,0.003864288330078125,-0.10214076571994357
3881,0.2876635127597385,0.09960939407348633,86.92805480957031,85.41416931152344,-4.993770599365234,88.29874420166016,-0.022753524780273437,0.06733333333333333,0.3492857142857143,0.012725448608398438,-1.549027102539064,-0.3295809202880875,44.29655838012695,0.01682094997829861,-0.09213905334472657
3882,0.2251635127597385,0.1195312786102295,86.1097412109375,85.14820861816406,-5.096061706542969,87.95095825195312,-0.018207295735677084,0.063,0.3489285714285714,0.012145635816786024,-1.538040774414064,-0.4394403868408219,44.29655838012695,0.010683695475260416,-0.08941133287217883
3883,0.1392260127597385,0.1195312786102295,84.53446960449219,85.43462371826172,-5.934837341308594,88.89202880859375,-0.0050232781304253475,0.059333333333333335,0.3489285714285714,0.008483632405598959,-1.4611383848876969,-0.7470480375976578,44.29655838012695,-0.010001712375217013,-0.1091874016655816
3884,0.1275072627597385,0.13945316314697265,82.69325256347656,81.11798858642578,-5.832546234130859,88.99431610107422,-0.01547957526312934,0.056,0.3482142857142857,0.007995372348361545,-2.0543829375000016,-1.9115644865722672,44.29655838012695,0.017502933078342015,-0.10918735928005642
3885,0.2446947627597385,0.13945316314697265,86.0688247680664,85.70057678222656,-5.709800720214844,88.68744659423828,-0.026390499538845487,0.054,0.3475,0.012084600660536024,-2.153256075927736,-0.4504267149658219,44.29655838012695,0.004091644287109375,-0.10441385904947917
3886,0.2564135127597385,0.15937503814697265,82.36592102050781,84.84133911132812,-5.484760284423828,88.54424285888672,-0.012069914076063368,0.05,0.34714285714285714,0.013000096215142145,-2.197201388427736,-0.7250772886962906,44.29655838012695,-0.02750464545355903,-0.10032225714789497
3887,0.3931322627597385,0.13945316314697265,82.05905151367188,82.44775390625,-5.934837341308594,88.93293762207031,-0.0250266604953342,0.049,0.34714285714285714,0.01565505133734809,-1.8895918303222672,-1.4391657286376969,44.29655838012695,-0.0043189154730902775,-0.1096419440375434
3888,0.3267260127597385,0.17929691314697266,84.22760009765625,78.8880615234375,-6.057586669921875,88.62606811523438,-0.007069057888454861,0.04466666666666667,0.3475,0.01577712164984809,-2.0324102812500016,-0.9667688780517594,44.29655838012695,0.05932820638020833,-0.10759616427951389
3889,0.3814135127597385,0.15937503814697265,87.25538635253906,88.74882507324219,-4.727817535400391,87.82821655273438,-0.019343863593207465,0.041,0.3482142857142857,0.01666209962632921,-2.6476274901123062,1.538040041923523,44.29655838012695,-0.016593763563368055,-0.0839559343126085
3890,0.2837572627597385,0.15937503814697265,87.27584838867188,86.68256378173828,-5.730258941650391,88.70790100097656,0.008615409003363715,0.03833333333333333,0.3485714285714286,0.014068179660373263,-2.6695982390136734,1.724802017211914,44.29655838012695,0.0065920511881510414,-0.10486844380696615
3891,0.2212572627597385,0.15937503814697265,86.0074462890625,84.24806213378906,-6.609951019287109,89.6080551147461,-0.006387117173936632,0.033666666666666664,0.3489285714285714,0.013457849290635851,-2.7135435515136734,0.6811320185661316,44.29655838012695,0.019548712836371527,-0.12464451260036892
3892,0.2759447627597385,0.15937503814697265,89.1170654296875,88.1146240234375,-6.303081512451172,89.44439697265625,-0.013661109076605903,0.030333333333333334,0.3485714285714286,0.016326427459716797,-2.900305407592775,0.8459219932556152,44.29655838012695,0.011138237847222222,-0.11941642761230468
3893,0.3657885127597385,0.17929691314697266,85.57783508300781,86.662109375,-6.180332183837891,89.32164001464844,-0.03184598286946615,0.027,0.3482142857142857,0.0214837286207411,-2.2741018706054703,0.05493000149726868,44.29655838012695,-0.012047492133246528,-0.11668857998318143
3894,0.3384447627597385,0.17929691314697266,86.0688247680664,85.78240966796875,-7.203235626220703,90.09904479980469,-0.00843293931749132,0.023333333333333334,0.34785714285714286,0.021056503719753688,-1.3952223234863297,0.0,44.29655838012695,0.0031823900010850693,-0.13669200473361545
3895,0.3501635127597385,0.15937503814697265,83.24562072753906,85.5164566040039,-5.853004455566406,89.71034240722656,-0.006159803602430555,0.019,0.3457142857142857,0.019408596886528864,-1.6369139128417984,-0.5163427763671891,44.29655838012695,-0.025231509738498265,-0.11737052069769965
3896,0.3423510127597385,0.15937503814697265,84.43218231201172,82.550048828125,-4.830104827880859,87.68500518798828,-0.013888380262586805,0.014,0.34464285714285714,0.01907292471991645,-1.7138163023681656,-0.2856375151367203,42.275089263916016,0.020912594265407987,-0.083501222398546
3897,0.3071947627597385,0.13945316314697265,87.74638366699219,86.662109375,-4.911937713623047,87.70545959472656,-0.008205625745985243,0.010333333333333333,0.34285714285714286,0.01647899415757921,-0.7031046324462906,1.1974740028381348,40.69306945800781,0.012047492133246528,-0.08463774787055121
3898,0.1314135127597385,0.15937503814697265,82.22271728515625,85.82332611083984,-5.914379119873047,88.97386169433594,-0.012069914076063368,0.006,0.3407142857142857,0.009460163116455079,-0.16478981311035312,1.2304320335388184,37.529029846191406,-0.040006764729817706,-0.10986934238009982
3899,0.0611010127597385,0.09960939407348633,83.75706481933594,83.30699157714844,-3.0298004150390625,86.90760040283203,-0.029572847154405384,0.0036666666666666666,0.3357142857142857,0.004119745890299479,-0.3954969816894547,0.5383139848709106,29.267370223999023,0.0050008138020833336,-0.0548600090874566
3900,0.014226012759738497,0.05976563930511475,88.54424285888672,79.25630950927734,-1.7409477233886719,86.58027648925781,-0.05639559427897135,0.0003333333333333333,0.33214285714285713,0.0009154955546061198,0.516342043876648,0.7140899896621704,25.83966064453125,0.10319925944010416,-0.0369024912516276
3901,-0.0678052372402615,0.05976563930511475,80.36103820800781,82.0999755859375,-0.042934417724609375,85.08683776855469,-0.055259026421440975,-0.0003333333333333333,0.3264285714285714,-0.0014342837863498264,1.6039559841156006,0.8459219932556152,25.75177001953125,-0.01932152642144097,-0.0014419131808810764
3902,-0.0717114872402615,0.07968751907348633,82.77508544921875,79.62455749511719,-0.45209503173828125,83.83889770507812,-0.0600325690375434,-0.0026666666666666666,0.3225,-0.0023802969190809464,1.8346620798110962,0.9997260570526123,25.75177001953125,0.03500586615668403,0.007877858479817708
3903,-0.0482739872402615,0.05976563930511475,74.48959350585938,76.02394104003906,3.9054603576660156,82.16134643554688,-0.055713653564453125,-0.0006666666666666666,0.3157142857142857,-0.0012206713358561198,1.2414180040359497,0.8129640221595764,25.575990676879883,-0.017048305935329862,0.07493459913465712
3904,-0.005305237240261502,0.07968751907348633,72.8324966430664,72.64837646484375,4.948818206787109,77.92654418945312,-0.02548124525282118,0.0,0.31035714285714283,-0.0,0.4943700134754181,-0.801977770874025,25.575990676879883,0.002045779758029514,0.13358082241482205
