,WD,WS,AIL_1,AIL_2,ELEV_1,ELEV_2,RUDD,ALT,GS,TH,PTCH,ROLL,PLA_1,AIL,ELEV
4997,0.11133360904405391,0.5578126525878906,85.1072998046875,84.12531280517578,-4.686901092529297,87.50088500976562,-0.013661109076605903,0.6286666666666667,0.4282142857142857,0.014556460910373263,-0.8898664885253922,1.3293060064315796,33.13452911376953,0.01091096666124132,-0.07986429002549914
4998,0.10742735904405391,0.5578126525878906,84.94363403320312,84.43218231201172,-4.645984649658203,87.45996856689453,-0.014115693834092882,0.624,0.4278571428571429,0.014617496066623263,-0.801977770874025,1.0986000299453735,33.22241973876953,0.0056827969021267365,-0.07895503573947482
4999,0.10742735904405391,0.5578126525878906,84.92317199707031,84.28897857666016,-4.625526428222656,87.45996856689453,-0.014570320977105035,0.6196666666666667,0.4275,0.014709048800998263,-0.7031046324462906,0.5932440161705017,33.39820098876953,0.007046593560112847,-0.07872772216796875
5000,0.10742735904405391,0.5578126525878906,84.69813537597656,84.26852416992188,-4.645984649658203,87.48042297363281,-0.015252261691623263,0.6153333333333333,0.42714285714285716,0.014770083957248263,-0.6042314940185562,0.06591600179672241,33.573978424072266,0.004773457845052083,-0.07918230692545573
5001,0.10742735904405391,0.5777345275878907,84.0434799194336,83.67523193359375,-4.66644287109375,87.50088500976562,-0.013661109076605903,0.6113333333333333,0.42678571428571427,0.014648013644748263,-0.5163427763671891,-0.2307058745117203,34.013431549072266,0.004091644287109375,-0.07963697645399305
5002,0.10742735904405391,0.5777345275878907,84.28897857666016,83.83889770507812,-4.727817535400391,87.54179382324219,-0.013433795505099827,0.6076666666666667,0.42678571428571427,0.014617496066623263,-0.48338379199218906,-0.13183273608398594,34.101318359375,0.00500089857313368,-0.08077345954047309
5003,0.11133360904405391,0.5777345275878907,83.96165466308594,83.5115737915039,-4.727817535400391,87.6031723022461,-0.011842600504557292,0.604,0.42642857142857143,0.014495425754123263,-0.49437012011718906,0.07690200209617615,34.277099609375,0.00500089857313368,-0.08145544264051649
5004,0.11133360904405391,0.5777345275878907,84.554931640625,83.57295227050781,-4.768730163574219,87.66455078125,-0.012297227647569445,0.6003333333333334,0.4257142857142857,0.014556460910373263,-0.5383154326171891,0.4394400119781494,34.892330169677734,0.010910881890190972,-0.08259201049804688
5005,0.11133360904405391,0.5777345275878907,84.16622924804688,83.81844329833984,-4.8096466064453125,87.70545959472656,-0.011387973361545138,0.597,0.4257142857142857,0.014556460910373263,-0.6042314940185562,0.6042300462722778,34.980220794677734,0.003864288330078125,-0.08350118001302083
5006,0.10742735904405391,0.5777345275878907,84.39126586914062,83.81844329833984,-4.830104827880859,87.72592163085938,-0.012297227647569445,0.5926666666666667,0.4257142857142857,0.014770083957248263,-0.7031046324462906,0.7690200209617615,35.15599822998047,0.006364695231119792,-0.08395584954155816
5007,0.10742735904405391,0.5777345275878907,84.28897857666016,83.67523193359375,-4.830104827880859,87.72592163085938,-0.011842600504557292,0.5883333333333334,0.4253571428571429,0.015014224582248263,-0.7909933500976578,0.9008520245552063,35.15599822998047,0.006819407145182292,-0.08395584954155816
5008,0.10742735904405391,0.5777345275878907,84.41172790527344,83.75706481933594,-4.830104827880859,87.70545959472656,-0.012297227647569445,0.5846666666666667,0.425,0.015471988254123263,-0.856909411499025,1.0546560287475586,35.15599822998047,0.007274034288194444,-0.08372849358452691
5009,0.10742735904405391,0.5777345275878907,84.47309875488281,83.67523193359375,-4.830104827880859,87.70545959472656,-0.01252454121907552,0.5806666666666667,0.4253571428571429,0.016051737467447917,-0.8898664885253922,1.2304320335388184,35.15599822998047,0.008865186903211806,-0.08372849358452691
5010,0.10742735904405391,0.5777345275878907,85.0050048828125,84.20714569091797,-4.830104827880859,87.72592163085938,-0.012297227647569445,0.5756666666666667,0.4253571428571429,0.016417948404947917,-0.9338098936767594,1.2853620052337646,35.15599822998047,0.008865102132161459,-0.08395584954155816
5011,0.10742735904405391,0.5777345275878907,85.12775421142578,84.45263671875,-4.850563049316406,87.72592163085938,-0.012979168362087673,0.5713333333333334,0.4253571428571429,0.016540018717447917,-0.9997259550781266,0.8239500522613525,35.15599822998047,0.007501305474175347,-0.08418316311306423
5012,0.10352110904405391,0.5976564025878907,83.79798889160156,83.71615600585938,-4.830104827880859,87.72592163085938,-0.012297227647569445,0.567,0.425,0.016631571451822917,-1.0656420164794937,0.1867620050907135,34.540771484375,0.0009092542860243056,-0.08395584954155816
5013,0.11133360904405391,0.5976564025878907,83.96165466308594,83.0001220703125,-4.830104827880859,87.74638366699219,-0.012751854790581597,0.5626666666666666,0.4253571428571429,0.017333475748697917,-1.1095873289794937,0.3954960107803345,34.540771484375,0.010683695475260416,-0.0841832054985894
5014,0.11133360904405391,0.5976564025878907,85.43462371826172,84.5958480834961,-4.830104827880859,87.68500518798828,-0.013433795505099827,0.558,0.4253571428571429,0.017882792154947917,-1.120571749755861,0.7580339908599854,34.540771484375,0.009319729275173612,-0.083501222398546
5015,0.10742735904405391,0.5976564025878907,85.27096557617188,84.77996826171875,-4.830104827880859,87.64408874511719,-0.012297227647569445,0.5536666666666666,0.425,0.017486063639322917,-1.120571749755861,0.2526780068874359,34.277099609375,0.005455525716145834,-0.08304659525553386
5016,0.10742735904405391,0.5976564025878907,84.5958480834961,84.45263671875,-4.768730163574219,87.64408874511719,-0.012297227647569445,0.549,0.42464285714285716,0.016936747233072917,-1.1095873289794937,-0.5822588377685562,34.101318359375,0.0015912373860677083,-0.08236465454101563
5017,0.11133360904405391,0.5976564025878907,83.26608276367188,83.16378784179688,-4.7482757568359375,87.62362670898438,-0.011615286933051215,0.544,0.42464285714285716,0.016753641764322917,-1.0766283446044937,-0.8788801604003922,33.837650299072266,0.0011366102430555556,-0.08191002739800347
5018,0.11523985904405391,0.5976564025878907,84.24806213378906,83.16378784179688,-4.7482757568359375,87.6031723022461,-0.010478719075520834,0.54,0.425,0.016845194498697917,-1.0107122832031266,-0.14281906420898594,33.749759674072266,0.012047492133246528,-0.08168275621202258
5019,0.11133360904405391,0.5976564025878907,84.71859741210938,84.14576721191406,-4.768730163574219,87.58271789550781,-0.01002409193250868,0.5353333333333333,0.42464285714285716,0.016570536295572917,-0.9667688780517594,0.3185940086841583,33.749759674072266,0.006364780002170139,-0.08168275621202258
5020,0.11133360904405391,0.5976564025878907,84.43218231201172,83.83889770507812,-4.8096466064453125,87.72592163085938,-0.011160659790039062,0.5306666666666666,0.42392857142857143,0.016295878092447917,-1.0216986113281266,0.20873400568962097,33.749759674072266,0.0065920511881510414,-0.08372853597005209
5021,0.11133360904405391,0.5976564025878907,84.43218231201172,83.81844329833984,-4.727817535400391,87.48042297363281,-0.011387973361545138,0.5263333333333333,0.4225,0.016295878092447917,-1.0986010008544937,0.1538040041923523,33.749759674072266,0.006819322374131944,-0.08009156121148003
5022,0.11133360904405391,0.5976564025878907,84.28897857666016,83.79798889160156,-4.645984649658203,87.45996856689453,-0.011160659790039062,0.5223333333333333,0.42214285714285715,0.016173807779947917,-1.0546575957031266,0.13183200359344482,33.749759674072266,0.005455440945095486,-0.07895503573947482
5023,0.11133360904405391,0.5976564025878907,85.25050354003906,84.1048583984375,-4.707359313964844,87.41905212402344,-0.010933346218532987,0.5173333333333333,0.42142857142857143,0.016143290201822917,-0.9338098936767594,0.1867620050907135,33.573978424072266,0.012729390462239584,-0.0791823493109809
5024,0.11133360904405391,0.5976564025878907,85.18913269042969,84.67768096923828,-4.850563049316406,87.54179382324219,-0.012297227647569445,0.5133333333333333,0.4203571428571429,0.016112772623697917,-0.9228254729003922,-0.3625379973144547,33.573978424072266,0.0056827969021267365,-0.08213729858398437
5025,0.11523985904405391,0.5976564025878907,84.1048583984375,83.90027618408203,-4.7482757568359375,87.48042297363281,-0.013888380262586805,0.509,0.41964285714285715,0.016112772623697917,-1.120571749755861,-0.8678938322753922,33.573978424072266,0.002273135715060764,-0.0803188747829861
5026,0.11523985904405391,0.5976564025878907,84.49356079101562,83.71615600585938,-4.727817535400391,87.50088500976562,-0.01070603264702691,0.5043333333333333,0.41928571428571426,0.015532938639322917,-1.0766283446044937,-0.6371885710449234,33.573978424072266,0.008637830946180555,-0.08031891716851128
5027,0.11523985904405391,0.5976564025878907,84.45263671875,84.0434799194336,-4.686901092529297,87.39859008789062,-0.011160659790039062,0.49966666666666665,0.4185714285714286,0.014861636691623263,-1.0436712675781266,-0.5053564482421891,33.573978424072266,0.00454618665907118,-0.07872767978244358
5028,0.11523985904405391,0.5976564025878907,84.43218231201172,83.85935974121094,-4.66644287109375,87.39859008789062,-0.012069914076063368,0.495,0.4182142857142857,0.014525943332248263,-0.9777552061767594,-0.3735243254394547,33.573978424072266,0.006364695231119792,-0.0785003662109375
5029,0.11523985904405391,0.5976564025878907,83.87982177734375,83.24562072753906,-4.686901092529297,87.39859008789062,-0.011842600504557292,0.491,0.41714285714285715,0.014281802707248263,-0.9557825499267594,0.07690200209617615,33.486087799072266,0.007046678331163195,-0.07872767978244358
5030,0.11523985904405391,0.5976564025878907,84.53446960449219,83.67523193359375,-4.707359313964844,87.41905212402344,-0.009796820746527778,0.487,0.41678571428571426,0.014037662082248263,-0.9667688780517594,0.7250760197639465,33.486087799072266,0.009547085232204862,-0.0791823493109809
5031,0.11523985904405391,0.5976564025878907,84.5140151977539,83.94119262695312,-4.850563049316406,87.68500518798828,-0.012069914076063368,0.48333333333333334,0.415,0.014525943332248263,-1.0656420164794937,0.9447960257530212,33.486087799072266,0.006364695231119792,-0.08372853597005209
5032,0.11523985904405391,0.6175782775878906,84.71859741210938,83.92073059082031,-5.423389434814453,88.17599487304688,-0.012979168362087673,0.4786666666666667,0.4132142857142857,0.015319400363498263,-1.1974741392822281,1.1645159721374512,33.486087799072266,0.008865186903211806,-0.09554871453179253
5033,0.11133360904405391,0.5976564025878907,84.84133911132812,84.18669128417969,-6.037128448486328,88.76927947998047,-0.009569507175021702,0.474,0.40964285714285714,0.014617496066623263,-1.4831110411376969,1.1645159721374512,33.486087799072266,0.00727386474609375,-0.10896008809407552
5034,0.10742735904405391,0.5777345275878907,84.02302551269531,83.94119262695312,-6.834991455078125,89.81263732910156,-0.008660252888997395,0.4703333333333333,0.4064285714285714,0.014098697238498263,-1.8895918303222672,0.7360620498657227,33.573978424072266,0.0009092542860243056,-0.12941809760199652
5035,0.11133360904405391,0.5777345275878907,84.20714569091797,83.38882446289062,-7.080486297607422,89.77172088623047,-0.011387973361545138,0.4683333333333333,0.4007142857142857,0.014800601535373263,-2.548752444335939,0.6262019872665405,33.486087799072266,0.009092458089192708,-0.13169119093153211
5036,0.11523985904405391,0.5777345275878907,84.71859741210938,84.02302551269531,-7.325981140136719,90.26271057128906,-0.01320648193359375,0.4673333333333333,0.3967857142857143,0.015624491373697917,-2.878332751342775,0.7360620498657227,33.486087799072266,0.00772857666015625,-0.13987435234917533
5037,0.11523985904405391,0.5777345275878907,84.80043029785156,84.16622924804688,-7.632850646972656,90.569580078125,-0.014343007405598959,0.465,0.39071428571428574,0.015990702311197917,-3.1310106688232437,0.6811320185661316,33.486087799072266,0.007046678331163195,-0.1466936747233073
5038,0.11523985904405391,0.5777345275878907,84.82088470458984,84.37080383300781,-7.203235626220703,90.20133972167969,-0.007069057888454861,0.46266666666666667,0.3871428571428571,0.016082255045572917,-3.3946749144287125,0.5602860450744629,33.486087799072266,0.00500089857313368,-0.137828614976671
5039,0.11133360904405391,0.5777345275878907,84.5958480834961,84.06393432617188,-7.121402740478516,89.99675750732422,-0.00843293931749132,0.46,0.3825,0.015868631998697917,-3.3397451811523453,0.35155200958251953,33.486087799072266,0.005910152859157986,-0.13464622497558593
5040,0.11523985904405391,0.5777345275878907,84.47309875488281,83.90027618408203,-6.9781951904296875,89.89447021484375,-0.015252261691623263,0.4563333333333333,0.37892857142857145,0.016662089029947917,-3.3727022581787125,0.29662200808525085,33.486087799072266,0.006364695231119792,-0.1319185045030382
5041,0.11914610904405391,0.5976564025878907,84.92317199707031,83.90027618408203,-6.773616790771484,89.68988800048828,-0.013661109076605903,0.4523333333333333,0.37464285714285717,0.017333475748697917,-3.4166475706787125,0.5932440161705017,33.573978424072266,0.011365509033203125,-0.12737227545844185
5042,0.11523985904405391,0.5976564025878907,84.86180114746094,84.37080383300781,-6.67132568359375,89.48530578613281,-0.009342193603515625,0.44866666666666666,0.3717857142857143,0.017577616373697917,-3.3727022581787125,0.8349360227584839,33.573978424072266,0.005455525716145834,-0.12396257188585069
5043,0.11523985904405391,0.5976564025878907,83.81844329833984,83.12287139892578,-6.528118133544922,89.1579818725586,-0.01070603264702691,0.445,0.3682142857142857,0.017760721842447917,-3.240870135375978,1.2853620052337646,33.573978424072266,0.00772857666015625,-0.11873444451226128
5044,0.11523985904405391,0.5976564025878907,84.53446960449219,83.92073059082031,-6.507663726806641,89.32164001464844,-0.01252454121907552,0.44066666666666665,0.3653571428571429,0.01904237535264757,-3.185940402099611,2.109312057495117,33.573978424072266,0.006819322374131944,-0.12032559712727865
5045,0.11523985904405391,0.5976564025878907,85.16867065429688,84.30943298339844,-6.466747283935547,89.26026916503906,-0.011615286933051215,0.43633333333333335,0.36142857142857143,0.02065980699327257,-3.3397451811523453,2.75748610496521,33.573978424072266,0.009547085232204862,-0.11918907165527344
5046,0.11133360904405391,0.5777345275878907,86.662109375,86.27340698242188,-6.425830841064453,89.05569458007812,-0.008887566460503472,0.43133333333333335,0.35928571428571426,0.02175835503472222,-3.4276319914550797,2.66959810256958,33.573978424072266,0.0043189154730902775,-0.11646139356825087
5047,0.11133360904405391,0.5777345275878907,84.30943298339844,85.37325286865234,-6.4462890625,89.19889831542969,-0.011387973361545138,0.42733333333333334,0.3560714285714286,0.02279595269097222,-3.6473528319091812,1.6698720455169678,33.573978424072266,-0.011820220947265625,-0.1182798597547743
5048,0.11133360904405391,0.5777345275878907,85.53691101074219,84.86180114746094,-6.262165069580078,88.87156677246094,-0.012979168362087673,0.423,0.3532142857142857,0.02398613823784722,-3.845101016113283,1.3622640371322632,33.573978424072266,0.007501220703125,-0.1125970204671224
5049,0.11133360904405391,0.5777345275878907,85.68012237548828,85.0459213256836,-6.8963623046875,89.52622985839844,-0.01070603264702691,0.419,0.3489285714285714,0.024413299560546876,-3.7022825651855484,0.9447960257530212,33.573978424072266,0.007046678331163195,-0.12691769070095485
5050,0.11133360904405391,0.5777345275878907,85.61874389648438,85.1072998046875,-7.244148254394531,89.99675750732422,-0.014570320977105035,0.416,0.3457142857142857,0.024840545654296876,-4.020876544067384,0.20873400568962097,33.486087799072266,0.005682712131076389,-0.1360100640190972
5051,0.11133360904405391,0.5777345275878907,84.92317199707031,84.69813537597656,-7.489646911621094,90.38545989990234,-0.01752539740668403,0.41433333333333333,0.34,0.024535369873046876,-4.504261630126955,-0.5602861815185562,33.486087799072266,0.0025004069010416668,-0.14305674235026042
5052,0.11523985904405391,0.5777345275878907,84.53446960449219,84.02302551269531,-7.632850646972656,90.44683837890625,-0.013888380262586805,0.41233333333333333,0.3357142857142857,0.024474334716796876,-4.965672152587892,-0.9557825499267594,33.573978424072266,0.005682712131076389,-0.1453298780653212
5053,0.11523985904405391,0.5777345275878907,84.5140151977539,83.90027618408203,-7.5919342041015625,90.44683837890625,-0.012069914076063368,0.4103333333333333,0.33,0.02355889214409722,-5.251309054443361,-0.9997259550781266,33.486087799072266,0.006819322374131944,-0.14487525092230902
5054,0.11523985904405391,0.5777345275878907,84.49356079101562,83.98210144042969,-7.489646911621094,90.30363464355469,-0.012297227647569445,0.408,0.32571428571428573,0.02282647026909722,-5.394127505371095,-0.9557825499267594,33.486087799072266,0.005682881673177083,-0.14214757283528645
5055,0.11133360904405391,0.5777345275878907,84.41172790527344,83.81844329833984,-7.428272247314453,90.20133972167969,-0.013433795505099827,0.405,0.32,0.02197197808159722,-5.547930377075197,-0.823950427124025,33.486087799072266,0.0065920511881510414,-0.14032902187771268
5056,0.11133360904405391,0.5777345275878907,84.43218231201172,83.85935974121094,-6.937278747558594,89.77172088623047,-0.009569507175021702,0.40166666666666667,0.3167857142857143,0.02081239488389757,-5.712721484252931,-0.6921183043212906,34.892330169677734,0.006364695231119792,-0.1300999959309896
5057,0.10742735904405391,0.5777345275878907,84.39126586914062,83.81844329833984,-6.732700347900391,89.38301849365234,-0.011387973361545138,0.398,0.31214285714285717,0.01998842027452257,-5.569903033325197,-0.6481748991699234,37.265357971191406,0.006364695231119792,-0.12350798712836372
5058,0.11133360904405391,0.5976564025878907,82.32501220703125,82.32501220703125,-6.466747283935547,89.28073120117188,-0.01752539740668403,0.3943333333333333,0.30964285714285716,0.02041566636827257,-5.394127505371095,-0.2856375151367203,37.704811096191406,0.0,-0.11941642761230468
5059,0.10742735904405391,0.5976564025878907,85.43462371826172,84.88226318359375,-6.159877777099609,88.81019592285156,-0.009569507175021702,0.38966666666666666,0.30642857142857144,0.02001893785264757,-5.251309054443361,0.6262019872665405,38.407928466796875,0.006137339274088541,-0.11077859666612414
5060,0.10742735904405391,0.5976564025878907,85.27096557617188,84.75950622558594,-6.098503112792969,88.68744659423828,-0.014343007405598959,0.38566666666666666,0.30464285714285716,0.02050721910264757,-4.976658480712892,0.5273280143737793,38.93526840209961,0.005682881673177083,-0.10873277452256945
5061,0.11133360904405391,0.5976564025878907,85.18913269042969,84.71859741210938,-6.098503112792969,88.6669921875,-0.015934202406141493,0.38166666666666665,0.30142857142857143,0.02166680230034722,-4.745953219482423,0.38451001048088074,39.11104965209961,0.005228169759114583,-0.10850550333658854
5062,0.11133360904405391,0.5976564025878907,85.14820861816406,84.67768096923828,-6.057586669921875,88.62606811523438,-0.013433795505099827,0.37733333333333335,0.3,0.02157524956597222,-4.647078173706056,0.3076080083847046,39.19894027709961,0.005228084988064236,-0.10759616427951389
5063,0.10742735904405391,0.5976564025878907,85.06637573242188,84.6572265625,-5.8939208984375,88.46240997314453,-0.012979168362087673,0.373,0.29714285714285715,0.02136162651909722,-4.603134768554689,0.13183200359344482,39.550498962402344,0.004546101888020833,-0.10395923190646701
5064,0.11133360904405391,0.5976564025878907,84.26852416992188,84.28897857666016,-5.382472991943359,88.23736572265625,-0.013661109076605903,0.36933333333333335,0.2957142857142857,0.02142266167534722,-4.4383455687255875,0.05493000149726868,39.814170837402344,-0.00022727118598090277,-0.09577598571777343
5065,0.10742735904405391,0.6175782775878906,83.96165466308594,83.47065734863281,-5.1983489990234375,87.68500518798828,-0.012297227647569445,0.36566666666666664,0.2932142857142857,0.02099550035264757,-3.91101707751465,0.35155200958251953,40.34151077270508,0.005455525716145834,-0.08759282430013021
5066,0.10742735904405391,0.6175782775878906,83.79798889160156,83.34790802001953,-5.218807220458984,87.68500518798828,-0.008205625745985243,0.3616666666666667,0.29178571428571426,0.02096498277452257,-3.3287588530273453,0.9338099956512451,41.13251876831055,0.00500089857313368,-0.08782013787163628
5067,0.10352110904405391,0.6175782775878906,85.25050354003906,84.61630249023438,-5.096061706542969,87.54179382324219,-0.012751854790581597,0.3586666666666667,0.2889285714285714,0.02169731987847222,-2.966221468994142,1.5050820112228394,41.83563995361328,0.007046678331163195,-0.08486506144205729
5068,0.10352110904405391,0.6175782775878906,85.25050354003906,84.82088470458984,-4.8914794921875,87.37813568115234,-0.012069914076063368,0.3556666666666667,0.2864285714285714,0.02246025933159722,-2.6036821776123062,1.494096040725708,42.275089263916016,0.004773542616102431,-0.08077350192599826
5069,0.10352110904405391,0.6175782775878906,84.73905181884766,84.37080383300781,-4.707359313964844,87.19401550292969,-0.012297227647569445,0.3526666666666667,0.28464285714285714,0.02355889214409722,-2.142269747802736,1.2743760347366333,42.538761138916016,0.004091644287109375,-0.07668194240993924
5070,0.10352110904405391,0.6175782775878906,84.82088470458984,84.30943298339844,-4.66644287109375,87.0712661743164,-0.012751854790581597,0.3506666666666667,0.2817857142857143,0.024687957763671876,-1.6039568358154312,1.175502061843872,42.89031982421875,0.0056827969021267365,-0.07486343383789062
5071,0.10352110904405391,0.6175782775878906,84.96409606933594,84.47309875488281,-4.5846099853515625,86.94851684570312,-0.011615286933051215,0.3486666666666667,0.28,0.025603485107421876,-1.1095873289794937,1.1315580606460571,42.97821044921875,0.005455525716145834,-0.07259029812282985
5072,0.10352110904405391,0.6175782775878906,84.90271759033203,84.49356079101562,-4.605068206787109,87.0712661743164,-0.009796820746527778,0.347,0.2764285714285714,0.026091766357421876,-0.7140909605712906,1.06564199924469,43.153987884521484,0.00454618665907118,-0.0741814931233724
5073,0.09961485904405391,0.6375001525878906,84.92317199707031,84.67768096923828,-4.66644287109375,87.03034973144531,-0.009569507175021702,0.3456666666666667,0.2742857142857143,0.026335906982421876,-0.4504267149658219,0.8459219932556152,43.505550384521484,0.0027276780870225696,-0.07440880669487847
5074,0.09961485904405391,0.6375001525878906,85.0050048828125,84.49356079101562,-4.7482757568359375,87.25538635253906,-0.012751854790581597,0.3443333333333333,0.27071428571428574,0.027007208930121526,-0.3405672484130875,0.5712720155715942,44.03289031982422,0.005682712131076389,-0.07781846788194445
5075,0.09961485904405391,0.6375001525878906,84.6572265625,84.45263671875,-4.789188385009766,87.31675720214844,-0.011842600504557292,0.3433333333333333,0.26857142857142857,0.027251349555121526,-0.3845106535644547,0.3076080083847046,44.12078094482422,0.0022732204861111113,-0.07895495096842448
5076,0.09961485904405391,0.6375001525878906,84.57539367675781,84.20714569091797,-4.9733123779296875,87.6031723022461,-0.011387973361545138,0.342,0.26535714285714285,0.027342902289496526,-0.6042314940185562,0.1867620050907135,44.64812088012695,0.004091644287109375,-0.08418316311306423
5077,0.10352110904405391,0.6375001525878906,84.57539367675781,84.20714569091797,-5.096061706542969,87.66455078125,-0.014115693834092882,0.34,0.2639285714285714,0.027678595648871526,-0.9887415343017594,0.16479000449180603,44.99967956542969,0.004091644287109375,-0.0862290276421441
5078,0.10352110904405391,0.6375001525878906,84.57539367675781,84.20714569091797,-5.157432556152344,87.84866333007812,-0.013888380262586805,0.338,0.2617857142857143,0.027709113226996526,-1.505081790039064,0.2526780068874359,45.17546081542969,0.004091644287109375,-0.08895662095811632
5079,0.10352110904405391,0.6375001525878906,84.5140151977539,84.12531280517578,-4.952854156494141,87.50088500976562,-0.012069914076063368,0.336,0.26107142857142857,0.027983771430121526,-2.0104395323486344,0.3954960107803345,45.70280075073242,0.0043189154730902775,-0.08281932406955295
5080,0.10352110904405391,0.6375001525878906,84.53446960449219,84.1048583984375,-4.8096466064453125,87.25538635253906,-0.01070603264702691,0.333,0.26035714285714284,0.027861701117621526,-2.263117449829103,0.5273280143737793,46.142250061035156,0.004773457845052083,-0.0785003662109375
5081,0.10352110904405391,0.6375001525878906,84.61630249023438,84.14576721191406,-4.502777099609375,86.90760040283203,-0.013888380262586805,0.3293333333333333,0.26035714285714284,0.028441535101996526,-2.2960745268554703,0.6591600179672241,46.318031311035156,0.005228169759114583,-0.0712264166937934
5082,0.10352110904405391,0.6375001525878906,85.5164566040039,85.0459213256836,-4.339115142822266,86.64164733886719,-0.01070603264702691,0.326,0.26071428571428573,0.028990851508246526,-2.0653692656250016,0.8569080233573914,46.58169937133789,0.005228169759114583,-0.06645291646321615
5083,0.09961485904405391,0.6375001525878906,86.35523986816406,85.88470458984375,-4.523235321044922,87.13264465332031,-0.012069914076063368,0.322,0.26107142857142857,0.029234992133246526,-1.9335371428222672,0.5493000149726868,46.58169937133789,0.005228169759114583,-0.0739542219373915
5084,0.09961485904405391,0.6375001525878906,85.06637573242188,85.92561340332031,-3.9504127502441406,86.47798156738281,-0.014115693834092882,0.31833333333333336,0.26142857142857145,0.029296027289496526,-1.9774805479736344,-0.18676246936035312,46.58169937133789,-0.009547085232204862,-0.06031549241807726
5085,0.09961485904405391,0.6574220275878906,85.0459213256836,84.39126586914062,-3.8890380859375,86.41661071777344,-0.015252261691623263,0.314,0.2617857142857143,0.029265509711371526,-1.6369139128417984,-0.3845106535644547,46.58169937133789,0.0072739495171440975,-0.058951653374565975
5086,0.09570860904405391,0.6574220275878906,87.0098876953125,86.58027648925781,-3.9708709716796875,86.23248291015625,-0.010478719075520834,0.31066666666666665,0.2617857142857143,0.028258429633246526,-1.131558077880861,-0.3295809202880875,46.58169937133789,0.004773457845052083,-0.05781504313151042
5087,0.08789610904405391,0.6574220275878906,84.61630249023438,84.69813537597656,-4.543693542480469,87.29630279541016,-0.010478719075520834,0.30766666666666664,0.26107142857142857,0.026183319091796876,-0.9118391447753922,-0.823950427124025,46.58169937133789,-0.0009092542860243056,-0.07599995930989584
5088,0.08789610904405391,0.6574220275878906,84.61630249023438,84.16622924804688,-4.441402435302734,87.05081176757812,-0.015024948120117187,0.305,0.26035714285714284,0.024687957763671876,-1.142544406005861,-0.8788801604003922,46.66958999633789,0.0050008138020833336,-0.07213571336534289
5089,0.08398985904405391,0.6574220275878906,86.15065002441406,84.24806213378906,-4.073158264160156,86.45751953125,-0.014343007405598959,0.302,0.26,0.02322319878472222,-1.0436712675781266,-0.6701475554199234,46.66958999633789,0.02113986545138889,-0.06145197550455729
5090,0.08008360904405391,0.6375001525878906,86.0074462890625,85.72103881835938,-4.134532928466797,86.78485107421875,-0.011160659790039062,0.2996666666666667,0.2592857142857143,0.02148369683159722,-0.6262022429199234,-0.9228254729003922,46.66958999633789,0.003182305230034722,-0.06577093336317275
5091,0.07617735904405391,0.6375001525878906,84.06393432617188,83.87982177734375,-4.277740478515625,86.98943328857422,-0.014343007405598959,0.29733333333333334,0.25892857142857145,0.01956117418077257,-0.4064833098144547,-1.3183199339599625,46.66958999633789,0.0020456949869791666,-0.06963526407877604
5092,0.07227110904405391,0.6375001525878906,84.20714569091797,83.63432312011719,-3.9299545288085938,86.49844360351562,-0.01070603264702691,0.2946666666666667,0.25785714285714284,0.017425028483072917,-0.3515516691894547,-1.0986010008544937,46.66958999633789,0.006364695231119792,-0.06031553480360243
5093,0.06836485904405391,0.6375001525878906,84.84133911132812,84.37080383300781,-4.032245635986328,86.62118530273438,-0.013888380262586805,0.2926666666666667,0.2571428571428571,0.016112772623697917,-0.16478981311035312,-0.7580343657226578,47.284820556640625,0.005228169759114583,-0.06281589931911892
5094,0.06836485904405391,0.6375001525878906,84.82088470458984,84.41172790527344,-4.134532928466797,86.76439666748047,-0.013888380262586805,0.2906666666666667,0.25642857142857145,0.015014224582248263,-0.10986007983398594,-0.5163427763671891,47.46059799194336,0.00454618665907118,-0.06554366217719185
5095,0.06445860904405391,0.6175782775878906,85.16867065429688,84.71859741210938,-4.216365814208984,86.82576751708984,-0.014570320977105035,0.28833333333333333,0.2557142857142857,0.013915591769748263,-0.20873512561035312,-0.3515516691894547,47.46059799194336,0.0050008138020833336,-0.0671348147922092
5096,0.06055235904405391,0.6175782775878906,84.37080383300781,83.94119262695312,-3.9504127502441406,86.47798156738281,-0.012297227647569445,0.286,0.255,0.01238979763454861,-0.3076082640380875,-0.4064833098144547,48.69105911254883,0.004773457845052083,-0.06031549241807726
5097,0.05664610904405391,0.6175782775878906,84.26852416992188,83.81844329833984,-4.032245635986328,86.559814453125,-0.015252261691623263,0.284,0.255,0.01150478786892361,-0.18676246936035312,-0.3076082640380875,49.13050842285156,0.00500089857313368,-0.062134000990125865
5098,0.05664610904405391,0.5976564025878907,84.73905181884766,84.20714569091797,-4.073158264160156,86.662109375,-0.012979168362087673,0.2823333333333333,0.255,0.01077236599392361,-0.12084640795898594,-0.13183273608398594,49.21839904785156,0.0059100680881076385,-0.0637251959906684
5099,0.05273985904405391,0.5976564025878907,84.73905181884766,84.39126586914062,-4.154991149902344,86.76439666748047,-0.015252261691623263,0.2796666666666667,0.25535714285714284,0.01016201443142361,-0.20873512561035312,-0.05493034655761875,49.39418029785156,0.003864288330078125,-0.06577097574869792
5100,0.04883360904405391,0.5976564025878907,84.69813537597656,84.35034942626953,-4.154991149902344,86.559814453125,-0.010251405504014757,0.277,0.25607142857142856,0.009032948811848959,-0.3185945921630875,0.04394400119781494,50.27307891845703,0.003864288330078125,-0.06349784003363715
5101,0.04492735904405391,0.5976564025878907,85.82332611083984,85.72103881835938,-4.216365814208984,86.84622192382812,-0.014115693834092882,0.27466666666666667,0.25642857142857145,0.008117421468098959,-0.3735243254394547,0.032958000898361206,50.36096954345703,0.0011365254720052083,-0.0673620859781901
5102,0.04492735904405391,0.5777345275878907,84.86180114746094,84.5958480834961,-4.154991149902344,86.72348022460938,-0.015252261691623263,0.272,0.2571428571428571,0.0073544820149739586,-0.3954969816894547,-0.3405672484130875,50.53675079345703,0.0029550340440538192,-0.06531634860568576
5103,0.04492735904405391,0.5777345275878907,83.49111938476562,84.43218231201172,-4.032245635986328,86.5188980102539,-0.015706888834635415,0.26966666666666667,0.25821428571428573,0.006591627332899305,-0.3185945921630875,-0.5383154326171891,50.53675079345703,-0.010456254747178819,-0.061679373847113715
5104,0.04102110904405391,0.5777345275878907,85.16867065429688,83.81844329833984,-4.093616485595703,86.78485107421875,-0.011842600504557292,0.267,0.2592857142857143,0.005401441786024305,-0.2307058745117203,-0.20873512561035312,50.53675079345703,0.015002526177300347,-0.06531630622016059
5105,0.03320860904405391,0.5578126525878906,84.80043029785156,84.554931640625,-4.073158264160156,86.53935241699219,-0.009796820746527778,0.2643333333333333,0.2596428571428571,0.0036925421820746527,-0.18676246936035312,-0.2307058745117203,50.53675079345703,0.002727762858072917,-0.0623612297905816
5106,0.03320860904405391,0.5578126525878906,84.1048583984375,83.75706481933594,-4.175449371337891,86.80531311035156,-0.015252261691623263,0.262,0.26071428571428573,0.0029601203070746527,-0.2416922026367203,-0.4723993712158219,50.53675079345703,0.0038643731011284723,-0.06645291646321615
5107,0.03320860904405391,0.5578126525878906,85.27096557617188,83.81844329833984,-4.175449371337891,86.78485107421875,-0.01547957526312934,0.25933333333333336,0.26142857142857145,0.0027159796820746527,-0.3405672484130875,-0.3845106535644547,50.53675079345703,0.0161391364203559,-0.0662255605061849
5108,0.03320860904405391,0.5578126525878906,84.96409606933594,84.80043029785156,-4.1959075927734375,86.84622192382812,-0.014115693834092882,0.25666666666666665,0.2621428571428571,0.0020140753851996527,-0.3954969816894547,-0.5492998533935562,50.53675079345703,0.001818508572048611,-0.06713477240668403
5109,0.03711485904405391,0.5578126525878906,82.24317932128906,81.46577453613281,-4.175449371337891,86.84622192382812,-0.01661614312065972,0.25466666666666665,0.26321428571428573,0.0017699347601996527,-0.4504267149658219,-0.5273291044921891,50.53675079345703,0.008637830946180555,-0.06690745883517796
5110,0.03711485904405391,0.5378907394409179,84.88226318359375,84.28897857666016,-4.318656921386719,86.96897888183594,-0.010933346218532987,0.252,0.2639285714285714,0.0014037238226996527,-0.5053564482421891,0.2197200059890747,50.53675079345703,0.0065920511881510414,-0.06986262003580729
5111,0.029302359044053913,0.5378907394409179,84.1048583984375,84.26852416992188,-4.380031585693359,87.03034973144531,-0.01252454121907552,0.24966666666666668,0.2646428571428571,0.00067138671875,-0.5822588377685562,0.4723980128765106,50.53675079345703,-0.001818508572048611,-0.07122645907931857
5112,0.029302359044053913,0.5378907394409179,85.61874389648438,82.77508544921875,-4.4209442138671875,87.09172058105469,-0.012979168362087673,0.24733333333333332,0.26571428571428574,0.000518798828125,-0.7031046324462906,1.1535300016403198,50.53675079345703,0.031596204969618055,-0.07236294216579861
5113,0.025396109044053913,0.5179688644409179,84.6572265625,84.18669128417969,-4.543693542480469,87.21446990966797,-0.011387973361545138,0.244,0.2671428571428571,0.00054931640625,-0.9008528166503922,1.450152039527893,50.53675079345703,0.005228169759114583,-0.07509070502387152
5114,0.021489859044053913,0.5179688644409179,85.37325286865234,85.18913269042969,-4.4209442138671875,87.0098876953125,-0.014343007405598959,0.241,0.26821428571428574,0.00115966796875,-1.0766283446044937,1.450152039527893,50.53675079345703,0.002045779758029514,-0.07145368787977431
5115,0.017583609044053913,0.49804698944091796,86.02790832519531,85.0050048828125,-4.400489807128906,87.0098876953125,-0.015024948120117187,0.23833333333333334,0.2692857142857143,0.0017699347601996527,-1.1095873289794937,1.3183200359344482,50.53675079345703,0.011365593804253473,-0.0712264166937934
5116,0.013677359044053913,0.49804698944091796,85.65966796875,85.68012237548828,-4.482318878173828,86.96897888183594,-0.012297227647569445,0.235,0.2710714285714286,0.0017699347601996527,-1.142544406005861,0.8569080233573914,50.53675079345703,-0.00022727118598090277,-0.07168108622233073
5117,0.013677359044053913,0.49804698944091796,84.14576721191406,83.57295227050781,-4.339115142822266,86.88714599609375,-0.015252261691623263,0.232,0.2717857142857143,0.0018920050726996527,-1.2963491850585953,0.3954960107803345,50.53675079345703,0.006364610460069444,-0.06918067932128906
5118,0.009771109044053913,0.478125114440918,84.5958480834961,83.77752685546875,-4.318656921386719,86.86668395996094,-0.014343007405598959,0.229,0.2735714285714286,0.0017394171820746527,-1.2963491850585953,0.4284540116786957,50.53675079345703,0.009092458089192708,-0.06872600979275173
5119,0.005864859044053913,0.478125114440918,85.0459213256836,84.06393432617188,-4.257282257080078,86.84622192382812,-0.01252454121907552,0.226,0.27464285714285713,0.0014952765570746527,-1.175503390380861,0.4943700134754181,50.53675079345703,0.01091096666124132,-0.06781671312120226
5120,0.005864859044053913,0.478125114440918,85.49600219726562,85.06637573242188,-4.236824035644531,86.84622192382812,-0.015024948120117187,0.22333333333333333,0.2760714285714286,0.0016173468695746527,-1.0546575957031266,0.36253800988197327,50.53675079345703,0.004773627387152778,-0.06758939954969619
5121,0.0019586090440539138,0.478125114440918,83.57295227050781,85.0459213256836,-4.154991149902344,87.1121826171875,-0.013433795505099827,0.22,0.27714285714285714,0.001251220703125,-0.9997259550781266,0.08788800239562988,50.53675079345703,-0.016366322835286457,-0.06963526407877604
5122,-0.0019476409559460864,0.478125114440918,83.77752685546875,82.63188171386719,-4.216365814208984,86.82576751708984,-0.010251405504014757,0.21733333333333332,0.2785714285714286,0.00042724609375,-0.801977770874025,0.5053560137748718,50.53675079345703,0.012729390462239584,-0.0671348147922092
5123,-0.009760140955946087,0.45820323944091795,85.35279846191406,85.02546691894531,-4.400489807128906,87.0712661743164,-0.009114880032009548,0.215,0.2789285714285714,-0.000518798828125,-0.5932451658935562,0.6701459884643555,50.53675079345703,0.003637017144097222,-0.0719083997938368
5124,-0.013666390955946087,0.45820323944091795,85.37325286865234,85.29141998291016,-4.441402435302734,87.13264465332031,-0.015252261691623263,0.21266666666666667,0.28,-0.0006103515625,-0.5932451658935562,0.16479000449180603,50.53675079345703,0.0009092542860243056,-0.07304496765136718
5125,-0.009760140955946087,0.45820323944091795,85.37325286865234,84.86180114746094,-4.871021270751953,87.5213394165039,-0.01775266859266493,0.21033333333333334,0.28035714285714286,-0.000457763671875,-0.834936755249025,-0.3625379973144547,50.53675079345703,0.0056827969021267365,-0.08213734096950955
5126,-0.005853890955946087,0.45820323944091795,84.69813537597656,85.33233642578125,-4.932395935058594,87.64408874511719,-0.020253117879231772,0.20833333333333334,0.2814285714285714,-0.000335693359375,-1.2304331236572281,-0.8788801604003922,50.53675079345703,-0.007046678331163195,-0.08418316311306423
5127,-0.0019476409559460864,0.45820323944091795,85.23004150390625,83.22515869140625,-4.850563049316406,87.54179382324219,-0.021844270494249134,0.206,0.28214285714285714,-0.000213623046875,-1.4940973692626969,-0.7909933500976578,50.53675079345703,0.022276475694444443,-0.08213729858398437
5128,-0.0019476409559460864,0.438281364440918,84.43218231201172,83.71615600585938,-4.502777099609375,87.48042297363281,-0.015706888834635415,0.20366666666666666,0.2832142857142857,-0.0006103515625,-1.5819841795654312,-0.4064833098144547,50.53675079345703,0.007955847846137152,-0.07759111192491319
5129,-0.005853890955946087,0.438281364440918,85.63920593261719,85.16867065429688,-4.4209442138671875,87.15309143066406,-0.013888380262586805,0.20066666666666666,0.2842857142857143,-0.001373291015625,-1.3293062620849625,-0.2307058745117203,50.53675079345703,0.005228169759114583,-0.07304484049479167
5130,-0.009760140955946087,0.438281364440918,83.87982177734375,83.63432312011719,-5.034687042236328,86.88714599609375,-0.014570320977105035,0.198,0.28535714285714286,-0.0023192511664496527,-0.9667688780517594,-0.3845106535644547,50.53675079345703,0.002727762858072917,-0.07690925598144531
5131,-0.009760140955946087,0.438281364440918,83.69569396972656,84.82088470458984,-5.055145263671875,87.80775451660156,-0.016388829549153647,0.196,0.2857142857142857,-0.0030211554633246527,-1.1095873289794937,-0.3625379973144547,50.53675079345703,-0.01250211927625868,-0.0873655531141493
5132,-0.013666390955946087,0.438281364440918,83.77752685546875,83.02058410644531,-5.177890777587891,87.95095825195312,-0.012979168362087673,0.19366666666666665,0.2867857142857143,-0.0038146124945746527,-1.527054446289064,0.010986000299453735,49.8336296081543,0.008410474989149305,-0.09032054477267795
5133,-0.017572640955946087,0.41835948944091794,84.73905181884766,84.24806213378906,-5.014228820800781,87.54179382324219,-0.011615286933051215,0.191,0.2875,-0.004150305853949653,-1.9005781584472672,0.516342043876648,49.39418029785156,0.005455440945095486,-0.08395580715603299
5134,-0.021478890955946087,0.41835948944091794,84.71859741210938,84.37080383300781,-4.9733123779296875,87.68500518798828,-0.01616151597764757,0.18766666666666668,0.2885714285714286,-0.004302893744574653,-2.0543829375000016,0.6811320185661316,49.39418029785156,0.0038643731011284723,-0.08509241739908854
5135,-0.021478890955946087,0.41835948944091794,86.1097412109375,85.0459213256836,-5.1983489990234375,87.91004180908203,-0.014343007405598959,0.18466666666666667,0.2892857142857143,-0.003997717963324653,-2.164242404052736,0.7250760197639465,49.39418029785156,0.011820220947265625,-0.09009323120117188
5136,-0.021478890955946087,0.39843757629394533,86.53935241699219,86.08927917480469,-5.177890777587891,87.86912536621094,-0.020025804307725693,0.18166666666666667,0.2907142857142857,-0.0032347785101996527,-2.3619905882568375,0.02197200059890747,49.39418029785156,0.0050008138020833336,-0.08941129048665365
5137,-0.021478890955946087,0.39843757629394533,86.68256378173828,87.15309143066406,-5.177890777587891,87.82821655273438,-0.015252261691623263,0.17866666666666667,0.2914285714285714,-0.0032652960883246527,-2.6256548338623062,-0.9008528166503922,49.39418029785156,-0.005228084988064236,-0.08895674811469184
5138,-0.017572640955946087,0.39843757629394533,84.12531280517578,86.0074462890625,-4.502777099609375,87.5213394165039,-0.021616956922743055,0.175,0.2932142857142857,-0.0037230597601996527,-2.856360095092775,-1.8236757689209,49.39418029785156,-0.020912594265407987,-0.07804573906792535
5139,-0.021478890955946087,0.3585938262939453,84.37080383300781,84.16622924804688,-4.461860656738281,87.17355346679688,-0.018661922878689237,0.17133333333333334,0.29428571428571426,-0.005370924207899305,-2.537766116210939,-1.8017050200195328,49.39418029785156,0.0022730509440104167,-0.07372682359483507
5140,-0.029291390955946087,0.3785157012939453,85.16867065429688,83.22515869140625,-4.605068206787109,87.31675720214844,-0.013888380262586805,0.16766666666666666,0.2960714285714286,-0.008147939046223959,-2.164242404052736,-1.4940973692626969,49.39418029785156,0.021594577365451388,-0.07690917121039496
5141,-0.04101014095594609,0.3785157012939453,82.0999755859375,82.83645629882812,-4.625526428222656,87.39859008789062,-0.011160659790039062,0.164,0.29714285714285715,-0.01113857693142361,-2.0104395323486344,-1.2633902006835953,49.39418029785156,-0.008183119032118056,-0.07804573906792535
5142,-0.04491639095594609,0.3585938262939453,82.34546661376953,81.5066909790039,-4.707359313964844,87.45996856689453,-0.012751854790581597,0.16066666666666668,0.2985714285714286,-0.01257290310329861,-1.8895918303222672,-0.17577614123535312,49.39418029785156,0.009319729275173612,-0.07963697645399305
5143,-0.05272889095594609,0.3585938262939453,84.69813537597656,83.36836242675781,-5.280181884765625,88.13508605957031,-0.0054779052734375,0.158,0.29964285714285716,-0.013457828097873263,-1.9445234709472672,1.0986000299453735,49.39418029785156,0.014775254991319445,-0.0935029771592882
5144,-0.06444764095594609,0.3585938262939453,86.662109375,85.47554016113281,-4.789188385009766,87.43951416015625,-0.013433795505099827,0.154,0.3007142857142857,-0.013518863254123263,-2.263117449829103,1.1864880323410034,49.39418029785156,0.013184102376302083,-0.08031891716851128
5145,-0.06444764095594609,0.33867195129394534,84.02302551269531,84.77996826171875,-4.523235321044922,87.15309143066406,-0.015024948120117187,0.151,0.30142857142857143,-0.01275600857204861,-2.1093126707763687,0.5493000149726868,49.21839904785156,-0.008410474989149305,-0.07418140835232205
5146,-0.06054139095594609,0.33867195129394534,86.74394226074219,85.29141998291016,-5.075603485107422,87.41905212402344,-0.016388829549153647,0.148,0.3028571428571429,-0.01177944607204861,-1.7687460356445328,0.4284540116786957,49.21839904785156,0.0161391364203559,-0.0832739512125651
5147,-0.06444764095594609,0.33867195129394534,86.662109375,86.19157409667969,-5.239265441894531,87.97142028808594,-0.015706888834635415,0.145,0.30357142857142855,-0.01205410427517361,-1.9774805479736344,-0.19774879748535312,49.21839904785156,0.005228169759114583,-0.09122984144422742
5148,-0.07226014095594609,0.29882820129394533,85.49600219726562,86.0688247680664,-4.911937713623047,87.72592163085938,-0.01752539740668403,0.14166666666666666,0.30464285714285716,-0.01290859646267361,-2.3949495726318375,-1.3952223234863297,49.21839904785156,-0.006364695231119792,-0.08486510382758247
5149,-0.06054139095594609,0.3187500762939453,81.38394165039062,82.36592102050781,-3.868579864501953,86.41661071777344,-0.01752539740668403,0.13833333333333334,0.305,-0.013671451144748263,-2.241144793579103,-1.7467752867431656,49.21839904785156,-0.010910881890190972,-0.0587243398030599
5150,-0.06054139095594609,0.29882820129394533,83.42974090576172,82.77508544921875,-5.136974334716797,87.50088500976562,-0.015706888834635415,0.13533333333333333,0.30642857142857144,-0.014739566379123263,-1.6039568358154312,-0.4504267149658219,49.21839904785156,0.0072739495171440975,-0.08486510382758247
5151,-0.07226014095594609,0.3187500762939453,85.27096557617188,84.98455047607422,-4.7482757568359375,88.19645690917969,-0.006841744316948784,0.13233333333333333,0.30714285714285716,-0.016204325358072917,-1.9774805479736344,0.41746801137924194,49.21839904785156,0.0031823900010850693,-0.08827480740017361
5152,-0.07226014095594609,0.3187500762939453,84.30943298339844,82.52958679199219,-4.911937713623047,87.50088500976562,-0.014570320977105035,0.12866666666666668,0.3082142857142857,-0.015807596842447917,-2.0214239531250016,0.8898659944534302,49.21839904785156,0.01977606879340278,-0.0823646969265408
5153,-0.08007264095594609,0.29882820129394533,83.65477752685547,84.84133911132812,-4.850563049316406,87.62362670898438,-0.010478719075520834,0.126,0.30857142857142855,-0.015838114420572917,-2.0324102812500016,0.48338401317596436,49.21839904785156,-0.013184017605251737,-0.08304655287000869
5154,-0.08007264095594609,0.29882820129394533,84.90271759033203,83.02058410644531,-4.850563049316406,87.6031723022461,-0.016388829549153647,0.12333333333333334,0.3092857142857143,-0.015349917941623263,-1.9884668760986344,0.45042601227760315,48.95473098754883,0.020912594265407987,-0.08281928168402777
5155,-0.08397889095594609,0.29882820129394533,86.64164733886719,85.78240966796875,-4.952854156494141,87.68500518798828,-0.01002409193250868,0.12,0.30964285714285716,-0.014953189425998263,-1.9774805479736344,0.5822579860687256,48.86684036254883,0.009547085232204862,-0.08486510382758247
5156,-0.08788514095594609,0.2789063262939453,82.73416900634766,83.552490234375,-4.686901092529297,87.41905212402344,-0.013661109076605903,0.11733333333333333,0.31035714285714283,-0.015441470675998263,-2.1093126707763687,-0.03295769030761875,48.69105911254883,-0.009092458089192708,-0.07895503573947482
5157,-0.08788514095594609,0.2789063262939453,84.1048583984375,83.18424987792969,-4.8914794921875,87.54179382324219,-0.012069914076063368,0.11433333333333333,0.31107142857142855,-0.015380435519748263,-1.9994532042236344,0.8019779920578003,48.60316848754883,0.010228983561197917,-0.08259192572699653
5158,-0.09569764095594609,0.2789063262939453,86.68256378173828,85.78240966796875,-5.055145263671875,87.58271789550781,-0.011387973361545138,0.11133333333333334,0.31214285714285717,-0.015197330050998263,-2.0433966093750016,1.1864880323410034,48.60316848754883,0.010001712375217013,-0.08486514621310765
5159,-0.10351014095594609,0.25898443222045897,86.31431579589844,85.82332611083984,-5.034687042236328,87.74638366699219,-0.015934202406141493,0.108,0.31285714285714283,-0.014739566379123263,-2.164242404052736,0.10986000299453735,48.60316848754883,0.005455440945095486,-0.08645634121365017
5160,-0.09569764095594609,0.239062557220459,83.34790802001953,81.83401489257812,-4.952854156494141,87.76683807373047,-0.020025804307725693,0.10533333333333333,0.3132142857142857,-0.013763003879123263,-2.2850881987304703,-0.4174677305908219,48.60316848754883,0.01682103474934896,-0.08577435811360677
5161,-0.09569764095594609,0.239062557220459,83.79798889160156,84.35034942626953,-4.8096466064453125,87.50088500976562,-0.013661109076605903,0.10166666666666667,0.31392857142857145,-0.013854556613498263,-2.3949495726318375,-0.05493034655761875,48.60316848754883,-0.006137339274088541,-0.08122812906901042
5162,-0.09960389095594609,0.239062557220459,84.39126586914062,83.67523193359375,-4.7482757568359375,87.50088500976562,-0.009342193603515625,0.098,0.31535714285714284,-0.014617496066623263,-2.3180471831054703,0.5822579860687256,48.60316848754883,0.0079559326171875,-0.08054623074001736
5163,-0.10351014095594609,0.239062557220459,84.0025634765625,83.65477752685547,-4.5846099853515625,87.41905212402344,-0.015706888834635415,0.09433333333333334,0.31607142857142856,-0.014342837863498263,-2.3070608549804703,0.9447960257530212,48.60316848754883,0.003864288330078125,-0.07781846788194445
5164,-0.10351014095594609,0.239062557220459,85.37325286865234,84.77996826171875,-4.502777099609375,87.27584838867188,-0.01252454121907552,0.09133333333333334,0.3175,-0.013030582004123263,-2.0763555937500016,1.340291976928711,48.60316848754883,0.0065920511881510414,-0.07531806098090278
5165,-0.10741639095594609,0.219140682220459,87.70545959472656,87.15309143066406,-4.789188385009766,87.41905212402344,-0.010251405504014757,0.08866666666666667,0.3182142857142857,-0.01214565700954861,-1.7797323637695328,0.9557820558547974,48.60316848754883,0.006137424045138889,-0.08009156121148003
5166,-0.11132264095594609,0.19921878814697266,83.12287139892578,83.0001220703125,-5.341556549072266,88.21691131591797,-0.01979849073621962,0.08466666666666667,0.31857142857142856,-0.01168789333767361,-2.0763555937500016,-0.12084640795898594,48.60316848754883,0.0013638814290364584,-0.09509408738878038
5167,-0.09569764095594609,0.19921878814697266,84.28897857666016,85.53691101074219,-3.1525497436523438,87.86912536621094,-0.014570320977105035,0.08133333333333333,0.3192857142857143,-0.01080288357204861,-2.6036821776123062,-0.05493034655761875,48.60316848754883,-0.013865915934244792,-0.06690750122070313
5168,-0.09179139095594609,0.19921878814697266,86.41661071777344,85.1072998046875,-4.707359313964844,86.90760040283203,-0.012979168362087673,0.07866666666666666,0.32071428571428573,-0.010070546468098959,-1.7467752867431656,0.2197200059890747,48.60316848754883,0.014547899034288195,-0.07349955240885417
5169,-0.11132264095594609,0.19921878814697266,83.1024169921875,89.567138671875,-4.952854156494141,87.70545959472656,-0.003659396701388889,0.075,0.32107142857142856,-0.01126064724392361,-1.6039568358154312,-0.9777552061767594,48.427391052246094,-0.07183024088541666,-0.08509237501356337
5170,-0.09960389095594609,0.17929691314697266,82.52958679199219,81.13844299316406,-4.8914794921875,87.25538635253906,-0.01752539740668403,0.07166666666666667,0.32142857142857145,-0.01132168240017361,-1.8786074095459,-1.0986010008544937,48.427391052246094,0.0154571533203125,-0.0794096204969618
5171,-0.09960389095594609,0.15937503814697265,86.62118530273438,85.98699188232422,-4.768730163574219,87.80775451660156,-0.009342193603515625,0.06866666666666667,0.3225,-0.01150478786892361,-2.2741018706054703,0.032958000898361206,48.427391052246094,0.007046593560112847,-0.08418316311306423
5172,-0.15038514095594607,0.13945316314697265,85.90515899658203,86.82576751708984,-4.66644287109375,87.48042297363281,-0.0043413374159071184,0.06633333333333333,0.32392857142857145,-0.013000064425998263,-2.3070608549804703,-0.18676246936035312,48.339500427246094,-0.010228983561197917,-0.0794096204969618
5173,-0.14257264095594607,0.13945316314697265,84.24806213378906,85.25050354003906,-4.993770599365234,87.70545959472656,-0.008660252888997395,0.06166666666666667,0.3246428571428571,-0.013183169894748263,-2.263117449829103,-0.7031046324462906,48.075828552246094,-0.011138237847222222,-0.08554700215657553
5174,-0.2753851131781684,0.05976563930511475,85.90515899658203,83.69569396972656,-4.707359313964844,87.5213394165039,-0.01729808383517795,0.059333333333333335,0.32607142857142857,-0.013152652316623263,-2.3949495726318375,-0.05493034655761875,48.075828552246094,0.02454961140950521,-0.0803188747829861
5175,-0.20897886317816838,0.07968751907348633,86.39614868164062,86.41661071777344,-4.830104827880859,87.31675720214844,-0.01252454121907552,0.05466666666666667,0.3275,-0.013457828097873263,-2.482836382934572,0.36253800988197327,48.075828552246094,-0.00022735595703125,-0.07940957811143663
5176,-0.17382261317816838,0.07968751907348633,84.30943298339844,83.14332580566406,-4.707359313964844,86.27340698242188,-0.01957117716471354,0.051333333333333335,0.3292857142857143,-0.01217617458767361,-2.3180471831054703,0.4723980128765106,48.075828552246094,0.012956746419270833,-0.06645295884874132
5177,-0.17772886317816838,0.07968751907348633,86.15065002441406,83.28652954101562,-3.3366737365722656,85.90515899658203,-0.012297227647569445,0.04666666666666667,0.33035714285714285,-0.01214565700954861,-1.9994532042236344,0.8788800239562988,48.075828552246094,0.03182356092664931,-0.04713147481282552
5178,-0.16601011317816838,0.07968751907348633,82.91828918457031,84.73905181884766,-4.461860656738281,86.21202850341797,-0.01661614312065972,0.043333333333333335,0.3325,-0.01132168240017361,-1.1974741392822281,0.2746500074863434,48.075828552246094,-0.02023069593641493,-0.063043212890625
5179,-0.16210389095594607,0.03984375953674316,87.25538635253906,82.59095764160156,-4.523235321044922,86.04837036132812,-0.021162372165256075,0.04133333333333333,0.33285714285714285,-0.009460194905598959,-1.0216986113281266,0.6262019872665405,48.075828552246094,0.05182698567708333,-0.061906729804144967
5180,-0.16601011317816838,0.03984375953674316,85.23004150390625,80.36103820800781,-4.66644287109375,87.62362670898438,-0.02093505859375,0.037,0.3335714285714286,-0.008758290608723959,-1.1864878111572281,1.5490260124206543,47.987937927246094,0.05410003662109375,-0.08100077311197916
5181,-0.22069761317816838,0.05976563930511475,90.59004211425781,89.91493225097656,-4.073158264160156,87.21446990966797,-0.0043413374159071184,0.033,0.3339285714285714,-0.008117421468098959,-1.6698728972167984,1.7028300762176514,47.81216049194336,0.007501220703125,-0.06986253526475694
5182,-0.14647889095594607,0.05976563930511475,80.0337142944336,80.87248992919922,-3.5412521362304688,86.49844360351562,-0.03161866929796007,0.030333333333333334,0.3342857142857143,-0.006591627332899305,-1.505081790039064,-0.2856375151367203,47.54848861694336,-0.009319729275173612,-0.05599661933051215
5183,-0.11132264095594609,0.05976563930511475,90.93782806396484,88.64653015136719,-5.177890777587891,87.76683807373047,-0.009114880032009548,0.027666666666666666,0.3342857142857143,-0.005828687879774305,-0.812964098999025,0.2746500074863434,47.54848861694336,0.025458865695529513,-0.08827476501464844
5184,-0.06444764095594609,0.07968751907348633,85.88470458984375,77.27188110351562,-5.566593170166016,88.48286437988281,-0.01752539740668403,0.024666666666666667,0.3335714285714286,-0.005492994520399305,-0.9338098936767594,-0.3185945921630875,47.54848861694336,0.09569803873697917,-0.10054952833387587
5185,-0.07226014095594609,0.05976563930511475,84.20714569091797,84.88226318359375,-6.037128448486328,88.62606811523438,-0.012751854790581597,0.021333333333333333,0.33285714285714285,-0.005492994520399305,-1.1864878111572281,-0.48338379199218906,46.933258056640625,-0.007501305474175347,-0.10736885070800781
5186,-0.06444764095594609,0.03984375953674316,85.1072998046875,84.1048583984375,-5.300640106201172,88.21691131591797,-0.007978312174479167,0.018333333333333333,0.33107142857142857,-0.005828687879774305,-1.516068118164064,-0.5273291044921891,46.84537124633789,0.011138237847222222,-0.09463946024576823
5187,-0.09960389095594609,0.01992187976837158,82.24317932128906,79.9518814086914,-5.096061706542969,87.19401550292969,-0.010933346218532987,0.015333333333333332,0.33035714285714285,-0.006530592176649305,-1.0216986113281266,-0.4394403868408219,46.84537124633789,0.025458865695529513,-0.08100085788302952
5188,0.005864859044053913,0.01992187976837158,80.85203552246094,86.6007308959961,-4.7482757568359375,87.72592163085938,0.009524663289388021,0.012,0.3292857142857143,-0.005035230848524305,-0.6481748991699234,-0.7031046324462906,39.98994827270508,-0.06387439303927951,-0.08304663764105903
5189,0.24805235904405384,0.03984375953674316,88.1146240234375,85.27096557617188,-3.520793914794922,85.1072998046875,0.0015687730577256945,0.008333333333333333,0.32785714285714285,-0.001007080078125,-0.3954969816894547,-0.14281906420898594,37.96847915649414,0.031596204969618055,-0.04031215243869358
5190,0.3652398590440538,0.03984375953674316,91.44927978515625,83.02058410644531,-0.7589645385742188,86.29386138916016,0.013843536376953125,0.004666666666666667,0.3242857142857143,0.000335693359375,0.23070600628852844,-0.08788933093261875,24.60919952392578,0.0936521742078993,-0.02280917697482639
5191,0.5722711090440539,0.03984375953674316,83.98210144042969,79.8905029296875,-0.6566734313964844,83.69569396972656,0.013388951619466146,0.002,0.32142857142857145,0.000701904296875,2.032410144805908,-0.18676246936035312,24.60919952392578,0.04546220567491319,0.007195917765299479
5192,0.4433648590440538,0.03984375953674316,85.68012237548828,86.02790832519531,-0.042934417724609375,82.44775390625,0.06498853895399305,0.0,0.31607142857142856,0.000946044921875,2.592696189880371,0.06591600179672241,24.60919952392578,-0.003864288330078125,0.02788124084472656
5193,0.5722711090440539,0.05976563930511475,88.29874420166016,87.05081176757812,2.9234771728515625,81.71127319335938,-0.011842600504557292,-0.0013333333333333333,0.31214285714285717,0.005706617567274305,2.4718501567840576,0.19774800539016724,24.60919952392578,0.013865915934244792,0.0690244886610243
5194,0.6621148590440539,0.05976563930511475,87.6031723022461,88.64653015136719,2.5756912231445312,79.97233581542969,0.007024214002821181,-0.0016666666666666668,0.3067857142857143,0.005523512098524305,3.2738280296325684,0.010986000299453735,24.60919952392578,-0.011592864990234375,0.08448172675238716
5195,0.6582086090440539,0.01992187976837158,86.82576751708984,85.70057678222656,14.891407012939453,76.37173461914062,0.006342273288302952,-0.002,0.30214285714285716,0.0022582160101996527,2.2521300315856934,-1.2194467955322281,24.60919952392578,0.01250211927625868,0.26132969326443145
5196,0.4941461090440538,0.0,89.2193603515625,88.48286437988281,15.300567626953125,71.72776794433594,-0.00297745598687066,0.0,0.29392857142857143,-0.0,1.8456480503082275,-0.6921183043212906,24.60919952392578,0.00818328857421875,0.31747555202907984
