,WD,WS,AIL_1,AIL_2,ELEV_1,ELEV_2,RUDD,ALT,GS,TH,PTCH,ROLL,PLA_1,AIL,ELEV
4355,0.09496974286566848,0.09960939407348633,84.69813537597656,84.47309875488281,-5.873462677001953,88.70790100097656,-0.007069057888454861,0.5656666666666667,0.4882142857142857,0.006072828504774305,2.0873401165008545,1.966494083404541,45.52701950073242,0.0025004069010416668,-0.10645959642198351
4356,0.09496974286566848,0.09960939407348633,84.92317199707031,84.16622924804688,-5.8939208984375,88.68744659423828,-0.00775099860297309,0.566,0.4882142857142857,0.007079908582899305,2.13128399848938,1.9005780220031738,45.79069137573242,0.008410474989149305,-0.10645963880750868
4357,0.09887599286566848,0.09960939407348633,84.98455047607422,84.47309875488281,-5.914379119873047,88.72836303710938,-0.006159803602430555,0.5663333333333334,0.48857142857142855,0.007934315999348959,2.1642420291900635,1.9335360527038574,45.79069137573242,0.0056827969021267365,-0.10714157952202691
4358,0.09887599286566848,0.09960939407348633,85.57783508300781,84.57539367675781,-5.873462677001953,88.68744659423828,-0.009114880032009548,0.5663333333333334,0.48857142857142855,0.009092625927734351,2.120298147201538,1.8456480503082275,45.79069137573242,0.011138237847222222,-0.10623232523600261
4359,0.09106349286566848,0.09960939407348633,85.16867065429688,84.82088470458984,-5.914379119873047,88.68744659423828,-0.008205625745985243,0.566,0.48857142857142855,0.009794530224609351,2.1642420291900635,1.3512780666351318,45.966468811035156,0.003864288330078125,-0.10668695237901475
4360,0.09887599286566848,0.09960939407348633,84.73905181884766,84.28897857666016,-5.914379119873047,88.74882507324219,-0.008660252888997395,0.5656666666666667,0.48892857142857143,0.010404881787109351,2.1532559394836426,0.8898659944534302,46.318031311035156,0.0050008138020833336,-0.10736893547905815
4361,0.11059474286566848,0.09960939407348633,85.0050048828125,84.06393432617188,-5.914379119873047,88.74882507324219,-0.008205625745985243,0.5663333333333334,0.48928571428571427,0.011106701312934003,2.109312057495117,1.0107120275497437,46.318031311035156,0.010456339518229166,-0.10736893547905815
4362,0.11450099286566848,0.09960939407348633,83.67523193359375,83.96165466308594,-5.8939208984375,88.74882507324219,-0.005250591701931423,0.5663333333333334,0.48928571428571427,0.011625500141059003,2.0983259677886963,1.252403974533081,46.318031311035156,-0.0031824747721354166,-0.10714162190755208
4363,0.11450099286566848,0.09960939407348633,86.76439666748047,84.96409606933594,-5.934837341308594,88.68744659423828,-0.007978312174479167,0.5663333333333334,0.48964285714285716,0.012602062641059003,2.120298147201538,1.735788106918335,46.318031311035156,0.02000333997938368,-0.10691426595052084
4364,0.08715724286566848,0.09960939407348633,86.86668395996094,86.27340698242188,-5.914379119873047,88.72836303710938,-0.010478719075520834,0.566,0.49,0.012541027484809003,2.109312057495117,0.4943700134754181,46.142250061035156,0.006591966417100695,-0.10714157952202691
4365,0.08715724286566848,0.09960939407348633,85.98699188232422,85.47554016113281,-5.934837341308594,88.72836303710938,-0.013888380262586805,0.5666666666666667,0.4903571428571429,0.012174816547309003,2.109312057495117,-1.3512789183349625,46.142250061035156,0.0056827969021267365,-0.10736889309353298
4366,0.11059474286566848,0.07968751907348633,84.80043029785156,84.92317199707031,-5.955295562744141,88.76927947998047,-0.01070603264702691,0.567,0.4907142857142857,0.011259289203559003,2.065368175506592,-2.559738772460939,46.142250061035156,-0.0013637966579861111,-0.10805083380805122
4367,0.12231349286566848,0.09960939407348633,84.63676452636719,84.08439636230469,-5.914379119873047,88.78973388671875,-0.009114880032009548,0.567,0.49107142857142855,0.009916600537109351,1.9994521141052246,-2.834389346191408,46.142250061035156,0.006137424045138889,-0.10782347785101996
4368,0.11450099286566848,0.09960939407348633,85.25050354003906,84.6572265625,-5.934837341308594,88.76927947998047,-0.009114880032009548,0.5676666666666667,0.49142857142857144,0.008208974202473959,1.9115641117095947,-2.6586119108886734,46.142250061035156,0.006591966417100695,-0.10782352023654514
4369,0.10278224286566848,0.09960939407348633,83.69569396972656,83.49111938476562,-5.934837341308594,88.76927947998047,-0.005705218844943577,0.5673333333333334,0.49178571428571427,0.006133863661024305,1.9005780220031738,-2.548752444335939,46.142250061035156,0.0022730509440104167,-0.10782352023654514
4370,0.11450099286566848,0.09960939407348633,83.26608276367188,83.20470428466797,-5.9757537841796875,88.78973388671875,-0.004795964558919271,0.5676666666666667,0.49214285714285716,0.005004713270399305,1.8895920515060425,-1.6588865690917984,46.142250061035156,0.0006819831000434028,-0.10850541856553819
4371,0.12621974286566848,0.09960939407348633,84.39126586914062,83.28652954101562,-5.955295562744141,88.74882507324219,-0.0043413374159071184,0.5676666666666667,0.49214285714285716,0.004547034369574653,1.8676199913024902,-0.3185945921630875,45.70280075073242,0.012274848090277778,-0.10782356262207031
4372,0.11840724286566848,0.09960939407348633,84.5958480834961,83.92073059082031,-5.955295562744141,88.74882507324219,-0.005705218844943577,0.5676666666666667,0.49214285714285716,0.004547034369574653,1.8786060810089111,0.5822579860687256,45.52701950073242,0.007501305474175347,-0.10782356262207031
4373,0.10668849286566848,0.09960939407348633,84.88226318359375,84.41172790527344,-5.9757537841796875,88.74882507324219,-0.006841744316948784,0.5676666666666667,0.49214285714285716,0.004547034369574653,1.9115641117095947,1.1095860004425049,45.43912887573242,0.005228169759114583,-0.1080508761935764
4374,0.08715724286566848,0.09960939407348633,83.81844329833984,83.02058410644531,-5.8939208984375,88.76927947998047,-0.0054779052734375,0.5676666666666667,0.49214285714285716,0.004516516791449653,1.8895920515060425,1.4281799793243408,45.43912887573242,0.008865102132161459,-0.10736889309353298
4375,0.09496974286566848,0.09960939407348633,85.63920593261719,84.73905181884766,-5.934837341308594,88.72836303710938,-0.007296371459960938,0.5673333333333334,0.49214285714285716,0.005523512098524305,1.8895920515060425,1.9774800539016724,45.43912887573242,0.010001712375217013,-0.10736889309353298
4376,0.08325099286566848,0.09960939407348633,86.31431579589844,85.31187438964844,-5.873462677001953,88.72836303710938,-0.01002409193250868,0.5673333333333334,0.49214285714285716,0.006286451551649305,1.8786060810089111,1.5490260124206543,45.43912887573242,0.011138237847222222,-0.10668695237901475
4377,0.08325099286566848,0.09960939407348633,86.15065002441406,85.39370727539062,-5.914379119873047,88.70790100097656,-0.012297227647569445,0.5676666666666667,0.49178571428571427,0.006805250379774305,1.9005780220031738,0.5053560137748718,45.43912887573242,0.008410474989149305,-0.10691422356499566
4378,0.07934474286566848,0.09960939407348633,85.23004150390625,84.5958480834961,-5.914379119873047,88.74882507324219,-0.01002409193250868,0.5676666666666667,0.49178571428571427,0.006439039442274305,1.9005780220031738,-0.5273291044921891,45.43912887573242,0.007046593560112847,-0.10736893547905815
4379,0.08715724286566848,0.07968751907348633,84.12531280517578,84.20714569091797,-5.934837341308594,88.74882507324219,-0.0075236850314670135,0.5673333333333334,0.49178571428571427,0.005889723036024305,1.8895920515060425,-0.9887415343017594,45.26335144042969,-0.0009092542860243056,-0.10759624905056424
4380,0.10278224286566848,0.07968751907348633,84.73905181884766,84.1048583984375,-5.8939208984375,88.74882507324219,-0.00843293931749132,0.5673333333333334,0.49142857142857144,0.005523512098524305,1.8566340208053589,-0.801977770874025,45.26335144042969,0.007046593560112847,-0.10714162190755208
4381,0.09887599286566848,0.09960939407348633,84.554931640625,84.0025634765625,-5.853004455566406,88.70790100097656,-0.0075236850314670135,0.567,0.49142857142857144,0.004974195692274305,1.8566340208053589,-0.823950427124025,45.26335144042969,0.006137424045138889,-0.10623228285047744
4382,0.11059474286566848,0.09960939407348633,84.63676452636719,83.83889770507812,-5.8939208984375,88.70790100097656,-0.00843293931749132,0.5673333333333334,0.49142857142857144,0.004791090223524305,1.8786060810089111,-0.5932451658935562,45.26335144042969,0.008865186903211806,-0.10668690999348958
4383,0.11840724286566848,0.09960939407348633,84.86180114746094,84.08439636230469,-5.873462677001953,88.70790100097656,-0.0066144307454427086,0.5676666666666667,0.49142857142857144,0.004485999213324653,1.8566340208053589,-0.21972145373535312,45.26335144042969,0.008637830946180555,-0.10645959642198351
4384,0.13012599286566848,0.07968751907348633,84.86180114746094,84.24806213378906,-5.914379119873047,88.74882507324219,-0.00775099860297309,0.5676666666666667,0.49178571428571427,0.004363928900824653,1.8895920515060425,-0.04394401843261875,45.26335144042969,0.006819322374131944,-0.10736893547905815
4385,0.13012599286566848,0.07968751907348633,83.81844329833984,83.63432312011719,-5.853004455566406,88.72836303710938,-0.006387117173936632,0.5676666666666667,0.49178571428571427,0.004272376166449653,1.8786060810089111,0.12084600329399109,45.43912887573242,0.002045779758029514,-0.10645963880750868
4386,0.15746974286566848,0.07968751907348633,83.83889770507812,83.32745361328125,-5.853004455566406,88.72836303710938,-0.0054779052734375,0.5673333333333334,0.49178571428571427,0.004760572645399305,1.9005780220031738,0.8788800239562988,45.43912887573242,0.005682712131076389,-0.10645963880750868
4387,0.15356349286566848,0.09960939407348633,84.47309875488281,83.53202819824219,-5.832546234130859,88.68744659423828,-0.0050232781304253475,0.567,0.49214285714285716,0.005706617567274305,1.9445220232009888,1.966494083404541,45.43912887573242,0.010456339518229166,-0.10577769809299045
4388,0.16137599286566848,0.09960939407348633,85.53691101074219,84.0434799194336,-5.9757537841796875,88.68744659423828,-0.008205625745985243,0.5673333333333334,0.49214285714285716,0.007201978895399305,2.04339599609375,2.4718501567840576,45.70280075073242,0.01659367879231771,-0.10736889309353298
4389,0.16528224286566848,0.07968751907348633,86.31431579589844,85.41416931152344,-5.934837341308594,88.74882507324219,-0.008205625745985243,0.567,0.4925,0.008117421468098959,2.032410144805908,2.4059340953826904,45.79069137573242,0.010001627604166667,-0.10759624905056424
4390,0.14575099286566848,0.07968751907348633,85.78240966796875,85.5164566040039,-5.914379119873047,88.68744659423828,-0.010478719075520834,0.567,0.4925,0.008392079671223959,1.966494083404541,1.2853620052337646,45.79069137573242,0.0029550340440538192,-0.10668695237901475
4391,0.13793849286566848,0.07968751907348633,85.80287170410156,84.88226318359375,-5.8939208984375,88.70790100097656,-0.011387973361545138,0.567,0.4928571428571429,0.008666737874348959,1.922550082206726,0.4394400119781494,45.79069137573242,0.010228983561197917,-0.10668690999348958
4392,0.14184474286566848,0.05976563930511475,85.31187438964844,85.31187438964844,-5.934837341308594,88.6669921875,-0.00775099860297309,0.5673333333333334,0.4932142857142857,0.008178456624348959,1.9445220232009888,-0.4174677305908219,45.79069137573242,0.0,-0.10668699476453992
4393,0.16137599286566848,0.05976563930511475,84.75950622558594,84.02302551269531,-6.262165069580078,88.97386169433594,-0.01002409193250868,0.567,0.49392857142857144,0.008300526936848959,1.7577600479125977,-0.823950427124025,45.79069137573242,0.008183119032118056,-0.11373363071017795
4394,0.18871974286566848,0.05976563930511475,84.63676452636719,84.12531280517578,-6.3644561767578125,89.0761489868164,-0.007069057888454861,0.5663333333333334,0.4932142857142857,0.008025868733723959,1.2304320335388184,-0.7031046324462906,44.82389831542969,0.0056827969021267365,-0.11600672403971354
4395,0.15746974286566848,0.07968751907348633,84.47309875488281,84.02302551269531,-6.323539733886719,89.09660339355469,-0.0075236850314670135,0.565,0.4932142857142857,0.0077817281087239586,0.7580339908599854,-0.5053564482421891,44.03289031982422,0.0050008138020833336,-0.11577936808268229
4396,0.20043849286566848,0.07968751907348633,84.6572265625,83.96165466308594,-6.3644561767578125,89.1170654296875,-0.007296371459960938,0.5633333333333334,0.4932142857142857,0.0078122456868489586,0.3954960107803345,-0.02197326953125156,43.417659759521484,0.00772857666015625,-0.1164613511827257
4397,0.16918849286566848,0.07968751907348633,85.25050354003906,84.28897857666016,-6.384914398193359,89.17843627929688,-0.0075236850314670135,0.5613333333333334,0.49357142857142855,0.007324049207899305,0.02197200059890747,0.24169200658798218,42.275089263916016,0.01068361070421007,-0.11737056308322483
4398,0.14965724286566848,0.07968751907348633,84.5140151977539,84.06393432617188,-6.343997955322266,89.2193603515625,-0.006387117173936632,0.558,0.49392857142857144,0.006957838270399305,-0.4504267149658219,0.3405660092830658,41.39619064331055,0.00500089857313368,-0.11737064785427517
4399,0.13793849286566848,0.07968751907348633,85.23004150390625,84.14576721191406,-6.2007904052734375,89.1170654296875,-0.011160659790039062,0.5543333333333333,0.49392857142857144,0.007354566786024305,-0.8788801604003922,0.6701459884643555,40.60517883300781,0.012047492133246528,-0.11464284261067709
4400,0.10278224286566848,0.07968751907348633,86.1097412109375,85.20958709716797,-6.118961334228516,88.99431610107422,-0.00775099860297309,0.5503333333333333,0.49464285714285716,0.006744215223524305,-1.0216986113281266,0.6152160167694092,39.28683090209961,0.010001712375217013,-0.11236974928114149
4401,0.06371974286566848,0.07968751907348633,85.29141998291016,85.1072998046875,-5.832546234130859,88.91248321533203,-0.010933346218532987,0.5456666666666666,0.495,0.005950758192274305,-1.120571749755861,-0.2856375151367203,38.407928466796875,0.002045779758029514,-0.10827810499403212
4402,0.06371974286566848,0.07968751907348633,84.35034942626953,83.87982177734375,-5.525676727294922,88.52378845214844,-0.007069057888454861,0.5413333333333333,0.4953571428571429,0.005554029676649305,-0.9557825499267594,-0.49437012011718906,36.0349006652832,0.005228084988064236,-0.10054961310492622
4403,0.08715724286566848,0.07968751907348633,83.96165466308594,83.36836242675781,-5.546134948730469,88.42149353027344,-0.009114880032009548,0.537,0.4953571428571429,0.005950758192274305,-0.5273291044921891,-0.4394403868408219,31.28883934020996,0.006592135959201389,-0.09964031643337673
4404,0.09106349286566848,0.07968751907348633,84.82088470458984,84.18669128417969,-5.709800720214844,88.64653015136719,-0.0050232781304253475,0.5323333333333333,0.49464285714285716,0.005370924207899305,-0.49437012011718906,0.16479000449180603,28.56424903869629,0.007046593560112847,-0.10395923190646701
4405,0.05200099286566847,0.05976563930511475,83.75706481933594,83.53202819824219,-5.791633605957031,88.76927947998047,-0.004795964558919271,0.5276666666666666,0.49392857142857144,0.004516516791449653,-0.7031046324462906,0.373524010181427,28.56424903869629,0.0025004069010416668,-0.10623236762152778
4406,0.06371974286566848,0.07968751907348633,84.57539367675781,83.42974090576172,-5.791633605957031,88.76927947998047,-0.008205625745985243,0.5236666666666666,0.49142857142857144,0.005157301161024305,-0.9338098936767594,0.9338099956512451,28.300579071044922,0.012729475233289931,-0.10623236762152778
4407,0.08325099286566848,0.07968751907348633,86.04837036132812,84.5958480834961,-6.425830841064453,89.03523254394531,-0.01002409193250868,0.5196666666666667,0.48964285714285716,0.006011793348524305,-0.823950427124025,1.0766279697418213,28.300579071044922,0.0161391364203559,-0.11623403761121961
4408,0.020750992865668474,0.07968751907348633,85.90515899658203,85.37325286865234,-7.305522918701172,89.77172088623047,-0.00775099860297309,0.514,0.4853571428571429,0.005126783582899305,-1.164517062255861,0.373524010181427,28.300579071044922,0.0059100680881076385,-0.13419159783257378
4409,-0.01440522935655382,0.07968751907348633,84.24806213378906,83.75706481933594,-8.205677032470703,90.46729278564453,-0.004114023844401042,0.511,0.48178571428571426,0.003936682807074653,-1.7687460356445328,-0.5053564482421891,28.300579071044922,0.005455525716145834,-0.15192188686794705
4410,0.04028224286566847,0.07968751907348633,84.28897857666016,83.24562072753906,-8.921707153320312,91.2242431640625,-0.011387973361545138,0.508,0.4760714285714286,0.004821607801649305,-2.6915708952636734,-0.4614130430908219,28.300579071044922,0.011592864990234375,-0.16828833685980904
4411,0.08715724286566848,0.09960939407348633,85.20958709716797,84.47309875488281,-9.249034881591797,91.67431640625,-0.012979168362087673,0.5063333333333333,0.47214285714285714,0.005889723036024305,-3.6473528319091812,-0.09887375170898594,28.300579071044922,0.008183203803168403,-0.1769261254204644
4412,0.06762599286566848,0.09960939407348633,86.27340698242188,85.86424255371094,-9.085369110107422,91.73568725585938,-0.0066144307454427086,0.5026666666666667,0.4667857142857143,0.005218336317274305,-4.273554461547853,-0.3076082640380875,28.300579071044922,0.004546271430121528,-0.17578951517740884
4413,0.03637599286566847,0.09960939407348633,83.61386108398438,84.77996826171875,-8.67620849609375,91.46973419189453,-0.003659396701388889,0.49833333333333335,0.4635714285714286,0.0037230597601996527,-4.504261630126955,-1.2524038725585953,28.300579071044922,-0.012956746419270833,-0.1682882520887587
4414,0.09887599286566848,0.09960939407348633,83.36836242675781,81.97721862792969,-8.369338989257812,91.26515197753906,-0.013433795505099827,0.49433333333333335,0.4592857142857143,0.005004713270399305,-4.37242950732422,-0.6591612272949234,28.300579071044922,0.0154571533203125,-0.16260545518663194
4415,0.10668849286566848,0.09960939407348633,85.5982894897461,84.75950622558594,-7.939720153808594,90.75370788574219,-0.0075236850314670135,0.489,0.4567857142857143,0.005096266004774305,-4.020876544067384,0.516342043876648,28.124799728393555,0.009319814046223958,-0.15214920043945312
4416,0.07934474286566848,0.09960939407348633,85.5982894897461,84.86180114746094,-7.960178375244141,90.83554077148438,-0.006841744316948784,0.484,0.45285714285714285,0.004608069525824653,-3.603409426757814,0.5712720155715942,28.124799728393555,0.008183203803168403,-0.1532857682969835
4417,0.07543849286566848,0.09960939407348633,85.23004150390625,84.67768096923828,-8.001094818115234,90.91737365722656,-0.01002409193250868,0.479,0.45035714285714284,0.004821607801649305,-3.581436770507814,0.29662200808525085,28.124799728393555,0.006137339274088541,-0.15464964972601997
4418,0.06762599286566848,0.09960939407348633,84.92317199707031,84.22760009765625,-8.185218811035156,90.99920654296875,-0.0054779052734375,0.4746666666666667,0.44642857142857145,0.004455481635199653,-3.6583391600341812,0.2856360077857971,28.124799728393555,0.00772857666015625,-0.15760472615559895
4419,0.07153224286566848,0.07968751907348633,84.94363403320312,84.35034942626953,-8.38979721069336,91.32653045654297,-0.006841744316948784,0.4693333333333333,0.4442857142857143,0.004547034369574653,-4.009890215942384,0.08788800239562988,28.124799728393555,0.0065920511881510414,-0.16351475185818143
4420,0.13012599286566848,0.09960939407348633,84.86180114746094,84.32989501953125,-7.469188690185547,90.671875,-0.012297227647569445,0.464,0.44035714285714284,0.006286451551649305,-4.37242950732422,0.02197200059890747,28.124799728393555,0.0059100680881076385,-0.1460118187798394
4421,0.13012599286566848,0.09960939407348633,84.96409606933594,84.37080383300781,-7.510105133056641,90.26271057128906,-0.008205625745985243,0.459,0.43857142857142856,0.006316969129774305,-3.834114687988283,0.3405660092830658,28.124799728393555,0.006592135959201389,-0.14192017449273003
4422,0.11450099286566848,0.09960939407348633,85.29141998291016,84.71859741210938,-7.632850646972656,90.40591430664062,-0.005250591701931423,0.4523333333333333,0.43535714285714283,0.005889723036024305,-3.559464114257814,0.29662200808525085,28.124799728393555,0.006364695231119792,-0.14487516615125867
4423,0.13403224286566848,0.09960939407348633,85.12775421142578,84.5140151977539,-7.5305633544921875,90.20133972167969,-0.012069914076063368,0.448,0.4328571428571429,0.006774732801649305,-3.3836885863037125,0.02197200059890747,28.124799728393555,0.006819322374131944,-0.14146558973524306
4424,0.14965724286566848,0.1195312786102295,85.31187438964844,84.43218231201172,-7.632850646972656,90.48774719238281,-0.009569507175021702,0.44366666666666665,0.4278571428571429,0.0077512105305989586,-2.9991785460205094,0.17577600479125977,28.124799728393555,0.009774356418185763,-0.14578442043728299
4425,0.14184474286566848,0.1195312786102295,86.27340698242188,85.86424255371094,-9.187660217285156,91.91981506347656,-0.009569507175021702,0.44066666666666665,0.42392857142857143,0.007964833577473959,-3.0431219511718766,0.24169200658798218,28.124799728393555,0.004546271430121528,-0.1789719475640191
4426,0.08325099286566848,0.09960939407348633,85.02546691894531,84.14576721191406,-8.94216537475586,92.06301879882812,-0.002750142415364583,0.43933333333333335,0.4164285714285714,0.005676099989149305,-3.932987826416017,0.4614120125770569,28.124799728393555,0.009774441189236111,-0.17783537970648872
4427,-0.01440522935655382,0.09960939407348633,85.0459213256836,84.26852416992188,-9.187660217285156,91.6333999633789,0.00225067138671875,0.43733333333333335,0.41214285714285714,0.0027464972601996527,-4.053835528442384,0.6811320185661316,28.124799728393555,0.008637746175130209,-0.17578955756293402
4428,-0.04565522935655382,0.09960939407348633,84.94363403320312,84.47309875488281,-9.760482788085938,92.61538696289062,-0.0059324900309244795,0.43566666666666665,0.405,0.0021361456976996527,-4.548205035278322,0.3185940086841583,28.036909103393555,0.005228169759114583,-0.19306521945529515
4429,0.0012197706434461805,0.09960939407348633,84.90271759033203,84.30943298339844,-9.105827331542969,92.14485168457031,-0.014570320977105035,0.434,0.40035714285714286,0.0037840949164496527,-5.49300064379883,0.010986000299453735,28.036909103393555,0.0065920511881510414,-0.18056310017903646
4430,0.024657242865668474,0.09960939407348633,85.14820861816406,84.37080383300781,-9.576362609863281,92.34942626953125,-0.013888380262586805,0.431,0.3942857142857143,0.004669104682074653,-5.558916705200197,0.010986000299453735,28.036909103393555,0.008637830946180555,-0.18806432088216146
4431,0.0012197706434461805,0.09960939407348633,84.90271759033203,84.39126586914062,-9.576362609863281,92.43125915527344,-0.003204769558376736,0.428,0.39071428571428574,0.0036620246039496527,-6.009342806884767,0.032958000898361206,28.036909103393555,0.0056827969021267365,-0.18897357516818578
4432,0.009032242865668474,0.09960939407348633,84.92317199707031,84.28897857666016,-8.533004760742188,91.96072387695312,-0.010933346218532987,0.4236666666666667,0.38535714285714284,0.0038756476508246527,-6.624558108398439,0.02197200059890747,28.124799728393555,0.007046593560112847,-0.17215254041883682
4433,-0.00659272935655382,0.1195312786102295,84.57539367675781,84.14576721191406,-8.430713653564453,91.10148620605469,-0.005705218844943577,0.4186666666666667,0.38285714285714284,0.0032042609320746527,-6.349909442016603,0.13183200359344482,28.124799728393555,0.004773627387152778,-0.16146888732910156
4434,-0.0026864793565538193,0.1195312786102295,84.63676452636719,84.02302551269531,-8.410255432128906,91.10148620605469,-0.009796820746527778,0.4136666666666667,0.37892857142857145,0.0036009894476996527,-5.976383822509767,0.4064820110797882,28.124799728393555,0.006819322374131944,-0.16124157375759549
4435,-0.0026864793565538193,0.1195312786102295,84.5958480834961,84.0434799194336,-8.430713653564453,91.10148620605469,-0.0059324900309244795,0.4086666666666667,0.3767857142857143,0.0039061652289496527,-5.987370150634767,0.9667680263519287,28.124799728393555,0.006137424045138889,-0.16146888732910156
4436,0.0012197706434461805,0.1195312786102295,85.78240966796875,85.29141998291016,-6.998653411865234,89.71034240722656,-0.00775099860297309,0.4036666666666667,0.3732142857142857,0.004882642957899305,-5.833567278930666,1.2853620052337646,28.124799728393555,0.005455440945095486,-0.13009995354546441
4437,0.009032242865668474,0.1195312786102295,85.80287170410156,85.20958709716797,-6.937278747558594,89.52622985839844,-0.009569507175021702,0.39866666666666667,0.37142857142857144,0.006225416395399305,-4.647078173706056,1.1974740028381348,28.124799728393555,0.0065920511881510414,-0.12737231784396702
4438,0.012938492865668474,0.1195312786102295,86.43707275390625,85.25050354003906,-7.510105133056641,89.66943359375,-0.012751854790581597,0.394,0.36714285714285716,0.007385084364149305,-3.6253801756591812,1.0986000299453735,28.300579071044922,0.013184102376302083,-0.13532820807562934
4439,0.00512602064344618,0.1195312786102295,86.45751953125,85.92561340332031,-7.510105133056641,90.24225616455078,-0.008887566460503472,0.39,0.36392857142857143,0.0078122456868489586,-3.504534380981447,0.8569080233573914,28.388469696044922,0.0059100680881076385,-0.14169290330674914
4440,-0.00659272935655382,0.1195312786102295,86.35523986816406,85.86424255371094,-7.44873046875,90.2218017578125,-0.009569507175021702,0.38566666666666666,0.35964285714285715,0.008086903889973959,-3.7242552214355484,0.48338401317596436,28.388469696044922,0.005455525716145834,-0.14078369140625
4441,-0.02221772935655382,0.1195312786102295,86.04837036132812,85.57783508300781,-6.834991455078125,89.46485137939453,-0.010478719075520834,0.38233333333333336,0.35642857142857143,0.007568189832899305,-3.6912962370605484,0.09887400269508362,28.388469696044922,0.005228169759114583,-0.1255538092719184
4442,-0.04565522935655382,0.1195312786102295,86.0688247680664,85.455078125,-6.7531585693359375,89.2193603515625,-0.01252454121907552,0.37833333333333335,0.3525,0.006530592176649305,-3.1310106688232437,-0.2416922026367203,31.991960525512695,0.006819407145182292,-0.12191687689887153
4443,-0.06128022935655382,0.13945316314697265,85.455078125,85.14820861816406,-6.650867462158203,89.23981475830078,-0.012297227647569445,0.37433333333333335,0.34964285714285714,0.005187818739149305,-2.6915708952636734,-0.4614130430908219,33.22241973876953,0.003409661187065972,-0.12100758022732205
4444,-0.08471772935655382,0.13945316314697265,85.20958709716797,84.73905181884766,-6.1394195556640625,88.68744659423828,-0.01002409193250868,0.371,0.3460714285714286,0.0034178839789496527,-2.2960745268554703,-0.49437012011718906,34.101318359375,0.005228169759114583,-0.1091874016655816
4445,-0.08862397935655382,0.13945316314697265,85.20958709716797,84.6572265625,-5.832546234130859,88.52378845214844,-0.015024948120117187,0.36766666666666664,0.3439285714285714,0.0025633917914496527,-1.6918455534667984,-0.4614130430908219,34.277099609375,0.006137339274088541,-0.10395927429199218
4446,-0.09643647935655382,0.13945316314697265,85.20958709716797,84.69813537597656,-5.791633605957031,88.40103149414062,-0.01320648193359375,0.364,0.34035714285714286,0.001708984375,-1.0216986113281266,-0.2636648588867203,34.277099609375,0.0056827969021267365,-0.1021407233344184
4447,-0.11987397935655382,0.15937503814697265,85.41416931152344,84.96409606933594,-5.8120880126953125,88.36012268066406,-0.012297227647569445,0.361,0.3375,0.000152587890625,-0.4723993712158219,0.04394400119781494,37.265357971191406,0.0050008138020833336,-0.1019134521484375
4448,-0.1862802293565538,0.13945316314697265,85.47554016113281,85.0459213256836,-5.7507171630859375,88.31919860839844,-0.007978312174479167,0.3586666666666667,0.3339285714285714,-0.0024108039008246527,-0.03295769030761875,0.16479000449180603,38.320037841796875,0.004773542616102431,-0.10077684190538194
4449,-0.2370614793565538,0.13945316314697265,85.20958709716797,84.77996826171875,-5.955295562744141,88.46240997314453,-0.005250591701931423,0.3566666666666667,0.3317857142857143,-0.005370924207899305,0.20873400568962097,0.20873400568962097,39.11104965209961,0.004773542616102431,-0.10464117262098524
4450,-0.2526864793565538,0.15937503814697265,84.90271759033203,84.37080383300781,-5.873462677001953,88.54424285888672,-0.011160659790039062,0.35333333333333333,0.3289285714285714,-0.0070798238118489586,0.0,0.032958000898361206,39.550498962402344,0.005910152859157986,-0.10464117262098524
4451,-0.2956552293565538,0.13945316314697265,85.90515899658203,84.554931640625,-5.341556549072266,88.31919860839844,-0.02320815192328559,0.35033333333333333,0.3275,-0.0072018941243489586,-0.2526785307617203,-0.3954969816894547,41.22040939331055,0.015002526177300347,-0.09623061286078559
4452,-0.2878427293565538,0.15937503814697265,84.73905181884766,84.32989501953125,-5.034687042236328,87.62362670898438,-0.01252454121907552,0.34833333333333333,0.3264285714285714,-0.008941396077473959,-0.09887375170898594,-0.7800070219726578,43.153987884521484,0.00454618665907118,-0.08509237501356337
4453,-0.2917489793565538,0.15937503814697265,84.20714569091797,84.12531280517578,-5.055145263671875,87.68500518798828,-0.013433795505099827,0.345,0.32607142857142857,-0.01016201443142361,0.36253800988197327,-1.0986010008544937,44.03289031982422,0.0009092542860243056,-0.08600167168511284
4454,-0.3034677293565538,0.13945316314697265,84.26852416992188,83.71615600585938,-5.566593170166016,87.82821655273438,-0.018661922878689237,0.3423333333333333,0.32607142857142857,-0.01071133083767361,0.790992021560669,-0.845923083374025,44.91178894042969,0.006137424045138889,-0.09327566358778212
4455,-0.3112802293565538,0.15937503814697265,84.80043029785156,84.47309875488281,-5.546134948730469,88.21691131591797,-0.006841744316948784,0.3393333333333333,0.32607142857142857,-0.012694888644748263,0.7140899896621704,-0.4723993712158219,45.70280075073242,0.003637017144097222,-0.09736718071831597
4456,-0.3151864793565538,0.15937503814697265,84.73905181884766,84.35034942626953,-5.44384765625,87.97142028808594,-0.014570320977105035,0.336,0.32607142857142857,-0.013549380832248263,0.516342043876648,-0.5273291044921891,46.318031311035156,0.0043189154730902775,-0.0935029771592882
4457,-0.2917489793565538,0.15937503814697265,84.32989501953125,84.24806213378906,-5.8939208984375,88.50332641601562,-0.01797998216417101,0.3333333333333333,0.3267857142857143,-0.013122134738498263,0.36253800988197327,-0.6371885710449234,46.318031311035156,0.0009092542860243056,-0.10441385904947917
4458,-0.2878427293565538,0.13945316314697265,84.28897857666016,83.85935974121094,-6.118961334228516,88.91248321533203,-0.015934202406141493,0.33066666666666666,0.3275,-0.012725406222873263,-0.09887375170898594,-0.3735243254394547,46.40591812133789,0.004773542616102431,-0.11146049499511719
4459,-0.2878427293565538,0.15937503814697265,84.45263671875,84.554931640625,-5.996212005615234,88.54424285888672,-0.012069914076063368,0.327,0.32785714285714285,-0.013366275363498263,-0.6701475554199234,-0.4064833098144547,46.40591812133789,-0.0011366102430555556,-0.1060050540500217
4460,-0.2800302293565538,0.15937503814697265,85.35279846191406,82.52958679199219,-5.996212005615234,88.68744659423828,-0.012297227647569445,0.324,0.3292857142857143,-0.014281802707248263,-0.9008528166503922,-0.3625379973144547,46.40591812133789,0.0313690185546875,-0.10759620666503907
4461,-0.2917489793565538,0.15937503814697265,84.88226318359375,84.5140151977539,-6.118961334228516,88.6669921875,-0.008887566460503472,0.32,0.33035714285714285,-0.015471903483072917,-0.9008528166503922,-0.17577614123535312,46.40591812133789,0.004091644287109375,-0.10873281690809462
4462,-0.3034677293565538,0.15937503814697265,84.80043029785156,84.43218231201172,-6.037128448486328,88.89202880859375,-0.011615286933051215,0.31666666666666665,0.3314285714285714,-0.016112772623697917,-0.9447962218017594,-0.02197326953125156,46.40591812133789,0.004091644287109375,-0.11032396952311198
4463,-0.3034677293565538,0.15937503814697265,84.73905181884766,84.30943298339844,-6.037128448486328,88.70790100097656,-0.015024948120117187,0.31266666666666665,0.3325,-0.015990702311197917,-0.823950427124025,0.1867620050907135,46.40591812133789,0.004773542616102431,-0.10827810499403212
4464,-0.3112802293565538,0.15937503814697265,85.1072998046875,84.6572265625,-6.241706848144531,88.91248321533203,-0.014570320977105035,0.309,0.3335714285714286,-0.015777079264322917,-0.7470480375976578,0.41746801137924194,46.40591812133789,0.0050008138020833336,-0.11282433403862847
4465,-0.3190927293565538,0.15937503814697265,85.84378051757812,85.47554016113281,-6.303081512451172,88.97386169433594,-0.012069914076063368,0.30533333333333335,0.33464285714285713,-0.015441385904947917,-0.8788801604003922,0.4723980128765106,46.58169937133789,0.004091559516059028,-0.1141882578531901
4466,-0.3503427293565538,0.13945316314697265,85.06637573242188,84.73905181884766,-6.1394195556640625,88.78973388671875,-0.01616151597764757,0.30133333333333334,0.3364285714285714,-0.015136294894748263,-0.9887415343017594,0.010986000299453735,46.58169937133789,0.003636932373046875,-0.1103239271375868
4467,-0.3386239793565538,0.13945316314697265,84.98455047607422,84.57539367675781,-6.1394195556640625,88.83065795898438,-0.011615286933051215,0.297,0.33714285714285713,-0.015258280436197917,-1.0876146727294937,-0.03295769030761875,46.58169937133789,0.00454618665907118,-0.11077863905164931
4468,-0.3542489793565538,0.13945316314697265,85.20958709716797,85.68012237548828,-5.607509613037109,88.19645690917969,-0.011387973361545138,0.293,0.3385714285714286,-0.015258280436197917,-0.9228254729003922,-0.05493034655761875,46.933258056640625,-0.005228169759114583,-0.0978218502468533
4469,-0.3425302293565538,0.13945316314697265,84.77996826171875,84.5140151977539,-5.934837341308594,88.6669921875,-0.01616151597764757,0.289,0.33964285714285714,-0.015593973795572917,-0.4614130430908219,-0.3185945921630875,47.109039306640625,0.0029550340440538192,-0.10668699476453992
4470,-0.3659677293565538,0.13945316314697265,84.41172790527344,83.61386108398438,-5.730258941650391,88.68744659423828,-0.011615286933051215,0.2856666666666667,0.3407142857142857,-0.016448465983072917,-0.2746511870117203,-0.09887375170898594,47.109039306640625,0.008865186903211806,-0.10464117262098524
4471,-0.3894052293565538,0.13945316314697265,85.47554016113281,85.16867065429688,-5.648426055908203,88.31919860839844,-0.01002409193250868,0.2823333333333333,0.3414285714285714,-0.016387430826822917,0.04394400119781494,0.0,47.109039306640625,0.003409661187065972,-0.09964027404785156
4472,-0.3659677293565538,0.13945316314697265,84.35034942626953,84.1048583984375,-5.914379119873047,88.54424285888672,-0.01320648193359375,0.279,0.3425,-0.016051737467447917,0.373524010181427,-0.2636648588867203,47.109039306640625,0.0027276780870225696,-0.1050957997639974
4473,-0.3581552293565538,0.1195312786102295,84.43218231201172,83.83889770507812,-6.057586669921875,88.83065795898438,-0.014115693834092882,0.27666666666666667,0.3425,-0.015502421061197917,0.4064820110797882,0.09887400269508362,47.109039306640625,0.0065920511881510414,-0.109869384765625
4474,-0.3386239793565538,0.13945316314697265,85.57783508300781,85.12775421142578,-7.285064697265625,89.93538665771484,-0.010933346218532987,0.2743333333333333,0.3425,-0.015136294894748263,0.14281800389289856,0.7140899896621704,47.109039306640625,0.00500089857313368,-0.1357827928331163
4475,-0.3659677293565538,0.1195312786102295,85.63920593261719,86.15065002441406,-6.855449676513672,89.66943359375,-0.011615286933051215,0.272,0.3425,-0.014434390597873263,-0.812964098999025,0.5493000149726868,47.109039306640625,-0.005682712131076389,-0.12805425855848523
4476,-0.3581552293565538,0.1195312786102295,84.61630249023438,84.73905181884766,-6.794075012207031,89.46485137939453,-0.01843460930718316,0.2693333333333333,0.3435714285714286,-0.012939029269748263,-1.3402925902099625,0.010986000299453735,47.109039306640625,-0.0013638814290364584,-0.12509918212890625
4477,-0.3347177293565538,0.09960939407348633,85.14820861816406,84.88226318359375,-6.957736968994141,89.32164001464844,-0.012297227647569445,0.267,0.3442857142857143,-0.01211513943142361,-1.4611383848876969,0.010986000299453735,47.109039306640625,0.0029549492730034724,-0.12532641092936198
4478,-0.3269052293565538,0.1195312786102295,85.41416931152344,84.53446960449219,-7.019111633300781,89.75126647949219,-0.0075236850314670135,0.26366666666666666,0.3457142857142857,-0.01229824490017361,-1.7248026304931656,0.3185940086841583,47.109039306640625,0.009774441189236111,-0.13078197903103297
4479,-0.3386239793565538,0.1195312786102295,85.35279846191406,84.92317199707031,-6.957736968994141,89.64897155761719,-0.01002409193250868,0.26033333333333336,0.3460714285714286,-0.012389712863498263,-1.9445234709472672,0.38451001048088074,47.109039306640625,0.004773627387152778,-0.1289634280734592
4480,-0.3698739793565538,0.1195312786102295,84.75950622558594,84.22760009765625,-7.223690032958984,89.87400817871094,-0.007069057888454861,0.256,0.34785714285714286,-0.013366275363498263,-2.142269747802736,0.4064820110797882,47.109039306640625,0.0059100680881076385,-0.13441886901855468
4481,-0.3503427293565538,0.1195312786102295,84.554931640625,84.20714569091797,-6.998653411865234,89.52622985839844,-0.015252261691623263,0.25233333333333335,0.3489285714285714,-0.012572818332248263,-2.482836382934572,0.3954960107803345,47.109039306640625,0.003864288330078125,-0.12805425855848523
4482,-0.3151864793565538,0.1195312786102295,85.70057678222656,85.43462371826172,-6.814533233642578,89.28073120117188,-0.011160659790039062,0.24866666666666667,0.3510714285714286,-0.01119961208767361,-2.493822711059572,0.6811320185661316,47.109039306640625,0.0029550340440538192,-0.12328071594238281
4483,-0.3659677293565538,0.09960939407348633,85.57783508300781,85.18913269042969,-7.080486297607422,89.79217529296875,-0.01070603264702691,0.24366666666666667,0.35214285714285715,-0.01031460232204861,-2.482836382934572,0.8569080233573914,47.109039306640625,0.0043189154730902775,-0.131918462117513
4484,-0.3854989793565538,0.09960939407348633,85.84378051757812,85.41416931152344,-7.182777404785156,89.89447021484375,-0.009569507175021702,0.23966666666666667,0.35428571428571426,-0.01000942654079861,-2.6476274901123062,0.8788800239562988,47.109039306640625,0.004773457845052083,-0.13419164021809896
4485,-0.3503427293565538,0.09960939407348633,85.455078125,85.25050354003906,-7.203235626220703,89.85355377197266,-0.012069914076063368,0.235,0.3557142857142857,-0.009460194905598959,-2.922276156494142,0.4064820110797882,47.109039306640625,0.0022730509440104167,-0.13396432664659289
4486,-0.4323739793565538,0.09960939407348633,85.5164566040039,85.16867065429688,-7.039569854736328,89.85355377197266,-0.016388829549153647,0.23066666666666666,0.3578571428571429,-0.008575185139973959,-3.229883807250978,0.14281800389289856,47.109039306640625,0.003864288330078125,-0.13214581807454426
4487,-0.4089364793565538,0.09960939407348633,83.67523193359375,84.32989501953125,-6.875904083251953,89.54668426513672,-0.007296371459960938,0.226,0.35928571428571426,-0.01016201443142361,-3.3067861967773453,-0.13183273608398594,47.109039306640625,-0.007274034288194444,-0.12691764831542968
4488,-0.4245614793565538,0.1195312786102295,84.18669128417969,83.08195495605469,-6.609951019287109,89.2193603515625,-0.007978312174479167,0.22133333333333333,0.36142857142857143,-0.01153530544704861,-2.955235140869142,0.24169200658798218,47.109039306640625,0.012274848090277778,-0.120325681898329
4489,-0.4714364793565538,0.1195312786102295,85.49600219726562,85.0050048828125,-6.650867462158203,89.28073120117188,-0.011387973361545138,0.21833333333333332,0.36214285714285716,-0.01092495388454861,-2.3290335112304703,0.26366400718688965,47.109039306640625,0.005455525716145834,-0.1214622073703342
4490,-0.4284677293565538,0.09960939407348633,83.47065734863281,83.34790802001953,-6.916820526123047,89.54668426513672,-0.011160659790039062,0.21333333333333335,0.36357142857142855,-0.01034511990017361,-2.0763555937500016,-0.6152159147949234,47.109039306640625,0.0013638814290364584,-0.12737227545844185
4491,-0.3776864793565538,0.09960939407348633,82.20226287841797,82.87738037109375,-6.9781951904296875,89.71034240722656,-0.010478719075520834,0.21033333333333334,0.36392857142857143,-0.00982632107204861,-2.3180471831054703,-0.5383154326171891,47.109039306640625,-0.007501305474175347,-0.12987263997395834
4492,-0.4089364793565538,0.09960939407348633,84.92317199707031,84.35034942626953,-7.182777404785156,89.71034240722656,-0.011387973361545138,0.20733333333333334,0.365,-0.009093983968098959,-2.526779788085939,0.24169200658798218,47.109039306640625,0.006364695231119792,-0.13214577568901908
4493,-0.4245614793565538,0.09960939407348633,85.31187438964844,84.67768096923828,-7.653308868408203,90.13996887207031,-0.00297745598687066,0.20466666666666666,0.3653571428571429,-0.01031460232204861,-2.6256548338623062,0.747048020362854,47.109039306640625,0.007046593560112847,-0.14214753044976128
4494,-0.4323739793565538,0.09960939407348633,85.70057678222656,84.96409606933594,-7.67376708984375,90.36500549316406,-0.010478719075520834,0.202,0.3657142857142857,-0.00979580349392361,-2.801430361816408,0.5602860450744629,47.109039306640625,0.008183119032118056,-0.14487525092230902
4495,-0.4050302293565538,0.09960939407348633,84.16622924804688,83.90027618408203,-7.428272247314453,90.34454345703125,-0.0168434566921658,0.19866666666666666,0.3657142857142857,-0.008575185139973959,-2.9881922178955094,0.5273280143737793,46.933258056640625,0.0029550340440538192,-0.14192017449273003
4496,-0.4206552293565538,0.09960939407348633,89.03523254394531,87.0098876953125,-7.244148254394531,89.89447021484375,-0.008887566460503472,0.19533333333333333,0.3657142857142857,-0.008117421468098959,-2.966221468994142,1.307334065437317,46.933258056640625,0.022503831651475695,-0.13487353854709203
4497,-0.3620614793565538,0.1195312786102295,85.49600219726562,85.39370727539062,-7.305522918701172,89.93538665771484,-0.008205625745985243,0.19166666666666668,0.3657142857142857,-0.009093983968098959,-2.889319079467775,0.6481740474700928,46.933258056640625,0.0011366102430555556,-0.13601010640462238
4498,-0.3933114793565538,0.1195312786102295,86.21202850341797,85.41416931152344,-7.653308868408203,90.09904479980469,-0.008887566460503472,0.188,0.3653571428571429,-0.009277089436848959,-2.6586119108886734,0.4614120125770569,46.933258056640625,0.008865102132161459,-0.1416928185356988
4499,-0.4011239793565538,0.13945316314697265,86.90760040283203,86.37569427490234,-8.51254653930664,90.93782806396484,-0.010933346218532987,0.185,0.365,-0.00994839138454861,-2.845373766967775,-0.19774879748535312,46.933258056640625,0.0059100680881076385,-0.16055971781412762
4500,-0.4636239793565538,0.1195312786102295,83.61386108398438,83.16378784179688,-7.9806365966796875,91.36744689941406,-0.012069914076063368,0.181,0.36464285714285716,-0.01092495388454861,-3.845101016113283,-1.2304331236572281,46.933258056640625,0.0050008138020833336,-0.15942314995659723
4501,-0.4636239793565538,0.09960939407348633,83.5934066772461,83.16378784179688,-7.346439361572266,90.40591430664062,-0.023435465494791665,0.178,0.3653571428571429,-0.00994839138454861,-4.37242950732422,-1.0986010008544937,46.933258056640625,0.004773542616102431,-0.1416928185356988
4502,-0.4167489793565538,0.1195312786102295,85.27096557617188,86.559814453125,-7.346439361572266,89.99675750732422,-0.00843293931749132,0.173,0.36607142857142855,-0.01101650661892361,-4.108765261718752,-0.20873512561035312,46.933258056640625,-0.014320543077256944,-0.1371466318766276
4503,-0.4714364793565538,0.1195312786102295,87.0098876953125,84.86180114746094,-7.325981140136719,89.93538665771484,-0.0066144307454427086,0.16833333333333333,0.36678571428571427,-0.012542300754123263,-3.6253801756591812,0.1538040041923523,46.933258056640625,0.023867628309461805,-0.13623741997612848
4504,-0.4323739793565538,0.13945316314697265,84.554931640625,84.53446960449219,-7.387355804443359,90.18087768554688,-0.011615286933051215,0.16366666666666665,0.36714285714285716,-0.013061099582248263,-3.493548052856447,-0.04394401843261875,46.933258056640625,0.00022735595703125,-0.13964703877766926
4505,-0.4401864793565538,0.1195312786102295,85.47554016113281,84.96409606933594,-7.428272247314453,90.1604232788086,-0.012979168362087673,0.159,0.3675,-0.012420230441623263,-3.3836885863037125,-0.14281906420898594,46.933258056640625,0.005682712131076389,-0.1398743947347005
4506,-0.4401864793565538,0.1195312786102295,84.96409606933594,85.0050048828125,-7.612392425537109,90.36500549316406,-0.014343007405598959,0.15466666666666667,0.3682142857142857,-0.01211513943142361,-3.603409426757814,-0.49437012011718906,46.58169937133789,-0.00045454237196180554,-0.1441933102077908
4507,-0.4167489793565538,0.1195312786102295,85.0050048828125,84.57539367675781,-7.44873046875,90.18087768554688,-0.015252261691623263,0.15,0.3682142857142857,-0.01190151638454861,-3.965946810791017,-0.4064833098144547,46.142250061035156,0.004773457845052083,-0.1403289794921875
4508,-0.4284677293565538,0.1195312786102295,85.49600219726562,84.98455047607422,-6.814533233642578,89.73080444335938,-0.009342193603515625,0.14533333333333334,0.3682142857142857,-0.012511783175998263,-3.7132688933105484,0.08788800239562988,46.054359436035156,0.0056827969021267365,-0.12828152974446613
4509,-0.3933114793565538,0.13945316314697265,84.20714569091797,85.43462371826172,-6.855449676513672,89.40347290039062,-0.00047704908582899306,0.14166666666666666,0.3682142857142857,-0.014190249972873263,-3.0541082792968766,-0.7580343657226578,46.054359436035156,-0.013638644748263888,-0.12509913974338108
4510,-0.3854989793565538,0.09960939407348633,84.45263671875,82.67279052734375,-7.551021575927734,89.93538665771484,-0.026390499538845487,0.13766666666666666,0.3678571428571429,-0.01202358669704861,-2.6146685057373062,-0.4394403868408219,46.054359436035156,0.01977606879340278,-0.13873786926269532
4511,-0.3581552293565538,0.09960939407348633,87.05081176757812,85.70057678222656,-7.632850646972656,90.36500549316406,-0.009114880032009548,0.134,0.36714285714285716,-0.01168789333767361,-2.9991785460205094,0.7800060510635376,45.966468811035156,0.015002610948350694,-0.14442062377929688
4512,-0.3776864793565538,0.1195312786102295,86.0688247680664,86.23248291015625,-7.960178375244141,90.79461669921875,-0.005705218844943577,0.13166666666666665,0.36607142857142855,-0.012755923800998263,-3.251856463500978,0.9228240251541138,45.966468811035156,-0.0018184238009982638,-0.152831056382921
4513,-0.4050302293565538,0.13945316314697265,85.39370727539062,84.92317199707031,-7.898807525634766,90.73324584960938,-0.009569507175021702,0.128,0.3653571428571429,-0.013732486300998263,-3.592423098632814,0.6152160167694092,45.79069137573242,0.005228169759114583,-0.15146725972493488
4514,-0.3933114793565538,0.15937503814697265,85.37325286865234,85.06637573242188,-7.694225311279297,90.38545989990234,-0.008660252888997395,0.12433333333333334,0.365,-0.014892154269748263,-3.867073672363283,0.2746500074863434,45.43912887573242,0.0034097459581163194,-0.14532983567979602
4515,-0.4128427293565538,0.15937503814697265,85.1072998046875,84.30943298339844,-7.551021575927734,90.13996887207031,-0.008205625745985243,0.12,0.36464285714285716,-0.015624491373697917,-3.87805809313965,0.010986000299453735,45.43912887573242,0.008865186903211806,-0.14101100497775607
4516,-0.3972177293565538,0.15937503814697265,84.88226318359375,84.45263671875,-7.469188690185547,90.2218017578125,-0.013661109076605903,0.11566666666666667,0.36428571428571427,-0.015716044108072917,-3.7352415495605484,0.05493000149726868,45.43912887573242,0.004773627387152778,-0.14101100497775607
4517,-0.3894052293565538,0.15937503814697265,85.08683776855469,84.47309875488281,-7.428272247314453,90.05813598632812,-0.01252454121907552,0.11166666666666666,0.36392857142857143,-0.015593973795572917,-3.6583391600341812,0.23070600628852844,45.26335144042969,0.006819322374131944,-0.13873786926269532
4518,-0.3854989793565538,0.15937503814697265,86.6007308959961,85.16867065429688,-7.1418609619140625,89.77172088623047,-0.008887566460503472,0.10733333333333334,0.36357142857142855,-0.015105777316623263,-3.515520709106447,0.1538040041923523,45.26335144042969,0.015911780463324653,-0.13237313164605036
4519,-0.4011239793565538,0.13945316314697265,84.92317199707031,84.82088470458984,-7.100944519042969,89.62850952148438,-0.020025804307725693,0.103,0.3632142857142857,-0.013915591769748263,-3.229883807250978,-0.20873512561035312,45.26335144042969,0.0011365254720052083,-0.13032726711697049
4520,-0.4284677293565538,0.1195312786102295,85.23004150390625,84.57539367675781,-6.7531585693359375,89.46485137939453,-0.020025804307725693,0.099,0.3625,-0.012542300754123263,-2.856360095092775,-0.13183273608398594,45.26335144042969,0.00727386474609375,-0.1246445549858941
4521,-0.4167489793565538,0.1195312786102295,87.37813568115234,85.08683776855469,-6.507663726806641,89.05569458007812,-0.009342193603515625,0.096,0.36178571428571427,-0.012664371066623263,-2.263117449829103,0.6811320185661316,45.26335144042969,0.025458865695529513,-0.11737064785427517
4522,-0.4284677293565538,0.13945316314697265,85.80287170410156,86.74394226074219,-6.834991455078125,89.44439697265625,-0.006387117173936632,0.09233333333333334,0.3607142857142857,-0.013091617160373263,-1.7138163023681656,0.1538040041923523,45.26335144042969,-0.010456339518229166,-0.1253265380859375
4523,-0.4011239793565538,0.1195312786102295,83.47065734863281,84.20714569091797,-6.855449676513672,89.6080551147461,-0.020253117879231772,0.089,0.35964285714285715,-0.01226772732204861,-1.6479002409667984,-0.7140909605712906,45.17546081542969,-0.008183203803168403,-0.12737227545844185
4524,-0.4011239793565538,0.1195312786102295,85.86424255371094,85.16867065429688,-6.834991455078125,89.52622985839844,-0.014343007405598959,0.08633333333333333,0.3578571428571429,-0.01220669216579861,-1.7138163023681656,-0.5602861815185562,45.17546081542969,0.00772857666015625,-0.1262357923719618
4525,-0.4440927293565538,0.1195312786102295,85.92561340332031,85.76194763183594,-6.814533233642578,89.54668426513672,-0.012297227647569445,0.08366666666666667,0.35678571428571426,-0.012939029269748263,-1.6698728972167984,-0.5163427763671891,45.17546081542969,0.001818508572048611,-0.12623574998643664
4526,-0.3972177293565538,0.1195312786102295,84.84133911132812,84.32989501953125,-6.916820526123047,89.77172088623047,-0.012979168362087673,0.08066666666666666,0.35535714285714287,-0.013305240207248263,-1.7577597075195328,-0.7140909605712906,45.17546081542969,0.005682712131076389,-0.12987268235948352
4527,-0.4050302293565538,0.1195312786102295,84.69813537597656,84.26852416992188,-7.100944519042969,89.83309936523438,-0.011160659790039062,0.07766666666666666,0.35428571428571426,-0.013915591769748263,-2.0214239531250016,-0.4614130430908219,45.17546081542969,0.004773457845052083,-0.1326004876030816
4528,-0.3854989793565538,0.13945316314697265,87.33721923828125,87.0712661743164,-7.223690032958984,89.85355377197266,-0.0059324900309244795,0.07433333333333333,0.35285714285714287,-0.015563456217447917,-2.3510042601318375,-0.5383154326171891,45.17546081542969,0.0029550340440538192,-0.13419159783257378
4529,-0.3933114793565538,0.13945316314697265,83.96165466308594,84.20714569091797,-7.3668975830078125,90.0785903930664,-0.01843460930718316,0.07133333333333333,0.3517857142857143,-0.016448465983072917,-2.6476274901123062,-1.4611383848876969,45.17546081542969,-0.0027276780870225696,-0.13828319973415798
4530,-0.4089364793565538,0.1195312786102295,84.69813537597656,83.20470428466797,-7.060028076171875,89.62850952148438,-0.01979849073621962,0.06733333333333333,0.3510714285714286,-0.016326395670572917,-2.889319079467775,-1.0986010008544937,45.26335144042969,0.01659367879231771,-0.12987263997395834
4531,-0.4519052293565538,0.1195312786102295,85.74149322509766,85.98699188232422,-7.100944519042969,89.81263732910156,-0.013433795505099827,0.06333333333333334,0.3507142857142857,-0.016509501139322917,-2.922276156494142,-0.6262022429199234,45.17546081542969,-0.002727762858072917,-0.13237313164605036
4532,-0.4792489793565538,0.09960939407348633,85.20958709716797,84.88226318359375,-6.5894927978515625,89.0761489868164,-0.01547957526312934,0.059,0.3510714285714286,-0.016417948404947917,-2.856360095092775,-0.6371885710449234,45.17546081542969,0.003636932373046875,-0.11850713094075521
4533,-0.4479989793565538,0.1195312786102295,84.69813537597656,84.39126586914062,-6.691783905029297,89.17843627929688,-0.006159803602430555,0.05433333333333333,0.3510714285714286,-0.017699686686197917,-2.856360095092775,-0.2526785307617203,45.17546081542969,0.003409661187065972,-0.1207802242702908
4534,-0.4284677293565538,0.09960939407348633,84.80043029785156,84.30943298339844,-5.853004455566406,88.76927947998047,-0.030709415011935765,0.05,0.3517857142857143,-0.015716044108072917,-3.0650946074218766,-0.48338379199218906,45.17546081542969,0.005455525716145834,-0.10691426595052084
4535,-0.3620614793565538,0.07968751907348633,85.47554016113281,84.94363403320312,-6.180332183837891,88.78973388671875,-0.01729808383517795,0.04633333333333333,0.35214285714285715,-0.013518863254123263,-2.6805845671386734,0.1538040041923523,45.17546081542969,0.0059100680881076385,-0.11077851189507379
4536,-0.3464364793565538,0.07968751907348633,86.86668395996094,86.25294494628906,-6.221248626708984,88.91248321533203,-0.012069914076063368,0.042,0.35214285714285715,-0.012420230441623263,-2.164242404052736,0.4614120125770569,45.17546081542969,0.006819322374131944,-0.1125970204671224
4537,-0.3737802293565538,0.07968751907348633,84.26852416992188,84.0025634765625,-5.648426055908203,88.33966064453125,-0.014797634548611112,0.038,0.35214285714285715,-0.01171841091579861,-1.4611383848876969,0.8349360227584839,45.17546081542969,0.0029551188151041665,-0.09986763000488282
4538,-0.2995614793565538,0.09960939407348633,86.0074462890625,85.06637573242188,-5.8120880126953125,88.36012268066406,-0.004568650987413194,0.035,0.3514285714285714,-0.01193203396267361,-0.5822588377685562,1.3842360973358154,45.17546081542969,0.010456339518229166,-0.1019134521484375
4539,-0.3151864793565538,0.09960939407348633,85.33233642578125,85.47554016113281,-6.1394195556640625,88.99431610107422,-0.00047704908582899306,0.03166666666666667,0.35035714285714287,-0.01193203396267361,-0.2636648588867203,1.1974740028381348,45.17546081542969,-0.001591152615017361,-0.11259706285264758
4540,-0.3269052293565538,0.07968751907348633,86.662109375,83.32745361328125,-6.794075012207031,41.900001525878906,-0.027072440253363715,0.03,0.3485714285714286,-0.008453114827473959,-0.2416922026367203,1.4171940088272095,45.17546081542969,0.03705173068576389,0.40339914957682294
4541,-0.3854989793565538,0.07968751907348633,85.70057678222656,85.74149322509766,-6.998653411865234,89.73080444335938,-2.242194281684028e-05,0.027666666666666666,0.34714285714285714,-0.008605702718098959,-0.7470480375976578,1.3183200359344482,45.17546081542969,-0.0004546271430121528,-0.13032730950249566
4542,-0.4011239793565538,0.09960939407348633,86.25294494628906,85.57783508300781,-7.44873046875,89.77172088623047,-0.005250591701931423,0.025333333333333333,0.3457142857142857,-0.009124501546223959,-1.538040774414064,1.1315580606460571,45.17546081542969,0.007501220703125,-0.1357827928331163
4543,-0.3073739793565538,0.09960939407348633,84.43218231201172,84.77996826171875,-7.325981140136719,41.900001525878906,-0.01979849073621962,0.022333333333333334,0.34464285714285714,-0.0077512105305989586,-2.2741018706054703,0.10986000299453735,45.17546081542969,-0.003864288330078125,0.39748908148871526
4544,-0.2253427293565538,0.09960939407348633,84.92317199707031,84.73905181884766,-6.221248626708984,88.70790100097656,-0.022980838351779515,0.019333333333333334,0.3442857142857143,-0.004974195692274305,-2.812416689941408,0.010986000299453735,45.17546081542969,0.002045779758029514,-0.11032388475206163
4545,-0.2058114793565538,0.07968751907348633,85.65966796875,84.35034942626953,-6.037128448486328,88.36012268066406,-0.020025804307725693,0.015333333333333332,0.3442857142857143,-0.0036315070258246527,-2.186215060302736,0.6591600179672241,45.17546081542969,0.014547983805338541,-0.10441390143500434
4546,-0.2644052293565538,0.09960939407348633,86.25294494628906,87.41905212402344,-6.118961334228516,41.900001525878906,0.007478841145833333,0.012,0.3432142857142857,-0.005859205457899305,-0.6591612272949234,1.021697998046875,45.17546081542969,-0.012956746419270833,0.4109004126654731
4547,-0.3269052293565538,0.09960939407348633,86.13019561767578,85.39370727539062,-6.405372619628906,88.89202880859375,-0.003886710272894965,0.009,0.3417857142857143,-0.0070187886555989586,0.7140899896621704,0.516342043876648,44.03289031982422,0.008183203803168403,-0.11441557142469617
4548,-0.3972177293565538,0.09960939407348633,85.68012237548828,85.20958709716797,-6.262165069580078,87.80775451660156,-0.006159803602430555,0.007,0.3382142857142857,-0.008025868733723959,1.4721240997314453,0.19774800539016724,38.84737777709961,0.005228169759114583,-0.10077688429090711
4549,-0.4987802293565538,0.1195312786102295,87.48042297363281,85.49600219726562,-5.321098327636719,87.27584838867188,-0.004114023844401042,0.005333333333333333,0.3342857142857143,-0.00976528591579861,1.735788106918335,-0.09887375170898594,38.320037841796875,0.022049119737413195,-0.08441051907009549
4550,-0.4050302293565538,0.1195312786102295,84.92317199707031,84.96409606933594,-4.7482757568359375,86.35523986816406,0.00225067138671875,0.0033333333333333335,0.3292857142857143,-0.01095547146267361,1.922550082206726,-1.6259294920654312,38.320037841796875,-0.0004547119140625,-0.06781684027777778
4551,-0.3776864793565538,0.09960939407348633,84.73905181884766,82.9592056274414,-3.66400146484375,86.39614868164062,0.002932612101236979,0.0023333333333333335,0.32535714285714284,-0.008392079671223959,2.0873401165008545,-2.252131121704103,37.96847915649414,0.01977606879340278,-0.056223890516493055
4552,-0.2292489793565538,0.07968751907348633,83.98210144042969,86.17111206054688,-3.909496307373047,86.94851684570312,0.009070036146375868,0.0023333333333333335,0.3192857142857143,-0.004730055067274305,2.7355141639709473,-2.6805845671386734,35.15599822998047,-0.024322340223524305,-0.06508903503417969
4553,-0.10424897935655382,0.05976563930511475,86.13019561767578,86.90760040283203,-3.091175079345703,84.6572265625,0.025891028510199653,0.001,0.31535714285714284,-0.0017699347601996527,2.8893179893493652,-2.142269747802736,34.277099609375,-0.008637830946180555,-0.030537796020507813
4554,-0.01831147935655382,0.05976563930511475,88.58515930175781,87.27584838867188,-2.1705665588378906,85.08683776855469,0.03498348659939236,0.0,0.30892857142857144,-0.0,3.306786060333252,-1.4721247130126969,34.101318359375,0.014547899034288195,-0.02508227030436198
