,WD,WS,AIL_1,AIL_2,ELEV_1,ELEV_2,RUDD,ALT,GS,TH,PTCH,ROLL,PLA_1,AIL,ELEV
4975,-0.7171368916829427,1.4542971801757814,101.57598876953125,102.74209594726562,20.455982208251953,61.21235275268555,-0.010933346218532987,-0.0016666666666666668,0.0,-0.7183318244086372,-0.2526785307617203,0.1867620050907135,24.87286949157715,-0.012956746419270833,0.49159588283962674
4976,-0.7171368916829427,1.4542971801757814,101.55552673339844,102.43522644042969,20.435523986816406,61.130523681640625,-0.009342193603515625,-0.0013333333333333333,0.0,-0.7186980247497559,-0.21972145373535312,0.20873400568962097,24.87286949157715,-0.009774441189236111,0.4922777811686198
4977,-0.7210431416829427,1.4343753051757813,101.31002807617188,102.43522644042969,20.435523986816406,61.08960723876953,-0.008887566460503472,-0.0016666666666666668,0.0,-0.7202543682522244,-0.2636648588867203,0.2526780068874359,24.87286949157715,-0.012502204047309028,0.49273240831163195
4978,-0.7210431416829427,1.4343753051757813,101.14636993408203,102.21018981933594,20.394607543945312,61.17144012451172,-0.011615286933051215,-0.0016666666666666668,0.0,-0.7199797206454807,-0.17577614123535312,0.2856360077857971,24.87286949157715,-0.011820220947265625,0.49136852688259547
4979,-0.7171368916829427,1.4343753051757813,101.14636993408203,102.14881134033203,20.374149322509766,61.17144012451172,-0.012297227647569445,-0.0026666666666666666,0.0,-0.7181182013617622,-0.19774879748535312,0.2856360077857971,24.87286949157715,-0.011138237847222222,0.4911412133110894
4980,-0.7171368916829427,1.4343753051757813,101.08499145507812,102.16926574707031,20.41506576538086,61.19189453125,-0.012069914076063368,-0.0023333333333333335,0.0,-0.7161956575181749,-0.17577614123535312,0.2526780068874359,24.87286949157715,-0.012047492133246528,0.49136856926812067
4981,-0.7171368916829427,1.4343753051757813,100.49171447753906,101.78056335449219,20.41506576538086,61.17144012451172,-0.010478719075520834,-0.0006666666666666666,0.0,-0.7154937744140625,-0.2526785307617203,0.24169200658798218,24.87286949157715,-0.014320543077256944,0.49159584045410154
4982,-0.7171368916829427,1.4343753051757813,100.18484497070312,101.2486572265625,20.394607543945312,61.11006164550781,-0.0075236850314670135,-0.002,0.0,-0.7169890827602811,-0.2307058745117203,0.36253800988197327,24.87286949157715,-0.011820136176215277,0.4920505099826389
4983,-0.7210431416829427,1.4343753051757813,100.02117919921875,101.10545349121094,20.455982208251953,61.376014709472656,-0.00843293931749132,-0.0003333333333333333,0.0,-0.7190337075127495,-0.2746511870117203,0.29662200808525085,24.87286949157715,-0.012047492133246528,0.4897774166531033
4984,-0.7210431416829427,1.4343753051757813,99.81660461425781,100.81904602050781,20.35369110107422,61.31464385986328,-0.01070603264702691,-0.0013333333333333333,0.0,-0.7191252496507433,-0.3076082640380875,0.35155200958251953,24.87286949157715,-0.011138237847222222,0.48932274712456597
4985,-0.7210431416829427,1.4542971801757814,99.91888427734375,101.06453704833984,20.374149322509766,61.355560302734375,-0.009796820746527778,-0.003,0.0,-0.7200712733798557,-0.20873512561035312,0.38451001048088074,24.87286949157715,-0.012729475233289931,0.4890954335530599
4986,-0.7210431416829427,1.4542971801757814,99.26423645019531,100.63491821289062,20.496898651123047,61.17144012451172,-0.009796820746527778,-0.0036666666666666666,0.0,-0.7213529692755805,-0.2856375151367203,0.29662200808525085,24.87286949157715,-0.01522979736328125,0.4925050947401259
4987,-0.7210431416829427,1.4542971801757814,99.26423645019531,100.36896514892578,20.435523986816406,61.27372741699219,-0.01070603264702691,-0.0036666666666666666,0.0,-0.7216581344604492,-0.2307058745117203,0.23070600628852844,24.87286949157715,-0.01227476331922743,0.49068662855360246
4988,-0.7210431416829427,1.4542971801757814,99.10057067871094,100.18484497070312,20.455982208251953,61.17144012451172,-0.010933346218532987,-0.0033333333333333335,0.0,-0.7216581344604492,-0.17577614123535312,0.1538040041923523,24.87286949157715,-0.012047492133246528,0.49205046759711374
4989,-0.7210431416829427,1.4542971801757814,99.2437744140625,100.49171447753906,20.41506576538086,61.33510208129883,-0.011387973361545138,-0.004,0.0,-0.7213224516974555,-0.2416922026367203,0.16479000449180603,24.87286949157715,-0.013866000705295138,0.4897773742675781
4990,-0.7210431416829427,1.4542971801757814,98.95736694335938,100.04164123535156,20.435523986816406,61.232810974121094,-0.011842600504557292,-0.0033333333333333335,0.0,-0.7204985088772244,-0.2526785307617203,0.06591600179672241,24.87286949157715,-0.012047492133246528,0.4911412556966146
4991,-0.7210431416829427,1.4542971801757814,98.87553405761719,99.89842987060547,20.41506576538086,61.27372741699219,-0.011387973361545138,-0.003,0.0,-0.7199492030673557,-0.19774879748535312,-0.02197326953125156,24.87286949157715,-0.011365509033203125,0.49045931498209633
4992,-0.7210431416829427,1.4542971801757814,98.69140625,99.77568054199219,20.435523986816406,61.232810974121094,-0.011160659790039062,-0.0026666666666666666,0.0,-0.719796625773112,-0.20873512561035312,-0.02197326953125156,24.87286949157715,-0.012047492133246528,0.4911412556966146
4993,-0.7210431416829427,1.4542971801757814,98.50728607177734,99.48927307128906,20.435523986816406,61.25326919555664,-0.010933346218532987,-0.003,0.0,-0.7199186854892307,-0.18676246936035312,-0.01098694140625156,24.87286949157715,-0.01091096666124132,0.4909139421251085
4994,-0.7210431416829427,1.4542971801757814,98.17996215820312,99.40744018554688,20.35369110107422,61.294185638427734,-0.011842600504557292,-0.0033333333333333335,0.0,-0.7191252496507433,-0.19774879748535312,-0.04394401843261875,24.87286949157715,-0.013638644748263888,0.48955006069607204
4995,-0.7171368916829427,1.4542971801757814,97.83216857910156,98.99827575683594,20.41506576538086,61.25326919555664,-0.010933346218532987,-0.0036666666666666666,0.0,-0.7187285423278809,-0.16478981311035312,-0.03295769030761875,24.87286949157715,-0.012956746419270833,0.49068662855360246
4996,-0.7210431416829427,1.4542971801757814,97.44346618652344,98.58911895751953,20.435523986816406,61.21235275268555,-0.01002409193250868,-0.003,0.0,-0.719613520304362,-0.18676246936035312,-0.06591667468261875,24.87286949157715,-0.012729475233289931,0.49136856926812067
4997,-0.7210431416829427,1.4542971801757814,97.01385498046875,98.05721282958984,20.35369110107422,61.21235275268555,-0.01070603264702691,-0.0023333333333333335,0.0,-0.719644037882487,-0.2307058745117203,0.0,24.87286949157715,-0.011592864990234375,0.49045931498209633
4998,-0.7210431416829427,1.4542971801757814,96.80927276611328,97.7298812866211,20.394607543945312,61.232810974121094,-0.010933346218532987,-0.002,0.0,-0.7191557672288683,-0.2307058745117203,0.0,24.87286949157715,-0.010228983561197917,0.49068662855360246
4999,-0.7171368916829427,1.4542971801757814,96.64561462402344,97.64805603027344,20.374149322509766,61.232810974121094,-0.011387973361545138,-0.0026666666666666666,0.0,-0.7183013068305122,-0.2416922026367203,0.07690200209617615,24.87286949157715,-0.011138237847222222,0.49045931498209633
5000,-0.7171368916829427,1.4542971801757814,96.42057037353516,97.46392822265625,20.435523986816406,61.17144012451172,-0.011160659790039062,-0.003,0.0,-0.7176299413045247,-0.18676246936035312,0.07690200209617615,24.87286949157715,-0.011592864990234375,0.4918231540256076
5001,-0.7171368916829427,1.4542971801757814,96.35919189453125,97.50484466552734,20.455982208251953,61.130523681640625,-0.009796820746527778,-0.0023333333333333335,0.0,-0.7182097540961372,-0.21972145373535312,0.16479000449180603,24.87286949157715,-0.012729475233289931,0.4925050947401259
5002,-0.7210431416829427,1.4542971801757814,96.09324645996094,97.21842956542969,20.374149322509766,61.232810974121094,-0.009114880032009548,-0.0023333333333333335,0.0,-0.719705073038737,-0.21972145373535312,0.19774800539016724,24.87286949157715,-0.012502034505208334,0.49045931498209633
5003,-0.7210431416829427,1.4742190551757812,95.43858337402344,96.66606140136719,20.41506576538086,61.19189453125,-0.009796820746527778,-0.003,0.0,-0.7206816037495931,-0.20873512561035312,0.12084600329399109,24.87286949157715,-0.013638644748263888,0.49136856926812067
5004,-0.7210431416829427,1.4742190551757812,95.02942657470703,96.11370086669922,20.41506576538086,61.19189453125,-0.010478719075520834,-0.002,0.0,-0.7211088392469618,-0.19774879748535312,0.09887400269508362,24.87286949157715,-0.012047492133246528,0.49136856926812067
5005,-0.7210431416829427,1.4742190551757812,94.51797485351562,95.74545288085938,20.394607543945312,61.21235275268555,-0.011387973361545138,-0.0026666666666666666,0.0,-0.7205595334370931,-0.2636648588867203,0.06591600179672241,24.87286949157715,-0.013638644748263888,0.4909139421251085
5006,-0.7210431416829427,1.4742190551757812,94.37477111816406,95.37721252441406,20.41506576538086,61.294185638427734,-0.011615286933051215,-0.0026666666666666666,0.0,-0.7193083551194933,-0.18676246936035312,0.10986000299453735,24.87286949157715,-0.011138237847222222,0.49023200141059026
5007,-0.7171368916829427,1.4742190551757812,94.33385467529297,95.31584167480469,20.35369110107422,61.31464385986328,-0.011160659790039062,-0.0026666666666666666,0.0,-0.7186675071716309,-0.20873512561035312,0.14281800389289856,24.87286949157715,-0.01091096666124132,0.48932274712456597
5008,-0.7171368916829427,1.4742190551757812,94.27247619628906,95.27491760253906,20.35369110107422,61.27372741699219,-0.010933346218532987,-0.002,0.0,-0.7183318244086372,-0.21972145373535312,0.08788800239562988,24.87286949157715,-0.011138237847222222,0.4897773742675781
5009,-0.7210431416829427,1.4941409301757813,94.19064331054688,95.15217590332031,20.35369110107422,61.21235275268555,-0.009569507175021702,-0.0026666666666666666,0.0,-0.7191862848069933,-0.21972145373535312,0.17577600479125977,24.87286949157715,-0.010683695475260416,0.49045931498209633
5010,-0.7210431416829427,1.4941409301757813,94.04743957519531,95.07034301757812,20.35369110107422,61.19189453125,-0.009114880032009548,-0.003,0.0,-0.7203764385647244,-0.21972145373535312,0.17577600479125977,24.87286949157715,-0.011365593804253473,0.49068662855360246
5011,-0.7210431416829427,1.4941409301757813,93.65873718261719,94.681640625,20.333232879638672,61.25326919555664,-0.011160659790039062,-0.003,0.0,-0.7201933330959744,-0.20873512561035312,0.06591600179672241,24.87286949157715,-0.011365593804253473,0.4897773742675781
5012,-0.7210431416829427,1.4941409301757813,93.41324615478516,94.43614196777344,20.333232879638672,61.232810974121094,-0.011387973361545138,-0.0026666666666666666,0.0,-0.7192473199632433,-0.19774879748535312,0.02197200059890747,24.87286949157715,-0.011365509033203125,0.4900046878390842
5013,-0.7171368916829427,1.4941409301757813,93.14729309082031,94.14973449707031,20.374149322509766,61.31464385986328,-0.011842600504557292,-0.0016666666666666668,0.0,-0.7177520010206434,-0.20873512561035312,0.10986000299453735,24.87286949157715,-0.011138237847222222,0.48955006069607204
5014,-0.7171368916829427,1.4941409301757813,93.00408935546875,93.96560668945312,20.333232879638672,61.25326919555664,-0.011615286933051215,-0.001,0.0,-0.7163482348124186,-0.20873512561035312,0.08788800239562988,24.87286949157715,-0.010683525933159722,0.4897773742675781
5015,-0.7171368916829427,1.4941409301757813,92.92225646972656,93.86331939697266,20.394607543945312,61.33510208129883,-0.011160659790039062,-0.001,0.0,-0.7156768692864313,-0.17577614123535312,0.17577600479125977,24.87286949157715,-0.010456254747178819,0.48955006069607204
5016,-0.7171368916829427,1.4941409301757813,93.00408935546875,94.00653076171875,20.333232879638672,61.31464385986328,-0.009114880032009548,-0.001,0.0,-0.7163787523905436,-0.17577614123535312,0.2746500074863434,24.87286949157715,-0.011138237847222222,0.4890954335530599
5017,-0.7171368916829427,1.4941409301757813,93.02454376220703,93.781494140625,20.394607543945312,61.150978088378906,-0.009114880032009548,-0.0006666666666666666,0.0,-0.7175689061482747,-0.19774879748535312,0.26366400718688965,24.87286949157715,-0.008410559760199653,0.49159588283962674
5018,-0.7171368916829427,1.4941409301757813,92.84042358398438,93.781494140625,20.35369110107422,61.33510208129883,-0.009569507175021702,0.0,0.0,-0.7184538841247559,-0.19774879748535312,0.2197200059890747,24.87286949157715,-0.010456339518229166,0.4890954335530599
5019,-0.7210431416829427,1.4742190551757812,92.84042358398438,93.86331939697266,20.374149322509766,61.19189453125,-0.009114880032009548,-0.001,0.0,-0.7201628155178494,-0.15380539233398594,0.24169200658798218,24.87286949157715,-0.011365509033203125,0.4909139421251085
5020,-0.7210431416829427,1.4742190551757812,93.51553344726562,93.82240295410156,20.41506576538086,61.27372741699219,-0.008660252888997395,0.0006666666666666666,0.0,-0.7223294999864366,-0.17577614123535312,0.1867620050907135,24.87286949157715,-0.003409661187065972,0.49045931498209633
5021,-0.7249493916829427,1.4742190551757812,93.59736633300781,94.51797485351562,20.394607543945312,61.08960723876953,-0.009569507175021702,0.0,0.0,-0.7238553365071615,-0.16478981311035312,0.1867620050907135,24.87286949157715,-0.010228983561197917,0.4922777811686198
5022,-0.7249493916829427,1.4742190551757812,93.67919921875,94.74301147460938,20.35369110107422,61.17144012451172,-0.011160659790039062,0.0,0.0,-0.7238553365071615,-0.18676246936035312,0.16479000449180603,24.87286949157715,-0.011820136176215277,0.4909138997395833
5023,-0.7249493916829427,1.4542971801757814,93.49507141113281,94.55889129638672,20.435523986816406,61.19189453125,-0.011842600504557292,-0.0003333333333333333,0.0,-0.7229703585306804,-0.18676246936035312,0.032958000898361206,24.87286949157715,-0.011820220947265625,0.49159588283962674
5024,-0.7210431416829427,1.4742190551757812,93.51553344726562,94.55889129638672,20.435523986816406,61.150978088378906,-0.011387973361545138,-0.0003333333333333333,0.0,-0.7220548523796929,-0.2856375151367203,0.032958000898361206,24.87286949157715,-0.011592864990234375,0.4920505099826389
5025,-0.7210431416829427,1.4742190551757812,94.45660400390625,94.94759368896484,20.374149322509766,61.19189453125,-0.011160659790039062,-0.0013333333333333333,0.0,-0.7219022750854492,-0.2966219359130875,0.07690200209617615,24.87286949157715,-0.005455440945095486,0.4909139421251085
5026,-0.7210431416829427,1.4941409301757813,94.25202178955078,95.29537963867188,20.435523986816406,61.232810974121094,-0.012297227647569445,-0.0013333333333333333,0.0,-0.7208647092183431,-0.2856375151367203,-0.01098694140625156,24.87286949157715,-0.011592864990234375,0.4911412556966146
5027,-0.7210431416829427,1.4941409301757813,94.2315673828125,95.39767456054688,20.394607543945312,61.130523681640625,-0.012069914076063368,-0.001,0.0,-0.719583002726237,-0.3735243254394547,-0.01098694140625156,24.87286949157715,-0.012956746419270833,0.4918231540256076
5028,-0.7210431416829427,1.4941409301757813,94.14973449707031,95.1317138671875,20.435523986816406,61.19189453125,-0.010478719075520834,-0.0006666666666666666,0.0,-0.7194304254319933,-0.21972145373535312,-0.08788933093261875,24.87286949157715,-0.010910881890190972,0.49159588283962674
5029,-0.7210431416829427,1.5140628051757812,94.10881805419922,95.07034301757812,20.394607543945312,61.150978088378906,-0.012069914076063368,-0.0003333333333333333,0.0,-0.7186980247497559,-0.2636648588867203,0.0,24.87286949157715,-0.01068361070421007,0.49159588283962674
5030,-0.7171368916829427,1.5140628051757812,94.37477111816406,95.11125946044922,20.41506576538086,61.11006164550781,-0.011842600504557292,0.0,0.0,-0.7169585757785373,-0.2526785307617203,-0.01098694140625156,24.87286949157715,-0.008183203803168403,0.49227782355414496
5031,-0.7171368916829427,1.5140628051757812,94.49752044677734,95.56134033203125,20.435523986816406,61.19189453125,-0.01002409193250868,0.0013333333333333333,0.0,-0.7166533999972873,-0.19774879748535312,0.14281800389289856,24.87286949157715,-0.011820220947265625,0.49159588283962674
5032,-0.7171368916829427,1.5339846801757813,94.59980773925781,95.7249984741211,20.435523986816406,61.25326919555664,-0.008887566460503472,0.002,0.0,-0.7174773534138997,-0.2746511870117203,0.2197200059890747,24.87286949157715,-0.01250211927625868,0.4909139421251085
5033,-0.7210431416829427,1.5339846801757813,95.09080505371094,95.56134033203125,20.41506576538086,61.19189453125,-0.008660252888997395,0.0,0.0,-0.7187895668877495,-0.20873512561035312,0.23070600628852844,24.87286949157715,-0.005228169759114583,0.49136856926812067
5034,-0.7210431416829427,1.5339846801757813,95.56134033203125,96.6865234375,20.394607543945312,61.21235275268555,-0.008660252888997395,0.0,0.0,-0.7205900510152181,-0.2307058745117203,0.19774800539016724,24.87286949157715,-0.012502034505208334,0.4909139421251085
5035,-0.7210431416829427,1.5339846801757813,95.25446319580078,96.42057037353516,20.41506576538086,61.21235275268555,-0.010251405504014757,0.0,0.0,-0.7211698744032118,-0.19774879748535312,0.17577600479125977,24.87286949157715,-0.012956746419270833,0.4911412556966146
5036,-0.7210431416829427,1.5539065551757814,95.1930923461914,96.2364501953125,20.435523986816406,61.25326919555664,-0.010933346218532987,0.0,0.0,-0.7209562513563368,-0.21972145373535312,0.10986000299453735,24.87286949157715,-0.011592864990234375,0.4909139421251085
5037,-0.7210431416829427,1.5539065551757814,95.11125946044922,96.09324645996094,20.41506576538086,61.17144012451172,-0.010251405504014757,0.0003333333333333333,0.0,-0.7212614165412055,-0.2636648588867203,0.12084600329399109,24.87286949157715,-0.01091096666124132,0.49159584045410154
5038,-0.7210431416829427,1.5539065551757814,95.07034301757812,96.05232238769531,20.394607543945312,61.19189453125,-0.01002409193250868,0.0,0.0,-0.7215665923224555,-0.2526785307617203,0.06591600179672241,24.87286949157715,-0.010910881890190972,0.4911412556966146
5039,-0.7210431416829427,1.5738284301757812,95.1930923461914,96.17507934570312,20.455982208251953,61.294185638427734,-0.011160659790039062,0.0006666666666666666,0.0,-0.7207426389058431,-0.3076082640380875,0.10986000299453735,24.87286949157715,-0.01091096666124132,0.49068662855360246
5040,-0.7210431416829427,1.5937503051757813,95.17263793945312,96.29782104492188,20.435523986816406,61.19189453125,-0.012297227647569445,0.0013333333333333333,0.0,-0.7186369895935059,-0.3185945921630875,0.13183200359344482,24.87286949157715,-0.012502034505208334,0.49159588283962674
5041,-0.7171368916829427,1.613672332763672,95.04988098144531,96.1955337524414,20.4764404296875,61.06914520263672,-0.01547957526312934,0.0013333333333333333,0.0,-0.7138458675808377,-0.2856375151367203,0.09887400269508362,24.87286949157715,-0.012729475233289931,0.49341439141167537
5042,-0.7054181416829427,1.6335942077636718,95.41812896728516,96.35919189453125,20.4764404296875,61.72380065917969,-0.021844270494249134,0.0013333333333333333,0.0,-0.7012424892849393,-0.2746511870117203,0.032958000898361206,24.87286949157715,-0.010456254747178819,0.48614044189453126
5043,-0.6819806416829427,1.6335942077636718,95.58179473876953,96.6865234375,20.4764404296875,61.04869079589844,-0.021844270494249134,-0.0003333333333333333,0.0,-0.6754253811306423,-0.3954969816894547,-0.02197326953125156,24.87286949157715,-0.01227476331922743,0.49364166259765624
5044,-0.6429181416829427,1.6335942077636718,95.6431655883789,96.85018920898438,20.4764404296875,61.19189453125,-0.022298897637261283,-0.002,0.0,-0.6341058095296224,-0.5492998533935562,0.10986000299453735,24.87286949157715,-0.013411373562282987,0.4920505099826389
5045,-0.5999493916829427,1.6335942077636718,95.25446319580078,96.33873748779297,20.4764404296875,61.150978088378906,-0.02207158406575521,-0.0033333333333333335,0.0,-0.5857674068874783,-0.6921183043212906,-0.10986007983398594,24.87286949157715,-0.012047492133246528,0.492505137125651
5046,-0.5335431416829427,1.6335942077636718,95.35675048828125,96.15461730957031,20.4764404296875,61.130523681640625,-0.02207158406575521,-0.003,0.0,-0.5236965179443359,-0.8898664885253922,-0.3515516691894547,24.87286949157715,-0.008865186903211806,0.49273240831163195
5047,-0.4671368916829427,1.6335942077636718,95.09080505371094,96.11370086669922,20.496898651123047,61.11006164550781,-0.022980838351779515,-0.0023333333333333335,0.0,-0.4537523057725694,-0.9338098936767594,-0.801977770874025,24.87286949157715,-0.011365509033203125,0.4931870778401693
5048,-0.3968243916829427,1.6335942077636718,94.80438995361328,95.84774780273438,20.455982208251953,61.17144012451172,-0.02320815192328559,-0.002,0.0,-0.3861884223090278,-0.801977770874025,-0.9118391447753922,24.87286949157715,-0.011592864990234375,0.49205046759711374
5049,-0.3421368916829427,1.613672332763672,94.19064331054688,95.27491760253906,20.067279815673828,61.21235275268555,-0.022980838351779515,-0.002,0.0,-0.33043446011013455,-0.7580343657226578,-0.6921183043212906,24.87286949157715,-0.012047492133246528,0.4872769673665365
5050,-0.2913556416829427,1.613672332763672,93.47462463378906,94.783935546875,18.41018295288086,61.25326919555664,-0.022980838351779515,0.001,0.0,-0.2837439643012153,-0.6591612272949234,-0.5163427763671891,24.87286949157715,-0.014547899034288195,0.468410152859158
5051,-0.2522931416829427,1.613672332763672,92.55400848388672,93.96560668945312,18.328350067138672,61.294185638427734,-0.014343007405598959,-0.0026666666666666666,0.0,-0.24492674933539496,-0.6371885710449234,-0.856909411499025,24.87286949157715,-0.015684424506293402,0.4670462714301215
5052,-0.2249493916829427,1.5937503051757813,91.51065063476562,93.24958038330078,18.880714416503906,61.21235275268555,0.0015687730577256945,0.0003333333333333333,0.0,-0.22164255777994793,-0.2746511870117203,-0.9997259550781266,24.87286949157715,-0.019321441650390625,0.47409290737575954
5053,-0.2171368916829427,1.5937503051757813,84.16622924804688,85.92561340332031,20.496898651123047,61.232810974121094,0.0015687730577256945,-0.0006666666666666666,0.0,-0.21599697536892362,-0.21972145373535312,-0.7909933500976578,24.87286949157715,-0.019548712836371527,0.4918231964111328
5054,-0.2171368916829427,1.5937503051757813,77.68104553222656,81.17935943603516,20.435523986816406,61.232810974121094,0.0017960866292317708,-0.0023333333333333335,0.0,-0.2143185509575738,-0.3076082640380875,-0.7140909605712906,24.87286949157715,-0.038870154486762155,0.4911412556966146
5055,-0.2132306416829427,1.5937503051757813,78.04928588867188,78.64257049560547,20.394607543945312,61.232810974121094,0.0017960866292317708,0.0003333333333333333,0.0,-0.21264012654622397,-0.20873512561035312,-0.6152159147949234,24.87286949157715,-0.0065920511881510414,0.49068662855360246
5056,-0.2132306416829427,1.5738284301757812,78.49935913085938,79.0312728881836,20.41506576538086,61.21235275268555,0.0020233578152126738,0.0003333333333333333,0.0,-0.21196873982747397,-0.2636648588867203,-0.5053564482421891,24.87286949157715,-0.005910152859157986,0.4911412556966146
5057,-0.2132306416829427,1.5738284301757812,77.70149993896484,79.17447662353516,20.394607543945312,61.232810974121094,0.0020233578152126738,-0.0003333333333333333,0.0,-0.21148050096299914,-0.2416922026367203,-0.4723993712158219,24.87286949157715,-0.016366407606336807,0.49068662855360246
5058,-0.2132306416829427,1.5738284301757812,69.66150665283203,70.00929260253906,20.496898651123047,61.232810974121094,0.0020233578152126738,-0.0016666666666666668,0.0,-0.21114480760362414,-0.2307058745117203,-0.3625379973144547,24.87286949157715,-0.003864288330078125,0.4918231964111328
5059,-0.2132306416829427,1.5539065551757814,69.8251724243164,70.3570785522461,20.517356872558594,61.21235275268555,0.00225067138671875,-0.0016666666666666668,0.0,-0.2137997521294488,-0.2526785307617203,-0.3625379973144547,24.87286949157715,-0.0059100680881076385,0.49227782355414496
5060,-0.2132306416829427,1.5539065551757814,70.64349365234375,70.97081756591797,20.455982208251953,61.21235275268555,0.00225067138671875,-0.0003333333333333333,0.0,-0.21297581990559897,-0.2966219359130875,-0.3515516691894547,24.87286949157715,-0.003636932373046875,0.49159588283962674
5061,-0.2132306416829427,1.5539065551757814,70.8685302734375,71.50273132324219,20.435523986816406,61.25326919555664,0.0024779849582248262,-0.001,0.0,-0.2140133751763238,-0.4064833098144547,-0.3076082640380875,24.87286949157715,-0.007046678331163195,0.4909139421251085
5062,-0.2171368916829427,1.5539065551757814,71.3799819946289,71.7686767578125,20.4764404296875,61.21235275268555,0.0017960866292317708,-0.0006666666666666666,0.0,-0.21553921169704862,-0.08788933093261875,-0.20873512561035312,24.87286949157715,-0.004318830702039931,0.4918231964111328
5063,-0.2171368916829427,1.5339846801757813,71.48226928710938,72.21875762939453,20.455982208251953,61.25326919555664,0.0020233578152126738,-0.0013333333333333333,0.0,-0.21727867126464845,-0.19774879748535312,-0.2416922026367203,24.87286949157715,-0.008183203803168403,0.4911412556966146
5064,-0.2210431416829427,1.5339846801757813,72.30059051513672,72.64837646484375,20.41506576538086,61.232810974121094,-2.242194281684028e-05,-0.002,0.0,-0.2192011939154731,-0.2746511870117203,-0.17577614123535312,24.87286949157715,-0.003864288330078125,0.4909139421251085
5065,-0.2210431416829427,1.5339846801757813,72.3619613647461,72.89387512207031,20.41506576538086,61.294185638427734,-0.001613616943359375,-0.0016666666666666668,0.0,-0.22045237223307293,-0.2746511870117203,-0.2307058745117203,24.87286949157715,-0.005910152859157986,0.49023200141059026
5066,-0.2210431416829427,1.5339846801757813,72.2801284790039,73.22119903564453,20.455982208251953,61.232810974121094,-0.0054779052734375,-0.001,0.0,-0.2196894751654731,-0.17577614123535312,-0.5492998533935562,24.87286949157715,-0.010456339518229166,0.49136856926812067
5067,-0.2171368916829427,1.5140628051757812,72.64837646484375,73.30303192138672,20.435523986816406,61.25326919555664,-0.007296371459960938,-0.001,0.0,-0.21761432223849828,-0.2636648588867203,-0.5053564482421891,24.87286949157715,-0.0072739495171440975,0.4909139421251085
5068,-0.2171368916829427,1.5140628051757812,72.03463745117188,73.4666976928711,20.41506576538086,61.27372741699219,-0.0066144307454427086,-0.0013333333333333333,0.0,-0.21599697536892362,-0.21972145373535312,-0.5822588377685562,24.87286949157715,-0.015911780463324653,0.49045931498209633
5069,-0.2171368916829427,1.5140628051757812,72.79158020019531,73.20074462890625,20.435523986816406,61.27372741699219,-0.004568650987413194,-0.002,0.0,-0.21697349548339845,-0.2636648588867203,-0.5383154326171891,24.87286949157715,-0.004546271430121528,0.49068662855360246
5070,-0.2171368916829427,1.4941409301757813,72.95524597167969,73.58944702148438,20.35369110107422,61.33510208129883,-0.006841744316948784,-0.002,0.0,-0.21724815368652345,-0.3405672484130875,-0.5932451658935562,24.87286949157715,-0.007046678331163195,0.4890954335530599
5071,-0.2171368916829427,1.4941409301757813,73.79402160644531,74.24409484863281,20.292316436767578,61.27372741699219,-0.009569507175021702,-0.0013333333333333333,0.0,-0.21486782497829862,-0.18676246936035312,-0.6042314940185562,24.69709014892578,-0.0050008138020833336,0.4890954335530599
5072,-0.2132306416829427,1.4941409301757813,74.53050994873047,74.9192123413086,19.187583923339844,61.478309631347656,-0.009569507175021702,-0.0006666666666666666,0.0,-0.21248753865559897,-0.19774879748535312,-0.6152159147949234,24.87286949157715,-0.0043189154730902775,0.47454749213324654
5073,-0.2132306416829427,1.4941409301757813,74.9805908203125,75.57386779785156,17.919189453125,61.580596923828125,-0.006841744316948784,-0.0026666666666666666,0.0,-0.21270116170247397,-0.3076082640380875,-0.4614130430908219,24.87286949157715,-0.006591966417100695,0.45931769476996526
5074,-0.2132306416829427,1.4742190551757812,75.4306640625,76.04440307617188,17.919189453125,61.60105514526367,-0.006159803602430555,-0.0033333333333333335,0.0,-0.2137387169731988,-0.18676246936035312,-0.3954969816894547,24.87286949157715,-0.006819322374131944,0.4590903811984592
5075,-0.2132306416829427,1.4742190551757812,75.9216537475586,76.61722564697266,17.79644012451172,61.66242980957031,-0.007069057888454861,-0.0033333333333333335,0.0,-0.21471523708767362,-0.2526785307617203,-0.4174677305908219,24.87286949157715,-0.00772857666015625,0.4570445590549045
5076,-0.2171368916829427,1.4742190551757812,76.16715240478516,76.80134582519531,17.223617553710938,61.805633544921875,-0.007296371459960938,-0.0026666666666666666,0.0,-0.21517300075954862,-0.18676246936035312,-0.2746511870117203,24.87286949157715,-0.007046593560112847,0.44908871120876737
5077,-0.2132306416829427,1.4742190551757812,76.45356750488281,77.00592803955078,16.589420318603516,63.237693786621094,-0.010478719075520834,-0.001,0.0,-0.2139218224419488,-0.21972145373535312,-0.2746511870117203,24.87286949157715,-0.006137339274088541,0.4261302947998047
5078,-0.2132306416829427,1.4542971801757814,76.80134582519531,77.4764633178711,16.364383697509766,63.585479736328125,-0.006841744316948784,-0.0003333333333333333,0.0,-0.21517300075954862,-0.2416922026367203,-0.3954969816894547,24.87286949157715,-0.007501305474175347,0.4197655995686849
5079,-0.2171368916829427,1.4542971801757814,76.80134582519531,77.68104553222656,16.13934326171875,63.62639617919922,-0.00775099860297309,-0.0003333333333333333,0.0,-0.21691246032714845,-0.21972145373535312,-0.3515516691894547,24.87286949157715,-0.009774441189236111,0.4168105231391059
5080,-0.2171368916829427,1.4542971801757814,76.9854736328125,77.64012145996094,16.405296325683594,63.68777084350586,-0.011615286933051215,0.0,0.0,-0.21560024685329862,-0.2416922026367203,-0.3845106535644547,24.87286949157715,-0.00727386474609375,0.4190836164686415
5081,-0.2132306416829427,1.4542971801757814,77.12867736816406,77.9469985961914,13.13201904296875,63.76960372924805,-0.013661109076605903,-0.0003333333333333333,0.0,-0.21233495076497397,-0.2966219359130875,-0.5822588377685562,24.87286949157715,-0.009092458089192708,0.3818046145968967
5082,-0.2093243916829427,1.4542971801757814,77.25142669677734,78.00836944580078,15.648353576660156,63.81052017211914,-0.010251405504014757,0.0006666666666666666,0.0,-0.21111429002549914,-0.21972145373535312,-0.5492998533935562,24.87286949157715,-0.008410474989149305,0.4093092600504557
5083,-0.2132306416829427,1.4542971801757814,77.435546875,78.15158081054688,16.221176147460938,63.76960372924805,-0.00775099860297309,0.0003333333333333333,0.0,-0.21300633748372397,-0.2307058745117203,-0.3954969816894547,24.87286949157715,-0.0079559326171875,0.41612858242458767
5084,-0.2171368916829427,1.4742190551757812,77.49691772460938,78.21295166015625,17.162242889404297,63.646854400634766,-0.0066144307454427086,0.0006666666666666666,0.0,-0.21605801052517362,-0.21972145373535312,-0.6152159147949234,24.87286949157715,-0.0079559326171875,0.4279487609863281
5085,-0.2171368916829427,1.4941409301757813,76.06486511230469,76.78089141845703,17.960105895996094,63.62639617919922,-0.012297227647569445,0.0006666666666666666,0.0,-0.21535610622829862,-0.2966219359130875,-0.823950427124025,24.87286949157715,-0.007955847846137152,0.43704121907552085
5086,-0.2171368916829427,1.5140628051757812,76.10577392578125,76.84226989746094,18.676136016845703,63.46273422241211,-0.007296371459960938,0.0006666666666666666,0.0,-0.21663780212402345,-0.3515516691894547,-0.812964098999025,24.87286949157715,-0.00818328857421875,0.4468155754937066
5087,-0.2210431416829427,1.5339846801757813,75.75799560546875,76.41264343261719,18.57384490966797,63.40135955810547,-0.0050232781304253475,0.0,0.0,-0.22197820875379776,-0.2856375151367203,-0.823950427124025,24.87286949157715,-0.00727386474609375,0.44636094835069445
5088,-0.2249493916829427,1.5339846801757813,76.12623596191406,76.67860412597656,18.34880828857422,63.19677734375,-0.0050232781304253475,0.0,0.0,-0.22762379116482204,-0.2966219359130875,-0.9667688780517594,24.87286949157715,-0.006137424045138889,0.4461336771647135
5089,-0.2366681416829427,1.5339846801757813,74.85783386230469,76.14669799804688,19.944530487060547,62.37845993041992,0.0015687730577256945,-0.0006666666666666666,0.0,-0.24120373196072048,0.16479000449180603,-0.21972145373535312,24.87286949157715,-0.01432071261935764,0.4729563395182292
5090,-0.2640118916829427,1.5339846801757813,74.28501892089844,75.08287811279297,19.924072265625,61.31464385986328,0.0015687730577256945,-0.0006666666666666666,0.0,-0.2711405860053168,-0.12084640795898594,-0.5492998533935562,24.87286949157715,-0.008865102132161459,0.48454920450846356
5091,-0.3069806416829427,1.5339846801757813,73.8349380493164,75.328369140625,20.005905151367188,61.294185638427734,0.00225067138671875,-0.002,0.0,-0.31267378065321183,-0.19774879748535312,0.2746500074863434,24.69709014892578,-0.01659367879231771,0.4856857723659939
5092,-0.3460431416829427,1.5339846801757813,68.7613525390625,70.17295837402344,20.108196258544922,61.27372741699219,0.002705298529730903,-0.0026666666666666666,0.0,-0.35152147081163193,-0.2856375151367203,0.5273280143737793,24.69709014892578,-0.01568450927734375,0.4870496537950304
5093,-0.3772931416829427,1.5339846801757813,70.15249633789062,70.41845703125,20.210487365722656,61.31464385986328,0.0024779849582248262,-0.0026666666666666666,0.0,-0.37932217915852867,-0.17577614123535312,0.5602860450744629,24.69709014892578,-0.0029551188151041665,0.4877315945095486
5094,-0.3851056416829427,1.5339846801757813,71.15493774414062,71.64593505859375,20.333232879638672,61.294185638427734,-0.01979849073621962,-0.003,0.0,-0.3871649424235026,-0.19774879748535312,0.4394400119781494,24.69709014892578,-0.005455525716145834,0.48932274712456597
5095,-0.3890118916829427,1.5339846801757813,71.4208984375,71.8709716796875,20.27185821533203,61.31464385986328,-0.02207158406575521,-0.003,0.0,-0.38896543714735243,-0.2856375151367203,0.09887400269508362,24.69709014892578,-0.0050008138020833336,0.4884134928385417
5096,-0.3890118916829427,1.5339846801757813,71.93234252929688,72.50517272949219,20.210487365722656,61.376014709472656,-0.021616956922743055,-0.0023333333333333335,0.0,-0.38951471116807723,-0.19774879748535312,0.09887400269508362,24.69709014892578,-0.006364780002170139,0.48704969618055555
5097,-0.3890118916829427,1.5339846801757813,72.40287780761719,72.93478393554688,20.169570922851562,61.31464385986328,-0.02207158406575521,-0.0033333333333333335,0.0,-0.3878363291422526,-0.2307058745117203,-0.03295769030761875,24.69709014892578,-0.0059100680881076385,0.4872769673665365
5098,-0.3851056416829427,1.5339846801757813,73.13936614990234,73.52806854248047,20.230945587158203,61.31464385986328,-0.02207158406575521,-0.003,0.0,-0.3842963748508029,-0.3845106535644547,-0.2307058745117203,24.69709014892578,-0.0043189154730902775,0.4879589080810547
5099,-0.3811993916829427,1.5339846801757813,73.4666976928711,74.05998229980469,20.210487365722656,61.27372741699219,-0.01957117716471354,-0.0026666666666666666,0.0,-0.3824043273925781,-0.2966219359130875,-0.04394401843261875,24.69709014892578,-0.0065920511881510414,0.48818622165256076
5100,-0.3811993916829427,1.5339846801757813,73.69173431396484,74.10089111328125,20.292316436767578,61.376014709472656,-0.01616151597764757,-0.003,0.0,-0.3829536437988281,-0.3185945921630875,0.10986000299453735,24.69709014892578,-0.00454618665907118,0.4879589080810547
5101,-0.3851056416829427,1.5339846801757813,74.26455688476562,74.69417572021484,20.251399993896484,61.294185638427734,-0.015706888834635415,-0.003,0.0,-0.3835334777832031,-0.5273291044921891,-0.2746511870117203,24.69709014892578,-0.004773542616102431,0.4884134928385417
5102,-0.3811993916829427,1.5339846801757813,74.26455688476562,75.18516540527344,20.251399993896484,61.17144012451172,-0.016388829549153647,-0.0026666666666666666,0.0,-0.3828620910644531,-0.2966219359130875,-0.02197326953125156,24.69709014892578,-0.010228983561197917,0.48977733188205297
5103,-0.3811993916829427,1.5140628051757812,74.57142639160156,75.41020202636719,20.333232879638672,61.232810974121094,-0.016388829549153647,-0.003,0.0,-0.3822517818874783,-0.3515516691894547,-0.5273291044921891,24.69709014892578,-0.009319729275173612,0.4900046878390842
5104,-0.3811993916829427,1.5140628051757812,74.73509216308594,75.4306640625,20.435523986816406,61.27372741699219,-0.013661109076605903,-0.0036666666666666666,0.0,-0.3827095031738281,-0.4064833098144547,-0.17577614123535312,24.69709014892578,-0.00772857666015625,0.49068662855360246
5105,-0.3851056416829427,1.5140628051757812,75.61478424072266,76.35127258300781,20.496898651123047,61.232810974121094,-0.013433795505099827,-0.0033333333333333335,0.0,-0.3838996463351779,-0.03295769030761875,-0.2526785307617203,24.69709014892578,-0.008183203803168403,0.4918231964111328
5106,-0.3851056416829427,1.5140628051757812,75.75799560546875,76.43310546875,20.455982208251953,61.232810974121094,-0.015024948120117187,-0.0033333333333333335,0.0,-0.3835639953613281,0.06591600179672241,-0.5492998533935562,24.69709014892578,-0.007501220703125,0.49136856926812067
5107,-0.3811993916829427,1.5140628051757812,75.81936645507812,76.57630920410156,20.435523986816406,61.31464385986328,-0.015024948120117187,-0.0026666666666666666,0.0,-0.3821297115749783,0.09887400269508362,-0.6262022429199234,24.69709014892578,-0.008410474989149305,0.49023200141059026
5108,-0.3811993916829427,1.4941409301757813,75.79890441894531,76.65814208984375,20.41506576538086,61.355560302734375,-0.012751854790581597,-0.002,0.0,-0.3824958801269531,-1.0546575957031266,-0.3405672484130875,24.69709014892578,-0.009547085232204862,0.48955006069607204
5109,-0.3811993916829427,1.4941409301757813,73.40531921386719,76.18760681152344,20.394607543945312,61.355560302734375,-0.012751854790581597,-0.001,0.0,-0.3824348449707031,-0.845923083374025,0.14281800389289856,24.69709014892578,-0.030914306640625,0.48932274712456597
5110,-0.3811993916829427,1.4742190551757812,73.75310516357422,74.69417572021484,20.53781509399414,61.150978088378906,-0.01252454121907552,-0.0016666666666666668,0.0,-0.3822212643093533,-0.5822588377685562,0.08788800239562988,24.69709014892578,-0.010456339518229166,0.4931870778401693
5111,-0.3811993916829427,1.4742190551757812,73.79402160644531,74.69417572021484,20.496898651123047,61.31464385986328,-0.013433795505099827,-0.001,0.0,-0.3814278072781033,0.20873400568962097,-0.2416922026367203,24.69709014892578,-0.010001712375217013,0.4909139421251085
5112,-0.3811993916829427,1.4941409301757813,74.08043670654297,74.65325927734375,20.4764404296875,61.25326919555664,-0.01070603264702691,-0.0013333333333333333,0.0,-0.3830451965332031,-0.16478981311035312,-0.5602861815185562,24.69709014892578,-0.006364695231119792,0.49136856926812067
5113,-0.3851056416829427,1.4941409301757813,73.85539245605469,74.59188842773438,20.41506576538086,61.31464385986328,-0.009569507175021702,-0.0016666666666666668,0.0,-0.3854560004340278,-0.07690300280761875,-0.2416922026367203,24.69709014892578,-0.00818328857421875,0.4900046878390842
5114,-0.3851056416829427,1.5339846801757813,74.08043670654297,74.8373794555664,20.455982208251953,61.232810974121094,-0.01320648193359375,-0.001,0.0,-0.3849982791476779,-0.05493034655761875,-0.4504267149658219,24.69709014892578,-0.008410474989149305,0.49136856926812067
5115,-0.3811993916829427,1.5539065551757814,74.05998229980469,74.81692504882812,20.4764404296875,61.376014709472656,-0.014343007405598959,0.0023333333333333335,0.0,-0.3831062316894531,-0.2636648588867203,-0.5163427763671891,24.69709014892578,-0.008410474989149305,0.4900047302246094
5116,-0.3811993916829427,1.5937503051757813,73.93722534179688,74.89875793457031,20.496898651123047,61.232810974121094,-0.013433795505099827,0.0,0.0,-0.3816109127468533,-0.2416922026367203,-0.4504267149658219,24.69709014892578,-0.010683695475260416,0.4918231964111328
5117,-0.3811993916829427,1.6335942077636718,67.7589111328125,73.3848648071289,20.27185821533203,61.19189453125,-0.014115693834092882,0.003,0.0,-0.37965783013237847,-0.01098694140625156,-0.5273291044921891,24.69709014892578,-0.0625105963812934,0.4897773742675781
5118,-0.3772931416829427,1.653516082763672,66.42914581298828,66.92013549804688,18.246517181396484,61.150978088378906,-0.012069914076063368,0.002,0.0,-0.37880338033040367,-0.13183273608398594,-0.5712725096435562,24.69709014892578,-0.005455440945095486,0.4677282121446398
5119,-0.3811993916829427,1.6734379577636718,66.51097106933594,67.12471771240234,20.455982208251953,61.150978088378906,-0.008205625745985243,0.0006666666666666666,0.0,-0.3811226314968533,-0.02197326953125156,-0.3845106535644547,24.69709014892578,-0.006819407145182292,0.49227782355414496
5120,-0.3811993916829427,1.6734379577636718,66.10181427001953,67.14517211914062,20.455982208251953,61.130523681640625,-0.009114880032009548,0.0006666666666666666,0.0,-0.3832588195800781,-0.6042314940185562,-0.4723993712158219,24.69709014892578,-0.011592864990234375,0.4925050947401259
5121,-0.3851056416829427,1.6734379577636718,65.14028930664062,65.77449035644531,20.41506576538086,61.19189453125,-0.01002409193250868,0.0013333333333333333,0.0,-0.3845710330539279,-0.2416922026367203,0.19774800539016724,24.69709014892578,-0.007046678331163195,0.49136856926812067
5122,-0.3851056416829427,1.653516082763672,66.04044342041016,66.18364715576172,20.53781509399414,61.08960723876953,-0.01070603264702691,0.0006666666666666666,0.0,-0.3855780707465278,-0.2636648588867203,-0.3515516691894547,24.69709014892578,-0.001591152615017361,0.4938689761691623
5123,-0.3851056416829427,1.653516082763672,64.62883758544922,65.18120574951172,20.517356872558594,61.06914520263672,-0.012069914076063368,0.0,0.0,-0.3859137641059028,-0.20873512561035312,-0.5712725096435562,24.69709014892578,-0.006137424045138889,0.4938690185546875
5124,-0.3851056416829427,1.6734379577636718,64.77204895019531,65.303955078125,20.496898651123047,61.04869079589844,-0.011160659790039062,-0.0006666666666666666,0.0,-0.3867071787516276,-0.2307058745117203,-0.4723993712158219,24.69709014892578,-0.0059100680881076385,0.4938689761691623
5125,-0.3851056416829427,1.6734379577636718,64.7106704711914,65.32440948486328,20.517356872558594,61.06914520263672,-0.012979168362087673,-0.001,0.0,-0.3856391059027778,-0.2526785307617203,-0.4723993712158219,24.69709014892578,-0.006819322374131944,0.4938690185546875
5126,-0.3851056416829427,1.6933598327636719,64.64929962158203,65.18120574951172,20.517356872558594,61.028228759765625,-0.01320648193359375,-0.0006666666666666666,0.0,-0.3839911990695529,-0.17577614123535312,-0.4174677305908219,24.69709014892578,-0.0059100680881076385,0.49432364569769965
5127,-0.3811993916829427,1.6933598327636719,64.56746673583984,65.18120574951172,20.517356872558594,61.028228759765625,-0.012751854790581597,-0.0013333333333333333,0.0,-0.3827705383300781,-0.18676246936035312,-0.3954969816894547,24.69709014892578,-0.006819322374131944,0.49432364569769965
5128,-0.3811993916829427,1.6933598327636719,64.7925033569336,65.40624237060547,20.517356872558594,61.028228759765625,-0.012751854790581597,-0.001,0.0,-0.3809395260281033,-0.05493034655761875,-0.48338379199218906,24.69709014892578,-0.006819322374131944,0.49432364569769965
5129,-0.3772931416829427,1.6734379577636718,64.97662353515625,65.42669677734375,20.455982208251953,61.04869079589844,-0.01252454121907552,-0.001,0.0,-0.37880338033040367,-0.16478981311035312,-0.4504267149658219,24.69709014892578,-0.0050008138020833336,0.49341434902615017
5130,-0.3772931416829427,1.6734379577636718,64.93570709228516,65.50852966308594,20.53781509399414,61.04869079589844,-0.009342193603515625,-0.0013333333333333333,0.0,-0.37944420708550347,0.010986000299453735,-0.3185945921630875,24.69709014892578,-0.006364695231119792,0.49432360331217445
5131,-0.3811993916829427,1.6734379577636718,64.97662353515625,65.61082458496094,20.333232879638672,61.028228759765625,-0.009342193603515625,-0.001,0.0,-0.3811836666531033,-0.06591667468261875,-0.2416922026367203,24.69709014892578,-0.007046678331163195,0.49227782355414496
5132,-0.3811993916829427,1.6734379577636718,64.87433624267578,65.54945373535156,20.496898651123047,61.028228759765625,-0.009569507175021702,-0.0013333333333333333,0.0,-0.3825874328613281,-0.20873512561035312,-0.2636648588867203,24.69709014892578,-0.007501305474175347,0.4940963321261936
5133,-0.3811993916829427,1.653516082763672,64.97662353515625,65.50852966308594,20.517356872558594,61.007774353027344,-0.011387973361545138,-0.0013333333333333333,0.0,-0.3824653625488281,-0.2856375151367203,-0.19774879748535312,24.69709014892578,-0.0059100680881076385,0.4945509168836806
5134,-0.3811993916829427,1.653516082763672,65.2630386352539,65.73357391357422,20.496898651123047,61.04869079589844,-0.012069914076063368,-0.001,0.0,-0.3815803951687283,-0.21972145373535312,-0.2307058745117203,24.69709014892578,-0.005228169759114583,0.4938689761691623
5135,-0.3811993916829427,1.653516082763672,65.40624237060547,65.89723205566406,20.517356872558594,61.04869079589844,-0.010251405504014757,-0.0013333333333333333,0.0,-0.3818245357937283,-0.19774879748535312,-0.21972145373535312,24.69709014892578,-0.005455440945095486,0.4940962897406684
5136,-0.3811993916829427,1.6335942077636718,65.14028930664062,65.95861053466797,20.496898651123047,61.028228759765625,-0.009796820746527778,-0.0013333333333333333,0.0,-0.3831367492675781,-0.20873512561035312,-0.15380539233398594,24.69709014892578,-0.009092458089192708,0.4940963321261936
5137,-0.3851056416829427,1.6335942077636718,65.46762084960938,65.93814849853516,20.53781509399414,61.06914520263672,-0.01002409193250868,-0.001,0.0,-0.3841132693820529,-0.2416922026367203,-0.14281906420898594,24.69709014892578,-0.005228084988064236,0.4940963321261936
5138,-0.3851056416829427,1.6335942077636718,65.59036254882812,66.14273071289062,20.558273315429688,61.04869079589844,-0.01002409193250868,-0.002,0.0,-0.3850593143039279,-0.2526785307617203,-0.09887375170898594,24.69709014892578,-0.006137424045138889,0.4945509168836806
5139,-0.3851056416829427,1.613672332763672,65.50852966308594,66.18364715576172,20.4764404296875,61.028228759765625,-0.013433795505099827,-0.0016666666666666668,0.0,-0.3839301639133029,-0.2526785307617203,-0.17577614123535312,24.69709014892578,-0.007501305474175347,0.4938690185546875
5140,-0.3811993916829427,1.613672332763672,65.56990814208984,66.2654800415039,20.517356872558594,61.150978088378906,-0.014343007405598959,-0.0013333333333333333,0.0,-0.3810921139187283,-0.2416922026367203,-0.19774879748535312,24.69709014892578,-0.00772857666015625,0.49295976426866317
5141,-0.3811993916829427,1.613672332763672,65.67219543457031,66.18364715576172,20.496898651123047,61.17144012451172,-0.012069914076063368,-0.0013333333333333333,0.0,-0.38039025200737847,-0.2636648588867203,-0.13183273608398594,24.69709014892578,-0.0056827969021267365,0.4925050947401259
5142,-0.3811993916829427,1.613672332763672,65.40624237060547,66.2654800415039,20.517356872558594,61.17144012451172,-0.008887566460503472,-0.0023333333333333335,0.0,-0.3821602291531033,-0.2636648588867203,-0.17577614123535312,24.69709014892578,-0.009547085232204862,0.49273240831163195
5143,-0.3851056416829427,1.5937503051757813,65.36532592773438,66.06089782714844,20.53781509399414,61.150978088378906,-0.008887566460503472,-0.0003333333333333333,0.0,-0.3842353396945529,-0.2636648588867203,-0.07690300280761875,24.69709014892578,-0.00772857666015625,0.4931870778401693
5144,-0.3851056416829427,1.5937503051757813,65.56990814208984,66.14273071289062,20.517356872558594,61.17144012451172,-0.00843293931749132,-0.001,0.0,-0.3868292490641276,-0.2856375151367203,-0.21972145373535312,24.69709014892578,-0.006364695231119792,0.49273240831163195
5145,-0.3851056416829427,1.5937503051757813,65.50852966308594,66.2041015625,20.4764404296875,61.232810974121094,-0.011387973361545138,-0.001,0.0,-0.3871039072672526,-0.2746511870117203,-0.2307058745117203,24.69709014892578,-0.00772857666015625,0.49159588283962674
5146,-0.3851056416829427,1.5738284301757812,66.14273071289062,66.59280395507812,20.41506576538086,61.232810974121094,-0.01320648193359375,-0.0013333333333333333,0.0,-0.3855780707465278,-0.3076082640380875,-0.3185945921630875,24.69709014892578,-0.0050008138020833336,0.4909139421251085
5147,-0.3811993916829427,1.5738284301757812,65.91769409179688,66.77693176269531,20.455982208251953,61.25326919555664,-0.013888380262586805,-0.0013333333333333333,0.0,-0.3830451965332031,-0.3185945921630875,-0.3954969816894547,24.69709014892578,-0.009547085232204862,0.4911412556966146
5148,-0.3811993916829427,1.5937503051757813,65.7131118774414,66.44960021972656,20.517356872558594,61.11006164550781,-0.012979168362087673,-0.0006666666666666666,0.0,-0.3814278072781033,-0.4284540587158219,-0.4174677305908219,24.69709014892578,-0.008183203803168403,0.49341439141167537
5149,-0.3811993916829427,1.6335942077636718,65.73357391357422,66.49051666259766,20.558273315429688,61.06914520263672,-0.011615286933051215,-0.0013333333333333333,0.0,-0.38075646294487847,-0.4504267149658219,-0.3954969816894547,24.69709014892578,-0.008410474989149305,0.49432364569769965
5150,-0.3811993916829427,1.6734379577636718,65.7949447631836,66.7155532836914,20.558273315429688,61.04869079589844,-0.01002409193250868,-0.0016666666666666668,0.0,-0.3813667721218533,-0.4394403868408219,-0.3405672484130875,24.69709014892578,-0.010228983561197917,0.4945509168836806
5151,-0.3811993916829427,1.6734379577636718,65.77449035644531,66.42914581298828,20.53781509399414,61.028228759765625,-0.010251405504014757,-0.0016666666666666668,0.0,-0.3820686764187283,-0.2856375151367203,-0.2526785307617203,24.69709014892578,-0.0072739495171440975,0.4945509592692057
5152,-0.3811993916829427,1.6734379577636718,65.87677764892578,66.53143310546875,20.53781509399414,61.150978088378906,-0.01002409193250868,-0.002,0.0,-0.3830757141113281,-0.2526785307617203,-0.17577614123535312,24.69709014892578,-0.0072739495171440975,0.4931870778401693
5153,-0.3851056416829427,1.6734379577636718,65.91769409179688,66.49051666259766,20.496898651123047,61.150978088378906,-0.009569507175021702,-0.003,0.0,-0.3844794803195529,-0.2966219359130875,-0.14281906420898594,24.69709014892578,-0.006364695231119792,0.4927324506971571
5154,-0.3851056416829427,1.6734379577636718,65.67219543457031,66.42914581298828,20.496898651123047,61.11006164550781,-0.01070603264702691,-0.002,0.0,-0.3849677615695529,-0.2966219359130875,-0.18676246936035312,24.69709014892578,-0.008410559760199653,0.4931870778401693
5155,-0.3851056416829427,1.653516082763672,65.7949447631836,66.36776733398438,20.455982208251953,61.150978088378906,-0.011387973361545138,-0.0026666666666666666,0.0,-0.3853034125434028,-0.21972145373535312,-0.20873512561035312,24.69709014892578,-0.006364695231119792,0.49227782355414496
5156,-0.3851056416829427,1.653516082763672,65.7949447631836,66.51097106933594,20.435523986816406,61.130523681640625,-0.01002409193250868,-0.0013333333333333333,0.0,-0.3866766611735026,-0.2526785307617203,-0.3295809202880875,24.69709014892578,-0.007955847846137152,0.4922777811686198
5157,-0.3890118916829427,1.653516082763672,65.7949447631836,66.28593444824219,20.53781509399414,61.06914520263672,-0.010251405504014757,-0.0026666666666666666,0.0,-0.3879278818766276,-0.3845106535644547,-0.2526785307617203,24.69709014892578,-0.005455440945095486,0.4940963321261936
5158,-0.3890118916829427,1.6335942077636718,65.44715881347656,66.38822937011719,20.558273315429688,61.04869079589844,-0.011842600504557292,-0.0026666666666666666,0.0,-0.3877447764078776,-0.2856375151367203,-0.3295809202880875,24.69709014892578,-0.010456339518229166,0.4945509168836806
5159,-0.3772931416829427,1.6335942077636718,65.7949447631836,66.38822937011719,20.517356872558594,61.08960723876953,-0.022526211208767362,-0.001,0.0,-0.3715709262424045,-0.3515516691894547,-0.6262022429199234,24.69709014892578,-0.0065920511881510414,0.49364166259765624
5160,-0.3382306416829427,1.6335942077636718,65.91769409179688,66.69509887695312,20.4764404296875,61.21235275268555,-0.022526211208767362,0.0006666666666666666,0.0,-0.33009876675075955,-0.5602861815185562,-1.2194467955322281,24.69709014892578,-0.008637830946180555,0.4918231964111328
5161,-0.2796368916829427,1.6335942077636718,66.306396484375,66.92013549804688,20.455982208251953,61.25326919555664,-0.022526211208767362,0.0036666666666666666,0.0,-0.2701029883490668,-0.823950427124025,-1.0326849394531266,24.69709014892578,-0.006819322374131944,0.4911412556966146
5162,-0.2132306416829427,1.6335942077636718,66.49051666259766,66.92013549804688,20.455982208251953,61.31464385986328,-0.022753524780273437,0.007,0.0,-0.20269169277615018,-0.7690206938476578,-1.0326849394531266,24.69709014892578,-0.004773542616102431,0.49045931498209633
5163,-0.1429181416829427,1.6335942077636718,66.55189514160156,67.32929992675781,20.19002914428711,61.376014709472656,-0.02320815192328559,0.008,0.0,-0.13442586263020834,-0.7250772886962906,-1.505081790039064,24.69709014892578,-0.008637830946180555,0.4868223826090495
5164,-0.08432439168294271,1.6335942077636718,66.73601531982422,67.10425567626953,18.63521957397461,61.51922607421875,-0.023662779066297743,0.007666666666666666,0.0,-0.07787848578559028,-0.3076082640380875,-1.2743765288085953,24.69709014892578,-0.004091559516059028,0.46795548333062065
5165,-0.04526189168294271,1.6335942077636718,67.51342010498047,67.67707824707031,18.226058959960938,61.805633544921875,-0.014115693834092882,0.005333333333333333,0.0,-0.04284540812174479,-0.08788933093261875,-0.7580343657226578,24.69709014892578,-0.0018184238009982638,0.4602269490559896
5166,-0.025730641682942708,1.6335942077636718,65.05845642089844,65.44715881347656,13.950336456298828,62.54212188720703,0.0008868323432074653,0.004666666666666667,0.0,-0.024291229248046876,0.17577600479125977,-0.2966219359130875,24.69709014892578,-0.0043189154730902775,0.4045357174343533
5167,-0.014011891682942708,1.6335942077636718,64.91525268554688,65.38578796386719,14.768657684326172,63.81052017211914,0.0011141459147135417,0.0026666666666666666,0.0,-0.012939029269748263,0.16479000449180603,-0.5383154326171891,24.69709014892578,-0.005228169759114583,0.3995348612467448
5168,-0.006199391682942709,1.613672332763672,63.33998489379883,64.99708557128906,13.520721435546875,66.12226867675781,0.001341459486219618,0.0023333333333333335,0.0,-0.0014037238226996527,-0.02197326953125156,-0.6042314940185562,24.69709014892578,-0.01841222974989149,0.35998280843098956
5169,0.005519358317057291,1.613672332763672,65.05845642089844,65.20166015625,10.758888244628906,69.17051696777344,0.0006595187717013889,0.001,0.0,0.007934315999348959,0.10986000299453735,-0.4614130430908219,24.69709014892578,-0.001591152615017361,0.2954263475206163
5170,0.005519358317057291,1.613672332763672,70.47982788085938,67.00196838378906,15.484687805175781,69.49784088134766,0.001341459486219618,0.0,0.0,0.006835767957899305,-0.03295769030761875,-0.2746511870117203,24.69709014892578,0.03864288330078125,0.34429829915364585
5171,0.0016131083170572917,1.613672332763672,80.07463073730469,80.32012939453125,16.814456939697266,69.3546371459961,0.001341459486219618,0.0006666666666666666,0.0,0.0039061652289496527,0.13183200359344482,-0.3625379973144547,24.69709014892578,-0.002727762858072917,0.3606646643744575
5172,0.0016131083170572917,1.613672332763672,80.34058380126953,80.85203552246094,13.725299835205078,69.66150665283203,0.001341459486219618,0.0,0.0,0.0021666632758246527,0.04394400119781494,-0.9667688780517594,24.69709014892578,-0.0056827969021267365,0.3229310353597005
5173,0.0016131083170572917,1.613672332763672,80.79066467285156,81.56806182861328,12.150032043457031,69.84562683105469,0.0015687730577256945,0.0003333333333333333,0.0,0.0024718390570746527,0.1538040041923523,-0.7470480375976578,24.69709014892578,-0.008637746175130209,0.30338228013780383
5174,-0.0022931416829427083,1.613672332763672,81.01570129394531,81.56806182861328,12.763774871826172,70.25479125976562,0.001341459486219618,0.0,0.0,-0.0,0.06591600179672241,-1.0436712675781266,24.69709014892578,-0.006137339274088541,0.3056553734673394
