,WD,WS,AIL_1,AIL_2,ELEV_1,ELEV_2,RUDD,ALT,GS,TH,PTCH,ROLL,PLA_1,AIL,ELEV
8187,-0.5952856536512586,0.07968751907348633,84.77996826171875,84.06393432617188,-6.548576354980469,87.23492431640625,-0.005705218844943577,1.017,0.5260714285714285,-0.009216054280598959,-1.8017050200195328,0.790992021560669,30.58572006225586,0.0079559326171875,-0.09759445190429687
8188,-0.6109106536512586,0.07968751907348633,85.06637573242188,83.81844329833984,-6.528118133544922,87.25538635253906,-0.0059324900309244795,1.0106666666666666,0.5253571428571429,-0.008727773030598959,-1.8895918303222672,0.8569080233573914,30.58572006225586,0.013865915934244792,-0.09759449428982205
8189,-0.6070044036512586,0.07968751907348633,84.94363403320312,84.22760009765625,-6.528118133544922,87.17355346679688,-0.006387117173936632,1.0036666666666667,0.525,-0.008208974202473959,-1.9335371428222672,0.8788800239562988,30.58572006225586,0.0079559326171875,-0.09668524000379775
8190,-0.6148169036512586,0.07968751907348633,84.43218231201172,83.85935974121094,-6.569034576416016,87.27584838867188,-0.006841744316948784,0.9973333333333333,0.525,-0.0075681474473741316,-1.8786074095459,0.7031040191650391,30.58572006225586,0.006364695231119792,-0.09827647738986545
8191,-0.6070044036512586,0.05976563930511475,84.37080383300781,83.552490234375,-6.609951019287109,87.33721923828125,-0.005705218844943577,0.9906666666666667,0.5246428571428572,-0.0067136552598741316,-1.9555078917236344,0.8788800239562988,30.58572006225586,0.00909237331814236,-0.09941300286187066
8192,-0.6460669036512586,0.05976563930511475,85.31187438964844,84.28897857666016,-6.569034576416016,87.29630279541016,-0.006159803602430555,0.984,0.5242857142857142,-0.005737135145399305,-2.142269747802736,1.3952220678329468,30.58572006225586,0.011365509033203125,-0.09850374857584636
8193,-0.5913794036512586,0.05976563930511475,84.82088470458984,84.30943298339844,-6.528118133544922,87.19401550292969,-0.004568650987413194,0.976,0.5246428571428572,-0.005218336317274305,-2.197201388427736,1.3293060064315796,30.58572006225586,0.0056827969021267365,-0.09691259596082899
8194,-0.6187231536512586,0.05976563930511475,84.5958480834961,83.5115737915039,-6.569034576416016,87.25538635253906,-0.007069057888454861,0.9693333333333334,0.5242857142857142,-0.004394404093424479,-2.175228732177736,0.9118380546569824,30.58572006225586,0.012047492133246528,-0.0980491214328342
8195,-0.6070044036512586,0.03984375953674316,85.23004150390625,84.35034942626953,-6.405372619628906,87.15309143066406,-0.007978312174479167,0.9616666666666667,0.5242857142857142,-0.0031432257758246527,-2.219172137329103,1.1095860004425049,30.058380126953125,0.009774356418185763,-0.0950940450032552
8196,-0.5874731536512586,0.03984375953674316,84.80043029785156,83.94119262695312,-6.221248626708984,87.03034973144531,-0.006387117173936632,0.9543333333333334,0.5242857142857142,-0.0024718390570746527,-2.0324102812500016,1.1315580606460571,28.036909103393555,0.009547085232204862,-0.09168442620171441
8197,-0.5249731536512586,0.03984375953674316,84.88226318359375,84.1048583984375,-6.118961334228516,86.90760040283203,-0.0059324900309244795,0.9473333333333334,0.5239285714285714,-0.0018920474582248264,-1.6259294920654312,1.263390064239502,25.83966064453125,0.008637830946180555,-0.08918401930067274
8198,-0.6577856536512586,0.05976563930511475,84.90271759033203,83.96165466308594,-6.098503112792969,86.90760040283203,-0.0059324900309244795,0.9406666666666667,0.5239285714285714,-0.0010375552707248264,-1.2084604674072281,1.2084600925445557,24.345529556274414,0.010456254747178819,-0.08895670572916667
8199,-0.7945043758734809,0.05976563930511475,86.13019561767578,85.14820861816406,-6.221248626708984,86.98943328857422,-0.00843293931749132,0.9353333333333333,0.5228571428571429,0.00030517578125,-0.9228254729003922,1.3732500076293945,24.169750213623047,0.01091096666124132,-0.09122979905870225
8200,-0.7945043758734809,0.07968751907348633,85.43462371826172,85.08683776855469,-6.384914398193359,87.13264465332031,-0.006841744316948784,0.9293333333333333,0.5221428571428571,0.000244140625,-0.801977770874025,0.6921180486679077,24.081859588623047,0.003864288330078125,-0.09463954501681858
8201,-0.7671606258734809,0.07968751907348633,85.47554016113281,84.82088470458984,-6.384914398193359,87.17355346679688,-0.004795964558919271,0.9233333333333333,0.5207142857142857,-0.00054931640625,-0.9667688780517594,-0.3954969816894547,24.081859588623047,0.0072739495171440975,-0.09509408738878038
8202,-0.8179418758734809,0.09960939407348633,84.41172790527344,84.1048583984375,-6.4462890625,87.21446990966797,-0.006841744316948784,0.9186666666666666,0.5196428571428572,-0.0012816958957248264,-1.0656420164794937,-1.4940973692626969,24.081859588623047,0.003409661187065972,-0.09623065524631076
8203,-0.8726293758734809,0.1195312786102295,83.47065734863281,82.73416900634766,-6.569034576416016,87.39859008789062,-0.0054779052734375,0.9126666666666666,0.5185714285714286,-0.0017699771457248264,-1.0766283446044937,-2.175228732177736,24.081859588623047,0.008183203803168403,-0.09964027404785156
8204,-0.9195043758734809,0.1195312786102295,84.43218231201172,83.98210144042969,-6.528118133544922,87.39859008789062,-0.006159803602430555,0.9073333333333333,0.5171428571428571,-0.0014648013644748264,-1.4391657286376969,-1.2304331236572281,24.081859588623047,0.00500089857313368,-0.09918564690483941
8205,-0.9195043758734809,0.1195312786102295,84.20714569091797,83.34790802001953,-6.3644561767578125,87.27584838867188,-0.0059324900309244795,0.9006666666666666,0.5164285714285715,-0.0018004947238498264,-1.8456484251709,-0.823950427124025,24.081859588623047,0.009547085232204862,-0.09600338406032986
8206,-0.9273168758734809,0.1195312786102295,85.20958709716797,84.0025634765625,-6.343997955322266,87.19401550292969,-0.005705218844943577,0.894,0.5160714285714286,-0.0018310123019748264,-1.8786074095459,-0.2307058745117203,24.081859588623047,0.013411373562282987,-0.09486681620279948
8207,-0.9077856258734809,0.09960939407348633,84.43218231201172,83.96165466308594,-6.180332183837891,87.13264465332031,-0.004568650987413194,0.8866666666666667,0.5153571428571428,-0.0023192511664496527,-1.8126913481445328,-0.13183273608398594,23.993968963623047,0.005228084988064236,-0.09236640930175781
8208,-0.9273168758734809,0.1195312786102295,85.23004150390625,83.75706481933594,-6.303081512451172,87.13264465332031,-0.007978312174479167,0.88,0.5153571428571428,-0.0023497687445746527,-1.6259294920654312,-0.6371885710449234,23.993968963623047,0.016366407606336807,-0.09373029073079427
8209,-0.9234106258734809,0.07968751907348633,85.29141998291016,84.77996826171875,-6.057586669921875,87.0712661743164,-0.007296371459960938,0.873,0.515,-0.0022582160101996527,-1.7907186918945328,-0.7690206938476578,23.993968963623047,0.0056827969021267365,-0.09032058715820312
8210,-0.8960668758734809,0.07968751907348633,84.77996826171875,84.20714569091797,-6.282623291015625,86.98943328857422,-0.003659396701388889,0.8663333333333333,0.515,-0.0036619822184244793,-1.6479002409667984,-0.8678938322753922,23.993968963623047,0.006364695231119792,-0.09191173977322048
8211,-0.9155981258734809,0.1195312786102295,84.20714569091797,83.71615600585938,-6.282623291015625,87.19401550292969,-0.0059324900309244795,0.8596666666666667,0.515,-0.004546991984049479,-1.2963491850585953,-0.9228254729003922,23.993968963623047,0.005455440945095486,-0.09418487548828125
8212,-0.9312231258734809,0.13945316314697265,84.02302551269531,83.22515869140625,-6.528118133544922,87.21446990966797,-0.005250591701931423,0.853,0.515,-0.004882685343424479,-1.4062086516113297,-0.5602861815185562,23.993968963623047,0.008865186903211806,-0.0971398671468099
8213,-0.9390356258734809,0.1195312786102295,85.06637573242188,83.53202819824219,-6.569034576416016,87.39859008789062,-0.005705218844943577,0.846,0.5146428571428572,-0.004363886515299479,-1.7028299742431656,0.13183200359344482,23.993968963623047,0.017048305935329862,-0.09964027404785156
8214,-0.9468481258734809,0.13945316314697265,85.20958709716797,84.39126586914062,-6.650867462158203,87.41905212402344,-0.004568650987413194,0.8393333333333334,0.5146428571428572,-0.004089228312174479,-1.8346620970459,0.9777539968490601,23.993968963623047,0.009092458089192708,-0.10077688429090711
8215,-0.9195043758734809,0.13945316314697265,85.14820861816406,84.41172790527344,-6.487205505371094,87.25538635253906,-0.005250591701931423,0.8323333333333334,0.5142857142857142,-0.004089228312174479,-2.186215060302736,1.5050820112228394,23.81818962097168,0.008183119032118056,-0.09713990953233508
8216,-0.9077856258734809,0.13945316314697265,85.61874389648438,84.77996826171875,-6.507663726806641,87.27584838867188,-0.007978312174479167,0.8246666666666667,0.5142857142857142,-0.0037535349527994793,-2.0763555937500016,1.5600121021270752,23.81818962097168,0.009319729275173612,-0.09759457906087239
8217,-0.9155981258734809,0.13945316314697265,84.20714569091797,83.71615600585938,-6.507663726806641,87.35768127441406,-0.010933346218532987,0.8176666666666667,0.5142857142857142,-0.0029601203070746527,-2.0104395323486344,0.6371880173683167,23.81818962097168,0.005455440945095486,-0.0985038333468967
8218,-0.9312231258734809,0.13945316314697265,84.82088470458984,84.16622924804688,-6.5894927978515625,87.45996856689453,-0.009342193603515625,0.8093333333333333,0.5146428571428572,-0.0021361880832248266,-2.0433966093750016,0.6262019872665405,23.81818962097168,0.0072739495171440975,-0.10054957071940104
8219,-0.9468481258734809,0.13945316314697265,84.16622924804688,83.34790802001953,-6.507663726806641,87.43951416015625,-0.007069057888454861,0.8013333333333333,0.515,-0.0010985904269748264,-2.2850881987304703,0.6591600179672241,23.81818962097168,0.009092458089192708,-0.099413087632921
8220,-0.9624731258734809,0.15937503814697265,85.78240966796875,84.37080383300781,-6.630409240722656,87.37813568115234,-0.007296371459960938,0.7933333333333333,0.515,-0.00018310546875,-2.3949495726318375,1.1425440311431885,23.81818962097168,0.01568450927734375,-0.10009494357638889
8221,-0.9585668758734809,0.13945316314697265,85.47554016113281,84.98455047607422,-6.507663726806641,87.37813568115234,-0.007296371459960938,0.785,0.5153571428571428,0.0008544498019748264,-2.482836382934572,1.4611380100250244,23.81818962097168,0.005455440945095486,-0.0987311045328776
8222,-0.9546606258734809,0.1195312786102295,85.25050354003906,84.554931640625,-6.303081512451172,87.21446990966797,-0.009796820746527778,0.7753333333333333,0.5157142857142857,0.0015563540988498264,-2.537766116210939,0.9557820558547974,23.81818962097168,0.00772857666015625,-0.09463946024576823
8223,-0.9546606258734809,0.1195312786102295,85.0050048828125,84.84133911132812,-6.384914398193359,87.23492431640625,-0.011387973361545138,0.7676666666666667,0.5160714285714286,0.0021056281195746527,-2.3839632445068375,0.790992021560669,23.81818962097168,0.001818508572048611,-0.09577598571777343
8224,-0.9390356258734809,0.1195312786102295,85.25050354003906,84.39126586914062,-6.282623291015625,87.13264465332031,-0.01070603264702691,0.7586666666666667,0.5164285714285715,0.0021361456976996527,-2.3400179320068375,0.36253800988197327,23.81818962097168,0.009547085232204862,-0.0935029771592882
8225,-0.9585668758734809,0.1195312786102295,86.23248291015625,85.557373046875,-6.405372619628906,87.25538635253906,-0.012069914076063368,0.7513333333333333,0.5167857142857143,0.0028380499945746527,-2.1312853270263687,0.4064820110797882,23.81818962097168,0.007501220703125,-0.09623065524631076
8226,-0.9351293758734809,0.1195312786102295,85.33233642578125,85.25050354003906,-6.5894927978515625,87.35768127441406,-0.009114880032009548,0.7436666666666667,0.5167857142857143,0.0022887335883246527,-1.9774805479736344,-0.2746511870117203,23.993968963623047,0.0009092542860243056,-0.09941304524739583
8227,-0.9312231258734809,0.1195312786102295,85.47554016113281,84.82088470458984,-6.691783905029297,87.45996856689453,-0.009342193603515625,0.7356666666666667,0.5164285714285715,0.0018310123019748264,-2.1312853270263687,-1.0216986113281266,23.993968963623047,0.0072739495171440975,-0.10168613857693143
8228,-0.9390356258734809,0.15937503814697265,85.39370727539062,85.33233642578125,-7.100944519042969,87.70545959472656,-0.0066144307454427086,0.729,0.5160714285714286,0.0006713443332248264,-2.0873400145263687,-1.2414194517822281,23.993968963623047,0.0006818983289930556,-0.10896004570855035
8229,-0.9234106258734809,0.15937503814697265,85.88470458984375,84.71859741210938,-6.834991455078125,87.58271789550781,-0.009569507175021702,0.7213333333333334,0.5153571428571428,-0.0009154849582248264,-2.6586119108886734,-2.3510042601318375,23.993968963623047,0.012956746419270833,-0.10464121500651041
8230,-0.8843481258734809,0.1195312786102295,85.5164566040039,84.82088470458984,-6.67132568359375,87.45996856689453,-0.010478719075520834,0.7123333333333334,0.515,-0.0027464972601996527,-3.0321375303955094,-3.0321375303955094,23.993968963623047,0.00772857666015625,-0.10145882500542534
8231,-0.8648168758734809,0.1195312786102295,83.42974090576172,83.02058410644531,-6.67132568359375,87.45996856689453,-0.003886710272894965,0.704,0.515,-0.005401441786024305,-2.7684732847900406,-3.6363665037841812,23.993968963623047,0.00454618665907118,-0.10145882500542534
8232,-0.8960668758734809,0.09960939407348633,84.14576721191406,83.24562072753906,-6.528118133544922,87.39859008789062,-0.009796820746527778,0.695,0.515,-0.005889723036024305,-2.7245279722900406,-2.878332751342775,23.993968963623047,0.010001627604166667,-0.09918564690483941
8233,-0.9546606258734809,0.09960939407348633,84.26852416992188,83.0001220703125,-6.650867462158203,87.37813568115234,-0.003886710272894965,0.6866666666666666,0.515,-0.005767652723524305,-2.581711428710939,-1.560013430664064,23.993968963623047,0.01409335666232639,-0.10032225714789497
8234,-0.9702856258734809,0.1195312786102295,84.63676452636719,84.32989501953125,-6.875904083251953,87.74638366699219,-0.003204769558376736,0.678,0.5146428571428572,-0.005859205457899305,-2.175228732177736,0.5273280143737793,23.993968963623047,0.003409661187065972,-0.10691430833604601
8235,-0.9312231258734809,0.09960939407348633,84.16622924804688,83.49111938476562,-5.8939208984375,86.90760040283203,-0.00047704908582899306,0.6693333333333333,0.5139285714285714,-0.006164381239149305,-2.1312853270263687,1.6259280443191528,23.993968963623047,0.007501220703125,-0.0866835700141059
8236,-0.9702856258734809,0.07968751907348633,84.75950622558594,84.5140151977539,-5.689342498779297,86.5188980102539,-0.003886710272894965,0.6613333333333333,0.5135714285714286,-0.0036924997965494793,-1.2963491850585953,2.746500015258789,23.993968963623047,0.0027276780870225696,-0.08009156121148003
8237,0.9945581241265191,0.07968751907348633,86.31431579589844,84.94363403320312,-6.037128448486328,86.78485107421875,-0.00843293931749132,0.655,0.5125,-0.000762939453125,-0.4504267149658219,3.163968086242676,23.993968963623047,0.01522979736328125,-0.08691088358561198
8238,-0.9702856258734809,0.09960939407348633,87.31675720214844,85.86424255371094,-5.873462677001953,86.78485107421875,-0.009114880032009548,0.6483333333333333,0.5110714285714286,0.00048828125,-0.2636648588867203,3.141996145248413,23.993968963623047,0.016139051649305555,-0.08509237501356337
8239,-0.8843481258734809,0.07968751907348633,86.0074462890625,85.14820861816406,-6.323539733886719,86.92805480957031,-0.004568650987413194,0.6433333333333333,0.5092857142857142,9.1552734375e-05,0.1867620050907135,1.9445220232009888,28.65213966369629,0.009547085232204862,-0.09168438381618924
8240,-0.8413793758734809,0.05976563930511475,86.33477783203125,85.88470458984375,-6.834991455078125,87.72592163085938,-0.012979168362087673,0.639,0.5075,0.0012511783175998264,0.41746801137924194,0.6921180486679077,37.529029846191406,0.0050008138020833336,-0.10623236762152778
8241,-0.8687231258734809,0.07968751907348633,85.78240966796875,84.28897857666016,-7.407814025878906,87.76683807373047,-0.004795964558919271,0.6353333333333333,0.5057142857142857,0.0009460025363498264,0.010986000299453735,-0.5383154326171891,41.13251876831055,0.01659367879231771,-0.11305168999565972
8242,-0.8452856258734809,0.05976563930511475,85.0459213256836,86.98943328857422,-7.44873046875,87.86912536621094,-0.009114880032009548,0.6296666666666667,0.5060714285714286,0.0006408267550998264,-0.4284540587158219,-0.6701475554199234,42.538761138916016,-0.021594577365451388,-0.11464284261067709
8243,-0.8530981258734809,0.07968751907348633,85.41416931152344,83.79798889160156,-7.387355804443359,87.95095825195312,-0.011615286933051215,0.6263333333333333,0.5060714285714286,-0.000213623046875,-0.6921183043212906,-1.9115644865722672,42.538761138916016,0.017957560221354165,-0.11487015618218316
8244,-0.9273168758734809,0.1195312786102295,85.49600219726562,84.73905181884766,-7.407814025878906,87.95095825195312,-0.00775099860297309,0.6206666666666667,0.5053571428571428,-0.00054931640625,-0.7909933500976578,-1.4171949797363297,42.099308013916016,0.008410559760199653,-0.11509746975368923
8245,-0.8843481258734809,0.09960939407348633,84.5958480834961,84.37080383300781,-6.916820526123047,87.5213394165039,-0.0034320831298828127,0.6146666666666667,0.5053571428571428,-0.0025633917914496527,-1.4281813078613297,-0.8788801604003922,40.25362014770508,0.002500491672092014,-0.10486844380696615
8246,-0.8843481258734809,0.09960939407348633,84.47309875488281,84.1048583984375,-6.8963623046875,87.41905212402344,-0.004568650987413194,0.608,0.505,-0.0026854621039496527,-1.3512789183349625,-0.3295809202880875,39.726280212402344,0.004091559516059028,-0.10350460476345485
8247,-0.9195043758734809,0.07968751907348633,85.65966796875,84.43218231201172,-6.8963623046875,87.48042297363281,-0.009569507175021702,0.6016666666666667,0.5046428571428572,-0.0011596255832248264,-1.2304331236572281,0.36253800988197327,38.93526840209961,0.013638729519314236,-0.10418650309244791
8248,-0.8921606258734809,0.09960939407348633,85.63920593261719,85.94607543945312,-6.732700347900391,87.70545959472656,-0.004114023844401042,0.594,0.505,-0.0018004947238498264,-1.4831110411376969,0.747048020362854,38.05636978149414,-0.003409661187065972,-0.10486844380696615
8249,-0.8257543758734809,0.09960939407348633,85.5982894897461,85.31187438964844,-6.875904083251953,87.562255859375,-0.0054779052734375,0.588,0.5046428571428572,-0.0033873664008246527,-1.4721247130126969,0.08788800239562988,38.05636978149414,0.0031823900010850693,-0.10486844380696615
8250,-0.8609106258734809,0.09960939407348633,81.62944030761719,81.8953857421875,-6.773616790771484,87.58271789550781,-0.002068201700846354,0.578,0.5042857142857143,-0.0026854621039496527,-1.5819841795654312,-1.3842359953613297,36.65013122558594,-0.0029549492730034724,-0.10395927429199218
8251,0.9242456241265191,0.07968751907348633,84.5140151977539,83.40928649902344,-6.569034576416016,87.43951416015625,-0.014115693834092882,0.5736666666666667,0.5046428571428572,0.0018004947238498264,-2.197201388427736,-1.3293062620849625,35.8591194152832,0.01227476331922743,-0.10009498596191406
8252,0.8969018741265191,0.09960939407348633,83.67523193359375,83.4501953125,-5.44384765625,86.662109375,-0.004568650987413194,0.5666666666666667,0.5057142857142857,0.0021361456976996527,-2.526779788085939,-0.9997259550781266,35.41967010498047,0.0025004069010416668,-0.078955078125
8253,0.9164331241265191,0.07968751907348633,84.6572265625,84.08439636230469,-6.159877777099609,86.02790832519531,0.0002048916286892361,0.559,0.5075,0.0006103091769748264,-1.7028299742431656,-0.6042314940185562,35.24388885498047,0.006364780002170139,-0.07986429002549914
8254,0.9008081241265191,0.05976563930511475,85.43462371826172,83.12287139892578,-6.221248626708984,87.25538635253906,-0.009796820746527778,0.55,0.5082142857142857,0.00018310546875,-1.3952223234863297,0.2746500074863434,35.24388885498047,0.025686136881510415,-0.09418483310275608
8255,-0.9702856258734809,0.07968751907348633,85.80287170410156,85.23004150390625,-5.853004455566406,86.37569427490234,0.011797756618923612,0.544,0.5092857142857142,-0.0019225650363498264,-1.9005781584472672,3.0321359634399414,32.4314079284668,0.006364780002170139,-0.0803188747829861
8256,-0.8921606258734809,0.09960939407348633,85.557373046875,84.86180114746094,-6.528118133544922,86.62118530273438,-0.004795964558919271,0.537,0.5103571428571428,-0.0018310123019748264,-1.3842359953613297,2.9332621097564697,31.991960525512695,0.00772857666015625,-0.09054781595865885
8257,-0.8570043758734809,0.07968751907348633,87.35768127441406,85.29141998291016,-6.118961334228516,86.92805480957031,-0.008887566460503472,0.531,0.5107142857142857,-0.000457763671875,-1.3293062620849625,2.427906036376953,31.991960525512695,0.022958458794487848,-0.08941129048665365
8258,-0.7632543758734809,0.05976563930511475,87.27584838867188,86.49844360351562,-6.794075012207031,86.82576751708984,-0.0075236850314670135,0.5253333333333333,0.5110714285714286,-0.000244140625,-1.2853628569335953,1.5050820112228394,31.991960525512695,0.008637830946180555,-0.0957760281032986
8259,-0.8257543758734809,0.09960939407348633,86.13019561767578,85.31187438964844,-6.569034576416016,87.39859008789062,-0.005705218844943577,0.5196666666666667,0.5117857142857143,-0.000640869140625,-1.549027102539064,-0.19774879748535312,31.991960525512695,0.009092458089192708,-0.09964027404785156
8260,-0.8062231258734809,0.07968751907348633,85.94607543945312,85.25050354003906,-6.569034576416016,87.23492431640625,-0.008660252888997395,0.5133333333333333,0.5117857142857143,-0.0006103515625,-1.7357889586181656,-1.7028299742431656,31.991960525512695,0.00772857666015625,-0.09782176547580296
8261,-0.8335668758734809,0.07968751907348633,84.47309875488281,82.89783477783203,-6.221248626708984,86.80531311035156,-0.009569507175021702,0.5073333333333333,0.5117857142857143,-0.0009460025363498264,-1.7687460356445328,-2.581711428710939,31.991960525512695,0.017502933078342015,-0.08918401930067274
8262,-0.8609106258734809,0.07968751907348633,84.90271759033203,84.12531280517578,-6.875904083251953,87.76683807373047,-0.00843293931749132,0.502,0.5121428571428571,-0.0021361880832248266,-1.4831110411376969,-1.9005781584472672,31.991960525512695,0.008637830946180555,-0.10714157952202691
8263,-0.8296606258734809,0.07968751907348633,83.98210144042969,83.0410385131836,-6.487205505371094,87.562255859375,-0.006841744316948784,0.495,0.5114285714285715,-0.0036009894476996527,-2.0543829375000016,-1.7577597075195328,31.991960525512695,0.010456254747178819,-0.10054957071940104
8264,-0.8491918758734809,0.05976563930511475,84.554931640625,83.65477752685547,-8.001094818115234,88.58515930175781,-0.006387117173936632,0.48733333333333334,0.5107142857142857,-0.0037535349527994793,-2.219172137329103,-1.3402925902099625,31.991960525512695,0.010001712375217013,-0.1287361568874783
8265,-0.9273168758734809,0.05976563930511475,84.0434799194336,82.9592056274414,-8.103385925292969,88.93293762207031,-0.012297227647569445,0.48133333333333334,0.5082142857142857,-0.0035399542914496527,-3.0101648741455094,-0.8678938322753922,31.991960525512695,0.012047492133246528,-0.13373692830403647
8266,-0.9429418758734809,0.05976563930511475,84.86180114746094,83.16378784179688,-8.51254653930664,89.26026916503906,-0.007296371459960938,0.476,0.5064285714285715,-0.0037535349527994793,-3.3397451811523453,-0.01098694140625156,31.991960525512695,0.01886681450737847,-0.14192017449273003
8267,-0.9507543758734809,0.09960939407348633,84.53446960449219,83.69569396972656,-9.105827331542969,89.50576782226562,-0.0075236850314670135,0.471,0.5028571428571429,-0.0039061228434244793,-3.229883807250978,0.48338401317596436,31.991960525512695,0.009319729275173612,-0.1512399461534288
8268,-0.8296606258734809,0.05976563930511475,85.70057678222656,84.39126586914062,-9.719566345214844,90.42637634277344,-0.003204769558376736,0.464,0.49892857142857144,-0.005767652723524305,-3.4056612425537125,1.3622640371322632,31.991960525512695,0.014547899034288195,-0.1682882520887587
8269,-0.8960668758734809,0.07968751907348633,86.23248291015625,85.29141998291016,-8.921707153320312,89.85355377197266,-0.011615286933051215,0.45866666666666667,0.4942857142857143,-0.0038756052652994793,-4.251581805297853,1.3952220678329468,31.991960525512695,0.010456254747178819,-0.15305845472547744
8270,-0.9273168758734809,0.09960939407348633,86.6007308959961,86.1097412109375,-9.351322174072266,89.89447021484375,-0.00843293931749132,0.45366666666666666,0.4925,-0.0028075324164496527,-4.306513445922853,1.1864880323410034,25.488100051879883,0.005455440945095486,-0.15828658209906685
8271,-0.9116918758734809,0.09960939407348633,84.35034942626953,83.20470428466797,-9.044452667236328,90.09904479980469,-0.010478719075520834,0.448,0.48892857142857143,-0.0026244269476996527,-4.33947052294922,-0.19774879748535312,25.224430084228516,0.012729390462239584,-0.1571499718560113
8272,-0.8452856258734809,0.05976563930511475,84.47309875488281,83.69569396972656,-8.880790710449219,89.75126647949219,-0.011615286933051215,0.44166666666666665,0.4860714285714286,-0.0031432257758246527,-4.537218707153322,0.07690200209617615,25.224430084228516,0.008637830946180555,-0.15146730211046006
8273,-0.7437231258734809,0.07968751907348633,84.57539367675781,83.65477752685547,-9.085369110107422,89.77172088623047,0.004751120673285591,0.43433333333333335,0.4828571428571429,-0.005767652723524305,-4.306513445922853,0.4394400119781494,25.224430084228516,0.010229068332248265,-0.15396766662597655
8274,-0.8530981258734809,0.07968751907348633,84.43218231201172,83.69569396972656,-8.655750274658203,89.77172088623047,-0.014343007405598959,0.42933333333333334,0.4807142857142857,-0.0031127081976996527,-4.603134768554689,0.6152160167694092,25.224430084228516,0.008183203803168403,-0.14919412400987414
8275,-0.8843481258734809,0.05976563930511475,86.08927917480469,85.78240966796875,-8.307964324951172,88.85111236572266,-0.003886710272894965,0.4236666666666667,0.4785714285714286,-0.0012206607394748264,-4.504261630126955,1.8786060810089111,25.224430084228516,0.003409661187065972,-0.1351008521185981
8276,-0.9155981258734809,0.05976563930511475,85.557373046875,86.88714599609375,-8.983078002929688,89.85355377197266,-0.013888380262586805,0.4176666666666667,0.4767857142857143,0.00030517578125,-3.976933138916017,1.032684087753296,25.224430084228516,-0.014775254991319445,-0.15374035305447048
8277,-0.8960668758734809,0.09960939407348633,86.0688247680664,85.57783508300781,-8.328422546386719,89.0147705078125,-0.008887566460503472,0.413,0.47285714285714286,-0.000335693359375,-4.207638400146486,1.1205720901489258,25.224430084228516,0.005455440945095486,-0.13714658949110242
8278,-0.8570043758734809,0.09960939407348633,86.49844360351562,86.17111206054688,-8.22613525390625,88.81019592285156,-0.002750142415364583,0.4083333333333333,0.4710714285714286,-0.0011901431613498264,-3.834114687988283,1.3512780666351318,25.224430084228516,0.003637017144097222,-0.1337370130750868
8279,-0.8413793758734809,0.07968751907348633,84.35034942626953,85.0050048828125,-8.042011260986328,88.83065795898438,-0.007069057888454861,0.40166666666666667,0.4685714285714286,0.000213623046875,-3.4166475706787125,0.24169200658798218,25.224430084228516,-0.0072739495171440975,-0.13191854688856336
8280,-0.9702856258734809,0.07968751907348633,85.455078125,85.76194763183594,-7.714683532714844,89.05569458007812,-0.01252454121907552,0.3983333333333333,0.4667857142857143,0.0032652960883246527,-3.0760809355468766,-0.823950427124025,25.224430084228516,-0.003409661187065972,-0.13078197903103297
8281,-0.9820043758734809,0.09960939407348633,82.550048828125,83.42974090576172,-8.042011260986328,88.87156677246094,-0.011387973361545138,0.3943333333333333,0.4639285714285714,0.0024413214789496527,-2.889319079467775,-2.4608656340332047,25.224430084228516,-0.009774356418185763,-0.13237308926052518
8282,-0.9038793758734809,0.09960939407348633,82.77508544921875,81.67034912109375,-7.9192657470703125,88.72836303710938,-0.0043413374159071184,0.39,0.4614285714285714,-0.0018310123019748264,-2.6036821776123062,-2.0983263426513687,25.224430084228516,0.012274848090277778,-0.12941809760199652
8283,-0.8530981258734809,0.05976563930511475,83.90027618408203,82.24317932128906,-9.187660217285156,89.73080444335938,-0.0013863033718532986,0.386,0.4567857142857143,-0.0032958136664496527,-2.4498793059082047,-0.2526785307617203,25.224430084228516,0.01841218736436632,-0.1546496073404948
8284,-0.8843481258734809,0.05976563930511475,85.455078125,84.63676452636719,-10.067354202270508,91.04011535644531,-0.0066144307454427086,0.38333333333333336,0.45321428571428574,-0.0024718390570746527,-3.218899386474611,1.1864880323410034,25.224430084228516,0.00909237331814236,-0.17897188398573133
8285,-0.8413793758734809,0.05976563930511475,85.31187438964844,84.61630249023438,-9.105827331542969,90.52867126464844,-0.0075236850314670135,0.38133333333333336,0.4475,-0.0020141177707248266,-4.691023486206056,1.2743760347366333,25.224430084228516,0.00772857666015625,-0.1626055399576823
8286,-0.9195043758734809,0.05976563930511475,88.99431610107422,87.6031723022461,-10.76292610168457,90.99920654296875,-0.012069914076063368,0.37866666666666665,0.4442857142857143,0.000213623046875,-4.581162112304689,0.9228240251541138,25.224430084228516,0.0154571533203125,-0.18624591827392578
8287,-0.7866918758734809,0.01992187976837158,84.73905181884766,83.85935974121094,-9.74002456665039,91.1628646850586,-0.012069914076063368,0.375,0.43785714285714283,-0.0001220703125,-5.053560870239259,-1.153530734130861,25.224430084228516,0.009774356418185763,-0.17669876946343316
8288,-0.8413793758734809,0.03984375953674316,84.16622924804688,83.40928649902344,-10.906131744384766,91.1628646850586,-0.004568650987413194,0.373,0.43464285714285716,-0.0015258365207248264,-5.4051119261474625,-1.7467752867431656,25.224430084228516,0.008410474989149305,-0.189655515882704
8289,-0.8179418758734809,0.03984375953674316,82.71371459960938,82.52958679199219,-10.210559844970703,91.59248352050781,-0.002750142415364583,0.36833333333333335,0.42928571428571427,-0.0033873664008246527,-5.866524355957033,-2.6915708952636734,25.224430084228516,0.002045864529079861,-0.18670048183865018
8290,0.9828393741265191,0.05976563930511475,83.16378784179688,82.40684509277344,-9.658195495605469,90.569580078125,-0.015252261691623263,0.36466666666666664,0.42607142857142855,-0.0020141177707248266,-6.745403903076173,-2.922276156494142,25.136539459228516,0.008410474989149305,-0.16919750637478298
8291,0.8148706241265191,0.05976563930511475,85.98699188232422,85.43462371826172,-10.128726959228516,90.93782806396484,-0.012069914076063368,0.3596666666666667,0.4228571428571429,3.0517578125e-05,-6.844278948852541,-1.4171949797363297,25.136539459228516,0.006137424045138889,-0.17851727803548176
8292,0.8656518741265191,0.09960939407348633,83.81844329833984,82.83645629882812,-9.023994445800781,89.79217529296875,-0.0018409305148654514,0.3536666666666667,0.4203571428571429,-0.0008544498019748264,-7.228788989135744,-1.4062086516113297,25.136539459228516,0.01091096666124132,-0.15351299709743924
8293,0.8578393741265191,0.07968751907348633,82.5091323852539,81.62944030761719,-8.778499603271484,89.52622985839844,-0.0002497355143229167,0.3463333333333333,0.41785714285714287,-0.0021972232394748266,-6.558642046997072,-0.7800070219726578,25.136539459228516,0.009774356418185763,-0.14783032735188803
8294,0.8773706241265191,0.05976563930511475,85.14820861816406,82.65233612060547,-8.921707153320312,89.58760070800781,0.0024779849582248262,0.3396666666666667,0.415,-0.003967157999674479,-5.635819094726564,0.8678940534591675,25.224430084228516,0.02773191663953993,-0.1501034206814236
8295,-0.9702856258734809,0.03984375953674316,85.37325286865234,84.63676452636719,-9.371780395507812,89.91493225097656,0.009070036146375868,0.3333333333333333,0.4114285714285714,-0.005706617567274305,-5.372154849121095,1.8346620798110962,25.224430084228516,0.008183203803168403,-0.15874125162760416
8296,-0.9429418758734809,0.03984375953674316,84.80043029785156,84.53446960449219,-8.778499603271484,89.71034240722656,-0.0050232781304253475,0.32866666666666666,0.4082142857142857,-0.004424921671549479,-5.591875689575197,1.1535300016403198,25.224430084228516,0.0029551188151041665,-0.14987602233886718
8297,0.9984643741265191,0.05976563930511475,84.94363403320312,84.0434799194336,-8.880790710449219,89.64897155761719,-0.011615286933051215,0.323,0.405,-0.0032958136664496527,-5.4270845823974625,1.3512780666351318,25.224430084228516,0.010001712375217013,-0.15033069186740453
8298,-0.8491918758734809,0.05976563930511475,86.53935241699219,85.98699188232422,-8.492088317871094,89.13752746582031,0.002705298529730903,0.31766666666666665,0.4025,-0.004974238077799479,-5.4490572386474625,1.966494083404541,25.224430084228516,0.006137339274088541,-0.14032906426323785
8299,-0.8530981258734809,0.07968751907348633,86.19157409667969,85.557373046875,-8.451171875,89.13752746582031,-0.0043413374159071184,0.31333333333333335,0.3992857142857143,-0.004730097452799479,-4.943701403686525,1.3842360973358154,25.224430084228516,0.007046678331163195,-0.13987443712022568
8300,-0.8296606258734809,0.05976563930511475,83.67523193359375,84.61630249023438,-7.960178375244141,88.52378845214844,-0.009569507175021702,0.30733333333333335,0.3967857142857143,-0.0027770148383246527,-4.4273592406005875,0.5383139848709106,26.367000579833984,-0.010456339518229166,-0.1275996314154731
8301,-0.8921606258734809,0.03984375953674316,84.14576721191406,83.22515869140625,-7.9806365966796875,88.64653015136719,-0.013433795505099827,0.30366666666666664,0.39321428571428574,-0.0014953189425998264,-3.87805809313965,0.5383139848709106,28.388469696044922,0.010228983561197917,-0.12919074164496527
8302,-0.9155981258734809,0.05976563930511475,84.53446960449219,83.69569396972656,-8.062469482421875,88.72836303710938,-0.010478719075520834,0.2986666666666667,0.39035714285714285,-0.0010985904269748264,-3.174954073974611,1.3293060064315796,28.388469696044922,0.009319729275173612,-0.1310092502170139
8303,-0.8999731258734809,0.05976563930511475,85.78240966796875,85.98699188232422,-8.144302368164062,88.58515930175781,-0.009114880032009548,0.2946666666666667,0.38571428571428573,-0.000244140625,-2.856360095092775,0.9887400269508362,28.56424903869629,-0.002273135715060764,-0.13032735188802083
8304,-0.9273168758734809,0.05976563930511475,84.06393432617188,83.28652954101562,-7.5919342041015625,88.38057708740234,-0.018889236450195312,0.29033333333333333,0.38321428571428573,0.0010375552707248264,-3.251856463500978,-0.18676246936035312,31.113059997558594,0.008637830946180555,-0.12191679212782118
8305,-0.9820043758734809,0.05976563930511475,84.20714569091797,83.5934066772461,-7.3668975830078125,88.0737075805664,-0.0059324900309244795,0.2866666666666667,0.3796428571428571,0.0017699771457248264,-3.4056612425537125,-0.3625379973144547,35.15599822998047,0.006819322374131944,-0.11600672403971354
8306,0.9437768741265191,0.05976563930511475,85.98699188232422,84.20714569091797,-6.916820526123047,87.82821655273438,-0.01797998216417101,0.2833333333333333,0.3775,0.0035093943277994793,-2.955235140869142,-0.13183273608398594,37.79269790649414,0.01977606879340278,-0.10827818976508247
8307,0.9398706241265191,0.07968751907348633,87.03034973144531,86.92805480957031,-6.998653411865234,87.78729248046875,-0.010933346218532987,0.28,0.3742857142857143,0.003967157999674479,-2.4388929777832047,-0.03295769030761875,39.462608337402344,0.0011366102430555556,-0.10873273213704428
8308,0.9750268741265191,0.07968751907348633,83.71615600585938,83.83889770507812,-6.67132568359375,87.45996856689453,-0.006387117173936632,0.2763333333333333,0.37214285714285716,0.0027770148383246527,-2.1312853270263687,-0.6701475554199234,40.42940139770508,-0.0013637966579861111,-0.10145882500542534
8309,-0.9937231258734809,0.09960939407348633,83.83889770507812,83.38882446289062,-6.425830841064453,87.1121826171875,-0.002522828843858507,0.2733333333333333,0.37,0.0010680728488498264,-1.5929705076904312,-0.5383154326171891,40.86885070800781,0.0050008138020833336,-0.09486681620279948
8310,-0.9663793758734809,0.07968751907348633,85.39370727539062,84.71859741210938,-6.405372619628906,87.17355346679688,-0.012979168362087673,0.27,0.36892857142857144,9.1552734375e-05,-1.2853628569335953,0.9008520245552063,44.12078094482422,0.007501220703125,-0.09532140096028646
8311,-0.8530981258734809,0.07968751907348633,85.76194763183594,85.16867065429688,-6.916820526123047,87.41905212402344,0.008615409003363715,0.26666666666666666,0.36714285714285716,-0.0020751529269748266,-1.1974741392822281,1.9774800539016724,45.966468811035156,0.006591966417100695,-0.10373191833496094
8312,-0.8491918758734809,0.09960939407348633,85.5164566040039,85.08683776855469,-7.060028076171875,87.68500518798828,-0.003204769558376736,0.2633333333333333,0.36642857142857144,-0.0016479068332248264,-1.2633902006835953,1.8017040491104126,46.40591812133789,0.004773542616102431,-0.1082781473795573
8313,-0.8609106258734809,0.09960939407348633,86.13019561767578,85.5982894897461,-7.1418609619140625,87.93049621582031,-0.009569507175021702,0.25966666666666666,0.36607142857142855,-0.00054931640625,-1.7907186918945328,0.6701459884643555,47.987937927246094,0.0059100680881076385,-0.11191507975260416
8314,-0.7632543758734809,0.03984375953674316,85.96653747558594,85.63920593261719,-6.998653411865234,88.0737075805664,-0.017070770263671875,0.25566666666666665,0.36607142857142855,0.0014648013644748264,-2.3290335112304703,-0.2526785307617203,48.075828552246094,0.003637017144097222,-0.11191512213812935
8315,-0.8413793758734809,0.03984375953674316,82.550048828125,84.5140151977539,-7.612392425537109,88.58515930175781,-0.009114880032009548,0.252,0.36607142857142855,0.0014342837863498264,-2.153256075927736,-1.0656420164794937,48.075828552246094,-0.02182184855143229,-0.12441724141438802
8316,-0.8804418758734809,0.03984375953674316,83.49111938476562,82.89783477783203,-7.632850646972656,88.6056137084961,-0.01797998216417101,0.24833333333333332,0.36642857142857144,0.0017699771457248264,-2.537766116210939,-1.120571749755861,48.075828552246094,0.0065920511881510414,-0.124871826171875
8317,-0.9155981258734809,0.03984375953674316,85.16867065429688,85.74149322509766,-6.487205505371094,88.1146240234375,-0.004568650987413194,0.24233333333333335,0.3675,0.0011291080050998264,-3.3067861967773453,0.10986000299453735,48.075828552246094,-0.006364695231119792,-0.10668699476453992
8318,-0.8921606258734809,0.07968751907348633,87.62362670898438,87.29630279541016,-7.694225311279297,88.62606811523438,-0.0034320831298828127,0.23966666666666667,0.36857142857142855,0.00018310546875,-3.515520709106447,1.1535300016403198,46.84537124633789,0.003636932373046875,-0.12578103807237412
8319,-0.7476293758734809,0.01992187976837158,88.13508605957031,87.64408874511719,-7.612392425537109,88.564697265625,-0.012751854790581597,0.235,0.37,0.0013427310519748264,-3.834114687988283,0.2526780068874359,45.79069137573242,0.005455525716145834,-0.12418988545735678
8320,-0.5405981536512586,0.0,85.70057678222656,87.72592163085938,-6.569034576416016,87.48042297363281,-0.017070770263671875,0.23,0.3703571428571429,0.0029601203070746527,-4.31749786669922,-1.6918455534667984,45.43912887573242,-0.022503831651475695,-0.10054952833387587
8321,-0.8570043758734809,0.01992187976837158,84.18669128417969,82.52958679199219,-7.1418609619140625,87.6031723022461,-0.008660252888997395,0.22533333333333333,0.3707142857142857,0.0009154849582248264,-3.812142031738283,-2.845373766967775,44.91178894042969,0.018412272135416668,-0.1082781473795573
8322,-0.8023168758734809,0.01992187976837158,83.08195495605469,82.77508544921875,-7.735141754150391,88.72836303710938,-0.009114880032009548,0.221,0.3703571428571429,-0.0018004947238498264,-3.0870672636718766,-2.801430361816408,43.417659759521484,0.003409661187065972,-0.12737227545844185
8323,-0.8335668758734809,0.01992187976837158,87.37813568115234,83.4501953125,-7.019111633300781,87.82821655273438,-0.007069057888454861,0.21666666666666667,0.3703571428571429,-0.0038145701090494793,-3.3287588530273453,-1.2524038725585953,42.89031982421875,0.04364378187391493,-0.10941475762261285
8324,-0.7398168758734809,0.01992187976837158,88.05325317382812,87.562255859375,-6.9781951904296875,87.72592163085938,-0.0043413374159071184,0.21233333333333335,0.36964285714285716,-0.005218336317274305,-3.0760809355468766,-0.04394401843261875,42.89031982421875,0.005455525716145834,-0.10782352023654514
8325,-0.6499731536512586,0.01992187976837158,85.0050048828125,87.0098876953125,-7.162319183349609,87.97142028808594,-0.013433795505099827,0.20833333333333334,0.36892857142857144,-0.005096266004774305,-2.834389346191408,-0.7690206938476578,42.89031982421875,-0.022276475694444443,-0.11259710523817275
8326,-0.8218481258734809,0.01992187976837158,81.30210876464844,81.30210876464844,-7.203235626220703,88.13508605957031,-0.012979168362087673,0.20433333333333334,0.36714285714285716,-0.005645582411024305,-2.7025572233886734,-2.559738772460939,42.89031982421875,0.0,-0.1148702409532335
8327,-0.8452856258734809,0.0,82.5091323852539,80.74974060058594,-7.244148254394531,88.1555404663086,-0.012069914076063368,0.20066666666666666,0.36607142857142855,-0.0068662431504991316,-2.570725100585939,-1.5929705076904312,42.89031982421875,0.019548797607421876,-0.11555209689670139
8328,-0.8570043758734809,0.03984375953674316,84.1048583984375,82.59095764160156,-7.244148254394531,87.93049621582031,0.00225067138671875,0.19566666666666666,0.36464285714285716,-0.008819325764973959,-2.6256548338623062,0.7690200209617615,42.89031982421875,0.016821119520399306,-0.11305160522460937
8329,-0.9351293758734809,0.05976563930511475,85.455078125,84.32989501953125,-7.080486297607422,87.93049621582031,-0.005705218844943577,0.19333333333333333,0.36392857142857143,-0.0074765947129991316,-2.6476274901123062,1.3952220678329468,42.89031982421875,0.012502034505208334,-0.11123313903808593
8330,-0.9937231258734809,0.03984375953674316,87.35768127441406,86.49844360351562,-6.221248626708984,87.21446990966797,-0.011842600504557292,0.189,0.3628571428571429,-0.004211298624674479,-2.6366411619873062,2.296074151992798,42.89031982421875,0.009547085232204862,-0.09373020595974392
8331,-0.9468481258734809,0.03984375953674316,87.31675720214844,86.94851684570312,-6.650867462158203,87.41905212402344,-0.00775099860297309,0.185,0.3628571428571429,-0.0029296027289496527,-2.153256075927736,2.3290319442749023,42.89031982421875,0.004091559516059028,-0.10077688429090711
8332,-0.9507543758734809,0.07968751907348633,87.76683807373047,87.21446990966797,-6.569034576416016,87.70545959472656,-0.009114880032009548,0.18133333333333335,0.36214285714285716,-0.0017394595675998264,-1.9884668760986344,1.8456480503082275,42.89031982421875,0.006137424045138889,-0.10304993523491754
8333,-0.9507543758734809,0.07968751907348633,85.18913269042969,86.53935241699219,-5.914379119873047,87.6031723022461,0.0008868323432074653,0.17766666666666667,0.36142857142857143,3.0517578125e-05,-1.9005781584472672,0.8349360227584839,42.97821044921875,-0.01500244140625,-0.09463946024576823
8334,0.9633081241265191,0.05976563930511475,86.02790832519531,86.21202850341797,-5.689342498779297,86.45751953125,-0.01911655002170139,0.17333333333333334,0.3603571428571429,0.0029906378851996527,-1.560013430664064,0.19774800539016724,45.966468811035156,-0.002045779758029514,-0.07940957811143663
8335,0.9554956241265191,0.05976563930511475,85.68012237548828,85.23004150390625,-5.7507171630859375,86.62118530273438,-0.002750142415364583,0.16933333333333334,0.3603571428571429,0.0033568488226996527,-0.49437012011718906,0.06591600179672241,48.075828552246094,0.00500089857313368,-0.08191002739800347
8336,0.9008081241265191,0.05976563930511475,89.34210205078125,85.08683776855469,-6.67132568359375,87.62362670898438,-0.012297227647569445,0.16533333333333333,0.36,0.004730097452799479,0.2856360077857971,-0.06591667468261875,48.60316848754883,0.04728071424696181,-0.10327724880642361
8337,0.9476831241265191,0.07968751907348633,86.559814453125,86.13019561767578,-6.098503112792969,87.0712661743164,-0.00775099860297309,0.16066666666666668,0.35964285714285715,0.0037840525309244793,-0.07690300280761875,0.2856360077857971,48.60316848754883,0.004773542616102431,-0.09077521430121528
8338,-0.9234106258734809,0.05976563930511475,84.92317199707031,85.5982894897461,-6.180332183837891,87.05081176757812,0.0056603749593098955,0.158,0.35928571428571426,0.00042724609375,-0.09887375170898594,-0.01098694140625156,48.69105911254883,-0.007501305474175347,-0.09145715501573351
8339,-0.8491918758734809,0.03984375953674316,83.61386108398438,82.42729949951172,-7.1418609619140625,87.35768127441406,-0.007296371459960938,0.15466666666666667,0.3585714285714286,-0.0010070376925998264,0.4284540116786957,-0.9338098936767594,48.69105911254883,0.013184017605251737,-0.10555046929253473
8340,-0.9155981258734809,0.05976563930511475,85.31187438964844,83.08195495605469,-7.407814025878906,88.40103149414062,-0.009569507175021702,0.15133333333333332,0.3578571428571429,-0.000640869140625,0.2856360077857971,-0.5163427763671891,48.69105911254883,0.024776882595486112,-0.12009828355577257
8341,-0.9195043758734809,0.01992187976837158,85.92561340332031,85.23004150390625,-7.5305633544921875,87.64408874511719,-0.013661109076605903,0.148,0.35714285714285715,0.000335693359375,-0.5163427763671891,0.06591600179672241,48.427391052246094,0.00772857666015625,-0.11305168999565972
8342,-0.9038793758734809,0.05976563930511475,86.0688247680664,86.15065002441406,-6.9781951904296875,87.80775451660156,-0.00047704908582899306,0.145,0.35714285714285715,-0.0010070376925998264,-1.2304331236572281,-0.03295769030761875,47.81216049194336,-0.0009091695149739584,-0.10873277452256945
8343,-0.5484106536512586,0.01992187976837158,86.74394226074219,82.14088439941406,-7.325981140136719,88.0123291015625,-0.009796820746527778,0.14033333333333334,0.3578571428571429,-0.0022582160101996527,-1.560013430664064,-0.3076082640380875,47.72426986694336,0.05114508734809028,-0.11487011379665799
8344,-0.9155981258734809,0.03984375953674316,88.42149353027344,89.05569458007812,-7.182777404785156,87.37813568115234,0.005205747816297743,0.13966666666666666,0.3582142857142857,-0.000762939453125,-2.142269747802736,0.6262019872665405,47.196929931640625,-0.007046678331163195,-0.10623236762152778
8345,0.7953393741265191,0.01992187976837158,89.81263732910156,89.26026916503906,-7.3668975830078125,88.38057708740234,-0.021616956922743055,0.13566666666666666,0.3585714285714286,0.004333368937174479,-2.3510042601318375,0.29662200808525085,47.109039306640625,0.006137424045138889,-0.11941638522677951
8346,0.8773706241265191,0.03984375953674316,88.21691131591797,86.43707275390625,-6.834991455078125,88.1555404663086,-0.02525397406684028,0.132,0.35964285714285715,0.004089228312174479,-3.0321375303955094,-0.5163427763671891,46.58169937133789,0.01977598402235243,-0.1110059102376302
8347,-0.6812231258734809,0.03984375953674316,85.27096557617188,85.61874389648438,-6.773616790771484,87.72592163085938,0.011570443047417535,0.12933333333333333,0.3603571428571429,-0.0032652960883246527,-3.207913058349611,-0.9008528166503922,46.318031311035156,-0.0038642035590277777,-0.10555042690700955
8348,-0.5991919036512586,0.03984375953674316,86.43707275390625,84.6572265625,-7.244148254394531,88.13508605957031,-0.005250591701931423,0.12566666666666668,0.3607142857142857,-0.005767652723524305,-2.856360095092775,-1.2963491850585953,46.318031311035156,0.01977606879340278,-0.11532482571072049
8349,-0.5601294036512586,0.03984375953674316,85.1072998046875,84.554931640625,-7.264606475830078,88.13508605957031,-0.01252454121907552,0.12233333333333334,0.3607142857142857,-0.006469557020399305,-2.7245279722900406,-1.3732515745849625,45.79069137573242,0.006137424045138889,-0.11555213928222656
8350,-0.6695044036512586,0.03984375953674316,82.85691833496094,81.547607421875,-7.100944519042969,88.09416198730469,-0.011615286933051215,0.11766666666666667,0.3607142857142857,-0.0073240068223741316,-2.878332751342775,-1.4940973692626969,45.26335144042969,0.014547899034288195,-0.11327896118164063
8351,-0.3413794036512587,0.01992187976837158,86.1097412109375,84.30943298339844,-7.162319183349609,87.68500518798828,-0.011615286933051215,0.11333333333333333,0.3607142857142857,-0.006042310926649305,-2.9991785460205094,-0.09887375170898594,44.29655838012695,0.020003424750434026,-0.10941471523708768
8352,-0.19294190365125866,0.0,87.48042297363281,86.74394226074219,-7.551021575927734,88.48286437988281,-0.02207158406575521,0.109,0.3603571428571429,-0.0029601203070746527,-2.9881922178955094,0.6701459884643555,44.12078094482422,0.008183119032118056,-0.12259873284233941
8353,-0.5601294036512586,0.0,85.72103881835938,84.90271759033203,-6.241706848144531,87.15309143066406,0.0024779849582248262,0.10533333333333333,0.3603571428571429,-0.0034178839789496527,-3.229883807250978,0.4723980128765106,43.241878509521484,0.009092458089192708,-0.09327553643120659
8354,-0.17731690365125866,0.0,86.64164733886719,82.28408813476562,-7.612392425537109,87.6031723022461,-0.009342193603515625,0.10133333333333333,0.35964285714285715,-0.0020141177707248266,-2.6695982390136734,0.32958000898361206,43.153987884521484,0.04841732449001736,-0.1135062747531467
8355,-0.17731690365125866,0.0,85.39370727539062,85.53691101074219,-6.650867462158203,88.17599487304688,-0.014115693834092882,0.09666666666666666,0.3585714285714286,-0.0015868716769748264,-2.482836382934572,0.38451001048088074,43.153987884521484,-0.001591152615017361,-0.10918735928005642
8356,-0.4429419036512586,0.01992187976837158,85.63920593261719,85.90515899658203,-6.650867462158203,87.76683807373047,-0.0034320831298828127,0.09333333333333334,0.3578571428571429,-0.0029601203070746527,-2.241144793579103,0.9008520245552063,43.153987884521484,-0.0029550340440538192,-0.10464117262098524
8357,-0.4468481536512586,0.03984375953674316,86.72348022460938,89.83309936523438,-6.875904083251953,87.84866333007812,-0.00047704908582899306,0.08933333333333333,0.35678571428571426,-0.004333368937174479,-1.7907186918945328,1.2414180040359497,43.153987884521484,-0.03455132378472222,-0.10805074903700086
8358,-0.3765356536512587,0.03984375953674316,86.559814453125,85.90515899658203,-6.957736968994141,87.88958740234375,-0.009342193603515625,0.08533333333333333,0.35535714285714287,-0.004272333780924479,-1.7028299742431656,0.3076080083847046,43.153987884521484,0.0072739495171440975,-0.10941471523708768
8359,-0.2632544036512587,0.03984375953674316,81.9976806640625,86.43707275390625,-6.3644561767578125,87.84866333007812,-0.015024948120117187,0.08066666666666666,0.35428571428571426,-0.0034484015570746527,-2.0214239531250016,-0.9118391447753922,43.241878509521484,-0.049326578776041664,-0.10236799452039931
8360,-0.4429419036512586,0.01992187976837158,83.81844329833984,81.32257080078125,-8.430713653564453,89.05569458007812,-0.01616151597764757,0.07766666666666666,0.35285714285714287,-0.0034484015570746527,-1.8676210814209,-1.1864878111572281,44.64812088012695,0.02773191663953993,-0.13873786926269532
8361,-0.6187231536512586,0.0,83.30699157714844,83.5115737915039,-6.078044891357422,87.17355346679688,-0.012069914076063368,0.074,0.35214285714285715,-0.0024108039008246527,-2.4498793059082047,-0.07690300280761875,44.82389831542969,-0.002273135715060764,-0.09168442620171441
8362,-0.7710668758734809,0.01992187976837158,87.91004180908203,86.76439666748047,-6.262165069580078,88.21691131591797,-0.010478719075520834,0.07033333333333333,0.3517857142857143,-0.0020141177707248266,-2.142269747802736,0.8459219932556152,44.82389831542969,0.012729390462239584,-0.1053230709499783
8363,-0.6109106536512586,0.0,87.86912536621094,86.94851684570312,-6.691783905029297,87.74638366699219,0.0002048916286892361,0.06633333333333333,0.3514285714285714,-0.0016173892550998264,-1.8456484251709,0.32958000898361206,44.82389831542969,0.010228983561197917,-0.1048685285780165
8364,-0.9663793758734809,0.01992187976837158,84.6572265625,84.98455047607422,-6.67132568359375,87.84866333007812,-0.01616151597764757,0.06233333333333333,0.35035714285714287,-9.1552734375e-05,-1.2414194517822281,-0.5602861815185562,44.82389831542969,-0.003636932373046875,-0.10577765570746528
8365,-0.9898168758734809,0.01992187976837158,86.39614868164062,81.40440368652344,-6.3644561767578125,87.03034973144531,-0.015252261691623263,0.057666666666666665,0.35,-0.00042724609375,-0.9887415343017594,-0.05493034655761875,45.966468811035156,0.05546383327907986,-0.09327562120225695
8366,-0.7984106258734809,0.03984375953674316,87.25538635253906,84.71859741210938,-6.466747283935547,87.80775451660156,0.00543306138780382,0.053,0.35,-0.0029296027289496527,-0.9887415343017594,1.021697998046875,46.054359436035156,0.028186543782552084,-0.10305002000596789
8367,-0.7593481258734809,0.05976563930511475,90.40591430664062,88.54424285888672,-7.223690032958984,88.05325317382812,0.0024779849582248262,0.049666666666666665,0.35,-0.005492994520399305,-0.8678938322753922,1.4721240997314453,46.054359436035156,0.020685238308376735,-0.1141882578531901
8368,-0.5366919036512586,0.05976563930511475,86.17111206054688,83.90027618408203,-6.1394195556640625,86.74394226074219,0.0004322052001953125,0.045,0.3510714285714286,-0.006286451551649305,-1.2524038725585953,0.3076080083847046,46.054359436035156,0.025231509738498265,-0.08759290907118056
8369,-0.7554418758734809,0.05976563930511475,81.75218200683594,80.87248992919922,-5.771175384521484,86.76439666748047,-0.012069914076063368,0.041,0.3510714285714286,-0.004669062296549479,-1.8895918303222672,-1.2194467955322281,46.318031311035156,0.009774356418185763,-0.08372857835557726
8370,-0.7984106258734809,0.03984375953674316,81.52714538574219,81.64989471435547,-5.709800720214844,86.53935241699219,-0.022526211208767362,0.037333333333333336,0.3517857142857143,-0.0036619822184244793,-1.516068118164064,-1.3842359953613297,47.284820556640625,-0.0013638814290364584,-0.08054614596896702
8371,-0.8491918758734809,0.07968751907348633,76.14669799804688,80.38150024414062,-5.382472991943359,86.17111206054688,0.0004322052001953125,0.034,0.3517857142857143,-0.0065610673692491316,-0.8898664885253922,-1.4062086516113297,47.987937927246094,-0.047053358289930555,-0.07281761169433594
8372,-0.8921606258734809,0.07968751907348633,81.79310607910156,84.5958480834961,-6.548576354980469,88.03279113769531,-0.013661109076605903,0.030333333333333334,0.35285714285714287,-0.005554029676649305,-0.2966219359130875,0.4943700134754181,48.339500427246094,-0.031141577826605902,-0.10645963880750868
8373,-0.18122315365125866,0.0,84.84133911132812,89.38301849365234,-6.9781951904296875,87.70545959472656,-0.014115693834092882,0.025,0.35285714285714287,-0.0011596255832248264,-0.6921183043212906,0.4723980128765106,48.339500427246094,-0.050463104248046876,-0.10759616427951389
8374,0.9515893741265191,0.09960939407348633,86.27340698242188,82.26363372802734,-5.934837341308594,87.23492431640625,-0.012979168362087673,0.024333333333333332,0.3532142857142857,0.0010985904269748264,-1.6918455534667984,-0.02197326953125156,48.339500427246094,0.04455303615993923,-0.09077512953016494
8375,0.8148706241265191,0.05976563930511475,88.1146240234375,87.70545959472656,-6.466747283935547,87.33721923828125,-0.0054779052734375,0.02,0.3539285714285714,0.0034178839789496527,-1.538040774414064,1.2084600925445557,46.58169937133789,0.004546271430121528,-0.0978218502468533
8376,0.5258081241265191,0.03984375953674316,80.36103820800781,92.10392761230469,-6.221248626708984,89.77172088623047,-0.008887566460503472,0.016666666666666666,0.3535714285714286,0.0063779619004991316,-1.175503390380861,0.2856360077857971,44.82389831542969,-0.13047654893663194,-0.12214410569932725
8377,0.5375268741265191,0.05976563930511475,88.54424285888672,78.37661743164062,-9.044452667236328,90.65141296386719,-0.020480431450737847,0.013333333333333334,0.35214285714285715,0.0072934892442491316,-0.9447962218017594,-0.3954969816894547,41.74774932861328,0.11297361585828992,-0.16328739590115018
8378,0.7797143741265191,0.05976563930511475,85.96653747558594,87.88958740234375,-7.44873046875,85.39370727539062,0.0006595187717013889,0.009,0.3489285714285714,0.005859205457899305,-0.6811319761962906,0.790992021560669,37.704811096191406,-0.02136722140842014,-0.08713819715711806
8379,0.8148706241265191,0.07968751907348633,90.54912567138672,89.09660339355469,-1.2499542236328125,86.25294494628906,-0.014570320977105035,0.006333333333333333,0.3464285714285714,0.0063169267442491316,0.5053560137748718,1.1095860004425049,32.6950798034668,0.0161391364203559,-0.027809990776909724
8380,0.8148706241265191,0.05976563930511475,81.58851623535156,88.95339965820312,-3.5821685791015625,86.31431579589844,0.0011141459147135417,0.004,0.3414285714285714,0.006286451551649305,2.197200059890747,-0.03295769030761875,27.245899200439453,-0.08183203803168403,-0.05440538194444444
8381,0.8070581241265191,0.03984375953674316,86.5188980102539,78.68348693847656,-3.479877471923828,84.69813537597656,0.0017960866292317708,0.0006666666666666666,0.3367857142857143,0.005035230848524305,2.8893179893493652,-0.845923083374025,25.136539459228516,0.08706012301974826,-0.035311253865559895
8382,0.8070581241265191,0.05976563930511475,90.97874450683594,74.77600860595703,-3.4185028076171875,84.0025634765625,0.002932612101236979,0.0,0.33035714285714285,0.004424921671549479,3.548478126525879,-0.2746511870117203,24.96076011657715,0.18003039889865452,-0.026900736490885417
8383,0.8109643741265191,0.05976563930511475,80.545166015625,93.86331939697266,-1.9046134948730469,81.9976806640625,-0.0043413374159071184,-0.0016666666666666668,0.32535714285714284,0.006133863661024305,3.548478126525879,0.8678940534591675,24.96076011657715,-0.14797948201497396,0.012196731567382813
8384,0.8695581241265191,0.07968751907348633,89.85355377197266,85.20958709716797,-0.4725532531738281,81.62944030761719,-0.014797634548611112,-0.0006666666666666666,0.31892857142857145,0.005157301161024305,3.603408098220825,-0.09887375170898594,24.96076011657715,0.05159962972005208,0.03220007154676649
8385,0.9672143741265191,0.05976563930511475,83.20470428466797,83.40928649902344,-0.5339241027832031,80.27920532226562,0.011570443047417535,-0.0006666666666666666,0.315,0.0018004947238498264,4.295526027679443,-0.6701475554199234,24.96076011657715,-0.002273135715060764,0.04652078416612413
8386,0.9906518741265191,0.01992187976837158,79.33814239501953,77.70149993896484,1.0413398742675781,78.9903564453125,-0.002068201700846354,0.0,0.30892857142857144,-0.0,5.361167907714844,-0.845923083374025,24.96076011657715,0.018184916178385416,0.07834426032172309
