,WD,WS,AIL_1,AIL_2,ELEV_1,ELEV_2,RUDD,ALT,GS,TH,PTCH,ROLL,PLA_1,AIL,ELEV
4628,0.06075970732964417,0.3785157012939453,83.26608276367188,81.8953857421875,-1.3113288879394531,87.21446990966797,-0.017070770263671875,0.47533333333333333,0.4782142857142857,0.008909520458984351,1.2743760347366333,0.5053560137748718,43.76921844482422,0.015229966905381944,-0.03917554219563802
4629,0.06075970732964417,0.3785157012939453,83.28652954101562,84.37080383300781,-1.0453758239746094,86.74394226074219,-0.009114880032009548,0.4746666666666667,0.47785714285714287,0.009458752094184003,1.1645159721374512,0.8239500522613525,44.64812088012695,-0.012047492133246528,-0.030992423163519967
4630,0.06075970732964417,0.41835948944091794,83.28652954101562,83.1024169921875,-1.0044593811035156,86.92805480957031,-0.01616151597764757,0.47433333333333333,0.4775,0.009672375141059003,1.175502061843872,0.6921180486679077,44.64812088012695,0.0020456949869791666,-0.03258349100748698
4631,0.05685345732964417,0.3785157012939453,83.26608276367188,83.69569396972656,-0.8407974243164062,86.78485107421875,-0.012297227647569445,0.474,0.47714285714285715,0.009245213818359351,0.9008520245552063,0.08788800239562988,44.56023025512695,-0.004773457845052083,-0.02917387220594618
4632,0.06857220732964417,0.39843757629394533,83.26608276367188,82.16134643554688,-1.1272087097167969,86.90760040283203,-0.017070770263671875,0.47533333333333333,0.4764285714285714,0.010008068500434003,1.032684087753296,-0.4504267149658219,43.241878509521484,0.012274848090277778,-0.033720101250542533
4633,0.07638470732964417,0.3585938262939453,83.26608276367188,83.30699157714844,-1.0453758239746094,86.98943328857422,-0.01252454121907552,0.4756666666666667,0.4757142857142857,0.010160656391059003,1.0436700582504272,0.032958000898361206,42.97821044921875,-0.00045454237196180554,-0.033720101250542533
4634,0.06857220732964417,0.3585938262939453,83.26608276367188,83.32745361328125,-1.1272087097167969,86.92805480957031,-0.009796820746527778,0.4756666666666667,0.47535714285714287,0.009275731396484351,1.0876140594482422,0.5383139848709106,44.12078094482422,-0.0006818983289930556,-0.03394737243652344
4635,0.05294720732964417,0.3585938262939453,83.28652954101562,83.0001220703125,-1.0658340454101562,86.86668395996094,-0.008205625745985243,0.47533333333333333,0.47535714285714287,0.007963475537109351,1.1535300016403198,0.4284540116786957,44.91178894042969,0.003182305230034722,-0.032583533393012155
4636,0.05685345732964417,0.33867195129394534,83.24562072753906,81.97721862792969,-1.0453758239746094,86.84622192382812,-0.012751854790581597,0.4756666666666667,0.4757142857142857,0.008055028271484351,1.1645159721374512,0.41746801137924194,45.70280075073242,0.01409335666232639,-0.032128863864474826
4637,0.05294720732964417,0.33867195129394534,83.28652954101562,83.40928649902344,-0.8817138671875,86.78485107421875,-0.010478719075520834,0.476,0.4767857142857143,0.007871922802734351,1.1315580606460571,0.7031040191650391,46.66958999633789,-0.0013639662000868055,-0.029628499348958334
4638,0.04513470732964417,0.33867195129394534,83.26608276367188,83.38882446289062,-0.5748405456542969,86.82576751708984,-0.013661109076605903,0.475,0.4775,0.007597264599609351,1.0876140594482422,0.6262019872665405,47.54848861694336,-0.0013637966579861111,-0.02667342291937934
4639,0.03341595732964417,0.3187500762939453,83.26608276367188,82.91828918457031,-0.28842926025390625,86.76439666748047,-0.011387973361545138,0.476,0.4789285714285714,0.006346128667534698,1.021697998046875,0.23070600628852844,47.72426986694336,0.0038643731011284723,-0.02280917697482639
4640,0.013884707329644167,0.29882820129394533,83.26608276367188,83.57295227050781,0.01844024658203125,86.88714599609375,-0.0050232781304253475,0.4756666666666667,0.47964285714285715,0.004789732183159698,1.1425440311431885,0.24169200658798218,47.72426986694336,-0.003409661187065972,-0.020763397216796875
4641,0.017790957329644166,0.3187500762939453,83.26608276367188,82.550048828125,0.44805908203125,86.78485107421875,-0.011615286933051215,0.47533333333333333,0.4810714285714286,0.004667661870659698,1.2414180040359497,0.05493000149726868,47.72426986694336,0.0079559326171875,-0.014853244357638889
4642,0.029509707329644166,0.3187500762939453,83.26608276367188,82.57050323486328,-0.3498039245605469,86.98943328857422,-0.015024948120117187,0.47633333333333333,0.48178571428571426,0.005369566167534698,1.2963480949401855,0.07690200209617615,49.39418029785156,0.007728661431206597,-0.025991524590386283
4643,0.021697207329644166,0.29882820129394533,83.26608276367188,83.20470428466797,-0.329345703125,86.92805480957031,-0.009569507175021702,0.4766666666666667,0.4832142857142857,0.004759214605034698,1.3183200359344482,0.35155200958251953,49.5699577331543,0.0006819831000434028,-0.025082227918836804
4644,0.009978457329644167,0.29882820129394533,83.26608276367188,83.28652954101562,0.32530975341796875,86.92805480957031,-0.008660252888997395,0.4756666666666667,0.48428571428571426,0.004118345464409698,1.3293060064315796,0.9997260570526123,49.5699577331543,-0.00022718641493055556,-0.017808278401692707
4645,-0.001740264892578125,0.3187500762939453,83.26608276367188,82.97966003417969,1.839202880859375,86.92805480957031,-0.010478719075520834,0.47633333333333333,0.4857142857142857,0.0032639380479600453,1.3293060064315796,0.5822579860687256,49.48207092285156,0.0031824747721354166,-0.00098724365234375
4646,-0.001740264892578125,0.2789063262939453,83.26608276367188,82.48867797851562,1.6550788879394531,86.90760040283203,-0.012297227647569445,0.476,0.48642857142857143,0.0033249732042100453,1.3183200359344482,0.4394400119781494,49.39418029785156,0.008637830946180555,-0.002805794609917535
4647,-0.005646514892578125,0.25898443222045897,83.26608276367188,83.26608276367188,-0.7589645385742188,87.09172058105469,-0.015252261691623263,0.47633333333333333,0.4878571428571429,0.0032639380479600453,1.3842360973358154,0.7690200209617615,49.39418029785156,0.0,-0.03167427910698785
4648,-0.021271514892578124,0.29882820129394533,83.24562072753906,83.77752685546875,-0.8203392028808594,86.86668395996094,-0.009342193603515625,0.4766666666666667,0.48857142857142855,0.0019530402289496527,1.252403974533081,0.8349360227584839,49.21839904785156,-0.0059100680881076385,-0.02985581292046441
4649,-0.04470901489257813,0.25898443222045897,83.26608276367188,83.24562072753906,-0.8817138671875,87.09172058105469,-0.007978312174479167,0.47633333333333333,0.4903571428571429,0.0006103515625,1.3293060064315796,0.4614120125770569,49.48207092285156,0.00022735595703125,-0.033038160536024305
4650,-0.03689651489257813,0.2789063262939453,83.26608276367188,81.81356048583984,-0.8817138671875,87.03034973144531,-0.01070603264702691,0.47633333333333333,0.49107142857142855,0.0008238898383246528,1.5050820112228394,0.010986000299453735,49.48207092285156,0.0161391364203559,-0.03235626220703125
4651,-0.005646514892578125,0.2789063262939453,83.26608276367188,81.9567642211914,-1.0044593811035156,87.0098876953125,-0.014570320977105035,0.4766666666666667,0.49178571428571427,0.0031418677354600453,1.3732500076293945,1.032684087753296,49.39418029785156,0.014547983805338541,-0.03349274529351128
4652,-0.005646514892578125,0.29882820129394533,83.24562072753906,82.79554748535156,-1.1272087097167969,86.88714599609375,-0.012069914076063368,0.477,0.4925,0.003752134526909698,1.4391660690307617,1.735788106918335,48.86684036254883,0.0050008138020833336,-0.033492830064561635
4653,-0.025177764892578124,0.3187500762939453,83.26608276367188,83.34790802001953,-1.2499542236328125,87.15309143066406,-0.012979168362087673,0.4766666666666667,0.4928571428571429,0.0028366919542100453,1.263390064239502,2.032410144805908,47.987937927246094,-0.0009091695149739584,-0.03781161838107639
4654,-0.017365264892578124,0.33867195129394534,83.26608276367188,83.4501953125,-1.7000312805175781,86.86668395996094,-0.006387117173936632,0.4766666666666667,0.4928571428571429,0.004057310308159698,1.2084600925445557,1.922550082206726,46.40591812133789,-0.0020456949869791666,-0.03963016933865017
4655,-0.001740264892578125,0.3585938262939453,83.28652954101562,83.38882446289062,-2.088733673095703,87.19401550292969,-0.01616151597764757,0.47733333333333333,0.4928571428571429,0.006224058355034698,1.3183200359344482,1.6259280443191528,45.26335144042969,-0.0011366102430555556,-0.04758610195583767
4656,-0.029084014892578124,0.3785157012939453,83.26608276367188,83.28652954101562,-1.3522453308105469,86.96897888183594,-0.00775099860297309,0.47633333333333333,0.49214285714285716,0.0035385962510850453,1.2304320335388184,-0.4614130430908219,44.38444900512695,-0.00022718641493055556,-0.0369024912516276
4657,-0.009552764892578124,0.3785157012939453,83.26608276367188,82.24317932128906,-0.9840011596679688,87.1121826171875,-0.01797998216417101,0.47733333333333333,0.4907142857142857,0.004667661870659698,1.1974740028381348,-2.230158465454103,42.89031982421875,0.011365593804253473,-0.03440204196506076
4658,0.017790957329644166,0.3585938262939453,83.26608276367188,81.32257080078125,-1.331787109375,87.37813568115234,-0.012297227647569445,0.478,0.48928571428571427,0.005339048589409698,1.340291976928711,-2.142269747802736,42.362979888916016,0.021594577365451388,-0.041221364339192705
4659,0.0021659573296441675,0.3187500762939453,83.22515869140625,81.46577453613281,-1.0453758239746094,87.09172058105469,-0.005250591701931423,0.4786666666666667,0.4875,0.0027146216417100453,0.7360620498657227,-0.9887415343017594,42.01142120361328,0.019548712836371527,-0.034856626722547746
4660,-0.001740264892578125,0.29882820129394533,83.26608276367188,81.58851623535156,-0.9226264953613281,86.78485107421875,-0.009342193603515625,0.4786666666666667,0.48714285714285716,0.0018309699164496527,0.9338099956512451,-0.06591667468261875,41.83563995361328,0.018639628092447916,-0.030083084106445314
4661,0.017790957329644166,0.2789063262939453,83.26608276367188,82.24317932128906,-0.8407974243164062,87.0098876953125,-0.015934202406141493,0.47933333333333333,0.48678571428571427,0.0035385962510850453,0.9887400269508362,0.5712720155715942,44.38444900512695,0.011365593804253473,-0.03167427910698785
4662,0.017790957329644166,0.2789063262939453,83.26608276367188,84.61630249023438,-0.8612556457519531,86.76439666748047,-0.010251405504014757,0.4786666666666667,0.48678571428571427,0.003782652105034698,0.9887400269508362,0.9777539968490601,45.17546081542969,-0.01500244140625,-0.029173914591471353
4663,-0.009552764892578124,0.2789063262939453,83.26608276367188,82.34546661376953,-1.3727035522460938,86.76439666748047,-0.012979168362087673,0.4786666666666667,0.4878571428571429,0.0017699347601996527,1.252403974533081,-0.6371885710449234,46.66958999633789,0.010229068332248265,-0.03485666910807292
4664,-0.001740264892578125,0.3187500762939453,83.24562072753906,82.30455017089844,-1.8432388305664062,86.94851684570312,-0.021844270494249134,0.478,0.48857142857142855,0.0015868292914496527,1.3293060064315796,-0.9997259550781266,47.54848861694336,0.010456339518229166,-0.04213061862521701
4665,-0.013459014892578124,0.29882820129394533,83.26608276367188,83.67523193359375,-2.1501083374023438,86.82576751708984,-0.00775099860297309,0.478,0.48964285714285716,-0.00018310546875,1.3732500076293945,-0.6042314940185562,47.987937927246094,-0.004546101888020833,-0.04417639838324653
4666,-0.03299026489257813,0.2789063262939453,83.24562072753906,82.14088439941406,-2.1501083374023438,87.09172058105469,-0.01070603264702691,0.4776666666666667,0.48928571428571427,-0.001983642578125,1.1864880323410034,-0.18676246936035312,47.987937927246094,0.012274848090277778,-0.04713143242730035
4667,-0.03689651489257813,0.3187500762939453,83.24562072753906,81.26119232177734,-2.252399444580078,86.82576751708984,-0.013661109076605903,0.478,0.48964285714285716,-0.0027159796820746527,1.3183200359344482,0.23070600628852844,46.84537124633789,0.02204920450846354,-0.04531296624077691
4668,-0.03689651489257813,0.2789063262939453,83.26608276367188,82.40684509277344,-2.2933120727539062,87.27584838867188,-0.009569507175021702,0.4766666666666667,0.49,-0.0023497687445746527,1.263390064239502,1.307334065437317,46.58169937133789,0.009547085232204862,-0.05076844957139757
4669,-0.021271514892578124,0.29882820129394533,83.26608276367188,81.9567642211914,-2.477436065673828,86.78485107421875,-0.009114880032009548,0.47733333333333333,0.4903571428571429,-0.00091552734375,1.3183200359344482,1.4831100702285767,46.40591812133789,0.014547983805338541,-0.04735874599880642
4670,0.009978457329644167,0.3187500762939453,83.26608276367188,82.48867797851562,-2.4160614013671875,87.19401550292969,-0.01547957526312934,0.4776666666666667,0.4903571428571429,0.0023789282823350453,1.252403974533081,2.351004123687744,46.318031311035156,0.008637830946180555,-0.051223076714409725
4671,0.009978457329644167,0.3585938262939453,83.26608276367188,83.16378784179688,-2.518352508544922,87.0712661743164,-0.01252454121907552,0.47833333333333333,0.4903571428571429,0.0033860083604600453,1.307334065437317,2.900304079055786,46.318031311035156,0.0011366102430555556,-0.05099576314290365
4672,-0.005646514892578125,0.3187500762939453,83.26608276367188,83.85935974121094,-2.3956031799316406,87.1121826171875,-0.014797634548611112,0.47833333333333333,0.4903571428571429,0.0035691138292100453,1.0107120275497437,2.4059340953826904,46.318031311035156,-0.006591966417100695,-0.05008650885687934
4673,-0.03299026489257813,0.29882820129394533,83.26608276367188,84.06393432617188,-2.4365196228027344,86.84622192382812,-0.006841744316948784,0.478,0.49,0.0025315161729600453,0.9338099956512451,1.4721240997314453,44.29655838012695,-0.00886501736111111,-0.047586017184787326
4674,-0.017365264892578124,0.3187500762939453,83.26608276367188,82.52958679199219,-2.6615562438964844,87.0098876953125,-0.014797634548611112,0.478,0.48964285714285716,0.003874204839409698,1.06564199924469,0.7031040191650391,44.03289031982422,0.00818328857421875,-0.05190493265787761
4675,-0.001740264892578125,0.3585938262939453,83.24562072753906,82.0385971069336,-2.477436065673828,86.82576751708984,-0.01616151597764757,0.4786666666666667,0.48964285714285716,0.005003355230034698,0.8788800239562988,0.9008520245552063,44.29655838012695,0.013411373562282987,-0.04781337314181858
4676,-0.009552764892578124,0.3585938262939453,83.26608276367188,83.40928649902344,-2.8456802368164062,87.17355346679688,-0.010478719075520834,0.47933333333333333,0.48964285714285716,0.004667661870659698,0.9228240251541138,1.5270540714263916,45.17546081542969,-0.001591152615017361,-0.055769263373480905
4677,-0.025177764892578124,0.3585938262939453,83.26608276367188,83.552490234375,-2.9684295654296875,87.25538635253906,-0.011387973361545138,0.479,0.48892857142857143,0.003813169683159698,0.4614120125770569,0.9667680263519287,42.099308013916016,-0.003182305230034722,-0.05804239908854167
4678,-0.021271514892578124,0.3585938262939453,83.26608276367188,83.30699157714844,-3.4594192504882812,87.50088500976562,-0.01797998216417101,0.47933333333333333,0.4882142857142857,0.004209898198784698,0.2526780068874359,0.7250760197639465,40.42940139770508,-0.00045454237196180554,-0.06622560289171008
4679,-0.04080276489257813,0.3585938262939453,83.28652954101562,83.61386108398438,-3.4594192504882812,87.74638366699219,-0.01252454121907552,0.47833333333333333,0.48642857142857143,0.0026230689073350453,-0.3076082640380875,0.5383139848709106,39.11104965209961,-0.003637017144097222,-0.06895336574978299
4680,-0.06814651489257813,0.3187500762939453,83.26608276367188,83.57295227050781,-2.9479713439941406,87.35768127441406,-0.008660252888997395,0.47633333333333333,0.485,0.000335693359375,-0.49437012011718906,-0.7031046324462906,38.407928466796875,-0.003409661187065972,-0.05895169576009115
4681,-0.05252151489257813,0.3187500762939453,83.26608276367188,81.52714538574219,-3.0093421936035156,86.90760040283203,-0.007069057888454861,0.47333333333333333,0.48428571428571426,0.0009764777289496528,-0.6811319761962906,-1.0986010008544937,38.320037841796875,0.01932152642144097,-0.05463269551595052
4682,-0.005646514892578125,0.29882820129394533,83.24562072753906,81.83401489257812,-2.9684295654296875,87.15309143066406,-0.01320648193359375,0.4693333333333333,0.4835714285714286,0.003843687261284698,-0.7360617094726578,-0.4614130430908219,38.671600341796875,0.01568450927734375,-0.05690578884548611
4683,0.05685345732964417,0.3187500762939453,83.26608276367188,81.24073791503906,-3.0502586364746094,87.23492431640625,-0.014343007405598959,0.4673333333333333,0.4832142857142857,0.007902440380859351,-0.7470480375976578,0.35155200958251953,40.07783889770508,0.022503831651475695,-0.05872425503200955
4684,0.08029095732964417,0.3187500762939453,83.26608276367188,84.08439636230469,-2.907054901123047,87.09172058105469,-0.0168434566921658,0.465,0.4832142857142857,0.010404797016059003,-1.2524038725585953,1.2084600925445557,40.25362014770508,-0.00909237331814236,-0.05554194980197483
4685,0.04513470732964417,0.33867195129394534,83.26608276367188,84.30943298339844,-2.907054901123047,86.90760040283203,-0.009342193603515625,0.45966666666666667,0.48392857142857143,0.008055028271484351,-1.6149431639404312,-0.01098694140625156,40.42940139770508,-0.011592780219184027,-0.053496170043945315
4686,0.04122845732964417,0.3187500762939453,83.26608276367188,83.0410385131836,-3.132091522216797,87.21446990966797,-0.01729808383517795,0.45666666666666667,0.48464285714285715,0.007108983349609351,-1.7577597075195328,-0.10986007983398594,40.60517883300781,0.002500491672092014,-0.05940623813205295
4687,0.017790957329644166,0.29882820129394533,83.26608276367188,82.73416900634766,-2.9275131225585938,87.1121826171875,-0.011615286933051215,0.4513333333333333,0.485,0.004942320073784698,-1.7797323637695328,-0.6591612272949234,38.583709716796875,0.005910152859157986,-0.05599661933051215
4688,0.013884707329644167,0.3187500762939453,83.26608276367188,82.38638305664062,-2.9479713439941406,87.0098876953125,-0.014797634548611112,0.44666666666666666,0.4857142857142857,0.004331968511284698,-2.0433966093750016,-0.08788933093261875,34.277099609375,0.009774441189236111,-0.05508732265896267
4689,-0.005646514892578125,0.29882820129394533,83.26608276367188,83.63432312011719,-2.7843055725097656,86.82576751708984,-0.00843293931749132,0.44133333333333336,0.485,0.0023789282823350453,-1.8566347532959,0.36253800988197327,28.124799728393555,-0.004091559516059028,-0.051223034328884545
4690,-0.013459014892578124,0.3187500762939453,83.26608276367188,82.71371459960938,-2.6001853942871094,86.33477783203125,-0.013888380262586805,0.436,0.48428571428571426,0.0016783820258246527,-1.5819841795654312,0.17577600479125977,26.54277992248535,0.006137424045138889,-0.04372181362575955
4691,-0.013459014892578124,0.29882820129394533,83.24562072753906,82.42729949951172,-2.641101837158203,86.33477783203125,-0.014115693834092882,0.43133333333333335,0.4828571428571429,0.0014952765570746527,-1.120571749755861,0.17577600479125977,26.54277992248535,0.009092458089192708,-0.0441764407687717
4692,-0.017365264892578124,0.2789063262939453,83.26608276367188,82.93875122070312,-2.641101837158203,86.27340698242188,-0.011615286933051215,0.426,0.48142857142857143,0.0011595831976996527,-1.0216986113281266,0.5822579860687256,26.367000579833984,0.003637017144097222,-0.04349454243977865
4693,-0.017365264892578124,0.25898443222045897,83.24562072753906,82.91828918457031,-2.6001853942871094,86.31431579589844,-0.011615286933051215,0.4226666666666667,0.47928571428571426,0.0013121710883246527,-0.801977770874025,0.032958000898361206,26.367000579833984,0.003637017144097222,-0.043494457668728295
4694,0.0060722073296441675,0.33867195129394534,83.26608276367188,81.38394165039062,-2.6001853942871094,86.31431579589844,-0.013433795505099827,0.4196666666666667,0.4767857142857143,0.0027146216417100453,-0.4394403868408219,0.5493000149726868,26.367000579833984,0.020912679036458333,-0.043494457668728295
4695,0.009978457329644167,0.29882820129394533,83.28652954101562,82.83645629882812,-2.743389129638672,86.96897888183594,-0.01547957526312934,0.4156666666666667,0.4717857142857143,0.003691099370659698,-0.6042314940185562,2.04339599609375,26.367000579833984,0.0050008138020833336,-0.0523596445719401
4696,-0.03299026489257813,0.2789063262939453,83.28652954101562,84.47309875488281,-3.275299072265625,87.27584838867188,-0.006159803602430555,0.4106666666666667,0.4685714285714286,0.0008849249945746528,-0.9447962218017594,0.9118380546569824,26.367000579833984,-0.013184102376302083,-0.06167941623263889
4697,-0.013459014892578124,0.25898443222045897,83.24562072753906,81.8953857421875,-3.725372314453125,87.97142028808594,-0.02207158406575521,0.4076666666666667,0.46214285714285713,0.0026230689073350453,-1.7248026304931656,0.45042601227760315,26.367000579833984,0.015002610948350694,-0.07440880669487847
4698,-0.021271514892578124,0.25898443222045897,83.26608276367188,84.94363403320312,-4.441402435302734,88.33966064453125,-0.0066144307454427086,0.4046666666666667,0.4575,0.0020140753851996527,-2.5926958494873062,0.8459219932556152,26.367000579833984,-0.018639458550347224,-0.08645625644259983
4699,-0.04080276489257813,0.239062557220459,83.26608276367188,82.28408813476562,-4.5846099853515625,88.78973388671875,-0.012297227647569445,0.40166666666666667,0.4514285714285714,0.0010985480414496527,-3.3067861967773453,-0.4174677305908219,26.367000579833984,0.010911051432291667,-0.09304826524522569
4700,-0.029084014892578124,0.239062557220459,83.26608276367188,82.38638305664062,-5.300640106201172,89.17843627929688,-0.006841744316948784,0.398,0.4467857142857143,0.0012816535101996527,-3.7352415495605484,-0.13183273608398594,26.367000579833984,0.009774441189236111,-0.1053230709499783
4701,-0.009552764892578124,0.239062557220459,83.26608276367188,82.26363372802734,-4.789188385009766,89.2193603515625,-0.01547957526312934,0.394,0.4407142857142857,0.0025315161729600453,-4.4053865843505875,0.6811320185661316,26.367000579833984,0.01113832261827257,-0.10009498596191406
4702,-0.03689651489257813,0.25898443222045897,83.26608276367188,84.82088470458984,-4.645984649658203,88.62606811523438,-0.009569507175021702,0.3893333333333333,0.43714285714285717,0.00067138671875,-4.515246050903322,1.021697998046875,26.367000579833984,-0.017275577121310764,-0.09191169738769531
4703,-0.06814651489257813,0.239062557220459,83.26608276367188,83.26608276367188,-4.257282257080078,88.17599487304688,-0.01320648193359375,0.38366666666666666,0.43214285714285716,-0.001251220703125,-4.020876544067384,-0.12084640795898594,26.367000579833984,0.0,-0.0825919681125217
4704,-0.06814651489257813,0.2789063262939453,83.26608276367188,83.61386108398438,-4.154991149902344,87.66455078125,-0.006387117173936632,0.37766666666666665,0.42892857142857144,-0.0020751953125,-3.493548052856447,-0.6262022429199234,26.279109954833984,-0.0038642035590277777,-0.07577268812391492
4705,-0.04470901489257813,0.219140682220459,83.26608276367188,82.34546661376953,-4.134532928466797,87.78729248046875,-0.024799346923828125,0.37266666666666665,0.42392857142857143,-0.000274658203125,-3.262842791625978,-0.3954969816894547,26.279109954833984,0.010229068332248265,-0.07690917121039496
4706,-0.009552764892578124,0.19921878814697266,83.28652954101562,83.22515869140625,-3.6230850219726562,87.39859008789062,-0.01729808383517795,0.368,0.4207142857142857,0.0020751105414496527,-2.889319079467775,0.5932440161705017,26.367000579833984,0.0006818983289930556,-0.06690750122070313
4707,0.021697207329644166,0.239062557220459,83.26608276367188,85.84378051757812,-3.3980445861816406,87.37813568115234,-0.020025804307725693,0.363,0.4160714285714286,0.004698179448784698,-2.4388929777832047,1.3622640371322632,26.367000579833984,-0.028641086154513887,-0.06417978074815538
4708,0.029509707329644166,0.25898443222045897,83.26608276367188,83.24562072753906,-3.0502586364746094,86.76439666748047,-0.015252261691623263,0.3596666666666667,0.4125,0.006010435308159698,-2.230158465454103,0.7031040191650391,26.367000579833984,0.00022735595703125,-0.053496170043945315
4709,0.05294720732964417,0.25898443222045897,83.26608276367188,85.16867065429688,-3.2343826293945312,87.58271789550781,-0.028890948825412325,0.355,0.4075,0.008329686474609351,-2.241144793579103,0.8678940534591675,26.367000579833984,-0.02113986545138889,-0.0646344502766927
4710,0.009978457329644167,0.239062557220459,83.26608276367188,84.88226318359375,-3.2139244079589844,86.98943328857422,-0.01070603264702691,0.35133333333333333,0.4042857142857143,0.005430601323784698,-2.4059339934082047,0.032958000898361206,26.367000579833984,-0.017957560221354165,-0.05781508551703559
4711,-0.03689651489257813,0.239062557220459,83.26608276367188,85.06637573242188,-3.2343826293945312,87.19401550292969,-0.009114880032009548,0.3486666666666667,0.39964285714285713,0.0012206183539496527,-2.153256075927736,-0.4614130430908219,28.65213966369629,-0.020003255208333334,-0.06031553480360243
4712,-0.06033401489257813,0.239062557220459,83.26608276367188,82.81600189208984,-2.9275131225585938,86.88714599609375,-0.01252454121907552,0.3446666666666667,0.3964285714285714,-0.0010986328125,-1.9005781584472672,-0.3845106535644547,28.827919006347656,0.00500089857313368,-0.05349621242947049
4713,-0.06814651489257813,0.239062557220459,83.26608276367188,83.36836242675781,-2.6615562438964844,86.62118530273438,-0.01252454121907552,0.3413333333333333,0.3921428571428571,-0.0021361456976996527,-1.6039568358154312,0.20873400568962097,28.915809631347656,-0.001136440700954861,-0.047586017184787326
4714,-0.06814651489257813,0.239062557220459,83.26608276367188,82.44775390625,-2.313770294189453,86.0688247680664,-0.013433795505099827,0.33866666666666667,0.3889285714285714,-0.0024718390570746527,-1.0656420164794937,-0.02197326953125156,28.915809631347656,0.009092542860243056,-0.03758438958062066
4715,-0.03689651489257813,0.239062557220459,83.26608276367188,82.57050323486328,-2.2933120727539062,86.21202850341797,-0.01616151597764757,0.33466666666666667,0.38357142857142856,-0.000244140625,-0.7031046324462906,0.6371880173683167,28.915809631347656,0.007728661431206597,-0.03894822862413194
4716,-0.017365264892578124,0.239062557220459,83.28652954101562,83.26608276367188,-2.1705665588378906,86.1097412109375,-0.014797634548611112,0.3313333333333333,0.3807142857142857,0.0016478644476996527,-0.6152159147949234,1.175502061843872,28.915809631347656,0.00022718641493055556,-0.03644786410861545
4717,-0.029084014892578124,0.219140682220459,83.26608276367188,83.67523193359375,-2.4365196228027344,85.96653747558594,-0.014570320977105035,0.3283333333333333,0.375,0.0016478644476996527,-0.5163427763671891,1.06564199924469,28.915809631347656,-0.004546101888020833,-0.03781174553765191
4718,-0.021271514892578124,0.239062557220459,83.26608276367188,83.96165466308594,-2.5592689514160156,86.68256378173828,-0.015706888834635415,0.325,0.37107142857142855,0.0023789282823350453,-0.9228254729003922,0.8239500522613525,28.915809631347656,-0.00772857666015625,-0.04713147481282552
4719,-0.005646514892578125,0.239062557220459,83.26608276367188,83.96165466308594,-2.9275131225585938,87.15309143066406,-0.015024948120117187,0.32266666666666666,0.36464285714285716,0.004209898198784698,-1.6808592253417984,0.6591600179672241,28.915809631347656,-0.00772857666015625,-0.05645116170247396
4720,-0.001740264892578125,0.219140682220459,83.26608276367188,84.554931640625,-3.357128143310547,87.76683807373047,-0.014797634548611112,0.32033333333333336,0.36,0.004667661870659698,-2.6586119108886734,0.4943700134754181,28.915809631347656,-0.014320543077256944,-0.0680440690782335
4721,-0.009552764892578124,0.219140682220459,83.26608276367188,84.0434799194336,-3.4594192504882812,87.86912536621094,-0.014115693834092882,0.31866666666666665,0.3539285714285714,0.003904722417534698,-3.92200340563965,0.10986000299453735,29.003700256347656,-0.008637746175130209,-0.0703171624077691
4722,0.009978457329644167,0.219140682220459,83.24562072753906,83.42974090576172,-3.1934661865234375,87.562255859375,-0.015706888834635415,0.31566666666666665,0.34964285714285714,0.005339048589409698,-4.515246050903322,-0.13183273608398594,29.267370223999023,-0.002045779758029514,-0.0639524671766493
4723,0.021697207329644166,0.25898443222045897,83.26608276367188,84.0025634765625,-2.9275131225585938,87.03034973144531,-0.014797634548611112,0.31233333333333335,0.3442857142857143,0.006620702099609351,-4.493275302001955,0.2197200059890747,29.267370223999023,-0.008183119032118056,-0.05508736504448785
4724,0.009978457329644167,0.25898443222045897,83.26608276367188,85.70057678222656,-2.866138458251953,86.62118530273438,-0.013433795505099827,0.308,0.34035714285714286,0.005491636480034698,-4.097778933593752,0.09887400269508362,29.267370223999023,-0.02704993353949653,-0.04985915289984809
4725,-0.009552764892578124,0.2789063262939453,83.24562072753906,85.35279846191406,-2.3751449584960938,86.23248291015625,-0.012297227647569445,0.304,0.33535714285714285,0.0032334204698350453,-3.90003074938965,-0.4723993712158219,29.267370223999023,-0.0234130859375,-0.040084754096137154
4726,0.0021659573296441675,0.29882820129394533,83.26608276367188,83.87982177734375,-2.5592689514160156,86.43707275390625,-0.016388829549153647,0.3,0.3325,0.004148863042534698,-3.976933138916017,-0.3185945921630875,27.421680450439453,-0.006819322374131944,-0.044403796725802955
4727,0.0021659573296441675,0.2789063262939453,83.26608276367188,84.35034942626953,-2.2114830017089844,86.17111206054688,-0.014570320977105035,0.2966666666666667,0.3271428571428571,0.004087827886284698,-3.867073672363283,0.16479000449180603,27.421680450439453,-0.01204740736219618,-0.03758438958062066
4728,-0.001740264892578125,0.25898443222045897,83.26608276367188,86.0074462890625,-1.4749946594238281,85.49600219726562,-0.014343007405598959,0.2936666666666667,0.32392857142857145,0.003935239995659698,-3.229883807250978,0.5822579860687256,27.421680450439453,-0.0304595947265625,-0.021899965074327257
4729,-0.005646514892578125,0.2789063262939453,83.26608276367188,85.02546691894531,-0.3498039245605469,84.71859741210938,-0.014115693834092882,0.29033333333333333,0.3196428571428571,0.0035080786729600453,-2.4059339934082047,0.23070600628852844,27.245899200439453,-0.019548712836371527,-0.0007600148518880208
4730,-0.001740264892578125,0.29882820129394533,83.26608276367188,84.73905181884766,-0.9226264953613281,85.0459213256836,-0.015024948120117187,0.287,0.3167857142857143,0.004240415776909698,-1.9005781584472672,0.6591600179672241,27.68535041809082,-0.016366322835286457,-0.010761642456054687
4731,-0.013459014892578124,0.29882820129394533,83.26608276367188,86.49844360351562,-0.9021682739257812,85.12775421142578,-0.013661109076605903,0.2836666666666667,0.3125,0.003874204839409698,-2.3180471831054703,0.9118380546569824,31.991960525512695,-0.03591512044270833,-0.011443583170572917
4732,-0.03689651489257813,0.29882820129394533,83.26608276367188,85.0050048828125,-0.5952987670898438,84.14576721191406,-0.012297227647569445,0.2813333333333333,0.31,0.0011290656195746527,-1.9884668760986344,-0.18676246936035312,34.364990234375,-0.01932135687934028,0.002877044677734375
4733,-0.017365264892578124,0.33867195129394534,83.26608276367188,83.06149291992188,-0.9021682739257812,84.67768096923828,-0.01843460930718316,0.2786666666666667,0.3067857142857143,0.0026230689073350453,-1.3842359953613297,-0.7470480375976578,36.38645935058594,0.0022732204861111113,-0.0064427693684895836
4734,0.0021659573296441675,0.3187500762939453,83.28652954101562,84.20714569091797,-0.8612556457519531,84.98455047607422,-0.015934202406141493,0.275,0.30428571428571427,0.004667661870659698,-1.4062086516113297,0.20873400568962097,36.91379928588867,-0.010229068332248265,-0.009397845798068577
4735,-0.009552764892578124,0.3187500762939453,83.26608276367188,87.23492431640625,-0.9021682739257812,84.88226318359375,-0.01320648193359375,0.2733333333333333,0.30142857142857143,0.003691099370659698,-1.7467752867431656,0.26366400718688965,37.79269790649414,-0.04409823947482639,-0.008715905083550347
4736,-0.025177764892578124,0.33867195129394534,83.26608276367188,84.63676452636719,-0.20659637451171875,83.94119262695312,-0.012069914076063368,0.27066666666666667,0.29964285714285716,0.0011595831976996527,-1.6149431639404312,-1.5929705076904312,37.96847915649414,-0.01522979736328125,0.00946901109483507
4737,-0.013459014892578124,0.3585938262939453,83.24562072753906,83.32745361328125,-0.718048095703125,84.49356079101562,-0.015252261691623263,0.26766666666666666,0.2975,0.0012816535101996527,-1.164517062255861,-1.5709978514404312,40.42940139770508,-0.0009092542860243056,-0.0023512098524305558
4738,-0.013459014892578124,0.3585938262939453,83.26608276367188,83.47065734863281,-0.718048095703125,84.73905181884766,-0.013661109076605903,0.26466666666666666,0.2960714285714286,-0.0001220703125,-1.4281813078613297,-0.2966219359130875,40.69306945800781,-0.0022730509440104167,-0.005078887939453125
4739,-0.017365264892578124,0.3785157012939453,83.26608276367188,84.86180114746094,-0.3907203674316406,84.06393432617188,-0.014570320977105035,0.2623333333333333,0.29392857142857143,-0.0008544921875,-1.3842359953613297,1.032684087753296,40.07783889770508,-0.017730204264322917,0.006059392293294271
4740,-0.04080276489257813,0.3585938262939453,83.28652954101562,86.0688247680664,-0.3088874816894531,84.35034942626953,-0.01320648193359375,0.259,0.2925,-0.0031127081976996527,-1.1864878111572281,0.48338401317596436,39.28683090209961,-0.030914391411675346,0.003786256578233507
4741,-0.04080276489257813,0.33867195129394534,83.26608276367188,83.14332580566406,0.2025604248046875,83.98210144042969,-0.017070770263671875,0.25633333333333336,0.2907142857142857,-0.0031432257758246527,-1.0326849394531266,-0.7031046324462906,39.19894027709961,0.0013639662000868055,0.013560655381944444
4742,-0.009552764892578124,0.33867195129394534,83.26608276367188,82.28408813476562,0.12073135375976562,83.63432312011719,-0.021616956922743055,0.25333333333333335,0.28964285714285715,-9.1552734375e-05,-0.5822588377685562,-0.5822588377685562,39.814170837402344,0.010911051432291667,0.01651564704047309
4743,0.009978457329644167,0.33867195129394534,83.28652954101562,83.42974090576172,0.5094337463378906,83.47065734863281,-0.018889236450195312,0.25033333333333335,0.2885714285714286,0.0028061743760850453,-0.12084640795898594,0.6591600179672241,40.95674133300781,-0.0015912373860677083,0.02265307108561198
4744,0.009978457329644167,0.3187500762939453,83.26608276367188,84.61630249023438,0.2639350891113281,83.08195495605469,-0.014115693834092882,0.24766666666666667,0.28785714285714287,0.0029892798448350453,0.7690200209617615,1.0546560287475586,43.241878509521484,-0.01500244140625,0.02424422370062934
4745,-0.017365264892578124,0.33867195129394534,83.26608276367188,86.33477783203125,0.6117210388183594,83.0410385131836,-0.011160659790039062,0.245,0.28714285714285714,0.000274658203125,1.1095860004425049,0.2526780068874359,44.82389831542969,-0.034096611870659724,0.028563139173719616
4746,-0.029084014892578124,0.39843757629394533,83.26608276367188,83.90027618408203,-0.3907203674316406,84.12531280517578,-0.011615286933051215,0.24233333333333335,0.2864285714285714,-0.0025633917914496527,1.0436700582504272,-0.49437012011718906,45.26335144042969,-0.007046593560112847,0.005377409193250868
4747,-0.03689651489257813,0.39843757629394533,83.26608276367188,83.69569396972656,-0.8817138671875,85.0459213256836,-0.014115693834092882,0.23933333333333334,0.2857142857142857,-0.004241858588324653,0.032958000898361206,0.06591600179672241,45.26335144042969,-0.004773457845052083,-0.010307057698567709
4748,-0.03299026489257813,0.3785157012939453,83.26608276367188,83.1024169921875,-0.6566734313964844,84.71859741210938,-0.014797634548611112,0.23666666666666666,0.28535714285714286,-0.0031737433539496527,-1.1095873289794937,0.36253800988197327,44.91178894042969,0.001818508572048611,-0.0041696760389539934
4749,-0.013459014892578124,0.3585938262939453,83.28652954101562,83.71615600585938,-0.4111785888671875,84.12531280517578,-0.018207295735677084,0.234,0.28535714285714286,0.000152587890625,-1.2084604674072281,0.6481740474700928,44.64812088012695,-0.004773627387152778,0.0051500956217447914
4750,-0.013459014892578124,0.3585938262939453,83.26608276367188,84.53446960449219,-0.3088874816894531,83.81844329833984,0.003841866387261285,0.23166666666666666,0.2857142857142857,0.0008849249945746528,-0.8788801604003922,1.021697998046875,44.64812088012695,-0.014093187120225694,0.009696324666341146
4751,-0.005646514892578125,0.3585938262939453,83.26608276367188,84.98455047607422,0.1411895751953125,83.81844329833984,-0.01661614312065972,0.22866666666666666,0.2867857142857143,0.0031723853135850453,-0.7360617094726578,1.7028300762176514,44.56023025512695,-0.019094085693359374,0.014697180853949653
4752,-0.025177764892578124,0.3187500762939453,83.26608276367188,85.78240966796875,0.038898468017578125,83.53202819824219,0.006796900431315104,0.22633333333333333,0.28785714285714287,0.0026230689073350453,-0.3076082640380875,2.186213970184326,46.58169937133789,-0.027959187825520832,0.01674300299750434
4753,-0.025177764892578124,0.33867195129394534,83.26608276367188,87.97142028808594,-0.10430908203125,83.85935974121094,-0.010478719075520834,0.22333333333333333,0.2892857142857143,0.004393003667534698,-0.15380539233398594,1.0107120275497437,46.58169937133789,-0.05228152804904514,0.011514790852864583
4754,-0.013459014892578124,0.3585938262939453,83.26608276367188,83.53202819824219,-0.08385086059570312,83.36836242675781,-0.011842600504557292,0.21933333333333332,0.29,0.006040952886284698,-0.13183273608398594,-0.4504267149658219,46.58169937133789,-0.0029549492730034724,0.017197630140516493
4755,0.0021659573296441675,0.29882820129394533,83.26608276367188,83.79798889160156,1.061798095703125,85.20958709716797,-0.01775266859266493,0.21666666666666667,0.2914285714285714,0.007475194287109351,-0.3954969816894547,-0.49437012011718906,46.58169937133789,-0.0059100680881076385,0.00946901109483507
4756,-0.013459014892578124,0.33867195129394534,83.26608276367188,83.16378784179688,-0.4111785888671875,84.73905181884766,-0.009114880032009548,0.214,0.29285714285714287,0.005278013433159698,-0.15380539233398594,-0.4284540587158219,46.58169937133789,0.0011366102430555556,-0.0016692267523871528
4757,-0.03299026489257813,0.3187500762939453,83.26608276367188,82.63188171386719,-0.22705459594726562,84.39126586914062,-0.0013863033718532986,0.212,0.295,0.0024094458604600453,-0.5712725096435562,0.36253800988197327,46.58169937133789,0.007046678331163195,0.0042408837212456595
4758,-0.04470901489257813,0.29882820129394533,83.26608276367188,84.02302551269531,-0.3498039245605469,84.75950622558594,-0.00047704908582899306,0.208,0.2960714285714286,0.0016173468695746527,-1.142544406005861,0.747048020362854,46.58169937133789,-0.008410474989149305,-0.0012145572238498265
4759,-0.017365264892578124,0.3187500762939453,83.24562072753906,86.29386138916016,-0.12476730346679688,84.39126586914062,-0.02093505859375,0.20566666666666666,0.2975,0.005552671636284698,-1.4721247130126969,0.5822579860687256,46.58169937133789,-0.03386934068467882,0.005377409193250868
4760,-0.001740264892578125,0.2789063262939453,83.26608276367188,82.93875122070312,-0.12476730346679688,84.92317199707031,-0.020025804307725693,0.20266666666666666,0.2982142857142857,0.007658299755859351,-1.4831110411376969,-0.16478981311035312,46.58169937133789,0.003637017144097222,-0.0005326588948567708
4761,0.0021659573296441675,0.3187500762939453,83.26608276367188,83.98210144042969,0.07981491088867188,83.63432312011719,-0.011160659790039062,0.19933333333333333,0.29892857142857143,0.007810887646484351,-1.0656420164794937,0.05493000149726868,46.58169937133789,-0.007955763075086806,0.016061019897460938
4762,0.0021659573296441675,0.3187500762939453,83.26608276367188,87.21446990966797,0.44805908203125,84.84133911132812,-0.0059324900309244795,0.19566666666666666,0.29892857142857143,0.007841405224609351,-1.0326849394531266,0.13183200359344482,46.58169937133789,-0.043870968288845485,0.0067413330078125
4763,0.0021659573296441675,0.33867195129394534,83.26608276367188,83.26608276367188,-0.5952987670898438,85.16867065429688,-0.01797998216417101,0.19266666666666668,0.29928571428571427,0.007688817333984351,-0.8898664885253922,-0.7470480375976578,46.58169937133789,0.0,-0.008488549126519097
4764,-0.001740264892578125,0.3187500762939453,83.26608276367188,85.27096557617188,-0.3907203674316406,85.25050354003906,-0.011842600504557292,0.18866666666666668,0.29928571428571427,0.006773289990234351,-1.4721247130126969,-0.2856375151367203,46.58169937133789,-0.022276475694444443,-0.007124710083007813
4765,-0.013459014892578124,0.3187500762939453,83.26608276367188,83.96165466308594,-0.18613815307617188,84.80043029785156,-0.011842600504557292,0.18566666666666667,0.3,0.005125425542534698,-1.4721247130126969,-0.4174677305908219,46.58169937133789,-0.00772857666015625,0.00014923943413628471
4766,-0.021271514892578124,0.33867195129394534,83.26608276367188,85.557373046875,-0.3088874816894531,84.75950622558594,-0.01070603264702691,0.182,0.3007142857142857,0.0034165259385850453,-1.0216986113281266,-0.3515516691894547,46.58169937133789,-0.025458780924479167,-0.0007599300808376736
4767,-0.04080276489257813,0.33867195129394534,83.26608276367188,84.61630249023438,-0.2679710388183594,84.73905181884766,0.0011141459147135417,0.17866666666666667,0.30178571428571427,0.00048828125,-1.2633902006835953,-0.2856375151367203,46.58169937133789,-0.01500244140625,-7.803175184461806e-05
4768,-0.04470901489257813,0.33867195129394534,83.26608276367188,84.49356079101562,-0.28842926025390625,85.0050048828125,-0.014115693834092882,0.17666666666666667,0.3028571428571429,-0.00048828125,-1.4281813078613297,-0.3185945921630875,46.58169937133789,-0.013638644748263888,-0.003260379367404514
4769,-0.04080276489257813,0.3187500762939453,83.26608276367188,84.80043029785156,-0.9021682739257812,85.16867065429688,-0.01729808383517795,0.174,0.3032142857142857,-0.000244140625,-1.3402925902099625,-0.7470480375976578,46.58169937133789,-0.017048305935329862,-0.011898210313585069
4770,-0.03299026489257813,0.29882820129394533,83.26608276367188,82.18180847167969,-0.6771316528320312,85.47554016113281,-0.017070770263671875,0.171,0.30357142857142855,3.0517578125e-05,-1.6808592253417984,-0.6481748991699234,46.58169937133789,0.012047492133246528,-0.012807464599609375
4771,-0.025177764892578124,0.3187500762939453,83.24562072753906,89.1170654296875,-0.5952987670898438,84.73905181884766,-0.01661614312065972,0.168,0.30392857142857144,0.0006103515625,-1.7357889586181656,-0.5932451658935562,46.58169937133789,-0.06523827446831597,-0.0037150065104166667
4772,-0.029084014892578124,0.3187500762939453,83.26608276367188,84.84133911132812,-0.7589645385742188,85.47554016113281,-0.015706888834635415,0.16533333333333333,0.30428571428571427,-0.000396728515625,-1.9335371428222672,-0.6262022429199234,46.58169937133789,-0.017502848307291666,-0.01371671888563368
4773,-0.04861526489257813,0.2789063262939453,83.26608276367188,85.35279846191406,-0.718048095703125,85.14820861816406,-0.0066144307454427086,0.16166666666666665,0.3053571428571429,-0.0029601203070746527,-2.559738772460939,-0.6042314940185562,46.58169937133789,-0.02318572998046875,-0.009625074598524306
4774,-0.05252151489257813,0.33867195129394534,83.26608276367188,84.39126586914062,-0.718048095703125,85.06637573242188,-0.020707745022243925,0.158,0.3067857142857143,-0.005126783582899305,-2.845373766967775,-1.1095873289794937,46.58169937133789,-0.012502034505208334,-0.0087158203125
4775,-0.06424026489257813,0.29882820129394533,83.26608276367188,83.69569396972656,-0.28842926025390625,83.90027618408203,-0.010933346218532987,0.155,0.3075,-0.006622144911024305,-2.3180471831054703,-0.6701475554199234,46.58169937133789,-0.004773457845052083,0.009014383951822916
4776,-0.05252151489257813,0.3187500762939453,83.24562072753906,84.22760009765625,-0.4111785888671875,85.14820861816406,-0.027754380967881943,0.15166666666666667,0.30857142857142855,-0.006316969129774305,-2.1312853270263687,-1.142544406005861,46.58169937133789,-0.010910881890190972,-0.006215413411458333
4777,-0.05252151489257813,0.3187500762939453,83.26608276367188,83.552490234375,-0.4725532531738281,85.0459213256836,-0.012751854790581597,0.14866666666666667,0.30857142857142855,-0.007720777723524305,-2.2741018706054703,-0.7360617094726578,46.58169937133789,-0.003182305230034722,-0.0057608286539713545
4778,-0.05642776489257813,0.3187500762939453,83.26608276367188,81.52714538574219,-0.5339241027832031,85.0050048828125,-0.014797634548611112,0.146,0.30857142857142855,-0.008544667561848959,-2.197201388427736,-0.2746511870117203,46.58169937133789,0.01932152642144097,-0.005988099839952257
4779,-0.04861526489257813,0.3187500762939453,83.28652954101562,85.20958709716797,-0.943084716796875,85.65966796875,-0.013661109076605903,0.143,0.30857142857142855,-0.008056386311848959,-2.3070608549804703,0.4284540116786957,46.58169937133789,-0.021367306179470486,-0.017808363172743057
4780,-0.05252151489257813,0.29882820129394533,83.26608276367188,83.79798889160156,-0.9635429382324219,85.57783508300781,-0.0250266604953342,0.13966666666666666,0.30857142857142855,-0.007720777723524305,-2.3949495726318375,0.9338099956512451,46.58169937133789,-0.0059100680881076385,-0.017126422458224825
4781,-0.06424026489257813,0.33867195129394534,83.22515869140625,85.90515899658203,-0.6362152099609375,84.49356079101562,-0.008660252888997395,0.13666666666666666,0.30857142857142855,-0.008697255452473959,-2.471850054809572,0.2746500074863434,46.58169937133789,-0.02977778116861979,-0.00144195556640625
4782,-0.04861526489257813,0.3187500762939453,83.26608276367188,83.73661041259766,-0.7998809814453125,84.37080383300781,-0.02525397406684028,0.133,0.3082142857142857,-0.006805250379774305,-2.153256075927736,-0.05493034655761875,46.58169937133789,-0.005228084988064236,-0.0018964979383680556
4783,-0.04861526489257813,0.33867195129394534,83.26608276367188,82.05905151367188,-0.12476730346679688,41.900001525878906,-0.014343007405598959,0.12966666666666668,0.3082142857142857,-0.007568189832899305,-1.9335371428222672,-0.5492998533935562,46.58169937133789,0.013411458333333333,0.4775025685628255
4784,-0.06033401489257813,0.29882820129394533,83.26608276367188,84.24806213378906,-0.6566734313964844,84.75950622558594,-0.0007043626573350694,0.12666666666666668,0.3075,-0.008788808186848959,-1.527054446289064,0.41746801137924194,46.58169937133789,-0.010910881890190972,-0.004624218410915799
4785,-0.04861526489257813,0.29882820129394533,83.26608276367188,85.20958709716797,-0.12476730346679688,84.49356079101562,-0.027072440253363715,0.12333333333333334,0.3075,-0.006927320692274305,-1.3732515745849625,0.516342043876648,46.58169937133789,-0.021594492594401042,0.004240798950195313
4786,-0.05642776489257813,0.29882820129394533,83.24562072753906,85.47554016113281,0.3866844177246094,84.80043029785156,-0.013661109076605903,0.12,0.30714285714285716,-0.007690260145399305,-1.4062086516113297,-0.19774879748535312,46.58169937133789,-0.024776882595486112,0.006513934665256077
4787,-0.06424026489257813,0.2789063262939453,83.24562072753906,82.30455017089844,0.6117210388183594,41.900001525878906,-0.011160659790039062,0.11766666666666667,0.3067857142857143,-0.008819325764973959,-1.2743765288085953,-0.15380539233398594,46.58169937133789,0.010456339518229166,0.4856857723659939
4788,-0.05642776489257813,0.29882820129394533,83.26608276367188,82.0999755859375,0.3457679748535156,85.1072998046875,-0.01775266859266493,0.11466666666666667,0.3067857142857143,-0.008300526936848959,-1.2743765288085953,0.4284540116786957,46.58169937133789,0.012956746419270833,0.0026496463351779512
4789,-0.05252151489257813,0.29882820129394533,83.26608276367188,84.1048583984375,0.059356689453125,84.24806213378906,-0.011160659790039062,0.11166666666666666,0.30714285714285716,-0.007446119520399305,-1.4171949797363297,1.5600121021270752,46.58169937133789,-0.009319729275173612,0.009014383951822916
4790,-0.05252151489257813,0.29882820129394533,83.26608276367188,89.44439697265625,0.40714263916015625,41.900001525878906,-0.017070770263671875,0.109,0.30714285714285716,-0.005706617567274305,-1.3402925902099625,1.647900104522705,46.58169937133789,-0.06864793565538195,0.48341267903645835
4791,-0.04861526489257813,0.3187500762939453,83.26608276367188,82.34546661376953,0.40714263916015625,85.1072998046875,-0.016388829549153647,0.106,0.30714285714285716,-0.004943762885199653,-1.2084604674072281,0.41746801137924194,46.58169937133789,0.010229068332248265,0.0033315870496961808
4792,-0.029084014892578124,0.3187500762939453,83.26608276367188,82.93875122070312,0.4685173034667969,85.18913269042969,-0.030482101440429687,0.10333333333333333,0.30714285714285716,-0.0024108039008246527,-1.3183199339599625,0.5822579860687256,46.58169937133789,0.003637017144097222,0.003104273478190104
4793,-0.025177764892578124,0.3187500762939453,83.26608276367188,83.26608276367188,0.836761474609375,85.02546691894531,-0.015024948120117187,0.10066666666666667,0.30714285714285716,-0.00177001953125,-1.4721247130126969,0.29662200808525085,46.58169937133789,0.0,0.009014383951822916
4794,-0.021271514892578124,0.2789063262939453,83.26608276367188,84.53446960449219,1.061798095703125,85.02546691894531,-0.01070603264702691,0.098,0.30714285714285716,-0.00079345703125,-1.560013430664064,1.021697998046875,46.58169937133789,-0.014093187120225694,0.011514790852864583
4795,-0.013459014892578124,0.239062557220459,83.26608276367188,88.29874420166016,1.1027145385742188,84.63676452636719,-0.02389009263780382,0.095,0.30714285714285716,0.0016478644476996527,-1.6039568358154312,0.4723980128765106,46.58169937133789,-0.05591846042209202,0.016288333468967013
4796,-0.017365264892578124,0.25898443222045897,83.26608276367188,82.67279052734375,1.1640892028808594,84.61630249023438,-0.014797634548611112,0.09166666666666666,0.3078571428571429,0.0010069953070746527,-1.9335371428222672,-0.5492998533935562,46.58169937133789,0.006592135959201389,0.017197630140516493
4797,-0.029084014892578124,0.25898443222045897,83.26608276367188,84.0434799194336,1.1845474243164062,85.02546691894531,-0.01002409193250868,0.08866666666666667,0.30857142857142855,-0.00115966796875,-1.8456484251709,-0.07690300280761875,46.58169937133789,-0.008637746175130209,0.012878672281901041
4798,-0.04861526489257813,0.2789063262939453,83.26608276367188,84.73905181884766,1.1027145385742188,85.1072998046875,-0.008887566460503472,0.085,0.3092857142857143,-0.0032042609320746527,-1.4831110411376969,0.4943700134754181,46.58169937133789,-0.016366322835286457,0.01106016370985243
4799,-0.06424026489257813,0.29882820129394533,83.26608276367188,41.900001525878906,1.4095840454101562,85.0050048828125,-0.01070603264702691,0.08133333333333333,0.31,-0.004547034369574653,-1.7028299742431656,0.8019779920578003,46.58169937133789,0.4596231248643663,0.015606435139973958
4800,-0.08377151489257813,0.2789063262939453,83.26608276367188,83.49111938476562,1.45050048828125,85.35279846191406,-0.0054779052734375,0.078,0.31107142857142855,-0.005859205457899305,-1.8676210814209,0.4943700134754181,46.58169937133789,-0.0025004069010416668,0.012196689181857638
4801,-0.07205276489257813,0.2789063262939453,83.26608276367188,83.34790802001953,1.2050056457519531,84.86180114746094,-0.021844270494249134,0.07566666666666666,0.3117857142857143,-0.004363928900824653,-1.8895918303222672,0.6701459884643555,46.58169937133789,-0.0009091695149739584,0.01492449442545573
4802,-0.07205276489257813,0.2789063262939453,83.26608276367188,87.91004180908203,1.1640892028808594,85.12775421142578,-0.014115693834092882,0.07233333333333333,0.31285714285714283,-0.004119788275824653,-1.9664942198486344,1.175502061843872,46.58169937133789,-0.051599544949001735,0.011514833238389756
4803,-0.07205276489257813,0.29882820129394533,83.26608276367188,83.28652954101562,0.9185905456542969,85.18913269042969,-0.018661922878689237,0.06933333333333333,0.31357142857142856,-0.0036009894476996527,-1.8895918303222672,0.2746500074863434,46.58169937133789,-0.00022718641493055556,0.008105087280273437
4804,-0.06424026489257813,0.2789063262939453,83.26608276367188,85.78240966796875,0.673095703125,85.76194763183594,-0.022298897637261283,0.06633333333333333,0.31392857142857145,-0.0022276984320746527,-1.7687460356445328,0.3954960107803345,46.58169937133789,-0.027959187825520832,-0.00098724365234375
4805,-0.06424026489257813,0.2789063262939453,83.26608276367188,84.30943298339844,-0.14522552490234375,85.39370727539062,-0.014570320977105035,0.06333333333333334,0.31392857142857145,-0.0022582160101996527,-1.8346620970459,-0.03295769030761875,46.58169937133789,-0.011592780219184027,-0.00598814222547743
4806,-0.04861526489257813,0.2789063262939453,83.26608276367188,86.49844360351562,0.3048515319824219,85.5164566040039,-0.020025804307725693,0.06066666666666667,0.3132142857142857,-0.0009765625,-2.3070608549804703,0.23070600628852844,46.58169937133789,-0.03591512044270833,-0.002351167466905382
4807,-0.04470901489257813,0.29882820129394533,83.28652954101562,84.5140151977539,0.3662261962890625,85.68012237548828,-0.01797998216417101,0.057666666666666665,0.31392857142857145,-0.00067138671875,-2.4279066496582047,-0.7800070219726578,46.58169937133789,-0.013638729519314236,-0.003487735324435764
4808,-0.04080276489257813,0.2789063262939453,83.26608276367188,83.20470428466797,0.07981491088867188,85.96653747558594,-0.013888380262586805,0.05466666666666667,0.31357142857142856,-0.0009765625,-2.241144793579103,-0.5822588377685562,46.58169937133789,0.0006819831000434028,-0.00985247294108073
4809,-0.04470901489257813,0.239062557220459,83.26608276367188,41.900001525878906,0.5708045959472656,84.98455047607422,-0.011387973361545138,0.051666666666666666,0.3132142857142857,-0.001617431640625,-2.6476274901123062,0.26366400718688965,46.58169937133789,0.4596231248643663,0.006513934665256077
4810,-0.04861526489257813,0.25898443222045897,83.26608276367188,85.78240966796875,0.4276008605957031,85.18913269042969,-0.01957117716471354,0.048666666666666664,0.31392857142857145,-0.001373291015625,-2.3729769163818375,0.2856360077857971,46.58169937133789,-0.027959187825520832,0.0026496463351779512
4811,-0.04861526489257813,0.2789063262939453,83.26608276367188,85.57783508300781,0.12073135375976562,85.23004150390625,-0.020707745022243925,0.04533333333333334,0.3142857142857143,-0.0015869140625,-2.493822711059572,-0.4284540587158219,46.58169937133789,-0.025686136881510415,-0.0012145572238498265
4812,-0.06424026489257813,0.219140682220459,83.26608276367188,86.662109375,-0.002017974853515625,85.557373046875,-0.014797634548611112,0.042333333333333334,0.31464285714285717,-0.0032042609320746527,-2.4498793059082047,-0.5932451658935562,46.58169937133789,-0.03773362901475694,-0.006215455796983507
4813,-0.06424026489257813,0.239062557220459,83.26608276367188,88.31919860839844,-0.16568374633789062,85.35279846191406,-0.01547957526312934,0.039,0.31535714285714284,-0.0034178839789496527,-2.4279066496582047,0.2526780068874359,46.58169937133789,-0.056145731608072916,-0.005760913425021701
4814,-0.07205276489257813,0.219140682220459,83.26608276367188,82.57050323486328,-0.10430908203125,86.0688247680664,-0.013888380262586805,0.036,0.31607142857142856,-0.0036009894476996527,-2.6915708952636734,-0.845923083374025,46.58169937133789,0.007728661431206597,-0.013034820556640625
4815,-0.05642776489257813,0.19921878814697266,83.24562072753906,86.31431579589844,-0.3907203674316406,85.5982894897461,-0.018889236450195312,0.03166666666666667,0.31642857142857145,-0.0032347785101996527,-2.812416689941408,-0.3405672484130875,46.58169937133789,-0.034096611870659724,-0.010988998413085937
4816,-0.05642776489257813,0.19921878814697266,83.26608276367188,86.33477783203125,-0.4725532531738281,86.19157409667969,-0.015706888834635415,0.029333333333333333,0.31607142857142856,-0.0030516730414496527,-2.4169203215332047,-0.19774879748535312,46.58169937133789,-0.034096611870659724,-0.018490303887261285
4817,-0.05252151489257813,0.219140682220459,83.26608276367188,82.46821594238281,-0.55438232421875,86.43707275390625,-0.010251405504014757,0.025,0.3157142857142857,-0.0033568488226996527,-2.3729769163818375,-0.18676246936035312,46.58169937133789,0.008865186903211806,-0.022127278645833335
4818,-0.10330276489257813,0.17929691314697266,83.26608276367188,83.85935974121094,-0.8817138671875,84.86180114746094,0.004523807101779514,0.021333333333333333,0.31535714285714284,-0.006408521864149305,-2.515795367309572,-0.3845106535644547,46.58169937133789,-0.006591966417100695,-0.008261277940538195
4819,-0.08377151489257813,0.17929691314697266,83.26608276367188,86.559814453125,-0.18613815307617188,85.65966796875,-0.011160659790039062,0.018,0.31535714285714284,-0.005767652723524305,-2.2741018706054703,0.6262019872665405,46.58169937133789,-0.03659701877170139,-0.009397845798068577
4820,-0.05642776489257813,0.19921878814697266,83.26608276367188,83.61386108398438,-0.6771316528320312,85.0459213256836,-0.01616151597764757,0.014666666666666666,0.31464285714285717,-0.0031127081976996527,-1.6369139128417984,0.8349360227584839,46.58169937133789,-0.0038642035590277777,-0.008033921983506944
4821,-0.07595901489257813,0.15937503814697265,83.26608276367188,79.74729919433594,0.40714263916015625,84.1048583984375,-0.008887566460503472,0.011333333333333334,0.3142857142857143,-0.0036620246039496527,-0.812964098999025,0.6701459884643555,46.58169937133789,0.03909759521484375,0.014469824896918403
4822,-0.07205276489257813,0.15937503814697265,83.26608276367188,86.41661071777344,0.4685173034667969,82.81600189208984,-0.014570320977105035,0.007666666666666666,0.3142857142857143,-0.0027770148383246527,-0.16478981311035312,1.6259280443191528,33.22241973876953,-0.03500586615668403,0.029472393459743923
4823,-0.07205276489257813,0.13945316314697265,83.26608276367188,86.58027648925781,1.3482093811035156,81.69081115722656,-0.012297227647569445,0.004666666666666667,0.31357142857142856,-0.000762939453125,0.6481740474700928,1.3512780666351318,23.73029899597168,-0.03682437472873264,0.051748869154188366
4824,-0.08767776489257813,0.1195312786102295,83.26608276367188,85.18913269042969,2.432483673095703,81.97721862792969,-0.01547957526312934,0.0023333333333333335,0.30892857142857144,6.103515625e-05,1.1205720901489258,0.3405660092830658,23.73029899597168,-0.02136722140842014,0.060614056057400174
4825,-0.05642776489257813,0.13945316314697265,83.26608276367188,81.0361557006836,4.907901763916016,80.58607482910156,-0.023435465494791665,0.0013333333333333333,0.3057142857142857,0.0011290656195746527,1.1974740028381348,-0.4504267149658219,23.554519653320312,0.024776967366536458,0.1035758548312717
4826,-0.08377151489257813,0.07968751907348633,83.26608276367188,83.34790802001953,3.9668350219726562,78.70394134521484,-0.015706888834635415,-0.0003333333333333333,0.29964285714285716,0.000701904296875,1.9335360527038574,-1.2194467955322281,23.554519653320312,-0.0009091695149739584,0.11403215196397569
4827,-0.05642776489257813,0.09960939407348633,83.26608276367188,85.41416931152344,4.846527099609375,77.31279754638672,0.01475279066297743,0.0,0.2957142857142857,-0.0,1.6808580160140991,-0.3405672484130875,23.554519653320312,-0.023867628309461805,0.13926366170247395
