,WD,WS,AIL_1,AIL_2,ELEV_1,ELEV_2,RUDD,ALT,GS,TH,PTCH,ROLL,PLA_1,AIL,ELEV
3709,0.1042638729871962,0.856640853881836,79.72684478759766,80.85203552246094,-0.3907203674316406,86.96897888183594,0.0040691799587673615,0.588,0.3325,0.01489211188422309,-3.207913058349611,-0.3954969816894547,26.54277992248535,-0.01250211927625868,-0.026218880547417535
3710,0.1355138729871962,0.9363283538818359,81.19981384277344,80.34058380126953,0.038898468017578125,86.82576751708984,-0.01911655002170139,0.5846666666666667,0.32785714285714285,0.024657440185546876,-2.581711428710939,1.175502061843872,26.367000579833984,0.009547000461154514,-0.019854100545247395
3711,0.1237951229871962,0.956250228881836,84.61630249023438,85.16867065429688,0.4685173034667969,86.78485107421875,0.0056603749593098955,0.578,0.32392857142857145,0.02383350796169705,-2.1202989989013687,3.460590124130249,26.367000579833984,-0.006137424045138889,-0.014625930786132812
3712,0.0925451229871962,0.9363283538818359,89.6080551147461,86.27340698242188,0.8572196960449219,86.74394226074219,-2.242194281684028e-05,0.5756666666666667,0.31785714285714284,0.017882749769422744,-1.7248026304931656,3.526506185531616,26.54277992248535,0.03705164591471354,-0.00985247294108073
3713,0.0730138729871962,0.9363283538818359,83.73661041259766,82.07951354980469,1.5937042236328125,86.80531311035156,0.0017960866292317708,0.5693333333333334,0.31285714285714283,0.013915591769748263,-1.6369139128417984,0.6371880173683167,26.367000579833984,0.01841218736436632,-0.0023512098524305558
3714,0.0964513729871962,0.8964846038818359,85.35279846191406,85.20958709716797,2.432483673095703,86.6007308959961,-0.02207158406575521,0.5673333333333334,0.30714285714285716,0.01980531480577257,-1.3622652464599625,1.2414180040359497,26.367000579833984,0.0015912373860677083,0.009241697523328993
3715,0.1042638729871962,0.8367189788818359,83.85935974121094,84.1048583984375,2.432483673095703,86.1097412109375,-0.0075236850314670135,0.564,0.30357142857142855,0.02209404839409722,-1.2743765288085953,0.9997260570526123,26.367000579833984,-0.002727762858072917,0.01469713846842448
3716,0.0964513729871962,0.856640853881836,83.90027618408203,83.65477752685547,3.3735504150390625,85.35279846191406,0.009297349717881945,0.559,0.2985714285714286,0.020903905232747395,-0.3954969816894547,0.5493000149726868,26.367000579833984,0.002727762858072917,0.03356391059027778
3717,0.1081701229871962,0.8167971038818359,84.28897857666016,77.84471130371094,0.12073135375976562,84.75950622558594,-0.015706888834635415,0.5566666666666666,0.295,0.02319263882107205,0.3405660092830658,0.7140899896621704,26.367000579833984,0.07160296969943576,0.004013612535264757
3718,0.1042638729871962,0.7570314025878906,87.66455078125,87.0098876953125,0.6117210388183594,84.554931640625,0.0011141459147135417,0.5536666666666666,0.29,0.02191094292534722,0.3405660092830658,2.361989974975586,26.367000579833984,0.007274034288194444,0.01174210442437066
3719,0.0808263729871962,0.7371095275878906,84.82088470458984,86.70301818847656,1.1640892028808594,84.08439636230469,0.011343129475911458,0.5493333333333333,0.28714285714285714,0.017058817545572917,0.5383139848709106,0.5053560137748718,26.367000579833984,-0.020912594265407987,0.023107698228624133
3720,0.0691076229871962,0.7968751525878907,81.28164672851562,83.49111938476562,1.0208816528320312,83.67523193359375,0.009070036146375868,0.547,0.2832142857142857,0.01470900641547309,0.6701459884643555,-1.8895918303222672,26.367000579833984,-0.024549696180555556,0.026062774658203124
3721,0.0808263729871962,0.8167971038818359,79.91096496582031,78.56073760986328,0.4276008605957031,85.02546691894531,-2.242194281684028e-05,0.5433333333333333,0.28,0.016662089029947917,0.010986000299453735,-1.7907186918945328,26.279109954833984,0.015002526177300347,0.004468154907226562
3722,0.0964513729871962,0.7968751525878907,82.59095764160156,83.32745361328125,-0.2679710388183594,85.455078125,0.005205747816297743,0.544,0.275,0.01907289293077257,-0.5383154326171891,0.0,26.279109954833984,-0.00818328857421875,-0.00803387959798177
3723,0.1081701229871962,0.8167971038818359,79.4404296875,78.02882385253906,-0.5748405456542969,86.02790832519531,-0.010251405504014757,0.5403333333333333,0.2714285714285714,0.02368092007107205,-1.3512789183349625,-1.3402925902099625,26.279109954833984,0.01568450927734375,-0.017808320787217884
3724,0.1394201229871962,0.856640853881836,82.69325256347656,81.38394165039062,-0.5748405456542969,86.31431579589844,-0.022753524780273437,0.5376666666666666,0.26571428571428574,0.03286645677354601,-2.4608656340332047,-0.5602861815185562,26.279109954833984,0.014547899034288195,-0.020990626017252604
3725,0.1316076229871962,0.8167971038818359,85.43462371826172,87.15309143066406,-0.4725532531738281,85.76194763183594,0.019299019707573785,0.5376666666666666,0.26142857142857145,0.029021326700846353,-2.6695982390136734,0.2526780068874359,26.279109954833984,-0.019094085693359374,-0.013716676500108507
3726,0.1081701229871962,0.7968751525878907,82.48867797851562,83.4501953125,-0.4316368103027344,85.65966796875,0.02020827399359809,0.536,0.255,0.020995457967122395,-2.208185809204103,-1.2963491850585953,26.279109954833984,-0.010683525933159722,-0.012125608656141493
3727,0.1042638729871962,0.8167971038818359,80.93386840820312,80.8929443359375,-0.22705459594726562,85.76194763183594,0.0008868323432074653,0.533,0.25142857142857145,0.01870668199327257,-2.845373766967775,-1.6149431639404312,30.58572006225586,0.0004547119140625,-0.01098891364203559
3728,0.1003576229871962,0.7968751525878907,82.61141967773438,81.42485809326172,0.01844024658203125,84.96409606933594,0.012025070190429688,0.531,0.24821428571428572,0.016509501139322917,-3.0101648741455094,-0.2746511870117203,34.716548919677734,0.013184017605251737,0.0006038241916232639
3729,0.0886388729871962,0.8367189788818359,82.48867797851562,83.12287139892578,0.01844024658203125,85.57783508300781,0.0056603749593098955,0.5273333333333333,0.24678571428571427,0.01492262946234809,-3.0101648741455094,0.7250760197639465,37.00168991088867,-0.007046593560112847,-0.006215498182508681
3730,0.0925451229871962,0.7769532775878907,84.14576721191406,84.49356079101562,0.1411895751953125,85.12775421142578,0.0031599256727430558,0.525,0.24535714285714286,0.01525832282172309,-3.0211512022705094,1.4721240997314453,38.14426040649414,-0.0038643731011284723,0.00014928181966145833
3731,0.1003576229871962,0.7570314025878906,81.9976806640625,83.06149291992188,0.48897552490234375,84.39126586914062,-0.015706888834635415,0.5216666666666666,0.24464285714285713,0.017272440592447917,-2.4059339934082047,0.9887400269508362,38.671600341796875,-0.011820136176215277,0.012196773952907986
3732,0.0925451229871962,0.7968751525878907,82.05905151367188,82.40684509277344,0.18210220336914062,84.75950622558594,0.02066290113661024,0.5163333333333333,0.24392857142857144,0.016906229654947917,-2.2850881987304703,0.5822579860687256,40.25362014770508,-0.0038643731011284723,0.004695510864257813
3733,0.1042638729871962,0.876562728881836,81.547607421875,80.4837875366211,0.18210220336914062,84.61630249023438,-0.022526211208767362,0.514,0.24357142857142858,0.02310108608669705,-2.4498793059082047,0.8788800239562988,40.69306945800781,0.011820220947265625,0.006286663479275174
3734,0.1159826229871962,0.876562728881836,84.0434799194336,83.1024169921875,0.07981491088867188,84.6572265625,-0.00775099860297309,0.5113333333333333,0.2417857142857143,0.028411017523871526,-1.8456484251709,2.0873401165008545,40.69306945800781,0.010456254747178819,0.004695426093207465
3735,0.1198888729871962,0.876562728881836,84.63676452636719,84.63676452636719,0.12073135375976562,84.80043029785156,-0.0018409305148654514,0.508,0.23964285714285713,0.03076078626844618,-0.7909933500976578,2.208186149597168,39.11104965209961,0.0,0.003558900621202257
3736,0.1198888729871962,0.8964846038818359,83.73661041259766,84.98455047607422,1.0004234313964844,84.28897857666016,0.0017960866292317708,0.505,0.2357142857142857,0.03274438646104601,-0.20873512561035312,1.4831100702285767,38.84737777709961,-0.013866000705295138,0.019016053941514757
3737,0.1237951229871962,0.876562728881836,84.554931640625,84.6572265625,0.5912628173828125,84.16622924804688,-0.013661109076605903,0.502,0.23392857142857143,0.03594860500759549,0.23070600628852844,1.5270540714263916,40.25362014770508,-0.0011366102430555556,0.01583370632595486
3738,0.1120763729871962,0.8964846038818359,83.77752685546875,86.76439666748047,1.1027145385742188,84.0434799194336,0.014980104234483507,0.5,0.2307142857142857,0.033141072591145834,-0.14281906420898594,0.7690200209617615,40.86885070800781,-0.03318744235568576,0.022880384657118055
3739,0.1198888729871962,0.8167971038818359,82.73416900634766,82.26363372802734,-0.3088874816894531,84.71859741210938,0.0017960866292317708,0.49866666666666665,0.23,0.033141072591145834,0.516342043876648,0.08788800239562988,42.275089263916016,0.005228169759114583,-0.00030538770887586806
3740,0.1120763729871962,0.8367189788818359,83.38882446289062,84.30943298339844,-0.002017974853515625,84.75950622558594,0.002705298529730903,0.49666666666666665,0.2282142857142857,0.03173730638292101,-0.3735243254394547,0.5602860450744629,42.71453857421875,-0.010228983561197917,0.0026497311062282985
3741,0.1003576229871962,0.856640853881836,80.81111145019531,84.6572265625,0.284393310546875,84.20714569091797,0.01725323994954427,0.49433333333333335,0.2282142857142857,0.029051844278971353,-0.9228254729003922,-0.02197326953125156,44.29655838012695,-0.04273461235894097,0.011969417995876737
3742,0.1159826229871962,0.8167971038818359,79.3995132446289,79.37905883789062,0.2639350891113281,85.5164566040039,-0.021844270494249134,0.492,0.22892857142857143,0.033476765950520834,-1.2743765288085953,-1.2853628569335953,44.64812088012695,0.00022727118598090277,-0.002805794609917535
3743,0.1316076229871962,0.8367189788818359,80.29966735839844,73.50761413574219,0.2639350891113281,82.85691833496094,-0.011842600504557292,0.48966666666666664,0.22964285714285715,0.03701672024197049,-2.6586119108886734,-1.4391657286376969,47.46059799194336,0.07546725802951389,0.026744630601671007
3744,0.1316076229871962,0.9164064788818359,83.79798889160156,84.37080383300781,2.207447052001953,83.63432312011719,0.00225067138671875,0.4846666666666667,0.23142857142857143,0.04043456183539496,-2.0653692656250016,0.9338099956512451,48.339500427246094,-0.006364610460069444,0.03970137702094184
3745,0.1159826229871962,0.8167971038818359,87.41905212402344,89.91493225097656,1.3072929382324219,41.900001525878906,0.032483079698350695,0.4836666666666667,0.23142857142857143,0.033995564778645834,-0.10986007983398594,1.3512780666351318,47.109039306640625,-0.027732001410590276,0.49341434902615017
3746,0.0886388729871962,0.8167971038818359,85.06637573242188,85.84378051757812,1.0822563171386719,84.43218231201172,0.024072562323676217,0.48033333333333333,0.23,0.026274829440646703,0.08788800239562988,-1.2743765288085953,45.79069137573242,-0.008637830946180555,0.0183341556125217
3747,0.0886388729871962,0.8367189788818359,79.07218933105469,82.79554748535156,2.9439353942871094,82.48867797851562,0.003841866387261285,0.47733333333333333,0.22892857142857143,0.025817065768771703,0.32958000898361206,-2.856360095092775,45.70280075073242,-0.04137064615885417,0.06061397128634983
3748,0.0964513729871962,0.8367189788818359,81.15890502929688,82.34546661376953,1.2663764953613281,84.14576721191406,0.002705298529730903,0.4746666666666667,0.22857142857142856,0.025939136081271703,1.735788106918335,-1.2414194517822281,46.40591812133789,-0.013184017605251737,0.023562325371636286
3749,0.0847326229871962,0.8964846038818359,81.83401489257812,83.28652954101562,1.4300422668457031,41.900001525878906,0.011797756618923612,0.472,0.22785714285714287,0.02297901577419705,1.7028300762176514,-0.4284540587158219,46.66958999633789,-0.016139051649305555,0.49477823045518665
3750,0.0886388729871962,0.8964846038818359,82.93875122070312,82.79554748535156,0.7549285888671875,86.33477783203125,0.0002048916286892361,0.472,0.22678571428571428,0.02413868374294705,1.8895920515060425,-0.3295809202880875,48.339500427246094,0.001591152615017361,-0.0064427693684895836
3751,0.1042638729871962,0.8367189788818359,82.75462341308594,87.48042297363281,-0.6771316528320312,84.28897857666016,0.0008868323432074653,0.468,0.22607142857142856,0.026366382175021703,-0.05493034655761875,-0.5822588377685562,48.427391052246094,-0.05250888400607639,0.0003765530056423611
3752,0.1159826229871962,0.8367189788818359,81.77264404296875,83.73661041259766,0.7958450317382812,84.35034942626953,-0.00047704908582899306,0.4676666666666667,0.22678571428571428,0.029967371622721353,-1.9225508146972672,-1.4831110411376969,47.54848861694336,-0.02182184855143229,0.01606106228298611
3753,0.1394201229871962,0.7769532775878907,82.65233612060547,81.4453125,0.6117210388183594,83.28652954101562,-0.0002497355143229167,0.466,0.2282142857142857,0.03448380364312066,-1.9005781584472672,-1.3732515745849625,47.54848861694336,0.013411373562282987,0.02583546108669705
3754,0.1316076229871962,0.956250228881836,81.81356048583984,83.5934066772461,2.473400115966797,84.26852416992188,-0.004114023844401042,0.461,0.23107142857142857,0.038267898559570315,-1.0766283446044937,-1.3622652464599625,49.39418029785156,-0.01977606879340278,0.035609732733832465
3755,0.1316076229871962,0.9363283538818359,84.75950622558594,86.08927917480469,0.44805908203125,84.47309875488281,0.016798612806532116,0.4593333333333333,0.23214285714285715,0.03655895657009549,-0.09887375170898594,-1.0436712675781266,50.09729766845703,-0.014775254991319445,0.010832892523871528
3756,0.1316076229871962,0.876562728881836,82.36592102050781,83.1024169921875,0.9595069885253906,83.63432312011719,0.009524663289388021,0.4553333333333333,0.23107142857142857,0.034056599934895834,0.5932440161705017,-1.8236757689209,46.054359436035156,-0.00818328857421875,0.0258353763156467
3757,0.1316076229871962,0.856640853881836,85.02546691894531,80.11553955078125,2.698436737060547,82.77508544921875,0.006342273288302952,0.4523333333333333,0.2292857142857143,0.033324178059895834,1.4831100702285767,-0.16478981311035312,45.26335144042969,0.05455474853515625,0.054703903198242185
3758,0.1198888729871962,0.7968751525878907,86.58027648925781,88.50332641601562,3.4144668579101562,41.900001525878906,0.029982630411783853,0.45,0.22714285714285715,0.027526007758246526,2.6476261615753174,1.1974740028381348,46.933258056640625,-0.02136722140842014,0.516827392578125
3759,0.0808263729871962,0.7968751525878907,81.34302520751953,83.53202819824219,3.250804901123047,85.5982894897461,0.037483893500434025,0.452,0.22642857142857142,0.016662089029947917,4.0977783203125,-1.9884668760986344,50.09729766845703,-0.02432225545247396,0.029472393459743923
3760,0.0808263729871962,0.8367189788818359,77.333251953125,74.9192123413086,-0.06339263916015625,87.58271789550781,0.0024779849582248262,0.447,0.22714285714285715,0.014068179660373263,3.306786060333252,-2.7794596129150406,54.05234909057617,0.026822662353515624,-0.02940122816297743
3761,0.1198888729871962,0.7968751525878907,76.24897766113281,83.77752685546875,0.40714263916015625,83.90027618408203,-0.015934202406141493,0.44466666666666665,0.22785714285714287,0.02191094292534722,0.747048020362854,-1.2743765288085953,54.579689025878906,-0.08365054660373264,0.016742960611979166
3762,0.1316076229871962,0.7769532775878907,84.90271759033203,41.900001525878906,1.5937042236328125,83.83889770507812,-0.00047704908582899306,0.44133333333333336,0.22964285714285715,0.025695037841796876,0.3185940086841583,2.8783321380615234,53.96445846557617,0.47780795627170136,0.030608961317274305
3763,0.1081701229871962,0.6773439025878907,85.68012237548828,86.23248291015625,2.1869888305664062,82.83645629882812,0.037483893500434025,0.44,0.2307142857142857,0.018065855238172744,1.0876140594482422,3.0101640224456787,54.843360900878906,-0.006137339274088541,0.04833925035264757
3764,0.0691076229871962,0.6574220275878906,81.547607421875,41.900001525878906,3.7622528076171875,83.08195495605469,0.029073418511284723,0.43966666666666665,0.2342857142857143,0.008514149983723959,1.724802017211914,0.07690200209617615,59.237857818603516,0.4405289543999566,0.06311442057291666
3765,0.0691076229871962,0.7171876525878906,78.21295166015625,81.64989471435547,2.7188949584960938,85.27096557617188,0.001341459486219618,0.43666666666666665,0.2375,0.008727773030598959,2.4938220977783203,-1.7138163023681656,59.237857818603516,-0.0381882561577691,0.027199215359157987
3766,0.0925451229871962,0.6773439025878907,83.22515869140625,41.900001525878906,1.286834716796875,84.96409606933594,-0.007978312174479167,0.43266666666666664,0.24142857142857144,0.012908554077148438,1.8895920515060425,0.4943700134754181,63.192909240722656,0.4591684129503038,0.014697096082899305
3767,0.0808263729871962,0.7171876525878906,85.02546691894531,87.03034973144531,1.1231727600097656,84.82088470458984,0.002705298529730903,0.429,0.24464285714285713,0.011626815795898438,0.09887400269508362,1.8786060810089111,63.368690490722656,-0.022276475694444443,0.014469867282443576
3768,0.0730138729871962,0.6972657775878907,81.42485809326172,83.34790802001953,0.3457679748535156,86.35523986816406,0.0008868323432074653,0.42733333333333334,0.25035714285714283,0.01135219997829861,-0.2746511870117203,0.2746500074863434,63.368690490722656,-0.02136722140842014,-0.011216354370117188
3769,0.1042638729871962,0.6375001525878906,76.78089141845703,85.25050354003906,-1.0862922668457031,87.562255859375,-0.009796820746527778,0.4266666666666667,0.25392857142857145,0.017028299967447917,-0.9887415343017594,-1.8236757689209,63.368690490722656,-0.09410680135091146,-0.04053942362467448
3770,0.1277013729871962,0.6972657775878907,84.30943298339844,85.5164566040039,-0.329345703125,85.78240966796875,-0.013661109076605903,0.4216666666666667,0.26107142857142857,0.024443817138671876,-3.273829119750978,0.6042300462722778,63.192909240722656,-0.013411373562282987,-0.012352837456597222
3771,0.1120763729871962,0.7371095275878906,84.20714569091797,85.12775421142578,0.32530975341796875,85.98699188232422,0.012252383761935763,0.4206666666666667,0.26607142857142857,0.02215508355034722,-3.9989038878173844,0.7360620498657227,63.105018615722656,-0.010228983561197917,-0.0073520236545138885
3772,0.1042638729871962,0.7371095275878906,83.26608276367188,83.96165466308594,-0.10430908203125,86.96897888183594,0.004751120673285591,0.4166666666666667,0.2717857142857143,0.020842870076497395,-2.3729769163818375,-0.5273291044921891,63.105018615722656,-0.00772857666015625,-0.023036532931857638
3773,0.1120763729871962,0.7570314025878906,84.02302551269531,83.67523193359375,-0.08385086059570312,86.82576751708984,-0.0011589898003472221,0.4116666666666667,0.27535714285714286,0.02273491753472222,-2.3729769163818375,-1.4611383848876969,63.105018615722656,0.0038643731011284723,-0.021217981974283855
3774,0.1394201229871962,0.7570314025878906,83.20470428466797,83.92073059082031,-0.3088874816894531,87.23492431640625,-0.014797634548611112,0.4096666666666667,0.2807142857142857,0.028014289008246526,-2.493822711059572,-2.4169203215332047,57.39216995239258,-0.007955847846137152,-0.0282645755343967
3775,0.1433263729871962,0.7968751525878907,83.42974090576172,81.22027587890625,-1.2704124450683594,87.64408874511719,-0.0009316762288411458,0.4056666666666667,0.2839285714285714,0.029265467325846353,-2.526779788085939,-2.0653692656250016,56.33749008178711,0.02454961140950521,-0.043494457668728295
3776,0.1355138729871962,0.7171876525878906,80.97477722167969,80.0337142944336,-1.2090415954589844,87.82821655273438,0.026118342081705728,0.4023333333333333,0.28464285714285714,0.02297901577419705,-2.933262484619142,-0.9008528166503922,55.546478271484375,0.010456254747178819,-0.044858423868815105
3777,0.1003576229871962,0.7171876525878906,80.85203552246094,85.41416931152344,-1.4136199951171875,86.49844360351562,0.02793685065375434,0.39966666666666667,0.2860714285714286,0.013396792941623263,-3.7681986265869156,1.2414180040359497,52.64611053466797,-0.050690375434027775,-0.03235626220703125
3778,0.0847326229871962,0.6175782775878906,87.72592163085938,87.58271789550781,0.01844024658203125,85.82332611083984,0.027482223510742188,0.3993333333333333,0.2885714285714286,0.009185494316948786,-4.789896624633791,3.306786060333252,52.38243865966797,0.001591152615017361,-0.00894317626953125
3779,0.0808263729871962,0.7171876525878906,84.96409606933594,85.557373046875,-1.4136199951171875,88.1555404663086,-0.00297745598687066,0.3963333333333333,0.29,0.013274722629123263,-4.570175784179689,1.581984043121338,52.38243865966797,-0.006591966417100695,-0.05076844957139757
3780,0.1159826229871962,0.6773439025878907,87.5213394165039,82.550048828125,-0.7589645385742188,86.23248291015625,-0.021616956922743055,0.39366666666666666,0.29178571428571426,0.02178887261284722,-5.053560870239259,0.2197200059890747,52.118770599365234,0.055236562093098955,-0.022127193874782985
3781,0.1433263729871962,0.6972657775878907,81.60897827148438,41.900001525878906,0.7753868103027344,87.82821655273438,-0.011842600504557292,0.3923333333333333,0.2935714285714286,0.027892218695746526,-5.690748828002931,-1.3622652464599625,50.0094108581543,0.44121085272894967,-0.022809219360351563
3782,0.1589513729871962,0.6972657775878907,86.5188980102539,79.8905029296875,1.061798095703125,86.98943328857422,-0.011387973361545138,0.3883333333333333,0.2957142857142857,0.03106596204969618,-5.031588213989259,-1.9225508146972672,49.7457389831543,0.07364883422851562,-0.010307057698567709
3783,0.1628576229871962,0.7371095275878906,80.29966735839844,86.6007308959961,3.9259185791015625,87.31675720214844,-0.010478719075520834,0.386,0.29678571428571426,0.03121854994032118,-5.536944048950197,-2.6915708952636734,49.5699577331543,-0.0700118170844184,0.01787957085503472
3784,0.1706701229871962,0.6972657775878907,85.68012237548828,81.07707214355469,1.286834716796875,87.37813568115234,0.014525477091471355,0.381,0.2985714285714286,0.03036405775282118,-4.756939547607423,-1.8676210814209,49.21839904785156,0.05114500257703993,-0.01212556627061632
3785,0.1667638729871962,0.6972657775878907,81.73172760009766,83.77752685546875,0.4685173034667969,84.88226318359375,0.0011141459147135417,0.37233333333333335,0.29892857142857143,0.027800665961371526,-4.800882952758791,-0.9997259550781266,48.339500427246094,-0.022731102837456597,0.006513934665256077
3786,0.1355138729871962,0.6175782775878906,78.41752624511719,87.78729248046875,3.639507293701172,88.21691131591797,0.027482223510742188,0.371,0.29892857142857143,0.017028299967447917,-5.613846438476564,-1.0326849394531266,48.251609802246094,-0.10410851372612848,0.004695510864257813
3787,0.1003576229871962,0.6175782775878906,84.94363403320312,81.87493133544922,-0.7794227600097656,86.86668395996094,0.027027596367730035,0.36766666666666664,0.3,0.009704293145073786,-5.635819094726564,1.1864880323410034,48.251609802246094,0.03409669664171007,-0.02940118577745226
3788,0.0925451229871962,0.5976564025878907,82.97966003417969,80.66790771484375,0.07981491088867188,85.18913269042969,0.0017960866292317708,0.36233333333333334,0.30142857142857143,0.008666737874348959,-6.4268099241943375,0.02197200059890747,47.81216049194336,0.025686136881510415,-0.0012146419949001736
3789,0.1003576229871962,0.5578126525878906,80.72928619384766,80.85203552246094,-0.042934417724609375,88.29874420166016,0.012707010904947916,0.356,0.3025,0.008361562093098959,-4.899756091186525,-1.2743765288085953,46.933258056640625,-0.0013638814290364584,-0.03712976243760851
3790,0.1237951229871962,0.6375001525878906,79.542724609375,82.63188171386719,-0.28842926025390625,85.29141998291016,-0.021844270494249134,0.34933333333333333,0.3025,0.013793521457248263,-5.152434008666994,-1.9555078917236344,46.66958999633789,-0.034323967827690975,-0.0064427693684895836
3791,0.1237951229871962,0.7570314025878906,82.36592102050781,82.79554748535156,0.3457679748535156,87.33721923828125,-0.004114023844401042,0.3463333333333333,0.3028571428571429,0.016967264811197917,-4.943701403686525,-0.3515516691894547,46.66958999633789,-0.004773627387152778,-0.02212723626030816
3792,0.1081701229871962,0.876562728881836,82.28408813476562,81.46577453613281,-0.6157569885253906,87.48042297363281,-0.01002409193250868,0.34,0.30107142857142855,0.017150370279947917,-3.4825636320800797,0.13183200359344482,42.01142120361328,0.00909237331814236,-0.03440199957953559
3793,0.1042638729871962,0.8367189788818359,81.91584777832031,84.32989501953125,-0.718048095703125,86.47798156738281,0.002705298529730903,0.3383333333333333,0.2982142857142857,0.01547194586859809,-3.7022825651855484,1.4611380100250244,41.83563995361328,-0.026822747124565973,-0.02440032958984375
3794,0.1081701229871962,0.7570314025878906,83.57295227050781,83.14332580566406,-0.718048095703125,87.74638366699219,0.017025926378038195,0.3373333333333333,0.2935714285714286,0.01547194586859809,-3.7132688933105484,1.6039559841156006,41.83563995361328,0.004773627387152778,-0.03849368625217014
3795,0.1081701229871962,0.876562728881836,81.15890502929688,83.61386108398438,-0.5748405456542969,86.31431579589844,-0.0022955152723524307,0.33366666666666667,0.2907142857142857,0.01943910386827257,-3.6912962370605484,-0.5383154326171891,41.48408126831055,-0.027277289496527777,-0.020990626017252604
3796,0.1316076229871962,0.9164064788818359,82.91828918457031,83.71615600585938,-0.16568374633789062,87.23492431640625,-0.021616956922743055,0.335,0.28535714285714286,0.026793628268771703,-3.6363665037841812,-0.856909411499025,41.39619064331055,-0.008865186903211806,-0.02667342291937934
3797,0.1394201229871962,0.876562728881836,83.85935974121094,85.37325286865234,-1.1885833740234375,86.90760040283203,0.00770615471733941,0.333,0.2817857142857143,0.026122241550021703,-2.801430361816408,1.9005780220031738,41.39619064331055,-0.01682103474934896,-0.03440204196506076
3798,0.1198888729871962,0.8167971038818359,84.22760009765625,81.8953857421875,0.12073135375976562,87.78729248046875,0.023845248752170138,0.332,0.2760714285714286,0.02194146050347222,-3.581436770507814,1.0876140594482422,41.39619064331055,0.025913492838541666,-0.02962845696343316
3799,0.1237951229871962,0.7769532775878907,83.47065734863281,85.557373046875,1.1231727600097656,85.68012237548828,-0.005705218844943577,0.328,0.2732142857142857,0.02178887261284722,-4.723980563232423,0.6262019872665405,41.39619064331055,-0.02318572998046875,0.004922782050238716
3800,0.1003576229871962,0.7769532775878907,81.22027587890625,81.01570129394531,-0.5952987670898438,86.74394226074219,0.019980960422092013,0.32666666666666666,0.27035714285714285,0.016997782389322917,-4.855812686035158,-0.5822588377685562,41.39619064331055,0.0022730509440104167,-0.02599156697591146
3801,0.0808263729871962,0.8367189788818359,81.40440368652344,83.0001220703125,0.3457679748535156,88.0737075805664,0.019299019707573785,0.324,0.26821428571428574,0.011901473999023438,-5.196379321166994,-0.7031046324462906,43.417659759521484,-0.017730204264322917,-0.030310440063476562
3802,0.0652013729871962,0.856640853881836,81.58851623535156,75.57386779785156,-0.6975898742675781,86.08927917480469,0.009979248046875,0.32,0.2664285714285714,0.007842763264973959,-4.822855609008791,-1.9225508146972672,43.417659759521484,0.06682942708333334,-0.019854100545247395
3803,0.0691076229871962,0.7968751525878907,83.14332580566406,83.26608276367188,0.40714263916015625,86.39614868164062,-0.01070603264702691,0.31533333333333335,0.265,0.005615064832899305,-4.240597384521486,-0.8678938322753922,43.417659759521484,-0.0013639662000868055,-0.010988956027560764
3804,0.05738887298719619,0.8367189788818359,80.70883178710938,84.02302551269531,1.5527915954589844,86.76439666748047,0.015207417805989583,0.31033333333333335,0.26357142857142857,0.0029296027289496527,-4.954685824462892,-1.0436712675781266,43.241878509521484,-0.03682437472873264,-0.002351167466905382
3805,0.0691076229871962,0.856640853881836,84.22760009765625,77.80378723144531,0.9390487670898438,85.1072998046875,-0.020025804307725693,0.30666666666666664,0.2625,0.0064084794786241316,-4.262568133422853,-0.5053564482421891,43.241878509521484,0.07137569851345486,0.00924165513780382
3806,0.0847326229871962,0.8167971038818359,74.8373794555664,78.68348693847656,2.7188949584960938,87.74638366699219,-0.0022955152723524307,0.29833333333333334,0.2617857142857143,0.0076901753743489586,-3.3397451811523453,-2.1093126707763687,43.76921844482422,-0.042734527587890626,-0.00030543009440104165
3807,0.1081701229871962,0.7570314025878906,82.550048828125,77.02638244628906,1.1640892028808594,83.71615600585938,-0.0168434566921658,0.294,0.26071428571428573,0.011779403686523438,-2.0543829375000016,0.5383139848709106,44.82389831542969,0.061374070909288196,0.02719925774468316
3808,0.1277013729871962,0.7171876525878906,82.26363372802734,87.62362670898438,6.053550720214844,83.83889770507812,-0.0034320831298828127,0.2926666666666667,0.25857142857142856,0.01577712164984809,-2.6256548338623062,2.66959810256958,45.70280075073242,-0.05955547756618924,0.08016281127929688
3809,0.1316076229871962,0.6773439025878907,85.5982894897461,85.96653747558594,8.119808197021484,84.39126586914062,0.0040691799587673615,0.29,0.25857142857142856,0.018309995863172744,-1.9994532042236344,4.042848110198975,47.987937927246094,-0.004091644287109375,0.09698380364312066
3810,0.1198888729871962,0.6574220275878906,85.35279846191406,87.33721923828125,6.339962005615234,84.82088470458984,0.02179942660861545,0.2866666666666667,0.25857142857142856,0.01885926988389757,-1.6808592253417984,4.119750022888184,50.27307891845703,-0.022049119737413195,0.07243419223361545
3811,0.1277013729871962,0.6175782775878906,86.58027648925781,88.54424285888672,6.278587341308594,81.97721862792969,-0.007296371459960938,0.2836666666666667,0.2596428571428571,0.02337574428982205,-1.0216986113281266,3.054108142852783,52.9097785949707,-0.02182184855143229,0.10334854125976563
3812,0.1237951229871962,0.5777345275878907,83.34790802001953,75.9216537475586,6.4831695556640625,84.30943298339844,0.0011141459147135417,0.2793333333333333,0.26285714285714284,0.02313160366482205,-0.48338379199218906,-0.3845106535644547,53.0855598449707,0.08251393636067708,0.07970818413628472
3813,0.1159826229871962,0.6574220275878906,79.27676391601562,83.85935974121094,6.3195037841796875,85.18913269042969,-0.0050232781304253475,0.2763333333333333,0.2646428571428571,0.02252129448784722,0.3954960107803345,-1.560013430664064,53.0855598449707,-0.050917731391059026,0.068115234375
3814,0.1316076229871962,0.6773439025878907,84.71859741210938,87.0712661743164,6.442253112792969,84.28897857666016,-0.02207158406575521,0.27666666666666667,0.26535714285714285,0.025786590576171876,1.1095860004425049,0.2197200059890747,53.0855598449707,-0.02614076402452257,0.07948082817925348
3815,0.1120763729871962,0.6773439025878907,77.06730651855469,79.27676391601562,7.137825012207031,84.0025634765625,0.019299019707573785,0.27466666666666667,0.265,0.020934422810872395,1.494096040725708,-1.549027102539064,53.0855598449707,-0.02454952663845486,0.0903917948404948
3816,0.1277013729871962,0.6175782775878906,85.82332611083984,88.23736572265625,5.746681213378906,85.53691101074219,0.00225067138671875,0.2743333333333333,0.26535714285714285,0.02181939019097222,0.8019779920578003,0.4614120125770569,53.1734504699707,-0.026822662353515624,0.05788633558485243
3817,0.1198888729871962,0.7171876525878906,85.12775421142578,83.20470428466797,3.864543914794922,83.79798889160156,-0.00843293931749132,0.273,0.26535714285714285,0.02383350796169705,-0.49437012011718906,-0.20873512561035312,53.1734504699707,0.02136722140842014,0.05629505581325955
3818,0.1120763729871962,0.7171876525878906,82.44775390625,86.96897888183594,5.5420989990234375,87.84866333007812,-0.0013863033718532986,0.271,0.26571428571428574,0.02181939019097222,-0.4174677305908219,-0.3625379973144547,53.70079040527344,-0.05023583306206597,0.02992706298828125
3819,0.0691076229871962,0.7769532775878907,85.5982894897461,80.29966735839844,0.3048515319824219,84.20714569091797,0.025663714938693575,0.273,0.26571428571428574,0.012878036499023438,-1.6149431639404312,-0.5822588377685562,53.52500915527344,0.05887357923719618,0.012196731567382813
3820,0.0769201229871962,0.6574220275878906,81.05661010742188,73.9781494140625,1.675537109375,87.84866333007812,0.0024779849582248262,0.274,0.26607142857142857,0.01046719021267361,-2.1202989989013687,-4.35045685107422,52.118770599365234,0.07864956325954861,-0.013034735785590277
3821,0.1120763729871962,0.7171876525878906,76.20806884765625,79.78821563720703,0.059356689453125,88.31919860839844,-0.022526211208767362,0.274,0.2671428571428571,0.01571608649359809,-1.8566347532959,-4.789896624633791,51.855098724365234,-0.039779408772786455,-0.03622046576605903
3822,0.1355138729871962,0.7570314025878906,79.542724609375,85.455078125,-0.10430908203125,88.58515930175781,-0.015706888834635415,0.27266666666666667,0.26821428571428574,0.020537694295247395,-3.240870135375978,-2.197201388427736,51.6793212890625,-0.06569281684027778,-0.04099409315321181
3823,0.1472326229871962,0.7171876525878906,83.57295227050781,83.63432312011719,-1.2499542236328125,86.86668395996094,-0.020253117879231772,0.26966666666666667,0.2692857142857143,0.02249077690972222,-3.7242552214355484,0.24169200658798218,51.5035400390625,-0.0006818983289930556,-0.03462931315104167
3824,0.1316076229871962,0.6175782775878906,82.550048828125,82.16134643554688,-0.8817138671875,86.98943328857422,0.02657296922471788,0.2683333333333333,0.2714285714285714,0.013518863254123263,-4.943701403686525,1.4611380100250244,50.976200103759766,0.0043189154730902775,-0.0319016350640191
3825,0.0769201229871962,0.6972657775878907,82.97966003417969,83.81844329833984,-1.10675048828125,86.62118530273438,0.026118342081705728,0.26466666666666666,0.2732142857142857,0.0060117509629991316,-5.52595962817383,2.2631161212921143,50.888309478759766,-0.009319814046223958,-0.03031039767795139
3826,0.0769201229871962,0.7371095275878906,82.20226287841797,80.42241668701172,-0.6157569885253906,84.94363403320312,-0.0043413374159071184,0.26166666666666666,0.2757142857142857,0.008392079671223959,-6.163147585937502,0.6701459884643555,49.5699577331543,0.01977606879340278,-0.006215455796983507
3827,0.0925451229871962,0.7570314025878906,75.4715805053711,84.30943298339844,-0.9635429382324219,87.93049621582031,-0.01979849073621962,0.256,0.27714285714285714,0.011596298217773438,-4.36144317919922,0.747048020362854,48.95473098754883,-0.09819836086697048,-0.04326710171169705
3828,0.0769201229871962,0.7371095275878906,83.67523193359375,83.73661041259766,-1.6386566162109375,85.65966796875,0.01907170613606771,0.24933333333333332,0.2775,0.009338082207573786,-4.207638400146486,3.4276320934295654,48.86684036254883,-0.0006819831000434028,-0.025536939832899307
3829,0.0691076229871962,0.6773439025878907,82.79554748535156,82.83645629882812,-0.9635429382324219,86.21202850341797,0.010433875189887153,0.245,0.27785714285714286,0.009338082207573786,-4.756939547607423,2.5707240104675293,48.86684036254883,-0.00045454237196180554,-0.024173016018337674
3830,0.0769201229871962,0.6175782775878906,85.37325286865234,91.75614929199219,-1.7614059448242188,86.74394226074219,-0.005705218844943577,0.239,0.2792857142857143,0.01107754177517361,-5.273281710693361,3.790170192718506,48.86684036254883,-0.0709210713704427,-0.038948313395182295
3831,0.0691076229871962,0.6773439025878907,87.80775451660156,88.09416198730469,-0.3498039245605469,85.31187438964844,0.01316163804796007,0.234,0.28035714285714286,0.013366275363498263,-5.679762499877931,2.977205991744995,48.86684036254883,-0.003182305230034722,-0.0073519812689887155
3832,0.0847326229871962,0.7171876525878906,86.88714599609375,80.58607482910156,-0.8407974243164062,85.31187438964844,-0.02320815192328559,0.228,0.2832142857142857,0.02154473198784722,-5.317225115844728,-0.03295769030761875,48.86684036254883,0.07001190185546875,-0.012807464599609375
3833,0.0691076229871962,0.7769532775878907,79.9927978515625,80.13600158691406,-0.6566734313964844,85.5164566040039,0.0056603749593098955,0.22333333333333333,0.2842857142857143,0.017241923014322917,-5.756664889404298,-1.9555078917236344,48.86684036254883,-0.001591152615017361,-0.013034778171115452
3834,0.05348262298719619,0.7968751525878907,80.32012939453125,82.22271728515625,-0.6362152099609375,87.86912536621094,-0.003659396701388889,0.224,0.2860714285714286,0.01104702419704861,-5.097504275390627,-1.4171949797363297,48.86684036254883,-0.02113986545138889,-0.03894822862413194
3835,0.03785762298719619,0.8367189788818359,81.87493133544922,82.36592102050781,-2.9684295654296875,85.84378051757812,0.023845248752170138,0.22166666666666668,0.2860714285714286,0.0064695146348741316,-3.90003074938965,-1.2084604674072281,48.86684036254883,-0.005455440945095486,-0.04235788981119792
3836,0.05348262298719619,0.8167971038818359,81.83401489257812,79.8905029296875,-1.2704124450683594,89.52622985839844,-0.022753524780273437,0.22166666666666668,0.2839285714285714,0.010039986504448786,-3.559464114257814,-1.9005781584472672,48.86684036254883,0.021594577365451388,-0.06440713670518664
3837,0.0730138729871962,0.7968751525878907,83.77752685546875,82.30455017089844,-4.318656921386719,87.19401550292969,0.0020233578152126738,0.21866666666666668,0.28285714285714286,0.013244205050998263,-2.790444033691408,-0.5492998533935562,47.284820556640625,0.016366407606336807,-0.07236302693684896
3838,0.0808263729871962,0.7769532775878907,82.79554748535156,81.4453125,-1.331787109375,90.28317260742188,-0.01957117716471354,0.216,0.28,0.01452590094672309,-4.174681323120119,-0.5822588377685562,45.70280075073242,0.015002610948350694,-0.07349955240885417
3839,0.05738887298719619,0.7570314025878906,81.60897827148438,80.11553955078125,-2.743389129638672,87.70545959472656,0.024527189466688366,0.212,0.2789285714285714,0.0074155171712239586,-4.3834139281005875,0.12084600329399109,45.52701950073242,0.016593763563368055,-0.06054276360405816
3840,0.0769201229871962,0.6972657775878907,81.547607421875,84.5140151977539,-2.4365196228027344,87.66455078125,-0.003204769558376736,0.21266666666666667,0.27714285714285714,0.011596298217773438,-4.669050829956056,-0.6481748991699234,45.52701950073242,-0.03296008639865451,-0.056678560045030385
3841,0.1081701229871962,0.7371095275878906,83.38882446289062,92.0834732055664,-1.8227806091308594,86.02790832519531,-0.022526211208767362,0.207,0.2764285714285714,0.01989686754014757,-4.954685824462892,0.6262019872665405,45.43912887573242,-0.09660720825195312,-0.03167432149251302
3842,0.1003576229871962,0.6972657775878907,82.87738037109375,78.86760711669922,-1.4749946594238281,86.21202850341797,0.00543306138780382,0.20366666666666666,0.275,0.017424986097547744,-4.998631136962892,-0.4394403868408219,45.43912887573242,0.04455303615993923,-0.02985581292046441
3843,0.0964513729871962,0.7171876525878906,80.83157348632812,86.15065002441406,-1.2908706665039062,85.88470458984375,0.019980960422092013,0.198,0.27535714285714286,0.016723124186197917,-4.4383455687255875,-0.6811319761962906,45.43912887573242,-0.05910085042317708,-0.024173058403862847
3844,0.1081701229871962,0.7371095275878906,85.14820861816406,86.86668395996094,-0.9226264953613281,86.19157409667969,-0.022980838351779515,0.19,0.2742857142857143,0.020751317342122395,-3.7901712828369156,0.6481740474700928,45.43912887573242,-0.019094170464409723,-0.02349111768934462
3845,0.0847326229871962,0.7371095275878906,84.37080383300781,85.72103881835938,0.18210220336914062,84.77996826171875,0.025209130181206598,0.186,0.2735714285714286,0.01562453375922309,-4.493275302001955,0.8129640221595764,45.43912887573242,-0.015002610948350694,0.004468154907226562
3846,0.1042638729871962,0.6972657775878907,86.31431579589844,81.01570129394531,-0.9635429382324219,87.17355346679688,-0.009569507175021702,0.18233333333333332,0.2739285714285714,0.01977479722764757,-3.2957998686523453,-2.252131121704103,45.43912887573242,0.058873494466145836,-0.034856626722547746
3847,0.1237951229871962,0.7570314025878906,80.70883178710938,79.84959411621094,2.596149444580078,84.61630249023438,-0.023662779066297743,0.17666666666666667,0.2735714285714286,0.02404713100857205,-2.263117449829103,-4.097778933593752,45.43912887573242,0.009547085232204862,0.03310941060384114
3848,0.1237951229871962,0.7570314025878906,83.42974090576172,84.82088470458984,-0.20659637451171875,86.49844360351562,-0.00775099860297309,0.17366666666666666,0.2710714285714286,0.020354588826497395,-0.3515516691894547,-1.4391657286376969,46.318031311035156,-0.0154571533203125,-0.018944888644748265
3849,0.1081701229871962,0.7570314025878906,85.0459213256836,84.47309875488281,-0.3498039245605469,82.83645629882812,0.0254364013671875,0.17,0.26821428571428574,0.01538039313422309,-0.3295809202880875,0.9667680263519287,46.318031311035156,0.006364695231119792,0.02015266418457031
3850,0.1159826229871962,0.7570314025878906,79.8905029296875,81.13844299316406,-0.4316368103027344,85.80287170410156,-0.00775099860297309,0.168,0.2646428571428571,0.01974427964952257,0.2746500074863434,-1.4721247130126969,46.40591812133789,-0.013866000705295138,-0.013716761271158855
3851,0.1472326229871962,0.7769532775878907,88.58515930175781,81.91584777832031,-1.10675048828125,83.32745361328125,-0.023435465494791665,0.16466666666666666,0.26107142857142857,0.027922736273871526,0.1538040041923523,-0.6921183043212906,46.40591812133789,0.07410346137152778,0.00628662109375
3852,0.1316076229871962,0.7171876525878906,81.77264404296875,84.22760009765625,1.8187446594238281,86.49844360351562,0.024754503038194445,0.16266666666666665,0.2592857142857143,0.020324071248372395,-0.2416922026367203,1.1315580606460571,46.40591812133789,-0.027277289496527777,0.003558900621202257
3853,0.0691076229871962,0.6773439025878907,80.36103820800781,84.0434799194336,0.22301864624023438,83.98210144042969,0.025663714938693575,0.16566666666666666,0.25642857142857145,0.0034178415934244793,-0.7250772886962906,1.966494083404541,46.40591812133789,-0.04091601901584201,0.013787968953450521
3854,0.04176387298719619,0.5976564025878907,84.98455047607422,82.28408813476562,-1.10675048828125,84.61630249023438,0.0254364013671875,0.16233333333333333,0.2557142857142857,-0.0039061652289496527,-0.48338379199218906,1.0766279697418213,50.27307891845703,0.030005137125651043,-0.008033921983506944
3855,0.0886388729871962,0.6175782775878906,86.76439666748047,78.43798828125,0.10027313232421875,87.97142028808594,-0.022753524780273437,0.16433333333333333,0.25535714285714284,0.008392079671223959,-0.7250772886962906,-1.2633902006835953,50.976200103759766,0.0925156487358941,-0.0319016350640191
3856,0.1511388729871962,0.6375001525878906,80.77020263671875,83.40928649902344,-1.3931617736816406,81.77264404296875,-0.023435465494791665,0.16333333333333333,0.25607142857142856,0.02249077690972222,-1.175503390380861,-2.3510042601318375,50.976200103759766,-0.029323154025607638,0.020379935370551217
3857,0.1589513729871962,0.6574220275878906,80.13600158691406,83.69569396972656,-1.6181983947753906,86.49844360351562,-0.020025804307725693,0.162,0.25857142857142856,0.02380299038357205,-1.2084604674072281,-0.6921183043212906,53.2613410949707,-0.03955213758680556,-0.03462935553656684
3858,0.1394201229871962,0.5976564025878907,82.75462341308594,89.50576782226562,0.2639350891113281,84.47309875488281,0.0254364013671875,0.159,0.2596428571428571,0.017272440592447917,-2.7135435515136734,2.746500015258789,53.2613410949707,-0.07501271565755209,0.00878707038031684
3859,0.1316076229871962,0.5378907394409179,84.77996826171875,80.4837875366211,0.673095703125,84.80043029785156,0.015889358520507813,0.15433333333333332,0.2617857142857143,0.01516677008734809,-2.845373766967775,1.5050820112228394,53.2613410949707,0.047735341389973956,0.009696282280815972
3860,0.1198888729871962,0.41835948944091794,84.02302551269531,85.92561340332031,0.3866844177246094,83.32745361328125,0.001341459486219618,0.152,0.2667857142857143,0.010131539238823786,-3.1310106688232437,1.6588860750198364,54.579689025878906,-0.02113986545138889,0.02288034227159288
3861,0.04957637298719619,0.438281364440918,84.71859741210938,87.50088500976562,2.248363494873047,83.63432312011719,0.025891028510199653,0.148,0.2725,-0.000518798828125,-3.91101707751465,2.603682041168213,55.458587646484375,-0.030914306640625,0.04015600416395399
3862,0.018326372987196197,0.45820323944091795,85.35279846191406,81.91584777832031,1.2459182739257812,84.1048583984375,0.0024779849582248262,0.142,0.27714285714285714,-0.0029601203070746527,-3.3067861967773453,0.6042300462722778,56.689048767089844,0.038188340928819446,0.023789554172092015
3863,0.03395137298719619,0.49804698944091796,81.85447692871094,84.82088470458984,-0.2475128173828125,84.02302551269531,-0.01070603264702691,0.13733333333333334,0.28285714285714286,-0.00054931640625,-2.7025572233886734,-2.0873400145263687,56.689048767089844,-0.03296008639865451,0.008105129665798612
3864,0.0652013729871962,0.49804698944091796,79.4404296875,83.5934066772461,0.7549285888671875,86.0688247680664,-0.023662779066297743,0.136,0.2864285714285714,0.0028075324164496527,-2.7684732847900406,-2.7025572233886734,56.689048767089844,-0.046144188774956595,-0.003487735324435764
3865,0.06129512298719619,0.49804698944091796,80.97477722167969,79.80867004394531,-0.943084716796875,84.35034942626953,0.004751120673285591,0.13,0.29178571428571426,0.0004272037082248264,-3.229883807250978,-3.207913058349611,55.10702896118164,0.012956746419270833,-0.003260379367404514
3866,0.1159826229871962,0.3785157012939453,79.15402221679688,81.85447692871094,0.6526374816894531,86.47798156738281,-0.014797634548611112,0.127,0.2953571428571429,0.0021056281195746527,-3.6912962370605484,-2.944248812744142,53.70079040527344,-0.030005052354600693,-0.009170489841037327
3867,0.1198888729871962,0.45820323944091795,79.09264373779297,79.3995132446289,-0.45209503173828125,85.557373046875,-0.0054779052734375,0.12033333333333333,0.3,0.004058710734049479,-3.3067861967773453,-2.2741018706054703,53.52500915527344,-0.003409661187065972,-0.011216311984592013
3868,0.1198888729871962,0.478125114440918,80.34058380126953,82.46821594238281,-2.129650115966797,86.76439666748047,-0.01070603264702691,0.11833333333333333,0.3025,0.0035399119059244793,-3.0870672636718766,0.4064820110797882,53.52500915527344,-0.023640357123480903,-0.0432671864827474
3869,0.06129512298719619,0.5976564025878907,47.58732604980469,84.84133911132812,-1.10675048828125,86.27340698242188,0.010206561618381077,0.11466666666666667,0.30428571428571427,-0.0017699771457248264,-4.152708666870119,2.8563599586486816,52.118770599365234,-0.4139334784613715,-0.02644619411892361
3870,0.04176387298719619,0.6175782775878906,47.48503494262695,87.95095825195312,-2.1910247802734375,85.72103881835938,0.015662044949001735,0.11333333333333333,0.30642857142857144,-0.0029906378851996527,-3.6912962370605484,2.5487520694732666,48.69105911254883,-0.44962137010362413,-0.03235626220703125
3871,0.05738887298719619,0.5976564025878907,47.15770721435547,80.34058380126953,-0.8407974243164062,89.19889831542969,-0.01547957526312934,0.114,0.3053571428571429,0.0005492740207248264,-4.064819949218752,-0.3405672484130875,47.72426986694336,-0.3686986287434896,-0.05599661933051215
3872,0.0691076229871962,0.6375001525878906,46.543968200683594,83.42974090576172,-2.702472686767578,88.95339965820312,0.002932612101236979,0.10766666666666666,0.30392857142857144,0.0018309699164496527,-3.3287588530273453,-2.0543829375000016,47.54848861694336,-0.4098419189453125,-0.07395413716634115
3873,0.1316076229871962,0.7968751525878907,47.832820892333984,85.96653747558594,-2.0273590087890625,90.32408142089844,-0.02434471978081597,0.103,0.30107142857142855,0.020354588826497395,-4.218624728271486,-1.3512789183349625,47.54848861694336,-0.4237079620361328,-0.08168267144097222
3874,0.2097326229871962,0.8167971038818359,47.64870071411133,87.62362670898438,-5.423389434814453,88.36012268066406,-0.02389009263780382,0.10666666666666667,0.3003571428571429,0.04009886847601996,-4.284540789672853,-0.6481748991699234,47.46059799194336,-0.4441658443874783,-0.09759457906087239
3875,0.2097326229871962,0.7371095275878906,48.03740310668945,78.27432250976562,-2.6615562438964844,88.17599487304688,0.006114959716796875,0.10766666666666666,0.2985714285714286,0.03585705227322049,-4.4163729124755875,1.307334065437317,47.46059799194336,-0.3359657711452908,-0.06486167907714843
3876,0.1433263729871962,0.6574220275878906,48.79434585571289,102.04652404785156,-9.044452667236328,88.13508605957031,0.025209130181206598,0.10733333333333334,0.2960714285714286,0.01986634996202257,-3.91101707751465,7.096956253051758,47.284820556640625,-0.5916908688015408,-0.13532820807562934
3877,0.0925451229871962,0.5179688644409179,46.85083770751953,73.81448364257812,-3.479877471923828,86.39614868164062,0.024527189466688366,0.097,0.29428571428571426,0.009307564629448786,-4.163694994995119,3.0101640224456787,47.109039306640625,-0.29959606594509547,-0.05417806837293837
3878,0.1120763729871962,0.7968751525878907,45.37786102294922,86.39614868164062,-4.3595733642578125,84.67768096923828,-0.01957117716471354,0.094,0.29392857142857143,0.020964940388997395,-5.833567278930666,-1.0656420164794937,47.109039306640625,-0.4557587517632378,-0.04485838148328993
3879,0.2058263729871962,0.8367189788818359,47.116790771484375,89.85355377197266,-0.7385063171386719,85.31187438964844,-0.029572847154405384,0.095,0.29392857142857143,0.0471787346733941,-4.229611056396486,-3.7352415495605484,42.62664794921875,-0.4748529222276476,-0.011670896742078994
3880,0.2487951229871962,0.9164064788818359,48.467018127441406,84.5140151977539,-5.730258941650391,86.49844360351562,-0.030254787868923612,0.08433333333333333,0.2914285714285714,0.060331429375542533,-3.548477786132814,-1.4831110411376969,42.62664794921875,-0.40052218967013886,-0.08031891716851128
3881,0.2253576229871962,0.7371095275878906,49.65358352661133,92.47217559814453,-2.1501083374023438,89.62850952148438,0.019980960422092013,0.082,0.2892857142857143,0.044005033704969616,-5.295252459594728,2.8563599586486816,42.538761138916016,-0.4757621341281467,-0.07531797620985244
3882,0.1120763729871962,0.6375001525878906,45.07099151611328,75.96257019042969,2.5347747802734375,88.38057708740234,0.019980960422092013,0.08166666666666667,0.2875,0.01516677008734809,-5.207365649291994,-0.8898664885253922,42.538761138916016,-0.34323976304796006,-0.009397803412543402
3883,0.0691076229871962,0.5976564025878907,47.52595138549805,72.79158020019531,-2.4160614013671875,84.96409606933594,0.02316330803765191,0.076,0.2857142857142857,0.0036314646402994793,-3.976933138916017,-0.801977770874025,42.538761138916016,-0.28072920905219184,-0.02644619411892361
3884,0.0886388729871962,0.6375001525878906,47.81236267089844,76.35127258300781,0.10027313232421875,81.67034912109375,-0.014115693834092882,0.072,0.2842857142857143,0.008453114827473959,-3.92200340563965,0.24169200658798218,42.538761138916016,-0.3170989990234375,0.03811026679144965
3885,0.1120763729871962,0.6574220275878906,45.37786102294922,87.70545959472656,1.4095840454101562,90.6309585571289,-0.0250266604953342,0.06833333333333333,0.2825,0.013488345675998263,-2.0214239531250016,0.09887400269508362,42.538761138916016,-0.47030665079752604,-0.04690416124131944
3886,0.1120763729871962,0.5976564025878907,47.09633255004883,77.68104553222656,1.1231727600097656,86.49844360351562,0.009070036146375868,0.064,0.2789285714285714,0.012176132202148438,-2.482836382934572,0.9338099956512451,43.417659759521484,-0.3398301442464193,-0.0041696760389539934
3887,0.1003576229871962,0.5777345275878907,45.991600036621094,66.7973861694336,-3.7867469787597656,81.9976806640625,-0.0066144307454427086,0.060333333333333336,0.2775,0.008910836113823786,-1.4391657286376969,1.7577600479125977,43.76921844482422,-0.23117540147569443,-0.008715862698025174
3888,0.0691076229871962,0.5976564025878907,45.991600036621094,87.09172058105469,2.064239501953125,85.47554016113281,0.022935994466145835,0.05433333333333333,0.2760714285714286,0.0027770148383246527,-0.8898664885253922,3.141996145248413,45.52701950073242,-0.45666800604926217,0.017652214898003473
3889,0.0925451229871962,0.5578126525878906,47.669158935546875,80.87248992919922,2.7598114013671875,84.08439636230469,-0.01252454121907552,0.051666666666666666,0.2742857142857143,0.01080288357204861,-2.1202989989013687,1.538040041923523,48.251609802246094,-0.3689258999294705,0.04083794487847222
3890,0.1277013729871962,0.6773439025878907,46.56442642211914,81.97721862792969,3.844085693359375,85.96653747558594,-0.024117406209309897,0.051,0.27464285714285713,0.02212456597222222,-1.8566347532959,-1.1864878111572281,46.84537124633789,-0.39347546895345054,0.03197275797526042
3891,0.1823888729871962,0.6175782775878906,48.016944885253906,88.13508605957031,2.248363494873047,84.5140151977539,-0.02434471978081597,0.049,0.2739285714285714,0.03054716322157118,-2.570725100585939,0.26366400718688965,45.43912887573242,-0.4457571241590712,0.03038164774576823
3892,0.1628576229871962,0.6175782775878906,47.93511199951172,88.40103149414062,-1.4749946594238281,88.1146240234375,0.020435587565104166,0.04633333333333333,0.2735714285714286,0.027129321628146703,-3.7572122984619156,2.438892126083374,43.68132781982422,-0.449621327718099,-0.05099576314290365
3893,0.1550451229871962,0.5777345275878907,49.59220886230469,71.17539978027344,3.2303466796875,81.19981384277344,0.008160781860351563,0.03966666666666667,0.2732142857142857,0.025481414794921876,-4.537218707153322,0.8349360227584839,43.505550384521484,-0.239813232421875,0.07811703152126737
3894,0.1589513729871962,0.478125114440918,47.13724899291992,85.5982894897461,4.1509552001953125,82.91828918457031,-0.014797634548611112,0.039,0.2739285714285714,0.020751317342122395,-2.559738772460939,-1.516068118164064,43.505550384521484,-0.42734489440917967,0.06925184461805556
3895,0.1081701229871962,0.45820323944091795,49.121673583984375,77.72195434570312,1.7982864379882812,83.53202819824219,0.013388951619466146,0.03666666666666667,0.2742857142857143,0.01055874294704861,-1.9445234709472672,0.45042601227760315,46.933258056640625,-0.31778089735243054,0.03629175821940104
3896,0.030045122987196197,0.5179688644409179,45.84839630126953,84.73905181884766,3.0257644653320312,78.00836944580078,0.024072562323676217,0.03266666666666666,0.275,-0.0035094367133246527,-2.4498793059082047,-0.9557825499267594,46.933258056640625,-0.43211839463975693,0.11130438910590278
3897,0.04176387298719619,0.478125114440918,47.48503494262695,83.98210144042969,4.253246307373047,81.60897827148438,-0.0075236850314670135,0.029666666666666668,0.2767857142857143,-0.0021667056613498266,-1.8346620970459,-1.6588865690917984,46.933258056640625,-0.40552296108669705,0.08493631150987413
3898,0.0769201229871962,0.49804698944091796,47.21908187866211,90.1604232788086,0.9185905456542969,86.02790832519531,-0.024117406209309897,0.027333333333333334,0.2767857142857143,0.0029296027289496527,-1.1864878111572281,-1.4062086516113297,47.109039306640625,-0.47712601555718315,-0.0012146419949001736
3899,0.0964513729871962,0.39843757629394533,47.239540100097656,79.58363342285156,0.40714263916015625,84.20714569091797,0.0017960866292317708,0.022333333333333334,0.2764285714285714,0.0020751105414496527,-2.142269747802736,-0.6042314940185562,47.109039306640625,-0.3593788146972656,0.013333299424913195
3900,0.0925451229871962,0.39843757629394533,47.341827392578125,85.84378051757812,1.7778282165527344,83.1024169921875,-0.001613616943359375,0.019333333333333334,0.27714285714285714,0.0008849673800998264,-1.8676210814209,0.10986000299453735,44.38444900512695,-0.42779947916666666,0.04083790249294705
3901,0.0847326229871962,0.49804698944091796,47.19862365722656,77.55829620361328,-1.495452880859375,83.4501953125,-0.02389009263780382,0.015,0.2760714285714286,0.0031737009684244793,-1.0326849394531266,-1.4281813078613297,43.417659759521484,-0.33732969495985243,0.0006039089626736111
3902,0.0730138729871962,0.5378907394409179,45.991600036621094,82.44775390625,0.9390487670898438,85.57783508300781,-0.0002497355143229167,0.012333333333333333,0.2742857142857143,-0.000152587890625,-1.3183199339599625,0.09887400269508362,42.71453857421875,-0.40506837632921006,0.004013485378689236
3903,0.0691076229871962,0.5179688644409179,48.48747634887695,83.47065734863281,0.6117210388183594,85.33233642578125,0.025209130181206598,0.008333333333333333,0.2710714285714286,0.00018310546875,-0.6921183043212906,1.3842360973358154,39.98994827270508,-0.3887020111083984,0.003104273478190104
3904,0.0925451229871962,0.438281364440918,46.543968200683594,78.80622863769531,0.40714263916015625,81.81356048583984,-0.021389685736762153,0.007,0.26857142857142857,0.0031126658121744793,0.3185940086841583,0.6481740474700928,34.277099609375,-0.35846956041124134,0.03992869059244792
3905,0.0847326229871962,0.438281364440918,46.62580108642578,84.30943298339844,2.698436737060547,79.4813461303711,0.00225067138671875,0.004,0.26321428571428573,0.0013122134738498264,0.6591600179672241,0.9338099956512451,32.95874786376953,-0.418707021077474,0.09130100674099392
3906,0.0691076229871962,0.45820323944091795,47.832820892333984,81.8953857421875,2.3506507873535156,79.4404296875,-2.242194281684028e-05,0.0026666666666666666,0.2592857142857143,0.0004882388644748264,1.1535300016403198,1.2853620052337646,30.58572006225586,-0.3784729427761502,0.08789134555392795
3907,0.0769201229871962,0.39843757629394533,46.01205825805664,83.12287139892578,7.137825012207031,80.64745330810547,-0.002750142415364583,0.0023333333333333335,0.25392857142857145,0.0005797915988498264,2.3949480056762695,0.9777539968490601,28.56424903869629,-0.41234236823187936,0.12767079671223958
3908,0.05738887298719619,0.49804698944091796,47.689613342285156,87.84866333007812,8.222099304199219,78.4789047241211,-0.011387973361545138,0.0,0.25,-0.0,2.1642420291900635,1.4721240997314453,26.63067054748535,-0.446211666531033,0.16381327311197916
