,WD,WS,AIL_1,AIL_2,ELEV_1,ELEV_2,RUDD,ALT,GS,TH,PTCH,ROLL,PLA_1,AIL,ELEV
4949,0.20787113549262154,0.5976564025878907,84.6572265625,82.20226287841797,-0.06339263916015625,86.74394226074219,0.005887646145290798,0.7046666666666667,0.39464285714285713,0.03277490403917101,-0.3076082640380875,0.6042300462722778,29.706819534301758,0.027277374267578126,-0.02008149888780382
4950,0.21568363549262154,0.5976564025878907,83.47065734863281,83.5934066772461,0.01844024658203125,86.04837036132812,-0.0043413374159071184,0.699,0.3939285714285714,0.03372094896104601,-0.2856375151367203,0.9667680263519287,29.53104019165039,-0.0013638814290364584,-0.011443667941623263
4951,0.22740238549262154,0.6175782775878906,86.08927917480469,85.49600219726562,0.01844024658203125,86.41661071777344,-0.010933346218532987,0.694,0.3939285714285714,0.03640641106499566,0.10986000299453735,2.3400180339813232,29.53104019165039,0.006591966417100695,-0.015535227457682292
4952,0.23130863549262154,0.5976564025878907,88.52378845214844,89.52622985839844,-0.0224761962890625,86.13019561767578,0.0004322052001953125,0.6873333333333334,0.3939285714285714,0.038420486450195315,-0.13183273608398594,3.5155200958251953,31.816179275512695,-0.011138237847222222,-0.012807464599609375
4953,0.23130863549262154,0.5777345275878907,84.73905181884766,84.554931640625,0.22301864624023438,86.04837036132812,-0.009342193603515625,0.6813333333333333,0.3939285714285714,0.039030838012695315,-0.12084640795898594,2.4169201850891113,34.277099609375,0.002045779758029514,-0.009170574612087673
4954,0.22349613549262154,0.6175782775878906,84.6572265625,88.54424285888672,0.24347686767578125,86.19157409667969,-0.0043413374159071184,0.6753333333333333,0.3942857142857143,0.04131957160101996,0.2526780068874359,3.3617160320281982,35.6833381652832,-0.04318906995985243,-0.010534413655598958
4955,0.21568363549262154,0.6175782775878906,89.38301849365234,88.72836303710938,0.4276008605957031,86.21202850341797,0.002705298529730903,0.6693333333333333,0.3942857142857143,0.04235716925726996,0.7360620498657227,2.8893179893493652,36.29856872558594,0.0072739495171440975,-0.008715862698025174
4956,0.21177738549262154,0.6175782775878906,87.43951416015625,90.93782806396484,0.673095703125,86.08927917480469,-0.011615286933051215,0.664,0.3942857142857143,0.04366938273111979,1.0876140594482422,1.922550082206726,36.29856872558594,-0.038870154486762155,-0.004624260796440972
4957,0.20787113549262154,0.5777345275878907,89.03523254394531,88.89202880859375,0.7344703674316406,85.90515899658203,-0.002750142415364583,0.6593333333333333,0.3939285714285714,0.04269282023111979,1.4721240997314453,0.9997260570526123,36.0349006652832,0.001591152615017361,-0.0018965403238932292
4958,0.19615238549262154,0.5976564025878907,84.5140151977539,84.30943298339844,0.48897552490234375,86.31431579589844,-0.004795964558919271,0.6546666666666666,0.39321428571428574,0.04107543097601996,1.9884660243988037,-0.2966219359130875,35.41967010498047,0.002273135715060764,-0.009170447455512152
4959,0.20396488549262154,0.5777345275878907,85.27096557617188,87.80775451660156,0.5503463745117188,86.70301818847656,-0.005250591701931423,0.6506666666666666,0.3921428571428571,0.04168578253851996,1.8456480503082275,0.5932440161705017,35.24388885498047,-0.028186543782552084,-0.012807464599609375
4960,0.19615238549262154,0.6175782775878906,86.86668395996094,87.97142028808594,0.6321792602539062,86.27340698242188,-0.006387117173936632,0.6476666666666666,0.3914285714285714,0.04196044074164496,1.4062080383300781,0.6921180486679077,36.82590866088867,-0.012274848090277778,-0.0071247524685329865
4961,0.20005863549262154,0.5976564025878907,86.5188980102539,86.76439666748047,0.48897552490234375,86.33477783203125,-0.008660252888997395,0.644,0.39071428571428574,0.04238768683539496,1.6808580160140991,0.7690200209617615,37.17747116088867,-0.002727762858072917,-0.009397803412543402
4962,0.19615238549262154,0.5976564025878907,85.96653747558594,89.28073120117188,0.5912628173828125,86.58027648925781,-0.0011589898003472221,0.64,0.39,0.04226561652289496,1.8236761093139648,0.9447960257530212,37.17747116088867,-0.03682437472873264,-0.010989040798611112
4963,0.20396488549262154,0.5976564025878907,87.66455078125,88.70790100097656,0.7140121459960938,86.58027648925781,-0.007296371459960938,0.6363333333333333,0.3889285714285714,0.04336420694986979,1.8017040491104126,0.5493000149726868,37.17747116088867,-0.011592780219184027,-0.009625159369574653
4964,0.20396488549262154,0.5976564025878907,87.25538635253906,89.42393493652344,0.7753868103027344,86.43707275390625,-0.01320648193359375,0.6336666666666667,0.38821428571428573,0.044096586439344616,1.8456480503082275,0.9667680263519287,37.529029846191406,-0.024094984266493057,-0.007352066040039062
4965,0.19615238549262154,0.5578126525878906,88.1555404663086,91.06057739257812,0.9185905456542969,86.35523986816406,0.008842722574869791,0.6306666666666667,0.38785714285714284,0.04180785285101996,1.7467740774154663,1.219446063041687,38.407928466796875,-0.032278188069661456,-0.0048516591389973955
4966,0.20005863549262154,0.5179688644409179,87.76683807373047,83.30699157714844,1.3277511596679688,85.82332611083984,-0.012069914076063368,0.6266666666666667,0.38821428571428573,0.04064822726779514,1.735788106918335,-0.7800070219726578,39.19894027709961,0.04955384996202257,0.005604722764756945
4967,0.20396488549262154,0.5378907394409179,84.0434799194336,87.95095825195312,1.2663764953613281,85.65966796875,-0.003204769558376736,0.6246666666666667,0.3889285714285714,0.04128905402289496,2.372976064682007,-0.4614130430908219,40.69306945800781,-0.04341642591688368,0.0067412058512369795
4968,0.21177738549262154,0.5578126525878906,86.96897888183594,84.47309875488281,1.1027145385742188,86.53935241699219,-0.010251405504014757,0.6223333333333333,0.3896428571428571,0.04226561652289496,2.6366400718688965,-0.7909933500976578,42.275089263916016,0.027732001410590276,-0.004851531982421875
4969,0.21958988549262154,0.5578126525878906,85.06637573242188,88.564697265625,0.3048515319824219,86.6007308959961,-0.007069057888454861,0.62,0.39071428571428574,0.04299799601236979,2.054382085800171,-0.2856375151367203,42.71453857421875,-0.0388702392578125,-0.01439865960015191
4970,0.22349613549262154,0.5578126525878906,86.08927917480469,84.98455047607422,1.3072929382324219,86.47798156738281,-0.007296371459960938,0.6173333333333333,0.3914285714285714,0.04330317179361979,1.494096040725708,-0.19774879748535312,42.97821044921875,0.01227476331922743,-0.0018965403238932292
4971,0.22349613549262154,0.5578126525878906,85.84378051757812,89.09660339355469,1.1640892028808594,86.17111206054688,-0.002068201700846354,0.6156666666666667,0.39321428571428574,0.04324213663736979,1.735788106918335,0.2746500074863434,43.505550384521484,-0.03614247639973958,-7.803175184461806e-05
4972,0.22740238549262154,0.5578126525878906,87.58271789550781,84.86180114746094,1.2459182739257812,86.559814453125,-0.01070603264702691,0.6133333333333333,0.3942857142857143,0.04315058390299479,2.197200059890747,-0.9228254729003922,43.505550384521484,0.030232408311631945,-0.003487735324435764
4973,0.22740238549262154,0.5578126525878906,85.02546691894531,90.28317260742188,1.3482093811035156,86.15065002441406,-0.0066144307454427086,0.6106666666666667,0.395,0.04336420694986979,1.9994521141052246,0.010986000299453735,43.241878509521484,-0.058418952094184025,0.0021951039632161456
4974,0.21958988549262154,0.5578126525878906,86.90760040283203,87.99187469482422,1.4709587097167969,87.03034973144531,-0.0050232781304253475,0.6083333333333333,0.39571428571428574,0.04241816202799479,1.7138160467147827,-0.2416922026367203,42.71453857421875,-0.012047492133246528,-0.006215455796983507
4975,0.21177738549262154,0.5777345275878907,85.63920593261719,84.98455047607422,1.061798095703125,87.17355346679688,-0.007978312174479167,0.605,0.3964285714285714,0.04135008917914496,1.1974740028381348,-0.7140909605712906,42.538761138916016,0.0072739495171440975,-0.012352837456597222
4976,0.21568363549262154,0.5378907394409179,41.900001525878906,87.19401550292969,1.1436309814453125,86.70301818847656,0.00770615471733941,0.603,0.39714285714285713,0.039397048950195315,0.4284540116786957,0.12084600329399109,41.48408126831055,-0.5032668219672309,-0.006215413411458333
4977,0.20787113549262154,0.5578126525878906,86.04837036132812,86.62118530273438,1.4095840454101562,87.05081176757812,-0.005250591701931423,0.6006666666666667,0.3982142857142857,0.038756179809570315,0.3185940086841583,0.09887400269508362,40.42940139770508,-0.006364610460069444,-0.0071247524685329865
4978,0.21568363549262154,0.5378907394409179,88.33966064453125,90.28317260742188,1.2663764953613281,86.84622192382812,-0.014797634548611112,0.5963333333333334,0.3989285714285714,0.039397048950195315,0.10986000299453735,0.4394400119781494,40.07783889770508,-0.021594577365451388,-0.00644272698296441
4979,0.20396488549262154,0.49804698944091796,83.49111938476562,85.57783508300781,1.2254638671875,86.72348022460938,0.0065695868598090275,0.592,0.40035714285714286,0.03643692864312066,0.010986000299453735,-0.812964098999025,39.550498962402344,-0.02318572998046875,-0.005533515082465278
4980,0.21568363549262154,0.49804698944091796,41.900001525878906,86.19157409667969,6.687747955322266,86.6007308959961,-0.015024948120117187,0.5883333333333334,0.4010714285714286,0.03683361477322049,-0.09887375170898594,-1.3622652464599625,39.462608337402344,-0.4921285841200087,0.0565224117702908
4981,0.20787113549262154,0.5578126525878906,86.33477783203125,88.1555404663086,-2.6820144653320312,86.82576751708984,-0.011615286933051215,0.5823333333333334,0.4032142857142857,0.03726086086697049,-0.21972145373535312,-1.131558077880861,39.462608337402344,-0.02023069593641493,-0.05008646647135417
4982,0.21958988549262154,0.49804698944091796,87.41905212402344,89.64897155761719,-2.6001853942871094,86.62118530273438,-0.0059324900309244795,0.576,0.4039285714285714,0.03530777825249566,-0.3954969816894547,0.4614120125770569,38.84737777709961,-0.024776882595486112,-0.04690411885579427
4983,0.16490238549262154,0.49804698944091796,86.78485107421875,88.44195556640625,-2.6206436157226562,86.662109375,0.014070849948459202,0.5726666666666667,0.405,0.028960333930121526,-0.3076082640380875,1.2963480949401855,36.1227912902832,-0.018412272135416668,-0.047586144341362845
4984,0.15318363549262154,0.478125114440918,84.45263671875,85.08683776855469,-2.6820144653320312,86.98943328857422,-0.007069057888454861,0.5683333333333334,0.40535714285714286,0.027403979831271703,-0.3625379973144547,0.05493000149726868,31.46462059020996,-0.007046678331163195,-0.05190497504340278
4985,0.16099613549262154,0.49804698944091796,87.29630279541016,88.40103149414062,-2.497894287109375,86.45751953125,-0.015252261691623263,0.5616666666666666,0.4057142857142857,0.028960333930121526,-1.175503390380861,0.4943700134754181,28.915809631347656,-0.01227476331922743,-0.04394904242621528
4986,0.15708988549262154,0.49804698944091796,85.82332611083984,88.29874420166016,-2.5592689514160156,86.58027648925781,-0.0002497355143229167,0.555,0.4057142857142857,0.028502570258246526,-1.2743765288085953,1.1095860004425049,28.827919006347656,-0.02750464545355903,-0.04599494934082031
4987,0.18052738549262154,0.438281364440918,87.43951416015625,83.85935974121094,-2.5592689514160156,86.6007308959961,-0.003659396701388889,0.551,0.4057142857142857,0.029051886664496526,-1.0656420164794937,0.7140899896621704,28.65213966369629,0.03977949354383681,-0.046222220526801215
4988,0.20396488549262154,0.41835948944091794,86.82576751708984,88.31919860839844,-2.1910247802734375,86.13019561767578,-0.010478719075520834,0.5446666666666666,0.4057142857142857,0.03131010267469618,-1.3622652464599625,0.6371880173683167,28.65213966369629,-0.01659367879231771,-0.03690244886610243
4989,0.20787113549262154,0.45820323944091795,41.900001525878906,88.1146240234375,-2.0069007873535156,85.78240966796875,-0.02093505859375,0.539,0.4064285714285714,0.03384301927354601,-1.0766283446044937,0.36253800988197327,28.65213966369629,-0.5134958055284288,-0.030992338392469617
4990,0.19615238549262154,0.438281364440918,89.23981475830078,91.18331909179688,-2.0273590087890625,86.27340698242188,-2.242194281684028e-05,0.5326666666666666,0.4064285714285714,0.03222563001844618,-0.9008528166503922,1.6149420738220215,28.65213966369629,-0.021594492594401042,-0.036675177680121525
4991,0.16880863549262154,0.39843757629394533,84.18669128417969,87.86912536621094,-2.4569778442382812,87.33721923828125,0.00770615471733941,0.527,0.40535714285714286,0.028258429633246526,-0.9008528166503922,0.8239500522613525,28.65213966369629,-0.04091593424479167,-0.05326885647243924
4992,0.17271488549262154,0.41835948944091794,84.39126586914062,83.06149291992188,-2.313770294189453,86.64164733886719,-0.018889236450195312,0.5193333333333333,0.40464285714285714,0.029265509711371526,-1.8895918303222672,-0.812964098999025,28.65213966369629,0.014775254991319445,-0.04394908481174045
4993,0.20005863549262154,0.39843757629394533,85.47554016113281,86.43707275390625,-2.5592689514160156,87.33721923828125,-0.007069057888454861,0.5143333333333333,0.40285714285714286,0.030821863810221353,-1.0216986113281266,0.1538040041923523,28.65213966369629,-0.010683695475260416,-0.054405424329969615
4994,0.18833988549262154,0.45820323944091795,87.09172058105469,82.75462341308594,-4.175449371337891,87.33721923828125,-0.011387973361545138,0.5086666666666667,0.4010714285714286,0.03204252454969618,-0.4394403868408219,0.26366400718688965,28.65213966369629,0.04818996853298611,-0.07236298455132378
4995,0.20787113549262154,0.438281364440918,87.39859008789062,87.99187469482422,-3.6230850219726562,88.1555404663086,-0.0075236850314670135,0.5033333333333333,0.3960714285714286,0.03338525560167101,-0.9667688780517594,1.1864880323410034,28.65213966369629,-0.0065920511881510414,-0.07531806098090278
4996,0.18833988549262154,0.45820323944091795,85.98699188232422,89.75126647949219,-4.216365814208984,88.50332641601562,0.0008868323432074653,0.499,0.39321428571428574,0.03304956224229601,-1.3293062620849625,0.8788800239562988,28.65213966369629,-0.04182527330186632,-0.08577435811360677
4997,0.19224613549262154,0.438281364440918,87.66455078125,88.97386169433594,-4.339115142822266,89.32164001464844,-0.01661614312065972,0.49733333333333335,0.38785714285714284,0.03292749192979601,-1.4062086516113297,0.2746500074863434,28.65213966369629,-0.014547899034288195,-0.09623061286078559
4998,0.18443363549262154,0.45820323944091795,87.66455078125,89.34210205078125,-5.055145263671875,89.64897155761719,-0.014570320977105035,0.494,0.38357142857142856,0.03277490403917101,-1.6479002409667984,-0.2856375151367203,28.65213966369629,-0.018639458550347224,-0.10782352023654514
4999,0.20396488549262154,0.41835948944091794,84.75950622558594,84.14576721191406,-4.318656921386719,89.46485137939453,-0.009114880032009548,0.49133333333333334,0.37892857142857145,0.03308007982042101,-2.3839632445068375,-1.3512789183349625,28.827919006347656,0.006819322374131944,-0.09759453667534722
5000,0.19224613549262154,0.49804698944091796,87.35768127441406,86.19157409667969,-4.645984649658203,88.78973388671875,-0.00843293931749132,0.4876666666666667,0.37607142857142856,0.034270222981770834,-3.0321375303955094,-1.3402925902099625,28.827919006347656,0.012956746419270833,-0.09373020595974392
5001,0.18052738549262154,0.5976564025878907,86.23248291015625,85.14820861816406,-4.339115142822266,89.6080551147461,-0.008205625745985243,0.4826666666666667,0.3717857142857143,0.03616227043999566,-2.7684732847900406,-1.4171949797363297,28.65213966369629,0.012047492133246528,-0.09941300286187066
5002,0.18052738549262154,0.5578126525878906,84.02302551269531,81.9976806640625,-4.236824035644531,88.81019592285156,0.001341459486219618,0.4786666666666667,0.36892857142857144,0.03228666517469618,-3.0541082792968766,-0.6701475554199234,28.65213966369629,0.022503831651475695,-0.08941133287217883
5003,0.12583988549262154,0.49804698944091796,88.83065795898438,89.2193603515625,-4.154991149902344,88.1555404663086,0.017480553521050348,0.47533333333333333,0.365,0.02288750542534722,-2.6586119108886734,1.6149420738220215,28.65213966369629,-0.0043189154730902775,-0.08122812906901042
5004,0.11802738549262154,0.438281364440918,86.58027648925781,91.0810317993164,-4.073158264160156,88.58515930175781,0.016798612806532116,0.47,0.3625,0.02105653550889757,-1.4062086516113297,2.449877977371216,28.65213966369629,-0.050008392333984374,-0.08509241739908854
5005,0.13365238549262154,0.5179688644409179,85.0459213256836,83.67523193359375,-4.011787414550781,88.31919860839844,-0.032527923583984375,0.466,0.3578571428571429,0.027465014987521703,-1.7467752867431656,-0.12084640795898594,28.65213966369629,0.015229882134331598,-0.08145540025499132
5006,0.14927738549262154,0.5179688644409179,86.5188980102539,88.50332641601562,-3.8890380859375,88.03279113769531,-0.010251405504014757,0.461,0.3557142857142857,0.029418097601996526,-2.0543829375000016,0.08788800239562988,28.65213966369629,-0.02204920450846354,-0.07690921359592014
5007,0.16880863549262154,0.438281364440918,83.98210144042969,82.83645629882812,-3.909496307373047,88.36012268066406,-0.012979168362087673,0.4583333333333333,0.3517857142857143,0.028380499945746526,-1.3952223234863297,-0.9997259550781266,28.65213966369629,0.012729390462239584,-0.08077354431152343
5008,0.16880863549262154,0.41835948944091794,87.86912536621094,89.6080551147461,-3.66400146484375,88.46240997314453,-0.0043413374159071184,0.4543333333333333,0.3489285714285714,0.027312427096896703,-0.9228254729003922,0.7360620498657227,28.65213966369629,-0.019321441650390625,-0.0791823493109809
5009,0.12974613549262154,0.438281364440918,88.46240997314453,90.36500549316406,-3.254840850830078,87.35768127441406,0.01725323994954427,0.447,0.3460714285714286,0.02276543511284722,-1.7357889586181656,2.361989974975586,28.65213966369629,-0.021139950222439235,-0.062361356947157116
5010,0.15708988549262154,0.41835948944091794,85.1072998046875,88.33966064453125,-2.0478172302246094,86.96897888183594,-0.021616956922743055,0.443,0.3442857142857143,0.027068286471896703,-1.5819841795654312,-0.12084640795898594,28.65213966369629,-0.03591512044270833,-0.04463106791178385
5011,0.19615238549262154,0.478125114440918,84.73905181884766,83.92073059082031,-2.1705665588378906,86.37569427490234,-0.032073296440972225,0.43866666666666665,0.3414285714285714,0.034239705403645834,-0.7690206938476578,-1.6479002409667984,28.65213966369629,0.009092458089192708,-0.03940289815266927
5012,0.20396488549262154,0.5378907394409179,86.15065002441406,89.28073120117188,-2.7843055725097656,87.33721923828125,-0.01661614312065972,0.43566666666666665,0.3385714285714286,0.03686413235134549,0.3185940086841583,-0.7800070219726578,28.65213966369629,-0.03477867974175347,-0.056905831231011283
5013,0.20396488549262154,0.5179688644409179,85.0050048828125,84.63676452636719,-2.6206436157226562,87.27584838867188,0.0031599256727430558,0.42966666666666664,0.3357142857142857,0.03549088372124566,-0.2856375151367203,-0.6481748991699234,28.65213966369629,0.004091559516059028,-0.054405466715494795
5014,0.21568363549262154,0.5179688644409179,86.31431579589844,83.12287139892578,-2.6001853942871094,87.17355346679688,-0.0054779052734375,0.425,0.3325,0.03686413235134549,-0.5163427763671891,-0.4284540587158219,28.65213966369629,0.03546049329969618,-0.05304154290093316
5015,0.25083988549262154,0.49804698944091796,88.70790100097656,91.0196533203125,-2.354686737060547,86.94851684570312,-0.02207158406575521,0.42133333333333334,0.33035714285714285,0.04025149875217014,-0.49437012011718906,0.9557820558547974,28.65213966369629,-0.025686136881510415,-0.04781337314181858
5016,0.22349613549262154,0.49804698944091796,88.13508605957031,89.1579818725586,-2.5797271728515625,87.0712661743164,0.016116672092013888,0.418,0.3275,0.03777965969509549,-0.5932451658935562,1.6149420738220215,28.65213966369629,-0.011365509033203125,-0.051677703857421875
5017,0.23912113549262154,0.45820323944091795,86.1097412109375,88.6669921875,-2.497894287109375,87.17355346679688,-0.008887566460503472,0.41233333333333333,0.3242857142857143,0.038817214965820315,-1.4171949797363297,0.5822579860687256,28.65213966369629,-0.028413899739583335,-0.05190497504340278
5018,0.22740238549262154,0.5179688644409179,85.31187438964844,84.73905181884766,-2.497894287109375,86.92805480957031,-0.01843460930718316,0.409,0.3196428571428571,0.04083133273654514,-0.845923083374025,-0.5492998533935562,28.65213966369629,0.006364695231119792,-0.04917721218532986
5019,0.22740238549262154,0.5378907394409179,86.21202850341797,87.37813568115234,-3.9504127502441406,89.64897155761719,-0.002750142415364583,0.407,0.31607142857142856,0.04080081515842014,0.24169200658798218,-0.02197326953125156,30.849390029907227,-0.012956746419270833,-0.09554871453179253
5020,0.21958988549262154,0.49804698944091796,87.21446990966797,88.48286437988281,-3.8890380859375,88.6056137084961,0.007024214002821181,0.4056666666666667,0.3092857142857143,0.03753551907009549,-0.20873512561035312,0.5822579860687256,35.7712287902832,-0.014093271891276042,-0.08327390882703993
5021,0.21568363549262154,0.49804698944091796,88.23736572265625,88.99431610107422,-3.868579864501953,88.50332641601562,-0.00775099860297309,0.4043333333333333,0.30642857142857144,0.03732189602322049,-0.5492998533935562,0.5273280143737793,39.814170837402344,-0.008410559760199653,-0.08191006978352865
5022,0.21568363549262154,0.5179688644409179,87.70545959472656,89.71034240722656,-3.8481216430664062,88.564697265625,-0.01002409193250868,0.403,0.3032142857142857,0.038573074340820315,-0.7909933500976578,-0.16478981311035312,43.417659759521484,-0.022276475694444443,-0.08236465454101563
5023,0.22740238549262154,0.49804698944091796,83.65477752685547,81.93630981445312,-3.8072052001953125,88.40103149414062,-0.0066144307454427086,0.4026666666666667,0.3025,0.038817214965820315,-0.5932451658935562,-0.7470480375976578,45.17546081542969,0.019094085693359374,-0.08009151882595486
5024,0.23912113549262154,0.478125114440918,88.6056137084961,90.26271057128906,-2.866138458251953,87.66455078125,0.0072515275743272566,0.402,0.30142857142857143,0.03799328274197049,-1.0216986113281266,1.1095860004425049,46.054359436035156,-0.01841218736436632,-0.06145210266113281
5025,0.25083988549262154,0.45820323944091795,87.03034973144531,83.34790802001953,-3.6026268005371094,88.70790100097656,-0.004114023844401042,0.40166666666666667,0.30214285714285716,0.039549636840820315,-0.7250772886962906,1.6039559841156006,48.251609802246094,0.04091601901584201,-0.08122808668348525
5026,0.24302738549262154,0.45820323944091795,86.19157409667969,90.50820922851562,-4.073158264160156,89.05569458007812,-0.006387117173936632,0.39966666666666667,0.3028571428571429,0.04101439581976996,-0.3735243254394547,2.13128399848938,49.8336296081543,-0.04796261257595486,-0.09032058715820312
5027,0.23130863549262154,0.41835948944091794,87.82821655273438,89.17843627929688,-3.9913291931152344,88.99431610107422,0.01475279066297743,0.398,0.30392857142857144,0.038267898559570315,-0.834936755249025,1.9884660243988037,51.4156494140625,-0.01500244140625,-0.0887293921576606
5028,0.23130863549262154,0.39843757629394533,89.93538665771484,89.567138671875,-4.175449371337891,89.28073120117188,-0.012979168362087673,0.396,0.3067857142857143,0.038359451293945315,-1.7357889586181656,0.7800060510635376,51.5035400390625,0.004091644287109375,-0.09395756191677518
5029,0.20005863549262154,0.478125114440918,85.31187438964844,84.22760009765625,-3.5821685791015625,89.28073120117188,-0.015934202406141493,0.393,0.3082142857142857,0.038908767700195315,-3.2957998686523453,0.5493000149726868,51.5035400390625,0.012047492133246528,-0.0873655531141493
5030,0.19615238549262154,0.39843757629394533,89.23981475830078,91.44927978515625,-3.6230850219726562,88.0123291015625,0.01543473137749566,0.39166666666666666,0.31035714285714283,0.03549088372124566,-3.4825636320800797,3.076080083847046,50.27307891845703,-0.02454961140950521,-0.07372682359483507
5031,0.14927738549262154,0.438281364440918,84.73905181884766,88.38057708740234,-4.66644287109375,90.26271057128906,0.0002048916286892361,0.3883333333333333,0.31142857142857144,0.03289697435167101,-3.0541082792968766,1.8017040491104126,47.109039306640625,-0.04046139187282986,-0.1103239271375868
5032,0.16099613549262154,0.438281364440918,83.75706481933594,86.80531311035156,-4.032245635986328,88.91248321533203,-0.021389685736762153,0.38533333333333336,0.31107142857142855,0.035277303059895834,-4.009890215942384,0.5932440161705017,46.054359436035156,-0.033869425455729164,-0.08827476501464844
5033,0.17662113549262154,0.478125114440918,90.48774719238281,92.34942626953125,-3.9913291931152344,88.78973388671875,-0.024117406209309897,0.38266666666666665,0.31107142857142855,0.04009891086154514,-4.295527117797853,1.6149420738220215,44.03289031982422,-0.020685323079427085,-0.08645625644259983
5034,0.16099613549262154,0.478125114440918,85.14820861816406,87.31675720214844,-3.9913291931152344,89.73080444335938,0.0002048916286892361,0.379,0.31,0.039122390747070315,-4.207638400146486,0.9118380546569824,42.362979888916016,-0.024094984266493057,-0.09691259596082899
5035,0.15708988549262154,0.478125114440918,88.23736572265625,89.48530578613281,-4.830104827880859,88.564697265625,-0.006841744316948784,0.375,0.30892857142857144,0.038603591918945315,-4.4383455687255875,0.8569080233573914,41.39619064331055,-0.013866000705295138,-0.09327557881673178
5036,0.14927738549262154,0.45820323944091795,85.63920593261719,86.1097412109375,-3.868579864501953,88.95339965820312,-0.0007043626573350694,0.37133333333333335,0.3075,0.03698620266384549,-4.3834139281005875,0.747048020362854,40.25362014770508,-0.005228169759114583,-0.08691088358561198
5037,0.13755863549262154,0.478125114440918,88.72836303710938,88.33966064453125,-3.4389610290527344,88.40103149414062,-0.007296371459960938,0.36666666666666664,0.30642857142857144,0.03600968254937066,-4.37242950732422,0.9997260570526123,39.11104965209961,0.0043189154730902775,-0.07599991692437066
5038,0.13365238549262154,0.45820323944091795,86.29386138916016,88.03279113769531,-3.357128143310547,88.05325317382812,-0.01002409193250868,0.3626666666666667,0.30428571428571427,0.03604020012749566,-3.867073672363283,0.9447960257530212,38.84737777709961,-0.019321441650390625,-0.07122645907931857
5039,0.12193363549262154,0.478125114440918,84.24806213378906,86.559814453125,-3.6230850219726562,88.58515930175781,-0.0007043626573350694,0.3566666666666667,0.3032142857142857,0.034819539388020834,-3.0541082792968766,0.07690200209617615,38.671600341796875,-0.025686136881510415,-0.0800916035970052
5040,0.14146488549262154,0.478125114440918,86.02790832519531,83.87982177734375,-3.254840850830078,89.03523254394531,-0.02457203335232205,0.3526666666666667,0.3003571428571429,0.03719982571072049,-3.3067861967773453,-0.2307058745117203,38.84737777709961,0.023867628309461805,-0.08100081549750435
5041,0.14537113549262154,0.5179688644409179,87.82821655273438,89.42393493652344,-3.091175079345703,88.09416198730469,-0.012069914076063368,0.3486666666666667,0.29892857142857143,0.04015994601779514,-3.526507037231447,0.23070600628852844,40.42940139770508,-0.017730204264322917,-0.06872596740722656
5042,0.16099613549262154,0.5179688644409179,87.72592163085938,86.88714599609375,-3.0502586364746094,88.76927947998047,-0.012751854790581597,0.344,0.2975,0.04174681769476996,-3.273829119750978,0.12084600329399109,40.60517883300781,0.009319729275173612,-0.07577264573838975
5043,0.16099613549262154,0.49804698944091796,87.562255859375,89.2193603515625,-2.9479713439941406,88.83065795898438,-0.005705218844943577,0.34,0.29642857142857143,0.04196044074164496,-3.2957998686523453,0.5712720155715942,40.69306945800781,-0.018412272135416668,-0.07531810336642795
5044,0.15708988549262154,0.5179688644409179,87.1121826171875,90.0785903930664,-2.7843055725097656,88.78973388671875,-0.003659396701388889,0.3353333333333333,0.295,0.04223509894476996,-3.7791849547119156,0.38451001048088074,40.69306945800781,-0.03296008639865451,-0.07304488288031684
5045,0.16880863549262154,0.49804698944091796,89.03523254394531,87.29630279541016,-2.477436065673828,88.25782775878906,-0.018661922878689237,0.331,0.29464285714285715,0.04379145304361979,-4.086792605468752,-0.17577614123535312,40.69306945800781,0.019321441650390625,-0.06372515360514323
5046,0.17271488549262154,0.49804698944091796,85.76194763183594,90.2218017578125,-2.1910247802734375,87.76683807373047,-0.010478719075520834,0.3263333333333333,0.29392857142857143,0.044218656751844616,-3.6143938475341812,-0.14281906420898594,40.69306945800781,-0.049553934733072916,-0.05508736504448785
5047,0.16099613549262154,0.5378907394409179,86.74394226074219,88.29874420166016,-1.9864425659179688,87.72592163085938,-0.009796820746527778,0.32066666666666666,0.2935714285714286,0.04339472452799479,-3.0650946074218766,-1.164517062255861,41.39619064331055,-0.017275577121310764,-0.05235960218641493
5048,0.16880863549262154,0.49804698944091796,84.47309875488281,84.63676452636719,-1.8636970520019531,87.76683807373047,-0.009569507175021702,0.31666666666666665,0.2925,0.04202147589789496,-2.526779788085939,-1.9335371428222672,41.74774932861328,-0.001818508572048611,-0.0514503902859158
5049,0.15318363549262154,0.5179688644409179,83.26608276367188,82.77508544921875,-0.8817138671875,87.70545959472656,0.0017960866292317708,0.31266666666666665,0.29178571428571426,0.038451004028320315,-1.9774805479736344,-1.9774805479736344,41.83563995361328,0.005455525716145834,-0.03985748291015625
5050,0.14927738549262154,0.5179688644409179,85.20958709716797,78.74485778808594,-1.0862922668457031,87.54179382324219,-0.003886710272894965,0.308,0.2910714285714286,0.03530777825249566,-1.3073355131835953,-1.4171949797363297,43.241878509521484,0.07183032565646702,-0.04031206766764323
5051,0.15318363549262154,0.49804698944091796,83.96165466308594,89.66943359375,-0.9840011596679688,87.45996856689453,-0.0066144307454427086,0.304,0.29,0.034972127278645834,-0.6701475554199234,-0.3515516691894547,43.85710906982422,-0.06341976589626735,-0.03826633029513889
5052,0.16099613549262154,0.5179688644409179,86.94851684570312,83.28652954101562,-0.8203392028808594,87.13264465332031,-0.002750142415364583,0.301,0.2882142857142857,0.03567398918999566,-0.17577614123535312,-0.08788933093261875,44.99967956542969,0.04068874782986111,-0.03281093173556858
5053,0.17271488549262154,0.49804698944091796,89.83309936523438,92.47217559814453,-1.1272087097167969,87.33721923828125,-0.008205625745985243,0.298,0.28714285714285714,0.038176345825195315,0.5493000149726868,1.5270540714263916,46.40591812133789,-0.029323069254557292,-0.038493643866644965
5054,0.17271488549262154,0.45820323944091795,86.76439666748047,89.19889831542969,-1.2908706665039062,88.23736572265625,0.003387239244249132,0.2956666666666667,0.2860714285714286,0.03704723782009549,1.0436700582504272,0.6371880173683167,47.54848861694336,-0.027050018310546875,-0.05031373765733507
5055,0.15318363549262154,0.478125114440918,86.47798156738281,82.28408813476562,-1.10675048828125,88.36012268066406,-0.006841744316948784,0.293,0.2860714285714286,0.033995564778645834,0.41746801137924194,-0.3735243254394547,49.7457389831543,0.04659881591796875,-0.04963192409939236
5056,0.15318363549262154,0.438281364440918,89.2193603515625,82.97966003417969,-0.5134696960449219,87.68500518798828,-0.008205625745985243,0.28933333333333333,0.2885714285714286,0.03176786634657118,-0.49437012011718906,-0.812964098999025,51.4156494140625,0.0693300035264757,-0.03553860982259115
5057,0.14927738549262154,0.39843757629394533,88.68744659423828,89.95584106445312,-0.6362152099609375,86.6007308959961,0.0004322052001953125,0.28833333333333333,0.29,0.029265509711371526,-0.3954969816894547,-0.6042314940185562,52.55821990966797,-0.014093271891276042,-0.024854956732855902
5058,0.13755863549262154,0.41835948944091794,91.28561401367188,89.91493225097656,-0.943084716796875,87.99187469482422,-0.002750142415364583,0.287,0.2932142857142857,0.027892261081271703,0.6042300462722778,-0.13183273608398594,54.31602096557617,0.01522979736328125,-0.043721771240234374
5059,0.13755863549262154,0.39843757629394533,85.61874389648438,84.84133911132812,-0.9226264953613281,88.31919860839844,-0.00775099860297309,0.285,0.2953571428571429,0.026885181003146703,0.5712720155715942,-0.801977770874025,55.10702896118164,0.008637830946180555,-0.047131390041775176
5060,0.12974613549262154,0.45820323944091795,85.70057678222656,86.35523986816406,-0.9021682739257812,87.99187469482422,-0.0168434566921658,0.2826666666666667,0.2975,0.026335906982421876,-0.05493034655761875,-0.3515516691894547,55.10702896118164,-0.007274034288194444,-0.043267144097222224
5061,0.11802738549262154,0.45820323944091795,91.91981506347656,93.76103210449219,-1.9250717163085938,88.6056137084961,0.01316163804796007,0.2816666666666667,0.2985714285714286,0.02511524624294705,0.10986000299453735,1.4721240997314453,54.667579650878906,-0.020457967122395834,-0.06145206027560764
5062,0.10240238549262154,0.478125114440918,85.82332611083984,86.37569427490234,-1.3931617736816406,87.78729248046875,-2.242194281684028e-05,0.2796666666666667,0.2982142857142857,0.02398609585232205,-0.3954969816894547,-1.2194467955322281,51.5035400390625,-0.006137424045138889,-0.04644949171278212
5063,0.13365238549262154,0.478125114440918,82.85691833496094,82.83645629882812,-1.9250717163085938,88.68744659423828,-0.029345575968424478,0.28,0.2978571428571429,0.027434497409396703,-0.5602861815185562,-3.0870672636718766,49.8336296081543,0.00022735595703125,-0.06236131456163194
5064,0.16490238549262154,0.45820323944091795,85.82332611083984,84.1048583984375,-2.4160614013671875,89.64897155761719,-0.021162372165256075,0.279,0.2975,0.029112921820746526,-0.9447962218017594,-1.4831110411376969,48.339500427246094,0.019094085693359374,-0.0785003662109375
5065,0.15318363549262154,0.45820323944091795,89.23981475830078,91.0196533203125,-1.8023223876953125,89.13752746582031,0.006114959716796875,0.2776666666666667,0.29714285714285715,0.027068286471896703,-1.7467752867431656,1.2414180040359497,47.46059799194336,-0.01977598402235243,-0.06599833170572916
5066,0.14146488549262154,0.438281364440918,87.45996856689453,87.48042297363281,-1.720489501953125,88.09416198730469,0.0072515275743272566,0.2763333333333333,0.29678571428571426,0.02465748257107205,-1.9774805479736344,0.8239500522613525,47.46059799194336,-0.00022727118598090277,-0.05349612765842014
5067,0.14146488549262154,0.45820323944091795,86.41661071777344,86.82576751708984,-1.9864425659179688,89.58760070800781,-0.015706888834635415,0.27366666666666667,0.29714285714285715,0.025969696044921876,-1.4171949797363297,-0.3185945921630875,48.86684036254883,-0.00454618665907118,-0.07304492526584201
5068,0.14537113549262154,0.49804698944091796,84.63676452636719,84.73905181884766,-2.4365196228027344,89.68988800048828,-0.014115693834092882,0.2703333333333333,0.29714285714285715,0.027526050143771703,-1.7577597075195328,-0.8678938322753922,48.95473098754883,-0.0011365254720052083,-0.07918230692545573
5069,0.17271488549262154,0.478125114440918,88.70790100097656,90.671875,-1.945526123046875,89.19889831542969,-0.025935872395833334,0.2663333333333333,0.29714285714285715,0.030089441935221353,-2.537766116210939,0.41746801137924194,47.72426986694336,-0.02182193332248264,-0.06827138264973959
5070,0.16099613549262154,0.45820323944091795,86.31431579589844,90.569580078125,-1.9046134948730469,89.0761489868164,0.004751120673285591,0.26366666666666666,0.2975,0.028288947211371526,-3.218899386474611,0.6152160167694092,46.66958999633789,-0.04728071424696181,-0.06645291646321615
5071,0.14927738549262154,0.45820323944091795,83.81844329833984,84.69813537597656,-1.7614059448242188,89.0147705078125,-0.004114023844401042,0.25866666666666666,0.2982142857142857,0.026366424560546876,-3.7681986265869156,-0.7909933500976578,46.66958999633789,-0.009774356418185763,-0.0641797383626302
5072,0.16490238549262154,0.438281364440918,86.76439666748047,87.15309143066406,-1.495452880859375,88.1555404663086,-0.01775266859266493,0.254,0.3,0.027617602878146703,-3.987919467041017,-1.2524038725585953,46.66958999633789,-0.004318830702039931,-0.051677703857421875
5073,0.15708988549262154,0.478125114440918,84.88226318359375,86.90760040283203,-1.4749946594238281,87.97142028808594,-0.010251405504014757,0.24833333333333332,0.30107142857142855,0.027068286471896703,-3.7242552214355484,-0.845923083374025,45.79069137573242,-0.02250374688042535,-0.049404610527886285
5074,0.14927738549262154,0.478125114440918,86.1097412109375,87.43951416015625,-1.3931617736816406,87.80775451660156,0.006796900431315104,0.24366666666666667,0.30178571428571427,0.025389862060546876,-3.163967745849611,-0.2526785307617203,45.52701950073242,-0.014775254991319445,-0.046676847669813365
5075,0.14537113549262154,0.49804698944091796,88.09416198730469,86.08927917480469,-1.3931617736816406,88.13508605957031,-0.014115693834092882,0.23766666666666666,0.30178571428571427,0.02532886928982205,-2.504809039184572,0.8349360227584839,43.76921844482422,0.022276475694444443,-0.05031386481391059
5076,0.12583988549262154,0.438281364440918,89.0761489868164,90.85599517822266,-1.3727035522460938,87.88958740234375,0.016343985663519967,0.233,0.3007142857142857,0.02093446519639757,-2.526779788085939,2.84537410736084,43.241878509521484,-0.01977606879340278,-0.0473587883843316
5077,0.12583988549262154,0.438281364440918,86.1097412109375,84.16622924804688,-1.3931617736816406,88.1555404663086,-0.006841744316948784,0.229,0.29928571428571427,0.02282647026909722,-2.1312853270263687,2.6476261615753174,42.538761138916016,0.021594577365451388,-0.05054113599989149
5078,0.14146488549262154,0.438281364440918,88.25782775878906,90.75370788574219,-1.4136199951171875,88.31919860839844,-0.011842600504557292,0.225,0.2975,0.027434497409396703,-1.8017050200195328,2.2631161212921143,43.68132781982422,-0.027732001410590276,-0.052586873372395836
5079,0.15318363549262154,0.478125114440918,86.04837036132812,84.6572265625,-1.3522453308105469,88.29874420166016,-0.018661922878689237,0.22,0.29714285714285715,0.03161527845594618,-1.7357889586181656,0.9118380546569824,45.26335144042969,0.0154571533203125,-0.0516776614718967
5080,0.16880863549262154,0.478125114440918,89.0761489868164,89.95584106445312,-1.2499542236328125,87.97142028808594,-0.007069057888454861,0.21633333333333332,0.29678571428571426,0.03549088372124566,-1.9005781584472672,1.1205720901489258,46.054359436035156,-0.009774356418185763,-0.04690416124131944
5081,0.16490238549262154,0.478125114440918,85.35279846191406,81.97721862792969,-1.2294998168945312,87.93049621582031,-0.0075236850314670135,0.212,0.29678571428571426,0.03607071770562066,-1.7138163023681656,0.3405660092830658,46.40591812133789,0.03750644259982639,-0.04622217814127604
5082,0.16490238549262154,0.478125114440918,86.94851684570312,89.75126647949219,-1.2499542236328125,88.0123291015625,-0.011160659790039062,0.208,0.29642857142857143,0.03616227043999566,-1.4391657286376969,0.17577600479125977,46.66958999633789,-0.03114166259765625,-0.04735870361328125
5083,0.17271488549262154,0.49804698944091796,85.98699188232422,88.6056137084961,-1.2294998168945312,88.23736572265625,-0.025935872395833334,0.20433333333333334,0.2960714285714286,0.03793224758572049,-1.2633902006835953,-0.4394403868408219,46.66958999633789,-0.02909579806857639,-0.04963183932834202
5084,0.18052738549262154,0.478125114440918,88.564697265625,91.51065063476562,-1.1885833740234375,87.91004180908203,-0.010478719075520834,0.20066666666666666,0.2960714285714286,0.03738293117947049,-1.4391657286376969,0.24169200658798218,46.142250061035156,-0.03273281521267361,-0.04554027981228299
5085,0.16490238549262154,0.478125114440918,85.23004150390625,88.48286437988281,-0.6157569885253906,87.62362670898438,-0.002068201700846354,0.19766666666666666,0.2953571428571429,0.03570450676812066,-1.527054446289064,-0.4284540587158219,46.142250061035156,-0.03614247639973958,-0.03599315219455295
5086,0.17662113549262154,0.478125114440918,85.23004150390625,85.0050048828125,-0.5748405456542969,87.41905212402344,-0.013661109076605903,0.195,0.29428571428571426,0.03649796379937066,-0.7800070219726578,-0.3405672484130875,46.054359436035156,0.0025004069010416668,-0.033265474107530384
5087,0.17271488549262154,0.478125114440918,89.36256408691406,90.83554077148438,-0.8817138671875,87.95095825195312,-0.002522828843858507,0.19233333333333333,0.29285714285714287,0.03634537590874566,-0.17577614123535312,0.7690200209617615,46.054359436035156,-0.016366407606336807,-0.04258524576822917
5088,0.15708988549262154,0.49804698944091796,87.13264465332031,88.23736572265625,-0.6975898742675781,87.86912536621094,-0.00047704908582899306,0.19033333333333333,0.2907142857142857,0.034880574544270834,-0.5712725096435562,0.32958000898361206,46.054359436035156,-0.012274678548177083,-0.03963016933865017
5089,0.18443363549262154,0.41835948944091794,89.2193603515625,90.671875,-0.7794227600097656,88.46240997314453,-0.012297227647569445,0.18833333333333332,0.28964285714285715,0.03625382317437066,-0.5163427763671891,-0.12084640795898594,46.054359436035156,-0.016139051649305555,-0.04713147481282552
5090,0.17662113549262154,0.438281364440918,86.68256378173828,84.1048583984375,-3.1525497436523438,88.05325317382812,-0.0013863033718532986,0.18566666666666667,0.2889285714285714,0.034483846028645834,-0.9997259550781266,-0.801977770874025,46.054359436035156,0.028641170925564237,-0.06895336574978299
5091,0.15708988549262154,0.45820323944091795,87.43951416015625,89.05569458007812,-3.6230850219726562,88.40103149414062,0.006342273288302952,0.18433333333333332,0.2885714285714286,0.03277490403917101,-1.6479002409667984,-0.7909933500976578,46.054359436035156,-0.017957560221354165,-0.07804573906792535
5092,0.15318363549262154,0.478125114440918,84.92317199707031,80.74974060058594,-3.3980445861816406,88.05325317382812,-0.010251405504014757,0.181,0.2885714285714286,0.03231718275282118,-2.2850881987304703,-1.7138163023681656,46.054359436035156,0.0463714599609375,-0.07168108622233073
5093,0.16099613549262154,0.478125114440918,83.24562072753906,85.49600219726562,-4.134532928466797,88.23736572265625,-0.016388829549153647,0.17833333333333334,0.2889285714285714,0.03161527845594618,-2.197201388427736,-1.8895918303222672,46.054359436035156,-0.02500423855251736,-0.0819099850124783
5094,0.16490238549262154,0.478125114440918,83.69569396972656,85.53691101074219,-3.275299072265625,87.66455078125,-0.0066144307454427086,0.175,0.2892857142857143,0.030852381388346353,-2.0104395323486344,-1.516068118164064,46.054359436035156,-0.020457967122395834,-0.06599833170572916
5095,0.16880863549262154,0.49804698944091796,84.39126586914062,82.05905151367188,-3.357128143310547,87.97142028808594,-0.012751854790581597,0.172,0.2892857142857143,0.030425135294596353,-1.3512789183349625,-0.7690206938476578,46.054359436035156,0.025913492838541666,-0.07031720479329427
5096,0.16880863549262154,0.45820323944091795,86.25294494628906,84.73905181884766,-3.684459686279297,87.86912536621094,-2.242194281684028e-05,0.16866666666666666,0.2889285714285714,0.029418097601996526,-0.7909933500976578,0.8788800239562988,46.054359436035156,0.01682103474934896,-0.07281761169433594
5097,0.16490238549262154,0.438281364440918,87.45996856689453,90.99920654296875,-3.4389610290527344,88.42149353027344,-0.004568650987413194,0.16466666666666666,0.2885714285714286,0.028288947211371526,-0.9777552061767594,2.0983259677886963,46.054359436035156,-0.03932486640082465,-0.07622727288140191
5098,0.16099613549262154,0.39843757629394533,90.46729278564453,92.94271087646484,-3.091175079345703,87.43951416015625,-0.0009316762288411458,0.16133333333333333,0.2885714285714286,0.027220874362521703,-1.7357889586181656,3.141996145248413,46.054359436035156,-0.02750464545355903,-0.06145210266113281
5099,0.15318363549262154,0.3785157012939453,86.17111206054688,88.25782775878906,-2.477436065673828,86.13019561767578,-0.008660252888997395,0.15566666666666668,0.2889285714285714,0.028258429633246526,-2.1202989989013687,0.9777539968490601,46.054359436035156,-0.02318572998046875,-0.04008479648166233
5100,0.19224613549262154,0.39843757629394533,86.21202850341797,86.96897888183594,-2.5797271728515625,87.15309143066406,-0.03184598286946615,0.152,0.2907142857142857,0.035155232747395834,-1.0766283446044937,-1.2414194517822281,46.142250061035156,-0.008410559760199653,-0.052586873372395836
5101,0.19224613549262154,0.438281364440918,88.58515930175781,87.27584838867188,-2.2933120727539062,87.45996856689453,-0.012069914076063368,0.14733333333333334,0.29214285714285715,0.035124715169270834,-0.9557825499267594,-0.03295769030761875,46.318031311035156,0.014547899034288195,-0.05281422932942708
5102,0.16490238549262154,0.3585938262939453,86.74394226074219,90.24225616455078,-2.743389129638672,87.29630279541016,0.01657129923502604,0.14566666666666667,0.2932142857142857,0.027892261081271703,-0.5932451658935562,2.197200059890747,46.318031311035156,-0.038870154486762155,-0.05599657694498698
5103,0.12193363549262154,0.3585938262939453,87.23492431640625,89.73080444335938,-2.7638473510742188,87.25538635253906,0.016343985663519967,0.141,0.2935714285714286,0.02416920132107205,-0.4174677305908219,1.3183200359344482,46.318031311035156,-0.027732001410590276,-0.055769263373480905
5104,0.16490238549262154,0.33867195129394534,91.572021484375,92.20622253417969,-2.7638473510742188,87.48042297363281,-0.030709415011935765,0.139,0.29464285714285715,0.029784266153971353,-0.49437012011718906,1.8786060810089111,47.284820556640625,-0.007046678331163195,-0.05826967027452257
5105,0.16490238549262154,0.3187500762939453,88.19645690917969,91.46973419189453,-3.3980445861816406,87.562255859375,-0.0011589898003472221,0.13566666666666666,0.2960714285714286,0.03124906751844618,-0.5053564482421891,1.175502061843872,47.81216049194336,-0.03636974758572049,-0.0662255605061849
5106,0.16099613549262154,0.3585938262939453,95.92958068847656,90.59004211425781,-3.1934661865234375,87.72592163085938,-0.011615286933051215,0.13166666666666665,0.2978571428571429,0.03201200697157118,-1.2743765288085953,0.8239500522613525,47.81216049194336,0.05932820638020833,-0.06577097574869792
5107,0.21177738549262154,0.2789063262939453,90.6309585571289,95.58179473876953,-3.0298004150390625,87.39859008789062,-0.020253117879231772,0.129,0.29964285714285716,0.035185750325520834,-1.8017050200195328,-0.09887375170898594,47.81216049194336,-0.05500929090711806,-0.060315450032552086
5108,0.20396488549262154,0.29882820129394533,83.49111938476562,83.96165466308594,-3.9504127502441406,87.41905212402344,-0.01661614312065972,0.12566666666666668,0.3032142857142857,0.03369043138292101,-1.9994532042236344,-3.3287588530273453,47.81216049194336,-0.005228169759114583,-0.07077183193630643
5109,0.15708988549262154,0.3785157012939453,83.73661041259766,70.74578094482422,-2.4569778442382812,88.564697265625,0.0015687730577256945,0.121,0.3053571428571429,0.029601203070746526,-2.2960745268554703,-3.3946749144287125,47.81216049194336,0.14434254964192708,-0.06690750122070313
5110,0.17662113549262154,0.3785157012939453,88.29874420166016,89.48530578613281,-3.4185028076171875,86.84622192382812,-0.00775099860297309,0.11933333333333333,0.30714285714285716,0.028929816351996526,-1.9774805479736344,-1.6369139128417984,47.81216049194336,-0.013184017605251737,-0.05849694146050347
5111,0.19224613549262154,0.3585938262939453,87.21446990966797,83.5115737915039,-3.500335693359375,88.29874420166016,-0.010933346218532987,0.11766666666666667,0.30857142857142855,0.028746710883246526,-0.7250772886962906,-1.7577597075195328,47.81216049194336,0.04114329020182292,-0.07554533216688368
5112,0.26646488549262154,0.29882820129394533,91.44927978515625,83.22515869140625,-3.357128143310547,88.72836303710938,-0.030482101440429687,0.11333333333333333,0.30964285714285716,0.030394617716471353,-0.7470480375976578,-0.845923083374025,47.81216049194336,0.09137912326388889,-0.07872767978244358
5113,0.16880863549262154,0.33867195129394534,83.96165466308594,93.06546020507812,-3.5821685791015625,88.91248321533203,0.011115815904405382,0.112,0.31035714285714283,0.02435230678982205,-1.6698728972167984,0.8788800239562988,47.81216049194336,-0.1011533949110243,-0.08327390882703993
5114,0.09458988549262154,0.39843757629394533,80.42241668701172,79.23585510253906,-4.380031585693359,88.76927947998047,0.013388951619466146,0.10733333333333334,0.3107142857142857,0.01632643805609809,-2.0433966093750016,-1.2304331236572281,47.81216049194336,0.013184017605251737,-0.0905479007297092
5115,0.14146488549262154,0.45820323944091795,90.0785903930664,89.75126647949219,-4.645984649658203,90.20133972167969,-0.03548295762803819,0.106,0.3107142857142857,0.02331475151909722,-1.9994532042236344,-0.834936755249025,47.46059799194336,0.003636932373046875,-0.10941471523708768
5116,0.18833988549262154,0.49804698944091796,82.9592056274414,80.8929443359375,-4.727817535400391,90.89691162109375,-0.03548295762803819,0.10466666666666667,0.31,0.03176786634657118,-2.834389346191408,-0.21972145373535312,46.58169937133789,0.022958458794487848,-0.11805254618326823
5117,0.20396488549262154,0.478125114440918,87.05081176757812,88.23736572265625,-4.605068206787109,89.03523254394531,-0.003204769558376736,0.10133333333333333,0.30964285714285716,0.03375146653917101,-3.570450442382814,2.0983259677886963,46.054359436035156,-0.01318393283420139,-0.09600334167480469
5118,0.21568363549262154,0.41835948944091794,92.41080474853516,93.98606872558594,-3.868579864501953,88.89202880859375,-0.0007043626573350694,0.09733333333333333,0.3092857142857143,0.034758504231770834,-2.9772058897705094,2.977205991744995,44.82389831542969,-0.017502933078342015,-0.08622898525661893
5119,0.20787113549262154,0.41835948944091794,81.62944030761719,91.1628646850586,-3.909496307373047,87.31675720214844,-0.01320648193359375,0.094,0.30857142857142855,0.03582657708062066,-2.4388929777832047,0.12084600329399109,44.82389831542969,-0.10592693752712673,-0.06918059455023871
5120,0.20787113549262154,0.41835948944091794,86.90760040283203,63.52410888671875,-2.8456802368164062,88.0737075805664,-0.01252454121907552,0.08833333333333333,0.3082142857142857,0.033995564778645834,-2.0433966093750016,-3.1090380125732437,44.82389831542969,0.25981657240125866,-0.06577097574869792
5121,0.24693363549262154,0.438281364440918,88.46240997314453,81.26119232177734,-3.684459686279297,89.36256408691406,-0.026617813110351562,0.08533333333333333,0.3082142857142857,0.03753551907009549,-1.6808592253417984,-0.3185945921630875,44.82389831542969,0.08001352945963541,-0.089411375257704
5122,0.26255863549262154,0.39843757629394533,85.557373046875,91.42881774902344,-4.154991149902344,88.85111236572266,-0.004795964558919271,0.081,0.30714285714285716,0.03781017727322049,-2.219172137329103,2.2191720008850098,44.64812088012695,-0.06523827446831597,-0.08895670572916667
5123,0.21177738549262154,0.438281364440918,92.61538696289062,93.74057006835938,-3.2343826293945312,88.48286437988281,0.003841866387261285,0.077,0.30642857142857144,0.03622330559624566,-2.6146685057373062,3.0431220531463623,44.64812088012695,-0.012502034505208334,-0.07463607788085938
5124,0.23521488549262154,0.3785157012939453,88.25782775878906,86.90760040283203,-3.8276634216308594,89.0147705078125,-0.005705218844943577,0.07433333333333333,0.30607142857142855,0.03619278801812066,-3.0211512022705094,1.2743760347366333,44.64812088012695,0.015002526177300347,-0.08713815477159288
5125,0.27427738549262154,0.3585938262939453,85.49600219726562,90.46729278564453,-3.909496307373047,89.42393493652344,-0.03457370334201389,0.07,0.30607142857142855,0.04083133273654514,-3.6473528319091812,-0.03295769030761875,44.38444900512695,-0.055236562093098955,-0.09259368048773872
5126,0.25865238549262154,0.3785157012939453,84.82088470458984,92.32897186279297,-3.275299072265625,87.88958740234375,-0.00843293931749132,0.06466666666666666,0.3075,0.04022098117404514,-4.998631136962892,-0.3845106535644547,44.29655838012695,-0.0834231906467014,-0.06849873860677083
5127,0.26255863549262154,0.3187500762939453,87.88958740234375,89.40347290039062,-2.272857666015625,87.99187469482422,-0.011615286933051215,0.058,0.30857142857142855,0.03634537590874566,-5.668776171752931,0.5932440161705017,44.29655838012695,-0.01682094997829861,-0.05849702623155382
5128,0.17271488549262154,0.2789063262939453,88.36012268066406,78.56073760986328,-1.3113288879394531,85.31187438964844,0.013843536376953125,0.055,0.31035714285714283,0.02462696499294705,-5.009617465087892,0.35155200958251953,43.241878509521484,0.1088820563422309,-0.018035591973198786
5129,0.11021488549262154,0.3585938262939453,88.97386169433594,85.18913269042969,-1.6795730590820312,84.96409606933594,-0.010478719075520834,0.048666666666666664,0.31142857142857144,0.02050721910264757,-2.0543829375000016,0.3076080083847046,43.68132781982422,0.042052544487847225,-0.01826299031575521
5130,0.12974613549262154,0.39843757629394533,85.90515899658203,90.83554077148438,-3.295757293701172,87.76683807373047,-0.02866363525390625,0.045,0.31035714285714283,0.02517628139919705,0.04394400119781494,-0.4174677305908219,44.82389831542969,-0.05478201972113715,-0.06736217074924045
5131,0.16099613549262154,0.45820323944091795,83.34790802001953,83.77752685546875,-3.0298004150390625,87.97142028808594,-0.029572847154405384,0.04133333333333333,0.30857142857142855,0.030821863810221353,-0.16478981311035312,-1.6369139128417984,44.99967956542969,-0.004773542616102431,-0.06668023003472222
5132,0.20787113549262154,0.39843757629394533,87.13264465332031,88.74882507324219,-2.866138458251953,88.25782775878906,-0.03343713548448351,0.04,0.30642857142857144,0.03222563001844618,-0.4394403868408219,-0.6152159147949234,44.99967956542969,-0.017957560221354165,-0.0680440690782335
5133,0.19615238549262154,0.3187500762939453,81.69081115722656,91.572021484375,-3.9504127502441406,89.75126647949219,0.01316163804796007,0.039,0.305,0.025481414794921876,-0.812964098999025,0.2746500074863434,44.99967956542969,-0.10979122585720485,-0.09668532477484809
5134,0.16880863549262154,0.3585938262939453,84.37080383300781,83.20470428466797,-4.011787414550781,90.34454345703125,-0.014115693834092882,0.03766666666666667,0.3025,0.02487110561794705,-1.549027102539064,-0.7690206938476578,44.91178894042969,0.012956661648220485,-0.10395923190646701
5135,0.18052738549262154,0.3585938262939453,83.69569396972656,80.34058380126953,-2.5592689514160156,88.05325317382812,-0.008887566460503472,0.035666666666666666,0.3007142857142857,0.026122283935546876,-1.9005781584472672,0.010986000299453735,44.91178894042969,0.037279001871744794,-0.062361356947157116
5136,0.19615238549262154,0.3585938262939453,84.53446960449219,93.47462463378906,-4.5846099853515625,90.54912567138672,-0.021844270494249134,0.03266666666666666,0.29892857142857143,0.028380499945746526,-0.856909411499025,1.4062080383300781,44.91178894042969,-0.09933505588107638,-0.11259706285264758
5137,0.22349613549262154,0.33867195129394534,83.02058410644531,92.79949951171875,-2.866138458251953,89.1170654296875,-0.015024948120117187,0.028666666666666667,0.2975,0.030699793497721353,-1.4940973692626969,1.9115641117095947,44.99967956542969,-0.10865461561414931,-0.07759115431043836
5138,0.27427738549262154,0.239062557220459,89.81263732910156,88.6669921875,-2.252399444580078,88.1146240234375,-0.00843293931749132,0.024666666666666667,0.29642857142857143,0.029082404242621526,-1.164517062255861,1.7467740774154663,44.99967956542969,0.012729390462239584,-0.0596335940890842
5139,0.16490238549262154,0.29882820129394533,84.61630249023438,91.32653045654297,-0.3088874816894531,85.63920593261719,0.010206561618381077,0.019666666666666666,0.29642857142857143,0.02383355034722222,-0.7250772886962906,1.2743760347366333,44.99967956542969,-0.07455808851453993,-0.010534371270073785
5140,0.20005863549262154,0.219140682220459,87.72592163085938,86.41661071777344,0.32530975341796875,84.71859741210938,-0.014797634548611112,0.014666666666666666,0.2960714285714286,0.02386406792534722,-0.03295769030761875,0.3185940086841583,42.89031982421875,0.014547899034288195,0.0067412482367621525
5141,0.17662113549262154,0.3187500762939453,85.08683776855469,83.5934066772461,2.4938583374023438,83.32745361328125,-0.05366783142089844,0.01,0.2960714285714286,0.026976733737521703,1.219446063041687,0.3076080083847046,26.015439987182617,0.01659367879231771,0.046293385823567706
5142,0.20787113549262154,0.19921878814697266,87.41905212402344,77.41508483886719,3.639507293701172,84.0025634765625,-0.08844642639160157,0.006333333333333333,0.2925,0.02056825425889757,2.504807949066162,1.8236761093139648,25.83966064453125,0.11115519205729167,0.05152159796820747
5143,0.059433635492621546,0.17929691314697266,78.04928588867188,83.5115737915039,6.564998626708984,80.36103820800781,-0.1004939185248481,0.0023333333333333335,0.28964285714285715,0.007873323228624132,3.0101640224456787,2.032410144805908,25.75177001953125,-0.060692087809244795,0.12448844909667969
5144,-0.08509761450737846,0.15937503814697265,84.0025634765625,79.23585510253906,5.7057647705078125,78.8880615234375,-0.0991300794813368,0.0013333333333333333,0.2842857142857143,-0.0033568064371744793,3.2628421783447266,2.2521300315856934,25.75177001953125,0.05296342637803819,0.1313078138563368
5145,-0.13978511450737846,0.219140682220459,84.554931640625,85.18913269042969,4.048664093017578,79.27676391601562,-0.08253635830349393,-0.001,0.2810714285714286,-0.01147427029079861,3.163968086242676,2.8124160766601562,25.75177001953125,-0.007046678331163195,0.10857666863335504
5146,-0.13197261450737846,0.25898443222045897,80.66790771484375,67.45204162597656,1.6346206665039062,77.96745300292969,-0.08981030782063802,-0.0016666666666666668,0.27535714285714286,-0.012542343139648438,2.6256539821624756,0.9997260570526123,25.75177001953125,0.14684295654296875,0.09630186292860243
5147,-0.09291011450737846,0.19921878814697266,76.43310546875,78.06974792480469,4.294162750244141,82.61141967773438,-0.0766262478298611,-0.0003333333333333333,0.2717857142857143,-0.0067441728379991316,3.4935481548309326,0.7140899896621704,25.75177001953125,-0.018184916178385416,0.07425270080566407
5148,0.000839885492621543,0.219140682220459,78.23341369628906,69.9070053100586,7.731105804443359,75.63523864746094,-0.07503509521484375,0.0,0.2667857142857143,-0.0,3.603408098220825,1.6149420738220215,25.75177001953125,0.0925156487358941,0.18995407952202692
