,WD,WS,AIL_1,AIL_2,ELEV_1,ELEV_2,RUDD,ALT,GS,TH,PTCH,ROLL,PLA_1,AIL,ELEV
8658,0.14389103295355912,0.9164064788818359,86.74394226074219,89.81263732910156,-2.8456802368164062,87.86912536621094,-0.006387117173936632,0.6943333333333334,0.45285714285714285,0.1512711418999566,-0.9118391447753922,-7.811047213623048,23.202959060668945,-0.034096611870659724,-0.06349784003363715
8659,0.14389103295355912,0.9164064788818359,86.559814453125,96.05232238769531,-3.0502586364746094,87.91004180908203,-0.006387117173936632,0.689,0.4514285714285714,0.14690721299913195,-0.6371885710449234,-7.52541031176758,23.202959060668945,-0.10547231038411459,-0.0662255605061849
8660,0.13998478295355912,0.9164064788818359,86.88714599609375,88.0737075805664,-3.091175079345703,88.19645690917969,-0.006159803602430555,0.6836666666666666,0.45035714285714284,0.14242129855685765,-0.5163427763671891,-7.294705050537111,23.202959060668945,-0.013184017605251737,-0.06986257765028211
8661,0.13998478295355912,0.9164064788818359,86.82576751708984,87.33721923828125,-3.4185028076171875,88.31919860839844,-0.006387117173936632,0.6786666666666666,0.44821428571428573,0.138240475124783,-0.48338379199218906,-7.657242434570314,23.202959060668945,-0.0056827969021267365,-0.07486334906684028
8662,0.13998478295355912,0.9164064788818359,86.80531311035156,86.90760040283203,-3.8890380859375,89.19889831542969,-0.006387117173936632,0.6743333333333333,0.4467857142857143,0.13427335951063368,-0.6921183043212906,-7.767101901123048,23.202959060668945,-0.0011365254720052083,-0.08986596001519097
8663,0.13998478295355912,0.9164064788818359,86.82576751708984,86.94851684570312,-3.9708709716796875,88.99431610107422,-0.006159803602430555,0.671,0.4442857142857143,0.13012305365668403,-1.175503390380861,-7.920906680175783,23.202959060668945,-0.0013638814290364584,-0.08850207858615451
8664,0.13998478295355912,0.9164064788818359,85.82332611083984,86.86668395996094,-4.318656921386719,89.58760070800781,-0.006387117173936632,0.6676666666666666,0.4421428571428571,0.12551506890190972,-1.2633902006835953,-8.129641192504884,23.202959060668945,-0.011592864990234375,-0.09895841810438367
8665,0.13998478295355912,0.9164064788818359,86.02790832519531,95.1930923461914,-4.298198699951172,89.87400817871094,-0.006387117173936632,0.6643333333333333,0.4392857142857143,0.12176149156358507,-1.6479002409667984,-7.382591860839845,23.202959060668945,-0.1018353780110677,-0.10191340976291233
8666,0.13998478295355912,0.9164064788818359,86.19157409667969,96.80927276611328,-4.032245635986328,89.52622985839844,-0.006387117173936632,0.6603333333333333,0.43714285714285717,0.11803843180338541,-2.0214239531250016,-6.536671298095705,23.202959060668945,-0.11797442966037326,-0.09509417215983072
8667,0.13607853295355912,0.9164064788818359,86.19157409667969,81.60897827148438,-4.11407470703125,89.48530578613281,-0.006387117173936632,0.6563333333333333,0.435,0.1138576931423611,-1.8566347532959,-5.833567278930666,23.202959060668945,0.050917731391059026,-0.09554867214626736
8668,0.13607853295355912,0.9363283538818359,87.43951416015625,81.547607421875,-4.073158264160156,89.54668426513672,-0.006159803602430555,0.6516666666666666,0.43357142857142855,0.11062291463216146,-1.9005781584472672,-5.207365649291994,23.290849685668945,0.06546563042534723,-0.0957760281032986
8669,0.13607853295355912,0.9363283538818359,85.68012237548828,81.87493133544922,-3.9504127502441406,89.50576782226562,-0.006387117173936632,0.647,0.43142857142857144,0.10787641737196181,-1.9774805479736344,-5.51497330004883,23.290849685668945,0.04227990044487847,-0.09395756191677518
8670,0.13607853295355912,0.9363283538818359,86.86668395996094,83.0410385131836,-3.8890380859375,89.44439697265625,-0.006387117173936632,0.6423333333333333,0.4303571428571429,0.10506888495551216,-2.0104395323486344,-4.910742419311525,23.290849685668945,0.042507171630859375,-0.0925937228732639
8671,0.13217228295355912,0.9363283538818359,85.5982894897461,82.0385971069336,-3.9708709716796875,89.77172088623047,-0.006387117173936632,0.6373333333333333,0.42857142857142855,0.1019561767578125,-2.0983263426513687,-4.932715075561525,23.290849685668945,0.03955213758680556,-0.09713990953233508
8672,0.13217228295355912,0.9164064788818359,86.29386138916016,81.38394165039062,-3.357128143310547,89.38301849365234,-0.006159803602430555,0.6323333333333333,0.42714285714285716,0.09960640801323785,-2.4169203215332047,-4.031862872192384,23.290849685668945,0.0545546637641059,-0.08600162929958767
8673,0.13217228295355912,0.9363283538818359,86.27340698242188,81.75218200683594,-3.6026268005371094,89.32164001464844,-0.006387117173936632,0.627,0.4257142857142857,0.0970430162217882,-2.2960745268554703,-3.229883807250978,23.290849685668945,0.05023583306206597,-0.08804740905761718
8674,0.12826603295355912,0.9164064788818359,86.35523986816406,82.28408813476562,-3.643543243408203,89.52622985839844,-0.006159803602430555,0.6213333333333333,0.42464285714285716,0.0949678209092882,-2.3070608549804703,-2.845373766967775,23.290849685668945,0.04523501925998264,-0.09077525668674045
8675,0.12826603295355912,0.9164064788818359,86.74394226074219,82.79554748535156,-2.641101837158203,89.30118560791016,-0.006159803602430555,0.6156666666666667,0.4232142857142857,0.09328943888346354,-2.4279066496582047,-2.856360095092775,23.202959060668945,0.04387105305989583,-0.07713652716742622
8676,0.12826603295355912,0.9164064788818359,86.70301818847656,82.69325256347656,-2.272857666015625,89.58760070800781,-0.006387117173936632,0.6116666666666667,0.4225,0.09151950412326389,-2.3839632445068375,-3.163967745849611,23.202959060668945,0.04455295138888889,-0.07622731526692708
8677,0.12435978295355912,0.9164064788818359,86.39614868164062,82.42729949951172,-5.157432556152344,89.97630310058594,-0.006387117173936632,0.6056666666666667,0.41964285714285715,0.08953586154513889,-2.7574869566650406,-3.3836885863037125,23.202959060668945,0.04409832424587674,-0.11259706285264758
8678,0.12435978295355912,0.9164064788818359,86.62118530273438,82.87738037109375,-5.014228820800781,89.99675750732422,-0.006387117173936632,0.5983333333333334,0.41785714285714287,0.08755230373806423,-3.2957998686523453,-3.218899386474611,23.202959060668945,0.04159783257378472,-0.1112331814236111
8679,0.12435978295355912,0.9164064788818359,86.45751953125,82.05905151367188,-4.911937713623047,89.73080444335938,-0.006387117173936632,0.5913333333333334,0.41464285714285715,0.08569081624348958,-3.1200243406982437,-3.0541082792968766,23.202959060668945,0.04887186686197917,-0.10714157952202691
8680,0.11654728295355912,0.9164064788818359,87.48042297363281,83.73661041259766,-4.707359313964844,89.17843627929688,-0.006159803602430555,0.5846666666666667,0.41214285714285714,0.08263914320203992,-2.878332751342775,-2.955235140869142,23.202959060668945,0.04159791734483507,-0.09873106214735243
8681,0.11654728295355912,0.9363283538818359,87.13264465332031,83.5934066772461,-4.686901092529297,89.54668426513672,-0.006159803602430555,0.5783333333333334,0.4085714285714286,0.08065550062391492,-2.471850054809572,-3.976933138916017,24.345529556274414,0.03932486640082465,-0.10259539286295573
8682,0.12435978295355912,0.9363283538818359,87.23492431640625,83.0001220703125,-4.625526428222656,89.13752746582031,-0.006159803602430555,0.5723333333333334,0.4064285714285714,0.07974005805121528,-2.175228732177736,-4.504261630126955,24.60919952392578,0.047053358289930555,-0.09736726548936632
8683,0.12045353295355912,0.9363283538818359,87.562255859375,83.57295227050781,-4.7482757568359375,89.23981475830078,-0.006159803602430555,0.567,0.4025,0.07681045532226563,-1.8126913481445328,-4.767923968383791,24.69709014892578,0.04432559543185764,-0.09986767239040799
8684,0.11654728295355912,0.956250228881836,86.21202850341797,82.30455017089844,-4.5846099853515625,89.50576782226562,-0.006387117173936632,0.562,0.3992857142857143,0.07339257134331598,-1.8676210814209,-5.086517947265627,24.69709014892578,0.04341642591688368,-0.1010041978624132
8685,0.11264103295355912,0.956250228881836,86.58027648925781,82.40684509277344,-4.7482757568359375,89.71034240722656,-0.006387117173936632,0.557,0.395,0.06960847642686632,-2.0324102812500016,-4.537218707153322,24.69709014892578,0.0463714599609375,-0.10509575737847222
8686,0.11264103295355912,0.956250228881836,86.72348022460938,82.91828918457031,-4.461860656738281,89.26026916503906,-0.006387117173936632,0.5523333333333333,0.38821428571428573,0.06689249674479167,-2.3619905882568375,-4.4053865843505875,24.69709014892578,0.04227990044487847,-0.09691255357530382
8687,0.11264103295355912,0.956250228881836,85.90515899658203,82.9592056274414,-4.4209442138671875,89.30118560791016,-0.006387117173936632,0.547,0.38857142857142857,0.06429858737521701,-2.241144793579103,-4.581162112304689,24.69709014892578,0.03273281521267361,-0.09691255357530382
8688,0.11264103295355912,0.976172103881836,86.49844360351562,82.44775390625,-4.400489807128906,89.567138671875,-0.006387117173936632,0.5413333333333333,0.38642857142857145,0.06200985378689236,-2.2850881987304703,-4.020876544067384,24.69709014892578,0.04500766330295139,-0.09964031643337673
8689,0.10873478295355912,0.956250228881836,85.96653747558594,83.1024169921875,-4.277740478515625,89.2193603515625,-0.006387117173936632,0.536,0.3825,0.059141286214192706,-2.4498793059082047,-3.7352415495605484,24.69709014892578,0.03182356092664931,-0.0944122314453125
8690,0.10873478295355912,0.956250228881836,86.31431579589844,81.93630981445312,-4.4209442138671875,89.81263732910156,-0.006387117173936632,0.53,0.3807142857142857,0.05724928114149305,-2.471850054809572,-3.284815447875978,24.69709014892578,0.04864451090494792,-0.10259535047743056
8691,0.10873478295355912,0.956250228881836,86.5188980102539,82.73416900634766,-4.645984649658203,90.03767395019531,-0.006159803602430555,0.5243333333333333,0.37714285714285717,0.05538770887586805,-2.856360095092775,-2.6695982390136734,24.69709014892578,0.042052544487847225,-0.10759620666503907
8692,0.11264103295355912,0.956250228881836,86.662109375,83.26608276367188,-4.7482757568359375,90.20133972167969,-0.006159803602430555,0.5186666666666667,0.37464285714285717,0.054136572943793405,-3.0980535917968766,-2.6586119108886734,24.69709014892578,0.03773362901475694,-0.11055128309461805
8693,0.11264103295355912,0.956250228881836,86.559814453125,82.81600189208984,-5.300640106201172,90.89691162109375,-0.007069057888454861,0.5136666666666667,0.3703571428571429,0.053160010443793405,-3.284815447875978,-2.4169203215332047,24.69709014892578,0.04159791734483507,-0.12441724141438802
8694,0.11264103295355912,0.956250228881836,86.64164733886719,82.71371459960938,-5.218807220458984,91.24469757080078,-0.006387117173936632,0.51,0.3675,0.05145111083984375,-3.6803099089355484,-1.9774805479736344,24.69709014892578,0.04364369710286458,-0.12737227545844185
8695,0.10873478295355912,0.956250228881836,86.62118530273438,83.12287139892578,-5.300640106201172,91.36744689941406,-0.006387117173936632,0.5066666666666667,0.3625,0.04946746826171875,-3.6473528319091812,-1.6259294920654312,24.69709014892578,0.038870154486762155,-0.12964541117350262
8696,0.10873478295355912,0.956250228881836,86.29386138916016,83.20470428466797,-5.1983489990234375,91.46973419189453,-0.006387117173936632,0.5036666666666667,0.3585714285714286,0.0481552971733941,-3.4715773039550797,-1.4611383848876969,24.69709014892578,0.034323967827690975,-0.12964536878797744
8697,0.10482853295355912,0.956250228881836,88.0737075805664,84.5958480834961,-4.768730163574219,91.20378112792969,-0.006159803602430555,0.5003333333333333,0.3532142857142857,0.0468125237358941,-3.581436770507814,-1.1974741392822281,24.69709014892578,0.03864288330078125,-0.12191679212782118
8698,0.10873478295355912,0.956250228881836,87.09172058105469,83.552490234375,-4.8914794921875,91.26515197753906,-0.007296371459960938,0.49733333333333335,0.3492857142857143,0.04623277452256944,-3.3287588530273453,-1.516068118164064,24.69709014892578,0.039324781629774305,-0.12396257188585069
8699,0.10482853295355912,0.976172103881836,86.62118530273438,82.91828918457031,-4.850563049316406,91.83798217773438,-0.0066144307454427086,0.494,0.3442857142857143,0.04513414171006944,-3.3617159300537125,-1.7577597075195328,24.69709014892578,0.04114329020182292,-0.1298727247450087
8700,0.10873478295355912,0.956250228881836,86.96897888183594,83.08195495605469,-4.339115142822266,90.95828247070312,-0.006387117173936632,0.49066666666666664,0.3407142857142857,0.04440171983506944,-3.537493365356447,-1.5709978514404312,26.015439987182617,0.043189154730902776,-0.114415529039171
8701,0.10873478295355912,0.976172103881836,87.23492431640625,84.02302551269531,-3.8276634216308594,90.59004211425781,-0.006159803602430555,0.48733333333333334,0.3360714285714286,0.04363878038194444,-3.196926730224611,-1.4940973692626969,26.71855926513672,0.035687764485677086,-0.10464117262098524
8702,0.10873478295355912,0.976172103881836,86.90760040283203,84.6572265625,-4.011787414550781,91.1628646850586,-0.006159803602430555,0.484,0.33321428571428574,0.04293696085611979,-2.6915708952636734,-1.7028299742431656,26.71855926513672,0.025004153781467014,-0.11305168999565972
8703,0.10482853295355912,0.976172103881836,86.92805480957031,86.78485107421875,-5.730258941650391,91.1628646850586,-0.003204769558376736,0.48033333333333333,0.32821428571428574,0.04131952921549479,-3.262842791625978,-1.4611383848876969,26.71855926513672,0.001591152615017361,-0.13214581807454426
8704,0.10092228295355912,0.976172103881836,85.08683776855469,82.97966003417969,-5.546134948730469,91.14241027832031,-0.003204769558376736,0.477,0.3246428571428571,0.03881717258029514,-3.7132688933105484,-1.527054446289064,26.71855926513672,0.0234130859375,-0.1298727247450087
8705,0.10092228295355912,0.976172103881836,85.33233642578125,81.07707214355469,-5.402931213378906,90.40591430664062,-0.0066144307454427086,0.473,0.32107142857142856,0.03811526828342014,-3.3946749144287125,-0.856909411499025,26.71855926513672,0.04728071424696181,-0.12009828355577257
8706,0.10092228295355912,0.9960939788818359,85.88470458984375,82.44775390625,-5.3620147705078125,90.93782806396484,-0.004114023844401042,0.4686666666666667,0.31857142857142856,0.03829837375217014,-3.1310106688232437,0.2856360077857971,26.71855926513672,0.038188340928819446,-0.1255538092719184
8707,0.10092228295355912,0.9960939788818359,87.0712661743164,82.91828918457031,-5.259723663330078,90.54912567138672,-0.004795964558919271,0.4643333333333333,0.3142857142857143,0.03845096164279514,-3.3177725249023453,1.0766279697418213,26.71855926513672,0.046144188774956595,-0.12009832594129774
8708,0.10092228295355912,0.9960939788818359,86.96897888183594,84.0434799194336,-5.11651611328125,90.34454345703125,-0.0050232781304253475,0.46,0.3117857142857143,0.03887820773654514,-3.1529833250732437,1.0546560287475586,30.058380126953125,0.03250554402669271,-0.11623399522569444
8709,0.10092228295355912,0.9960939788818359,87.21446990966797,82.20226287841797,-4.952854156494141,90.42637634277344,-0.008660252888997395,0.45566666666666666,0.30857142857142855,0.03967166476779514,-2.812416689941408,0.9667680263519287,30.058380126953125,0.05569118923611111,-0.11532478332519532
8710,0.10092228295355912,0.9960939788818359,87.5213394165039,84.0025634765625,-4.830104827880859,90.32408142089844,-0.006841744316948784,0.45166666666666666,0.3057142857142857,0.04073969523111979,-2.5926958494873062,0.9997260570526123,30.322050094604492,0.0390975104437934,-0.1128242916531033
8711,0.10092228295355912,0.9960939788818359,86.98943328857422,83.4501953125,-4.727817535400391,90.91737365722656,-0.0066144307454427086,0.44766666666666666,0.30178571428571427,0.04150263468424479,-2.7574869566650406,0.9557820558547974,30.322050094604492,0.03932486640082465,-0.11827990214029947
8712,0.10092228295355912,0.9960939788818359,87.0098876953125,83.85935974121094,-4.482318878173828,90.73324584960938,-0.0059324900309244795,0.44333333333333336,0.2978571428571429,0.04131952921549479,-3.3067861967773453,0.8349360227584839,30.322050094604492,0.03500586615668403,-0.1135062747531467
8713,0.10092228295355912,0.9960939788818359,87.48042297363281,84.35034942626953,-4.216365814208984,90.50820922851562,-0.008660252888997395,0.439,0.29642857142857143,0.04196039835611979,-3.4166475706787125,0.45042601227760315,30.40993881225586,0.034778594970703125,-0.10805083380805122
8714,0.10092228295355912,0.9960939788818359,87.1121826171875,83.77752685546875,-3.9299545288085938,90.36500549316406,-0.010933346218532987,0.434,0.29428571428571426,0.04278437296549479,-3.3177725249023453,0.16479000449180603,30.40993881225586,0.03705173068576389,-0.10327733357747396
8715,0.10092228295355912,0.9960939788818359,87.1121826171875,83.83889770507812,-0.22705459594726562,90.2218017578125,-0.004568650987413194,0.42866666666666664,0.29178571428571426,0.04226557413736979,-3.3397451811523453,0.2526780068874359,30.40993881225586,0.03636983235677083,-0.06054284837510851
8716,0.09701603295355912,0.9960939788818359,87.58271789550781,84.53446960449219,-4.318656921386719,90.05813598632812,-0.00775099860297309,0.42333333333333334,0.2892857142857143,0.04214350382486979,-3.3067861967773453,0.14281800389289856,30.40993881225586,0.033869425455729164,-0.10418658786349827
8717,0.09701603295355912,0.9960939788818359,87.54179382324219,84.53446960449219,-3.9504127502441406,89.83309936523438,-0.006159803602430555,0.418,0.28785714285714287,0.04180781046549479,-3.0980535917968766,-0.18676246936035312,31.200950622558594,0.03341471354166667,-0.09759457906087239
8718,0.09701603295355912,1.016015853881836,87.54179382324219,84.5140151977539,-3.4594192504882812,89.68988800048828,-0.00843293931749132,0.41233333333333333,0.28535714285714286,0.04116694132486979,-2.834389346191408,-0.5932451658935562,36.29856872558594,0.03364198472764757,-0.09054785834418402
8719,0.09310978295355912,1.016015853881836,86.94851684570312,84.14576721191406,-2.702472686767578,90.24225616455078,-0.009569507175021702,0.407,0.2842857142857143,0.04037356906467014,-2.7355143004150406,-0.8678938322753922,36.38645935058594,0.03114166259765625,-0.08827476501464844
8720,0.09310978295355912,1.016015853881836,86.33477783203125,81.19981384277344,-5.055145263671875,90.52867126464844,-0.006159803602430555,0.4013333333333333,0.2835714285714286,0.03936648898654514,-2.944248812744142,-0.16478981311035312,36.38645935058594,0.057055155436197914,-0.11759796142578124
8721,0.08920353295355912,0.9960939788818359,87.70545959472656,84.554931640625,-4.9733123779296875,90.569580078125,-0.0054779052734375,0.396,0.2825,0.03848147922092014,-3.4056612425537125,0.4394400119781494,36.38645935058594,0.03500586615668403,-0.11714324951171876
8722,0.08920353295355912,0.9960939788818359,86.17111206054688,82.75462341308594,-5.771175384521484,91.59248352050781,-0.01070603264702691,0.391,0.28,0.03826785617404514,-3.581436770507814,0.1867620050907135,36.38645935058594,0.037960984971788195,-0.13737398783365887
8723,0.09310978295355912,0.9960939788818359,88.0737075805664,84.12531280517578,-4.482318878173828,90.79461669921875,-0.01002409193250868,0.3863333333333333,0.2782142857142857,0.03924441867404514,-4.042849200317384,0.35155200958251953,36.38645935058594,0.04387105305989583,-0.11418817308213976
8724,0.08920353295355912,0.9960939788818359,87.23492431640625,83.28652954101562,-0.0224761962890625,91.67431640625,-0.0075236850314670135,0.38233333333333336,0.2764285714285714,0.03896976047092014,-3.92200340563965,0.16479000449180603,36.38645935058594,0.04387105305989583,-0.07440880669487847
8725,0.08920353295355912,0.9960939788818359,87.76683807373047,84.57539367675781,-6.855449676513672,91.55156707763672,-0.004568650987413194,0.37933333333333336,0.27214285714285713,0.03863406711154514,-4.086792605468752,0.26366400718688965,38.583709716796875,0.03546049329969618,-0.14896685282389324
8726,0.08920353295355912,0.976172103881836,87.70545959472656,84.90271759033203,-7.346439361572266,92.36988830566406,-0.010933346218532987,0.37666666666666665,0.26785714285714285,0.03875613742404514,-4.306513445922853,-0.01098694140625156,38.671600341796875,0.031141577826605902,-0.16351475185818143
8727,0.08920353295355912,0.976172103881836,87.562255859375,83.94119262695312,-7.407814025878906,92.39035034179688,-0.0059324900309244795,0.37433333333333335,0.26535714285714285,0.03832889133029514,-4.745953219482423,-0.2307058745117203,38.671600341796875,0.04023403591579861,-0.16442404852973092
8728,0.08529728295355912,0.976172103881836,87.27584838867188,83.47065734863281,-6.9781951904296875,92.10392761230469,-0.008660252888997395,0.37133333333333335,0.26142857142857145,0.03744396633572049,-5.152434008666994,-0.2416922026367203,38.671600341796875,0.04227990044487847,-0.15646803114149305
8729,0.08529728295355912,0.976172103881836,87.31675720214844,83.63432312011719,-6.916820526123047,91.85843658447266,-0.00775099860297309,0.36766666666666664,0.2596428571428571,0.03680309719509549,-4.976658480712892,-0.01098694140625156,38.671600341796875,0.04091593424479167,-0.15305841233995227
8730,0.08139103295355912,0.976172103881836,88.33966064453125,85.08683776855469,-6.773616790771484,91.1219482421875,-0.002750142415364583,0.3636666666666667,0.2567857142857143,0.03582653469509549,-4.669050829956056,0.3076080083847046,38.671600341796875,0.03614247639973958,-0.1432840559217665
8731,0.07748478295355912,0.976172103881836,86.78485107421875,83.92073059082031,-6.998653411865234,91.69477844238281,-0.010251405504014757,0.36,0.255,0.03506359524197049,-4.251581805297853,-0.13183273608398594,38.93526840209961,0.03182356092664931,-0.1521492428249783
8732,0.07748478295355912,0.956250228881836,87.66455078125,82.67279052734375,-6.67132568359375,91.81752014160156,-0.008660252888997395,0.356,0.25214285714285717,0.034636433919270834,-4.460316317626955,0.20873400568962097,39.11104965209961,0.05546400282118055,-0.14987606472439235
8733,0.07357853295355912,0.956250228881836,87.62362670898438,83.98210144042969,-6.691783905029297,91.0810317993164,-0.0034320831298828127,0.3526666666666667,0.2507142857142857,0.033019002278645834,-4.4053865843505875,0.36253800988197327,39.11104965209961,0.04046139187282986,-0.14192017449273003
8734,0.06967228295355912,0.956250228881836,87.45996856689453,84.53446960449219,-6.691783905029297,91.36744689941406,-0.0075236850314670135,0.34833333333333333,0.24892857142857142,0.033080037434895834,-4.251581805297853,0.32958000898361206,39.11104965209961,0.03250554402669271,-0.14510256449381512
8735,0.06967228295355912,0.956250228881836,88.52378845214844,84.77996826171875,-6.609951019287109,91.14241027832031,-0.006387117173936632,0.3446666666666667,0.24678571428571427,0.032957967122395834,-4.37242950732422,0.6371880173683167,39.11104965209961,0.041598002115885414,-0.14169290330674914
8736,0.06576603295355912,0.956250228881836,87.88958740234375,84.30943298339844,-6.528118133544922,90.93782806396484,-0.013433795505099827,0.3403333333333333,0.24535714285714286,0.032896931966145834,-4.33947052294922,-0.04394401843261875,39.11104965209961,0.03977949354383681,-0.13851051330566405
8737,0.06967228295355912,0.9363283538818359,87.58271789550781,83.83889770507812,-6.507663726806641,91.0196533203125,-0.01320648193359375,0.336,0.24392857142857144,0.033293660481770834,-4.196652072021486,-0.21972145373535312,39.11104965209961,0.041598002115885414,-0.13919241163465712
8738,0.06576603295355912,0.956250228881836,87.41905212402344,84.18669128417969,-6.4462890625,91.06057739257812,0.009524663289388021,0.3313333333333333,0.24214285714285713,0.03097440931532118,-4.042849200317384,0.19774800539016724,39.11104965209961,0.03591512044270833,-0.1389651828342014
8739,0.06185978295355912,0.9363283538818359,88.70790100097656,85.96653747558594,-6.3644561767578125,90.52867126464844,-0.008660252888997395,0.327,0.24107142857142858,0.03042509290907118,-3.867073672363283,0.32958000898361206,40.34151077270508,0.0304595947265625,-0.13214586046006943
8740,0.06185978295355912,0.9363283538818359,87.76683807373047,84.67768096923828,-6.303081512451172,90.671875,-0.014570320977105035,0.32233333333333336,0.23964285714285713,0.03106596204969618,-3.592423098632814,-0.5383154326171891,41.57196807861328,0.034323967827690975,-0.13305507236056857
8741,0.06576603295355912,0.9363283538818359,87.70545959472656,84.14576721191406,-6.159877777099609,90.48774719238281,-0.008660252888997395,0.318,0.23892857142857143,0.03137113783094618,-3.4056612425537125,-0.5492998533935562,43.153987884521484,0.03955213758680556,-0.12941805521647134
8742,0.06185978295355912,0.9164064788818359,87.99187469482422,84.41172790527344,-6.057586669921875,90.36500549316406,-0.004795964558919271,0.31366666666666665,0.23857142857142857,0.03002836439344618,-3.1529833250732437,0.032958000898361206,43.417659759521484,0.039779408772786455,-0.12691769070095485
8743,0.05404728295355912,0.9164064788818359,87.97142028808594,85.39370727539062,-5.689342498779297,90.50820922851562,0.0004322052001953125,0.30966666666666665,0.2382142857142857,0.027770148383246526,-3.0321375303955094,0.3405660092830658,43.417659759521484,0.028641255696614583,-0.12441724141438802
8744,0.05014103295355912,0.9164064788818359,89.2193603515625,85.70057678222656,-5.382472991943359,90.79461669921875,-0.014115693834092882,0.30566666666666664,0.23785714285714285,0.027190314398871526,-2.6256548338623062,0.373524010181427,43.417659759521484,0.03909759521484375,-0.12418988545735678
8745,0.05014103295355912,0.8964846038818359,87.5213394165039,83.47065734863281,-5.157432556152344,90.50820922851562,-0.006159803602430555,0.302,0.2367857142857143,0.026335906982421876,-2.3729769163818375,0.19774800539016724,43.417659759521484,0.045007578531901044,-0.11850713094075521
8746,0.04623478295355912,0.8964846038818359,88.05325317382812,84.20714569091797,-4.8096466064453125,90.05813598632812,-0.003886710272894965,0.2976666666666667,0.23607142857142857,0.025389862060546876,-2.230158465454103,0.2526780068874359,43.417659759521484,0.042734527587890626,-0.10964202880859375
8747,0.04623478295355912,0.8964846038818359,88.81019592285156,85.74149322509766,-4.3595733642578125,90.0172119140625,-0.01070603264702691,0.29433333333333334,0.2357142857142857,0.025756072998046876,-1.8456484251709,-0.01098694140625156,43.417659759521484,0.03409669664171007,-0.10418650309244791
8748,0.04623478295355912,0.8964846038818359,87.70545959472656,83.61386108398438,-3.295757293701172,90.569580078125,-0.018889236450195312,0.2906666666666667,0.2342857142857143,0.026305389404296876,-1.6479002409667984,-0.5602861815185562,44.91178894042969,0.04546220567491319,-0.09850374857584636
8749,0.04623478295355912,0.876562728881836,86.31431579589844,85.47554016113281,-4.7482757568359375,89.58760070800781,-0.00297745598687066,0.288,0.2342857142857143,0.025054168701171876,-1.4171949797363297,-0.7470480375976578,45.43912887573242,0.009319729275173612,-0.10373196072048611
8750,0.04232853295355912,0.8964846038818359,86.86668395996094,83.71615600585938,-4.993770599365234,90.54912567138672,-0.005250591701931423,0.2846666666666667,0.23357142857142857,0.02343682183159722,-1.0326849394531266,-0.3735243254394547,45.52701950073242,0.03500586615668403,-0.11714329189724393
8751,0.03842228295355912,0.8964846038818359,86.98943328857422,83.61386108398438,-4.850563049316406,90.52867126464844,-0.003886710272894965,0.2816666666666667,0.23285714285714285,0.02151421440972222,-1.3073355131835953,-0.01098694140625156,45.79069137573242,0.037506357828776045,-0.11532482571072049
8752,0.03842228295355912,0.8964846038818359,86.39614868164062,83.12287139892578,-4.727817535400391,89.89447021484375,-0.008205625745985243,0.279,0.23214285714285715,0.02139214409722222,-1.3512789183349625,0.6481740474700928,46.84537124633789,0.03636974758572049,-0.10691430833604601
8753,0.03842228295355912,0.856640853881836,88.64653015136719,86.662109375,-4.645984649658203,89.66943359375,-0.008660252888997395,0.2763333333333333,0.23214285714285715,0.02203301323784722,-0.8898664885253922,1.494096040725708,46.84537124633789,0.022049119737413195,-0.10350464714898003
8754,0.026703532953559123,0.8964846038818359,89.52622985839844,87.0098876953125,-4.523235321044922,89.58760070800781,0.012707010904947916,0.27366666666666667,0.2317857142857143,0.02014100816514757,-0.5822588377685562,0.9228240251541138,46.933258056640625,0.027959357367621528,-0.10123151143391927
8755,0.030609782953559123,0.876562728881836,85.41416931152344,83.98210144042969,-4.216365814208984,89.40347290039062,-0.020480431450737847,0.272,0.2307142857142857,0.02096489800347222,-0.2636648588867203,-0.9228254729003922,48.075828552246094,0.015911865234375,-0.09577598571777343
8756,0.03842228295355912,0.8367189788818359,87.86912536621094,84.08439636230469,-3.9913291931152344,89.6080551147461,-0.01547957526312934,0.26866666666666666,0.22964285714285715,0.02261284722222222,0.07690200209617615,-0.4284540587158219,51.151981353759766,0.042052544487847225,-0.09554871453179253
8757,0.03451603295355912,0.8367189788818359,87.05081176757812,84.1048583984375,-3.5821685791015625,89.34210205078125,0.00225067138671875,0.2673333333333333,0.2292857142857143,0.02075127495659722,0.38451001048088074,-0.5163427763671891,51.767208099365234,0.03273281521267361,-0.08804745144314235
8758,0.026703532953559123,0.856640853881836,85.14820861816406,81.75218200683594,-3.3162155151367188,89.91493225097656,0.008160781860351563,0.26466666666666666,0.22964285714285715,0.017669169108072917,0.9557820558547974,-0.4614130430908219,52.29454803466797,0.03773362901475694,-0.09145719740125868
8759,0.022797282953559123,0.856640853881836,87.562255859375,83.14332580566406,-3.254840850830078,90.48774719238281,-0.0066144307454427086,0.262,0.22964285714285715,0.016906229654947917,0.6591600179672241,-0.01098694140625156,53.70079040527344,0.04909922281901042,-0.0971398671468099
8760,0.030609782953559123,0.8167971038818359,86.98943328857422,83.47065734863281,-2.6206436157226562,89.91493225097656,-0.0168434566921658,0.26066666666666666,0.22964285714285715,0.01855409410264757,0.41746801137924194,-0.01098694140625156,53.70079040527344,0.0390975104437934,-0.08372862074110243
8761,0.030609782953559123,0.7968751525878907,88.1146240234375,85.57783508300781,-2.334228515625,89.73080444335938,-0.008660252888997395,0.259,0.23035714285714284,0.01873719957139757,0.36253800988197327,-0.2966219359130875,53.70079040527344,0.028186543782552084,-0.0785003662109375
8762,0.030609782953559123,0.8367189788818359,86.62118530273438,83.5115737915039,-6.343997955322266,90.671875,-0.004568650987413194,0.25666666666666665,0.23142857142857143,0.017791239420572917,0.45042601227760315,-0.6042314940185562,53.70079040527344,0.034551239013671874,-0.13350969950358074
8763,0.030609782953559123,0.8167971038818359,87.03034973144531,83.77752685546875,-5.8120880126953125,90.30363464355469,-0.018207295735677084,0.25466666666666665,0.2317857142857143,0.017852274576822917,-0.16478981311035312,-0.856909411499025,53.70079040527344,0.03614247639973958,-0.1235080295138889
8764,0.030609782953559123,0.7968751525878907,88.29874420166016,84.61630249023438,-5.505218505859375,89.54668426513672,-0.005250591701931423,0.25266666666666665,0.2332142857142857,0.017638651529947917,-0.08788933093261875,-0.5383154326171891,54.22813034057617,0.04091601901584201,-0.11168780856662326
8765,0.026703532953559123,0.8167971038818359,87.37813568115234,84.14576721191406,-5.5870513916015625,89.83309936523438,0.001341459486219618,0.25066666666666665,0.2342857142857143,0.015716044108072917,0.2197200059890747,-0.856909411499025,54.31602096557617,0.03591520521375868,-0.11577945285373265
8766,0.026703532953559123,0.7968751525878907,84.86180114746094,82.14088439941406,-5.5870513916015625,90.44683837890625,-0.01775266859266493,0.24766666666666667,0.235,0.014709048800998263,0.373524010181427,-1.2963491850585953,54.31602096557617,0.030232408311631945,-0.12259877522786458
8767,0.026703532953559123,0.7769532775878907,85.86424255371094,83.02058410644531,-5.8939208984375,90.32408142089844,-2.242194281684028e-05,0.246,0.2357142857142857,0.012969546847873263,0.14281800389289856,-0.5822588377685562,54.31602096557617,0.031596204969618055,-0.12464447021484375
8768,0.026703532953559123,0.7769532775878907,86.19157409667969,83.28652954101562,-5.730258941650391,90.28317260742188,0.0006595187717013889,0.243,0.23714285714285716,0.012481265597873263,-0.48338379199218906,-0.01098694140625156,53.96445846557617,0.0322782728407118,-0.12237146165635851
8769,0.026703532953559123,0.7968751525878907,88.1146240234375,85.5164566040039,-5.525676727294922,89.42393493652344,-0.0066144307454427086,0.241,0.23857142857142857,0.013549380832248263,-0.20873512561035312,0.2197200059890747,54.667579650878906,0.028868526882595485,-0.11055124070909288
8770,0.03451603295355912,0.7769532775878907,87.84866333007812,84.86180114746094,-5.832546234130859,90.89691162109375,-0.011842600504557292,0.23966666666666667,0.24035714285714285,0.015777079264322917,0.02197200059890747,0.5273280143737793,54.843360900878906,0.03318735758463542,-0.13032730950249566
8771,0.026703532953559123,0.7968751525878907,88.50332641601562,85.39370727539062,-5.525676727294922,90.03767395019531,0.005205747816297743,0.23666666666666666,0.24107142857142858,0.013854556613498263,-0.2636648588867203,0.032958000898361206,54.843360900878906,0.03455132378472222,-0.11737056308322483
8772,0.022797282953559123,0.7968751525878907,86.84622192382812,83.63432312011719,-6.057586669921875,91.04011535644531,-0.001613616943359375,0.23433333333333334,0.2425,0.012328677707248263,-0.3185945921630875,-1.2524038725585953,54.843360900878906,0.035687764485677086,-0.13441891140407985
8773,0.030609782953559123,0.8167971038818359,87.50088500976562,84.49356079101562,-5.8939208984375,90.20133972167969,-0.007069057888454861,0.23266666666666666,0.24357142857142858,0.013091617160373263,-0.5053564482421891,-1.0107122832031266,54.843360900878906,0.03341471354166667,-0.12328067355685764
8774,0.03451603295355912,0.7769532775878907,86.98943328857422,83.79798889160156,-5.853004455566406,90.13996887207031,-0.017070770263671875,0.23,0.245,0.013030582004123263,-0.4723993712158219,-2.0653692656250016,54.843360900878906,0.03546049329969618,-0.12214414808485242
8775,0.03842228295355912,0.7968751525878907,85.27096557617188,82.38638305664062,-6.118961334228516,90.91737365722656,-0.020707745022243925,0.22766666666666666,0.24535714285714286,0.012633853488498263,-0.4284540587158219,-2.1202989989013687,53.52500915527344,0.03205091688368056,-0.133737055460612
8776,0.03451603295355912,0.8167971038818359,87.54179382324219,82.48867797851562,-5.66888427734375,90.87644958496094,0.012934324476453993,0.225,0.24642857142857144,0.01043667263454861,-0.9997259550781266,-0.2636648588867203,53.2613410949707,0.056145731608072916,-0.12828148735894096
8777,0.030609782953559123,0.7769532775878907,89.03523254394531,85.92561340332031,-5.566593170166016,90.05813598632812,-0.0002497355143229167,0.22266666666666668,0.24678571428571427,0.009246571858723959,-0.7470480375976578,0.9667680263519287,53.1734504699707,0.03455132378472222,-0.11805254618326823
8778,0.018891032953559123,0.7570314025878906,88.85111236572266,86.70301818847656,-6.241706848144531,90.30363464355469,0.0020233578152126738,0.22266666666666668,0.24785714285714286,0.0075070699055989586,-0.14281906420898594,1.0107120275497437,53.1734504699707,0.02386771308051215,-0.1282815721299913
8779,0.014984782953559123,0.7769532775878907,86.27340698242188,84.53446960449219,-6.180332183837891,91.44927978515625,-0.002068201700846354,0.21933333333333332,0.24857142857142858,0.006011793348524305,-0.4174677305908219,-0.2746511870117203,52.55821990966797,0.01932152642144097,-0.14032902187771268
8780,0.018891032953559123,0.7769532775878907,85.90515899658203,82.52958679199219,-5.914379119873047,90.69232940673828,-0.016388829549153647,0.217,0.24857142857142858,0.0067136128743489586,-1.131558077880861,-0.3295809202880875,52.29454803466797,0.037506357828776045,-0.1289634280734592
8781,0.026703532953559123,0.7371095275878906,88.6669921875,86.19157409667969,-5.546134948730469,90.34454345703125,-0.02320815192328559,0.21533333333333332,0.24928571428571428,0.009124501546223959,-1.142544406005861,-0.03295769030761875,52.29454803466797,0.02750464545355903,-0.12100753784179688
8782,0.03451603295355912,0.7171876525878906,86.53935241699219,83.47065734863281,-6.384914398193359,91.91981506347656,-0.01661614312065972,0.21266666666666667,0.25035714285714283,0.01043667263454861,-0.9997259550781266,-0.856909411499025,52.29454803466797,0.034096611870659724,-0.14783032735188803
8783,0.03451603295355912,0.7371095275878906,85.70057678222656,83.47065734863281,-6.037128448486328,90.81507873535156,-0.0043413374159071184,0.21033333333333334,0.2507142857142857,0.01007046169704861,-1.6588865690917984,-0.9338098936767594,52.29454803466797,0.024776882595486112,-0.13169119093153211
8784,0.03451603295355912,0.7570314025878906,86.08927917480469,82.42729949951172,-5.771175384521484,90.0172119140625,-0.002068201700846354,0.20633333333333334,0.25214285714285717,0.009246571858723959,-1.6369139128417984,-0.4723993712158219,52.29454803466797,0.04068866305881076,-0.1198709699842665
8785,0.030609782953559123,0.7171876525878906,88.36012268066406,84.37080383300781,-5.8120880126953125,90.59004211425781,0.005205747816297743,0.20466666666666666,0.25285714285714284,0.007934315999348959,-0.9118391447753922,0.7690200209617615,52.29454803466797,0.044325764973958334,-0.1266903347439236
8786,0.018891032953559123,0.6773439025878907,89.0761489868164,85.74149322509766,-6.282623291015625,91.40835571289062,-0.0022955152723524307,0.20033333333333334,0.25392857142857145,0.0065610249837239586,-0.834936755249025,0.9228240251541138,52.29454803466797,0.03705173068576389,-0.14101087782118055
8787,0.011078532953559123,0.6972657775878907,87.95095825195312,84.61630249023438,-5.8939208984375,90.34454345703125,-0.008660252888997395,0.198,0.255,0.005096266004774305,-1.9005781584472672,0.09887400269508362,52.29454803466797,0.03705173068576389,-0.124871826171875
8788,0.014984782953559123,0.6773439025878907,87.37813568115234,83.65477752685547,-5.259723663330078,90.0172119140625,-0.022753524780273437,0.19433333333333333,0.25642857142857145,0.005706617567274305,-1.9005781584472672,-0.4174677305908219,52.29454803466797,0.04137064615885417,-0.11418817308213976
8789,0.011078532953559123,0.6972657775878907,86.62118530273438,82.97966003417969,-5.505218505859375,90.2218017578125,-0.01070603264702691,0.19233333333333333,0.2575,0.004577467176649305,-0.9997259550781266,-0.9997259550781266,52.29454803466797,0.04046139187282986,-0.11918911404079861
8790,0.011078532953559123,0.7769532775878907,86.1097412109375,80.87248992919922,-5.709800720214844,90.85599517822266,-0.015024948120117187,0.189,0.25857142857142856,0.0029601203070746527,-1.0656420164794937,-0.5383154326171891,52.29454803466797,0.058191680908203126,-0.12850884331597223
8791,-0.000640217046440878,0.6972657775878907,87.0712661743164,85.63920593261719,-5.996212005615234,90.97874450683594,0.01543473137749566,0.185,0.2592857142857143,6.103515625e-05,-1.9005781584472672,-0.48338379199218906,52.118770599365234,0.015911780463324653,-0.13305507236056857
8792,0.014984782953559123,0.6375001525878906,84.6572265625,80.60653686523438,-5.44384765625,90.20133972167969,-0.03161866929796007,0.183,0.26035714285714284,0.0027770148383246527,-2.208185809204103,-1.549027102539064,52.118770599365234,0.04500766330295139,-0.1182798597547743
8793,0.022797282953559123,0.7171876525878906,87.70545959472656,80.8929443359375,-6.1394195556640625,91.30607604980469,-0.01775266859266493,0.17966666666666667,0.26142857142857145,0.0036619398328993054,-1.7797323637695328,-0.20873512561035312,52.118770599365234,0.07569461398654515,-0.13828328450520833
8794,0.022797282953559123,0.6972657775878907,86.43707275390625,83.65477752685547,-5.771175384521484,91.32653045654297,-0.002750142415364583,0.17633333333333334,0.2625,0.004089185926649305,-2.1202989989013687,0.4723980128765106,52.118770599365234,0.030914391411675346,-0.13441895378960503
8795,0.026703532953559123,0.6574220275878906,86.76439666748047,83.65477752685547,-5.136974334716797,90.03767395019531,-0.0059324900309244795,0.17233333333333334,0.26357142857142857,0.005706617567274305,-2.2741018706054703,1.1974740028381348,52.118770599365234,0.03455132378472222,-0.11305164761013455
8796,0.018891032953559123,0.6175782775878906,88.95339965820312,83.38882446289062,-4.523235321044922,89.58760070800781,-0.0054779052734375,0.16933333333333334,0.26571428571428574,0.003997633192274305,-2.3619905882568375,2.296074151992798,51.855098724365234,0.06182861328125,-0.10123151143391927
8797,0.007172282953559122,0.6574220275878906,84.67768096923828,81.81356048583984,-4.543693542480469,89.64897155761719,-0.01661614312065972,0.16833333333333333,0.2671428571428571,0.0038145277235243054,-0.812964098999025,1.0876140594482422,51.855098724365234,0.03182356092664931,-0.1021407233344184
8798,0.007172282953559122,0.6175782775878906,84.45263671875,80.32012939453125,-5.607509613037109,91.0810317993164,0.006342273288302952,0.16533333333333333,0.26857142857142857,0.004424879286024305,-0.18676246936035312,1.175502061843872,51.855098724365234,0.045916748046875,-0.12987268235948352
8799,0.018891032953559123,0.6175782775878906,91.55156707763672,86.23248291015625,-5.546134948730469,92.2266845703125,-0.0250266604953342,0.162,0.2692857142857143,0.008849843343098959,-0.5822588377685562,1.9005780220031738,51.855098724365234,0.05910093519422743,-0.1419202168782552
8800,0.007172282953559122,0.6175782775878906,84.98455047607422,83.47065734863281,-5.11651611328125,89.91493225097656,-0.008205625745985243,0.15966666666666668,0.27,0.0072324117024739586,-1.516068118164064,1.0436700582504272,55.10702896118164,0.01682103474934896,-0.11146053738064236
8801,0.003266032953559122,0.6375001525878906,88.31919860839844,81.07707214355469,-5.423389434814453,90.1195068359375,-0.00775099860297309,0.15633333333333332,0.2710714285714286,0.0069577534993489586,-1.4281813078613297,0.8459219932556152,55.10702896118164,0.08046807183159722,-0.11714329189724393
8802,0.018891032953559123,0.6375001525878906,86.19157409667969,84.63676452636719,-6.1394195556640625,91.18331909179688,-0.021389685736762153,0.15466666666666667,0.2725,0.01101650661892361,-1.4831110411376969,-0.845923083374025,55.10702896118164,0.01727566189236111,-0.13691931830512152
8803,0.026703532953559123,0.6773439025878907,88.68744659423828,82.83645629882812,-5.689342498779297,91.67431640625,-0.0075236850314670135,0.152,0.2735714285714286,0.01205410427517361,-2.0763555937500016,-0.3076082640380875,53.78868103027344,0.06501100328233507,-0.13737398783365887
8804,0.022797282953559123,0.6574220275878906,87.15309143066406,85.43462371826172,-5.648426055908203,90.99920654296875,-0.013433795505099827,0.15,0.275,0.01055874294704861,-1.9555078917236344,-0.9887415343017594,53.1734504699707,0.019094085693359374,-0.1294181399875217
8805,0.030609782953559123,0.6773439025878907,85.88470458984375,81.48623657226562,-6.159877777099609,92.00164794921875,-0.029118262396918403,0.14566666666666667,0.2757142857142857,0.01144375271267361,-1.6479002409667984,-1.7357889586181656,53.0855598449707,0.04887186686197917,-0.14623917473687065
8806,0.018891032953559123,0.6375001525878906,84.37080383300781,80.36103820800781,-5.607509613037109,91.34698486328125,0.0024779849582248262,0.14433333333333334,0.2760714285714286,0.0066220601399739586,-2.4608656340332047,-1.7138163023681656,53.0855598449707,0.04455295138888889,-0.13282771640353733
8807,0.011078532953559123,0.6175782775878906,86.04837036132812,83.12287139892578,-5.525676727294922,91.44927978515625,0.001341459486219618,0.14133333333333334,0.27714285714285714,0.004241773817274305,-2.6476274901123062,-0.3185945921630875,53.0855598449707,0.03250554402669271,-0.13305507236056857
8808,0.011078532953559123,0.5976564025878907,86.62118530273438,83.28652954101562,-5.9757537841796875,91.1628646850586,0.0036145528157552082,0.13733333333333334,0.2785714285714286,0.004028150770399305,-2.2850881987304703,0.5932440161705017,53.0855598449707,0.03705173068576389,-0.13487353854709203
8809,0.003266032953559122,0.6375001525878906,83.552490234375,82.87738037109375,-4.830104827880859,90.0172119140625,-0.0059324900309244795,0.13366666666666666,0.2792857142857143,0.0029601203070746527,-2.7025572233886734,-0.3295809202880875,50.09729766845703,0.007501220703125,-0.10941463046603733
8810,0.003266032953559122,0.5578126525878906,86.559814453125,83.552490234375,-4.7482757568359375,89.71034240722656,-0.00775099860297309,0.131,0.28,0.0030211554633246527,-1.9115644865722672,0.1867620050907135,50.62464141845703,0.03341471354166667,-0.10509575737847222
8811,-0.008452689268663171,0.5179688644409179,86.92805480957031,83.38882446289062,-5.1983489990234375,91.61294555664062,0.008842722574869791,0.12766666666666668,0.2810714285714286,0.000762939453125,-1.0876146727294937,1.4611380100250244,50.712528228759766,0.039324781629774305,-0.13123660617404515
8812,-0.02407768926866317,0.5578126525878906,87.19401550292969,83.94119262695312,-4.482318878173828,89.6080551147461,0.00225067138671875,0.123,0.28214285714285714,-0.0009446868815103926,-1.3842359953613297,1.5270540714263916,50.712528228759766,0.03614247639973958,-0.10100415547688803
8813,-0.012358939268663171,0.5777345275878907,87.35768127441406,83.98210144042969,-4.952854156494141,90.20133972167969,-0.020480431450737847,0.12,0.2825,0.0022276984320746527,-0.9777552061767594,1.06564199924469,50.712528228759766,0.03750644259982639,-0.11282437642415365
8814,-0.000640217046440878,0.5179688644409179,88.91248321533203,85.16867065429688,-5.3620147705078125,91.14241027832031,-0.022298897637261283,0.11833333333333333,0.2825,0.005645582411024305,-0.9338098936767594,0.7250760197639465,50.712528228759766,0.04159791734483507,-0.12782694498697916
8815,0.003266032953559122,0.5378907394409179,89.1170654296875,85.39370727539062,-5.3620147705078125,90.81507873535156,-0.0054779052734375,0.11533333333333333,0.2825,0.006042310926649305,-1.1864878111572281,0.8129640221595764,50.712528228759766,0.04137064615885417,-0.12418992784288195
8816,0.003266032953559122,0.5179688644409179,87.39859008789062,87.78729248046875,-4.707359313964844,88.93293762207031,-0.005250591701931423,0.11333333333333333,0.2835714285714286,0.0070187886555989586,-1.538040774414064,-0.6262022429199234,50.712528228759766,-0.0043189154730902775,-0.09600329928927952
8817,0.011078532953559123,0.478125114440918,86.27340698242188,82.42729949951172,-5.402931213378906,90.1195068359375,-0.012069914076063368,0.11066666666666666,0.2839285714285714,0.0073849995930989586,-0.9338098936767594,-1.6259294920654312,50.712528228759766,0.042734527587890626,-0.11691597832573784
8818,0.011078532953559123,0.49804698944091796,88.31919860839844,84.37080383300781,-5.259723663330078,90.48774719238281,-0.009569507175021702,0.10866666666666666,0.28464285714285714,0.0065915425618489586,-1.1095873289794937,-1.164517062255861,50.712528228759766,0.04387105305989583,-0.11941634284125434
8819,-0.00454643926866317,0.45820323944091795,85.5982894897461,84.61630249023438,-5.546134948730469,90.69232940673828,0.004523807101779514,0.10633333333333334,0.28535714285714286,0.0026854621039496527,-1.2743765288085953,-2.0104395323486344,50.712528228759766,0.01091096666124132,-0.124871826171875
8820,-0.00454643926866317,0.5378907394409179,83.16378784179688,78.84715270996094,-5.505218505859375,90.77416229248047,-0.0059324900309244795,0.103,0.2860714285714286,0.000152587890625,-1.7577597075195328,-2.0104395323486344,50.712528228759766,0.04796261257595486,-0.12532645331488715
8821,-0.012358939268663171,0.478125114440918,83.42974090576172,79.41996765136719,-5.402931213378906,90.20133972167969,-0.0022955152723524307,0.10066666666666667,0.2860714285714286,-0.0025009985948350453,-1.505081790039064,-0.6371885710449234,50.712528228759766,0.04455303615993923,-0.11782523261176216
8822,-0.02017143926866317,0.45820323944091795,87.43951416015625,82.16134643554688,-5.730258941650391,90.93782806396484,0.0020233578152126738,0.098,0.28714285714285714,-0.0037522192979600453,-1.0546575957031266,1.2304320335388184,50.712528228759766,0.058646308051215276,-0.12964541117350262
8823,-0.02407768926866317,0.45820323944091795,86.43707275390625,82.81600189208984,-4.727817535400391,89.40347290039062,-0.003204769558376736,0.09433333333333334,0.2875,-0.0033249732042100453,-1.3293062620849625,1.8895920515060425,52.38243865966797,0.04023412068684896,-0.10145878261990017
8824,-0.012358939268663171,0.478125114440918,87.05081176757812,83.92073059082031,-5.157432556152344,90.671875,-0.018207295735677084,0.09266666666666666,0.2889285714285714,0.000518798828125,-0.823950427124025,2.0214240550994873,51.6793212890625,0.03477867974175347,-0.12032563951280383
8825,-0.00454643926866317,0.45820323944091795,87.0712661743164,83.83889770507812,-5.5870513916015625,91.6333999633789,0.004296493530273437,0.08966666666666667,0.2892857142857143,0.0029906378851996527,-0.9997259550781266,2.13128399848938,50.976200103759766,0.03591520521375868,-0.1357827928331163
8826,0.003266032953559122,0.41835948944091794,90.95828247070312,87.58271789550781,-5.177890777587891,91.53111267089844,-0.01797998216417101,0.08666666666666667,0.28964285714285715,0.0069882710774739586,-1.549027102539064,1.8346620798110962,50.976200103759766,0.03750627305772569,-0.13010003831651476
8827,0.007172282953559122,0.438281364440918,88.6056137084961,84.69813537597656,-5.034687042236328,90.46729278564453,-0.012069914076063368,0.08366666666666667,0.2907142857142857,0.008544667561848959,-1.9225508146972672,0.747048020362854,50.976200103759766,0.04341642591688368,-0.11668866475423177
8828,0.007172282953559122,0.3785157012939453,88.6669921875,91.46973419189453,-5.177890777587891,91.44927978515625,-0.00047704908582899306,0.08066666666666666,0.29214285714285715,0.008514149983723959,-1.9005781584472672,0.3405660092830658,50.976200103759766,-0.031141577826605902,-0.12919078403049045
8829,-0.000640217046440878,0.3785157012939453,88.70790100097656,90.91737365722656,-4.993770599365234,91.1628646850586,-0.006841744316948784,0.077,0.2932142857142857,0.0076291402180989586,-1.7687460356445328,-0.5932451658935562,50.976200103759766,-0.024549696180555556,-0.12396261427137586
8830,0.007172282953559122,0.41835948944091794,89.2193603515625,90.24225616455078,-5.259723663330078,90.91737365722656,-0.014797634548611112,0.073,0.2960714285714286,0.0077817281087239586,-1.7687460356445328,-0.9228254729003922,50.976200103759766,-0.011365509033203125,-0.12418997022840712
8831,-0.000640217046440878,0.41835948944091794,88.91248321533203,91.28561401367188,-4.8914794921875,89.567138671875,-0.006159803602430555,0.06866666666666667,0.29642857142857143,0.005798170301649305,-2.1312853270263687,-1.9555078917236344,50.976200103759766,-0.02636811998155382,-0.10509575737847222
8832,-0.000640217046440878,0.41835948944091794,83.75706481933594,82.16134643554688,-5.136974334716797,90.671875,-0.01775266859266493,0.06433333333333334,0.2982142857142857,0.004363844129774305,-1.9005781584472672,-1.9225508146972672,50.976200103759766,0.017730204264322917,-0.12009832594129774
8833,-0.008452689268663171,0.3785157012939453,89.0147705078125,88.58515930175781,-5.300640106201172,90.65141296386719,0.00225067138671875,0.061,0.29892857142857143,0.0019835578070746527,-1.8126913481445328,-0.48338379199218906,50.976200103759766,0.004773457845052083,-0.12168947855631511
8834,-0.02017143926866317,0.3585938262939453,84.45263671875,85.16867065429688,-4.66644287109375,89.46485137939453,-0.004568650987413194,0.058333333333333334,0.3007142857142857,-6.103515625e-05,-1.8895918303222672,-1.3622652464599625,50.976200103759766,-0.0079559326171875,-0.10145882500542534
8835,-0.00454643926866317,0.3785157012939453,88.95339965820312,85.18913269042969,-5.034687042236328,90.75370788574219,-0.011842600504557292,0.05466666666666667,0.30178571428571427,0.0008849249945746528,-1.6479002409667984,-0.9008528166503922,50.62464141845703,0.041825188530815974,-0.11987105475531684
8836,-0.008452689268663171,0.33867195129394534,84.20714569091797,91.0810317993164,-3.9913291931152344,91.18331909179688,0.009297349717881945,0.051333333333333335,0.3025,-0.000213623046875,-2.0214239531250016,-0.7250772886962906,49.7457389831543,-0.0763765123155382,-0.11305164761013455
8837,-0.02407768926866317,0.3187500762939453,85.06637573242188,90.81507873535156,-1.4340782165527344,89.99675750732422,0.004523807101779514,0.048,0.30357142857142855,-0.0030503150010850453,-2.230158465454103,-0.812964098999025,49.48207092285156,-0.06387447781032986,-0.07145373026529948
8838,-0.02017143926866317,0.33867195129394534,89.28073120117188,92.75859069824219,-1.720489501953125,90.24225616455078,-0.00775099860297309,0.045,0.305,-0.0031113501573350453,-1.527054446289064,-0.16478981311035312,49.48207092285156,-0.03864288330078125,-0.0773638407389323
8839,-0.01626518926866317,0.39843757629394533,89.99675750732422,91.61294555664062,-1.945526123046875,90.569580078125,-0.014570320977105035,0.04066666666666666,0.3053571428571429,-0.0032334204698350453,-1.8786074095459,0.16479000449180603,49.48207092285156,-0.017957644992404515,-0.08350118001302083
8840,-0.03579643926866317,0.3585938262939453,83.36836242675781,88.95339965820312,0.3048515319824219,89.89447021484375,0.008842722574869791,0.037,0.3057142857142857,-0.005766294683159698,-1.9884668760986344,-1.3952223234863297,48.60316848754883,-0.06205596923828125,-0.05099576314290365
8841,-0.01626518926866317,0.33867195129394534,86.86668395996094,82.63188171386719,-5.771175384521484,90.89691162109375,-0.01252454121907552,0.035,0.3067857142857143,-0.004972837651909698,-2.0324102812500016,-0.16478981311035312,47.196929931640625,0.047053358289930555,-0.12964541117350262
8842,-0.02017143926866317,0.41835948944091794,87.72592163085938,90.83554077148438,-5.546134948730469,90.09904479980469,-0.009342193603515625,0.03133333333333333,0.30642857142857144,-0.005400083745659698,-2.3839632445068375,0.9997260570526123,47.109039306640625,-0.03455132378472222,-0.11827977498372395
8843,-0.03189018926866317,0.3585938262939453,87.5213394165039,88.87156677246094,-5.464302062988281,91.28561401367188,-0.003886710272894965,0.029,0.3057142857142857,-0.005552671636284698,-2.219172137329103,0.4614120125770569,47.109039306640625,-0.015002526177300347,-0.13055462307400173
8844,-0.03189018926866317,0.3187500762939453,83.57295227050781,82.22271728515625,-5.8120880126953125,89.87400817871094,-0.008887566460503472,0.026,0.3053571428571429,-0.005491636480034698,-1.4940973692626969,-0.07690300280761875,47.109039306640625,0.015002610948350694,-0.11873440212673611
8845,-0.03579643926866317,0.3187500762939453,87.45996856689453,83.18424987792969,-7.285064697265625,91.44927978515625,0.014070849948459202,0.023666666666666666,0.30464285714285716,-0.005949400151909698,-1.0986010008544937,1.4062080383300781,47.109039306640625,0.047507985432942705,-0.15260382758246527
8846,-0.03970268926866317,0.3187500762939453,88.0123291015625,85.33233642578125,-6.303081512451172,90.77416229248047,-0.006159803602430555,0.019666666666666666,0.3028571428571429,-0.005186460698784698,-1.0107122832031266,1.7907180786132812,45.70280075073242,0.029777696397569445,-0.13419159783257378
8847,-0.03579643926866317,0.2789063262939453,87.19401550292969,92.04255676269531,-6.875904083251953,92.49263000488281,-0.020253117879231772,0.017,0.30142857142857143,-0.0028366919542100453,-0.6371885710449234,0.9228240251541138,45.70280075073242,-0.0538726806640625,-0.15965037875705296
8848,-0.02017143926866317,0.3187500762939453,86.662109375,88.78973388671875,-5.791633605957031,90.03767395019531,-0.024799346923828125,0.013,0.29964285714285716,-0.0007615814127603926,-0.7580343657226578,0.04394400119781494,45.52701950073242,-0.023640272352430554,-0.12032563951280383
8849,-0.03579643926866317,0.25898443222045897,86.15065002441406,91.87889099121094,-5.996212005615234,90.34454345703125,0.0065695868598090275,0.011,0.2985714285714286,-0.0021347876573350453,-0.02197326953125156,0.6262019872665405,45.52701950073242,-0.06364712185329861,-0.1260083940294054
8850,-0.05923393926866317,0.25898443222045897,86.98943328857422,93.51553344726562,-3.7867469787597656,89.1579818725586,0.008615409003363715,0.008,0.29642857142857143,-0.0037217017198350453,0.7690200209617615,0.19774800539016724,44.99967956542969,-0.07251222398546008,-0.08827476501464844
8851,-0.04751518926866317,0.25898443222045897,85.455078125,85.78240966796875,-4.911937713623047,89.87400817871094,-0.012979168362087673,0.005666666666666667,0.2953571428571429,-0.0028977271104600453,1.8456480503082275,-0.3845106535644547,41.57196807861328,-0.003637017144097222,-0.10873273213704428
8852,-0.03579643926866317,0.25898443222045897,87.76683807373047,89.0761489868164,-3.520793914794922,87.70545959472656,-0.009796820746527778,0.0023333333333333335,0.2914285714285714,-0.0019212493815103926,1.8456480503082275,-0.17577614123535312,34.980220794677734,-0.014547899034288195,-0.06918059455023871
8853,-0.03579643926866317,0.2789063262939453,86.62118530273438,89.58760070800781,-2.5388107299804688,85.53691101074219,-0.0043413374159071184,0.0013333333333333333,0.2885714285714286,-0.0022873755479600453,2.4169201850891113,0.10986000299453735,25.488100051879883,-0.03296017116970486,-0.03417468600802952
8854,-0.04751518926866317,0.239062557220459,87.86912536621094,90.87644958496094,-2.1705665588378906,86.58027648925781,-0.003204769558376736,0.001,0.2835714285714286,-0.0027451392198350453,3.1749541759490967,0.3185940086841583,24.87286949157715,-0.03341471354166667,-0.041676033867730035
8855,-0.06704643926866317,0.19921878814697266,92.75859069824219,92.20622253417969,2.1460723876953125,84.37080383300781,0.0056603749593098955,-0.001,0.2792857142857143,-0.0035080786729600453,2.7794580459594727,0.6152160167694092,24.69709014892578,0.006137424045138889,0.030836317274305556
8856,-0.07095268926866317,0.19921878814697266,83.5115737915039,87.45996856689453,1.8596611022949219,82.61141967773438,0.03134651184082031,-0.0006666666666666666,0.2739285714285714,-0.0032944556260850453,4.174680233001709,-1.0107122832031266,24.69709014892578,-0.04387105305989583,0.047202682495117186
8857,-0.02407768926866317,0.239062557220459,92.77904510498047,87.95095825195312,2.9234771728515625,81.0361557006836,-0.008660252888997395,0.0,0.27035714285714285,-0.0,4.6031341552734375,0.09887400269508362,24.69709014892578,0.0536454094780816,0.07652579413519965
