,WD,WS,AIL_1,AIL_2,ELEV_1,ELEV_2,RUDD,ALT,GS,TH,PTCH,ROLL,PLA_1,AIL,ELEV
5835,0.38774689738769536,0.29882820129394533,86.0688247680664,82.0999755859375,-1.1272087097167969,88.09416198730469,0.002932612101236979,0.742,0.44142857142857145,0.02349785698784722,-0.3954969816894547,-0.2636648588867203,23.993968963623047,0.04409832424587674,-0.04690411885579427
5836,0.39555939738769536,0.25898443222045897,86.23248291015625,82.18180847167969,-1.10675048828125,87.88958740234375,0.008842722574869791,0.738,0.43964285714285717,0.02114808824327257,-0.14281906420898594,0.45042601227760315,23.993968963623047,0.0450074937608507,-0.044403754340277775
5837,0.37602814738769536,0.25898443222045897,86.0074462890625,82.01814270019531,-1.0862922668457031,87.68500518798828,0.0036145528157552082,0.733,0.43714285714285717,0.02047670152452257,0.032958000898361206,0.516342043876648,23.993968963623047,0.04432559543185764,-0.04190330505371094
5838,0.37212189738769536,0.2789063262939453,85.74149322509766,81.73172760009766,-0.943084716796875,87.37813568115234,-0.0007043626573350694,0.7283333333333334,0.43535714285714283,0.021636327107747395,0.3954960107803345,0.6042300462722778,23.993968963623047,0.04455295138888889,-0.03690244886610243
5839,0.36430939738769536,0.29882820129394533,86.21202850341797,82.32501220703125,-1.0044593811035156,87.72592163085938,0.0040691799587673615,0.7236666666666667,0.43214285714285716,0.02319268120659722,0.7800060510635376,1.0986000299453735,23.993968963623047,0.04318906995985243,-0.041448677910698783
5840,0.37602814738769536,0.29882820129394533,85.92561340332031,82.38638305664062,-0.8817138671875,87.72592163085938,-0.0011589898003472221,0.72,0.43,0.02514576382107205,0.790992021560669,1.1645159721374512,23.993968963623047,0.039324781629774305,-0.0400848388671875
5841,0.37212189738769536,0.29882820129394533,86.0688247680664,82.05905151367188,-0.8407974243164062,87.78729248046875,0.0049784342447916664,0.7156666666666667,0.42678571428571427,0.025969696044921876,0.8459219932556152,1.8346620798110962,23.993968963623047,0.04455303615993923,-0.040312110053168405
5842,0.36821564738769536,0.2789063262939453,85.455078125,82.12042999267578,-0.8407974243164062,87.54179382324219,0.0065695868598090275,0.712,0.42464285714285716,0.026213836669921876,1.0986000299453735,2.4938220977783203,23.993968963623047,0.03705164591471354,-0.037584347195095485
5843,0.36821564738769536,0.2789063262939453,87.37813568115234,83.85935974121094,-0.7794227600097656,87.62362670898438,0.0056603749593098955,0.7086666666666667,0.4207142857142857,0.027709155612521703,1.3293060064315796,2.768472194671631,23.993968963623047,0.0390975104437934,-0.037811660766601564
5844,0.36821564738769536,0.2789063262939453,87.1121826171875,83.71615600585938,-0.8203392028808594,87.68500518798828,0.0006595187717013889,0.7046666666666667,0.41892857142857143,0.029234992133246526,1.2414180040359497,2.0983259677886963,23.993968963623047,0.03773362901475694,-0.038948271009657115
5845,0.35259064738769536,0.2789063262939453,86.74394226074219,82.97966003417969,-0.7589645385742188,87.58271789550781,0.004751120673285591,0.7006666666666667,0.41535714285714287,0.02969273461235894,0.9667680263519287,1.2853620052337646,24.345529556274414,0.041825358072916666,-0.03712980482313368
5846,0.36040314738769536,0.2789063262939453,85.80287170410156,81.56806182861328,-0.3907203674316406,87.13264465332031,-0.0002497355143229167,0.6963333333333334,0.4135714285714286,0.030577723185221353,0.8788800239562988,0.7031040191650391,26.54277992248535,0.0470534430609809,-0.028037389119466145
5847,0.35259064738769536,0.29882820129394533,87.13264465332031,82.12042999267578,-0.3498039245605469,86.68256378173828,0.0036145528157552082,0.6923333333333334,0.4125,0.03167631361219618,1.263390064239502,1.1205720901489258,27.421680450439453,0.05569127400716146,-0.022581863403320312
5848,0.35649689738769536,0.2789063262939453,86.74394226074219,83.63432312011719,-0.3907203674316406,87.0712661743164,0.0036145528157552082,0.688,0.41214285714285714,0.03188993665907118,1.175502061843872,0.6481740474700928,27.773239135742188,0.03455132378472222,-0.027355406019422743
5849,0.36430939738769536,0.2789063262939453,85.78240966796875,81.58851623535156,-0.37026214599609375,86.90760040283203,0.0006595187717013889,0.6836666666666666,0.4114285714285714,0.032378196716308594,0.9447960257530212,0.7250760197639465,30.40993881225586,0.04659881591796875,-0.025309583875868055
5850,0.35259064738769536,0.2789063262939453,88.21691131591797,84.80043029785156,-0.20659637451171875,86.41661071777344,0.0065695868598090275,0.679,0.4110714285714286,0.03216459486219618,1.06564199924469,0.2526780068874359,31.991960525512695,0.03796090020073785,-0.01803563435872396
5851,0.36040314738769536,0.2789063262939453,85.86424255371094,81.64989471435547,-0.3498039245605469,87.21446990966797,-0.0043413374159071184,0.675,0.4107142857142857,0.032408714294433594,1.340291976928711,-0.7800070219726578,32.07984924316406,0.04682608710394965,-0.028491931491427952
5852,0.36040314738769536,0.2789063262939453,86.19157409667969,82.16134643554688,-0.28842926025390625,86.78485107421875,0.005205747816297743,0.67,0.41035714285714286,0.03188993665907118,1.0766279697418213,-0.5492998533935562,28.124799728393555,0.04478030734592014,-0.023036448160807292
5853,0.31743439738769536,0.29882820129394533,86.662109375,83.0001220703125,-0.14522552490234375,86.43707275390625,0.0040691799587673615,0.6656666666666666,0.40964285714285714,0.030577723185221353,1.1645159721374512,-0.5163427763671891,28.036909103393555,0.04068874782986111,-0.01758109198676215
5854,0.31743439738769536,0.2789063262939453,87.37813568115234,83.67523193359375,-0.20659637451171875,86.86668395996094,0.0015687730577256945,0.6623333333333333,0.4089285714285714,0.029418097601996526,1.4721240997314453,-0.823950427124025,28.036909103393555,0.041143374972873265,-0.023036448160807292
5855,0.30962186960991755,0.2789063262939453,87.09172058105469,83.77752685546875,-0.20659637451171875,87.0712661743164,0.0040691799587673615,0.6583333333333333,0.40714285714285714,0.027587085300021703,1.4721240997314453,-1.7248026304931656,28.036909103393555,0.03682437472873264,-0.025309583875868055
5856,0.30962186960991755,0.2789063262939453,85.78240966796875,81.71127319335938,-0.22705459594726562,87.13264465332031,-0.0009316762288411458,0.6536666666666666,0.40535714285714286,0.026000213623046876,1.3293060064315796,-2.3180471831054703,28.036909103393555,0.04523484971788194,-0.026218880547417535
5857,0.30180936960991755,0.2789063262939453,86.0074462890625,81.83401489257812,-0.55438232421875,87.97142028808594,-0.0011589898003472221,0.649,0.40214285714285714,0.02459644741482205,1.1974740028381348,-2.1312853270263687,28.036909103393555,0.0463714599609375,-0.03917558458116319
5858,0.31743439738769536,0.25898443222045897,86.559814453125,82.83645629882812,-1.5363693237304688,88.85111236572266,0.017935138278537325,0.6456666666666667,0.3992857142857143,0.022155125935872395,0.5712720155715942,-1.8676210814209,28.036909103393555,0.04137064615885417,-0.059860907660590275
5859,0.30180936960991755,0.2789063262939453,85.88470458984375,82.30455017089844,-1.5159111022949219,89.09660339355469,-0.0050232781304253475,0.6426666666666667,0.395,0.021819432576497395,-0.2307058745117203,-2.3729769163818375,28.036909103393555,0.03977949354383681,-0.06236127217610677
5860,0.30180936960991755,0.2789063262939453,85.80287170410156,81.58851623535156,-2.354686737060547,88.91248321533203,0.00225067138671875,0.64,0.3925,0.02023256089952257,-0.4064833098144547,-2.1312853270263687,31.816179275512695,0.046826171875,-0.06963522169325087
5861,0.31743439738769536,0.2789063262939453,85.70057678222656,81.547607421875,-2.4160614013671875,89.99675750732422,-0.0018409305148654514,0.638,0.38785714285714284,0.018981382581922744,-0.9008528166503922,-1.9005781584472672,34.980220794677734,0.04614410400390625,-0.08236465454101563
5862,0.32134064738769536,0.2789063262939453,85.557373046875,81.547607421875,-2.129650115966797,89.62850952148438,0.004296493530273437,0.6356666666666667,0.38607142857142857,0.017638651529947917,-1.0766283446044937,-1.505081790039064,37.96847915649414,0.04455295138888889,-0.07509066263834635
5863,0.31743439738769536,0.2789063262939453,85.27096557617188,80.9952392578125,-2.722930908203125,89.66943359375,-0.0009316762288411458,0.6333333333333333,0.3846428571428571,0.01669264899359809,-0.845923083374025,-0.7031046324462906,39.98994827270508,0.04750807020399306,-0.08213738335503472
5864,0.29399686960991755,0.2789063262939453,85.94607543945312,81.24073791503906,-3.1934661865234375,91.14241027832031,0.006796900431315104,0.63,0.38357142857142856,0.01620436774359809,-1.2963491850585953,0.29662200808525085,41.22040939331055,0.05228152804904514,-0.10373196072048611
5865,0.30962186960991755,0.2789063262939453,86.94851684570312,83.4501953125,-2.8252220153808594,90.91737365722656,0.0006595187717013889,0.6266666666666667,0.3825,0.01663161383734809,-2.3949495726318375,0.9228240251541138,42.275089263916016,0.0388702392578125,-0.09713995191786025
5866,0.30180936960991755,0.2789063262939453,87.66455078125,83.85935974121094,-2.2114830017089844,89.66943359375,0.005887646145290798,0.6226666666666667,0.3825,0.01687575446234809,-2.7465006285400406,1.0766279697418213,42.362979888916016,0.04227990044487847,-0.07645462883843315
5867,0.30180936960991755,0.25898443222045897,87.64408874511719,84.22760009765625,-2.088733673095703,89.13752746582031,0.0002048916286892361,0.6183333333333333,0.38285714285714284,0.017363993326822917,-1.8566347532959,0.02197200059890747,42.362979888916016,0.037960984971788195,-0.06918067932128906
5868,0.29399686960991755,0.2789063262939453,86.29386138916016,82.30455017089844,-2.8252220153808594,90.26271057128906,0.004523807101779514,0.6136666666666667,0.38321428571428573,0.017608133951822917,-1.8126913481445328,-0.856909411499025,41.57196807861328,0.04432568020290799,-0.0898659176296658
5869,0.28618436960991755,0.2789063262939453,85.90515899658203,82.01814270019531,-2.866138458251953,90.89691162109375,0.015662044949001735,0.609,0.3825,0.01638747321234809,-2.7684732847900406,-0.9667688780517594,40.25362014770508,0.04318906995985243,-0.09736722310384115
5870,0.28618436960991755,0.2789063262939453,85.70057678222656,81.73172760009766,-2.4569778442382812,89.48530578613281,-0.003886710272894965,0.604,0.38321428571428573,0.01592970954047309,-3.284815447875978,-1.0107122832031266,26.982229232788086,0.04409832424587674,-0.07713648478190104
5871,0.29009061960991755,0.2789063262939453,85.14820861816406,81.28164672851562,-2.702472686767578,90.34454345703125,0.00225067138671875,0.5983333333333334,0.3825,0.015441470675998263,-2.801430361816408,-0.2307058745117203,34.013431549072266,0.042961798773871525,-0.08941129048665365
5872,0.30571561960991755,0.25898443222045897,85.65966796875,81.547607421875,-2.8252220153808594,90.36500549316406,0.006114959716796875,0.5926666666666667,0.3821428571428571,0.015166812472873263,-3.1200243406982437,0.9887400269508362,40.69306945800781,0.045689561631944445,-0.09100252787272135
5873,0.29790311960991755,0.25898443222045897,86.21202850341797,83.1024169921875,-2.6001853942871094,89.66943359375,0.002932612101236979,0.5853333333333334,0.3825,0.01602126227484809,-3.2957998686523453,1.0876140594482422,40.95674133300781,0.034551239013671874,-0.08077354431152343
5874,0.32524689738769536,0.25898443222045897,86.0074462890625,81.8953857421875,-2.5388107299804688,90.1604232788086,-0.01729808383517795,0.5783333333333334,0.38285714285714284,0.018462583753797744,-3.6363665037841812,1.0107120275497437,36.56224060058594,0.045689561631944445,-0.0855470445421007
5875,0.32134064738769536,0.239062557220459,87.66455078125,83.57295227050781,-2.1501083374023438,89.36256408691406,0.010433875189887153,0.5703333333333334,0.38321428571428573,0.017852274576822917,-3.943974154541017,2.1532559394836426,31.28883934020996,0.04546220567491319,-0.07236302693684896
5876,0.25493436960991755,0.239062557220459,87.21446990966797,85.90515899658203,-2.0069007873535156,88.38057708740234,0.012252383761935763,0.5646666666666667,0.38285714285714284,0.01574660407172309,-2.9772058897705094,0.6591600179672241,28.388469696044922,0.014547899034288195,-0.0598608652750651
5877,0.30180936960991755,0.219140682220459,85.92561340332031,82.05905151367188,-2.129650115966797,89.89447021484375,-0.0013863033718532986,0.5583333333333333,0.3817857142857143,0.01571608649359809,-2.526779788085939,-0.9118391447753922,28.388469696044922,0.042961798773871525,-0.07804578145345052
5878,0.30571561960991755,0.219140682220459,86.15065002441406,80.87248992919922,-2.3751449584960938,89.58760070800781,0.0015687730577256945,0.5513333333333333,0.38035714285714284,0.015105777316623263,-2.922276156494142,-0.10986007983398594,28.388469696044922,0.05864622328016493,-0.0773638407389323
5879,0.26665311960991755,0.19921878814697266,87.05081176757812,83.81844329833984,-2.6615562438964844,90.1604232788086,0.009070036146375868,0.5473333333333333,0.37714285714285717,0.013702011108398438,-3.4386183195800797,0.13183200359344482,28.300579071044922,0.03591520521375868,-0.08691088358561198
5880,0.25884061960991755,0.19921878814697266,85.53691101074219,83.02058410644531,-3.4185028076171875,90.81507873535156,0.007024214002821181,0.544,0.37285714285714283,0.013122177124023438,-3.493548052856447,-0.4504267149658219,28.300579071044922,0.027959187825520832,-0.10259535047743056
5881,0.27055936960991755,0.219140682220459,85.35279846191406,80.68836975097656,-3.9708709716796875,91.38790130615234,-0.009796820746527778,0.5406666666666666,0.36964285714285716,0.014556460910373263,-3.7681986265869156,-0.19774879748535312,28.300579071044922,0.05182698567708333,-0.11509746975368923
5882,0.30571561960991755,0.239062557220459,87.35768127441406,83.83889770507812,-4.1959075927734375,91.89935302734375,-0.0075236850314670135,0.5373333333333333,0.36357142857142855,0.017211405436197917,-4.723980563232423,1.0107120275497437,28.300579071044922,0.03909759521484375,-0.12328067355685764
5883,0.31743439738769536,0.19921878814697266,87.37813568115234,83.85935974121094,-3.868579864501953,91.40835571289062,0.01657129923502604,0.535,0.36,0.015166812472873263,-5.4160982542724625,1.1864880323410034,25.224430084228516,0.0390975104437934,-0.11418817308213976
5884,0.29399686960991755,0.17929691314697266,86.86668395996094,83.61386108398438,-3.7867469787597656,91.36744689941406,0.005887646145290798,0.5316666666666666,0.35535714285714287,0.013640975952148438,-5.51497330004883,0.5712720155715942,25.136539459228516,0.03614247639973958,-0.11282437642415365
5885,0.29790311960991755,0.15937503814697265,86.08927917480469,81.56806182861328,-4.011787414550781,91.65385437011719,0.002705298529730903,0.5273333333333333,0.3525,0.012939071655273438,-5.701735156127931,0.2856360077857971,25.136539459228516,0.050235748291015625,-0.11850713094075521
5886,0.30180936960991755,0.15937503814697265,86.82576751708984,83.30699157714844,-3.7662887573242188,91.44927978515625,-0.0011589898003472221,0.5226666666666666,0.3485714285714286,0.013213729858398438,-6.327936785766603,0.0,25.136539459228516,0.0390975104437934,-0.11350631713867188
5887,0.30180936960991755,0.17929691314697266,84.12531280517578,79.82913208007812,-3.0707168579101562,90.36500549316406,-0.01002409193250868,0.517,0.3464285714285714,0.015197330050998263,-6.514698641845705,-0.6921183043212906,25.136539459228516,0.047735341389973956,-0.0937302483452691
5888,0.29790311960991755,0.219140682220459,85.94607543945312,82.40684509277344,-2.5592689514160156,89.0147705078125,-0.00843293931749132,0.5106666666666667,0.34464285714285714,0.018371073404947917,-5.569903033325197,-0.12084640795898594,25.136539459228516,0.039324781629774305,-0.07304488288031684
5889,0.30962186960991755,0.219140682220459,87.29630279541016,83.87982177734375,-2.5592689514160156,89.48530578613281,0.005887646145290798,0.5043333333333333,0.34285714285714286,0.018706724378797744,-4.36144317919922,0.373524010181427,25.136539459228516,0.03796090020073785,-0.07827305263943142
5890,0.26665311960991755,0.239062557220459,87.37813568115234,83.85935974121094,-2.5592689514160156,89.44439697265625,0.009979248046875,0.5003333333333333,0.33964285714285714,0.018432108561197917,-3.4496046477050797,0.6152160167694092,25.136539459228516,0.0390975104437934,-0.07781851026746962
5891,0.26665311960991755,0.239062557220459,86.80531311035156,83.42974090576172,-2.5388107299804688,89.99675750732422,0.0017960866292317708,0.49533333333333335,0.3364285714285714,0.018584654066297744,-3.251856463500978,0.13183200359344482,25.136539459228516,0.037506357828776045,-0.08372853597005209
5892,0.29009061960991755,0.239062557220459,86.41661071777344,82.24317932128906,-2.4569778442382812,89.09660339355469,-0.00843293931749132,0.49266666666666664,0.3325,0.02065980699327257,-2.900305407592775,0.12084600329399109,29.970489501953125,0.0463714599609375,-0.07281756930881077
5893,0.27837186960991755,0.25898443222045897,88.21691131591797,84.35034942626953,-2.9275131225585938,90.38545989990234,-0.005250591701931423,0.48933333333333334,0.3292857142857143,0.02273491753472222,-2.537766116210939,0.12084600329399109,30.058380126953125,0.042961798773871525,-0.09236636691623264
5894,0.27837186960991755,0.25898443222045897,85.08683776855469,80.83157348632812,-2.2933120727539062,88.68744659423828,-0.0009316762288411458,0.486,0.32392857142857145,0.022643407185872395,-2.6805845671386734,0.2526780068874359,33.39820098876953,0.04728071424696181,-0.06645287407769097
5895,0.27837186960991755,0.25898443222045897,88.31919860839844,84.6572265625,-2.252399444580078,88.85111236572266,0.012707010904947916,0.48433333333333334,0.32142857142857145,0.022277196248372395,-1.9664942198486344,1.1864880323410034,35.50756072998047,0.040688578287760416,-0.0678167978922526
5896,0.26274686960991755,0.239062557220459,87.41905212402344,83.30699157714844,-2.6001853942871094,89.83309936523438,0.009751976860894098,0.4816666666666667,0.31785714285714284,0.021453221638997395,-1.4831110411376969,0.8239500522613525,36.82590866088867,0.045689561631944445,-0.08259205288357205
5897,0.28227811960991755,0.239062557220459,87.39859008789062,83.61386108398438,-2.313770294189453,90.1195068359375,-0.0075236850314670135,0.478,0.3157142857142857,0.02288750542534722,-1.9115644865722672,0.4614120125770569,38.671600341796875,0.042052544487847225,-0.0825919681125217
5898,0.28618436960991755,0.219140682220459,87.41905212402344,83.5934066772461,-2.334228515625,89.2193603515625,0.01247969733344184,0.4746666666666667,0.31392857142857145,0.022216161092122395,-2.1202989989013687,0.36253800988197327,39.726280212402344,0.042507171630859375,-0.07281765407986111
5899,0.29790311960991755,0.19921878814697266,87.0712661743164,83.36836242675781,-2.313770294189453,89.13752746582031,0.0020233578152126738,0.4716666666666667,0.3132142857142857,0.022155125935872395,-2.230158465454103,0.02197200059890747,42.538761138916016,0.041143374972873265,-0.07168108622233073
5900,0.28227811960991755,0.219140682220459,86.70301818847656,82.75462341308594,-2.2114830017089844,88.76927947998047,-0.001613616943359375,0.467,0.31357142857142856,0.022612889607747395,-2.1202989989013687,-0.2636648588867203,43.68132781982422,0.04387105305989583,-0.06645291646321615
5901,0.25884061960991755,0.239062557220459,86.58027648925781,82.63188171386719,-2.10919189453125,88.6669921875,-0.00047704908582899306,0.463,0.31464285714285717,0.022033055623372395,-1.9225508146972672,-0.07690300280761875,44.38444900512695,0.04387105305989583,-0.06417982313368055
5902,0.26274686960991755,0.19921878814697266,86.86668395996094,82.79554748535156,-2.1501083374023438,88.85111236572266,0.015662044949001735,0.4593333333333333,0.31535714285714284,0.019835874769422744,-1.3622652464599625,-0.04394401843261875,44.64812088012695,0.04523484971788194,-0.06668023003472222
5903,0.25884061960991755,0.19921878814697266,85.88470458984375,82.22271728515625,-2.8047637939453125,90.1604232788086,0.002932612101236979,0.4553333333333333,0.3157142857142857,0.019042417738172744,-1.6039568358154312,-0.3295809202880875,44.82389831542969,0.04068874782986111,-0.08850207858615451
5904,0.25102811960991755,0.219140682220459,85.90515899658203,81.91584777832031,-1.9864425659179688,88.58515930175781,-0.002750142415364583,0.4513333333333333,0.31642857142857145,0.019805357191297744,-2.0983263426513687,-0.08788933093261875,44.82389831542969,0.04432568020290799,-0.061906687418619794
5905,0.25884061960991755,0.239062557220459,86.82576751708984,81.91584777832031,-1.7818641662597656,88.17599487304688,-0.0002497355143229167,0.44766666666666666,0.3175,0.021453221638997395,-1.3952223234863297,0.48338401317596436,44.82389831542969,0.0545546637641059,-0.05508732265896267
5906,0.27837186960991755,0.219140682220459,87.50088500976562,84.47309875488281,-2.129650115966797,89.26026916503906,0.001341459486219618,0.44466666666666665,0.3171428571428571,0.02307061089409722,-0.6152159147949234,0.4284540116786957,44.82389831542969,0.03364206949869792,-0.07099910312228733
5907,0.29009061960991755,0.219140682220459,87.86912536621094,84.45263671875,-2.2933120727539062,89.73080444335938,0.0031599256727430558,0.44133333333333336,0.3171428571428571,0.02371148003472222,-0.5273291044921891,0.4064820110797882,44.64812088012695,0.037960984971788195,-0.07804573906792535
5908,0.26274686960991755,0.219140682220459,87.74638366699219,84.45263671875,-2.272857666015625,89.79217529296875,0.007024214002821181,0.43866666666666665,0.31642857142857145,0.022643407185872395,-1.0766283446044937,0.12084600329399109,44.29655838012695,0.036597188313802084,-0.0785003662109375
5909,0.27837186960991755,0.19921878814697266,87.54179382324219,83.87982177734375,-2.334228515625,89.79217529296875,0.002932612101236979,0.436,0.31642857142857145,0.021605809529622395,-1.505081790039064,-0.2526785307617203,44.12078094482422,0.040688578287760416,-0.07918226453993056
5910,0.24321561960991755,0.239062557220459,85.12775421142578,81.22027587890625,-2.1910247802734375,89.38301849365234,-0.006159803602430555,0.43266666666666664,0.31607142857142856,0.021972020467122395,-1.7797323637695328,-0.8788801604003922,43.76921844482422,0.04341642591688368,-0.07304492526584201
5911,0.27446561960991755,0.239062557220459,85.65966796875,81.64989471435547,-2.354686737060547,89.34210205078125,-0.0022955152723524307,0.43033333333333335,0.3157142857142857,0.02297905815972222,-1.6808592253417984,-0.856909411499025,43.68132781982422,0.04455303615993923,-0.0744087643093533
5912,0.29009061960991755,0.219140682220459,85.31187438964844,81.26119232177734,-2.313770294189453,89.85355377197266,-0.004114023844401042,0.42633333333333334,0.31535714285714284,0.022612889607747395,-1.6479002409667984,-0.7360617094726578,43.68132781982422,0.045007578531901044,-0.07963693406846788
5913,0.28618436960991755,0.19921878814697266,88.0737075805664,81.17935943603516,-2.1501083374023438,89.68988800048828,0.012934324476453993,0.4226666666666667,0.31535714285714284,0.02017152574327257,-1.9994532042236344,0.5822579860687256,43.68132781982422,0.07660386827256944,-0.07599995930989584
5914,0.25884061960991755,0.17929691314697266,87.84866333007812,85.0459213256836,-2.1501083374023438,89.09660339355469,0.009979248046875,0.419,0.31535714285714284,0.017455546061197917,-2.0104395323486344,0.8569080233573914,43.76921844482422,0.031141577826605902,-0.06940790812174479
5915,0.25493436960991755,0.15937503814697265,87.91004180908203,83.94119262695312,-2.129650115966797,89.03523254394531,0.0017960866292317708,0.41533333333333333,0.31535714285714284,0.01684523688422309,-1.8017050200195328,0.48338401317596436,43.76921844482422,0.04409832424587674,-0.06849869622124566
5916,0.25102811960991755,0.17929691314697266,87.86912536621094,83.94119262695312,-2.10919189453125,89.05569458007812,-0.00047704908582899306,0.4106666666666667,0.31607142857142856,0.017669169108072917,-1.7357889586181656,0.08788800239562988,43.76921844482422,0.04364369710286458,-0.06849873860677083
5917,0.21977811960991755,0.219140682220459,87.95095825195312,83.94119262695312,-2.1501083374023438,89.17843627929688,-0.011842600504557292,0.4063333333333333,0.3167857142857143,0.019195005628797744,-1.7467752867431656,-0.6371885710449234,43.76921844482422,0.04455295138888889,-0.0703171624077691
5918,0.23149686960991755,0.219140682220459,88.05325317382812,84.18669128417969,-2.1501083374023438,89.40347290039062,0.002932612101236979,0.4033333333333333,0.3175,0.019561216566297744,-1.8017050200195328,-1.8346620970459,43.76921844482422,0.042961798773871525,-0.07281756930881077
5919,0.23540311960991755,0.239062557220459,83.0410385131836,79.64501190185547,-2.1910247802734375,89.0761489868164,-0.008660252888997395,0.39866666666666667,0.3175,0.019042417738172744,-1.560013430664064,-3.229883807250978,43.76921844482422,0.03773362901475694,-0.06963526407877604
5920,0.25493436960991755,0.239062557220459,84.6572265625,80.52470397949219,-2.313770294189453,89.99675750732422,0.001341459486219618,0.395,0.31785714285714284,0.017150370279947917,-1.3842359953613297,-1.505081790039064,43.76921844482422,0.045916917588975696,-0.08122808668348525
5921,0.23930936960991755,0.19921878814697266,86.37569427490234,83.32745361328125,-2.4569778442382812,89.87400817871094,0.01952633327907986,0.39266666666666666,0.31785714285714284,0.013122177124023438,-1.6149431639404312,-0.16478981311035312,43.76921844482422,0.03386934068467882,-0.08145540025499132
5922,0.23540311960991755,0.17929691314697266,85.92561340332031,82.20226287841797,-2.6001853942871094,90.05813598632812,0.011115815904405382,0.3893333333333333,0.3175,0.011016549004448786,-1.9884668760986344,0.16479000449180603,43.76921844482422,0.04137056138780382,-0.08509245978461372
5923,0.21977811960991755,0.17929691314697266,86.6007308959961,82.30455017089844,-2.4365196228027344,89.93538665771484,0.0008868323432074653,0.38566666666666666,0.31785714285714284,0.01159634060329861,-2.186215060302736,0.12084600329399109,43.76921844482422,0.047735341389973956,-0.08191006978352865
5924,0.20415311960991755,0.19921878814697266,85.37325286865234,84.53446960449219,-2.5388107299804688,90.03767395019531,0.0031599256727430558,0.38166666666666665,0.3182142857142857,0.01168789333767361,-2.6366411619873062,-0.20873512561035312,43.76921844482422,0.009319814046223958,-0.08418316311306423
5925,0.22759061960991755,0.19921878814697266,85.61874389648438,81.52714538574219,-2.5592689514160156,90.05813598632812,-0.002522828843858507,0.37766666666666665,0.3192857142857143,0.01266445583767361,-2.9991785460205094,-0.2416922026367203,43.76921844482422,0.04546220567491319,-0.08463783264160156
5926,0.23540311960991755,0.19921878814697266,86.0074462890625,82.22271728515625,-2.354686737060547,89.75126647949219,0.0006595187717013889,0.37366666666666665,0.32,0.013396835327148438,-3.273829119750978,0.24169200658798218,43.76921844482422,0.042052544487847225,-0.07895503573947482
5927,0.23540311960991755,0.19921878814697266,87.99187469482422,84.61630249023438,-2.354686737060547,89.75126647949219,0.0017960866292317708,0.36966666666666664,0.32071428571428573,0.013732528686523438,-3.251856463500978,0.19774800539016724,43.76921844482422,0.037506357828776045,-0.07895503573947482
5928,0.24712186960991755,0.17929691314697266,87.54179382324219,82.16134643554688,-2.2319412231445312,88.78973388671875,0.00225067138671875,0.36466666666666664,0.3221428571428571,0.013610458374023438,-2.6805845671386734,0.032958000898361206,43.76921844482422,0.05978274875217014,-0.06690750122070313
5929,0.25102811960991755,0.17929691314697266,85.70057678222656,82.77508544921875,-2.272857666015625,89.0147705078125,-0.002750142415364583,0.3606666666666667,0.3225,0.013824081420898438,-1.9335371428222672,-0.2856375151367203,43.76921844482422,0.03250545925564236,-0.06986253526475694
5930,0.24321561960991755,0.17929691314697266,85.1072998046875,80.9952392578125,-2.3751449584960938,89.54668426513672,0.009070036146375868,0.3566666666666667,0.32285714285714284,0.013091659545898438,-1.6479002409667984,0.4614120125770569,43.76921844482422,0.045689561631944445,-0.07690921359592014
5931,0.23149686960991755,0.17929691314697266,85.23004150390625,81.11798858642578,-2.334228515625,89.81263732910156,0.0072515275743272566,0.3526666666666667,0.3221428571428571,0.013244247436523438,-1.9884668760986344,1.2963480949401855,43.76921844482422,0.0456894768608941,-0.0794096204969618
5932,0.29790311960991755,0.15937503814697265,86.68256378173828,83.14332580566406,-2.2114830017089844,88.99431610107422,0.0004322052001953125,0.35,0.3225,0.014709048800998263,-1.9774805479736344,1.8676199913024902,43.76921844482422,0.03932486640082465,-0.06895332336425782
5933,0.22368436960991755,0.17929691314697266,88.6056137084961,85.18913269042969,-2.2933120727539062,89.09660339355469,0.01066118876139323,0.3463333333333333,0.3225,0.01571608649359809,-1.4062086516113297,2.142270088195801,43.76921844482422,0.03796090020073785,-0.07099906073676215
5934,0.21196561960991755,0.17929691314697266,88.74882507324219,85.455078125,-2.354686737060547,89.77172088623047,0.0072515275743272566,0.3433333333333333,0.32107142857142856,0.01592970954047309,-1.3402925902099625,0.8239500522613525,43.76921844482422,0.036597188313802084,-0.07918230692545573
5935,0.19243436960991755,0.19921878814697266,84.88226318359375,81.05661010742188,-2.4569778442382812,89.93538665771484,-0.0013863033718532986,0.3396666666666667,0.32071428571428573,0.01687575446234809,-1.4611383848876969,-0.7470480375976578,43.85710906982422,0.04250725640190972,-0.08213738335503472
5936,0.23540311960991755,0.19921878814697266,85.25050354003906,80.91340637207031,-2.722930908203125,90.79461669921875,-0.006387117173936632,0.337,0.3196428571428571,0.019011900160047744,-1.9774805479736344,-0.5273291044921891,43.76921844482422,0.04818996853298611,-0.09463941786024306
5937,0.24712186960991755,0.219140682220459,86.90760040283203,83.30699157714844,-2.6615562438964844,90.0785903930664,-0.0066144307454427086,0.334,0.3196428571428571,0.02111757066514757,-2.4388929777832047,0.12084600329399109,43.76921844482422,0.040006764729817706,-0.08600162929958767
5938,0.23540311960991755,0.239062557220459,88.93293762207031,85.53691101074219,-2.6615562438964844,89.89447021484375,-0.00047704908582899306,0.32966666666666666,0.3192857142857143,0.022185643513997395,-2.6366411619873062,0.010986000299453735,43.76921844482422,0.03773362901475694,-0.08395584954155816
5939,0.23149686960991755,0.239062557220459,87.33721923828125,83.30699157714844,-2.907054901123047,90.569580078125,0.004751120673285591,0.3263333333333333,0.3192857142857143,0.02117860582139757,-2.845373766967775,-0.8678938322753922,43.76921844482422,0.04478030734592014,-0.09418483310275608
5940,0.22368436960991755,0.239062557220459,85.76194763183594,81.83401489257812,-2.722930908203125,90.28317260742188,0.002705298529730903,0.32233333333333336,0.31892857142857145,0.02014100816514757,-3.3287588530273453,-1.3512789183349625,43.76921844482422,0.04364369710286458,-0.08895670572916667
5941,0.23540311960991755,0.239062557220459,86.88714599609375,83.38882446289062,-2.5592689514160156,88.97386169433594,-0.00047704908582899306,0.31833333333333336,0.31892857142857145,0.019835874769422744,-3.163967745849611,-1.3293062620849625,43.76921844482422,0.0388702392578125,-0.07259034050835503
5942,0.24321561960991755,0.239062557220459,86.23248291015625,82.18180847167969,-2.5592689514160156,89.73080444335938,-0.005705218844943577,0.314,0.31892857142857145,0.019805357191297744,-2.6256548338623062,-1.4501520567626969,43.76921844482422,0.0450074937608507,-0.08100081549750435
5943,0.23930936960991755,0.25898443222045897,86.662109375,82.28408813476562,-2.6001853942871094,90.1195068359375,-0.00297745598687066,0.30966666666666665,0.31892857142857145,0.01986634996202257,-2.504809039184572,-0.9118391447753922,43.76921844482422,0.04864468044704861,-0.08577435811360677
5944,0.23930936960991755,0.25898443222045897,88.68744659423828,84.57539367675781,-2.497894287109375,89.50576782226562,0.0008868323432074653,0.30533333333333335,0.3182142857142857,0.019042417738172744,-2.504809039184572,-0.5602861815185562,43.76921844482422,0.0456894768608941,-0.07781846788194445
5945,0.23540311960991755,0.239062557220459,85.557373046875,81.0975341796875,-2.5592689514160156,89.68988800048828,0.0065695868598090275,0.3016666666666667,0.3175,0.017211405436197917,-2.263117449829103,-0.3845106535644547,43.76921844482422,0.049553765190972224,-0.08054618835449219
5946,0.21587186960991755,0.25898443222045897,88.81019592285156,83.67523193359375,-2.5592689514160156,89.40347290039062,-0.0002497355143229167,0.2976666666666667,0.3167857142857143,0.01654006110297309,-1.9445234709472672,-0.01098694140625156,43.76921844482422,0.057055155436197914,-0.07736379835340712
5947,0.25102811960991755,0.219140682220459,86.37569427490234,84.6572265625,-2.5797271728515625,89.99675750732422,-0.003659396701388889,0.293,0.31607142857142856,0.01608229743109809,-1.8126913481445328,-0.7690206938476578,43.76921844482422,0.019094085693359374,-0.08418316311306423
5948,0.25884061960991755,0.19921878814697266,87.68500518798828,82.48867797851562,-2.518352508544922,89.71034240722656,0.0065695868598090275,0.28933333333333333,0.31535714285714284,0.014770083957248263,-1.9884668760986344,-0.3625379973144547,43.76921844482422,0.057736968994140624,-0.08031883239746093
5949,0.21196561960991755,0.17929691314697266,84.18669128417969,83.0001220703125,-2.4160614013671875,89.03523254394531,0.01907170613606771,0.2853333333333333,0.315,0.010924996270073786,-1.9884668760986344,-0.6701475554199234,43.76921844482422,0.013184102376302083,-0.07168104383680556
5950,0.22368436960991755,0.15937503814697265,84.6572265625,81.60897827148438,-2.334228515625,88.76927947998047,-0.006841744316948784,0.282,0.315,0.009399159749348959,-1.4062086516113297,-0.20873512561035312,43.76921844482422,0.033869425455729164,-0.06781675550672743
5951,0.18462186960991755,0.15937503814697265,90.2218017578125,85.31187438964844,-1.9046134948730469,88.50332641601562,0.017025926378038195,0.2783333333333333,0.315,0.0077207353379991316,-1.164517062255861,1.5270540714263916,43.76921844482422,0.05455474853515625,-0.06008822123209635
5952,0.16118436960991755,0.13945316314697265,87.72592163085938,84.63676452636719,-2.0069007873535156,88.91248321533203,0.008388095431857638,0.275,0.31464285714285717,0.006072828504774305,-0.9777552061767594,-0.06591667468261875,43.76921844482422,0.034323967827690975,-0.06577093336317275
5953,0.17680936960991755,0.15937503814697265,84.28897857666016,80.40196228027344,-2.088733673095703,89.58760070800781,-0.014797634548611112,0.272,0.31392857142857145,0.0074765947129991316,-1.164517062255861,-1.5819841795654312,43.76921844482422,0.04318906995985243,-0.0741814931233724
5954,0.22368436960991755,0.15937503814697265,84.61630249023438,80.4837875366211,-2.088733673095703,89.66943359375,-0.0075236850314670135,0.2683333333333333,0.3132142857142857,0.008453157212999132,-1.4501520567626969,-0.7800070219726578,43.76921844482422,0.04591683281792535,-0.0750907474093967
5955,0.19243436960991755,0.15937503814697265,85.72103881835938,82.26363372802734,-2.088733673095703,89.40347290039062,0.01770782470703125,0.26566666666666666,0.3125,0.006896803114149305,-1.8236757689209,0.010986000299453735,43.76921844482422,0.038415612114800345,-0.07213562859429254
5956,0.19243436960991755,0.17929691314697266,87.5213394165039,84.43218231201172,-1.9659843444824219,88.85111236572266,0.0024779849582248262,0.262,0.31214285714285717,0.0076902177598741316,-1.8126913481445328,0.29662200808525085,43.76921844482422,0.034323967827690975,-0.06463440789116753
5957,0.18462186960991755,0.19921878814697266,87.41905212402344,84.32989501953125,-2.088733673095703,89.54668426513672,0.0020233578152126738,0.25866666666666666,0.3125,0.008819325764973959,-1.4940973692626969,0.26366400718688965,43.76921844482422,0.034323967827690975,-0.07372686598036024
5958,0.20415311960991755,0.19921878814697266,87.39859008789062,83.92073059082031,-2.088733673095703,89.36256408691406,-2.242194281684028e-05,0.25466666666666665,0.31214285714285717,0.009795888264973959,-1.3622652464599625,-0.5383154326171891,44.12078094482422,0.03864288330078125,-0.07168108622233073
5959,0.22368436960991755,0.17929691314697266,84.0434799194336,80.19737243652344,-2.1910247802734375,89.81263732910156,-0.00297745598687066,0.25166666666666665,0.31214285714285717,0.009978951348198786,-1.4721247130126969,-0.9887415343017594,44.12078094482422,0.042734527587890626,-0.07781846788194445
5960,0.23540311960991755,0.17929691314697266,83.5115737915039,79.17447662353516,-2.129650115966797,89.6080551147461,-0.0009316762288411458,0.24766666666666667,0.31285714285714283,0.010223091973198786,-1.6698728972167984,0.32958000898361206,44.12078094482422,0.04818996853298611,-0.07486339145236545
5961,0.21587186960991755,0.17929691314697266,87.86912536621094,81.13844299316406,-2.129650115966797,89.26026916503906,0.009751976860894098,0.24433333333333335,0.31357142857142856,0.009826405843098959,-1.6039568358154312,1.7028300762176514,44.12078094482422,0.07478535970052083,-0.07099910312228733
5962,0.19634061960991755,0.19921878814697266,87.88958740234375,84.49356079101562,-2.10919189453125,89.26026916503906,0.008160781860351563,0.24033333333333334,0.31392857142857145,0.010558785332573786,-1.538040774414064,2.4828360080718994,44.12078094482422,0.03773362901475694,-0.07077178955078126
5963,0.17290311960991755,0.17929691314697266,88.33966064453125,84.94363403320312,-2.4160614013671875,89.17843627929688,0.008160781860351563,0.23666666666666666,0.31392857142857145,0.01144375271267361,-1.538040774414064,1.7577600479125977,44.29655838012695,0.03773362901475694,-0.07327219645182291
5964,0.19243436960991755,0.19921878814697266,84.88226318359375,80.4837875366211,-2.2319412231445312,89.54668426513672,-0.004114023844401042,0.234,0.31392857142857145,0.014373355441623263,-1.6369139128417984,0.4394400119781494,44.12078094482422,0.048871951633029515,-0.07531806098090278
5965,0.22368436960991755,0.219140682220459,87.31675720214844,83.63432312011719,-2.4160614013671875,89.66943359375,-0.01002409193250868,0.23,0.31392857142857145,0.017516581217447917,-1.3952223234863297,0.2746500074863434,44.12078094482422,0.04091593424479167,-0.07872772216796875
5966,0.18852811960991755,0.239062557220459,87.48042297363281,84.08439636230469,-2.6001853942871094,90.05813598632812,0.009979248046875,0.226,0.31357142857142856,0.01669264899359809,-1.8126913481445328,-0.18676246936035312,44.12078094482422,0.03773362901475694,-0.08509245978461372
5967,0.17680936960991755,0.239062557220459,87.78729248046875,83.92073059082031,-2.6001853942871094,89.95584106445312,0.004751120673285591,0.22233333333333333,0.31357142857142856,0.01650954352484809,-2.0983263426513687,-0.7690206938476578,44.12078094482422,0.042961798773871525,-0.08395584954155816
5968,0.21587186960991755,0.219140682220459,85.20958709716797,81.07707214355469,-2.8252220153808594,90.48774719238281,-0.003204769558376736,0.21966666666666668,0.31392857142857145,0.017302958170572917,-2.4388929777832047,-1.7907186918945328,44.12078094482422,0.04591683281792535,-0.09236632453070746
5969,0.24712186960991755,0.239062557220459,85.18913269042969,81.0361557006836,-2.743389129638672,89.87400817871094,-0.0018409305148654514,0.216,0.31392857142857145,0.018798277113172744,-2.812416689941408,-1.5929705076904312,44.12078094482422,0.046144188774956595,-0.08463774787055121
5970,0.26274686960991755,0.239062557220459,84.80043029785156,80.8929443359375,-2.7843055725097656,89.87400817871094,-0.007296371459960938,0.212,0.315,0.018615171644422744,-2.911289828369142,-1.0876146727294937,44.12078094482422,0.04341651068793403,-0.08509237501356337
5971,0.26274686960991755,0.19921878814697266,87.17355346679688,83.92073059082031,-2.702472686767578,89.75126647949219,0.02020827399359809,0.20866666666666667,0.31535714285714284,0.01580763922797309,-2.922276156494142,0.17577600479125977,44.12078094482422,0.03614247639973958,-0.08281932406955295
5972,0.26274686960991755,0.19921878814697266,85.90515899658203,80.9952392578125,-2.6615562438964844,89.73080444335938,-0.0043413374159071184,0.20466666666666666,0.3171428571428571,0.01663161383734809,-3.0980535917968766,0.16479000449180603,44.12078094482422,0.0545546637641059,-0.08213734096950955
5973,0.29399686960991755,0.19921878814697266,88.99431610107422,82.77508544921875,-2.477436065673828,89.23981475830078,-0.0011589898003472221,0.20066666666666666,0.3182142857142857,0.018767759535047744,-2.812416689941408,1.8566340208053589,44.12078094482422,0.0691025627983941,-0.07463612026638455
5974,0.27837186960991755,0.17929691314697266,89.13752746582031,85.74149322509766,-2.497894287109375,89.30118560791016,0.015207417805989583,0.196,0.32,0.018584654066297744,-2.4388929777832047,1.8895920515060425,44.12078094482422,0.03773371378580729,-0.07554533216688368
5975,0.34087189738769536,0.13945316314697265,88.93293762207031,85.74149322509766,-2.5388107299804688,89.79217529296875,0.002705298529730903,0.19233333333333333,0.32071428571428573,0.018310038248697917,-2.6036821776123062,0.38451001048088074,44.12078094482422,0.03546049329969618,-0.08145540025499132
5976,0.30180936960991755,0.13945316314697265,84.47309875488281,82.36592102050781,-2.497894287109375,89.05569458007812,0.014525477091471355,0.18833333333333332,0.3221428571428571,0.01614333258734809,-2.6915708952636734,-1.153530734130861,44.12078094482422,0.0234130859375,-0.07281765407986111
5977,0.26665311960991755,0.15937503814697265,85.0459213256836,81.0361557006836,-2.497894287109375,89.23981475830078,-0.007069057888454861,0.18433333333333332,0.32285714285714284,0.015594058566623263,-2.4608656340332047,-0.49437012011718906,44.29655838012695,0.04455295138888889,-0.07486343383789062
5978,0.27446561960991755,0.1195312786102295,86.86668395996094,83.0410385131836,-2.477436065673828,89.32164001464844,0.008388095431857638,0.18066666666666667,0.3242857142857143,0.012786483764648438,-2.2741018706054703,0.516342043876648,44.12078094482422,0.042507171630859375,-0.07554528978135851
5979,0.16509061960991755,0.13945316314697265,88.29874420166016,83.57295227050781,-2.5388107299804688,89.50576782226562,0.012252383761935763,0.177,0.3246428571428571,0.010284127129448786,-2.230158465454103,0.9118380546569824,44.12078094482422,0.05250879923502604,-0.0782730950249566
5980,0.12993436960991755,0.13945316314697265,86.5188980102539,81.0975341796875,-2.5388107299804688,89.48530578613281,0.0072515275743272566,0.173,0.325,0.009185536702473959,-2.0653692656250016,1.3293060064315796,44.12078094482422,0.06023737589518229,-0.07804573906792535
5981,0.15727811960991755,0.1195312786102295,88.58515930175781,84.92317199707031,-2.518352508544922,89.81263732910156,0.0015687730577256945,0.17033333333333334,0.32535714285714284,0.01177944607204861,-1.8456484251709,1.1315580606460571,44.12078094482422,0.04068874782986111,-0.08145544264051649
5982,0.19243436960991755,0.1195312786102295,86.70301818847656,83.16378784179688,-3.0707168579101562,90.75370788574219,-0.010478719075520834,0.16733333333333333,0.32607142857142857,0.013793563842773438,-1.8895918303222672,-0.5273291044921891,44.12078094482422,0.039324781629774305,-0.09804916381835938
5983,0.19243436960991755,0.15937503814697265,85.70057678222656,80.62699890136719,-2.8047637939453125,90.69232940673828,-0.0022955152723524307,0.164,0.32571428571428573,0.015075259738498263,-2.845373766967775,-0.856909411499025,44.12078094482422,0.05637308756510417,-0.09441214667426215
5984,0.24321561960991755,0.13945316314697265,85.39370727539062,80.21783447265625,-2.6206436157226562,89.93538665771484,-0.005250591701931423,0.16166666666666665,0.3264285714285714,0.01657057868109809,-3.0980535917968766,0.07690200209617615,44.12078094482422,0.057509697808159725,-0.08395589192708333
5985,0.21587186960991755,0.13945316314697265,87.58271789550781,84.22760009765625,-2.6820144653320312,89.73080444335938,0.011343129475911458,0.15766666666666668,0.3271428571428571,0.01568556891547309,-2.790444033691408,0.3405660092830658,44.12078094482422,0.03727908664279514,-0.08236465454101563
5986,0.16509061960991755,0.15937503814697265,87.33721923828125,83.57295227050781,-2.6820144653320312,90.05813598632812,0.00225067138671875,0.155,0.3275,0.014770083957248263,-2.504809039184572,0.17577600479125977,44.12078094482422,0.041825188530815974,-0.08600167168511284
5987,0.17290311960991755,0.13945316314697265,85.72103881835938,83.36836242675781,-2.9684295654296875,90.36500549316406,0.010433875189887153,0.15166666666666667,0.3275,0.014129257202148438,-2.493822711059572,-0.5383154326171891,44.12078094482422,0.026140848795572918,-0.0925937228732639
5988,0.21196561960991755,0.15937503814697265,84.86180114746094,80.74974060058594,-2.9479713439941406,90.52867126464844,-0.015024948120117187,0.14866666666666667,0.3275,0.015471988254123263,-2.7355143004150406,-0.3515516691894547,44.12078094482422,0.045689561631944445,-0.09418491787380642
5989,0.16509061960991755,0.19921878814697266,87.48042297363281,84.06393432617188,-2.9684295654296875,90.34454345703125,0.009070036146375868,0.145,0.3275,0.01596022711859809,-3.3287588530273453,0.12084600329399109,44.12078094482422,0.037960984971788195,-0.09236636691623264
5990,0.19243436960991755,0.19921878814697266,86.1097412109375,83.0410385131836,-2.9684295654296875,90.44683837890625,-2.242194281684028e-05,0.142,0.3275,0.017058817545572917,-3.4605909758300797,-0.6701475554199234,44.12078094482422,0.03409669664171007,-0.0935029771592882
5991,0.18071561960991755,0.219140682220459,86.82576751708984,82.05905151367188,-3.132091522216797,90.61050415039062,-0.0034320831298828127,0.139,0.3275,0.017302958170572917,-3.592423098632814,-0.6262022429199234,44.12078094482422,0.052963511149088545,-0.09713995191786025
5992,0.17680936960991755,0.219140682220459,86.88714599609375,83.40928649902344,-3.5821685791015625,91.36744689941406,0.01247969733344184,0.13566666666666666,0.3267857142857143,0.01657057868109809,-4.119751589843752,-0.7250772886962906,44.12078094482422,0.03864288330078125,-0.11055128309461805
5993,0.18462186960991755,0.239062557220459,86.84622192382812,83.40928649902344,-3.3980445861816406,90.81507873535156,-0.00297745598687066,0.13133333333333333,0.3264285714285714,0.017760721842447917,-4.460316317626955,-1.153530734130861,44.12078094482422,0.03818817138671875,-0.10236803690592448
5994,0.19634061960991755,0.19921878814697266,86.84622192382812,83.26608276367188,-3.3980445861816406,90.569580078125,0.014298163519965278,0.12766666666666668,0.3264285714285714,0.015502505832248263,-4.537218707153322,-1.3952223234863297,44.12078094482422,0.03977932400173611,-0.09964027404785156
5995,0.20024686960991755,0.19921878814697266,84.84133911132812,80.83157348632812,-3.3162155151367188,90.24225616455078,-0.008660252888997395,0.12266666666666666,0.3267857142857143,0.014495425754123263,-4.3944002562255875,-1.6369139128417984,43.76921844482422,0.04455295138888889,-0.09509412977430555
5996,0.20805936960991755,0.19921878814697266,87.88958740234375,81.24073791503906,-3.275299072265625,90.28317260742188,0.0004322052001953125,0.118,0.3275,0.014037704467773438,-4.163694994995119,-0.5492998533935562,43.505550384521484,0.07387610541449653,-0.09509412977430555
5997,0.19634061960991755,0.17929691314697266,85.70057678222656,82.69325256347656,-3.254840850830078,90.1604232788086,0.007933468288845487,0.113,0.32785714285714285,0.01193203396267361,-4.218624728271486,-0.6262022429199234,43.505550384521484,0.03341471354166667,-0.09350293477376302
5998,0.19243436960991755,0.17929691314697266,85.20958709716797,81.17935943603516,-3.132091522216797,89.1170654296875,0.006114959716796875,0.10833333333333334,0.32821428571428574,0.010192574395073786,-4.240597384521486,-0.4723993712158219,43.417659759521484,0.04478030734592014,-0.08054618835449219
5999,0.20024686960991755,0.15937503814697265,88.83065795898438,81.24073791503906,-2.907054901123047,89.30118560791016,0.001341459486219618,0.10433333333333333,0.32857142857142857,0.010192574395073786,-3.4715773039550797,0.17577600479125977,43.241878509521484,0.0843324449327257,-0.08009156121148003
6000,0.31743439738769536,0.1195312786102295,89.50576782226562,83.5934066772461,-2.866138458251953,89.83309936523438,-0.013888380262586805,0.09933333333333333,0.3292857142857143,0.011077584160698786,-2.3510042601318375,0.06591600179672241,43.153987884521484,0.06569290161132812,-0.08554708692762587
6001,0.29399686960991755,0.09960939407348633,84.41172790527344,83.92073059082031,-3.0298004150390625,41.900001525878906,-0.0059324900309244795,0.09566666666666666,0.3292857142857143,0.009948433770073786,-2.1312853270263687,-1.5819841795654312,42.97821044921875,0.005455525716145834,0.44522442287868924
6002,0.19634061960991755,0.13945316314697265,81.83401489257812,78.13111877441406,-3.0298004150390625,88.54424285888672,0.02316330803765191,0.09066666666666667,0.3289285714285714,0.006988355848524305,-2.944248812744142,-1.4501520567626969,42.97821044921875,0.04114329020182292,-0.07304492526584201
6003,0.28227811960991755,0.15937503814697265,88.99431610107422,83.14332580566406,-2.4365196228027344,88.44195556640625,-0.010478719075520834,0.088,0.32857142857142857,0.01135219997829861,-2.6805845671386734,0.7250760197639465,42.97821044921875,0.06501100328233507,-0.06531639099121093
6004,0.26665311960991755,0.17929691314697266,86.49844360351562,87.33721923828125,-2.252399444580078,88.99431610107422,-0.02093505859375,0.08433333333333333,0.32821428571428574,0.013793563842773438,-1.2414194517822281,-0.4614130430908219,42.97821044921875,-0.009319729275173612,-0.06940795050726997
6005,0.29790311960991755,0.13945316314697265,84.88226318359375,80.38150024414062,-2.6206436157226562,89.97630310058594,0.006114959716796875,0.08133333333333333,0.3271428571428571,0.01168789333767361,-0.20873512561035312,-0.19774879748535312,43.241878509521484,0.05000847710503472,-0.08441051907009549
6006,0.22759061960991755,0.13945316314697265,87.13264465332031,81.26119232177734,-2.866138458251953,89.75126647949219,0.011115815904405382,0.07933333333333334,0.325,0.008666737874348959,-0.3295809202880875,0.7140899896621704,43.241878509521484,0.06523835923936631,-0.08463783264160156
6007,0.18852811960991755,0.1195312786102295,85.70057678222656,82.28408813476562,-2.8865966796875,90.69232940673828,0.014070849948459202,0.07633333333333334,0.3242857142857143,0.006469557020399305,-0.812964098999025,-0.05493034655761875,43.241878509521484,0.037960984971788195,-0.09532140096028646
6008,0.21587186960991755,0.13945316314697265,84.86180114746094,80.91340637207031,-3.357128143310547,90.50820922851562,-0.006159803602430555,0.07466666666666667,0.32285714285714284,0.008788808186848959,-1.2633902006835953,-0.2966219359130875,43.241878509521484,0.04387105305989583,-0.09850374857584636
6009,0.23149686960991755,0.15937503814697265,85.25050354003906,80.81111145019531,-3.275299072265625,89.81263732910156,0.0008868323432074653,0.072,0.3221428571428571,0.010650338066948786,-1.9225508146972672,0.9997260570526123,43.241878509521484,0.049326578776041664,-0.08986596001519097
6010,0.26274686960991755,0.13945316314697265,89.40347290039062,85.0459213256836,-3.0502586364746094,90.65141296386719,0.014070849948459202,0.069,0.3217857142857143,0.011199654473198786,-2.0653692656250016,1.2963480949401855,43.241878509521484,0.04841723971896701,-0.09668524000379775
6011,0.23149686960991755,0.13945316314697265,88.83065795898438,85.35279846191406,-3.3980445861816406,90.0172119140625,-0.0011589898003472221,0.066,0.3217857142857143,0.01147427029079861,-2.4608656340332047,1.307334065437317,43.241878509521484,0.03864288330078125,-0.09350285000271268
6012,0.11040311960991755,0.15937503814697265,85.35279846191406,81.32257080078125,-3.132091522216797,90.13996887207031,0.015207417805989583,0.062,0.3221428571428571,0.0072019365098741316,-3.207913058349611,0.09887400269508362,43.241878509521484,0.04478030734592014,-0.09191178215874565
6013,0.12212186960991755,0.13945316314697265,85.1072998046875,80.70883178710938,-3.132091522216797,90.54912567138672,-0.001613616943359375,0.058666666666666666,0.3225,0.0071103837754991316,-3.526507037231447,-0.9447962218017594,43.241878509521484,0.04887186686197917,-0.09645796881781685
6014,0.26274686960991755,0.1195312786102295,84.84133911132812,83.26608276367188,-3.4185028076171875,90.75370788574219,-0.021844270494249134,0.056,0.32392857142857145,0.010436715020073786,-3.0541082792968766,-0.856909411499025,43.241878509521484,0.017502848307291666,-0.1019134521484375
6015,0.25102811960991755,0.1195312786102295,85.02546691894531,80.62699890136719,-2.8865966796875,88.99431610107422,0.008388095431857638,0.051333333333333335,0.3242857142857143,0.009826405843098959,-3.6363665037841812,-0.2746511870117203,43.241878509521484,0.04887186686197917,-0.07645458645290798
6016,0.23930936960991755,0.07968751907348633,84.6572265625,80.72928619384766,-2.8252220153808594,89.95584106445312,0.017025926378038195,0.048,0.32607142857142857,0.006957838270399305,-2.878332751342775,-0.5163427763671891,43.241878509521484,0.04364378187391493,-0.08645625644259983
6017,0.11430936960991755,0.15937503814697265,84.5958480834961,80.83157348632812,-2.907054901123047,89.99675750732422,0.013388951619466146,0.043333333333333335,0.3264285714285714,0.005676099989149305,-2.856360095092775,-0.5492998533935562,43.153987884521484,0.04182527330186632,-0.08782013787163628
6018,0.16509061960991755,0.15937503814697265,86.84622192382812,84.80043029785156,-2.907054901123047,91.32653045654297,-0.007296371459960938,0.039,0.32571428571428573,0.0077512529161241316,-2.6586119108886734,1.3183200359344482,42.97821044921875,0.02273101806640625,-0.10259539286295573
6019,0.10649686960991755,0.13945316314697265,85.455078125,82.550048828125,-4.768730163574219,90.38545989990234,0.02975531684027778,0.035666666666666666,0.325,0.005004755655924479,-2.3729769163818375,0.5273280143737793,42.538761138916016,0.03227810329861111,-0.11282433403862847
6020,0.20805936960991755,0.13945316314697265,85.88470458984375,41.900001525878906,-3.66400146484375,91.10148620605469,-0.01957117716471354,0.03266666666666666,0.32321428571428573,0.009856923421223959,-2.0214239531250016,-0.6921183043212906,41.74774932861328,0.4887189229329427,-0.10850541856553819
6021,0.25493436960991755,0.13945316314697265,84.94363403320312,80.46333312988281,-4.645984649658203,91.87889099121094,-0.0075236850314670135,0.029,0.32142857142857145,0.01159634060329861,-1.5709978514404312,0.09887400269508362,41.22040939331055,0.049781121148003475,-0.1280541737874349
6022,0.16509061960991755,0.15937503814697265,84.5958480834961,41.900001525878906,-4.625526428222656,89.52622985839844,0.015207417805989583,0.025333333333333333,0.31857142857142856,0.009093983968098959,-2.197201388427736,1.2853620052337646,40.69306945800781,0.47439829508463544,-0.1016861809624566
6023,0.25102811960991755,0.09960939407348633,88.31919860839844,84.77996826171875,-3.3366737365722656,89.87400817871094,0.0015687730577256945,0.022333333333333334,0.3167857142857143,0.010009468926323786,-1.8786074095459,1.5490260124206543,40.34151077270508,0.039324781629774305,-0.09122979905870225
6024,0.26665311960991755,0.07968751907348633,87.17355346679688,41.900001525878906,-3.0707168579101562,90.44683837890625,0.003841866387261285,0.019,0.31464285714285717,0.010772408379448786,-0.6371885710449234,0.1538040041923523,40.34151077270508,0.5030394660101997,-0.0946395026312934
6025,0.43462189738769536,0.07968751907348633,86.19157409667969,92.32897186279297,-3.0502586364746094,88.68744659423828,-0.0050232781304253475,0.015,0.31285714285714283,0.013183212280273438,-0.2526785307617203,0.373524010181427,40.25362014770508,-0.0681933085123698,-0.07486339145236545
6026,0.25493436960991755,0.1195312786102295,93.53599548339844,84.84133911132812,-2.0478172302246094,88.38057708740234,0.010888502332899305,0.011666666666666667,0.31107142857142855,0.014831119113498263,0.5712720155715942,0.35155200958251953,39.814170837402344,0.09660729302300347,-0.06031549241807726
6027,0.39555939738769536,0.09960939407348633,83.28652954101562,83.08195495605469,-1.2499542236328125,86.39614868164062,-0.0168434566921658,0.007666666666666666,0.3092857142857143,0.015563540988498263,0.8019779920578003,-1.3183199339599625,39.550498962402344,0.0022730509440104167,-0.029401143391927082
6028,0.19634061960991755,0.13945316314697265,86.84622192382812,82.30455017089844,-0.12476730346679688,88.27828979492188,0.02020827399359809,0.005333333333333333,0.3075,0.011108101738823786,1.538040041923523,-0.8898664885253922,39.28683090209961,0.05046301947699653,-0.03781174553765191
6029,0.14946561960991755,0.09960939407348633,89.97630310058594,91.04011535644531,0.5298881530761719,88.36012268066406,0.023390621609157985,0.003,0.30464285714285716,0.006713697645399305,2.109312057495117,0.9887400269508362,35.6833381652832,-0.011820136176215277,-0.031447050306532116
6030,0.03618436960991755,0.1195312786102295,88.95339965820312,76.65814208984375,-1.3727035522460938,87.37813568115234,0.016116672092013888,0.001,0.3003571428571429,0.0033568488226996527,1.581984043121338,-1.164517062255861,32.6071891784668,0.13661397298177083,-0.04167599148220486
6031,0.04790311960991755,0.13945316314697265,85.08683776855469,79.76776123046875,-0.5952987670898438,85.33233642578125,-0.014570320977105035,0.0003333333333333333,0.29642857142857143,0.0022277408175998266,1.1095860004425049,-1.175503390380861,28.124799728393555,0.05910085042317708,-0.010307057698567709
6032,0.09868436960991755,0.03984375953674316,85.18913269042969,82.14088439941406,1.8187446594238281,83.32745361328125,0.003387239244249132,0.0003333333333333333,0.2907142857142857,0.0008544921875,2.285088062286377,-0.4174677305908219,24.96076011657715,0.033869425455729164,0.038792122734917535
6033,0.02446561960991755,0.13945316314697265,84.6572265625,81.8953857421875,2.657520294189453,85.37325286865234,0.012707010904947916,-0.0003333333333333333,0.28714285714285714,-0.0003661685519748264,3.8890440464019775,0.373524010181427,24.081859588623047,0.030687120225694444,0.02538074917263455
6034,0.04790311960991755,0.07968751907348633,83.14332580566406,86.94851684570312,2.1460723876953125,79.97233581542969,0.006796900431315104,0.0,0.2810714285714286,-0.0,3.2848141193389893,-0.02197326953125156,23.993968963623047,-0.04227990044487847,0.07970818413628472
