,WD,WS,AIL_1,AIL_2,ELEV_1,ELEV_2,RUDD,ALT,GS,TH,PTCH,ROLL,PLA_1,AIL,ELEV
6826,0.2013605492838542,0.3585938262939453,46.52350997924805,86.47798156738281,-1.3522453308105469,86.35523986816406,-0.0054779052734375,0.8303333333333334,0.46714285714285714,0.016478983561197917,-0.6152159147949234,0.10986000299453735,36.29856872558594,-0.4439385732014974,-0.03008316887749566
6827,0.2013605492838542,0.3585938262939453,46.78946304321289,88.1555404663086,-1.2704124450683594,86.41661071777344,-0.0066144307454427086,0.8256666666666667,0.4667857142857143,0.016662089029947917,-0.4614130430908219,0.4064820110797882,34.980220794677734,-0.45962308247884115,-0.02985581292046441
6828,0.1974542992838542,0.3585938262939453,46.56442642211914,88.17599487304688,-1.2090415954589844,86.53935241699219,-0.005705218844943577,0.8206666666666667,0.4664285714285714,0.016173807779947917,-0.5712725096435562,0.09887400269508362,32.8708610534668,-0.4623507605658637,-0.030537711249457464
6829,0.1974542992838542,0.3585938262939453,46.35984420776367,86.41661071777344,-1.10675048828125,86.49844360351562,-0.003886710272894965,0.8156666666666667,0.4664285714285714,0.016082255045572917,-0.7800070219726578,0.20873400568962097,36.65013122558594,-0.44507518344455294,-0.02894660101996528
6830,0.2013605492838542,0.3585938262939453,46.769004821777344,87.19401550292969,-1.0044593811035156,86.47798156738281,-0.0066144307454427086,0.8106666666666666,0.4664285714285714,0.016753641764322917,-0.801977770874025,0.8129640221595764,36.82590866088867,-0.44916678534613713,-0.027582677205403645
6831,0.1935480492838542,0.3585938262939453,47.07587432861328,90.28317260742188,-0.9226264953613281,86.41661071777344,-0.00843293931749132,0.8053333333333333,0.4664285714285714,0.016295878092447917,-0.7690206938476578,0.32958000898361206,36.82590866088867,-0.48008109198676213,-0.025991524590386283
6832,0.1779230492838542,0.33867195129394534,46.72808837890625,88.70790100097656,-0.8817138671875,86.39614868164062,-0.009114880032009548,0.8003333333333333,0.4664285714285714,0.014861551920572917,-0.7470480375976578,-1.2524038725585953,36.82590866088867,-0.4664423624674479,-0.025309583875868055
6833,0.1818292992838542,0.33867195129394534,46.35984420776367,86.13019561767578,-0.8612556457519531,86.39614868164062,-0.006841744316948784,0.7946666666666666,0.4667857142857143,0.014037662082248263,-0.7470480375976578,-1.7028299742431656,36.56224060058594,-0.4418927934434679,-0.02508227030436198
6834,0.1857355492838542,0.3585938262939453,46.400760650634766,85.86424255371094,-0.7998809814453125,86.37569427490234,-0.0054779052734375,0.7896666666666666,0.4667857142857143,0.013793521457248263,-0.7031046324462906,-0.801977770874025,36.56224060058594,-0.4384831322564019,-0.024173058403862847
6835,0.1818292992838542,0.33867195129394534,46.769004821777344,87.66455078125,-0.7385063171386719,86.31431579589844,-0.006159803602430555,0.7843333333333333,0.46714285714285714,0.013274722629123263,-0.5602861815185562,0.2746500074863434,36.56224060058594,-0.45439495510525174,-0.022809134589301214
6836,0.1622980492838542,0.3187500762939453,46.769004821777344,88.83065795898438,-0.6566734313964844,86.31431579589844,-0.0011589898003472221,0.7796666666666666,0.4667857142857143,0.01129116482204861,-0.5163427763671891,0.08788800239562988,36.38645935058594,-0.46735170152452254,-0.02189988030327691
6837,0.1622980492838542,0.3187500762939453,46.318931579589844,87.1121826171875,-0.5748405456542969,86.35523986816406,-0.005250591701931423,0.7743333333333333,0.46714285714285714,0.01043667263454861,-0.6042314940185562,-0.856909411499025,36.29856872558594,-0.4532583448621962,-0.021445337931315103
6838,0.1779230492838542,0.3187500762939453,46.318931579589844,84.88226318359375,-0.4316368103027344,86.37569427490234,-0.005705218844943577,0.77,0.46714285714285714,0.01123012966579861,-0.6591612272949234,-0.5932451658935562,36.29856872558594,-0.4284814622667101,-0.020081456502278647
6839,0.1935480492838542,0.3187500762939453,46.7076301574707,86.70301818847656,-0.2475128173828125,86.39614868164062,-0.00775099860297309,0.7653333333333333,0.46714285714285714,0.012389712863498263,-0.6591612272949234,0.2856360077857971,36.29856872558594,-0.4443932003445096,-0.01826290554470486
6840,0.1896417992838542,0.3187500762939453,46.953128814697266,88.78973388671875,0.01844024658203125,86.29386138916016,-0.00775099860297309,0.7603333333333333,0.46714285714285714,0.012206607394748263,-0.5492998533935562,0.2526780068874359,36.65013122558594,-0.46485116746690536,-0.014171346028645834
6841,0.1818292992838542,0.3187500762939453,46.52350997924805,88.40103149414062,0.3048515319824219,86.23248291015625,-0.007069057888454861,0.7556666666666667,0.4675,0.01116909450954861,-0.3625379973144547,-0.812964098999025,37.265357971191406,-0.46530579460991756,-0.010307015313042536
6842,0.1857355492838542,0.3187500762939453,46.339385986328125,86.31431579589844,0.5708045959472656,86.27340698242188,-0.0059324900309244795,0.7513333333333333,0.4675,0.01083340115017361,-0.2746511870117203,-0.9338098936767594,37.704811096191406,-0.44416588677300345,-0.007806693183051216
6843,0.1896417992838542,0.3187500762939453,80.97477722167969,85.76194763183594,1.0822563171386719,86.29386138916016,-0.0043413374159071184,0.7466666666666667,0.46785714285714286,0.01098598904079861,-0.2307058745117203,-0.13183273608398594,38.05636978149414,-0.05319078233506944,-0.002351167466905382
6844,0.1896417992838542,0.3187500762939453,82.01814270019531,87.0098876953125,2.657520294189453,86.33477783203125,-0.0043413374159071184,0.7423333333333333,0.46785714285714286,0.01110805935329861,-0.2416922026367203,0.6811320185661316,38.407928466796875,-0.05546383327907986,0.01469713846842448
6845,0.1857355492838542,0.3187500762939453,82.12042999267578,88.31919860839844,2.1665306091308594,86.43707275390625,-0.005705218844943577,0.738,0.46785714285714286,0.01101650661892361,-0.3295809202880875,0.6042300462722778,38.407928466796875,-0.06887520684136285,0.008105087280273437
6846,0.1857355492838542,0.29882820129394533,81.56806182861328,86.662109375,2.637065887451172,86.5188980102539,-0.0066144307454427086,0.7336666666666667,0.4675,0.01116909450954861,-0.49437012011718906,0.5602860450744629,38.84737777709961,-0.056600528293185765,0.012424087524414063
6847,0.1857355492838542,0.29882820129394533,82.5091323852539,87.97142028808594,2.043781280517578,86.53935241699219,-0.0066144307454427086,0.729,0.4682142857142857,0.01126064724392361,-0.6701475554199234,0.6701459884643555,38.93526840209961,-0.060692087809244795,0.005604765150282118
6848,0.1779230492838542,0.29882820129394533,82.73416900634766,88.44195556640625,2.2688217163085938,86.62118530273438,-0.008205625745985243,0.724,0.4682142857142857,0.01095547146267361,-0.856909411499025,0.20873400568962097,38.93526840209961,-0.06341985066731771,0.007195960150824653
6849,0.1701105492838542,0.29882820129394533,82.20226287841797,88.74882507324219,2.841644287109375,86.58027648925781,-0.008205625745985243,0.7193333333333334,0.4689285714285714,0.01025356716579861,-0.9997259550781266,-0.6481748991699234,38.84737777709961,-0.07273957994249132,0.01401519775390625
6850,0.1662042992838542,0.29882820129394533,80.77020263671875,86.5188980102539,-2.3956031799316406,86.43707275390625,-0.005250591701931423,0.7136666666666667,0.4692857142857143,0.00939907497829861,-0.9777552061767594,-1.0546575957031266,38.93526840209961,-0.06387439303927951,-0.04258528815375434
6851,0.1701105492838542,0.29882820129394533,80.87248992919922,85.72103881835938,-2.3956031799316406,86.43707275390625,-0.004568650987413194,0.7086666666666667,0.47035714285714286,0.00918545193142361,-0.8898664885253922,-0.2966219359130875,38.93526840209961,-0.053872765435112845,-0.04258528815375434
6852,0.1662042992838542,0.29882820129394533,82.46821594238281,87.66455078125,-2.3751449584960938,86.5188980102539,-0.005705218844943577,0.703,0.47035714285714286,0.00906338161892361,-0.9777552061767594,0.5493000149726868,37.704811096191406,-0.05773705376519097,-0.043267144097222224
6853,0.1544855492838542,0.29882820129394533,82.83645629882812,88.85111236572266,-2.3751449584960938,86.43707275390625,-0.007978312174479167,0.6976666666666667,0.4707142857142857,0.008514149983723959,-0.9997259550781266,0.3405660092830658,37.441139221191406,-0.06682951185438368,-0.04235797458224826
6854,0.1388605492838542,0.29882820129394533,82.79554748535156,89.30118560791016,-2.3751449584960938,86.37569427490234,-0.009114880032009548,0.6923333333333334,0.4710714285714286,0.0073849995930989586,-0.834936755249025,-0.6042314940185562,36.65013122558594,-0.07228486802842882,-0.04167599148220486
6855,0.1349542992838542,0.2789063262939453,81.77264404296875,87.43951416015625,-2.3751449584960938,86.37569427490234,-0.008205625745985243,0.687,0.4710714285714286,0.006042310926649305,-0.6591612272949234,-1.4391657286376969,35.50756072998047,-0.06296522352430556,-0.04167599148220486
6856,0.1349542992838542,0.2789063262939453,80.83157348632812,86.31431579589844,-2.3751449584960938,86.41661071777344,-0.005250591701931423,0.6816666666666666,0.4710714285714286,0.004882642957899305,-0.6262022429199234,-1.505081790039064,35.24388885498047,-0.06091935899522569,-0.04213061862521701
6857,0.1427667992838542,0.2789063262939453,80.46333312988281,85.29141998291016,-2.3956031799316406,86.41661071777344,-0.0043413374159071184,0.6766666666666666,0.4710714285714286,0.004638502332899305,-0.5492998533935562,-0.6371885710449234,34.716548919677734,-0.0536454094780816,-0.04235793219672309
6858,0.1505792992838542,0.2789063262939453,80.97477722167969,85.57783508300781,-2.3751449584960938,86.31431579589844,-0.0043413374159071184,0.672,0.4710714285714286,0.005126783582899305,-0.4174677305908219,0.8569080233573914,34.540771484375,-0.05114508734809028,-0.04099400838216146
6859,0.1427667992838542,0.2789063262939453,82.46821594238281,88.31919860839844,-2.3751449584960938,86.33477783203125,-0.0050232781304253475,0.6673333333333333,0.4707142857142857,0.005370924207899305,-0.2526785307617203,1.724802017211914,34.364990234375,-0.06501091851128472,-0.041221364339192705
6860,0.1271417992838542,0.25898443222045897,82.89783477783203,88.83065795898438,-2.3751449584960938,86.45751953125,-0.007296371459960938,0.6623333333333333,0.47035714285714286,0.005187818739149305,-0.2416922026367203,1.307334065437317,34.980220794677734,-0.06592025756835937,-0.04258516099717882
6861,0.11932929928385426,0.25898443222045897,82.24317932128906,88.13508605957031,-2.3751449584960938,86.43707275390625,-0.008887566460503472,0.6576666666666666,0.47,0.005126783582899305,-0.3185945921630875,0.3185940086841583,35.7712287902832,-0.06546563042534723,-0.04235797458224826
6862,0.12323554928385418,0.25898443222045897,81.24073791503906,86.70301818847656,-2.3751449584960938,86.45751953125,-0.007296371459960938,0.653,0.46964285714285714,0.005157301161024305,-0.3515516691894547,-0.2746511870117203,35.8591194152832,-0.06069200303819444,-0.04258516099717882
6863,0.1271417992838542,0.25898443222045897,81.60897827148438,86.68256378173828,-2.3956031799316406,86.49844360351562,-0.007069057888454861,0.6483333333333333,0.4692857142857143,0.005340406629774305,-0.4064833098144547,-0.15380539233398594,36.65013122558594,-0.05637317233615451,-0.0432671864827474
6864,0.1271417992838542,0.25898443222045897,81.97721862792969,87.80775451660156,-2.3751449584960938,86.49844360351562,-0.006841744316948784,0.6436666666666667,0.4689285714285714,0.005218336317274305,-0.5273291044921891,-0.20873512561035312,36.65013122558594,-0.06478373209635417,-0.04303987291124132
6865,0.1310480492838542,0.25898443222045897,81.69081115722656,87.17355346679688,-2.3751449584960938,86.5188980102539,-0.0075236850314670135,0.639,0.4689285714285714,0.005187818739149305,-0.6481748991699234,-0.4174677305908219,37.00168991088867,-0.06091935899522569,-0.043267144097222224
6866,0.1349542992838542,0.25898443222045897,81.62944030761719,87.39859008789062,-2.354686737060547,86.47798156738281,-0.0075236850314670135,0.634,0.4692857142857143,0.005126783582899305,-0.7031046324462906,-0.5053564482421891,37.17747116088867,-0.06410166422526041,-0.042585203382703996
6867,0.1388605492838542,0.25898443222045897,81.30210876464844,86.80531311035156,-2.334228515625,86.37569427490234,-0.0054779052734375,0.629,0.4692857142857143,0.004699537489149305,-0.5932451658935562,-0.4394403868408219,37.265357971191406,-0.061146714952256945,-0.041221364339192705
6868,0.1349542992838542,0.25898443222045897,81.30210876464844,86.86668395996094,-2.334228515625,86.39614868164062,-0.004568650987413194,0.624,0.4692857142857143,0.004302808973524305,-0.5273291044921891,-0.3076082640380875,37.441139221191406,-0.06182861328125,-0.04144863552517361
6869,0.1427667992838542,0.25898443222045897,81.15890502929688,86.84622192382812,-2.354686737060547,86.39614868164062,-0.0050232781304253475,0.619,0.4692857142857143,0.004302808973524305,-0.5712725096435562,-0.2416922026367203,37.441139221191406,-0.06319240993923611,-0.04167594909667969
6870,0.1544855492838542,0.25898443222045897,81.13844299316406,86.78485107421875,-2.334228515625,86.41661071777344,-0.006159803602430555,0.6143333333333333,0.46964285714285714,0.004791090223524305,-0.5822588377685562,-0.06591667468261875,37.441139221191406,-0.0627378675672743,-0.04167599148220486
6871,0.1583917992838542,0.25898443222045897,81.77264404296875,86.74394226074219,-2.334228515625,86.43707275390625,-0.0054779052734375,0.6096666666666667,0.47,0.005065748426649305,-0.5712725096435562,0.2856360077857971,37.441139221191406,-0.05523664686414931,-0.04190334743923611
6872,0.1622980492838542,0.239062557220459,82.0385971069336,88.0737075805664,-2.313770294189453,86.5188980102539,-0.006387117173936632,0.6043333333333333,0.47,0.005126783582899305,-0.6481748991699234,0.10986000299453735,37.79269790649414,-0.06705678304036458,-0.042585203382703996
6873,0.1662042992838542,0.239062557220459,81.56806182861328,87.74638366699219,-2.313770294189453,86.47798156738281,-0.007069057888454861,0.599,0.47035714285714286,0.005187818739149305,-0.7031046324462906,-0.3845106535644547,38.05636978149414,-0.0686480204264323,-0.04213057623969184
6874,0.1779230492838542,0.239062557220459,80.32012939453125,85.96653747558594,-2.2933120727539062,86.39614868164062,-0.005250591701931423,0.594,0.4707142857142857,0.005584547254774305,-0.6262022429199234,-0.3295809202880875,38.14426040649414,-0.0627378675672743,-0.04099400838216146
6875,0.1896417992838542,0.25898443222045897,81.05661010742188,85.1072998046875,-2.2933120727539062,86.35523986816406,-0.0043413374159071184,0.5893333333333334,0.4710714285714286,0.0065915425618489586,-0.5492998533935562,0.7580339908599854,38.320037841796875,-0.04500766330295139,-0.04053946601019965
6876,0.1935480492838542,0.25898443222045897,82.22271728515625,87.64408874511719,-2.272857666015625,86.43707275390625,-0.004795964558919271,0.584,0.4714285714285714,0.0073239644368489586,-0.5273291044921891,1.3842360973358154,38.320037841796875,-0.06023746066623264,-0.04122144911024306
6877,0.1935480492838542,0.239062557220459,82.69325256347656,88.50332641601562,-2.252399444580078,86.49844360351562,-0.00775099860297309,0.579,0.4717857142857143,0.0077206929524739586,-0.6481748991699234,0.9557820558547974,38.320037841796875,-0.06455637613932291,-0.041676033867730035
6878,0.1974542992838542,0.239062557220459,81.60897827148438,87.86912536621094,-2.2319412231445312,86.45751953125,-0.007069057888454861,0.574,0.47214285714285714,0.0076901753743489586,-0.6811319761962906,0.05493000149726868,38.320037841796875,-0.06955718994140625,-0.04099400838216146
6879,0.2091730492838542,0.239062557220459,81.40440368652344,86.53935241699219,-2.2319412231445312,86.37569427490234,-0.006387117173936632,0.569,0.4725,0.008025868733723959,-0.6152159147949234,-0.07690300280761875,38.320037841796875,-0.05705498589409722,-0.0400848388671875
6880,0.2208917992838542,0.219140682220459,81.79310607910156,87.35768127441406,-2.2319412231445312,86.35523986816406,-0.007069057888454861,0.564,0.47285714285714286,0.008453114827473959,-0.5163427763671891,0.20873400568962097,38.320037841796875,-0.06182861328125,-0.039857567681206595
6881,0.2247980492838542,0.219140682220459,81.8953857421875,87.19401550292969,-2.252399444580078,86.35523986816406,-0.0066144307454427086,0.559,0.4735714285714286,0.008514149983723959,-0.4614130430908219,0.5273280143737793,38.320037841796875,-0.05887366400824653,-0.04008488125271267
6882,0.2287042992838542,0.19921878814697266,82.18180847167969,87.97142028808594,-2.252399444580078,86.35523986816406,-0.005250591701931423,0.554,0.4742857142857143,0.008117421468098959,-0.4064833098144547,0.6152160167694092,39.28683090209961,-0.06432902018229167,-0.04008488125271267
6883,0.2365167992838542,0.19921878814697266,81.40440368652344,86.78485107421875,-2.272857666015625,86.31431579589844,-0.004114023844401042,0.549,0.47464285714285714,0.007903798421223959,-0.3625379973144547,0.5383139848709106,39.98994827270508,-0.05978274875217014,-0.03985748291015625
6884,0.25995429928385416,0.17929691314697266,82.01814270019531,87.0712661743164,-2.252399444580078,86.29386138916016,-0.007069057888454861,0.5446666666666666,0.47535714285714287,0.008666737874348959,-0.3185945921630875,0.5602860450744629,40.60517883300781,-0.05614581637912326,-0.03940289815266927
6885,0.2482355492838542,0.19921878814697266,82.97966003417969,88.13508605957031,-2.252399444580078,86.37569427490234,-0.007296371459960938,0.5403333333333333,0.4767857142857143,0.00903286404079861,-0.3735243254394547,0.05493000149726868,41.39619064331055,-0.057282511393229166,-0.04031215243869358
6886,0.26386054928385416,0.17929691314697266,82.9592056274414,87.5213394165039,-2.2933120727539062,86.45751953125,-0.0066144307454427086,0.535,0.47785714285714287,0.008758290608723959,-0.5163427763671891,-0.4394403868408219,42.099308013916016,-0.050690375434027775,-0.041675906711154516
6887,0.26776679928385416,0.17929691314697266,82.91828918457031,86.84622192382812,-2.313770294189453,86.45751953125,-0.005705218844943577,0.5306666666666666,0.47928571428571426,0.008422597249348959,-0.5822588377685562,-0.4614130430908219,42.275089263916016,-0.04364369710286458,-0.04190322028266059
6888,0.27557929928385416,0.17929691314697266,82.93875122070312,86.21202850341797,-2.334228515625,86.559814453125,-0.004795964558919271,0.5256666666666666,0.48035714285714287,0.008300526936848959,-0.6371885710449234,0.032958000898361206,42.275089263916016,-0.03636974758572049,-0.043267144097222224
6889,0.29120429928385416,0.17929691314697266,83.0001220703125,88.38057708740234,-2.313770294189453,86.62118530273438,-0.006387117173936632,0.5206666666666667,0.48178571428571426,0.008239491780598959,-0.812964098999025,0.1867620050907135,42.01142120361328,-0.05978283352322049,-0.0437217288547092
6890,0.30292304928385416,0.15937503814697265,82.9592056274414,88.09416198730469,-2.2114830017089844,86.58027648925781,-0.007069057888454861,0.515,0.4825,0.008056386311848959,-0.9008528166503922,-0.3515516691894547,41.48408126831055,-0.05705507066514757,-0.042130661010742185
6891,0.33026679928385416,0.15937503814697265,82.89783477783203,86.27340698242188,-2.2319412231445312,86.35523986816406,-0.0050232781304253475,0.5096666666666667,0.48428571428571426,0.008422597249348959,-0.7580343657226578,-0.48338379199218906,41.22040939331055,-0.037506357828776045,-0.039857567681206595
6892,0.32636054928385416,0.17929691314697266,82.91828918457031,85.35279846191406,-2.2319412231445312,86.33477783203125,-0.0054779052734375,0.504,0.485,0.00958218044704861,-0.7031046324462906,0.2197200059890747,36.82590866088867,-0.02705010308159722,-0.03963021172417535
6893,0.33026679928385416,0.19921878814697266,82.97966003417969,87.41905212402344,-2.252399444580078,86.33477783203125,-0.007069057888454861,0.499,0.4853571428571429,0.01074184841579861,-0.6371885710449234,0.7690200209617615,30.673608779907227,-0.049326578776041664,-0.03985752529568142
6894,0.33417304928385416,0.19921878814697266,82.97966003417969,87.80775451660156,-2.272857666015625,86.41661071777344,-0.0050232781304253475,0.49366666666666664,0.4857142857142857,0.01098598904079861,-0.6591612272949234,0.4064820110797882,29.267370223999023,-0.053645494249131946,-0.04099409315321181
6895,0.35761054928385416,0.19921878814697266,82.550048828125,86.76439666748047,-2.272857666015625,86.25294494628906,-0.006841744316948784,0.489,0.4853571428571429,0.01168789333767361,-0.7360617094726578,-0.06591667468261875,29.267370223999023,-0.04682608710394965,-0.03917558458116319
6896,0.36542304928385416,0.19921878814697266,82.57050323486328,86.98943328857422,-2.313770294189453,86.6007308959961,-0.005250591701931423,0.485,0.48464285714285715,0.012115054660373263,-0.9118391447753922,0.10986000299453735,29.267370223999023,-0.04909922281901042,-0.043494457668728295
6897,0.38495429928385416,0.19921878814697266,82.59095764160156,88.13508605957031,-2.334228515625,86.62118530273438,-0.005705218844943577,0.47933333333333333,0.4835714285714286,0.012176089816623263,-1.0107122832031266,0.3954960107803345,29.267370223999023,-0.06160142686631945,-0.04394904242621528
6898,0.38886054928385416,0.17929691314697266,82.550048828125,87.74638366699219,-2.4160614013671875,86.662109375,-0.00297745598687066,0.4723333333333333,0.48214285714285715,0.01092495388454861,-1.131558077880861,0.26366400718688965,29.267370223999023,-0.05773705376519097,-0.04531300862630208
6899,0.35761054928385416,0.17929691314697266,82.52958679199219,87.31675720214844,-3.0093421936035156,87.09172058105469,0.0002048916286892361,0.467,0.48,0.01000942654079861,-1.131558077880861,0.14281800389289856,29.267370223999023,-0.05319078233506944,-0.05667847527398003
6900,0.38104804928385416,0.19921878814697266,82.48867797851562,85.29141998291016,-3.9913291931152344,87.72592163085938,-0.007069057888454861,0.46266666666666667,0.4775,0.012328677707248263,-1.3732515745849625,0.07690200209617615,29.267370223999023,-0.031141577826605902,-0.07463612026638455
6901,0.40057929928385416,0.219140682220459,82.550048828125,86.0074462890625,-4.7482757568359375,88.6056137084961,-0.007069057888454861,0.45866666666666667,0.4725,0.015471903483072917,-2.241144793579103,0.5383139848709106,29.267370223999023,-0.03841552734375,-0.0928209940592448
6902,0.42792304928385416,0.239062557220459,82.59095764160156,87.48042297363281,-5.546134948730469,89.2193603515625,-0.0050232781304253475,0.4553333333333333,0.4692857142857143,0.01745546129014757,-3.262842791625978,0.5053560137748718,29.267370223999023,-0.054327392578125,-0.10850550333658854
6903,0.43573554928385416,0.239062557220459,82.57050323486328,87.37813568115234,-5.66888427734375,89.83309936523438,-0.0043413374159071184,0.45166666666666666,0.46464285714285714,0.01818788316514757,-4.273554461547853,0.29662200808525085,29.267370223999023,-0.053418138292100695,-0.11668870713975694
6904,0.44745429928385416,0.239062557220459,82.550048828125,87.29630279541016,-5.075603485107422,89.2193603515625,-0.004114023844401042,0.44666666666666666,0.4625,0.01806581285264757,-4.899756091186525,-0.10986007983398594,29.267370223999023,-0.052736155192057294,-0.10327737596299913
6905,0.43964179928385416,0.239062557220459,82.550048828125,87.05081176757812,-4.952854156494141,88.85111236572266,-0.0034320831298828127,0.441,0.46,0.01812684800889757,-4.921728747436525,-0.3735243254394547,29.267370223999023,-0.05000847710503472,-0.0978218502468533
6906,0.44745429928385416,0.25898443222045897,82.550048828125,87.25538635253906,-4.8914794921875,88.78973388671875,-0.0043413374159071184,0.43533333333333335,0.4585714285714286,0.01888978746202257,-4.756939547607423,-0.13183273608398594,29.267370223999023,-0.05228152804904514,-0.09645792643229166
6907,0.44354804928385416,0.25898443222045897,82.550048828125,86.86668395996094,-4.66644287109375,88.38057708740234,-0.0054779052734375,0.42966666666666664,0.4567857142857143,0.01934755113389757,-4.3944002562255875,0.5053560137748718,29.267370223999023,-0.04796261257595486,-0.08941133287217883
6908,0.43573554928385416,0.25898443222045897,82.57050323486328,87.68500518798828,-4.400489807128906,88.09416198730469,-0.0050232781304253475,0.42333333333333334,0.45535714285714285,0.01931703355577257,-3.7242552214355484,0.9997260570526123,29.267370223999023,-0.05682779947916667,-0.08327390882703993
6909,0.41620429928385416,0.25898443222045897,82.57050323486328,88.29874420166016,-4.441402435302734,88.17599487304688,-0.007296371459960938,0.4176666666666667,0.4521428571428571,0.01943910386827257,-3.0431219511718766,0.8788800239562988,29.267370223999023,-0.06364712185329861,-0.08463774787055121
6910,0.42401679928385416,0.25898443222045897,82.52958679199219,87.23492431640625,-4.441402435302734,88.27828979492188,-0.008887566460503472,0.413,0.45,0.02136162651909722,-2.7245279722900406,0.4723980128765106,29.267370223999023,-0.05228152804904514,-0.08577435811360677
6911,0.43964179928385416,0.29882820129394533,82.5091323852539,86.68256378173828,-4.4209442138671875,88.38057708740234,-0.01252454121907552,0.4083333333333333,0.44642857142857145,0.023986053466796876,-2.6476274901123062,0.6701459884643555,29.267370223999023,-0.0463714599609375,-0.0866835700141059
6912,0.43182929928385416,0.29882820129394533,82.57050323486328,87.95095825195312,-4.4209442138671875,88.44195556640625,-0.0054779052734375,0.4033333333333333,0.4442857142857143,0.024748992919921876,-2.867346423217775,0.9557820558547974,29.267370223999023,-0.05978283352322049,-0.0873655531141493
6913,0.43573554928385416,0.2789063262939453,82.52958679199219,89.0147705078125,-4.380031585693359,88.40103149414062,-0.0054779052734375,0.399,0.44142857142857145,0.023986053466796876,-3.1529833250732437,0.747048020362854,29.267370223999023,-0.07205759684244792,-0.08645625644259983
6914,0.44354804928385416,0.25898443222045897,82.61141967773438,89.2193603515625,-4.400489807128906,88.1146240234375,-0.004795964558919271,0.395,0.4392857142857143,0.02258232964409722,-3.0101648741455094,-0.07690300280761875,29.267370223999023,-0.07342156304253472,-0.08350126478407117
6915,0.45526679928385416,0.2789063262939453,82.46821594238281,84.94363403320312,-4.298198699951172,88.29874420166016,-0.006387117173936632,0.39066666666666666,0.43642857142857144,0.023986053466796876,-2.834389346191408,-0.6152159147949234,29.267370223999023,-0.02750464545355903,-0.08441047668457032
6916,0.47870429928385416,0.2789063262939453,82.61141967773438,89.32164001464844,-4.093616485595703,88.03279113769531,-0.0054779052734375,0.38566666666666666,0.43464285714285716,0.024748992919921876,-2.6476274901123062,1.2963480949401855,29.267370223999023,-0.07455800374348959,-0.07918230692545573
6917,0.47870429928385416,0.219140682220459,82.57050323486328,90.48774719238281,-4.032245635986328,87.76683807373047,0.0008868323432074653,0.381,0.43214285714285716,0.02105645073784722,-2.526779788085939,1.0107120275497437,29.267370223999023,-0.08796937730577258,-0.07554537455240885
6918,0.46307929928385416,0.219140682220459,82.48867797851562,88.19645690917969,-3.7662887573242188,87.41905212402344,-0.0050232781304253475,0.377,0.4303571428571429,0.02102593315972222,-2.164242404052736,-0.04394401843261875,29.267370223999023,-0.06341976589626735,-0.06872600979275173
6919,0.44354804928385416,0.239062557220459,81.5066909790039,86.84622192382812,-3.7662887573242188,87.64408874511719,-0.006387117173936632,0.37233333333333335,0.4278571428571429,0.02249077690972222,-2.175228732177736,-0.07690300280761875,29.267370223999023,-0.059328121609157985,-0.0712264166937934
6920,0.44354804928385416,0.239062557220459,83.06149291992188,88.13508605957031,-3.7662887573242188,87.74638366699219,-0.0054779052734375,0.36866666666666664,0.42607142857142855,0.02307061089409722,-2.186215060302736,0.5712720155715942,29.267370223999023,-0.05637325710720486,-0.07236302693684896
6921,0.45526679928385416,0.239062557220459,83.06149291992188,89.26026916503906,-3.8481216430664062,87.70545959472656,-0.0054779052734375,0.364,0.4232142857142857,0.02288750542534722,-2.142269747802736,0.6811320185661316,29.267370223999023,-0.0688752916124132,-0.07281756930881077
6922,0.45917304928385416,0.219140682220459,83.06149291992188,89.66943359375,-4.257282257080078,88.33966064453125,-0.0054779052734375,0.36033333333333334,0.4203571428571429,0.02221611870659722,-2.6256548338623062,-0.2416922026367203,29.267370223999023,-0.07342156304253472,-0.08441047668457032
6923,0.47089179928385416,0.239062557220459,83.06149291992188,87.39859008789062,-4.932395935058594,89.40347290039062,-0.006159803602430555,0.3566666666666667,0.41678571428571426,0.02307061089409722,-3.88904442126465,-1.3402925902099625,29.267370223999023,-0.04818996853298611,-0.10373187594943577
6924,0.49432929928385416,0.25898443222045897,83.06149291992188,86.21202850341797,-4.932395935058594,89.50576782226562,-0.0054779052734375,0.35433333333333333,0.4142857142857143,0.024932098388671876,-5.009617465087892,-1.0986010008544937,29.267370223999023,-0.035005950927734376,-0.10486848619249133
6925,0.48261054928385416,0.239062557220459,83.06149291992188,88.74882507324219,-4.7482757568359375,88.78973388671875,-0.0018409305148654514,0.3506666666666667,0.41,0.023223114013671876,-4.943701403686525,-0.3295809202880875,29.267370223999023,-0.0631925794813368,-0.0948667738172743
6926,0.48651679928385416,0.239062557220459,83.08195495605469,88.48286437988281,-5.566593170166016,89.48530578613281,-0.004795964558919271,0.345,0.40714285714285714,0.02184990776909722,-4.614121096679689,-0.9228254729003922,29.267370223999023,-0.06001010470920139,-0.11168776618109809
6927,0.49823554928385416,0.219140682220459,83.06149291992188,87.5213394165039,-4.911937713623047,89.6080551147461,-0.00047704908582899306,0.3406666666666667,0.40214285714285714,0.01965272691514757,-5.394127505371095,-0.9008528166503922,29.267370223999023,-0.04955384996202257,-0.10577769809299045
6928,0.5099542992838542,0.15937503814697265,83.1024169921875,87.93049621582031,-4.850563049316406,88.91248321533203,0.006114959716796875,0.33766666666666667,0.4,0.014281802707248263,-5.4600435667724625,-0.5383154326171891,29.267370223999023,-0.05364532470703125,-0.09736718071831597
6929,0.47479804928385416,0.13945316314697265,83.06149291992188,85.94607543945312,-4.850563049316406,89.09660339355469,-0.004568650987413194,0.33266666666666667,0.3960714285714286,0.01156582302517361,-5.52595962817383,-0.6591612272949234,29.267370223999023,-0.03205091688368056,-0.09941296047634549
6930,0.48261054928385416,0.15937503814697265,83.06149291992188,85.29141998291016,-4.707359313964844,89.1170654296875,-0.008887566460503472,0.328,0.3939285714285714,0.013061099582248263,-5.4490572386474625,-0.2856375151367203,29.267370223999023,-0.024776967366536458,-0.09804916381835938
6931,0.46307929928385416,0.219140682220459,83.06149291992188,86.35523986816406,-4.216365814208984,88.6669921875,-0.01616151597764757,0.32233333333333336,0.39035714285714285,0.01779115464952257,-5.295252459594728,0.20873400568962097,29.267370223999023,-0.036597188313802084,-0.08759286668565539
6932,0.46698554928385416,0.239062557220459,83.08195495605469,85.90515899658203,-4.1959075927734375,88.1146240234375,-0.010933346218532987,0.31866666666666665,0.38821428571428573,0.02096489800347222,-4.559191363403322,1.3732500076293945,29.267370223999023,-0.03136893378363715,-0.08122812906901042
6933,0.47479804928385416,0.219140682220459,83.06149291992188,90.36500549316406,-4.1959075927734375,88.1555404663086,-0.006159803602430555,0.31433333333333335,0.3842857142857143,0.02139214409722222,-3.88904442126465,2.427906036376953,29.267370223999023,-0.08115013970269097,-0.08168275621202258
6934,0.43573554928385416,0.19921878814697266,83.06149291992188,90.569580078125,-4.011787414550781,88.05325317382812,-0.002750142415364583,0.31,0.38142857142857145,0.01907289293077257,-3.6583391600341812,1.494096040725708,29.267370223999023,-0.0834231906467014,-0.07850045098198785
6935,0.44354804928385416,0.19921878814697266,83.08195495605469,88.13508605957031,-3.9299545288085938,87.91004180908203,-0.00843293931749132,0.30633333333333335,0.37714285714285717,0.01986634996202257,-3.3617159300537125,0.08788800239562988,29.267370223999023,-0.05614590115017361,-0.07599995930989584
6936,0.46698554928385416,0.219140682220459,83.08195495605469,86.53935241699219,-3.3366737365722656,87.86912536621094,-0.011842600504557292,0.30233333333333334,0.37392857142857144,0.02307061089409722,-3.1529833250732437,-0.3295809202880875,29.267370223999023,-0.03841552734375,-0.06895332336425782
6937,0.47089179928385416,0.239062557220459,83.08195495605469,88.46240997314453,-3.4389610290527344,87.562255859375,-0.006841744316948784,0.298,0.3703571428571429,0.024901580810546876,-2.6805845671386734,0.3405660092830658,30.40993881225586,-0.05978283352322049,-0.06668018764919705
6938,0.5294855492838542,0.19921878814697266,83.06149291992188,90.54912567138672,-3.3366737365722656,87.15309143066406,-0.002750142415364583,0.295,0.36714285714285716,0.02285698784722222,-2.142269747802736,0.17577600479125977,32.6071891784668,-0.08319591946072048,-0.060997390747070314
6939,0.48261054928385416,0.17929691314697266,83.08195495605469,88.36012268066406,-3.500335693359375,88.1146240234375,-0.012069914076063368,0.29133333333333333,0.3628571428571429,0.01934755113389757,-2.0653692656250016,-1.2414194517822281,31.728290557861328,-0.058646308051215276,-0.07349955240885417
6940,0.44354804928385416,0.17929691314697266,83.08195495605469,86.31431579589844,-2.907054901123047,86.47798156738281,-0.017070770263671875,0.2876666666666667,0.3603571428571429,0.017272440592447917,-2.164242404052736,-1.6259294920654312,38.407928466796875,-0.03591512044270833,-0.048722627427842884
6941,0.43573554928385416,0.17929691314697266,83.08195495605469,88.62606811523438,-3.1730079650878906,87.1121826171875,-0.011160659790039062,0.284,0.3578571428571429,0.015380350748697917,-1.8566347532959,-1.2414194517822281,38.93526840209961,-0.06160125732421875,-0.0587243398030599
6942,0.43573554928385416,0.15937503814697265,83.08195495605469,88.27828979492188,-2.907054901123047,87.1121826171875,-0.012979168362087673,0.2806666666666667,0.35678571428571426,0.013122134738498263,-1.7797323637695328,-1.8895918303222672,38.93526840209961,-0.05773705376519097,-0.05576930575900608
6943,0.44354804928385416,0.15937503814697265,83.08195495605469,84.63676452636719,-2.334228515625,85.68012237548828,-0.01616151597764757,0.2773333333333333,0.3557142857142857,0.01101650661892361,-1.0436712675781266,-1.8786074095459,41.83563995361328,-0.01727566189236111,-0.033492787679036455
6944,0.45526679928385416,0.15937503814697265,83.08195495605469,86.0688247680664,-2.5592689514160156,86.76439666748047,-0.00843293931749132,0.27466666666666667,0.35428571428571426,0.008880360921223959,-0.3735243254394547,-0.9777552061767594,42.362979888916016,-0.03318744235568576,-0.04804072909884983
6945,0.45136054928385416,0.15937503814697265,83.08195495605469,85.5982894897461,-2.5592689514160156,86.80531311035156,-0.00775099860297309,0.27166666666666667,0.35285714285714287,0.0075375874837239586,-0.3735243254394547,0.10986000299453735,42.362979888916016,-0.02795927259657118,-0.04849535624186198
6946,0.43573554928385416,0.15937503814697265,83.08195495605469,86.15065002441406,-2.5592689514160156,86.80531311035156,-0.012979168362087673,0.2693333333333333,0.35214285714285715,0.0078122456868489586,-0.3625379973144547,0.9777539968490601,42.275089263916016,-0.034096611870659724,-0.04849535624186198
6947,0.5177667992838542,0.13945316314697265,83.08195495605469,86.19157409667969,-2.641101837158203,86.98943328857422,-0.006159803602430555,0.2663333333333333,0.3517857142857143,0.008361562093098959,-0.4284540587158219,2.3400180339813232,42.275089263916016,-0.03455132378472222,-0.0514503902859158
6948,0.6076105492838542,0.13945316314697265,83.08195495605469,88.09416198730469,-2.722930908203125,86.90760040283203,-0.002750142415364583,0.264,0.3517857142857143,0.00918545193142361,-0.7360617094726578,3.2518560886383057,42.275089263916016,-0.05569118923611111,-0.051450347900390624
6949,0.5880792992838542,0.13945316314697265,83.08195495605469,91.6333999633789,-4.011787414550781,88.36012268066406,-0.009569507175021702,0.26,0.3514285714285714,0.01126064724392361,-1.516068118164064,3.207911968231201,42.275089263916016,-0.09501605563693577,-0.08191011216905382
6950,0.5490167992838542,0.1195312786102295,83.08195495605469,89.6080551147461,-2.9275131225585938,86.86668395996094,-0.012069914076063368,0.25533333333333336,0.3517857142857143,0.013457828097873263,-2.955235140869142,2.032410144805908,42.275089263916016,-0.07251222398546008,-0.05326885647243924
6951,0.5021417992838542,0.13945316314697265,83.08195495605469,89.567138671875,-2.7843055725097656,86.33477783203125,-0.012069914076063368,0.25066666666666665,0.3535714285714286,0.016234842936197917,-2.6256548338623062,0.9118380546569824,43.68132781982422,-0.07205759684244792,-0.045767593383789065
6952,0.49432929928385416,0.13945316314697265,83.1024169921875,88.83065795898438,-2.4160614013671875,86.31431579589844,-0.012297227647569445,0.246,0.35464285714285715,0.01748597886827257,-1.7577597075195328,0.2526780068874359,44.29655838012695,-0.06364712185329861,-0.04144863552517361
6953,0.49823554928385416,0.13945316314697265,83.12287139892578,87.0098876953125,-2.477436065673828,85.70057678222656,0.003387239244249132,0.241,0.35642857142857143,0.017180887858072917,-0.9887415343017594,0.2746500074863434,44.29655838012695,-0.04318906995985243,-0.035311253865559895
6954,0.43573554928385416,0.17929691314697266,83.08195495605469,84.35034942626953,-2.6820144653320312,86.53935241699219,-0.018889236450195312,0.23766666666666666,0.35714285714285715,0.02001893785264757,-0.4614130430908219,0.41746801137924194,44.38444900512695,-0.014093271891276042,-0.0469040764702691
6955,0.45136054928385416,0.17929691314697266,83.08195495605469,89.1579818725586,-2.866138458251953,87.19401550292969,-0.006387117173936632,0.23333333333333334,0.3560714285714286,0.02203301323784722,-0.7580343657226578,0.9338099956512451,44.38444900512695,-0.06751141018337674,-0.05622393290201823
6956,0.46307929928385416,0.17929691314697266,83.08195495605469,89.79217529296875,-3.0298004150390625,87.17355346679688,-0.011842600504557292,0.23033333333333333,0.3557142857142857,0.023131561279296876,-0.9118391447753922,0.5602860450744629,44.38444900512695,-0.07455800374348959,-0.05781504313151042
6957,0.47870429928385416,0.17929691314697266,83.1024169921875,88.93293762207031,-2.9479713439941406,87.03034973144531,-0.0002497355143229167,0.22766666666666666,0.355,0.02246025933159722,-0.856909411499025,-0.04394401843261875,44.38444900512695,-0.06478356255425347,-0.05531467861599392
6958,0.44745429928385416,0.17929691314697266,83.08195495605469,87.88958740234375,-3.4389610290527344,87.54179382324219,-0.009796820746527778,0.22433333333333333,0.35464285714285715,0.02172783745659722,-0.4723993712158219,-0.3515516691894547,44.38444900512695,-0.053418138292100695,-0.0664528316921658
6959,0.44745429928385416,0.15937503814697265,83.1024169921875,88.1555404663086,-3.0093421936035156,87.1121826171875,0.004523807101779514,0.221,0.3535714285714286,0.01885926988389757,-1.3732515745849625,0.010986000299453735,44.38444900512695,-0.05614581637912326,-0.056905831231011283
6960,0.42401679928385416,0.13945316314697265,83.12287139892578,87.93049621582031,-3.0502586364746094,87.25538635253906,-0.003886710272894965,0.219,0.3535714285714286,0.016082255045572917,-1.6149431639404312,-0.7800070219726578,44.38444900512695,-0.05341805352105035,-0.058951610989040795
6961,0.5060480492838542,0.1195312786102295,83.1024169921875,87.37813568115234,-4.1959075927734375,88.85111236572266,-0.015934202406141493,0.21566666666666667,0.3539285714285714,0.015624491373697917,-2.0214239531250016,-0.3076082640380875,44.38444900512695,-0.047507985432942705,-0.08941133287217883
6962,0.49823554928385416,0.1195312786102295,83.1024169921875,90.20133972167969,-3.1730079650878906,86.41661071777344,0.017025926378038195,0.21266666666666667,0.3539285714285714,0.013915591769748263,-2.922276156494142,0.4723980128765106,44.38444900512695,-0.07887691921657985,-0.05099576314290365
6963,0.47479804928385416,0.13945316314697265,83.1024169921875,90.20133972167969,-2.1910247802734375,86.5188980102539,-0.018207295735677084,0.20866666666666667,0.35535714285714287,0.015929667154947917,-2.911289828369142,-1.4721247130126969,44.38444900512695,-0.07887691921657985,-0.041221364339192705
6964,0.5099542992838542,0.15937503814697265,83.08195495605469,88.05325317382812,-2.641101837158203,87.43951416015625,-0.01957117716471354,0.205,0.35642857142857143,0.016967264811197917,-2.1202989989013687,-2.570725100585939,44.38444900512695,-0.05523664686414931,-0.05645128885904948
6965,0.5060480492838542,0.17929691314697266,83.1024169921875,87.03034973144531,-2.7638473510742188,87.0712661743164,-0.015706888834635415,0.2,0.3578571428571429,0.016753641764322917,-1.8017050200195328,-2.1312853270263687,44.38444900512695,-0.04364369710286458,-0.05372348361545139
6966,0.5451105492838542,0.15937503814697265,83.1024169921875,88.6056137084961,-2.722930908203125,86.96897888183594,-0.004795964558919271,0.19533333333333333,0.3582142857142857,0.014464908175998263,-2.0433966093750016,-1.6149431639404312,44.38444900512695,-0.0611466301812066,-0.052132331000434025
6967,0.5177667992838542,0.15937503814697265,83.12287139892578,86.25294494628906,-2.7638473510742188,87.05081176757812,-0.00297745598687066,0.191,0.35928571428571426,0.01168789333767361,-2.0543829375000016,-1.3512789183349625,44.38444900512695,-0.034778594970703125,-0.05349621242947049
6968,0.5099542992838542,0.15937503814697265,83.1024169921875,85.1072998046875,-2.743389129638672,85.76194763183594,0.0011141459147135417,0.18566666666666667,0.36,0.01065029568142361,-2.0653692656250016,-0.8678938322753922,44.38444900512695,-0.022276475694444443,-0.03894818623860677
6969,0.47089179928385416,0.17929691314697266,83.1024169921875,83.22515869140625,-2.088733673095703,87.17355346679688,-0.013888380262586805,0.18266666666666667,0.3610714285714286,0.012694888644748263,-1.527054446289064,-0.2416922026367203,44.38444900512695,-0.0013637966579861111,-0.04735874599880642
6970,0.46307929928385416,0.17929691314697266,82.97966003417969,86.29386138916016,-2.5797271728515625,41.900001525878906,-0.002750142415364583,0.179,0.36142857142857143,0.013732486300998263,-0.9118391447753922,1.7797319889068604,44.38444900512695,-0.03682445949978298,0.4502252366807726
6971,0.47089179928385416,0.15937503814697265,83.1024169921875,89.95584106445312,-3.1934661865234375,87.68500518798828,0.004523807101779514,0.176,0.3607142857142857,0.013244205050998263,-1.0766283446044937,1.922550082206726,44.38444900512695,-0.07614915635850694,-0.06531634860568576
6972,0.44745429928385416,0.17929691314697266,83.12287139892578,89.36256408691406,-3.11163330078125,87.45996856689453,-0.00775099860297309,0.173,0.36,0.015716044108072917,-1.5819841795654312,1.3842360973358154,44.38444900512695,-0.06932991875542535,-0.061906687418619794
6973,0.48651679928385416,0.17929691314697266,83.1024169921875,91.36744689941406,-2.9275131225585938,88.1555404663086,-0.015252261691623263,0.17,0.35928571428571426,0.01879823472764757,-1.6698728972167984,1.2963480949401855,44.38444900512695,-0.0918336656358507,-0.06758948432074653
6974,0.5294855492838542,0.17929691314697266,83.1024169921875,90.48774719238281,-3.357128143310547,41.900001525878906,0.0011141459147135417,0.16733333333333333,0.3585714285714286,0.01827943589952257,-1.6918455534667984,0.9887400269508362,44.38444900512695,-0.08205922444661458,0.4415874481201172
6975,0.5177667992838542,0.17929691314697266,83.12287139892578,88.1146240234375,-3.1525497436523438,87.91004180908203,-0.011387973361545138,0.16466666666666666,0.3585714285714286,0.01821840074327257,-1.9774805479736344,0.3405660092830658,44.38444900512695,-0.055463918050130206,-0.06736212836371527
6976,0.5060480492838542,0.17929691314697266,83.14332580566406,88.70790100097656,-3.0298004150390625,87.15309143066406,-0.011842600504557292,0.16066666666666668,0.3585714285714286,0.01898134019639757,-2.6036821776123062,0.2856360077857971,44.38444900512695,-0.06182861328125,-0.057587687174479166
6977,0.49823554928385416,0.15937503814697265,83.1024169921875,90.87644958496094,-3.2139244079589844,87.72592163085938,0.00225067138671875,0.15766666666666668,0.35964285714285715,0.01834047105577257,-2.7135435515136734,0.4064820110797882,44.38444900512695,-0.08637813991970486,-0.06599828932020399
6978,0.5568292992838542,0.15937503814697265,83.12287139892578,90.26271057128906,-3.0502586364746094,87.39859008789062,-2.242194281684028e-05,0.15433333333333332,0.36,0.01760804918077257,-3.273829119750978,-0.3185945921630875,44.38444900512695,-0.07933154635959201,-0.06054276360405816
6979,0.5216730492838542,0.15937503814697265,83.12287139892578,89.17843627929688,-3.1934661865234375,87.41905212402344,-0.018889236450195312,0.15033333333333335,0.3610714285714286,0.01776063707139757,-3.6253801756591812,-0.5273291044921891,44.38444900512695,-0.06728405422634548,-0.06236131456163194
6980,0.5216730492838542,0.13945316314697265,83.12287139892578,81.46577453613281,-2.9888877868652344,87.19401550292969,0.0049784342447916664,0.14666666666666667,0.36214285714285716,0.016021219889322917,-3.7681986265869156,-0.9447962218017594,44.38444900512695,0.01841218736436632,-0.057587814331054685
6981,0.5099542992838542,0.15937503814697265,83.12287139892578,41.900001525878906,-2.9479713439941406,87.43951416015625,-0.014797634548611112,0.14166666666666666,0.3632142857142857,0.017028299967447917,-3.4166475706787125,-0.7580343657226578,44.38444900512695,0.4580318874782986,-0.059860950046115455
6982,0.5294855492838542,0.17929691314697266,83.12287139892578,87.95095825195312,-2.8456802368164062,87.25538635253906,-0.012979168362087673,0.137,0.36357142857142855,0.01867616441514757,-2.834389346191408,0.20873400568962097,44.38444900512695,-0.0536454094780816,-0.056678517659505205
6983,0.5177667992838542,0.17929691314697266,83.12287139892578,89.87400817871094,-2.8865966796875,87.17355346679688,-0.0002497355143229167,0.132,0.36464285714285716,0.01769960191514757,-2.526779788085939,0.38451001048088074,44.38444900512695,-0.07501263088650173,-0.056223890516493055
6984,0.5255792992838542,0.15937503814697265,83.14332580566406,88.91248321533203,-2.866138458251953,87.68500518798828,0.00225067138671875,0.12833333333333333,0.365,0.015807596842447917,-2.559738772460939,-0.2856375151367203,44.38444900512695,-0.06410174899631077,-0.061679373847113715
6985,0.49042304928385416,0.15937503814697265,83.14332580566406,87.5213394165039,-3.0707168579101562,87.19401550292969,-0.008205625745985243,0.12366666666666666,0.365,0.015380350748697917,-2.812416689941408,-0.5932451658935562,44.38444900512695,-0.04864459567599826,-0.05849702623155382
6986,0.5216730492838542,0.15937503814697265,83.12287139892578,41.900001525878906,-2.8252220153808594,87.6031723022461,-0.009796820746527778,0.11933333333333333,0.3653571428571429,0.015777079264322917,-2.7355143004150406,-0.2416922026367203,44.38444900512695,0.4580318874782986,-0.06031549241807726
6987,0.5294855492838542,0.15937503814697265,83.1024169921875,88.09416198730469,-2.7638473510742188,87.5213394165039,-0.00843293931749132,0.11533333333333333,0.365,0.015319315592447917,-2.493822711059572,0.04394400119781494,44.38444900512695,-0.05546383327907986,-0.058724297417534724
6988,0.5021417992838542,0.13945316314697265,83.1024169921875,89.1170654296875,-2.702472686767578,86.84622192382812,-0.0018409305148654514,0.11066666666666666,0.365,0.014281802707248263,-2.471850054809572,0.32958000898361206,44.38444900512695,-0.06682942708333334,-0.050541051228841144
6989,0.5685480492838542,0.15937503814697265,83.12287139892578,88.85111236572266,-2.6206436157226562,86.1097412109375,-0.015252261691623263,0.10666666666666667,0.36464285714285716,0.015105692545572917,-2.153256075927736,-0.04394401843261875,44.38444900512695,-0.06364712185329861,-0.041448720296223956
6990,0.5607355492838542,0.15937503814697265,83.12287139892578,88.97386169433594,-1.9659843444824219,87.05081176757812,-0.014570320977105035,0.10333333333333333,0.36428571428571427,0.015807596842447917,-1.4391657286376969,-0.18676246936035312,44.03289031982422,-0.06501100328233507,-0.04463106791178385
6991,0.5607355492838542,0.15937503814697265,83.12287139892578,87.35768127441406,-2.743389129638672,87.39859008789062,-0.01002409193250868,0.09966666666666667,0.36392857142857143,0.015593973795572917,-0.834936755249025,-0.48338379199218906,43.85710906982422,-0.0470534430609809,-0.05713310241699219
6992,0.5060480492838542,0.15937503814697265,83.16378784179688,88.87156677246094,-2.272857666015625,87.13264465332031,-0.00775099860297309,0.096,0.3632142857142857,0.015166727701822917,-1.2853628569335953,-0.3954969816894547,43.85710906982422,-0.06341976589626735,-0.04895002577039931
6993,0.5177667992838542,0.15937503814697265,83.14332580566406,87.93049621582031,-2.354686737060547,87.80775451660156,-0.008205625745985243,0.09366666666666666,0.36142857142857143,0.014525943332248263,-1.120571749755861,-0.7470480375976578,43.85710906982422,-0.05319078233506944,-0.05736045837402344
6994,0.5724542992838542,0.15937503814697265,83.14332580566406,88.91248321533203,-2.6206436157226562,87.88958740234375,-0.00843293931749132,0.091,0.3607142857142857,0.013091617160373263,-1.120571749755861,-0.3515516691894547,43.85710906982422,-0.06410174899631077,-0.06122478908962674
6995,0.5177667992838542,0.13945316314697265,83.16378784179688,89.1170654296875,-2.5592689514160156,87.99187469482422,-0.002068201700846354,0.088,0.35964285714285715,0.01061977810329861,-1.8346620970459,-0.07690300280761875,43.76921844482422,-0.06614752875434028,-0.061679373847113715
6996,0.49823554928385416,0.1195312786102295,83.14332580566406,88.50332641601562,-2.4569778442382812,87.93049621582031,0.0017960866292317708,0.08466666666666667,0.35928571428571426,0.008422597249348959,-2.933262484619142,0.23070600628852844,43.76921844482422,-0.05955556233723958,-0.05986082288953993
6997,0.5060480492838542,0.1195312786102295,83.18424987792969,86.80531311035156,-2.7638473510742188,87.84866333007812,-0.009796820746527778,0.082,0.35892857142857143,0.00942959255642361,-3.1310106688232437,-0.6921183043212906,43.76921844482422,-0.04023403591579861,-0.0623612297905816
6998,0.5177667992838542,0.13945316314697265,83.16378784179688,87.1121826171875,-2.4365196228027344,87.05081176757812,-0.020025804307725693,0.07833333333333334,0.35892857142857143,0.012084537082248263,-3.196926730224611,-0.4284540587158219,43.76921844482422,-0.04387105305989583,-0.049859237670898435
6999,0.5529230492838542,0.13945316314697265,83.16378784179688,89.75126647949219,-2.3751449584960938,86.96897888183594,-0.004568650987413194,0.07433333333333333,0.35964285714285715,0.01162685818142361,-2.7025572233886734,0.6811320185661316,43.76921844482422,-0.07319420708550348,-0.0482680426703559
7000,0.5372980492838542,0.13945316314697265,83.14332580566406,87.50088500976562,-2.5388107299804688,86.94851684570312,-0.002522828843858507,0.07033333333333333,0.35928571428571426,0.01174892849392361,-2.208185809204103,1.2414180040359497,43.76921844482422,-0.04841732449001736,-0.04985919528537326
7001,0.5490167992838542,0.13945316314697265,83.16378784179688,89.54668426513672,-2.5388107299804688,86.68256378173828,-0.0066144307454427086,0.065,0.35928571428571426,0.013244205050998263,-1.8346620970459,1.307334065437317,43.76921844482422,-0.0709210713704427,-0.04690416124131944
7002,0.45917304928385416,0.15937503814697265,83.16378784179688,89.17843627929688,-2.6206436157226562,87.62362670898438,-0.009342193603515625,0.06133333333333333,0.35892857142857143,0.015166727701822917,-1.516068118164064,0.6811320185661316,43.68132781982422,-0.06682942708333334,-0.05826967027452257
7003,0.46698554928385416,0.15937503814697265,83.14332580566406,85.39370727539062,-2.7638473510742188,87.50088500976562,-0.015934202406141493,0.056666666666666664,0.3585714285714286,0.015929667154947917,-1.7248026304931656,0.3185940086841583,43.68132781982422,-0.02500423855251736,-0.05849702623155382
7004,0.46698554928385416,0.13945316314697265,83.14332580566406,88.05325317382812,-2.7843055725097656,87.58271789550781,-0.0007043626573350694,0.053,0.3578571428571429,0.014983622233072917,-2.0983263426513687,0.6262019872665405,43.68132781982422,-0.05455474853515625,-0.0596335940890842
7005,0.48261054928385416,0.13945316314697265,83.18424987792969,90.28317260742188,-2.8047637939453125,87.93049621582031,-0.009342193603515625,0.05,0.3578571428571429,0.015532938639322917,-2.0983263426513687,1.1645159721374512,43.68132781982422,-0.07887691921657985,-0.06372511121961806
7006,0.36151679928385416,0.13945316314697265,83.18424987792969,89.89447021484375,-2.866138458251953,87.45996856689453,-2.242194281684028e-05,0.04666666666666667,0.3575,0.015197245279947917,-2.6805845671386734,0.45042601227760315,43.68132781982422,-0.07455800374348959,-0.05917896694607205
7007,0.44745429928385416,0.13945316314697265,83.16378784179688,89.89447021484375,-2.722930908203125,87.35768127441406,-0.009342193603515625,0.042666666666666665,0.35714285714285715,0.015807596842447917,-2.537766116210939,-0.09887375170898594,43.417659759521484,-0.07478535970052083,-0.05645124647352431
7008,0.46307929928385416,0.13945316314697265,83.18424987792969,84.24806213378906,-2.7843055725097656,87.562255859375,-0.009569507175021702,0.039,0.35642857142857143,0.016051737467447917,-2.0763555937500016,-1.0107122832031266,43.241878509521484,-0.011820136176215277,-0.05940623813205295
7009,0.49823554928385416,0.15937503814697265,83.16378784179688,86.47798156738281,-2.722930908203125,87.17355346679688,-0.01729808383517795,0.035666666666666666,0.3560714285714286,0.017394510904947917,-2.0763555937500016,-0.6921183043212906,43.241878509521484,-0.03682437472873264,-0.05440538194444444
7010,0.5529230492838542,0.17929691314697266,83.16378784179688,91.32653045654297,-2.6820144653320312,87.31675720214844,-0.009796820746527778,0.03233333333333333,0.3557142857142857,0.01861512925889757,-1.8566347532959,0.8459219932556152,43.241878509521484,-0.09069714016384549,-0.055541907416449654
7011,0.5060480492838542,0.15937503814697265,83.16378784179688,84.98455047607422,-2.6615562438964844,88.25782775878906,0.00225067138671875,0.028,0.355,0.01898134019639757,-1.3512789183349625,1.6039559841156006,42.099308013916016,-0.02023069593641493,-0.06577093336317275
7012,0.5372980492838542,0.13945316314697265,83.16378784179688,83.69569396972656,-2.9275131225585938,88.25782775878906,-0.007296371459960938,0.023666666666666666,0.3535714285714286,0.01769960191514757,-1.0656420164794937,0.29662200808525085,41.83563995361328,-0.0059100680881076385,-0.06872600979275173
7013,0.47479804928385416,0.1195312786102295,83.20470428466797,78.66302490234375,-3.2343826293945312,87.39859008789062,0.007933468288845487,0.02033333333333333,0.3507142857142857,0.014373355441623263,-1.3402925902099625,-0.49437012011718906,40.69306945800781,0.050463104248046876,-0.06258858574761285
7014,0.5685480492838542,0.1195312786102295,83.18424987792969,81.87493133544922,-2.8047637939453125,86.53935241699219,-0.015706888834635415,0.017,0.3489285714285714,0.014281802707248263,-1.1095873289794937,-0.856909411499025,40.25362014770508,0.014547983805338541,-0.048267957899305554
7015,0.5802667992838542,0.13945316314697265,83.18424987792969,80.70883178710938,-1.0658340454101562,87.05081176757812,-0.018661922878689237,0.014333333333333333,0.3457142857142857,0.015044657389322917,-0.09887375170898594,-0.6262022429199234,38.583709716796875,0.02750464545355903,-0.03462939792209201
7016,0.48261054928385416,0.1195312786102295,83.20470428466797,81.5066909790039,-1.8636970520019531,85.57783508300781,-0.01843460930718316,0.01,0.3439285714285714,0.013610415988498263,0.8459219932556152,-0.16478981311035312,38.14426040649414,0.01886681450737847,-0.02712813483344184
7017,0.5802667992838542,0.07968751907348633,83.20470428466797,79.82913208007812,-1.2704124450683594,83.24562072753906,-0.006841744316948784,0.007666666666666666,0.3389285714285714,0.008147939046223959,0.9667680263519287,-0.20873512561035312,37.704811096191406,0.037506357828776045,0.005377409193250868
7018,0.6349542992838542,0.07968751907348633,83.22515869140625,83.0001220703125,1.2663764953613281,82.79554748535156,-0.028436321682400175,0.005333333333333333,0.3364285714285714,0.006072828504774305,1.8017040491104126,-0.20873512561035312,35.8591194152832,0.0025004069010416668,0.038564766777886283
7019,0.6232355492838542,0.09960939407348633,83.20470428466797,80.07463073730469,0.89813232421875,83.26608276367188,-0.05730480617947049,0.003,0.33214285714285713,0.0068356831868489586,3.2408699989318848,0.35155200958251953,32.34352111816406,0.034778594970703125,0.0292449951171875
7020,0.47479804928385416,0.07968751907348633,83.20470428466797,80.42241668701172,1.5527915954589844,81.75218200683594,-0.07117080688476562,0.001,0.32857142857142857,0.005370924207899305,3.152981996536255,0.8678940534591675,24.69709014892578,0.030914306640625,0.053340106540256074
7021,0.8185480492838543,0.05976563930511475,83.18424987792969,76.90364074707031,2.9439353942871094,79.11309814453125,-0.05003085666232639,0.0,0.3225,-0.000762939453125,3.054108142852783,0.3185940086841583,24.345529556274414,0.0697845458984375,0.09812041388617622
7022,0.7716730492838543,0.03984375953674316,83.20470428466797,83.14332580566406,5.051109313964844,79.80867004394531,-0.03366444905598958,0.0,0.3192857142857143,-0.0028380499945746527,4.27355432510376,0.5383139848709106,24.345529556274414,0.0006819831000434028,0.11380488077799479
7023,0.6622980492838542,0.01992187976837158,83.20470428466797,79.46089172363281,4.580574035644531,79.0312728881836,-0.022298897637261283,-0.0013333333333333333,0.31357142857142856,-0.002044677734375,4.7679243087768555,1.6369140148162842,24.169750213623047,0.04159791734483507,0.11721445719401041
7024,0.8068292992838543,0.05976563930511475,83.20470428466797,82.91828918457031,4.621490478515625,64.66975402832031,-0.035028330485026044,0.0006666666666666666,0.30892857142857144,0.000152587890625,4.141722202301025,0.5602860450744629,24.169750213623047,0.0031823900010850693,0.27724151611328124
7025,0.865423077061632,0.07968751907348633,83.20470428466797,81.30210876464844,16.159801483154297,70.15249633789062,-0.06457875569661459,0.0,0.30178571428571427,-0.0,4.031862258911133,-1.0766283446044937,24.081859588623047,0.021139950222439235,0.3445256127251519
