,WD,WS,AIL_1,AIL_2,ELEV_1,ELEV_2,RUDD,ALT,GS,TH,PTCH,ROLL,PLA_1,AIL,ELEV
123,-0.0,0.0,84.84133911132812,77.76287841796875,22.317657470703125,60.680442810058594,-0.002068201700846354,0.007333333333333333,0.0,-0.0,0.0,0.0,22.67561912536621,0.07864956325954861,0.5181912740071615
124,-0.0,0.0,84.86180114746094,77.86516571044922,22.317657470703125,60.680442810058594,-0.002068201700846354,0.007333333333333333,0.0,-0.0,0.0,0.0,22.67561912536621,0.07774039374457466,0.5181912740071615
125,-0.0,0.0,84.84133911132812,77.96745300292969,22.317657470703125,60.65998840332031,-0.0022955152723524307,0.007333333333333333,0.0,-0.0,0.0,0.0,22.67561912536621,0.0763765123155382,0.5184185451931423
126,-0.0,0.0,84.84133911132812,77.90608215332031,22.338119506835938,60.65998840332031,-0.0022955152723524307,0.007333333333333333,0.0,-0.0,0.0,0.0,22.67561912536621,0.07705841064453126,0.5186459011501736
127,-0.0,0.0,84.84133911132812,78.13111877441406,22.35857391357422,60.639530181884766,-0.002068201700846354,0.007333333333333333,0.0,-0.0,0.0,0.0,22.67561912536621,0.07455800374348959,0.5191004859076606
128,-0.0,0.0,84.86180114746094,78.00836944580078,22.317657470703125,60.639530181884766,-0.0022955152723524307,0.007333333333333333,0.0,-0.0,0.0,0.0,22.67561912536621,0.07614924112955729,0.5186458587646484
129,-0.0,0.0,84.84133911132812,78.00836944580078,22.338119506835938,60.639530181884766,-0.0022955152723524307,0.007333333333333333,0.0,-0.0,0.0,0.0,22.67561912536621,0.07592188517252604,0.5188732147216797
130,-0.0,0.0,84.80043029785156,77.41508483886719,22.338119506835938,60.639530181884766,-0.0022955152723524307,0.007333333333333333,0.0,-0.0,0.0,0.0,22.67561912536621,0.08205939398871528,0.5188732147216797
131,-0.0,0.0,84.80043029785156,77.435546875,22.338119506835938,60.61907196044922,-0.0022955152723524307,0.007333333333333333,0.0,-0.0,0.0,0.0,22.67561912536621,0.08183203803168403,0.5191005282931858
132,-0.0,0.0,84.82088470458984,77.537841796875,22.338119506835938,60.639530181884766,-0.002068201700846354,0.007666666666666666,0.0,-0.0,0.0,0.0,22.85140037536621,0.08092269897460938,0.5188732147216797
133,-0.0,0.0,84.82088470458984,77.51737976074219,22.338119506835938,60.639530181884766,-0.002068201700846354,0.007666666666666666,0.0,-0.0,0.0,0.0,22.85140037536621,0.08115005493164062,0.5188732147216797
134,-0.0,0.0,84.82088470458984,77.537841796875,22.338119506835938,60.639530181884766,-0.0022955152723524307,0.007333333333333333,0.0,-0.0,0.0,0.0,22.85140037536621,0.08092269897460938,0.5188732147216797
135,-0.0,0.0,84.82088470458984,77.49691772460938,22.338119506835938,60.61907196044922,-0.0022955152723524307,0.007333333333333333,0.0,-0.0,0.0,0.0,22.85140037536621,0.08137741088867187,0.5191005282931858
136,-0.0,0.0,84.82088470458984,77.41508483886719,22.338119506835938,60.639530181884766,-0.002068201700846354,0.007333333333333333,0.0,-0.0,0.0,0.0,22.85140037536621,0.08228666517469618,0.5188732147216797
137,-0.0,0.0,84.80043029785156,77.45600891113281,22.297203063964844,60.639530181884766,-0.0022955152723524307,0.007333333333333333,0.0,-0.0,0.0,0.0,22.85140037536621,0.08160468207465278,0.5184185875786675
138,-0.0,0.0,84.82088470458984,77.435546875,22.317657470703125,60.61907196044922,-0.002068201700846354,0.007333333333333333,0.0,-0.0,0.0,0.0,22.85140037536621,0.08205930921766492,0.5188731723361545
139,-0.0,0.0,84.80043029785156,77.41508483886719,22.317657470703125,60.639530181884766,-0.0022955152723524307,0.007333333333333333,0.0,-0.0,0.0,0.0,28.65213966369629,0.08205939398871528,0.5186458587646484
140,-0.0,0.0,84.84133911132812,77.35371398925781,22.317657470703125,60.639530181884766,-0.002068201700846354,0.007,0.0,-0.0,0.0,0.0,30.058380126953125,0.08319583468967014,0.5186458587646484
141,-0.0,0.0,84.84133911132812,77.37417602539062,22.35857391357422,60.639530181884766,-0.002068201700846354,0.007333333333333333,0.0,-0.0,0.0,0.0,30.673608779907227,0.08296847873263889,0.5191004859076606
142,-0.0,0.0,84.82088470458984,77.41508483886719,22.317657470703125,60.639530181884766,-0.002522828843858507,0.007,0.0,-0.0,0.0,0.0,30.673608779907227,0.08228666517469618,0.5186458587646484
143,-0.0,0.0,84.82088470458984,77.37417602539062,22.27674102783203,60.639530181884766,-0.0022955152723524307,0.007333333333333333,0.0,-0.0,0.0,0.0,30.673608779907227,0.08274120754665798,0.5181912316216363
144,-0.0,0.0,84.80043029785156,77.41508483886719,22.297203063964844,60.680442810058594,-0.0018409305148654514,0.007,0.0,-0.0,0.0,0.0,30.673608779907227,0.08205939398871528,0.5179640028211806
145,-0.0,0.0,84.75950622558594,77.57875061035156,22.317657470703125,60.700904846191406,-0.0022955152723524307,0.007,0.0,-0.0,0.0,0.0,30.673608779907227,0.07978617350260417,0.5179639180501302
146,-0.0,0.0,84.80043029785156,77.35371398925781,22.27674102783203,60.680442810058594,-0.0022955152723524307,0.007333333333333333,0.0,-0.0,0.0,0.0,30.673608779907227,0.08274129231770834,0.5177366468641493
147,-0.0,0.0,84.84133911132812,77.31279754638672,22.27674102783203,60.700904846191406,-0.002068201700846354,0.007333333333333333,0.0,-0.0,0.0,0.0,30.673608779907227,0.0836504618326823,0.5175092909071181
148,-0.0,0.0,84.82088470458984,77.35371398925781,22.235824584960938,60.925941467285156,-0.0022955152723524307,0.007,0.0,-0.0,0.0,0.0,30.673608779907227,0.08296856350368924,0.5145542568630642
149,-0.0,0.0,84.82088470458984,77.37417602539062,22.25628662109375,63.258155822753906,-0.0022955152723524307,0.007,0.0,-0.0,0.0,0.0,30.673608779907227,0.08274120754665798,0.48886811998155383
150,-0.0,0.0,84.82088470458984,77.59921264648438,22.27674102783203,62.583038330078125,-0.002522828843858507,0.007,0.0,-0.0,0.0,0.0,30.673608779907227,0.08024080064561633,0.4965966966417101
151,-0.0,0.0,84.73905181884766,77.3946304321289,22.297203063964844,61.39647674560547,-0.0022955152723524307,0.007,0.0,-0.0,0.0,0.0,30.673608779907227,0.08160468207465278,0.5100080702039931
152,-0.0,0.0,84.75950622558594,77.41508483886719,22.317657470703125,61.41693115234375,-0.0022955152723524307,0.007333333333333333,0.0,-0.0,0.0,0.0,24.169750213623047,0.08160468207465278,0.5100080702039931
153,-0.0,0.0,84.75950622558594,77.37417602539062,22.235824584960938,61.457847595214844,-0.0022955152723524307,0.006666666666666667,0.0,-0.0,0.0,0.0,24.081859588623047,0.08205922444661458,0.5086441887749567
154,-0.0,0.0,84.80043029785156,77.37417602539062,22.194908142089844,62.153419494628906,-0.002068201700846354,0.006666666666666667,0.0,-0.0,0.0,0.0,24.081859588623047,0.08251393636067708,0.5004609849717881
155,-0.0,0.0,84.75950622558594,77.35371398925781,22.15399932861328,62.09204864501953,-0.0022955152723524307,0.006666666666666667,0.0,-0.0,0.0,0.0,24.081859588623047,0.08228658040364584,0.5006883409288194
156,-0.0,0.0,84.69813537597656,77.49691772460938,22.13353729248047,62.86945343017578,-0.0022955152723524307,0.006666666666666667,0.0,-0.0,0.0,0.0,24.081859588623047,0.08001352945963541,0.4918231540256076
157,-0.0,0.0,84.69813537597656,77.41508483886719,21.990333557128906,62.88990783691406,-0.0022955152723524307,0.007,0.0,-0.0,0.0,0.0,24.081859588623047,0.08092278374565973,0.4900047302246094
158,-0.0,0.0,84.69813537597656,77.3946304321289,21.847126007080078,63.31952667236328,-0.0022955152723524307,0.006666666666666667,0.0,-0.0,0.0,0.0,24.081859588623047,0.08115005493164062,0.4836399926079644
159,-0.0,0.0,84.69813537597656,77.3946304321289,21.82666778564453,41.900001525878906,-0.0022955152723524307,0.006666666666666667,0.0,-0.0,0.0,0.0,24.081859588623047,0.08115005493164062,0.7214074028862847
160,-0.0,0.0,84.67768096923828,77.435546875,21.806209564208984,63.790061950683594,-0.0022955152723524307,0.006333333333333333,0.0,-0.0,0.0,0.0,24.081859588623047,0.08046815660264757,0.47795719570583767
161,-0.0,0.0,84.67768096923828,77.45600891113281,20.435523986816406,66.51097106933594,-0.002522828843858507,0.006666666666666667,0.0,-0.0,0.0,0.0,24.081859588623047,0.08024080064561633,0.43249503241644965
162,-0.0,0.0,84.69813537597656,77.435546875,17.98056411743164,68.92501831054688,-0.0022955152723524307,0.006333333333333333,0.0,-0.0,0.0,0.0,24.081859588623047,0.08069542778862847,0.3783949534098307
163,-0.0,0.0,84.67768096923828,77.51737976074219,14.29812240600586,68.78181457519531,-0.002522828843858507,0.006333333333333333,0.0,-0.0,0.0,0.0,24.081859588623047,0.07955890231662327,0.3390700870090061
164,-0.0,0.0,84.67768096923828,77.49691772460938,12.559192657470703,67.61570739746094,-0.0022955152723524307,0.006333333333333333,0.0,-0.0,0.0,0.0,24.081859588623047,0.07978625827365451,0.3327053917778863
165,-0.0,0.0,84.69813537597656,77.55829620361328,12.51827621459961,68.20899200439453,-0.002522828843858507,0.006666666666666667,0.0,-0.0,0.0,0.0,24.081859588623047,0.07933154635959201,0.3256587134467231
166,-0.0,0.0,84.71859741210938,77.41508483886719,12.190948486328125,68.9045639038086,-0.002522828843858507,0.006333333333333333,0.0,-0.0,0.0,0.0,24.081859588623047,0.08115013970269097,0.3142931620279948
167,-0.0,0.0,84.71859741210938,77.51737976074219,11.597667694091797,41.900001525878906,-0.002522828843858507,0.006666666666666667,0.0,-0.0,0.0,0.0,24.081859588623047,0.08001352945963541,0.6077518463134766
168,-0.0,0.0,84.73905181884766,77.41508483886719,11.454460144042969,70.29570770263672,-0.002522828843858507,0.006,0.0,-0.0,0.0,0.0,24.081859588623047,0.08137741088867187,0.2906528049045139
169,-0.0,0.0,84.67768096923828,77.435546875,9.08133316040039,41.900001525878906,-0.002750142415364583,0.006333333333333333,0.0,-0.0,0.0,0.0,24.081859588623047,0.08046815660264757,0.5797925737169054
170,-0.0,0.0,84.75950622558594,77.49691772460938,9.224540710449219,70.95036315917969,-0.002522828843858507,0.006333333333333333,0.0,-0.0,0.0,0.0,24.081859588623047,0.08069542778862847,0.2586019727918837
171,-0.0,0.0,84.77996826171875,77.57875061035156,8.917671203613281,71.78913879394531,-0.002750142415364583,0.006,0.0,-0.0,0.0,0.0,24.081859588623047,0.08001352945963541,0.2458725823296441
172,-0.0,0.0,84.75950622558594,77.76287841796875,8.099349975585938,72.77112579345703,-0.002750142415364583,0.005666666666666667,0.0,-0.0,0.0,0.0,24.081859588623047,0.07774030897352431,0.22586915757921006
173,-0.0,0.0,84.84133911132812,77.8856201171875,7.812938690185547,73.8758544921875,-0.002522828843858507,0.005333333333333333,0.0,-0.0,0.0,0.0,24.081859588623047,0.0772857666015625,0.21041204664442276
174,-0.0,0.0,84.88226318359375,77.37417602539062,7.424236297607422,73.99860382080078,-0.0022955152723524307,0.005333333333333333,0.0,-0.0,0.0,0.0,24.081859588623047,0.0834231906467014,0.204729249742296
175,-0.0,0.0,84.86180114746094,41.900001525878906,8.037975311279297,74.22364044189453,-0.002522828843858507,0.005,0.0,-0.0,0.0,0.0,24.081859588623047,0.4773533291286892,0.20904816521538627
176,-0.0,0.0,84.84133911132812,77.333251953125,8.201641082763672,74.59188842773438,-0.002750142415364583,0.005,0.0,-0.0,0.0,0.0,24.081859588623047,0.0834231906467014,0.20677502950032553
177,-0.0,0.0,84.90271759033203,41.900001525878906,8.222099304199219,75.16471099853516,-0.002750142415364583,0.005,0.0,-0.0,0.0,0.0,24.081859588623047,0.47780795627170136,0.2006376478407118
178,-0.0,0.0,84.90271759033203,77.35371398925781,8.263015747070312,75.4715805053711,-0.002522828843858507,0.005333333333333333,0.0,-0.0,0.0,0.0,24.081859588623047,0.08387781778971354,0.197682613796658
179,-0.0,0.0,84.98455047607422,77.35371398925781,8.263015747070312,75.57386779785156,-0.0022955152723524307,0.004666666666666667,0.0,-0.0,0.0,0.0,24.081859588623047,0.08478707207573785,0.19654608832465278
180,-0.0,0.0,84.92317199707031,77.41508483886719,8.160724639892578,76.37173461914062,-0.0022955152723524307,0.005,0.0,-0.0,0.0,0.0,24.081859588623047,0.0834231906467014,0.1865443335639106
181,-0.0,0.0,85.0050048828125,41.900001525878906,7.669731140136719,77.19004821777344,-0.002522828843858507,0.005333333333333333,0.0,-0.0,0.0,0.0,24.081859588623047,0.4789444817437066,0.17199647691514758
182,-0.0,0.0,84.96409606933594,77.4764633178711,7.199199676513672,77.31279754638672,-0.002522828843858507,0.005,0.0,-0.0,0.0,0.0,24.081859588623047,0.08319591946072048,0.1654044681125217
183,-0.0,0.0,84.92317199707031,41.900001525878906,6.892326354980469,77.16959381103516,-0.0022955152723524307,0.004666666666666667,0.0,-0.0,0.0,0.0,23.993968963623047,0.4780352274576823,0.1635859171549479
184,-0.0,0.0,84.92317199707031,77.51737976074219,6.912784576416016,77.27188110351562,-0.002522828843858507,0.005333333333333333,0.0,-0.0,0.0,0.0,23.993968963623047,0.08228658040364584,0.16267670525444877
185,-0.0,0.0,84.86180114746094,41.900001525878906,6.749122619628906,77.45600891113281,-0.002522828843858507,0.005,0.0,-0.0,0.0,0.0,23.993968963623047,0.4773533291286892,0.15881237453884547
186,-0.0,0.0,84.90271759033203,77.435546875,7.2401123046875,77.08776092529297,-0.0022955152723524307,0.005333333333333333,0.0,-0.0,0.0,0.0,23.993968963623047,0.08296856350368924,0.16835945977105035
187,-0.0,0.0,84.92317199707031,77.45600891113281,7.0969085693359375,76.3921890258789,-0.002522828843858507,0.005,0.0,-0.0,0.0,0.0,23.993968963623047,0.08296847873263889,0.17449688381618925
188,-0.0,0.0,84.86180114746094,77.61967468261719,7.546985626220703,76.16715240478516,-0.002522828843858507,0.005,0.0,-0.0,0.0,0.0,23.993968963623047,0.08046807183159722,0.1819981469048394
189,-0.0,0.0,84.94363403320312,77.76287841796875,7.608356475830078,75.51249694824219,-0.002522828843858507,0.005333333333333333,0.0,-0.0,0.0,0.0,23.993968963623047,0.07978617350260417,0.18995399475097657
190,-0.0,0.0,84.88226318359375,77.8856201171875,7.608356475830078,75.36929321289062,-0.0022955152723524307,0.005,0.0,-0.0,0.0,0.0,23.993968963623047,0.077740478515625,0.19154514736599393
191,-0.0,0.0,85.06637573242188,77.8856201171875,7.853855133056641,75.24653625488281,-0.002522828843858507,0.005333333333333333,0.0,-0.0,0.0,0.0,23.993968963623047,0.07978617350260417,0.19563687642415364
192,-0.0,0.0,84.98455047607422,78.15158081054688,7.772022247314453,76.51493835449219,-0.002522828843858507,0.005333333333333333,0.0,-0.0,0.0,0.0,23.993968963623047,0.07592188517252604,0.18063426547580294
193,-0.0,0.0,84.98455047607422,78.37661743164062,7.587898254394531,76.63768005371094,-0.002522828843858507,0.004666666666666667,0.0,-0.0,0.0,0.0,23.993968963623047,0.07342147827148438,0.17722464667426216
194,-0.0,0.0,84.94363403320312,77.92654418945312,7.546985626220703,76.65814208984375,-0.0022955152723524307,0.004666666666666667,0.0,-0.0,0.0,0.0,23.993968963623047,0.07796766493055556,0.17654270595974392
195,-0.0,0.0,84.96409606933594,78.09020233154297,7.526527404785156,76.76043701171875,-0.002522828843858507,0.005,0.0,-0.0,0.0,0.0,23.993968963623047,0.07637659708658855,0.1751787821451823
196,-0.0,0.0,85.0050048828125,78.35615539550781,7.649272918701172,76.59677124023438,-0.0022955152723524307,0.004666666666666667,0.0,-0.0,0.0,0.0,23.993968963623047,0.07387610541449653,0.1783611297607422
197,-0.0,0.0,85.0459213256836,77.3946304321289,7.669731140136719,76.57630920410156,-0.0022955152723524307,0.004333333333333333,0.0,-0.0,0.0,0.0,23.993968963623047,0.08501434326171875,0.17881579928927951
198,-0.0,0.0,85.02546691894531,77.35371398925781,7.649272918701172,77.00592803955078,-0.002522828843858507,0.005,0.0,-0.0,0.0,0.0,23.993968963623047,0.08524169921875,0.173814943101671
199,-0.0,0.0,84.94363403320312,77.3946304321289,7.526527404785156,76.3921890258789,-0.002522828843858507,0.005333333333333333,0.0,-0.0,0.0,0.0,23.993968963623047,0.08387781778971354,0.17927042643229166
200,-0.0,0.0,84.90271759033203,77.3946304321289,7.772022247314453,76.14669799804688,-0.0022955152723524307,0.005,0.0,-0.0,0.0,0.0,23.993968963623047,0.0834231906467014,0.184725824991862
201,-0.0,0.0,84.94363403320312,77.41508483886719,7.956142425537109,75.67616271972656,-0.0022955152723524307,0.004666666666666667,0.0,-0.0,0.0,0.0,23.993968963623047,0.08365054660373264,0.19199977450900607
202,-0.0,0.0,84.96409606933594,77.3946304321289,7.976600646972656,75.45112609863281,-0.0022955152723524307,0.004333333333333333,0.0,-0.0,0.0,0.0,23.993968963623047,0.0841051737467448,0.1947274949815538
203,-0.0,0.0,84.92317199707031,77.3946304321289,7.8743133544921875,75.28746032714844,-0.002750142415364583,0.004333333333333333,0.0,-0.0,0.0,0.0,23.993968963623047,0.0836504618326823,0.19540947808159723
204,-0.0,0.0,84.88226318359375,77.41508483886719,7.915229797363281,75.328369140625,-0.002522828843858507,0.004333333333333333,0.0,-0.0,0.0,0.0,23.993968963623047,0.08296864827473958,0.19540956285264757
205,-0.0,0.0,84.98455047607422,77.435546875,7.915229797363281,75.49203491210938,-0.0022955152723524307,0.004666666666666667,0.0,-0.0,0.0,0.0,24.081859588623047,0.08387781778971354,0.19359105428059895
206,-0.0,0.0,84.94363403320312,77.4764633178711,7.8743133544921875,75.4715805053711,-0.002522828843858507,0.004333333333333333,0.0,-0.0,0.0,0.0,24.081859588623047,0.08296856350368924,0.1933636983235677
207,-0.0,0.0,84.94363403320312,77.55829620361328,7.8743133544921875,75.02149963378906,-0.002522828843858507,0.004333333333333333,0.0,-0.0,0.0,0.0,24.081859588623047,0.08205930921766492,0.19836459689670138
208,-0.0,0.0,84.94363403320312,77.51737976074219,8.01751708984375,74.18272399902344,-0.0022955152723524307,0.004333333333333333,0.0,-0.0,0.0,0.0,24.081859588623047,0.08251393636067708,0.20927547878689237
209,-0.0,0.0,84.92317199707031,77.61967468261719,8.30392837524414,73.54852294921875,-0.002522828843858507,0.004333333333333333,0.0,-0.0,0.0,0.0,24.081859588623047,0.08114997016059028,0.21950450473361546
210,-0.0,0.0,84.96409606933594,77.537841796875,8.651714324951172,72.64837646484375,-0.002522828843858507,0.004333333333333333,0.0,-0.0,0.0,0.0,24.081859588623047,0.08251393636067708,0.23337042066786023
211,-0.0,0.0,84.86180114746094,77.45600891113281,8.794921875,71.60501861572266,-0.002522828843858507,0.004333333333333333,0.0,-0.0,0.0,0.0,24.081859588623047,0.08228658040364584,0.24655448065863717
212,-0.0,0.0,84.96409606933594,77.64012145996094,8.958587646484375,71.56410217285156,-0.002522828843858507,0.004,0.0,-0.0,0.0,0.0,24.081859588623047,0.08137749565972222,0.2488276163736979
213,-0.0,0.0,84.84133911132812,77.4764633178711,9.183624267578125,71.318603515625,-0.002522828843858507,0.004333333333333333,0.0,-0.0,0.0,0.0,24.081859588623047,0.08183195326063368,0.2540557861328125
214,-0.0,0.0,84.90271759033203,77.537841796875,9.367744445800781,71.07310485839844,-0.002750142415364583,0.004333333333333333,0.0,-0.0,0.0,0.0,24.081859588623047,0.08183195326063368,0.25882932874891496
215,-0.0,0.0,84.84133911132812,77.76287841796875,9.531410217285156,70.99127960205078,-0.002068201700846354,0.004333333333333333,0.0,-0.0,0.0,0.0,24.081859588623047,0.07864956325954861,0.2615570068359375
216,-0.0,0.0,84.88226318359375,77.435546875,9.756446838378906,70.09112548828125,-0.0022955152723524307,0.004333333333333333,0.0,-0.0,0.0,0.0,24.081859588623047,0.08274129231770834,0.2740591261121962
217,-0.0,0.0,84.86180114746094,77.61967468261719,9.920112609863281,69.66150665283203,-0.002522828843858507,0.004,0.0,-0.0,0.0,0.0,24.081859588623047,0.08046807183159722,0.2806511773003472
218,-0.0,0.0,84.86180114746094,77.72195434570312,10.370189666748047,69.60013580322266,-0.002522828843858507,0.004333333333333333,0.0,-0.0,0.0,0.0,24.081859588623047,0.07933163113064236,0.2863339318169488
219,-0.0,0.0,84.88226318359375,77.59921264648438,10.370189666748047,69.74333953857422,-0.002522828843858507,0.004,0.0,-0.0,0.0,0.0,24.081859588623047,0.08092278374565973,0.2847427792019314
220,-0.0,0.0,84.82088470458984,77.64012145996094,10.022403717041016,69.68196105957031,-0.002750142415364583,0.004,0.0,-0.0,0.0,0.0,24.081859588623047,0.07978625827365451,0.2815604739718967
221,-0.0,0.0,84.82088470458984,77.80378723144531,9.981487274169922,69.2728042602539,-0.002750142415364583,0.004333333333333333,0.0,-0.0,0.0,0.0,24.081859588623047,0.0779677497016059,0.2856520334879557
222,-0.0,0.0,84.77996826171875,77.66058349609375,10.186065673828125,68.08624267578125,-0.002522828843858507,0.0036666666666666666,0.0,-0.0,0.0,0.0,24.081859588623047,0.07910427517361111,0.30110914442274306
223,-0.0,0.0,84.71859741210938,77.84471130371094,15.668807983398438,66.28593444824219,-0.002522828843858507,0.0036666666666666666,0.0,-0.0,0.0,0.0,24.081859588623047,0.0763765123155382,0.38203192816840276
224,-0.0,0.0,84.71859741210938,77.90608215332031,20.783309936523438,63.360443115234375,-0.0022955152723524307,0.0036666666666666666,0.0,-0.0,0.0,0.0,24.081859588623047,0.07569461398654515,0.47136518690321183
225,-0.0,0.0,84.69813537597656,77.8856201171875,20.926517486572266,63.21723937988281,-0.0022955152723524307,0.0036666666666666666,0.0,-0.0,0.0,0.0,24.081859588623047,0.07569461398654515,0.4745475345187717
226,-0.0,0.0,84.71859741210938,77.86516571044922,21.069721221923828,62.480751037597656,-0.0022955152723524307,0.0036666666666666666,0.0,-0.0,0.0,0.0,24.69709014892578,0.07614924112955729,0.4843218909369575
227,-0.0,0.0,84.69813537597656,78.11065673828125,20.98788833618164,62.460289001464844,-0.0022955152723524307,0.004,0.0,-0.0,0.0,0.0,25.224430084228516,0.07319420708550348,0.4836399926079644
228,-0.0,0.0,84.69813537597656,78.04928588867188,21.25384521484375,62.33754348754883,-0.0022955152723524307,0.004,0.0,-0.0,0.0,0.0,25.224430084228516,0.07387610541449653,0.4879589080810547
229,-0.0,0.0,84.73905181884766,77.92654418945312,21.376590728759766,62.296627044677734,-0.002068201700846354,0.004,0.0,-0.0,0.0,0.0,25.224430084228516,0.07569452921549479,0.4897773742675781
230,-0.0,0.0,84.77996826171875,77.9469985961914,21.4788818359375,62.41937255859375,-0.0022955152723524307,0.004,0.0,-0.0,0.0,0.0,25.224430084228516,0.07592188517252604,0.48955010308159724
231,-0.0,0.0,84.67768096923828,78.17203521728516,21.622089385986328,61.90792465209961,-0.002068201700846354,0.004333333333333333,0.0,-0.0,0.0,0.0,24.345529556274414,0.07228495279947916,0.4968240525987413
232,-0.0,0.0,84.69813537597656,78.41752624511719,21.76529312133789,60.9463996887207,-0.0022955152723524307,0.004,0.0,-0.0,0.0,0.0,24.081859588623047,0.0697845458984375,0.5090988159179688
233,-0.0,0.0,84.71859741210938,77.9469985961914,21.90850067138672,60.9463996887207,-0.0022955152723524307,0.004666666666666667,0.0,-0.0,0.0,0.0,24.081859588623047,0.07523998684353299,0.5106900109185113
234,-0.0,0.0,84.77996826171875,77.9469985961914,21.96987533569336,60.65998840332031,-0.0022955152723524307,0.004666666666666667,0.0,-0.0,0.0,0.0,24.081859588623047,0.07592188517252604,0.5145542992485894
235,-0.0,0.0,84.69813537597656,77.76287841796875,22.031246185302734,60.65998840332031,-0.0022955152723524307,0.004666666666666667,0.0,-0.0,0.0,0.0,23.993968963623047,0.07705841064453126,0.5152361975775824
236,-0.0,0.0,84.73905181884766,78.00836944580078,22.072162628173828,60.65998840332031,-0.0022955152723524307,0.004666666666666667,0.0,-0.0,0.0,0.0,23.993968963623047,0.07478535970052083,0.5156908247205946
237,-0.0,0.0,84.67768096923828,78.23341369628906,22.072162628173828,60.65998840332031,-0.0022955152723524307,0.004666666666666667,0.0,-0.0,0.0,0.0,23.993968963623047,0.07160296969943576,0.5156908247205946
238,-0.0,0.0,84.69813537597656,77.64012145996094,22.215370178222656,60.65998840332031,-0.0022955152723524307,0.004333333333333333,0.0,-0.0,0.0,0.0,23.993968963623047,0.07842237684461806,0.5172820197211372
239,-0.0,0.0,84.69813537597656,77.80378723144531,22.297203063964844,60.76227569580078,-0.0022955152723524307,0.004666666666666667,0.0,-0.0,0.0,0.0,23.993968963623047,0.07660386827256944,0.5170547485351562
240,-0.0,0.0,84.69813537597656,78.00836944580078,22.35857391357422,60.680442810058594,-0.002750142415364583,0.004666666666666667,0.0,-0.0,0.0,0.0,23.993968963623047,0.07433073255750867,0.5186459011501736
241,-0.0,0.0,84.69813537597656,78.13111877441406,22.399490356445312,60.700904846191406,-0.002522828843858507,0.005,0.0,-0.0,0.0,0.0,23.993968963623047,0.07296685112847222,0.5188731723361545
242,-0.0,0.0,84.67768096923828,78.60165405273438,22.35857391357422,60.782737731933594,-0.002522828843858507,0.005,0.0,-0.0,0.0,0.0,23.993968963623047,0.06751141018337674,0.5175092909071181
243,-0.0,0.0,84.73905181884766,77.70149993896484,22.35857391357422,60.82365417480469,-0.002522828843858507,0.004333333333333333,0.0,-0.0,0.0,0.0,23.993968963623047,0.0781950208875868,0.5170546637641059
244,-0.0,0.0,84.67768096923828,77.9879150390625,22.317657470703125,60.65998840332031,-0.0022955152723524307,0.004333333333333333,0.0,-0.0,0.0,0.0,23.993968963623047,0.07433073255750867,0.5184185451931423
245,-0.0,0.0,84.57539367675781,77.9879150390625,22.297203063964844,60.700904846191406,-0.002522828843858507,0.004333333333333333,0.0,-0.0,0.0,0.0,23.993968963623047,0.07319420708550348,0.5177366468641493
246,-0.0,0.0,84.554931640625,77.90608215332031,22.338119506835938,60.7418212890625,-0.002522828843858507,0.004666666666666667,0.0,-0.0,0.0,0.0,23.993968963623047,0.07387610541449653,0.5177366468641493
247,-0.0,0.0,84.554931640625,77.9879150390625,22.27674102783203,60.72135925292969,-0.002522828843858507,0.004333333333333333,0.0,-0.0,0.0,0.0,23.993968963623047,0.07296685112847222,0.5172820197211372
248,-0.0,0.0,84.554931640625,78.00836944580078,22.317657470703125,60.7418212890625,-0.0022955152723524307,0.004666666666666667,0.0,-0.0,0.0,0.0,23.993968963623047,0.07273957994249132,0.5175092909071181
249,-0.0,0.0,84.554931640625,77.9469985961914,22.317657470703125,60.76227569580078,-0.002522828843858507,0.005,0.0,-0.0,0.0,0.0,23.993968963623047,0.07342147827148438,0.5172820197211372
250,-0.0,0.0,84.554931640625,77.82424926757812,22.297203063964844,60.9463996887207,-0.002522828843858507,0.005333333333333333,0.0,-0.0,0.0,0.0,23.993968963623047,0.07478535970052083,0.5150089263916016
251,-0.0,0.0,84.554931640625,77.86516571044922,22.297203063964844,61.41693115234375,-0.002522828843858507,0.004666666666666667,0.0,-0.0,0.0,0.0,23.993968963623047,0.07433073255750867,0.5097807990180121
252,-0.0,0.0,84.57539367675781,77.78333282470703,22.317657470703125,61.56013870239258,-0.002068201700846354,0.004333333333333333,0.0,-0.0,0.0,0.0,23.993968963623047,0.07546734280056423,0.5084168752034505
253,-0.0,0.0,84.554931640625,77.84471130371094,22.27674102783203,62.010215759277344,-0.002522828843858507,0.004333333333333333,0.0,-0.0,0.0,0.0,23.993968963623047,0.07455800374348959,0.5029613918728298
254,-0.0,0.0,84.554931640625,77.80378723144531,22.27674102783203,62.910369873046875,-0.002750142415364583,0.004666666666666667,0.0,-0.0,0.0,0.0,23.993968963623047,0.07501271565755209,0.4929596794976128
255,-0.0,0.0,84.554931640625,77.66058349609375,22.010787963867188,62.583038330078125,-0.002750142415364583,0.005,0.0,-0.0,0.0,0.0,23.993968963623047,0.07660386827256944,0.49364166259765624
256,-0.0,0.0,84.5958480834961,77.68104553222656,22.072162628173828,61.478309631347656,-0.002750142415364583,0.005,0.0,-0.0,0.0,0.0,23.993968963623047,0.07683113945855034,0.5065983666314019
257,-0.0,0.0,84.57539367675781,77.74241638183594,22.113082885742188,60.65998840332031,-0.002750142415364583,0.004333333333333333,0.0,-0.0,0.0,0.0,23.993968963623047,0.07592196994357639,0.5161454942491319
258,-0.0,0.0,84.5958480834961,77.96745300292969,22.297203063964844,60.76227569580078,-0.002522828843858507,0.004,0.0,-0.0,0.0,0.0,23.993968963623047,0.07364883422851562,0.5170547485351562
259,-0.0,0.0,84.554931640625,77.72195434570312,22.37903594970703,60.61907196044922,-0.002750142415364583,0.0036666666666666666,0.0,-0.0,0.0,0.0,23.993968963623047,0.07592196994357639,0.5195551554361979
260,-0.0,0.0,84.57539367675781,77.86516571044922,22.27674102783203,60.88502502441406,-0.002522828843858507,0.004,0.0,-0.0,0.0,0.0,23.993968963623047,0.07455808851453993,0.5154635111490885
261,-0.0,0.0,84.554931640625,77.8856201171875,22.35857391357422,60.680442810058594,-0.002522828843858507,0.004333333333333333,0.0,-0.0,0.0,0.0,23.993968963623047,0.07410346137152778,0.5186459011501736
262,-0.0,0.0,84.49356079101562,77.70149993896484,22.338119506835938,60.639530181884766,-0.002750142415364583,0.0036666666666666666,0.0,-0.0,0.0,0.0,23.993968963623047,0.07546734280056423,0.5188732147216797
263,-0.0,0.0,84.5140151977539,77.72195434570312,22.37903594970703,60.59861373901367,-0.002522828843858507,0.0033333333333333335,0.0,-0.0,0.0,0.0,23.993968963623047,0.07546734280056423,0.519782469007704
264,-0.0,0.0,84.49356079101562,78.00836944580078,22.297203063964844,60.72135925292969,-0.0022955152723524307,0.0033333333333333335,0.0,-0.0,0.0,0.0,23.993968963623047,0.07205768161349826,0.5175093756781683
265,-0.0,0.0,82.85691833496094,78.17203521728516,22.35857391357422,60.59861373901367,-0.002750142415364583,0.0033333333333333335,0.0,-0.0,0.0,0.0,23.993968963623047,0.05205425686306424,0.5195551130506727
266,-0.0,0.0,83.06149291992188,78.09020233154297,22.37903594970703,60.680442810058594,-0.0022955152723524307,0.0033333333333333335,0.0,-0.0,0.0,0.0,23.993968963623047,0.055236562093098955,0.5188732571072049
267,-0.0,0.0,83.0410385131836,78.17203521728516,22.338119506835938,60.61907196044922,-0.002750142415364583,0.0033333333333333335,0.0,-0.0,0.0,0.0,23.993968963623047,0.05410003662109375,0.5191005282931858
268,-0.0,0.0,83.0001220703125,78.17203521728516,22.35857391357422,60.65998840332031,-0.0022955152723524307,0.0036666666666666666,0.0,-0.0,0.0,0.0,23.993968963623047,0.0536454094780816,0.5188731723361545
269,-0.0,0.0,83.24562072753906,78.17203521728516,22.338119506835938,60.59861373901367,-0.002750142415364583,0.003,0.0,-0.0,0.0,0.0,23.993968963623047,0.05637317233615451,0.5193278418646918
270,-0.0,0.0,83.22515869140625,78.06974792480469,22.338119506835938,60.61907196044922,-0.002522828843858507,0.0026666666666666666,0.0,-0.0,0.0,0.0,23.993968963623047,0.057282341851128474,0.5191005282931858
271,-0.0,0.0,83.28652954101562,78.06974792480469,22.317657470703125,60.578155517578125,-0.002522828843858507,0.0026666666666666666,0.0,-0.0,0.0,0.0,23.993968963623047,0.05796424018012153,0.5193277994791666
272,-0.0,0.0,83.42974090576172,78.13111877441406,22.35857391357422,60.61907196044922,-0.002750142415364583,0.0026666666666666666,0.0,-0.0,0.0,0.0,24.081859588623047,0.05887357923719618,0.5193277994791666
273,-0.0,0.0,83.38882446289062,78.06974792480469,22.338119506835938,60.61907196044922,-0.002750142415364583,0.0026666666666666666,0.0,-0.0,0.0,0.0,27.158010482788086,0.05910085042317708,0.5191005282931858
274,-0.0,0.0,83.47065734863281,78.02882385253906,22.317657470703125,60.578155517578125,-0.002522828843858507,0.0023333333333333335,0.0,-0.0,0.0,0.0,27.245899200439453,0.06046481662326389,0.5193277994791666
275,-0.0,0.0,83.49111938476562,78.02882385253906,22.338119506835938,60.65998840332031,-0.002522828843858507,0.0023333333333333335,0.0,-0.0,0.0,0.0,27.158010482788086,0.06069217258029514,0.5186459011501736
276,-0.0,0.0,83.552490234375,78.06974792480469,22.297203063964844,60.639530181884766,-0.002522828843858507,0.0023333333333333335,0.0,-0.0,0.0,0.0,27.245899200439453,0.06091935899522569,0.5184185875786675
277,-0.0,0.0,83.57295227050781,78.00836944580078,22.35857391357422,62.153419494628906,-0.002750142415364583,0.0023333333333333335,0.0,-0.0,0.0,0.0,27.50956916809082,0.061828698052300346,0.5022794935438368
278,-0.0,0.0,83.5934066772461,77.9469985961914,22.05170440673828,62.84899139404297,-0.002750142415364583,0.0026666666666666666,0.0,-0.0,0.0,0.0,27.245899200439453,0.0627378675672743,0.4911412556966146
279,-0.0,0.0,83.63432312011719,77.84471130371094,20.783309936523438,63.60594177246094,-0.002750142415364583,0.002,0.0,-0.0,0.0,0.0,24.081859588623047,0.06432902018229167,0.46863742404513886
280,-0.0,0.0,83.87982177734375,77.78333282470703,17.182701110839844,67.2679214477539,-0.00297745598687066,0.0016666666666666668,0.0,-0.0,0.0,0.0,23.993968963623047,0.06773876614040798,0.38794199625651044
281,-0.0,0.0,84.0025634765625,77.82424926757812,14.011711120605469,69.72288513183594,-0.00297745598687066,0.0013333333333333333,0.0,-0.0,0.0,0.0,23.993968963623047,0.06864793565538195,0.325431399875217
282,-0.0,0.0,84.24806213378906,77.80378723144531,12.190948486328125,74.08043670654297,-0.00297745598687066,0.0013333333333333333,0.0,-0.0,0.0,0.0,23.993968963623047,0.07160305447048611,0.25678346421983506
283,-0.0,0.0,84.28897857666016,77.76287841796875,8.222099304199219,75.65570068359375,-0.00297745598687066,0.001,0.0,-0.0,0.0,0.0,23.993968963623047,0.07251222398546008,0.19518220689561633
284,-0.0,0.0,84.53446960449219,77.64012145996094,8.713088989257812,75.28746032714844,-0.00297745598687066,0.001,0.0,-0.0,0.0,0.0,23.993968963623047,0.07660386827256944,0.20472920735677083
285,-0.0,0.0,84.49356079101562,77.76287841796875,8.631256103515625,75.28746032714844,-0.00297745598687066,0.001,0.0,-0.0,0.0,0.0,23.993968963623047,0.07478535970052083,0.20381995307074652
286,-0.0,0.0,84.5140151977539,77.72195434570312,8.692630767822266,75.3897476196289,-0.002750142415364583,0.0006666666666666666,0.0,-0.0,0.0,0.0,23.993968963623047,0.07546734280056423,0.20336536831325955
287,-0.0,0.0,84.63676452636719,77.76287841796875,8.876754760742188,75.14425659179688,-0.002750142415364583,0.0003333333333333333,0.0,-0.0,0.0,0.0,23.993968963623047,0.0763765123155382,0.2081388685438368
288,-0.0,0.0,84.6572265625,77.96745300292969,8.549427032470703,76.24897766113281,-0.00297745598687066,0.0003333333333333333,0.0,-0.0,0.0,0.0,23.993968963623047,0.07433081732855903,0.19222721523708766
289,-0.0,0.0,84.61630249023438,77.96745300292969,8.324386596679688,77.70149993896484,-0.002750142415364583,0.0003333333333333333,0.0,-0.0,0.0,0.0,23.993968963623047,0.07387610541449653,0.17358762953016493
290,-0.0,0.0,84.5958480834961,77.8856201171875,7.137825012207031,77.08776092529297,-0.002522828843858507,0.0,0.0,-0.0,0.0,0.0,23.993968963623047,0.07455808851453993,0.16722293429904514
291,-0.0,0.0,84.61630249023438,77.74241638183594,7.137825012207031,77.35371398925781,-0.002750142415364583,0.0003333333333333333,0.0,-0.0,0.0,0.0,23.993968963623047,0.0763765123155382,0.16426790025499133
292,-0.0,0.0,84.63676452636719,77.74241638183594,7.424236297607422,76.9854736328125,-0.002750142415364583,0.0003333333333333333,0.0,-0.0,0.0,0.0,23.993968963623047,0.07660386827256944,0.17154180738661023
293,-0.0,0.0,84.5958480834961,78.21295166015625,7.56744384765625,76.96501159667969,-0.002522828843858507,0.0,0.0,-0.0,0.0,0.0,23.993968963623047,0.0709210713704427,0.17336035834418403
294,-0.0,0.0,84.57539367675781,77.76287841796875,7.526527404785156,76.76043701171875,-0.002750142415364583,0.0,0.0,-0.0,0.0,0.0,23.993968963623047,0.07569461398654515,0.1751787821451823
295,-0.0,0.0,84.57539367675781,77.72195434570312,7.444694519042969,76.80134582519531,-0.002522828843858507,0.0,0.0,-0.0,0.0,0.0,23.993968963623047,0.07614932590060763,0.17381498548719618
296,-0.0,0.0,84.80043029785156,77.70149993896484,7.772022247314453,76.61722564697266,-0.002750142415364583,0.0,0.0,-0.0,0.0,0.0,23.993968963623047,0.07887700398763021,0.17949774000379776
297,-0.0,0.0,84.73905181884766,77.72195434570312,7.812938690185547,76.65814208984375,-0.002522828843858507,0.0003333333333333333,0.0,-0.0,0.0,0.0,23.993968963623047,0.0779677497016059,0.17949774000379776
298,-0.0,0.0,84.80043029785156,77.86516571044922,7.812938690185547,77.06730651855469,-0.002522828843858507,0.0,0.0,-0.0,0.0,0.0,23.993968963623047,0.0770584954155816,0.17495146857367622
299,-0.0,0.0,84.86180114746094,77.90608215332031,7.812938690185547,77.00592803955078,-0.002522828843858507,0.0,0.0,-0.0,0.0,0.0,23.993968963623047,0.0772857666015625,0.17563345167371963
300,-0.0,0.0,84.82088470458984,77.86516571044922,6.974159240722656,76.92410278320312,-0.002522828843858507,0.0,0.0,-0.0,0.0,0.0,23.993968963623047,0.0772857666015625,0.1672228495279948
301,-0.0,0.0,84.84133911132812,77.72195434570312,7.403778076171875,76.63768005371094,-0.002522828843858507,0.0003333333333333333,0.0,-0.0,0.0,0.0,23.993968963623047,0.07910427517361111,0.17517886691623263
302,-0.0,0.0,84.84133911132812,77.92654418945312,7.4856109619140625,77.04684448242188,-0.00297745598687066,0.0,0.0,-0.0,0.0,0.0,23.993968963623047,0.0768310546875,0.1715418497721354
303,-0.0,0.0,84.92317199707031,78.00836944580078,6.912784576416016,77.9469985961914,-0.002750142415364583,0.0,0.0,-0.0,0.0,0.0,23.993968963623047,0.07683113945855034,0.15517539978027345
304,-0.0,0.0,84.77996826171875,77.8856201171875,6.687747955322266,77.92654418945312,-0.002522828843858507,0.0,0.0,-0.0,0.0,0.0,23.993968963623047,0.07660386827256944,0.15290226406521268
305,-0.0,0.0,84.92317199707031,77.96745300292969,6.769580841064453,78.00836944580078,-0.002750142415364583,0.0003333333333333333,0.0,-0.0,0.0,0.0,23.993968963623047,0.0772857666015625,0.15290234883626302
306,-0.0,0.0,84.80043029785156,78.17203521728516,6.299045562744141,77.55829620361328,-0.002750142415364583,0.0003333333333333333,0.0,-0.0,0.0,0.0,23.993968963623047,0.07364883422851562,0.15267499287923178
307,-0.0,0.0,84.75950622558594,78.19248962402344,6.687747955322266,77.92654418945312,-0.002522828843858507,0.0003333333333333333,0.0,-0.0,0.0,0.0,23.993968963623047,0.07296685112847222,0.15290226406521268
308,-0.0,0.0,84.67768096923828,79.09264373779297,6.278587341308594,77.76287841796875,-0.002522828843858507,0.0,0.0,-0.0,0.0,0.0,23.993968963623047,0.06205596923828125,0.15017454359266494
309,-0.0,0.0,84.71859741210938,77.72195434570312,5.992176055908203,77.90608215332031,-0.002750142415364583,-0.0003333333333333333,0.0,-0.0,0.0,0.0,23.993968963623047,0.077740478515625,0.14540104336208767
310,-0.0,0.0,84.73905181884766,77.76287841796875,6.442253112792969,78.21295166015625,-0.002750142415364583,-0.0003333333333333333,0.0,-0.0,0.0,0.0,23.993968963623047,0.0775130377875434,0.1469922383626302
311,-0.0,0.0,84.77996826171875,77.80378723144531,6.299045562744141,78.31524658203125,-0.002750142415364583,0.0003333333333333333,0.0,-0.0,0.0,0.0,23.993968963623047,0.07751312255859374,0.14426443311903211
312,-0.0,0.0,84.84133911132812,77.68104553222656,6.176296234130859,77.90608215332031,-0.00297745598687066,0.0003333333333333333,0.0,-0.0,0.0,0.0,23.993968963623047,0.07955881754557291,0.1474468231201172
313,-0.0,0.0,84.77996826171875,77.68104553222656,6.2376708984375,78.13111877441406,-0.002750142415364583,0.0,0.0,-0.0,0.0,0.0,23.993968963623047,0.07887691921657985,0.14562835693359374
314,-0.0,0.0,84.80043029785156,77.64012145996094,5.644390106201172,77.90608215332031,-0.002522828843858507,0.0,0.0,-0.0,0.0,0.0,23.993968963623047,0.07955898708767362,0.14153675503200955
315,-0.0,0.0,84.77996826171875,77.70149993896484,6.258129119873047,78.51982116699219,-0.002522828843858507,0.0,0.0,-0.0,0.0,0.0,23.993968963623047,0.07864964803059896,0.14153675503200955
316,-0.0,0.0,84.90271759033203,77.72195434570312,5.808052062988281,78.49935913085938,-0.002522828843858507,-0.0003333333333333333,0.0,-0.0,0.0,0.0,23.993968963623047,0.07978625827365451,0.13676325480143228
317,-0.0,0.0,84.80043029785156,77.80378723144531,6.033092498779297,78.4789047241211,-0.002750142415364583,0.0,0.0,-0.0,0.0,0.0,23.993968963623047,0.077740478515625,0.13949097527398002
318,-0.0,0.0,84.75950622558594,77.76287841796875,5.357978820800781,78.33570098876953,-0.00297745598687066,0.0,0.0,-0.0,0.0,0.0,23.993968963623047,0.07774030897352431,0.13358086480034723
319,-0.0,0.0,84.77996826171875,77.72195434570312,6.196754455566406,77.9469985961914,-0.002522828843858507,-0.0003333333333333333,0.0,-0.0,0.0,0.0,23.993968963623047,0.07842237684461806,0.1472195095486111
320,-0.0,0.0,84.94363403320312,77.9469985961914,6.339962005615234,78.27432250976562,-0.002750142415364583,0.0,0.0,-0.0,0.0,0.0,23.993968963623047,0.07774039374457466,0.14517377217610677
321,-0.0,0.0,84.75950622558594,77.74241638183594,6.299045562744141,78.04928588867188,-0.00297745598687066,0.0,0.0,-0.0,0.0,0.0,23.993968963623047,0.07796766493055556,0.14721955193413627
322,-0.0,0.0,84.90271759033203,77.70149993896484,6.380878448486328,77.29234313964844,-0.00297745598687066,0.0,0.0,-0.0,0.0,0.0,23.993968963623047,0.08001352945963541,0.1565392812093099
