,WD,WS,AIL_1,AIL_2,ELEV_1,ELEV_2,RUDD,ALT,GS,TH,PTCH,ROLL,PLA_1,AIL,ELEV
4064,-0.36532623991088864,0.3585938262939453,84.86180114746094,84.45263671875,-7.039569854736328,87.68500518798828,0.3695854187011719,0.8986666666666666,0.48142857142857143,-0.024413331349690755,1.1425440311431885,-0.6921183043212906,43.68132781982422,0.004546271430121528,-0.10805083380805122
4065,-0.36532623991088864,0.3585938262939453,86.0074462890625,84.02302551269531,-6.855449676513672,87.54179382324219,0.3691307915581597,0.897,0.4810714285714286,-0.025420379638671876,1.06564199924469,-0.8788801604003922,43.68132781982422,0.022049119737413195,-0.104413816663954
4066,-0.36141998991088864,0.3585938262939453,84.77996826171875,83.92073059082031,-6.834991455078125,87.50088500976562,0.3682215372721354,0.897,0.4807142857142857,-0.02520676718817817,1.340291976928711,-0.9887415343017594,43.68132781982422,0.009547085232204862,-0.10373196072048611
4067,-0.37313873991088864,0.33867195129394534,84.71859741210938,84.39126586914062,-7.182777404785156,87.62362670898438,0.36890352037217883,0.896,0.48035714285714287,-0.025450897216796876,1.6698720455169678,-0.2966219359130875,43.68132781982422,0.003637017144097222,-0.10896004570855035
4068,-0.38485748991088864,0.3585938262939453,85.23004150390625,84.5958480834961,-7.285064697265625,87.93049621582031,0.3695854187011719,0.8953333333333333,0.47928571428571426,-0.02627485063340929,1.8236761093139648,0.19774800539016724,43.68132781982422,0.007046593560112847,-0.11350623236762153
4069,-0.38095123991088864,0.3585938262939453,85.23004150390625,83.73661041259766,-7.653308868408203,88.0737075805664,0.3684488932291667,0.8936666666666667,0.4782142857142857,-0.026671568552652996,1.3183200359344482,-0.15380539233398594,43.68132781982422,0.01659367879231771,-0.11918907165527344
4070,-0.38095123991088864,0.3585938262939453,83.87982177734375,83.75706481933594,-7.223690032958984,88.09416198730469,0.36867616441514756,0.893,0.4775,-0.026854663425021703,0.7580339908599854,0.373524010181427,43.68132781982422,0.0013639662000868055,-0.11464280022515191
4071,-0.37313873991088864,0.3785157012939453,84.63676452636719,83.98210144042969,-7.100944519042969,87.78729248046875,0.3709493001302083,0.8906666666666667,0.4775,-0.02810585233900282,0.35155200958251953,1.3842360973358154,43.68132781982422,0.007274034288194444,-0.10986929999457465
4072,-0.39266998991088864,0.3785157012939453,85.5982894897461,84.47309875488281,-7.080486297607422,87.64408874511719,0.3695854187011719,0.8886666666666667,0.47785714285714287,-0.02795326444837782,0.4614120125770569,1.7577600479125977,43.68132781982422,0.01250211927625868,-0.10805083380805122
4073,-0.39657623991088864,0.3785157012939453,85.20958709716797,84.47309875488281,-7.223690032958984,87.74638366699219,0.3682215372721354,0.8863333333333333,0.47785714285714287,-0.026549498240152996,0.4614120125770569,1.6259280443191528,43.153987884521484,0.008183203803168403,-0.11077859666612414
4074,-0.40048248991088864,0.3585938262939453,85.27096557617188,84.45263671875,-7.3668975830078125,88.09416198730469,0.36867616441514756,0.8833333333333333,0.4789285714285714,-0.025450897216796876,0.2746500074863434,1.6698720455169678,42.538761138916016,0.009092542860243056,-0.11623399522569444
4075,-0.38485748991088864,0.3785157012939453,85.25050354003906,84.43218231201172,-7.244148254394531,87.78729248046875,0.3684488932291667,0.88,0.4789285714285714,-0.024565919240315755,-0.2746511870117203,1.4391660690307617,42.538761138916016,0.009092458089192708,-0.11146045260959202
4076,-0.37313873991088864,0.3785157012939453,85.1072998046875,84.30943298339844,-7.203235626220703,87.91004180908203,0.3684488932291667,0.8766666666666667,0.48,-0.023345247904459635,-0.49437012011718906,1.252403974533081,42.362979888916016,0.008865186903211806,-0.11236974928114149
4077,-0.36532623991088864,0.3785157012939453,85.06637573242188,84.30943298339844,-7.182777404785156,87.86912536621094,0.3695854187011719,0.873,0.48035714285714287,-0.02282645967271593,-0.5492998533935562,1.4391660690307617,42.362979888916016,0.008410474989149305,-0.11168780856662326
4078,-0.37313873991088864,0.3785157012939453,85.1072998046875,84.30943298339844,-7.162319183349609,87.84866333007812,0.37004004584418404,0.8676666666666667,0.48142857142857143,-0.022246646881103515,-0.5163427763671891,1.6698720455169678,42.362979888916016,0.008865186903211806,-0.11123313903808593
4079,-0.36923248991088864,0.3785157012939453,85.08683776855469,84.26852416992188,-7.203235626220703,87.84866333007812,0.36867616441514756,0.8643333333333333,0.48178571428571426,-0.020934433407253688,-0.6371885710449234,1.6149420738220215,42.275089263916016,0.00909237331814236,-0.11168776618109809
4080,-0.37313873991088864,0.3585938262939453,85.06637573242188,84.32989501953125,-7.264606475830078,87.88958740234375,0.36867616441514756,0.8603333333333333,0.4828571428571429,-0.019622219933403864,-0.6811319761962906,1.7138160467147827,42.275089263916016,0.008183119032118056,-0.11282437642415365
4081,-0.38485748991088864,0.3585938262939453,85.16867065429688,85.23004150390625,-6.875904083251953,87.72592163085938,0.3695854187011719,0.8556666666666667,0.4835714285714286,-0.01873723136054145,-0.8678938322753922,1.2304320335388184,42.275089263916016,-0.0006818983289930556,-0.10668695237901475
4082,-0.37313873991088864,0.3585938262939453,86.31431579589844,85.12775421142578,-7.1418609619140625,87.78729248046875,0.3682215372721354,0.8513333333333334,0.485,-0.01751656002468533,-0.845923083374025,0.5602860450744629,42.362979888916016,0.013184017605251737,-0.1103239271375868
4083,-0.38095123991088864,0.3585938262939453,85.92561340332031,84.96409606933594,-7.080486297607422,87.72592163085938,0.3684488932291667,0.847,0.4857142857142857,-0.01776070064968533,-0.7800070219726578,0.12084600329399109,42.362979888916016,0.010683525933159722,-0.10896008809407552
4084,-0.35751373991088864,0.3785157012939453,86.08927917480469,85.06637573242188,-7.67376708984375,88.36012268066406,0.36935814751519097,0.8426666666666667,0.48678571428571427,-0.018554136488172744,-0.823950427124025,-0.3845106535644547,42.362979888916016,0.011365593804253473,-0.12259877522786458
4085,-0.34970123991088864,0.39843757629394533,85.37325286865234,84.18669128417969,-7.632850646972656,88.42149353027344,0.3691307915581597,0.8373333333333334,0.48714285714285716,-0.018981361389160158,-1.2414194517822281,-0.8788801604003922,42.362979888916016,0.013184017605251737,-0.12282604641384548
4086,-0.36532623991088864,0.3785157012939453,85.0459213256836,84.41172790527344,-7.407814025878906,88.1555404663086,0.3695854187011719,0.8323333333333334,0.4882142857142857,-0.01980531480577257,-1.6918455534667984,-1.2304331236572281,42.362979888916016,0.007046593560112847,-0.11737060546875
4087,-0.36923248991088864,0.3585938262939453,85.18913269042969,84.28897857666016,-7.100944519042969,87.86912536621094,0.3679942660861545,0.8273333333333334,0.48892857142857143,-0.01974427964952257,-1.8126913481445328,-1.4281813078613297,42.362979888916016,0.010001712375217013,-0.11077855428059896
4088,-0.37313873991088864,0.3585938262939453,85.0459213256836,84.22760009765625,-7.1418609619140625,87.74638366699219,0.3684488932291667,0.8223333333333334,0.4907142857142857,-0.02038512759738498,-1.6479002409667984,-1.164517062255861,35.24388885498047,0.009092458089192708,-0.109869384765625
4089,-0.36923248991088864,0.3785157012939453,85.16867065429688,84.47309875488281,-7.121402740478516,87.72592163085938,0.3695854187011719,0.816,0.49178571428571427,-0.022002516852484808,-1.4721247130126969,-0.845923083374025,35.15599822998047,0.00772857666015625,-0.10941471523708768
4090,-0.37313873991088864,0.3785157012939453,84.94363403320312,84.08439636230469,-6.9781951904296875,87.66455078125,0.36867616441514756,0.81,0.49214285714285716,-0.02252129448784722,-1.3732515745849625,-1.2304331236572281,35.15599822998047,0.009547085232204862,-0.10714162190755208
4091,-0.38876373991088864,0.3585938262939453,86.39614868164062,85.5982894897461,-7.121402740478516,87.74638366699219,0.36935814751519097,0.8053333333333333,0.49178571428571427,-0.022429752349853515,-1.142544406005861,-1.153530734130861,35.15599822998047,0.008865102132161459,-0.10964207119411892
4092,-0.38876373991088864,0.3585938262939453,41.900001525878906,84.37080383300781,-6.998653411865234,87.66455078125,0.36890352037217883,0.7996666666666666,0.4907142857142857,-0.023192660013834635,-1.131558077880861,-2.197201388427736,34.980220794677734,-0.4718978034125434,-0.10736893547905815
4093,-0.39657623991088864,0.33867195129394534,84.96409606933594,84.30943298339844,-7.080486297607422,87.64408874511719,0.3679942660861545,0.7953333333333333,0.4907142857142857,-0.023711448245578342,-1.0216986113281266,-3.0321375303955094,34.980220794677734,0.007274034288194444,-0.10805083380805122
4094,-0.38485748991088864,0.33867195129394534,41.900001525878906,83.98210144042969,-6.998653411865234,87.74638366699219,0.36935814751519097,0.7906666666666666,0.48964285714285716,-0.025420379638671876,-1.0876146727294937,-2.7025572233886734,34.980220794677734,-0.4675788879394531,-0.10827818976508247
4095,-0.39657623991088864,0.33867195129394534,84.88226318359375,84.0434799194336,-6.9781951904296875,87.62362670898438,0.37004004584418404,0.786,0.48928571428571427,-0.02795326444837782,-1.2414194517822281,-1.9664942198486344,34.980220794677734,0.009319814046223958,-0.10668690999348958
4096,-0.40048248991088864,0.3585938262939453,84.86180114746094,84.1048583984375,-6.937278747558594,87.54179382324219,0.3698127746582031,0.7803333333333333,0.48857142857142855,-0.02996736102634006,-1.0766283446044937,-1.4831110411376969,34.980220794677734,0.008410474989149305,-0.10532302856445312
4097,-0.39266998991088864,0.3585938262939453,85.43462371826172,83.98210144042969,-7.510105133056641,87.72592163085938,0.3691307915581597,0.7756666666666666,0.4882142857142857,-0.030547184414333767,-0.9118391447753922,-1.3952223234863297,34.980220794677734,0.0161391364203559,-0.11373363071017795
4098,-0.39266998991088864,0.33867195129394534,85.61874389648438,85.90515899658203,-7.9192657470703125,88.33966064453125,0.3698127746582031,0.771,0.48714285714285716,-0.030943902333577473,-1.0326849394531266,-0.8788801604003922,34.980220794677734,-0.0031823900010850693,-0.12509918212890625
4099,-0.37704498991088864,0.3585938262939453,41.900001525878906,82.5091323852539,-7.387355804443359,88.50332641601562,0.36890352037217883,0.765,0.48678571428571427,-0.0322561158074273,-1.9664942198486344,-1.7907186918945328,34.980220794677734,-0.4512125651041667,-0.12100758022732205
4100,-0.38485748991088864,0.3585938262939453,84.554931640625,82.48867797851562,-7.489646911621094,88.05325317382812,0.3684488932291667,0.76,0.48642857142857143,-0.03265283372667101,-2.4169203215332047,-1.2524038725585953,25.312320709228516,0.0229583740234375,-0.1171433342827691
4101,-0.40048248991088864,0.33867195129394534,85.12775421142578,84.37080383300781,-7.510105133056641,88.1146240234375,0.3711766560872396,0.7533333333333333,0.48678571428571427,-0.03335471683078342,-2.4608656340332047,1.252403974533081,25.224430084228516,0.008410559760199653,-0.11805254618326823
4102,-0.40048248991088864,0.3585938262939453,41.900001525878906,83.73661041259766,-7.407814025878906,87.93049621582031,0.3698127746582031,0.7453333333333333,0.48714285714285716,-0.03365988201565213,-2.834389346191408,2.0214240550994873,25.224430084228516,-0.46485120985243056,-0.11487011379665799
4103,-0.36923248991088864,0.3785157012939453,85.41416931152344,84.77996826171875,-7.039569854736328,87.74638366699219,0.3684488932291667,0.7373333333333333,0.4875,-0.0323171509636773,-2.9772058897705094,1.9774800539016724,25.224430084228516,0.007046678331163195,-0.10873281690809462
4104,-0.40829498991088864,0.3585938262939453,85.37325286865234,84.61630249023438,-7.162319183349609,87.66455078125,0.36867616441514756,0.7306666666666667,0.4882142857142857,-0.030913384755452473,-2.834389346191408,2.04339599609375,25.224430084228516,0.008410559760199653,-0.10918744405110677
4105,-0.38095123991088864,0.3585938262939453,85.43462371826172,84.61630249023438,-6.998653411865234,87.66455078125,0.3698127746582031,0.722,0.48892857142857143,-0.02993684344821506,-2.9772058897705094,1.9005780220031738,25.224430084228516,0.009092458089192708,-0.10736893547905815
4106,-0.36923248991088864,0.3585938262939453,85.31187438964844,84.82088470458984,-7.203235626220703,87.84866333007812,0.3695854187011719,0.7146666666666667,0.49,-0.028197394476996526,-2.911289828369142,1.3183200359344482,25.224430084228516,0.005455440945095486,-0.11168776618109809
4107,-0.38876373991088864,0.3585938262939453,84.98455047607422,84.20714569091797,-7.407814025878906,87.88958740234375,0.3684488932291667,0.707,0.4907142857142857,-0.02743448681301541,-2.922276156494142,0.5053560137748718,25.224430084228516,0.008637830946180555,-0.11441557142469617
4108,-0.39266998991088864,0.33867195129394534,85.02546691894531,84.18669128417969,-7.305522918701172,88.1146240234375,0.3682215372721354,0.699,0.49107142857142855,-0.026732593112521703,-3.218899386474611,0.5053560137748718,25.224430084228516,0.009319729275173612,-0.11577941046820747
4109,-0.40438873991088864,0.33867195129394534,84.90271759033203,84.12531280517578,-7.121402740478516,87.74638366699219,0.3695854187011719,0.69,0.49178571428571427,-0.026610533396402996,-3.559464114257814,0.6701459884643555,25.224430084228516,0.008637830946180555,-0.10964207119411892
4110,-0.38876373991088864,0.33867195129394534,85.02546691894531,84.18669128417969,-6.8963623046875,87.58271789550781,0.36867616441514756,0.682,0.4928571428571429,-0.025908650292290582,-3.4386183195800797,0.48338401317596436,25.224430084228516,0.009319729275173612,-0.10532311333550347
4111,-0.40048248991088864,0.33867195129394534,85.02546691894531,84.16622924804688,-6.957736968994141,87.6031723022461,0.3698127746582031,0.6746666666666666,0.49357142857142855,-0.025634002685546876,-3.1310106688232437,0.5493000149726868,25.224430084228516,0.009547085232204862,-0.10623232523600261
4112,-0.41610748991088864,0.33867195129394534,84.96409606933594,84.16622924804688,-6.957736968994141,87.562255859375,0.3711766560872396,0.6656666666666666,0.4942857142857143,-0.026396910349527996,-2.966221468994142,0.7580339908599854,25.224430084228516,0.008865186903211806,-0.10577769809299045
4113,-0.40829498991088864,0.3585938262939453,85.06637573242188,84.20714569091797,-6.937278747558594,87.58271789550781,0.36935814751519097,0.6573333333333333,0.495,-0.02615278032090929,-2.801430361816408,0.5932440161705017,25.224430084228516,0.009547000461154514,-0.10577774047851562
4114,-0.42001373991088864,0.33867195129394534,84.90271759033203,84.16622924804688,-7.203235626220703,87.6031723022461,0.3695854187011719,0.649,0.4957142857142857,-0.02606122758653429,-2.5926958494873062,0.5932440161705017,25.224430084228516,0.008183203803168403,-0.10896008809407552
4115,-0.42391998991088864,0.33867195129394534,84.45263671875,83.73661041259766,-7.182777404785156,87.88958740234375,0.3691307915581597,0.6406666666666667,0.49607142857142855,-0.025756062401665582,-2.6695982390136734,0.4614120125770569,25.224430084228516,0.007955847846137152,-0.11191516452365452
4116,-0.42391998991088864,0.33867195129394534,84.28897857666016,83.5934066772461,-7.285064697265625,87.91004180908203,0.3698127746582031,0.6336666666666667,0.49642857142857144,-0.024687978956434462,-3.0101648741455094,0.5712720155715942,25.224430084228516,0.00772857666015625,-0.11327896118164063
4117,-0.41220123991088864,0.3187500762939453,85.29141998291016,84.24806213378906,-7.387355804443359,88.05325317382812,0.3695854187011719,0.627,0.4967857142857143,-0.023345247904459635,-3.163967745849611,1.8676199913024902,25.224430084228516,0.011592864990234375,-0.11600676642523872
4118,-0.42001373991088864,0.33867195129394534,85.39370727539062,84.6572265625,-7.67376708984375,88.13508605957031,0.3704946729871962,0.6193333333333333,0.49607142857142855,-0.02285697725084093,-3.273829119750978,2.3949480056762695,25.224430084228516,0.008183119032118056,-0.12009836832682291
4119,-0.43173248991088864,0.33867195129394534,85.5164566040039,84.69813537597656,-9.146743774414062,89.62850952148438,0.37026740180121526,0.611,0.4957142857142857,-0.02255181206597222,-3.4386183195800797,2.054382085800171,25.224430084228516,0.009092458089192708,-0.1530583699544271
4120,-0.43563873991088864,0.33867195129394534,85.57783508300781,84.92317199707031,-8.962623596191406,89.40347290039062,0.37072202894422746,0.6006666666666667,0.49392857142857144,-0.02252129448784722,-4.526232379028322,1.2743760347366333,25.224430084228516,0.007274034288194444,-0.1485121832953559
4121,-0.45126373991088864,0.33867195129394534,85.20958709716797,84.37080383300781,-10.005979537963867,90.50820922851562,0.3698127746582031,0.5936666666666667,0.4928571428571429,-0.022033034430609808,-5.075533526489259,0.3185940086841583,25.224430084228516,0.009319814046223958,-0.17237987518310546
4122,-0.45907623991088864,0.3187500762939453,85.68012237548828,84.96409606933594,-9.760482788085938,90.36500549316406,0.3682215372721354,0.587,0.48964285714285716,-0.02047668033175998,-5.9544130736084,-0.3735243254394547,25.224430084228516,0.007955847846137152,-0.16806098090277777
4123,-0.47470123991088864,0.29882820129394533,84.90271759033203,84.08439636230469,-10.476512908935547,90.97874450683594,0.3682215372721354,0.58,0.4875,-0.020049444834391274,-6.4817415648193375,-0.9447962218017594,25.224430084228516,0.009092458089192708,-0.18283619350857205
4124,-0.47470123991088864,0.3187500762939453,84.71859741210938,83.77752685546875,-10.496971130371094,90.79461669921875,0.3709493001302083,0.5723333333333334,0.48428571428571426,-0.021971999274359808,-6.778362887451173,-0.845923083374025,25.224430084228516,0.010456339518229166,-0.18101764255099825
4125,-0.48641998991088864,0.3187500762939453,86.29386138916016,84.24806213378906,-9.801399230957031,90.69232940673828,0.37004004584418404,0.564,0.48214285714285715,-0.02282645967271593,-7.371607440063478,-1.0876146727294937,25.224430084228516,0.022731102837456597,-0.17215254041883682
4126,-0.48641998991088864,0.3187500762939453,85.5982894897461,85.47554016113281,-9.617279052734375,90.2218017578125,0.3691307915581597,0.5546666666666666,0.48035714285714287,-0.02282645967271593,-7.283718722412111,-1.6149431639404312,25.224430084228516,0.0013638814290364584,-0.16487867567274306
4127,-0.47860748991088864,0.29882820129394533,87.27584838867188,85.29141998291016,-9.371780395507812,90.1195068359375,0.3691307915581597,0.546,0.4789285714285714,-0.023406283060709635,-6.745403903076173,-2.263117449829103,25.224430084228516,0.02204920450846354,-0.1610143025716146
4128,-0.48251373991088864,0.29882820129394533,85.98699188232422,85.49600219726562,-9.760482788085938,90.32408142089844,0.3698127746582031,0.537,0.47714285714285715,-0.02523728476630317,-6.262020724365236,-2.944248812744142,25.224430084228516,0.005455440945095486,-0.16760626898871528
4129,-0.47470123991088864,0.29882820129394533,84.24806213378906,83.96165466308594,-9.330867767333984,90.05813598632812,0.3679942660861545,0.5293333333333333,0.47535714285714287,-0.02728189892239041,-6.218077319213869,-3.856087344238283,25.224430084228516,0.003182305230034722,-0.15987781948513455
4130,-0.47079498991088864,0.29882820129394533,84.08439636230469,83.22515869140625,-9.801399230957031,90.26271057128906,0.37004004584418404,0.5213333333333333,0.47214285714285714,-0.02899083031548394,-5.9324404173584,-3.7791849547119156,25.224430084228516,0.009547085232204862,-0.16737899780273438
4131,-0.45516998991088864,0.29882820129394533,84.49356079101562,83.53202819824219,-9.658195495605469,90.34454345703125,0.36867616441514756,0.5133333333333333,0.47,-0.030455631679958767,-5.822580950805666,-2.900305407592775,25.224430084228516,0.010683695475260416,-0.1666970994737413
4132,-0.47079498991088864,0.29882820129394533,84.86180114746094,83.92073059082031,-9.45361328125,89.99675750732422,0.37026740180121526,0.5066666666666667,0.4675,-0.033019034067789714,-5.899483340332033,-1.4611383848876969,25.224430084228516,0.010456339518229166,-0.16055967542860244
4133,-0.48641998991088864,0.29882820129394533,85.20958709716797,84.57539367675781,-9.678653717041016,90.13996887207031,0.36935814751519097,0.49866666666666665,0.4657142857142857,-0.034026082356770834,-5.624832766601564,-0.6371885710449234,25.224430084228516,0.007046593560112847,-0.164651362101237
4134,-0.48641998991088864,0.29882820129394533,85.86424255371094,85.49600219726562,-9.678653717041016,90.2218017578125,0.3695854187011719,0.49166666666666664,0.4632142857142857,-0.034026082356770834,-5.624832766601564,-0.5932451658935562,25.224430084228516,0.004091559516059028,-0.16556061638726127
4135,-0.49032623991088864,0.29882820129394533,83.94119262695312,83.34790802001953,-9.555904388427734,90.13996887207031,0.3691307915581597,0.48433333333333334,0.4614285714285714,-0.03445331785413954,-5.745678561279298,-0.9557825499267594,25.224430084228516,0.0065920511881510414,-0.16328748067220053
4136,-0.49032623991088864,0.29882820129394533,84.22760009765625,83.28652954101562,-9.760482788085938,90.30363464355469,0.3695854187011719,0.477,0.4585714285714286,-0.035033130645751955,-5.811594622680666,-0.4284540587158219,25.136539459228516,0.010456339518229166,-0.16737908257378473
4137,-0.49423248991088864,0.29882820129394533,84.47309875488281,83.47065734863281,-10.29239273071289,90.99920654296875,0.3704946729871962,0.4696666666666667,0.4567857142857143,-0.035185718536376955,-5.9544130736084,0.5932440161705017,25.136539459228516,0.011138237847222222,-0.18101776970757377
4138,-0.5020449899108886,0.29882820129394533,84.96409606933594,85.18913269042969,-11.090253829956055,91.77660369873047,0.37004004584418404,0.4633333333333333,0.45357142857142857,-0.03481951819525825,-6.525684969970705,1.4062080383300781,25.136539459228516,-0.0025004069010416668,-0.19852063920762802
4139,-0.5059512399108886,0.29882820129394533,85.455078125,84.82088470458984,-10.94704818725586,91.59248352050781,0.3698127746582031,0.4573333333333333,0.45107142857142857,-0.033934529622395834,-7.51442398364258,1.5050820112228394,25.224430084228516,0.007046593560112847,-0.19488368564181857
4140,-0.5176699899108886,0.29882820129394533,84.92317199707031,84.06393432617188,-11.110712051391602,91.77660369873047,0.3711766560872396,0.4513333333333333,0.44642857142857145,-0.034087117513020834,-8.085697787353517,1.4391660690307617,25.224430084228516,0.009547085232204862,-0.19874795277913412
4141,-0.5176699899108886,0.3187500762939453,85.455078125,84.30943298339844,-10.353765487670898,91.42881774902344,0.37072202894422746,0.44533333333333336,0.4442857142857143,-0.03372091717190213,-8.162598269531252,1.307334065437317,25.224430084228516,0.012729390462239584,-0.1864731470743815
4142,-0.5137637399108886,0.29882820129394533,85.37325286865234,84.53446960449219,-10.046895980834961,90.73324584960938,0.36935814751519097,0.438,0.4407142857142857,-0.03259179857042101,-7.646256106445314,1.1205720901489258,25.224430084228516,0.009319814046223958,-0.17533490922715927
4143,-0.5020449899108886,0.3187500762939453,86.23248291015625,86.23248291015625,-10.681093215942383,91.1219482421875,0.37072202894422746,0.43133333333333335,0.4382142857142857,-0.0321950806511773,-6.613573687622072,0.8129640221595764,25.224430084228516,0.0,-0.18670046064588758
4144,-0.49813873991088864,0.29882820129394533,85.18913269042969,84.39126586914062,-10.16964340209961,90.85599517822266,0.3670850118001302,0.426,0.43357142857142855,-0.030730279286702473,-6.207090991088869,-0.15380539233398594,25.224430084228516,0.008865186903211806,-0.17806265089246961
4145,-0.5020449899108886,0.29882820129394533,84.88226318359375,84.32989501953125,-10.23101806640625,90.85599517822266,0.3691307915581597,0.42133333333333334,0.4307142857142857,-0.03018098407321506,-5.9434267454834,-0.3076082640380875,25.224430084228516,0.006137424045138889,-0.17874459160698786
4146,-0.49423248991088864,0.29882820129394533,84.20714569091797,83.92073059082031,-10.599262237548828,91.14241027832031,0.37072202894422746,0.4166666666666667,0.4257142857142857,-0.030943902333577473,-5.613846438476564,-0.05493034655761875,25.224430084228516,0.0031823900010850693,-0.1860185835096571
4147,-0.49813873991088864,0.29882820129394533,84.30943298339844,83.32745361328125,-11.028879165649414,91.7152328491211,0.3716311984592014,0.4126666666666667,0.42178571428571426,-0.031798362731933594,-5.734692233154298,0.373524010181427,25.224430084228516,0.010910881890190972,-0.19715680016411674
4148,-0.5020449899108886,0.3187500762939453,85.33233642578125,84.98455047607422,-10.742467880249023,91.30607604980469,0.3698127746582031,0.4096666666666667,0.4160714285714286,-0.031798362731933594,-6.316950457641603,0.9887400269508362,25.224430084228516,0.003864288330078125,-0.18942826588948566
4149,-0.5020449899108886,0.3187500762939453,85.08683776855469,84.39126586914062,-10.271934509277344,91.1219482421875,0.37026740180121526,0.4063333333333333,0.4125,-0.031737327575683594,-6.558642046997072,1.0107120275497437,25.224430084228516,0.00772857666015625,-0.1821542527940538
4150,-0.5059512399108886,0.3187500762939453,84.73905181884766,83.75706481933594,-10.29239273071289,90.95828247070312,0.37072202894422746,0.402,0.4075,-0.03118803236219618,-6.338923113891603,1.0546560287475586,25.224430084228516,0.01091096666124132,-0.18056305779351128
4151,-0.5020449899108886,0.3187500762939453,85.06637573242188,84.57539367675781,-10.29239273071289,90.89691162109375,0.36935814751519097,0.39766666666666667,0.4042857142857143,-0.03027253680759006,-6.053286212036134,1.175502061843872,25.224430084228516,0.005455356174045139,-0.17988115946451824
4152,-0.5020449899108886,0.3187500762939453,87.45996856689453,86.72348022460938,-9.719566345214844,90.54912567138672,0.3704946729871962,0.39266666666666666,0.3992857142857143,-0.029875818888346353,-6.020329135009767,1.0107120275497437,25.224430084228516,0.008183203803168403,-0.16965213351779515
4153,-0.49813873991088864,0.3187500762939453,84.554931640625,84.08439636230469,-9.45361328125,89.97630310058594,0.36890352037217883,0.388,0.3960714285714286,-0.029357030656602646,-5.822580950805666,-0.3845106535644547,32.25563049316406,0.005228169759114583,-0.16033240424262152
4154,-0.49423248991088864,0.29882820129394533,85.76194763183594,83.552490234375,-9.555904388427734,90.40591430664062,0.3679942660861545,0.38366666666666666,0.3921428571428571,-0.028685665130615233,-5.273281710693361,-1.0436712675781266,36.0349006652832,0.02454952663845486,-0.166242429945204
4155,-0.48641998991088864,0.29882820129394533,85.31187438964844,84.63676452636719,-9.699108123779297,90.28317260742188,0.36867616441514756,0.37966666666666665,0.3889285714285714,-0.028807735443115233,-5.130463259765627,-0.9008528166503922,38.05636978149414,0.007501220703125,-0.16646978590223524
4156,-0.48641998991088864,0.29882820129394533,84.20714569091797,83.47065734863281,-9.555904388427734,90.1195068359375,0.37004004584418404,0.37466666666666665,0.38571428571428573,-0.029753748575846353,-5.097504275390627,-0.812964098999025,38.14426040649414,0.008183203803168403,-0.16306012471516926
4157,-0.48641998991088864,0.29882820129394533,86.559814453125,85.455078125,-8.67620849609375,89.71034240722656,0.3695854187011719,0.37033333333333335,0.38357142857142856,-0.03015046649509006,-4.976658480712892,-0.2636648588867203,38.14426040649414,0.012274848090277778,-0.1487394544813368
4158,-0.49032623991088864,0.29882820129394533,87.66455078125,87.15309143066406,-8.553462982177734,89.0147705078125,0.37004004584418404,0.36633333333333334,0.38142857142857145,-0.030699761708577473,-4.449329989501955,-0.3295809202880875,38.320037841796875,0.005682881673177083,-0.13964703877766926
4159,-0.48251373991088864,0.29882820129394533,83.79798889160156,84.14576721191406,-8.798957824707031,89.2193603515625,0.36890352037217883,0.36233333333333334,0.38,-0.03146267996893989,-3.4386183195800797,-1.5819841795654312,38.320037841796875,-0.0038642035590277777,-0.14464797973632812
4160,-0.47860748991088864,0.29882820129394533,83.42974090576172,82.73416900634766,-9.126285552978516,89.73080444335938,0.3684488932291667,0.359,0.37642857142857145,-0.03161526785956489,-2.900305407592775,-1.7907186918945328,38.320037841796875,0.00772857666015625,-0.15396766662597655
4161,-0.48251373991088864,0.29882820129394533,86.35523986816406,85.70057678222656,-8.655750274658203,88.99431610107422,0.3704946729871962,0.355,0.37357142857142855,-0.03271386888292101,-3.1090380125732437,-0.6591612272949234,38.320037841796875,0.007274034288194444,-0.14055629306369358
4162,-0.48251373991088864,0.29882820129394533,85.31187438964844,85.0459213256836,-8.67620849609375,88.97386169433594,0.3709493001302083,0.352,0.3703571428571429,-0.033965047200520834,-3.0211512022705094,-0.4723993712158219,43.85710906982422,0.0029550340440538192,-0.14055633544921875
4163,-0.47470123991088864,0.29882820129394533,85.16867065429688,84.5958480834961,-9.412696838378906,90.05813598632812,0.36867616441514756,0.3496666666666667,0.36857142857142855,-0.034026082356770834,-2.6586119108886734,-0.5273291044921891,44.03289031982422,0.006364695231119792,-0.1607870313856337
4164,-0.48251373991088864,0.29882820129394533,85.37325286865234,84.63676452636719,-8.614837646484375,89.32164001464844,0.3684488932291667,0.3466666666666667,0.36642857142857144,-0.033965047200520834,-2.867346423217775,-0.3735243254394547,44.03289031982422,0.008183203803168403,-0.14373864067925346
4165,-0.48251373991088864,0.29882820129394533,85.35279846191406,84.75950622558594,-8.655750274658203,89.0761489868164,0.3691307915581597,0.3433333333333333,0.3653571428571429,-0.033904012044270834,-2.9881922178955094,-0.09887375170898594,44.03289031982422,0.006592135959201389,-0.1414655473497179
4166,-0.48251373991088864,0.29882820129394533,85.92561340332031,85.78240966796875,-8.860332489013672,89.32164001464844,0.3698127746582031,0.34,0.36428571428571427,-0.033995564778645834,-2.7794596129150406,0.17577600479125977,46.318031311035156,0.001591152615017361,-0.14646636115180123
4167,-0.47860748991088864,0.29882820129394533,85.96653747558594,85.29141998291016,-8.819416046142578,89.34210205078125,0.3695854187011719,0.337,0.36357142857142855,-0.033965047200520834,-2.7794596129150406,0.09887400269508362,46.318031311035156,0.007501305474175347,-0.1462390899658203
4168,-0.48251373991088864,0.29882820129394533,85.06637573242188,87.03034973144531,-9.249034881591797,89.6080551147461,0.3698127746582031,0.33366666666666667,0.3632142857142857,-0.034056599934895834,-2.801430361816408,-0.14281906420898594,46.40591812133789,-0.02182193332248264,-0.15396766662597655
4169,-0.48251373991088864,0.29882820129394533,84.57539367675781,83.90027618408203,-9.126285552978516,89.54668426513672,0.36867616441514756,0.33,0.3632142857142857,-0.034026082356770834,-2.9991785460205094,-0.6481748991699234,46.40591812133789,0.007501305474175347,-0.15192188686794705
4170,-0.48251373991088864,0.29882820129394533,87.37813568115234,84.28897857666016,-8.451171875,89.0147705078125,0.36890352037217883,0.32666666666666666,0.3625,-0.033934529622395834,-3.3727022581787125,-0.17577614123535312,46.40591812133789,0.034323967827690975,-0.13851047092013888
4171,-0.47860748991088864,0.29882820129394533,86.70301818847656,87.23492431640625,-9.105827331542969,89.34210205078125,0.3704946729871962,0.323,0.3628571428571429,-0.03454485999213325,-3.3397451811523453,-0.20873512561035312,46.40591812133789,-0.0059100680881076385,-0.1494214375813802
4172,-0.47470123991088864,0.29882820129394533,84.96409606933594,85.72103881835938,-8.983078002929688,89.46485137939453,0.36685774061414933,0.31833333333333336,0.3628571428571429,-0.034148152669270834,-3.240870135375978,-1.2414194517822281,46.40591812133789,-0.008410474989149305,-0.1494214375813802
4173,-0.47860748991088864,0.2789063262939453,84.69813537597656,84.14576721191406,-8.962623596191406,89.42393493652344,0.3684488932291667,0.31433333333333335,0.3628571428571429,-0.03466693030463325,-3.4056612425537125,-1.6479002409667984,46.40591812133789,0.006137424045138889,-0.14873953925238714
4174,-0.48251373991088864,0.29882820129394533,84.57539367675781,83.94119262695312,-8.798957824707031,89.38301849365234,0.3704946729871962,0.31,0.3628571428571429,-0.036162249247233075,-3.6473528319091812,-1.2963491850585953,46.40591812133789,0.007046678331163195,-0.1464664035373264
4175,-0.48251373991088864,0.29882820129394533,83.73661041259766,83.18424987792969,-8.778499603271484,89.26026916503906,0.37026740180121526,0.305,0.3628571428571429,-0.0376270506117079,-3.7022825651855484,-0.6591612272949234,46.40591812133789,0.006137339274088541,-0.14487520853678384
4176,-0.47860748991088864,0.29882820129394533,86.31431579589844,83.61386108398438,-8.758041381835938,89.17843627929688,0.3711766560872396,0.301,0.3632142857142857,-0.038206863403320315,-3.515520709106447,0.29662200808525085,46.40591812133789,0.030005052354600693,-0.14373864067925346
4177,-0.48641998991088864,0.29882820129394533,85.68012237548828,85.14820861816406,-8.819416046142578,89.23981475830078,0.3704946729871962,0.2966666666666667,0.36357142857142855,-0.03802376853095161,-3.4056612425537125,0.9887400269508362,46.40591812133789,0.005910152859157986,-0.14510256449381512
4178,-0.48641998991088864,0.29882820129394533,87.74638366699219,84.92317199707031,-8.798957824707031,89.2193603515625,0.36935814751519097,0.29233333333333333,0.36428571428571427,-0.037169297536214195,-3.3617159300537125,1.0986000299453735,46.40591812133789,0.0313690185546875,-0.14464797973632812
4179,-0.48641998991088864,0.29882820129394533,85.31187438964844,84.73905181884766,-8.778499603271484,89.2193603515625,0.3691307915581597,0.28833333333333333,0.36464285714285716,-0.03646741443210178,-3.3287588530273453,0.8788800239562988,46.40591812133789,0.006364695231119792,-0.14442066616482205
4180,-0.48641998991088864,0.3187500762939453,85.08683776855469,84.53446960449219,-8.696666717529297,89.03523254394531,0.3704946729871962,0.284,0.365,-0.03640637927585178,-3.251856463500978,0.6371880173683167,46.40591812133789,0.006137424045138889,-0.1414655473497179
4181,-0.48641998991088864,0.29882820129394533,85.1072998046875,84.49356079101562,-8.983078002929688,89.2193603515625,0.3679942660861545,0.2803333333333333,0.3653571428571429,-0.035002613067626955,-3.0431219511718766,0.6811320185661316,46.40591812133789,0.006819322374131944,-0.14669375949435765
4182,-0.48641998991088864,0.29882820129394533,86.0074462890625,85.57783508300781,-8.962623596191406,89.38301849365234,0.36867616441514756,0.2763333333333333,0.3653571428571429,-0.034148152669270834,-2.966221468994142,0.9887400269508362,46.40591812133789,0.004773457845052083,-0.148284912109375
4183,-0.49032623991088864,0.29882820129394533,85.37325286865234,84.92317199707031,-9.126285552978516,89.38301849365234,0.37026740180121526,0.273,0.3653571428571429,-0.033842976888020834,-3.0870672636718766,0.9118380546569824,46.40591812133789,0.00500089857313368,-0.15010337829589843
4184,-0.49032623991088864,0.29882820129394533,85.455078125,84.67768096923828,-9.146743774414062,89.62850952148438,0.36935814751519097,0.269,0.3653571428571429,-0.03317161136203342,-3.240870135375978,0.8129640221595764,46.40591812133789,0.008637746175130209,-0.1530583699544271
4185,-0.49813873991088864,0.29882820129394533,85.08683776855469,84.1048583984375,-8.983078002929688,89.40347290039062,0.3704946729871962,0.2653333333333333,0.365,-0.032927481333414714,-3.4715773039550797,0.6701459884643555,46.40591812133789,0.010910881890190972,-0.1487394544813368
4186,-0.49032623991088864,0.29882820129394533,85.12775421142578,84.57539367675781,-9.003536224365234,89.46485137939453,0.36890352037217883,0.26066666666666666,0.365,-0.031920433044433594,-3.570450442382814,0.5273280143737793,46.40591812133789,0.006137339274088541,-0.14964875115288628
4187,-0.49423248991088864,0.29882820129394533,87.72592163085938,87.0712661743164,-8.144302368164062,88.83065795898438,0.36935814751519097,0.257,0.3653571428571429,-0.030760796864827473,-3.6143938475341812,0.5273280143737793,46.40591812133789,0.0072739495171440975,-0.13305511474609374
4188,-0.49032623991088864,0.29882820129394533,84.1048583984375,86.0688247680664,-8.287506103515625,88.40103149414062,0.3691307915581597,0.253,0.3657142857142857,-0.03015046649509006,-3.0760809355468766,-0.3515516691894547,46.40591812133789,-0.02182184855143229,-0.12987263997395834
4189,-0.48641998991088864,0.29882820129394533,84.63676452636719,82.97966003417969,-8.901248931884766,89.58760070800781,0.36867616441514756,0.249,0.3657142857142857,-0.03008943133884006,-2.2960745268554703,-0.812964098999025,46.40591812133789,0.018412272135416668,-0.14987610710991753
4190,-0.48641998991088864,0.29882820129394533,85.47554016113281,84.75950622558594,-9.249034881591797,90.30363464355469,0.37140392727322047,0.24566666666666667,0.365,-0.030882867177327473,-2.4059339934082047,-0.3625379973144547,46.40591812133789,0.0079559326171875,-0.16169632805718315
4191,-0.48641998991088864,0.2789063262939453,85.06637573242188,84.35034942626953,-8.758041381835938,89.26026916503906,0.37026740180121526,0.242,0.36464285714285716,-0.030394596523708767,-3.0870672636718766,-0.3735243254394547,46.40591812133789,0.007955847846137152,-0.14464789496527777
4192,-0.47860748991088864,0.2789063262939453,87.13264465332031,85.35279846191406,-8.492088317871094,88.87156677246094,0.37072202894422746,0.239,0.36464285714285716,-0.029875818888346353,-3.0980535917968766,-0.13183273608398594,46.40591812133789,0.01977606879340278,-0.1373739454481337
4193,-0.48251373991088864,0.2789063262939453,86.92805480957031,86.6007308959961,-9.16720199584961,89.0147705078125,0.37026740180121526,0.23533333333333334,0.36428571428571427,-0.030333561367458767,-2.581711428710939,-0.5602861815185562,46.40591812133789,0.003636932373046875,-0.14646636115180123
4194,-0.49032623991088864,0.2789063262939453,83.79798889160156,83.94119262695312,-8.921707153320312,89.36256408691406,0.36890352037217883,0.232,0.36392857142857143,-0.030852349599202473,-2.3400179320068375,-1.505081790039064,46.40591812133789,-0.001591152615017361,-0.14760301378038193
4195,-0.48251373991088864,0.25898443222045897,83.92073059082031,83.26608276367188,-9.064910888671875,89.28073120117188,0.36890352037217883,0.229,0.3632142857142857,-0.030669244130452473,-2.4608656340332047,-1.120571749755861,46.40591812133789,0.00727386474609375,-0.148284912109375
4196,-0.48251373991088864,0.25898443222045897,85.20958709716797,83.65477752685547,-8.94216537475586,89.46485137939453,0.37208582560221354,0.22533333333333333,0.3625,-0.03103544447157118,-2.7355143004150406,-0.16478981311035312,46.40591812133789,0.01727566189236111,-0.14896685282389324
4197,-0.49813873991088864,0.25898443222045897,87.54179382324219,87.09172058105469,-9.023994445800781,89.58760070800781,0.3711766560872396,0.22266666666666668,0.36214285714285716,-0.03140164481268989,-2.966221468994142,0.5822579860687256,46.40591812133789,0.0050008138020833336,-0.1512399461534288
4198,-0.49813873991088864,0.2789063262939453,85.78240966796875,85.37325286865234,-8.962623596191406,89.32164001464844,0.3718585544162326,0.219,0.36214285714285716,-0.031889915466308594,-3.0650946074218766,0.2526780068874359,46.40591812133789,0.00454618665907118,-0.14760292900933158
4199,-0.49813873991088864,0.2789063262939453,83.4501953125,84.45263671875,-8.655750274658203,89.1579818725586,0.36935814751519097,0.21533333333333332,0.36214285714285716,-0.03152371512518989,-3.1090380125732437,-0.4394403868408219,46.40591812133789,-0.011138237847222222,-0.14237480163574218
4200,-0.48641998991088864,0.25898443222045897,87.1121826171875,87.23492431640625,-8.921707153320312,89.17843627929688,0.36867616441514756,0.211,0.36214285714285716,-0.030455631679958767,-3.0760809355468766,0.05493000149726868,46.40591812133789,-0.0013637966579861111,-0.1455571492513021
4201,-0.49813873991088864,0.25898443222045897,84.73905181884766,84.12531280517578,-8.758041381835938,89.17843627929688,0.3704946729871962,0.20733333333333334,0.36214285714285716,-0.030486149258083767,-3.1200243406982437,-0.04394401843261875,46.40591812133789,0.006819322374131944,-0.14373864067925346
4202,-0.49813873991088864,0.25898443222045897,84.53446960449219,84.14576721191406,-8.696666717529297,89.1170654296875,0.36890352037217883,0.20333333333333334,0.3625,-0.03005891376071506,-3.163967745849611,-0.19774879748535312,46.40591812133789,0.0043189154730902775,-0.14237480163574218
4203,-0.5020449899108886,0.25898443222045897,84.92317199707031,83.92073059082031,-8.67620849609375,89.0761489868164,0.3704946729871962,0.19933333333333333,0.3628571428571429,-0.029875818888346353,-3.1200243406982437,0.16479000449180603,46.40591812133789,0.011138237847222222,-0.14169286092122396
4204,-0.5098574899108886,0.25898443222045897,86.662109375,86.37569427490234,-8.655750274658203,89.0147705078125,0.37004004584418404,0.19566666666666666,0.3628571428571429,-0.029875818888346353,-2.966221468994142,0.6811320185661316,46.40591812133789,0.0031823900010850693,-0.14078356424967448
4205,-0.49813873991088864,0.25898443222045897,86.76439666748047,85.14820861816406,-8.655750274658203,89.05569458007812,0.3679942660861545,0.19133333333333333,0.3632142857142857,-0.028624629974365233,-2.801430361816408,0.5053560137748718,46.40591812133789,0.017957644992404515,-0.141238276163737
4206,-0.49032623991088864,0.239062557220459,86.04837036132812,86.13019561767578,-8.921707153320312,89.36256408691406,0.36867616441514756,0.18733333333333332,0.3632142857142857,-0.02731241650051541,-2.6146685057373062,0.010986000299453735,46.40591812133789,-0.0009091695149739584,-0.14760301378038193
4207,-0.49423248991088864,0.239062557220459,84.39126586914062,84.32989501953125,-8.921707153320312,89.44439697265625,0.37026740180121526,0.18466666666666667,0.3628571428571429,-0.026732593112521703,-2.6366411619873062,-0.6921183043212906,46.40591812133789,0.0006818983289930556,-0.14851226806640624
4208,-0.48641998991088864,0.219140682220459,84.47309875488281,83.83889770507812,-8.94216537475586,89.36256408691406,0.3684488932291667,0.18066666666666667,0.3628571428571429,-0.025847615136040582,-2.834389346191408,-0.4394403868408219,46.40591812133789,0.007046678331163195,-0.14783032735188803
4209,-0.5254824899108886,0.219140682220459,84.77996826171875,84.02302551269531,-8.860332489013672,89.50576782226562,0.37367706298828124,0.17666666666666667,0.3625,-0.025908650292290582,-3.0760809355468766,0.29662200808525085,46.40591812133789,0.008410474989149305,-0.14851222568088107
4210,-0.5137637399108886,0.219140682220459,87.03034973144531,84.32989501953125,-7.9806365966796875,88.91248321533203,0.3691307915581597,0.17333333333333334,0.3628571428571429,-0.024749014112684462,-3.4276319914550797,0.747048020362854,46.40591812133789,0.030005052354600693,-0.13214577568901908
4211,-0.5137637399108886,0.19921878814697266,87.43951416015625,86.78485107421875,-7.714683532714844,88.19645690917969,0.36776691012912327,0.16833333333333333,0.36357142857142855,-0.02270439995659722,-3.0980535917968766,0.7580339908599854,46.40591812133789,0.007274034288194444,-0.12123489379882812
4212,-0.5137637399108886,0.19921878814697266,87.99187469482422,86.88714599609375,-8.103385925292969,88.58515930175781,0.37004004584418404,0.16533333333333333,0.36392857142857143,-0.021941481696234808,-2.186215060302736,0.14281800389289856,46.40591812133789,0.01227476331922743,-0.1298727247450087
4213,-0.5059512399108886,0.19921878814697266,83.94119262695312,83.75706481933594,-8.758041381835938,89.28073120117188,0.3695854187011719,0.16166666666666665,0.36357142857142855,-0.021849928961859808,-1.6698728972167984,-1.4391657286376969,46.40591812133789,0.002045864529079861,-0.14487525092230902
4214,-0.5098574899108886,0.17929691314697266,83.40928649902344,82.75462341308594,-8.696666717529297,89.28073120117188,0.3682215372721354,0.158,0.3628571428571429,-0.021209081013997395,-1.8786074095459,-1.7138163023681656,46.40591812133789,0.007274034288194444,-0.1441933102077908
4215,-0.5098574899108886,0.17929691314697266,85.1072998046875,83.92073059082031,-9.064910888671875,89.30118560791016,0.3718585544162326,0.155,0.36214285714285716,-0.022277164459228515,-2.153256075927736,-0.4394403868408219,46.40591812133789,0.013184102376302083,-0.1485121832953559
4216,-0.5098574899108886,0.17929691314697266,84.96409606933594,84.53446960449219,-8.901248931884766,89.28073120117188,0.3716311984592014,0.15266666666666667,0.36178571428571427,-0.02313163545396593,-2.493822711059572,0.5273280143737793,46.40591812133789,0.004773627387152778,-0.14646644592285157
4217,-0.5176699899108886,0.19921878814697266,87.09172058105469,84.39126586914062,-8.819416046142578,89.19889831542969,0.3704946729871962,0.14933333333333335,0.36142857142857143,-0.023284212748209635,-2.834389346191408,0.9338099956512451,46.40591812133789,0.030005052354600693,-0.14464793735080295
4218,-0.49813873991088864,0.19921878814697266,87.39859008789062,86.88714599609375,-8.819416046142578,89.17843627929688,0.3711766560872396,0.14566666666666667,0.36178571428571427,-0.02267388237847222,-2.944248812744142,0.9338099956512451,46.40591812133789,0.005682712131076389,-0.1444205813937717
4219,-0.5137637399108886,0.19921878814697266,83.71615600585938,84.61630249023438,-8.614837646484375,89.05569458007812,0.37004004584418404,0.14233333333333334,0.36178571428571427,-0.022246646881103515,-2.9772058897705094,0.05493000149726868,46.40591812133789,-0.010001627604166667,-0.14078369140625
4220,-0.49813873991088864,0.17929691314697266,84.26852416992188,83.67523193359375,-8.73758316040039,89.48530578613281,0.36640311347113713,0.138,0.36178571428571427,-0.020842880672878688,-2.944248812744142,0.010986000299453735,46.40591812133789,0.006592135959201389,-0.14692098829481337
4221,-0.5293887399108886,0.19921878814697266,87.1121826171875,85.98699188232422,-8.655750274658203,89.2193603515625,0.37072202894422746,0.13433333333333333,0.36214285714285716,-0.021300633748372395,-3.0321375303955094,1.0107120275497437,46.40591812133789,0.01250211927625868,-0.1430567847357856
4222,-0.5020449899108886,0.219140682220459,85.20958709716797,84.30943298339844,-8.839874267578125,89.1579818725586,0.3729950798882378,0.13033333333333333,0.36214285714285716,-0.022307682037353515,-3.0431219511718766,0.747048020362854,46.40591812133789,0.010001712375217013,-0.14442062377929688
4223,-0.5137637399108886,0.19921878814697266,87.86912536621094,86.43707275390625,-8.717124938964844,89.09660339355469,0.3682215372721354,0.127,0.3625,-0.020232550303141274,-2.9991785460205094,0.7140899896621704,46.40591812133789,0.015911695692274304,-0.142374759250217
4224,-0.5098574899108886,0.19921878814697266,85.27096557617188,84.73905181884766,-8.73758316040039,89.2193603515625,0.3684488932291667,0.12233333333333334,0.3628571428571429,-0.019317044152153864,-3.0760809355468766,-0.03295769030761875,46.40591812133789,0.005910152859157986,-0.1439660390218099
4225,-0.49813873991088864,0.17929691314697266,85.16867065429688,84.67768096923828,-8.73758316040039,89.1579818725586,0.36890352037217883,0.11833333333333333,0.3632142857142857,-0.018126900990804037,-3.1090380125732437,-0.5273291044921891,46.40591812133789,0.005455440945095486,-0.1432840559217665
4226,-0.5332949899108886,0.17929691314697266,84.06393432617188,83.42974090576172,-8.860332489013672,89.32164001464844,0.37004004584418404,0.114,0.3632142857142857,-0.01766914791531033,-3.0760809355468766,-0.6701475554199234,46.40591812133789,0.007046593560112847,-0.14646636115180123
4227,-0.5332949899108886,0.15937503814697265,84.0025634765625,83.38882446289062,-8.573921203613281,89.34210205078125,0.36685774061414933,0.11,0.36357142857142855,-0.01599072880215115,-3.284815447875978,-0.4394403868408219,46.40591812133789,0.006819322374131944,-0.14351136949327256
4228,-0.5645449899108886,0.15937503814697265,84.45263671875,83.71615600585938,-8.533004760742188,89.0147705078125,0.37367706298828124,0.10566666666666667,0.36392857142857143,-0.016356929143269857,-3.3727022581787125,0.36253800988197327,46.40591812133789,0.008183119032118056,-0.1394197252061632
4229,-0.5137637399108886,0.15937503814697265,86.41661071777344,84.30943298339844,-8.94216537475586,89.38301849365234,0.3716311984592014,0.10133333333333333,0.36464285714285716,-0.016417964299519857,-3.207913058349611,1.2743760347366333,46.40591812133789,0.0234130859375,-0.14805759853786893
4230,-0.5293887399108886,0.15937503814697265,85.65966796875,86.08927917480469,-8.696666717529297,88.93293762207031,0.3698127746582031,0.097,0.365,-0.015868663787841797,-3.2957998686523453,1.1425440311431885,46.40591812133789,-0.004773457845052083,-0.14032893710666233
4231,-0.5450137399108886,0.15937503814697265,85.31187438964844,85.39370727539062,-8.655750274658203,89.03523254394531,0.3698127746582031,0.09266666666666666,0.3653571428571429,-0.01492264535692003,-3.2957998686523453,0.5273280143737793,46.40591812133789,-0.0009092542860243056,-0.14101092020670572
4232,-0.5528262399108886,0.15937503814697265,85.57783508300781,86.29386138916016,-8.717124938964844,89.03523254394531,0.36753963894314234,0.08833333333333333,0.3657142857142857,-0.012725448608398438,-3.0541082792968766,0.23070600628852844,46.40591812133789,-0.007955847846137152,-0.14169286092122396
4233,-0.5489199899108886,0.13945316314697265,85.63920593261719,85.31187438964844,-8.594379425048828,88.99431610107422,0.3679942660861545,0.08366666666666667,0.36607142857142855,-0.01132168240017361,-2.955235140869142,-0.03295769030761875,46.40591812133789,0.003637017144097222,-0.1398743947347005
4234,-0.5606387399108886,0.13945316314697265,85.92561340332031,86.33477783203125,-8.51254653930664,89.0761489868164,0.3684488932291667,0.08033333333333334,0.36642857142857144,-0.011657365163167318,-2.955235140869142,-0.2856375151367203,46.40591812133789,-0.004546271430121528,-0.1398743947347005
4235,-0.5567324899108886,0.15937503814697265,87.6031723022461,86.17111206054688,-8.696666717529297,89.03523254394531,0.36890352037217883,0.07633333333333334,0.36678571428571427,-0.012939066357082791,-2.7684732847900406,-0.21972145373535312,46.40591812133789,0.015911780463324653,-0.1414655473497179
4236,-0.5372012399108886,0.15937503814697265,85.43462371826172,86.0688247680664,-8.553462982177734,89.09660339355469,0.36935814751519097,0.073,0.36678571428571427,-0.014098697238498263,-2.6476274901123062,-1.2743765288085953,46.40591812133789,-0.007046678331163195,-0.14055629306369358
4237,-0.5645449899108886,0.15937503814697265,84.24806213378906,81.17935943603516,-9.555904388427734,89.44439697265625,0.3682215372721354,0.06966666666666667,0.36678571428571427,-0.014281797409057616,-2.526779788085939,-1.9335371428222672,46.40591812133789,0.03409669664171007,-0.15555890401204428
4238,-0.5840762399108886,0.13945316314697265,87.48042297363281,85.18913269042969,-8.635292053222656,89.09660339355469,0.3709493001302083,0.066,0.36642857142857144,-0.014220762252807616,-2.845373766967775,-0.5163427763671891,46.40591812133789,0.025458780924479167,-0.14146550496419272
4239,-0.5176699899108886,0.13945316314697265,84.24806213378906,83.98210144042969,-8.880790710449219,89.34210205078125,0.37140392727322047,0.06266666666666666,0.36642857142857144,-0.014190249972873263,-2.9881922178955094,-0.3845106535644547,46.40591812133789,0.0029551188151041665,-0.14692103068033854
4240,-0.5918887399108886,0.13945316314697265,84.18669128417969,83.552490234375,-8.94216537475586,89.2193603515625,0.37344970703125,0.059,0.36642857142857144,-0.014617480172051323,-3.0650946074218766,0.06591600179672241,44.91178894042969,0.007046678331163195,-0.14623917473687065
4241,-0.5684512399108886,0.13945316314697265,86.33477783203125,83.63432312011719,-8.778499603271484,89.44439697265625,0.3711766560872396,0.05566666666666667,0.36607142857142855,-0.013701979319254558,-3.0101648741455094,0.5822579860687256,44.64812088012695,0.030005052354600693,-0.14692107306586372
4242,-0.5372012399108886,0.1195312786102295,88.0737075805664,86.98943328857422,-8.860332489013672,89.13752746582031,0.36890352037217883,0.051333333333333335,0.3657142857142857,-0.012542348437839084,-3.1200243406982437,1.2963480949401855,44.56023025512695,0.012047492133246528,-0.14442066616482205
4243,-0.6036074899108886,0.15937503814697265,83.90027618408203,88.23736572265625,-8.533004760742188,89.0147705078125,0.37140392727322047,0.048,0.3653571428571429,-0.013427331712510851,-3.3067861967773453,0.3076080083847046,44.56023025512695,-0.04818988376193577,-0.1394197252061632
4244,-0.5372012399108886,0.13945316314697265,82.61141967773438,82.69325256347656,-7.857891082763672,88.68744659423828,0.3691307915581597,0.043666666666666666,0.3653571428571429,-0.013579914304945205,-3.3397451811523453,-1.3073355131835953,44.56023025512695,-0.0009092542860243056,-0.12828152974446613
4245,-0.5489199899108886,0.1195312786102295,87.74638366699219,83.20470428466797,-9.22857666015625,88.76927947998047,0.3698127746582031,0.03966666666666667,0.365,-0.012908548778957791,-2.7794596129150406,-0.6811319761962906,44.56023025512695,0.050463104248046876,-0.14442062377929688
4246,-0.5567324899108886,0.1195312786102295,85.5982894897461,87.62362670898438,-10.476512908935547,90.89691162109375,0.3711766560872396,0.03666666666666667,0.36428571428571427,-0.012786483764648438,-1.9774805479736344,-0.5822588377685562,44.56023025512695,-0.02250374688042535,-0.18192693922254774
4247,-0.5918887399108886,0.1195312786102295,82.91828918457031,83.5115737915039,-10.23101806640625,90.81507873535156,0.3723131815592448,0.03266666666666666,0.36142857142857143,-0.013640949461195205,-2.2960745268554703,-1.3293062620849625,40.42940139770508,-0.0065920511881510414,-0.1782899644639757
4248,-0.5215762399108886,0.09960939407348633,88.62606811523438,88.87156677246094,-9.494529724121094,90.46729278564453,0.3670850118001302,0.029,0.35964285714285715,-0.012206665674845378,-2.7245279722900406,-0.7800070219726578,39.28683090209961,-0.002727762858072917,-0.16624247233072917
4249,-0.5372012399108886,0.09960939407348633,89.34210205078125,82.20226287841797,-10.046895980834961,89.81263732910156,0.3709493001302083,0.025666666666666667,0.35642857142857143,-0.012786483764648438,-2.7465006285400406,-0.812964098999025,39.462608337402344,0.07933154635959201,-0.16510592566596138
4250,-0.5489199899108886,0.09960939407348633,85.16867065429688,84.88226318359375,-9.821857452392578,90.18087768554688,0.3791325039333767,0.022,0.3535714285714286,-0.013549396726820205,-2.263117449829103,-0.3954969816894547,39.462608337402344,0.003182305230034722,-0.16669705708821614
4251,-0.5098574899108886,0.07968751907348633,89.2193603515625,88.70790100097656,-8.16476058959961,88.74882507324219,0.3764047410753038,0.017,0.35,-0.010467216703626844,-2.186215060302736,-0.03295769030761875,39.462608337402344,0.005682881673177083,-0.13237317403157553
4252,-0.6465762399108886,0.07968751907348633,89.1579818725586,85.88470458984375,-7.3668975830078125,87.6031723022461,0.38004175821940106,0.013333333333333334,0.3482142857142857,-0.008422597249348959,-1.527054446289064,-0.4504267149658219,32.6071891784668,0.03636974758572049,-0.11077855428059896
4253,-0.5606387399108886,0.07968751907348633,83.61386108398438,86.1097412109375,-6.405372619628906,86.35523986816406,0.38549719916449654,0.01,0.345,-0.008270014656914605,-0.2746511870117203,-1.2633902006835953,25.224430084228516,-0.027732001410590276,-0.0862290276421441
4254,-0.7286074899108885,0.07968751907348633,79.60409545898438,85.5982894897461,-4.850563049316406,87.562255859375,0.38299679226345484,0.006333333333333333,0.3417857142857143,-0.005889712439643012,0.9997260570526123,-1.6588865690917984,25.136539459228516,-0.06660215589735242,-0.08236465454101563
4255,-0.7090762399108885,0.03984375953674316,91.61294555664062,86.70301818847656,-3.704914093017578,84.5958480834961,0.3864064534505208,0.003,0.3360714285714286,-0.004608016543918186,1.252403974533081,-0.07690300280761875,24.96076011657715,0.05455474853515625,-0.03667513529459635
4256,-0.7442324899108885,0.05976563930511475,82.01814270019531,82.38638305664062,-2.9888877868652344,84.5958480834961,0.39299850463867186,0.001,0.33285714285714285,-0.003631480534871419,2.120298147201538,-0.13183273608398594,24.96076011657715,-0.004091559516059028,-0.0287192874484592
4257,-0.8692324899108885,0.05976563930511475,90.93782806396484,91.34698486328125,-3.132091522216797,83.77752685546875,0.3884522332085503,-0.0003333333333333333,0.3267857142857143,0.0001831001705593533,2.922276020050049,1.2084600925445557,24.96076011657715,-0.00454618665907118,-0.021217981974283855
4258,-0.8692324899108885,0.05976563930511475,87.1121826171875,90.03767395019531,-0.7794227600097656,83.40928649902344,0.3889068603515625,-0.0016666666666666668,0.32285714285714284,0.0032042503356933595,2.658612012863159,-0.01098694140625156,24.96076011657715,-0.03250545925564236,0.009014341566297743
4259,-0.9043887399108885,0.03984375953674316,87.41905212402344,87.09172058105469,-0.5952987670898438,80.58607482910156,0.3864064534505208,-0.0016666666666666668,0.3171428571428571,0.005157317055596245,2.504807949066162,-1.4940973692626969,24.96076011657715,0.003637017144097222,0.04242918226453993
4260,-0.9395449899108885,0.05976563930511475,94.49752044677734,93.33141326904297,2.7598114013671875,78.45845031738281,0.3925438774956597,-0.0013333333333333333,0.3132142857142857,0.005004734463161893,2.5487520694732666,-0.9667688780517594,24.96076011657715,0.012956746419270833,0.10334845648871528
4261,-0.9043887399108885,0.03984375953674316,96.6865234375,95.76591491699219,11.249881744384766,67.12471771240234,0.3729950798882378,-0.0023333333333333335,0.3057142857142857,0.005004734463161893,1.1974740028381348,-0.6591612272949234,24.96076011657715,0.010228983561197917,0.3236129336886936
4262,-0.8575137399108885,0.03984375953674316,94.29293823242188,95.07034301757812,6.7082061767578125,73.60990142822266,0.3732224358452691,-0.0003333333333333333,0.3007142857142857,0.0027465025583902993,2.4169201850891113,-0.2636648588867203,24.96076011657715,-0.008637830946180555,0.20109227498372395
4263,-0.5997012399108886,0.01992187976837158,93.45416259765625,94.37477111816406,7.342403411865234,70.62303161621094,0.37549557156032987,0.0,0.2910714285714286,-0.0,2.5597381591796875,0.23070600628852844,24.96076011657715,-0.010228983561197917,0.24132635328504776
