,WD,WS,AIL_1,AIL_2,ELEV_1,ELEV_2,RUDD,ALT,GS,TH,PTCH,ROLL,PLA_1,AIL,ELEV
9437,0.10869417762044273,0.478125114440918,86.41661071777344,83.30699157714844,-6.405372619628906,86.96897888183594,0.3643572489420573,0.5833333333333334,0.41892857142857143,0.01107754177517361,1.6808580160140991,3.141996145248413,29.970489501953125,0.03455132378472222,-0.09304835001627604
9438,0.14775667762044273,0.478125114440918,82.97966003417969,82.32501220703125,-6.2007904052734375,87.35768127441406,0.36026568942599824,0.5853333333333334,0.4142857142857143,0.017363993326822917,1.812690019607544,1.494096040725708,30.058380126953125,0.00727386474609375,-0.09509412977430555
9439,0.17900667762044273,0.478125114440918,85.37325286865234,84.84133911132812,-6.67132568359375,87.6031723022461,0.36140221489800345,0.5853333333333334,0.4067857142857143,0.022033055623372395,1.4721240997314453,2.0983259677886963,30.058380126953125,0.005910152859157986,-0.10304997762044271
9440,0.16338167762044273,0.438281364440918,87.1121826171875,85.1072998046875,-6.67132568359375,87.88958740234375,0.36663038465711806,0.5863333333333334,0.4017857142857143,0.02017152574327257,1.06564199924469,2.3839621543884277,30.058380126953125,0.022276475694444443,-0.10623236762152778
9441,0.13213167762044273,0.41835948944091794,86.47798156738281,85.12775421142578,-7.346439361572266,88.33966064453125,0.3643572489420573,0.587,0.3942857142857143,0.018065897623697917,0.6921180486679077,2.054382085800171,30.058380126953125,0.015002526177300347,-0.11873444451226128
9442,0.11260042762044273,0.41835948944091794,86.94851684570312,85.0459213256836,-7.5919342041015625,88.68744659423828,0.3679942660861545,0.589,0.3889285714285714,0.01654006110297309,0.35155200958251953,1.7467740774154663,30.058380126953125,0.021139950222439235,-0.12532645331488715
9443,0.12041292762044273,0.39843757629394533,85.0459213256836,85.455078125,-8.062469482421875,89.52622985839844,0.360038333468967,0.59,0.38107142857142856,0.018462583753797744,0.373524010181427,0.9557820558547974,30.058380126953125,-0.00454618665907118,-0.13987443712022568
9444,0.11650667762044273,0.41835948944091794,86.19157409667969,84.86180114746094,-8.021553039550781,88.58515930175781,0.36390262179904515,0.5906666666666667,0.3757142857142857,0.018584654066297744,-0.7250772886962906,0.9118380546569824,30.058380126953125,0.014775254991319445,-0.12896347045898438
9445,0.09697542762044273,0.41835948944091794,86.41661071777344,84.16622924804688,-7.857891082763672,88.6056137084961,0.36458460489908856,0.5906666666666667,0.36857142857142855,0.016997782389322917,-0.4723993712158219,0.6481740474700928,30.058380126953125,0.02500423855251736,-0.12737227545844185
9446,0.09697542762044273,0.3585938262939453,85.82332611083984,83.77752685546875,-7.162319183349609,88.42149353027344,0.36412997775607636,0.5913333333333334,0.36428571428571427,0.01596022711859809,-0.4064833098144547,0.17577600479125977,30.058380126953125,0.022731102837456597,-0.11759791904025607
9447,0.10088167762044273,0.3585938262939453,87.03034973144531,84.35034942626953,-6.773616790771484,87.58271789550781,0.36640311347113713,0.5896666666666667,0.3578571428571429,0.01654006110297309,-0.48338379199218906,0.41746801137924194,29.970489501953125,0.02977778116861979,-0.10395927429199218
9448,0.07744417762044273,0.3785157012939453,86.80531311035156,83.98210144042969,-6.916820526123047,87.41905212402344,0.3695854187011719,0.5886666666666667,0.355,0.014342837863498263,-0.3185945921630875,0.010986000299453735,29.970489501953125,0.0313690185546875,-0.10373191833496094
9449,0.08135042762044273,0.3785157012939453,85.78240966796875,84.45263671875,-6.384914398193359,87.48042297363281,0.3629934522840712,0.5883333333333334,0.34964285714285714,0.014556460910373263,0.08788800239562988,-0.5383154326171891,29.970489501953125,0.014775254991319445,-0.09850374857584636
9450,0.07744417762044273,0.3785157012939453,86.68256378173828,83.96165466308594,-5.853004455566406,86.86668395996094,0.3652665032280816,0.5856666666666667,0.3457142857142857,0.013671493530273438,0.1538040041923523,-0.7800070219726578,29.970489501953125,0.0302323235405816,-0.0857743157280816
9451,0.08916292762044273,0.3785157012939453,85.61874389648438,82.77508544921875,-6.057586669921875,86.94851684570312,0.36208419799804686,0.5846666666666667,0.3410714285714286,0.014220767550998263,0.6152160167694092,-1.2304331236572281,29.970489501953125,0.031596204969618055,-0.08895670572916667
9452,0.11260042762044273,0.39843757629394533,84.69813537597656,83.16378784179688,-5.464302062988281,86.80531311035156,0.3586745368109809,0.584,0.33714285714285713,0.017211405436197917,0.9887400269508362,-1.4171949797363297,29.970489501953125,0.017048305935329862,-0.08077350192599826
9453,0.11650667762044273,0.438281364440918,85.31187438964844,84.45263671875,-6.4462890625,86.98943328857422,0.3616295708550347,0.5823333333333334,0.33214285714285713,0.017486063639322917,1.0546560287475586,-1.4831110411376969,29.970489501953125,0.009547085232204862,-0.0937302483452691
9454,0.12041292762044273,0.438281364440918,85.76194763183594,83.98210144042969,-6.773616790771484,87.76683807373047,0.3636753506130642,0.5816666666666667,0.32821428571428574,0.017791239420572917,1.3512780666351318,-1.164517062255861,29.970489501953125,0.01977606879340278,-0.1060050540500217
9455,0.12822542762044273,0.438281364440918,84.90271759033203,84.0025634765625,-7.121402740478516,87.88958740234375,0.362538825141059,0.5813333333333334,0.32107142857142856,0.017486063639322917,0.7360620498657227,-1.3073355131835953,32.07984924316406,0.010001712375217013,-0.11123322380913628
9456,0.13213167762044273,0.41835948944091794,85.90515899658203,85.14820861816406,-7.653308868408203,88.564697265625,0.365948486328125,0.582,0.3167857142857143,0.01672316657172309,0.35155200958251953,-0.9557825499267594,35.15599822998047,0.008410559760199653,-0.12464451260036892
9457,0.12822542762044273,0.41835948944091794,86.35523986816406,85.557373046875,-7.632850646972656,88.68744659423828,0.3632207234700521,0.582,0.31214285714285717,0.01556349860297309,-0.12084640795898594,-1.0546575957031266,38.407928466796875,0.008865186903211806,-0.12578108045789932
9458,0.10869417762044273,0.438281364440918,86.39614868164062,84.47309875488281,-7.7555999755859375,88.70790100097656,0.365948486328125,0.5823333333333334,0.3092857142857143,0.01184048122829861,-0.9228254729003922,-1.7797323637695328,41.74774932861328,0.02136722140842014,-0.12737223307291667
9459,0.11260042762044273,0.438281364440918,83.36836242675781,83.552490234375,-8.451171875,89.66943359375,0.35935643513997395,0.583,0.3067857142857143,0.01104702419704861,-1.131558077880861,-2.856360095092775,43.85710906982422,-0.002045864529079861,-0.14578450520833333
9460,0.13603792762044273,0.438281364440918,86.17111206054688,85.63920593261719,-7.612392425537109,88.6056137084961,0.3632207234700521,0.5823333333333334,0.3053571428571429,0.01226772732204861,-1.527054446289064,-1.9664942198486344,44.91178894042969,0.0059100680881076385,-0.12464451260036892
9461,0.12431917762044273,0.39843757629394533,85.61874389648438,84.08439636230469,-7.776058197021484,88.40103149414062,0.3623114691840278,0.5833333333333334,0.30428571428571427,0.008239491780598959,-1.7907186918945328,-1.7138163023681656,45.26335144042969,0.017048305935329862,-0.12418988545735678
9462,0.11650667762044273,0.41835948944091794,86.559814453125,85.70057678222656,-6.773616790771484,88.09416198730469,0.360038333468967,0.5823333333333334,0.30428571428571427,0.006103346082899305,-1.3402925902099625,-1.2414194517822281,46.58169937133789,0.009547085232204862,-0.10964198642306858
9463,0.10088167762044273,0.45820323944091795,85.78240966796875,84.63676452636719,-7.796516418457031,88.13508605957031,0.3609475877549913,0.582,0.305,0.004913202921549479,-1.0656420164794937,-1.2084604674072281,48.69105911254883,0.012729390462239584,-0.12146224975585937
9464,0.12431917762044273,0.438281364440918,81.36347961425781,78.31524658203125,-7.939720153808594,88.99431610107422,0.36049296061197916,0.579,0.305,0.006378004286024305,-0.10986007983398594,-2.1312853270263687,49.39418029785156,0.03386925591362847,-0.13260040283203126
9465,0.16338167762044273,0.41835948944091794,83.94119262695312,82.63188171386719,-6.528118133544922,87.41905212402344,0.3611749437120226,0.5773333333333334,0.30392857142857144,0.009734810723198786,-0.7140909605712906,-0.9447962218017594,49.21839904785156,0.014547899034288195,-0.09941300286187066
9466,0.17900667762044273,0.39843757629394533,84.67768096923828,82.16134643554688,-6.773616790771484,87.6031723022461,0.3643572489420573,0.5776666666666667,0.30392857142857144,0.010711373223198786,-0.6371885710449234,0.45042601227760315,48.339500427246094,0.02795927259657118,-0.1041865454779731
9467,0.17900667762044273,0.41835948944091794,83.79798889160156,82.36592102050781,-7.060028076171875,88.03279113769531,0.3632207234700521,0.5756666666666667,0.30428571428571427,0.01168789333767361,-0.2526785307617203,1.0986000299453735,49.7457389831543,0.015911865234375,-0.11214243570963542
9468,0.15556917762044273,0.41835948944091794,85.57783508300781,87.43951416015625,-6.957736968994141,87.93049621582031,0.36458460489908856,0.5743333333333334,0.3057142857142857,0.010863961113823786,-0.2746511870117203,2.0214240550994873,50.62464141845703,-0.020685323079427085,-0.10986925760904948
9469,0.11650667762044273,0.438281364440918,89.46485137939453,88.0123291015625,-8.001094818115234,88.23736572265625,0.3586745368109809,0.573,0.30642857142857144,0.008056428697374132,-0.3845106535644547,1.3952220678329468,50.712528228759766,0.0161391364203559,-0.12487178378634983
9470,0.08525667762044273,0.41835948944091794,85.86424255371094,76.4740219116211,-8.717124938964844,89.48530578613281,0.3695854187011719,0.5736666666666667,0.30642857142857144,0.0027770148383246527,-0.3954969816894547,-1.4062086516113297,50.712528228759766,0.10433578491210938,-0.1466936747233073
9471,0.12041292762044273,0.438281364440918,80.44287109375,82.65233612060547,-7.264606475830078,88.50332641601562,0.35844718085394967,0.5743333333333334,0.305,0.006683180067274305,-1.0986010008544937,-0.7470480375976578,48.339500427246094,-0.02454961140950521,-0.1196436987982856
9472,0.12041292762044273,0.438281364440918,82.9592056274414,84.88226318359375,-7.5919342041015625,88.0737075805664,0.36663038465711806,0.5726666666666667,0.30357142857142855,0.0076902177598741316,-1.0546575957031266,2.4828360080718994,47.81216049194336,-0.021367306179470486,-0.11850713094075521
9473,0.08916292762044273,0.41835948944091794,87.5213394165039,86.92805480957031,-7.735141754150391,88.89202880859375,0.3711766560872396,0.5733333333333334,0.30178571428571427,0.005065790812174479,-0.7360617094726578,4.5152459144592285,47.72426986694336,0.0065920511881510414,-0.12919078403049045
9474,0.06181917762044272,0.3785157012939453,88.0737075805664,84.98455047607422,-6.5894927978515625,88.09416198730469,0.36776691012912327,0.571,0.3,0.0032042609320746527,-1.2414194517822281,3.2848141193389893,47.72426986694336,0.034323967827690975,-0.10759616427951389
9475,0.09697542762044273,0.39843757629394533,85.70057678222656,85.61874389648438,-6.814533233642578,87.91004180908203,0.3554921468098958,0.571,0.29892857142857143,0.01110805935329861,-0.8898664885253922,1.6918439865112305,47.72426986694336,0.0009092542860243056,-0.10805083380805122
9476,0.10088167762044273,0.438281364440918,86.62118530273438,85.5164566040039,-7.44873046875,88.19645690917969,0.36276609632703993,0.569,0.29892857142857143,0.014007144504123263,-0.5383154326171891,1.3512780666351318,47.72426986694336,0.01227476331922743,-0.1182798597547743
9477,0.09306917762044273,0.41835948944091794,84.90271759033203,83.77752685546875,-7.694225311279297,88.62606811523438,0.3616295708550347,0.568,0.2985714285714286,0.012969589233398438,-0.5492998533935562,0.41746801137924194,47.72426986694336,0.01250211927625868,-0.12578103807237412
9478,0.10088167762044273,0.39843757629394533,85.18913269042969,84.90271759033203,-7.264606475830078,88.564697265625,0.36185684204101565,0.567,0.2982142857142857,0.013457870483398438,-0.9557825499267594,-0.03295769030761875,47.81216049194336,0.0031823900010850693,-0.12032559712727865
9479,0.09697542762044273,0.3785157012939453,85.86424255371094,85.5164566040039,-7.162319183349609,88.05325317382812,0.3623114691840278,0.566,0.2982142857142857,0.012542343139648438,-1.4831110411376969,-0.3076082640380875,47.987937927246094,0.003864288330078125,-0.11350635952419705
9480,0.08135042762044273,0.39843757629394533,86.70301818847656,85.68012237548828,-7.5305633544921875,88.36012268066406,0.3632207234700521,0.563,0.29892857142857143,0.010497750176323786,-1.3622652464599625,-0.801977770874025,47.987937927246094,0.011365509033203125,-0.12100762261284723
9481,0.08135042762044273,0.3785157012939453,86.37569427490234,83.53202819824219,-7.285064697265625,88.27828979492188,0.3650392320421007,0.5623333333333334,0.29964285714285716,0.008971913655598959,-1.2633902006835953,-1.175503390380861,47.987937927246094,0.0315962897406684,-0.11737060546875
9482,0.09697542762044273,0.39843757629394533,85.47554016113281,85.72103881835938,-7.489646911621094,88.29874420166016,0.3632207234700521,0.5603333333333333,0.3003571428571429,0.010894478691948786,-1.131558077880861,-0.5163427763671891,48.339500427246094,-0.002727762858072917,-0.11987101236979167
9483,0.10478792762044273,0.438281364440918,85.47554016113281,84.02302551269531,-7.632850646972656,88.564697265625,0.36208419799804686,0.5573333333333333,0.3007142857142857,0.01226772732204861,-1.3402925902099625,-1.0986010008544937,48.427391052246094,0.016139051649305555,-0.12441719902886285
9484,0.12822542762044273,0.438281364440918,85.25050354003906,83.0001220703125,-7.510105133056641,88.54424285888672,0.35821990966796874,0.5556666666666666,0.30107142857142855,0.015166812472873263,-1.7467752867431656,-1.8126913481445328,48.427391052246094,0.02500423855251736,-0.12282608879937065
9485,0.14775667762044273,0.438281364440918,84.5140151977539,84.37080383300781,-8.451171875,88.6669921875,0.3629934522840712,0.5536666666666666,0.30107142857142855,0.01666213141547309,-1.9555078917236344,-1.153530734130861,48.60316848754883,0.0015912373860677083,-0.1346462673611111
9486,0.12822542762044273,0.438281364440918,88.6669921875,84.49356079101562,-7.632850646972656,88.93293762207031,0.3711766560872396,0.551,0.30107142857142855,0.012878036499023438,-2.175228732177736,-0.9228254729003922,48.075828552246094,0.0463714599609375,-0.12850875854492189
9487,0.12431917762044273,0.45820323944091795,85.06637573242188,82.48867797851562,-7.039569854736328,88.31919860839844,0.3575379265679253,0.5486666666666666,0.3007142857142857,0.012633895874023438,-2.944248812744142,-2.0983263426513687,47.81216049194336,0.028641086154513887,-0.11509742736816406
9488,0.12822542762044273,0.45820323944091795,82.40684509277344,81.83401489257812,-7.735141754150391,87.91004180908203,0.36935814751519097,0.5456666666666666,0.3007142857142857,0.01147427029079861,-2.471850054809572,-0.7470480375976578,47.81216049194336,0.006364780002170139,-0.11827981736924913
9489,0.13213167762044273,0.438281364440918,82.73416900634766,81.85447692871094,-7.612392425537109,88.70790100097656,0.365948486328125,0.5423333333333333,0.3003571428571429,0.010924996270073786,-1.8126913481445328,0.373524010181427,46.40591812133789,0.009774356418185763,-0.12578103807237412
9490,0.12431917762044273,0.438281364440918,82.40684509277344,84.16622924804688,-6.855449676513672,87.95095825195312,0.365948486328125,0.5373333333333333,0.29892857142857143,0.010924996270073786,-2.3839632445068375,0.7800060510635376,46.318031311035156,-0.019548712836371527,-0.10896008809407552
9491,0.13213167762044273,0.39843757629394533,86.72348022460938,89.26026916503906,-7.7555999755859375,88.46240997314453,0.36458460489908856,0.5346666666666666,0.29928571428571427,0.01123012966579861,-2.3619905882568375,2.4828360080718994,46.142250061035156,-0.028186543782552084,-0.1246445549858941
9492,0.07353792762044273,0.3585938262939453,88.87156677246094,86.80531311035156,-7.3668975830078125,88.6056137084961,0.37004004584418404,0.5326666666666666,0.3003571428571429,0.0038451300726996527,-2.823403018066408,1.5709980726242065,46.318031311035156,0.0229583740234375,-0.12191679212782118
9493,0.06181917762044272,0.33867195129394534,85.76194763183594,82.28408813476562,-6.425830841064453,88.09416198730469,0.3623114691840278,0.529,0.30178571428571427,0.0020446353488498266,-3.163967745849611,-0.3295809202880875,46.318031311035156,0.03864288330078125,-0.10577769809299045
9494,0.10088167762044273,0.3187500762939453,80.27920532226562,78.29478454589844,-6.691783905029297,87.50088500976562,0.36072031656901044,0.526,0.30428571428571427,0.005523512098524305,-2.7794596129150406,-0.845923083374025,47.109039306640625,0.022049119737413195,-0.10214076571994357
9495,0.12041292762044273,0.3585938262939453,80.36103820800781,82.26363372802734,-7.1418609619140625,88.03279113769531,0.3609475877549913,0.522,0.30607142857142855,0.009399159749348959,-2.0324102812500016,1.2304320335388184,47.987937927246094,-0.021139950222439235,-0.11305168999565972
9496,0.10088167762044273,0.3585938262939453,86.27340698242188,87.25538635253906,-7.735141754150391,88.31919860839844,0.36572113037109377,0.5183333333333333,0.3082142857142857,0.008178499009874132,-2.208185809204103,2.7245280742645264,48.60316848754883,-0.010910881890190972,-0.12282600402832031
9497,0.08135042762044273,0.3187500762939453,88.13508605957031,88.29874420166016,-7.857891082763672,88.76927947998047,0.3598110622829861,0.5153333333333333,0.30964285714285716,0.0068662431504991316,-2.6915708952636734,1.450152039527893,49.13050842285156,-0.0018184238009982638,-0.12919078403049045
9498,0.08525667762044273,0.3187500762939453,87.80775451660156,83.08195495605469,-7.203235626220703,88.6669921875,0.36140221489800345,0.5113333333333333,0.31142857142857144,0.0076597001817491316,-3.185940402099611,-0.9667688780517594,49.13050842285156,0.05250888400607639,-0.12078030904134114
9499,0.10478792762044273,0.3785157012939453,83.47065734863281,83.16378784179688,-7.551021575927734,88.64653015136719,0.3589018079969618,0.5086666666666667,0.31285714285714283,0.010253609551323786,-3.592423098632814,-1.8126913481445328,47.987937927246094,0.003409661187065972,-0.12441724141438802
9500,0.12431917762044273,0.3585938262939453,86.13019561767578,85.41416931152344,-7.878349304199219,88.81019592285156,0.36208419799804686,0.5046666666666667,0.31357142857142856,0.01153530544704861,-3.1090380125732437,-0.3076082640380875,47.81216049194336,0.007955847846137152,-0.1298727247450087
9501,0.10869417762044273,0.3585938262939453,87.43951416015625,87.23492431640625,-7.9806365966796875,88.78973388671875,0.3629934522840712,0.5003333333333333,0.31357142857142856,0.009826363457573786,-3.185940402099611,-0.3295809202880875,46.933258056640625,0.0022732204861111113,-0.13078189425998263
9502,0.09306917762044273,0.39843757629394533,82.52958679199219,82.61141967773438,-7.571479797363281,88.50332641601562,0.3616295708550347,0.49566666666666664,0.31357142857142856,0.0071714189317491316,-3.7022825651855484,-2.208185809204103,46.66958999633789,-0.0009092542860243056,-0.12305340237087674
9503,0.12041292762044273,0.3785157012939453,85.25050354003906,83.53202819824219,-8.16476058959961,89.03523254394531,0.3595837910970052,0.49233333333333335,0.31392857142857145,0.008971913655598959,-3.7901712828369156,-2.4388929777832047,45.43912887573242,0.019094170464409723,-0.13555547926161024
9504,0.10869417762044273,0.39843757629394533,85.57783508300781,83.14332580566406,-8.635292053222656,89.19889831542969,0.36458460489908856,0.4886666666666667,0.3132142857142857,0.006652662489149305,-4.32848419482422,-0.801977770874025,44.99967956542969,0.02705010308159722,-0.14260211520724828
9505,0.07353792762044273,0.39843757629394533,83.79798889160156,83.552490234375,-7.510105133056641,89.567138671875,0.36549385918511285,0.4856666666666667,0.3132142857142857,0.000885009765625,-5.284266131469728,0.1867620050907135,43.505550384521484,0.002727762858072917,-0.13419159783257378
9506,0.03838167762044272,0.3585938262939453,82.91828918457031,75.55340576171875,-6.057586669921875,87.45996856689453,0.3636753506130642,0.4816666666666667,0.31214285714285717,-0.005157301161024305,-5.734692233154298,-1.1095873289794937,41.57196807861328,0.08183203803168403,-0.0946395026312934
9507,0.06181917762044272,0.41835948944091794,85.88470458984375,81.32257080078125,-8.533004760742188,88.76927947998047,0.35481024848090276,0.475,0.31142857142857144,-0.0022582160101996527,-3.7132688933105484,-0.5932451658935562,40.69306945800781,0.050690375434027775,-0.13669204711914062
9508,0.09697542762044273,0.41835948944091794,86.92805480957031,85.80287170410156,-7.878349304199219,89.0147705078125,0.35844718085394967,0.471,0.30964285714285716,0.0030516730414496527,-3.4166475706787125,1.219446063041687,40.42940139770508,0.012502034505208334,-0.13214577568901908
9509,0.08135042762044273,0.41835948944091794,82.40684509277344,83.28652954101562,-7.182777404785156,88.89202880859375,0.3616295708550347,0.4666666666666667,0.30857142857142855,0.0018615298800998264,-4.734966891357423,0.9228240251541138,40.42940139770508,-0.009774271647135417,-0.12305340237087674
9510,0.09306917762044273,0.438281364440918,81.97721862792969,80.72928619384766,-7.632850646972656,88.31919860839844,0.3570832994249132,0.462,0.30714285714285716,0.004241816202799479,-4.943701403686525,0.04394400119781494,40.34151077270508,0.013865915934244792,-0.12168943617078994
9511,0.12822542762044273,0.45820323944091795,89.1579818725586,86.39614868164062,-7.714683532714844,89.0147705078125,0.35731065538194445,0.4583333333333333,0.30642857142857144,0.010436715020073786,-4.31749786669922,1.8456480503082275,39.462608337402344,0.030687035454644098,-0.13032726711697049
9512,0.11650667762044273,0.45820323944091795,87.0712661743164,87.93049621582031,-6.9781951904296875,88.1146240234375,0.3629934522840712,0.4533333333333333,0.30392857142857144,0.010894478691948786,-4.559191363403322,3.2848141193389893,37.529029846191406,-0.009547000461154514,-0.11214243570963542
9513,0.11260042762044273,0.41835948944091794,82.61141967773438,82.16134643554688,-7.203235626220703,87.99187469482422,0.36026568942599824,0.449,0.3025,0.010894478691948786,-4.196652072021486,0.5602860450744629,37.529029846191406,0.0050008138020833336,-0.1132790035671658
9514,0.15947542762044273,0.41835948944091794,82.01814270019531,81.62944030761719,-6.548576354980469,88.03279113769531,0.35594677395290797,0.446,0.3007142857142857,0.016753641764322917,-3.581436770507814,-0.823950427124025,38.14426040649414,0.0043189154730902775,-0.10645963880750868
9515,0.18291292762044273,0.438281364440918,84.67768096923828,82.59095764160156,-6.037128448486328,87.25538635253906,0.3591291639539931,0.44133333333333336,0.29964285714285716,0.02081239488389757,-3.163967745849611,0.24169200658798218,39.28683090209961,0.023185814751519096,-0.09213905334472657
9516,0.19463167762044273,0.438281364440918,87.72592163085938,86.15065002441406,-6.691783905029297,87.562255859375,0.3623114691840278,0.438,0.2985714285714286,0.022734938727484808,-2.0104395323486344,1.922550082206726,41.74774932861328,0.01750301784939236,-0.10282266404893663
9517,0.17119417762044273,0.45820323944091795,89.23981475830078,87.25538635253906,-8.185218811035156,88.78973388671875,0.3632207234700521,0.43333333333333335,0.2985714285714286,0.02255181206597222,-1.2304331236572281,2.032410144805908,43.76921844482422,0.02204920450846354,-0.1330550299750434
9518,0.16728792762044273,0.438281364440918,86.84622192382812,87.05081176757812,-7.571479797363281,88.76927947998047,0.36276609632703993,0.42866666666666664,0.2982142857142857,0.02325371636284722,-2.6476274901123062,1.3622640371322632,45.17546081542969,-0.0022732204861111113,-0.12600843641493056
9519,0.16338167762044273,0.39843757629394533,90.81507873535156,85.86424255371094,-8.001094818115234,89.19889831542969,0.3636753506130642,0.42533333333333334,0.2985714285714286,0.021087010701497395,-4.053835528442384,0.1867620050907135,45.79069137573242,0.05500929090711806,-0.13555547926161024
9520,0.14775667762044273,0.3187500762939453,89.99675750732422,87.91004180908203,-6.7531585693359375,88.52378845214844,0.3684488932291667,0.42233333333333334,0.30107142857142855,0.01544142829047309,-4.723980563232423,0.4284540116786957,45.966468811035156,0.02318572998046875,-0.11418830023871528
9521,0.09306917762044273,0.3187500762939453,82.550048828125,82.71371459960938,-6.732700347900391,87.27584838867188,0.36344807942708335,0.417,0.3032142857142857,0.008727773030598959,-5.4600435667724625,-2.0214239531250016,46.054359436035156,-0.001818508572048611,-0.10009498596191406
9522,0.10869417762044273,0.3585938262939453,82.14088439941406,79.13356018066406,-6.037128448486328,87.68500518798828,0.35844718085394967,0.413,0.3075,0.010589302910698786,-4.943701403686525,-3.3617159300537125,46.40591812133789,0.03341471354166667,-0.09691259596082899
9523,0.13213167762044273,0.3585938262939453,85.23004150390625,80.66790771484375,-6.405372619628906,87.23492431640625,0.36140221489800345,0.4076666666666667,0.30857142857142855,0.010314644707573786,-4.086792605468752,-0.9887415343017594,46.84537124633789,0.050690375434027775,-0.09600329928927952
9524,0.09697542762044273,0.3585938262939453,86.94851684570312,84.39126586914062,-7.898807525634766,88.68744659423828,0.36412997775607636,0.40166666666666667,0.31,0.006164381239149305,-2.6915708952636734,1.5270540714263916,46.84537124633789,0.028413899739583335,-0.1287361568874783
9525,0.06963167762044273,0.3585938262939453,83.0410385131836,83.81844329833984,-6.548576354980469,87.91004180908203,0.36276609632703993,0.39466666666666667,0.3092857142857143,0.0028075324164496527,-3.1200243406982437,0.9777539968490601,45.70280075073242,-0.008637830946180555,-0.10509575737847222
9526,0.09306917762044273,0.3785157012939453,82.91828918457031,81.73172760009766,-7.244148254394531,88.09416198730469,0.35390099419487847,0.39166666666666666,0.30857142857142855,0.0073545244004991316,-3.229883807250978,-0.2856375151367203,45.52701950073242,0.013184017605251737,-0.11487011379665799
9527,0.10869417762044273,0.39843757629394533,88.13508605957031,84.86180114746094,-7.735141754150391,88.64653015136719,0.3611749437120226,0.38766666666666666,0.30857142857142855,0.009521230061848959,-2.9991785460205094,0.4284540116786957,45.43912887573242,0.03636983235677083,-0.12646302117241753
9528,0.12822542762044273,0.33867195129394534,90.61050415039062,88.70790100097656,-7.244148254394531,88.46240997314453,0.3609475877549913,0.38533333333333336,0.3078571428571429,0.010284127129448786,-2.955235140869142,1.7028300762176514,45.43912887573242,0.021140034993489584,-0.11896175808376735
9529,0.10478792762044273,0.33867195129394534,83.63432312011719,84.61630249023438,-7.019111633300781,88.25782775878906,0.3629934522840712,0.37866666666666665,0.3078571428571429,0.009032948811848959,-2.9772058897705094,0.5712720155715942,45.966468811035156,-0.010910881890190972,-0.11418821546766493
9530,0.10088167762044273,0.29882820129394533,81.91584777832031,80.21783447265625,-5.832546234130859,87.23492431640625,0.36140221489800345,0.37466666666666665,0.30857142857142855,0.006652662489149305,-3.3287588530273453,-1.6369139128417984,46.142250061035156,0.01886681450737847,-0.08963856167263455
9531,0.10869417762044273,0.3187500762939453,85.0459213256836,83.0410385131836,-6.405372619628906,87.29630279541016,0.3598110622829861,0.37033333333333335,0.30892857142857144,0.0072324540879991316,-2.7135435515136734,-1.153530734130861,47.987937927246094,0.022276475694444443,-0.09668528238932292
9532,0.12041292762044273,0.29882820129394533,86.33477783203125,85.76194763183594,-7.9192657470703125,88.78973388671875,0.36185684204101565,0.36733333333333335,0.31035714285714283,0.0074460771348741316,-1.7357889586181656,-0.09887375170898594,48.251609802246094,0.006364780002170139,-0.1300999959309896
9533,0.10088167762044273,0.3187500762939453,83.63432312011719,85.61874389648438,-7.060028076171875,88.1555404663086,0.362538825141059,0.36233333333333334,0.31107142857142855,0.005401441786024305,-2.7245279722900406,0.26366400718688965,48.86684036254883,-0.022049119737413195,-0.11350631713867188
9534,0.10478792762044273,0.33867195129394534,84.71859741210938,84.77996826171875,-7.796516418457031,88.76927947998047,0.3591291639539931,0.359,0.3125,0.006652662489149305,-3.4166475706787125,0.12084600329399109,49.21839904785156,-0.0006818983289930556,-0.12850884331597223
9535,0.10869417762044273,0.3785157012939453,88.09416198730469,83.77752685546875,-7.325981140136719,88.44195556640625,0.3591291639539931,0.356,0.3132142857142857,0.008575185139973959,-3.4276319914550797,0.0,49.21839904785156,0.04796261257595486,-0.11964374118381077
9536,0.10869417762044273,0.3585938262939453,87.72592163085938,86.17111206054688,-7.5305633544921875,88.70790100097656,0.3629934522840712,0.35233333333333333,0.3132142857142857,0.008239491780598959,-3.3397451811523453,0.10986000299453735,46.933258056640625,0.01727566189236111,-0.124871826171875
9537,0.10869417762044273,0.33867195129394534,82.20226287841797,83.79798889160156,-6.794075012207031,88.03279113769531,0.36276609632703993,0.34933333333333333,0.31285714285714283,0.006408521864149305,-3.3946749144287125,-1.4721247130126969,45.70280075073242,-0.017730289035373263,-0.1091874016655816
9538,0.12431917762044273,0.3785157012939453,84.22760009765625,83.36836242675781,-7.162319183349609,88.0123291015625,0.35821990966796874,0.3456666666666667,0.3117857142857143,0.009002431233723959,-2.812416689941408,-1.7687460356445328,45.26335144042969,0.009547085232204862,-0.11305164761013455
9539,0.14385042762044273,0.3585938262939453,86.27340698242188,85.18913269042969,-7.694225311279297,88.6056137084961,0.362538825141059,0.3423333333333333,0.3107142857142857,0.009612782796223959,-2.4059339934082047,-0.17577614123535312,45.17546081542969,0.012047492133246528,-0.12555376688639322
9540,0.11650667762044273,0.3585938262939453,83.96165466308594,83.77752685546875,-7.060028076171875,88.13508605957031,0.3643572489420573,0.3393333333333333,0.30964285714285716,0.006133863661024305,-2.812416689941408,0.26366400718688965,45.17546081542969,0.002045864529079861,-0.11327904595269098
9541,0.08916292762044273,0.3585938262939453,83.32745361328125,82.30455017089844,-7.305522918701172,87.99187469482422,0.3616295708550347,0.337,0.3092857142857143,0.0024413638644748266,-2.9772058897705094,0.20873400568962097,45.17546081542969,0.011365593804253473,-0.114415529039171
9542,0.08135042762044273,0.33867195129394534,81.93630981445312,82.71371459960938,-6.855449676513672,88.0123291015625,0.3611749437120226,0.333,0.30857142857142855,0.00103759765625,-2.493822711059572,0.5273280143737793,46.58169937133789,-0.008637830946180555,-0.10964198642306858
9543,0.08916292762044273,0.3785157012939453,82.30455017089844,81.62944030761719,-7.469188690185547,87.74638366699219,0.3570832994249132,0.3303333333333333,0.3078571428571429,0.0029601203070746527,-1.8786074095459,0.3185940086841583,46.58169937133789,0.007501220703125,-0.11350635952419705
9544,0.10869417762044273,0.3585938262939453,84.69813537597656,82.89783477783203,-8.267051696777344,89.34210205078125,0.35821990966796874,0.328,0.30642857142857144,0.005706617567274305,-1.5929705076904312,0.9118380546569824,46.58169937133789,0.02000333997938368,-0.1401017083062066
9545,0.10869417762044273,0.3585938262939453,87.27584838867188,85.92561340332031,-8.73758316040039,89.44439697265625,0.3616295708550347,0.326,0.3053571428571429,0.006683180067274305,-2.581711428710939,1.8566340208053589,46.58169937133789,0.015002610948350694,-0.14646644592285157
9546,0.10088167762044273,0.29882820129394533,84.18669128417969,83.38882446289062,-7.44873046875,88.95339965820312,0.3632207234700521,0.323,0.3057142857142857,0.004913202921549479,-3.7572122984619156,1.8456480503082275,46.58169937133789,0.008865186903211806,-0.1266903347439236
9547,0.09697542762044273,0.29882820129394533,84.98455047607422,82.05905151367188,-7.407814025878906,87.88958740234375,0.36026568942599824,0.31966666666666665,0.30607142857142855,0.004913202921549479,-4.229611056396486,0.790992021560669,47.54848861694336,0.03250554402669271,-0.11441557142469617
9548,0.12041292762044273,0.2789063262939453,84.49356079101562,84.5140151977539,-6.528118133544922,88.52378845214844,0.35935643513997395,0.31566666666666665,0.3082142857142857,0.007903840806749132,-3.3946749144287125,1.0986000299453735,47.81216049194336,-0.00022727118598090277,-0.11168785095214843
9549,0.10478792762044273,0.2789063262939453,85.90515899658203,83.36836242675781,-6.834991455078125,87.19401550292969,0.362538825141059,0.31066666666666665,0.30892857142857144,0.0075071122911241316,-3.570450442382814,1.494096040725708,48.075828552246094,0.02818662855360243,-0.10032229953342015
9550,0.06181917762044272,0.2789063262939453,83.12287139892578,82.12042999267578,-6.630409240722656,87.5213394165039,0.3632207234700521,0.30666666666666664,0.3107142857142857,0.0034484015570746527,-2.7355143004150406,1.263390064239502,48.075828552246094,0.011138237847222222,-0.10168609619140626
9551,0.08135042762044273,0.2789063262939453,84.554931640625,80.01325988769531,-6.834991455078125,88.0737075805664,0.3577652825249566,0.30233333333333334,0.3117857142857143,0.005492994520399305,-2.504809039184572,-0.2746511870117203,48.69105911254883,0.05046301947699653,-0.1100966559516059
9552,0.12431917762044273,0.3187500762939453,87.0098876953125,85.08683776855469,-6.957736968994141,88.0737075805664,0.3577652825249566,0.2986666666666667,0.31285714285714283,0.01119961208767361,-2.493822711059572,0.35155200958251953,48.86684036254883,0.02136722140842014,-0.11146049499511719
9553,0.13213167762044273,0.29882820129394533,85.37325286865234,85.92561340332031,-6.937278747558594,88.13508605957031,0.36208419799804686,0.29633333333333334,0.31392857142857145,0.01223720974392361,-2.4279066496582047,0.6921180486679077,48.86684036254883,-0.006137339274088541,-0.11191516452365452
9554,0.13994417762044273,0.29882820129394533,85.47554016113281,83.4501953125,-6.773616790771484,87.97142028808594,0.3616295708550347,0.29233333333333333,0.3142857142857143,0.012481307983398438,-2.241144793579103,-0.4614130430908219,48.86684036254883,0.022503831651475695,-0.10827818976508247
9555,0.15947542762044273,0.29882820129394533,86.0074462890625,86.19157409667969,-6.814533233642578,87.80775451660156,0.3611749437120226,0.28933333333333333,0.315,0.014495425754123263,-1.9555078917236344,-0.6262022429199234,48.86684036254883,-0.002045864529079861,-0.10691430833604601
9556,0.15947542762044273,0.2789063262939453,88.1146240234375,84.86180114746094,-6.794075012207031,87.95095825195312,0.3629934522840712,0.2856666666666667,0.31535714285714284,0.013030624389648438,-1.7687460356445328,-1.4501520567626969,48.69105911254883,0.03614247639973958,-0.1082781473795573
9557,0.15947542762044273,0.239062557220459,87.1121826171875,87.29630279541016,-7.346439361572266,88.09416198730469,0.36481187608506943,0.2823333333333333,0.31607142857142856,0.010253609551323786,-1.7357889586181656,-1.120571749755861,48.69105911254883,-0.002045779758029514,-0.11600668165418837
9558,0.06963167762044273,0.25898443222045897,81.87493133544922,85.23004150390625,-7.510105133056641,88.48286437988281,0.36935814751519097,0.281,0.3175,0.0013427310519748264,-2.164242404052736,-1.6369139128417984,48.86684036254883,-0.037279001871744794,-0.12214410569932725
9559,0.030569177620442724,0.25898443222045897,81.67034912109375,81.56806182861328,-8.062469482421875,88.76927947998047,0.36185684204101565,0.2776666666666667,0.3182142857142857,-0.004211298624674479,-2.3510042601318375,-2.6036821776123062,49.48207092285156,0.0011365254720052083,-0.13146387736002604
9560,0.03447542762044272,0.25898443222045897,85.06637573242188,83.49111938476562,-7.264606475830078,89.03523254394531,0.3616295708550347,0.275,0.3192857142857143,-0.005706617567274305,-3.0650946074218766,-1.8456484251709,49.7457389831543,0.017502848307291666,-0.12555376688639322
9561,0.04228792762044272,0.29882820129394533,81.5066909790039,81.9567642211914,-7.67376708984375,88.25782775878906,0.3609475877549913,0.2713333333333333,0.3192857142857143,-0.005859205457899305,-3.3067861967773453,-0.7140909605712906,48.60316848754883,-0.0050008138020833336,-0.12146216498480902
9562,0.05400667762044272,0.2789063262939453,84.02302551269531,83.26608276367188,-8.594379425048828,89.1579818725586,0.360038333468967,0.26866666666666666,0.3196428571428571,-0.005462476942274305,-3.185940402099611,0.1867620050907135,47.987937927246094,0.008410474989149305,-0.14169290330674914
9563,0.05791292762044272,0.2789063262939453,85.31187438964844,84.18669128417969,-7.735141754150391,89.26026916503906,0.3616295708550347,0.26566666666666666,0.3192857142857143,-0.004943678114149305,-3.9989038878173844,1.4281799793243408,46.142250061035156,0.012502034505208334,-0.13328234354654947
9564,0.06572542762044273,0.25898443222045897,87.80775451660156,86.84622192382812,-8.123844146728516,88.70790100097656,0.3609475877549913,0.26166666666666666,0.31892857142857145,-0.0036314646402994793,-4.4053865843505875,1.7907180786132812,45.52701950073242,0.010683695475260416,-0.13146383497450087
9565,0.05010042762044272,0.29882820129394533,85.84378051757812,85.31187438964844,-9.023994445800781,89.71034240722656,0.36140221489800345,0.25733333333333336,0.31857142857142856,-0.0033873240152994793,-4.548205035278322,1.1535300016403198,45.43912887573242,0.0059100680881076385,-0.15260374281141492
9566,0.04619417762044272,0.25898443222045897,85.1072998046875,83.42974090576172,-7.387355804443359,89.19889831542969,0.3611749437120226,0.25333333333333335,0.31892857142857145,-0.0036009470621744793,-5.811594622680666,0.20873400568962097,45.43912887573242,0.01863954332139757,-0.1287361568874783
9567,0.05791292762044272,0.29882820129394533,84.1048583984375,82.57050323486328,-7.489646911621094,88.38057708740234,0.35935643513997395,0.247,0.3192857142857143,-0.0016784244113498264,-6.338923113891603,-0.07690300280761875,43.68132781982422,0.017048390706380208,-0.12078026665581597
9568,0.10478792762044273,0.2789063262939453,87.562255859375,83.73661041259766,-6.282623291015625,87.39859008789062,0.36208419799804686,0.24166666666666667,0.3196428571428571,0.0024413638644748266,-5.9324404173584,-0.3954969816894547,43.505550384521484,0.042507171630859375,-0.09645792643229166
9569,0.15556917762044273,0.3187500762939453,84.43218231201172,82.71371459960938,-6.2007904052734375,86.88714599609375,0.3629934522840712,0.23533333333333334,0.32,0.008880360921223959,-4.482288973876955,-0.6811319761962906,43.505550384521484,0.019094085693359374,-0.08986596001519097
9570,0.17900667762044273,0.2789063262939453,87.09172058105469,86.31431579589844,-6.875904083251953,87.48042297363281,0.36776691012912327,0.22966666666666666,0.32035714285714284,0.009582265218098959,-2.900305407592775,0.8349360227584839,43.505550384521484,0.008637830946180555,-0.10395918952094184
9571,0.12822542762044273,0.25898443222045897,88.31919860839844,87.21446990966797,-6.814533233642578,87.19401550292969,0.3718585544162326,0.22566666666666665,0.32,0.005309931437174479,-2.7025572233886734,2.2631161212921143,44.03289031982422,0.01227476331922743,-0.10009498596191406
9572,0.11260042762044273,0.239062557220459,86.0074462890625,84.53446960449219,-6.2007904052734375,86.88714599609375,0.3682215372721354,0.22333333333333333,0.3192857142857143,0.005218378702799479,-2.515795367309572,0.6481740474700928,44.91178894042969,0.016366407606336807,-0.08986596001519097
9573,0.12822542762044273,0.29882820129394533,87.13264465332031,85.0459213256836,-7.735141754150391,88.46240997314453,0.36208419799804686,0.21966666666666668,0.31892857142857145,0.008880360921223959,-1.8017050200195328,-0.16478981311035312,44.99967956542969,0.023185814751519096,-0.12441724141438802
9574,0.13994417762044273,0.29882820129394533,86.21202850341797,84.35034942626953,-7.285064697265625,88.52378845214844,0.3595837910970052,0.213,0.3167857142857143,0.010711373223198786,-2.1312853270263687,-0.6811319761962906,45.43912887573242,0.020685323079427085,-0.12009836832682291
9575,0.10869417762044273,0.25898443222045897,88.0737075805664,87.58271789550781,-7.44873046875,88.19645690917969,0.37140392727322047,0.21433333333333332,0.31535714285714284,0.005218378702799479,-2.2850881987304703,1.2414180040359497,45.52701950073242,0.005455440945095486,-0.1182798597547743
9576,0.018850427620442724,0.219140682220459,87.39859008789062,86.84622192382812,-7.5305633544921875,88.29874420166016,0.3716311984592014,0.21266666666666667,0.31464285714285717,-0.0021971808539496527,-2.3510042601318375,0.9228240251541138,46.84537124633789,0.006137424045138889,-0.12032563951280383
9577,0.014944177620442724,0.239062557220459,84.98455047607422,85.31187438964844,-6.7531585693359375,88.23736572265625,0.36185684204101565,0.20933333333333334,0.31464285714285717,-0.0020140753851996527,-3.1529833250732437,-0.4504267149658219,47.284820556640625,-0.003636932373046875,-0.11100582546657986
9578,0.04228792762044272,0.19921878814697266,85.18913269042969,84.32989501953125,-6.794075012207031,87.39859008789062,0.36208419799804686,0.207,0.31535714285714284,-0.0008849673800998264,-3.3287588530273453,-0.7690206938476578,48.339500427246094,0.009547085232204862,-0.1021407233344184
9579,0.05400667762044272,0.219140682220459,83.08195495605469,84.45263671875,-7.162319183349609,88.13508605957031,0.36344807942708335,0.20366666666666666,0.31607142857142856,9.1552734375e-05,-2.7355143004150406,-1.120571749755861,49.13050842285156,-0.01522979736328125,-0.11441561381022135
9580,0.07744417762044273,0.2789063262939453,85.23004150390625,84.1048583984375,-7.080486297607422,88.19645690917969,0.3598110622829861,0.199,0.31785714285714284,0.0021667056613498266,-2.2960745268554703,-1.516068118164064,49.39418029785156,0.012502034505208334,-0.1141882578531901
9581,0.06963167762044273,0.2789063262939453,87.6031723022461,87.66455078125,-7.9192657470703125,88.78973388671875,0.3673123677571615,0.19733333333333333,0.31857142857142856,0.00048828125,-2.471850054809572,0.2197200059890747,49.39418029785156,-0.0006819831000434028,-0.1300999959309896
9582,0.04228792762044272,0.239062557220459,83.79798889160156,84.08439636230469,-8.16476058959961,88.76927947998047,0.3682215372721354,0.19233333333333333,0.3196428571428571,-0.0026244269476996527,-2.7794596129150406,-0.19774879748535312,49.48207092285156,-0.003182305230034722,-0.13260044521755643
9583,0.08525667762044273,0.29882820129394533,84.71859741210938,84.08439636230469,-7.162319183349609,88.6056137084961,0.35481024848090276,0.191,0.32,0.0028685675726996527,-3.4496046477050797,-1.4831110411376969,49.48207092285156,0.007046678331163195,-0.1196436987982856
9584,0.12822542762044273,0.2789063262939453,85.0050048828125,83.87982177734375,-7.9806365966796875,88.91248321533203,0.3609475877549913,0.187,0.32107142857142856,0.005248896280924479,-3.3836885863037125,-0.9997259550781266,49.48207092285156,0.012502034505208334,-0.13214577568901908
9585,0.09697542762044273,0.2789063262939453,87.58271789550781,84.69813537597656,-8.962623596191406,89.89447021484375,0.37072202894422746,0.18366666666666667,0.3217857142857143,0.0010986328125,-3.3836885863037125,0.1867620050907135,49.48207092285156,0.03205091688368056,-0.15396770901150172
9586,0.07353792762044273,0.239062557220459,87.37813568115234,86.80531311035156,-8.082927703857422,89.48530578613281,0.36685774061414933,0.18066666666666667,0.3225,-0.0010680728488498264,-4.460316317626955,1.2743760347366333,49.39418029785156,0.006364695231119792,-0.13964703877766926
9587,0.06181917762044272,0.239062557220459,84.18669128417969,84.71859741210938,-7.305522918701172,88.31919860839844,0.3632207234700521,0.17666666666666667,0.32357142857142857,-0.0010985904269748264,-5.284266131469728,0.5493000149726868,49.21839904785156,-0.0059100680881076385,-0.11805246141221788
9588,0.06963167762044273,0.33867195129394534,85.35279846191406,83.77752685546875,-7.44873046875,88.31919860839844,0.35821990966796874,0.172,0.32535714285714284,0.0019225650363498264,-4.767923968383791,-0.3845106535644547,49.21839904785156,0.01750301784939236,-0.11964365641276041
9589,0.10088167762044273,0.29882820129394533,89.0147705078125,88.33966064453125,-7.551021575927734,88.44195556640625,0.3623114691840278,0.16666666666666666,0.32607142857142857,0.004302851359049479,-3.943974154541017,0.9557820558547974,49.21839904785156,0.007501220703125,-0.1221441904703776
9590,0.10088167762044273,0.25898443222045897,85.5164566040039,85.18913269042969,-7.080486297607422,87.86912536621094,0.3652665032280816,0.162,0.32607142857142857,0.004119745890299479,-3.3946749144287125,0.5383139848709106,49.21839904785156,0.003636932373046875,-0.11055124070909288
9591,0.13213167762044273,0.25898443222045897,82.01814270019531,83.14332580566406,-7.612392425537109,88.1555404663086,0.3577652825249566,0.15966666666666668,0.3264285714285714,0.006744215223524305,-2.878332751342775,-1.0546575957031266,49.13050842285156,-0.012502034505208334,-0.1196436987982856
9592,0.14385042762044273,0.25898443222045897,85.35279846191406,84.24806213378906,-8.553462982177734,89.42393493652344,0.36276609632703993,0.15533333333333332,0.3264285714285714,0.0068052079942491316,-2.5926958494873062,-1.6259294920654312,49.21839904785156,0.012274848090277778,-0.1441933102077908
9593,0.15947542762044273,0.239062557220459,84.18669128417969,83.71615600585938,-8.185218811035156,89.13752746582031,0.36208419799804686,0.14933333333333335,0.3267857142857143,0.005157343546549479,-3.943974154541017,-2.142269747802736,49.21839904785156,0.005228169759114583,-0.13691940307617187
9594,0.13603792762044273,0.17929691314697266,81.97721862792969,83.16378784179688,-7.264606475830078,88.21691131591797,0.36776691012912327,0.14733333333333334,0.32857142857142857,-0.0005797915988498264,-5.218350070068361,-1.2524038725585953,49.21839904785156,-0.013184102376302083,-0.11646130879720053
9595,0.07353792762044273,0.15937503814697265,83.49111938476562,81.52714538574219,-7.203235626220703,87.62362670898438,0.37004004584418404,0.14266666666666666,0.33035714285714285,-0.0065915849473741316,-4.833840029785158,-0.4174677305908219,49.21839904785156,0.02182193332248264,-0.10918735928005642
9596,0.14385042762044273,0.17929691314697266,89.34210205078125,85.18913269042969,-7.653308868408203,88.46240997314453,0.35481024848090276,0.13933333333333334,0.33321428571428574,-0.0016173892550998264,-4.449329989501955,1.1974740028381348,49.21839904785156,0.04614410400390625,-0.12350798712836372
9597,0.15166292762044273,0.13945316314697265,86.39614868164062,88.13508605957031,-7.489646911621094,88.44195556640625,0.3679942660861545,0.13433333333333333,0.33464285714285713,-0.0015258365207248264,-4.899756091186525,1.8895920515060425,49.21839904785156,-0.01932152642144097,-0.12146224975585937
9598,0.08525667762044273,0.13945316314697265,86.37569427490234,85.25050354003906,-7.162319183349609,87.95095825195312,0.365948486328125,0.13233333333333333,0.33714285714285713,-0.0032957712809244793,-5.174406664916994,0.4723980128765106,49.21839904785156,0.01250211927625868,-0.11236974928114149
9599,0.06572542762044273,0.219140682220459,83.65477752685547,81.93630981445312,-7.3668975830078125,88.05325317382812,0.36276609632703993,0.126,0.33785714285714286,-0.0026244269476996527,-4.273554461547853,-1.3402925902099625,49.21839904785156,0.019094085693359374,-0.11577945285373265
9600,0.11650667762044273,0.17929691314697266,88.27828979492188,85.65966796875,-8.635292053222656,89.34210205078125,0.3577652825249566,0.122,0.3392857142857143,-0.0019835578070746527,-3.537493365356447,0.08788800239562988,46.84537124633789,0.02909579806857639,-0.14419326782226563
9601,0.04228792762044272,0.2789063262939453,85.43462371826172,86.5188980102539,-9.085369110107422,90.44683837890625,0.36867616441514756,0.11733333333333333,0.3385714285714286,-0.004455439249674479,-4.482288973876955,0.29662200808525085,46.66958999633789,-0.012047492133246528,-0.1614689721001519
9602,0.05791292762044272,0.19921878814697266,85.35279846191406,84.92317199707031,-8.16476058959961,89.54668426513672,0.362538825141059,0.112,0.33714285714285713,-0.004455439249674479,-5.712721484252931,-1.4171949797363297,46.142250061035156,0.004773627387152778,-0.141238276163737
9603,0.09697542762044273,0.219140682220459,85.31187438964844,78.9494400024414,-8.021553039550781,88.83065795898438,0.3586745368109809,0.10966666666666666,0.3375,-0.0029601203070746527,-5.679762499877931,-1.8895918303222672,46.142250061035156,0.07069371541341146,-0.1316912333170573
9604,0.12041292762044273,0.17929691314697266,87.80775451660156,85.27096557617188,-7.796516418457031,88.78973388671875,0.365948486328125,0.105,0.33714285714285713,-0.0038145701090494793,-5.251309054443361,0.5822579860687256,46.054359436035156,0.028186543782552084,-0.12873611450195313
9605,0.05400667762044272,0.19921878814697266,84.47309875488281,83.22515869140625,-7.060028076171875,88.1146240234375,0.36776691012912327,0.099,0.3367857142857143,-0.0068357255723741316,-4.658064501831056,1.1205720901489258,45.966468811035156,0.013866000705295138,-0.11305168999565972
9606,0.03838167762044272,0.17929691314697266,81.67034912109375,84.96409606933594,-6.528118133544922,88.09416198730469,0.3670850118001302,0.093,0.3364285714285714,-0.0071103837754991316,-4.32848419482422,1.1864880323410034,45.79069137573242,-0.036597188313802084,-0.10691422356499566
9607,0.10478792762044273,0.17929691314697266,86.70301818847656,84.71859741210938,-7.346439361572266,88.52378845214844,0.35594677395290797,0.09,0.3357142857142857,-0.0018004523383246527,-3.92200340563965,0.2526780068874359,45.79069137573242,0.022049119737413195,-0.12078030904134114
9608,0.10869417762044273,0.25898443222045897,85.70057678222656,86.92805480957031,-7.837432861328125,88.76927947998047,0.35844718085394967,0.085,0.335,0.0014342837863498264,-3.7901712828369156,1.1974740028381348,45.70280075073242,-0.013638644748263888,-0.12896347045898438
9609,0.08525667762044273,0.19921878814697266,85.39370727539062,83.40928649902344,-7.796516418457031,88.17599487304688,0.3682215372721354,0.082,0.3339285714285714,-0.0014953189425998264,-3.3397451811523453,1.021697998046875,45.70280075073242,0.022049119737413195,-0.12191679212782118
9610,0.10869417762044273,0.219140682220459,87.72592163085938,86.43707275390625,-8.205677032470703,89.28073120117188,0.3589018079969618,0.07933333333333334,0.3317857142857143,0.0019530826144748264,-3.0211512022705094,1.2743760347366333,45.70280075073242,0.014320543077256944,-0.13873786926269532
9611,0.13994417762044273,0.219140682220459,86.15065002441406,85.23004150390625,-7.9192657470703125,88.87156677246094,0.35844718085394967,0.076,0.33035714285714285,0.005157343546549479,-3.4605909758300797,0.3185940086841583,45.70280075073242,0.010228983561197917,-0.1310092502170139
9612,0.17119417762044273,0.19921878814697266,83.32745361328125,86.15065002441406,-6.773616790771484,88.13508605957031,0.3632207234700521,0.073,0.32857142857142857,0.006378004286024305,-3.845101016113283,-0.49437012011718906,45.70280075073242,-0.031368849012586804,-0.11009669833713108
9613,0.17119417762044273,0.17929691314697266,86.49844360351562,86.02790832519531,-7.469188690185547,88.0737075805664,0.36072031656901044,0.06966666666666667,0.32821428571428574,0.004424921671549479,-3.240870135375978,-0.2856375151367203,45.70280075073242,0.005228169759114583,-0.11714329189724393
9614,0.15166292762044273,0.219140682220459,81.71127319335938,84.0434799194336,-7.182777404785156,88.81019592285156,0.36481187608506943,0.066,0.3271428571428571,0.004424921671549479,-2.856360095092775,-0.48338379199218906,44.56023025512695,-0.02591340806749132,-0.12214414808485242
9615,0.21025667762044273,0.219140682220459,88.17599487304688,85.68012237548828,-7.407814025878906,88.6669921875,0.35662867228190104,0.06233333333333333,0.32571428571428573,0.008910878499348959,-2.9991785460205094,0.16479000449180603,44.29655838012695,0.02773191663953993,-0.12305340237087674
9616,0.19463167762044273,0.17929691314697266,89.6080551147461,87.562255859375,-7.5305633544921875,88.25782775878906,0.3711766560872396,0.06,0.3246428571428571,0.005920240614149305,-3.7132688933105484,1.7907180786132812,44.29655838012695,0.022731102837456597,-0.11987101236979167
9617,0.15556917762044273,0.17929691314697266,87.54179382324219,84.26852416992188,-6.916820526123047,87.68500518798828,0.36072031656901044,0.055,0.32392857142857145,0.003997675577799479,-4.009890215942384,-0.2307058745117203,44.12078094482422,0.03636966281467014,-0.10668695237901475
9618,0.17119417762044273,0.13945316314697265,85.86424255371094,84.43218231201172,-6.650867462158203,87.43951416015625,0.36481187608506943,0.052333333333333336,0.32392857142857145,0.0027159796820746527,-4.086792605468752,-0.2636648588867203,44.12078094482422,0.015911780463324653,-0.10100424024793837
9619,0.10478792762044273,0.17929691314697266,82.20226287841797,83.69569396972656,-6.548576354980469,87.43951416015625,0.365948486328125,0.04633333333333333,0.32357142857142857,0.00018310546875,-3.6253801756591812,-0.7031046324462906,44.12078094482422,-0.01659367879231771,-0.09986767239040799
9620,0.08135042762044273,0.19921878814697266,85.455078125,84.0434799194336,-6.814533233642578,87.74638366699219,0.36640311347113713,0.041,0.32357142857142857,-0.0010070376925998264,-3.6363665037841812,-0.06591667468261875,44.12078094482422,0.015684424506293402,-0.10623241000705295
9621,0.08135042762044273,0.19921878814697266,87.41905212402344,79.23585510253906,-6.466747283935547,87.0712661743164,0.3650392320421007,0.03666666666666667,0.32285714285714284,-0.0014648013644748264,-3.493548052856447,0.06591600179672241,42.099308013916016,0.09092441134982639,-0.09486681620279948
9622,0.11650667762044273,0.19921878814697266,89.03523254394531,87.64408874511719,-7.489646911621094,89.0761489868164,0.35594677395290797,0.03233333333333333,0.32142857142857145,0.0020141177707248266,-2.7135435515136734,1.1535300016403198,42.01142120361328,0.0154571533203125,-0.12850884331597223
9623,0.05400667762044272,0.2789063262939453,84.18669128417969,88.19645690917969,-6.834991455078125,87.66455078125,0.3691307915581597,0.028,0.32,-9.1552734375e-05,-3.4166475706787125,1.1645159721374512,41.83563995361328,-0.04455295138888889,-0.10555046929253473
9624,0.06572542762044273,0.239062557220459,85.78240966796875,82.87738037109375,-8.103385925292969,87.99187469482422,0.3579925537109375,0.025333333333333333,0.3171428571428571,0.00079345703125,-3.196926730224611,-0.4394403868408219,39.28683090209961,0.03227810329861111,-0.12328067355685764
9625,0.06181917762044272,0.239062557220459,82.69325256347656,82.46821594238281,-6.630409240722656,88.23736572265625,0.365948486328125,0.020666666666666667,0.31535714285714284,-0.0,-3.7242552214355484,-0.6042314940185562,39.28683090209961,0.0025004069010416668,-0.1096419440375434
9626,0.05400667762044272,0.29882820129394533,87.88958740234375,86.08927917480469,-7.694225311279297,88.19645690917969,0.36072031656901044,0.018,0.3117857142857143,-0.000213623046875,-3.90003074938965,-0.2636648588867203,35.50756072998047,0.020003424750434026,-0.12100758022732205
9627,0.06181917762044272,0.2789063262939453,88.31919860839844,79.70639038085938,-8.205677032470703,88.78973388671875,0.36572113037109377,0.012666666666666666,0.30892857142857144,-0.0,-2.4498793059082047,-0.5163427763671891,35.24388885498047,0.09569786919487847,-0.13328234354654947
9628,0.07353792762044273,0.3187500762939453,84.86180114746094,83.47065734863281,-7.1418609619140625,87.80775451660156,0.3609475877549913,0.010333333333333333,0.3028571428571429,0.0023192935519748266,-2.1202989989013687,-0.4723993712158219,35.24388885498047,0.0154571533203125,-0.11055128309461805
9629,0.10478792762044273,0.25898443222045897,86.25294494628906,84.73905181884766,-6.118961334228516,87.74638366699219,0.36140221489800345,0.008666666666666666,0.2982142857142857,0.0032042609320746527,-1.5709978514404312,-0.2526785307617203,35.24388885498047,0.01682103474934896,-0.0985038333468967
9630,0.08916292762044273,0.29882820129394533,89.58760070800781,82.0385971069336,-4.993770599365234,85.98699188232422,0.36412997775607636,0.005666666666666667,0.29214285714285715,0.0022277408175998266,-1.0876146727294937,-0.3405672484130875,24.60919952392578,0.08387781778971354,-0.06645291646321615
9631,0.11260042762044273,0.239062557220459,83.49111938476562,80.9952392578125,-3.7662887573242188,85.27096557617188,0.3611749437120226,0.004,0.2882142857142857,0.0027770148383246527,0.6811320185661316,-0.6921183043212906,24.60919952392578,0.027732001410590276,-0.04485838148328993
9632,0.12041292762044273,0.219140682220459,86.98943328857422,85.0459213256836,-0.4725532531738281,83.30699157714844,0.3591291639539931,0.0013333333333333333,0.28214285714285714,0.0020446353488498266,1.2963480949401855,-0.15380539233398594,24.60919952392578,0.021594577365451388,0.013560612996419271
9633,0.13994417762044273,0.17929691314697266,79.35859680175781,80.74974060058594,0.3866844177246094,82.69325256347656,0.36208419799804686,0.0006666666666666666,0.2782142857142857,0.0009765625,2.361989974975586,-0.5053564482421891,24.60919952392578,-0.0154571533203125,0.029927020602756076
9634,0.16338167762044273,0.15937503814697265,84.18669128417969,84.88226318359375,2.5347747802734375,82.07951354980469,0.36185684204101565,-0.0003333333333333333,0.2732142857142857,0.0015868716769748264,3.1200242042541504,0.05493000149726868,24.60919952392578,-0.00772857666015625,0.060614013671875
9635,0.17900667762044273,0.15937503814697265,85.47554016113281,86.45751953125,0.7549285888671875,80.27920532226562,0.3595837910970052,0.0,0.27,0.0027464972601996527,3.2518560886383057,0.9338099956512451,24.60919952392578,-0.010910881890190972,0.06084136962890625
9636,0.10478792762044273,0.15937503814697265,81.58851623535156,76.45356750488281,5.889884948730469,74.26455688476562,0.36344807942708335,0.0,0.26285714285714284,-0.0,0.6921180486679077,-0.856909411499025,24.60919952392578,0.05705498589409722,0.18472586737738717
