,WD,WS,AIL_1,AIL_2,ELEV_1,ELEV_2,RUDD,ALT,GS,TH,PTCH,ROLL,PLA_1,AIL,ELEV
151,-0.0,0.0,91.46973419189453,92.14485168457031,19.330791473388672,61.72380065917969,0.3679942660861545,0.008333333333333333,0.0,-0.0,0.0,0.0,0.0,-0.007501305474175347,0.4734110090467665
152,-0.0,0.0,91.44927978515625,92.2266845703125,19.20804214477539,61.7442626953125,0.3679942660861545,0.007666666666666666,0.0,-0.0,0.0,0.0,0.0,-0.008637830946180555,0.4718197716606988
153,-0.0,0.0,91.44927978515625,92.10392761230469,19.187583923339844,61.72380065917969,0.36776691012912327,0.008,0.0,-0.0,0.0,0.0,0.0,-0.00727386474609375,0.471819814046224
154,-0.0,0.0,91.32653045654297,92.0834732055664,19.228500366210938,61.7442626953125,0.36753963894314234,0.008,0.0,-0.0,0.0,0.0,0.0,-0.008410474989149305,0.47204708523220484
155,-0.0,0.0,91.30607604980469,92.0834732055664,19.20804214477539,61.7442626953125,0.36776691012912327,0.008333333333333333,0.0,-0.0,0.0,0.0,0.0,-0.008637746175130209,0.4718197716606988
156,-0.0,0.0,91.26515197753906,92.02210235595703,19.20804214477539,61.703346252441406,0.3679942660861545,0.008,0.0,-0.0,0.0,0.0,0.0,-0.008410559760199653,0.4722743988037109
157,-0.0,0.0,91.26515197753906,92.06301879882812,19.248958587646484,61.703346252441406,0.3679942660861545,0.008,0.0,-0.0,0.0,0.0,0.0,-0.008865186903211806,0.4727290259467231
158,-0.0,0.0,91.2242431640625,91.96072387695312,19.248958587646484,61.703346252441406,0.36776691012912327,0.007666666666666666,0.0,-0.0,0.0,0.0,0.0,-0.008183119032118056,0.4727290259467231
159,-0.0,0.0,91.1219482421875,91.87889099121094,19.228500366210938,61.68288803100586,0.36776691012912327,0.008333333333333333,0.0,-0.0,0.0,0.0,0.0,-0.008410474989149305,0.4727290259467231
160,-0.0,0.0,91.06057739257812,91.77660369873047,19.289875030517578,61.703346252441406,0.36776691012912327,0.007666666666666666,0.0,-0.0,0.0,0.0,0.0,-0.007955847846137152,0.47318365308973526
161,-0.0,0.0,91.04011535644531,91.75614929199219,19.26941680908203,61.703346252441406,0.3679942660861545,0.008,0.0,-0.0,0.0,0.0,0.0,-0.0079559326171875,0.4729563395182292
162,-0.0,0.0,90.99920654296875,91.55156707763672,19.330791473388672,61.68288803100586,0.36776691012912327,0.007666666666666666,0.0,-0.0,0.0,0.0,0.0,-0.006137339274088541,0.47386559380425347
163,-0.0,0.0,90.89691162109375,91.6333999633789,19.289875030517578,61.68288803100586,0.3679942660861545,0.008,0.0,-0.0,0.0,0.0,0.0,-0.008183203803168403,0.47341096666124133
164,-0.0,0.0,90.73324584960938,91.40835571289062,19.289875030517578,61.66242980957031,0.3679942660861545,0.007666666666666666,0.0,-0.0,0.0,0.0,0.0,-0.007501220703125,0.4736382802327474
165,-0.0,0.0,90.569580078125,91.38790130615234,19.330791473388672,61.641971588134766,0.36776691012912327,0.008,0.0,-0.0,0.0,0.0,0.0,-0.009092458089192708,0.4743202209472656
166,-0.0,0.0,90.38545989990234,91.14241027832031,19.310333251953125,61.68288803100586,0.36753963894314234,0.007333333333333333,0.0,-0.0,0.0,0.0,0.0,-0.008410559760199653,0.4736382802327474
167,-0.0,0.0,90.32408142089844,91.0196533203125,-41.900001525878906,61.68288803100586,0.3679942660861545,0.007333333333333333,0.0,-0.0,0.0,0.0,0.0,-0.00772857666015625,-0.20647655063205295
168,-0.0,0.0,90.24225616455078,90.75370788574219,19.310333251953125,61.72380065917969,0.36776691012912327,0.007666666666666666,0.0,-0.0,0.0,0.0,0.0,-0.0056827969021267365,0.4731836954752604
169,-0.0,0.0,89.62850952148438,90.18087768554688,-41.900001525878906,61.72380065917969,0.36776691012912327,0.007333333333333333,0.0,-0.0,0.0,0.0,0.0,-0.006137424045138889,-0.20693113538953994
170,-0.0,0.0,89.32164001464844,89.83309936523438,19.228500366210938,61.7442626953125,0.36776691012912327,0.007333333333333333,0.0,-0.0,0.0,0.0,0.0,-0.005682881673177083,0.47204708523220484
171,-0.0,0.0,89.1170654296875,89.79217529296875,19.04438018798828,61.785179138183594,0.3679942660861545,0.007666666666666666,0.0,-0.0,0.0,0.0,0.0,-0.007501220703125,0.4695466783311632
172,-0.0,0.0,88.87156677246094,89.46485137939453,-41.900001525878906,61.90792465209961,0.36776691012912327,0.008,0.0,-0.0,0.0,0.0,0.0,-0.0065920511881510414,-0.20897695753309461
173,-0.0,0.0,88.6056137084961,89.0147705078125,16.528045654296875,62.132965087890625,0.36776691012912327,0.007333333333333333,0.0,-0.0,0.0,0.0,0.0,-0.00454618665907118,0.43772311740451386
174,-0.0,0.0,88.05325317382812,88.38057708740234,11.229423522949219,62.930824279785156,0.36753963894314234,0.007,0.0,-0.0,0.0,0.0,0.0,-0.003636932373046875,0.36998443603515624
175,-0.0,0.0,87.27584838867188,87.68500518798828,10.73843002319336,68.02487182617188,0.3679942660861545,0.006333333333333333,0.0,-0.0,0.0,0.0,0.0,-0.00454618665907118,0.3079284244113498
176,-0.0,0.0,86.662109375,87.15309143066406,10.08377456665039,73.3644027709961,0.36753963894314234,0.006333333333333333,0.0,-0.0,0.0,0.0,0.0,-0.005455356174045139,0.24132635328504776
177,-0.0,0.0,86.37569427490234,86.84622192382812,9.920112609863281,73.3644027709961,0.3679942660861545,0.006333333333333333,0.0,-0.0,0.0,0.0,0.0,-0.005228084988064236,0.2395078870985243
178,-0.0,0.0,86.15065002441406,86.68256378173828,9.879196166992188,73.40531921386719,0.36776691012912327,0.005666666666666667,0.0,-0.0,0.0,0.0,0.0,-0.005910152859157986,0.2385986328125
179,-0.0,0.0,85.80287170410156,86.35523986816406,9.695072174072266,73.42578125,0.36776691012912327,0.006,0.0,-0.0,0.0,0.0,0.0,-0.006137424045138889,0.23632545471191407
180,-0.0,0.0,85.43462371826172,86.02790832519531,9.408660888671875,73.58944702148438,0.36776691012912327,0.006,0.0,-0.0,0.0,0.0,0.0,-0.0065920511881510414,0.23132459852430556
181,-0.0,0.0,85.29141998291016,85.80287170410156,-41.900001525878906,73.60990142822266,0.36776691012912327,0.006333333333333333,0.0,-0.0,0.0,0.0,0.0,-0.0056827969021267365,-0.3389989217122396
182,-0.0,0.0,84.98455047607422,85.65966796875,9.142707824707031,73.73265075683594,0.3679942660861545,0.006,0.0,-0.0,0.0,0.0,0.0,-0.007501305474175347,0.22677841186523437
183,-0.0,0.0,84.88226318359375,85.61874389648438,9.060874938964844,73.73265075683594,0.3679942660861545,0.005666666666666667,0.0,-0.0,0.0,0.0,0.0,-0.008183119032118056,0.22586915757921006
184,-0.0,0.0,84.86180114746094,85.557373046875,8.979042053222656,73.77356719970703,0.36776691012912327,0.006,0.0,-0.0,0.0,0.0,0.0,-0.00772857666015625,0.2245052761501736
185,-0.0,0.0,84.90271759033203,85.49600219726562,8.876754760742188,73.79402160644531,0.36776691012912327,0.005666666666666667,0.0,-0.0,0.0,0.0,0.0,-0.0065920511881510414,0.2231414794921875
186,-0.0,0.0,84.82088470458984,85.63920593261719,8.692630767822266,73.85539245605469,0.36776691012912327,0.005666666666666667,0.0,-0.0,0.0,0.0,0.0,-0.009092458089192708,0.22041375901963975
187,-0.0,0.0,84.80043029785156,85.57783508300781,8.488052368164062,73.89631652832031,0.36776691012912327,0.005666666666666667,0.0,-0.0,0.0,0.0,0.0,-0.008637830946180555,0.21768595377604166
188,-0.0,0.0,84.80043029785156,85.47554016113281,8.447135925292969,73.95768737792969,0.36776691012912327,0.006,0.0,-0.0,0.0,0.0,0.0,-0.007501220703125,0.21654942830403645
189,-0.0,0.0,84.82088470458984,85.47554016113281,8.365303039550781,73.93722534179688,0.36776691012912327,0.005666666666666667,0.0,-0.0,0.0,0.0,0.0,-0.0072739495171440975,0.2158675299750434
190,-0.0,0.0,84.75950622558594,85.5164566040039,8.283470153808594,73.95768737792969,0.36776691012912327,0.005666666666666667,0.0,-0.0,0.0,0.0,0.0,-0.008410559760199653,0.21473091973198785
191,-0.0,0.0,84.80043029785156,85.5164566040039,7.956142425537109,74.01905822753906,0.3679942660861545,0.005666666666666667,0.0,-0.0,0.0,0.0,0.0,-0.007955847846137152,0.21041204664442276
192,-0.0,0.0,84.80043029785156,85.47554016113281,7.833396911621094,74.03952026367188,0.3679942660861545,0.005666666666666667,0.0,-0.0,0.0,0.0,0.0,-0.007501220703125,0.2088208516438802
193,-0.0,0.0,84.73905181884766,85.33233642578125,7.772022247314453,74.10089111328125,0.36776691012912327,0.006,0.0,-0.0,0.0,0.0,0.0,-0.0065920511881510414,0.20745701260036892
194,-0.0,0.0,84.73905181884766,85.37325286865234,7.649272918701172,74.12135314941406,0.36753963894314234,0.005333333333333333,0.0,-0.0,0.0,0.0,0.0,-0.007046678331163195,0.20586577521430122
195,-0.0,0.0,84.75950622558594,85.455078125,7.587898254394531,74.18272399902344,0.3679942660861545,0.005666666666666667,0.0,-0.0,0.0,0.0,0.0,-0.00772857666015625,0.20450193617078993
196,-0.0,0.0,84.69813537597656,85.455078125,7.444694519042969,74.46913146972656,0.3682215372721354,0.005666666666666667,0.0,-0.0,0.0,0.0,0.0,-0.008410474989149305,0.19972847832573784
197,-0.0,0.0,84.71859741210938,85.41416931152344,7.342403411865234,74.48959350585938,0.36776691012912327,0.005333333333333333,0.0,-0.0,0.0,0.0,0.0,-0.00772857666015625,0.1983645545111762
198,-0.0,0.0,84.69813537597656,85.35279846191406,7.260570526123047,74.51005554199219,0.36776691012912327,0.005333333333333333,0.0,-0.0,0.0,0.0,0.0,-0.007274034288194444,0.19722794426812065
199,-0.0,0.0,84.63676452636719,85.29141998291016,7.2401123046875,74.69417572021484,0.3682215372721354,0.005666666666666667,0.0,-0.0,0.0,0.0,0.0,-0.0072739495171440975,0.19495485093858506
200,-0.0,0.0,84.69813537597656,85.31187438964844,7.281028747558594,74.67372131347656,0.3679942660861545,0.005666666666666667,0.0,-0.0,0.0,0.0,0.0,-0.006819322374131944,0.19563674926757812
201,-0.0,0.0,84.67768096923828,85.39370727539062,7.219654083251953,74.69417572021484,0.36776691012912327,0.005,0.0,-0.0,0.0,0.0,0.0,-0.007955847846137152,0.19472753736707898
202,-0.0,0.0,84.67768096923828,85.37325286865234,7.260570526123047,74.67372131347656,0.36776691012912327,0.005333333333333333,0.0,-0.0,0.0,0.0,0.0,-0.00772857666015625,0.19540943569607205
203,-0.0,0.0,84.69813537597656,85.41416931152344,7.260570526123047,74.73509216308594,0.36776691012912327,0.005666666666666667,0.0,-0.0,0.0,0.0,0.0,-0.0079559326171875,0.19472753736707898
204,-0.0,0.0,84.63676452636719,85.49600219726562,7.2401123046875,74.69417572021484,0.3679942660861545,0.005666666666666667,0.0,-0.0,0.0,0.0,0.0,-0.009547085232204862,0.19495485093858506
205,-0.0,0.0,84.61630249023438,85.33233642578125,7.137825012207031,74.75555419921875,0.3679942660861545,0.005333333333333333,0.0,-0.0,0.0,0.0,0.0,-0.0079559326171875,0.19313634236653646
206,-0.0,0.0,84.61630249023438,85.29141998291016,7.035533905029297,74.8373794555664,0.36776691012912327,0.005666666666666667,0.0,-0.0,0.0,0.0,0.0,-0.007501305474175347,0.19109060499403213
207,-0.0,0.0,84.67768096923828,85.29141998291016,7.117366790771484,74.81692504882812,0.3679942660861545,0.006,0.0,-0.0,0.0,0.0,0.0,-0.006819322374131944,0.19222713046603732
208,-0.0,0.0,84.6572265625,85.25050354003906,7.035533905029297,74.79646301269531,0.36776691012912327,0.005333333333333333,0.0,-0.0,0.0,0.0,0.0,-0.006591966417100695,0.19154523213704427
209,-0.0,0.0,84.5958480834961,85.41416931152344,7.035533905029297,74.81692504882812,0.3679942660861545,0.005333333333333333,0.0,-0.0,0.0,0.0,0.0,-0.009092458089192708,0.19131787618001303
210,-0.0,0.0,84.554931640625,85.27096557617188,6.892326354980469,74.8782958984375,0.36776691012912327,0.005333333333333333,0.0,-0.0,0.0,0.0,0.0,-0.0079559326171875,0.18904478285047743
211,-0.0,0.0,84.63676452636719,85.33233642578125,6.830955505371094,74.9805908203125,0.36776691012912327,0.005666666666666667,0.0,-0.0,0.0,0.0,0.0,-0.00772857666015625,0.1872262742784288
212,-0.0,0.0,84.63676452636719,85.31187438964844,6.7900390625,74.96012878417969,0.3679942660861545,0.005333333333333333,0.0,-0.0,0.0,0.0,0.0,-0.007501220703125,0.1869990030924479
213,-0.0,0.0,84.49356079101562,85.35279846191406,6.830955505371094,75.00104522705078,0.36776691012912327,0.005666666666666667,0.0,-0.0,0.0,0.0,0.0,-0.009547085232204862,0.1869990030924479
214,-0.0,0.0,84.45263671875,85.41416931152344,6.830955505371094,75.08287811279297,0.3679942660861545,0.005333333333333333,0.0,-0.0,0.0,0.0,0.0,-0.010683695475260416,0.18608974880642362
215,-0.0,0.0,84.37080383300781,85.29141998291016,6.728664398193359,74.9192123413086,0.3682215372721354,0.005333333333333333,0.0,-0.0,0.0,0.0,0.0,-0.010229068332248265,0.18677168952094184
216,-0.0,0.0,84.43218231201172,85.18913269042969,6.7082061767578125,75.08287811279297,0.3682215372721354,0.005,0.0,-0.0,0.0,0.0,0.0,-0.008410559760199653,0.18472586737738717
217,-0.0,0.0,84.43218231201172,85.02546691894531,6.7082061767578125,75.10333251953125,0.36776691012912327,0.005666666666666667,0.0,-0.0,0.0,0.0,0.0,-0.0065920511881510414,0.18449859619140624
218,-0.0,0.0,84.39126586914062,85.25050354003906,6.851413726806641,75.02149963378906,0.36776691012912327,0.005333333333333333,0.0,-0.0,0.0,0.0,0.0,-0.009547085232204862,0.18699904547797308
219,-0.0,0.0,84.47309875488281,85.12775421142578,6.7082061767578125,75.06242370605469,0.36776691012912327,0.005333333333333333,0.0,-0.0,0.0,0.0,0.0,-0.0072739495171440975,0.18495313856336806
220,-0.0,0.0,84.45263671875,85.23004150390625,6.769580841064453,75.16471099853516,0.36776691012912327,0.005333333333333333,0.0,-0.0,0.0,0.0,0.0,-0.008637830946180555,0.18449855380588107
221,-0.0,0.0,84.5140151977539,85.12775421142578,6.728664398193359,75.14425659179688,0.3679942660861545,0.005333333333333333,0.0,-0.0,0.0,0.0,0.0,-0.006819322374131944,0.18427119784884982
222,-0.0,0.0,84.57539367675781,85.39370727539062,6.728664398193359,75.14425659179688,0.3679942660861545,0.005,0.0,-0.0,0.0,0.0,0.0,-0.00909237331814236,0.18427119784884982
223,-0.0,0.0,84.47309875488281,85.35279846191406,6.687747955322266,75.16471099853516,0.3679942660861545,0.004666666666666667,0.0,-0.0,0.0,0.0,0.0,-0.009774441189236111,0.18358929951985678
224,-0.0,0.0,84.45263671875,85.14820861816406,6.564998626708984,75.26699829101562,0.3679942660861545,0.005,0.0,-0.0,0.0,0.0,0.0,-0.00772857666015625,0.1810888926188151
225,-0.0,0.0,84.5958480834961,85.23004150390625,6.605915069580078,75.24653625488281,0.3679942660861545,0.004666666666666667,0.0,-0.0,0.0,0.0,0.0,-0.007046593560112847,0.1817708757188585
226,-0.0,0.0,84.5140151977539,85.31187438964844,6.585456848144531,75.18516540527344,0.3679942660861545,0.004333333333333333,0.0,-0.0,0.0,0.0,0.0,-0.008865102132161459,0.1822254604763455
227,-0.0,0.0,41.900001525878906,85.12775421142578,6.380878448486328,75.28746032714844,0.3679942660861545,0.004333333333333333,0.0,-0.0,0.0,0.0,0.0,-0.48030836317274306,0.17881575690375434
228,-0.0,0.0,84.45263671875,85.1072998046875,6.421794891357422,75.3897476196289,0.36776691012912327,0.004666666666666667,0.0,-0.0,0.0,0.0,0.0,-0.007274034288194444,0.17813385857476127
229,-0.0,0.0,84.47309875488281,85.20958709716797,6.401336669921875,75.24653625488281,0.3679942660861545,0.005,0.0,-0.0,0.0,0.0,0.0,-0.008183203803168403,0.17949778238932293
230,-0.0,0.0,84.57539367675781,85.1072998046875,6.4831695556640625,75.41020202636719,0.3679942660861545,0.004333333333333333,0.0,-0.0,0.0,0.0,0.0,-0.0059100680881076385,0.17858852810329862
231,-0.0,0.0,41.900001525878906,85.14820861816406,6.360420227050781,75.28746032714844,0.3682215372721354,0.004666666666666667,0.0,-0.0,0.0,0.0,0.0,-0.480535634358724,0.17858844333224827
232,-0.0,0.0,84.53446960449219,85.14820861816406,6.442253112792969,75.3897476196289,0.3679942660861545,0.004666666666666667,0.0,-0.0,0.0,0.0,0.0,-0.006819322374131944,0.17836117214626737
233,-0.0,0.0,84.47309875488281,85.18913269042969,6.380878448486328,75.30791473388672,0.36776691012912327,0.004333333333333333,0.0,-0.0,0.0,0.0,0.0,-0.0079559326171875,0.17858848571777344
234,-0.0,0.0,84.45263671875,85.23004150390625,6.339962005615234,75.36929321289062,0.3679942660861545,0.004666666666666667,0.0,-0.0,0.0,0.0,0.0,-0.008637830946180555,0.17745187547471789
235,-0.0,0.0,84.43218231201172,85.31187438964844,6.401336669921875,75.34883117675781,0.36776691012912327,0.004333333333333333,0.0,-0.0,0.0,0.0,0.0,-0.009774356418185763,0.17836117214626737
236,-0.0,0.0,84.47309875488281,85.18913269042969,6.196754455566406,75.3897476196289,0.36776691012912327,0.004333333333333333,0.0,-0.0,0.0,0.0,0.0,-0.0079559326171875,0.17563340928819443
237,-0.0,0.0,84.5140151977539,85.1072998046875,6.380878448486328,75.4306640625,0.3679942660861545,0.005,0.0,-0.0,0.0,0.0,0.0,-0.0065920511881510414,0.177224604288737
238,-0.0,0.0,84.49356079101562,85.27096557617188,6.339962005615234,75.26699829101562,0.3679942660861545,0.005,0.0,-0.0,0.0,0.0,0.0,-0.008637830946180555,0.17858848571777344
239,-0.0,0.0,84.53446960449219,85.27096557617188,6.401336669921875,75.24653625488281,0.3679942660861545,0.004666666666666667,0.0,-0.0,0.0,0.0,0.0,-0.00818328857421875,0.17949778238932293
240,-0.0,0.0,84.49356079101562,85.14820861816406,6.4831695556640625,75.08287811279297,0.3682215372721354,0.004666666666666667,0.0,-0.0,0.0,0.0,0.0,-0.00727386474609375,0.1822254604763455
241,-0.0,0.0,84.47309875488281,85.18913269042969,6.626373291015625,75.00104522705078,0.3679942660861545,0.004666666666666667,0.0,-0.0,0.0,0.0,0.0,-0.0079559326171875,0.18472586737738717
242,-0.0,0.0,84.47309875488281,85.23004150390625,6.646831512451172,74.96012878417969,0.36753963894314234,0.004333333333333333,0.0,-0.0,0.0,0.0,0.0,-0.008410474989149305,0.18540780809190538
243,-0.0,0.0,84.45263671875,85.31187438964844,6.769580841064453,74.9192123413086,0.36776691012912327,0.004333333333333333,0.0,-0.0,0.0,0.0,0.0,-0.009547085232204862,0.187226316663954
244,-0.0,0.0,84.43218231201172,85.1072998046875,6.892326354980469,74.85783386230469,0.3679942660861545,0.004666666666666667,0.0,-0.0,0.0,0.0,0.0,-0.007501305474175347,0.18927213880750868
245,-0.0,0.0,84.41172790527344,84.98455047607422,6.953701019287109,74.71463012695312,0.36776691012912327,0.004,0.0,-0.0,0.0,0.0,0.0,-0.006364695231119792,0.19154523213704427
246,-0.0,0.0,84.35034942626953,85.1072998046875,7.01507568359375,74.57142639160156,0.3679942660861545,0.0036666666666666666,0.0,-0.0,0.0,0.0,0.0,-0.008410559760199653,0.19381832546657987
247,-0.0,0.0,84.32989501953125,85.08683776855469,7.01507568359375,74.55096435546875,0.36776691012912327,0.004333333333333333,0.0,-0.0,0.0,0.0,0.0,-0.008410474989149305,0.19404568142361112
248,-0.0,0.0,84.28897857666016,85.1072998046875,6.974159240722656,74.48959350585938,0.36776691012912327,0.004,0.0,-0.0,0.0,0.0,0.0,-0.009092458089192708,0.19427295260959201
249,-0.0,0.0,84.30943298339844,85.1072998046875,6.974159240722656,74.42822265625,0.36776691012912327,0.004,0.0,-0.0,0.0,0.0,0.0,-0.008865186903211806,0.19495485093858506
250,-0.0,0.0,84.30943298339844,85.02546691894531,7.035533905029297,74.40776062011719,0.36776691012912327,0.004333333333333333,0.0,-0.0,0.0,0.0,0.0,-0.0079559326171875,0.19586414761013454
251,-0.0,0.0,84.35034942626953,85.02546691894531,7.158283233642578,74.34638977050781,0.36776691012912327,0.004666666666666667,0.0,-0.0,0.0,0.0,0.0,-0.007501305474175347,0.19790992736816407
252,-0.0,0.0,84.39126586914062,85.02546691894531,7.281028747558594,74.30547332763672,0.36776691012912327,0.004333333333333333,0.0,-0.0,0.0,0.0,0.0,-0.007046678331163195,0.1997283935546875
253,-0.0,0.0,84.20714569091797,85.0050048828125,7.587898254394531,74.26455688476562,0.36776691012912327,0.005,0.0,-0.0,0.0,0.0,0.0,-0.008865102132161459,0.20359268188476562
254,-0.0,0.0,84.22760009765625,85.0050048828125,9.204082489013672,74.24409484863281,0.36776691012912327,0.004666666666666667,0.0,-0.0,0.0,0.0,0.0,-0.008637830946180555,0.2217776404486762
255,-0.0,0.0,84.20714569091797,85.02546691894531,9.388202667236328,74.20318603515625,0.3679942660861545,0.004666666666666667,0.0,-0.0,0.0,0.0,0.0,-0.009092458089192708,0.22427796257866753
256,-0.0,0.0,84.26852416992188,84.94363403320312,10.165607452392578,74.08043670654297,0.3679942660861545,0.004666666666666667,0.0,-0.0,0.0,0.0,0.0,-0.007501220703125,0.23427967495388455
257,-0.0,0.0,84.20714569091797,84.98455047607422,10.308815002441406,73.9781494140625,0.36776691012912327,0.004333333333333333,0.0,-0.0,0.0,0.0,0.0,-0.008637830946180555,0.2370073954264323
258,-0.0,0.0,84.26852416992188,84.94363403320312,10.452018737792969,73.99860382080078,0.36776691012912327,0.004333333333333333,0.0,-0.0,0.0,0.0,0.0,-0.007501220703125,0.23837127685546874
259,-0.0,0.0,84.24806213378906,84.98455047607422,10.7998046875,73.58944702148438,0.36776691012912327,0.005,0.0,-0.0,0.0,0.0,0.0,-0.008183203803168403,0.24678175184461806
260,-0.0,0.0,84.35034942626953,84.96409606933594,11.127132415771484,73.48715209960938,0.3679942660861545,0.005,0.0,-0.0,0.0,0.0,0.0,-0.006819407145182292,0.25155533684624565
261,-0.0,0.0,84.24806213378906,84.96409606933594,11.3521728515625,73.22119903564453,0.36776691012912327,0.004666666666666667,0.0,-0.0,0.0,0.0,0.0,-0.0079559326171875,0.25701082017686633
262,-0.0,0.0,84.28897857666016,84.98455047607422,11.659042358398438,73.20074462890625,0.3679942660861545,0.004666666666666667,0.0,-0.0,0.0,0.0,0.0,-0.00772857666015625,0.2606477525499132
263,-0.0,0.0,84.18669128417969,84.88226318359375,11.720417022705078,73.18028259277344,0.36776691012912327,0.005,0.0,-0.0,0.0,0.0,0.0,-0.00772857666015625,0.26155704922146267
264,-0.0,0.0,84.24806213378906,85.02546691894531,11.597667694091797,72.99616241455078,0.3679942660861545,0.005,0.0,-0.0,0.0,0.0,0.0,-0.008637830946180555,0.26223894755045574
265,-0.0,0.0,84.30943298339844,84.90271759033203,11.618125915527344,72.93478393554688,0.36776691012912327,0.005,0.0,-0.0,0.0,0.0,0.0,-0.0065920511881510414,0.2631482442220052
266,-0.0,0.0,84.22760009765625,84.92317199707031,11.720417022705078,72.8734130859375,0.36776691012912327,0.004666666666666667,0.0,-0.0,0.0,0.0,0.0,-0.00772857666015625,0.26496671040852865
267,-0.0,0.0,84.24806213378906,84.90271759033203,11.80224609375,72.75066375732422,0.36776691012912327,0.004666666666666667,0.0,-0.0,0.0,0.0,0.0,-0.0072739495171440975,0.2672398037380642
268,-0.0,0.0,84.24806213378906,85.02546691894531,11.781791687011719,72.62791442871094,0.36753963894314234,0.005,0.0,-0.0,0.0,0.0,0.0,-0.008637830946180555,0.2683764139811198
269,-0.0,0.0,84.26852416992188,85.06637573242188,11.761333465576172,72.60746002197266,0.3679942660861545,0.005,0.0,-0.0,0.0,0.0,0.0,-0.00886501736111111,0.26837637159559463
270,-0.0,0.0,84.26852416992188,84.82088470458984,11.80224609375,72.52562713623047,0.3679942660861545,0.005,0.0,-0.0,0.0,0.0,0.0,-0.006137339274088541,0.2697402106391059
271,-0.0,0.0,84.20714569091797,85.02546691894531,11.822704315185547,72.50517272949219,0.3682215372721354,0.005333333333333333,0.0,-0.0,0.0,0.0,0.0,-0.009092458089192708,0.27019479539659286
272,-0.0,0.0,84.22760009765625,84.96409606933594,11.761333465576172,72.46424865722656,0.36753963894314234,0.005333333333333333,0.0,-0.0,0.0,0.0,0.0,-0.00818328857421875,0.26996760898166233
273,-0.0,0.0,84.22760009765625,84.94363403320312,11.80224609375,72.46424865722656,0.36776691012912327,0.005,0.0,-0.0,0.0,0.0,0.0,-0.0079559326171875,0.27042219373914933
274,-0.0,0.0,84.20714569091797,85.02546691894531,11.86362075805664,72.3824234008789,0.36776691012912327,0.005,0.0,-0.0,0.0,0.0,0.0,-0.009092458089192708,0.2720133039686415
275,-0.0,0.0,84.28897857666016,85.02546691894531,11.924995422363281,72.25967407226562,0.36776691012912327,0.005333333333333333,0.0,-0.0,0.0,0.0,0.0,-0.008183203803168403,0.2740591261121962
276,-0.0,0.0,84.30943298339844,84.92317199707031,12.006828308105469,72.15737915039062,0.36776691012912327,0.005,0.0,-0.0,0.0,0.0,0.0,-0.006819322374131944,0.276104990641276
277,-0.0,0.0,84.26852416992188,84.94363403320312,12.047744750976562,72.05509185791016,0.36776691012912327,0.005,0.0,-0.0,0.0,0.0,0.0,-0.007501220703125,0.2776961432562934
278,-0.0,0.0,84.22760009765625,84.94363403320312,12.06820297241211,71.95280456542969,0.3679942660861545,0.004666666666666667,0.0,-0.0,0.0,0.0,0.0,-0.0079559326171875,0.27905998229980467
279,-0.0,0.0,84.08439636230469,84.96409606933594,12.12957763671875,71.78913879394531,0.3679942660861545,0.005666666666666667,0.0,-0.0,0.0,0.0,0.0,-0.009774441189236111,0.2815604315863715
280,-0.0,0.0,84.24806213378906,85.02546691894531,12.211406707763672,71.78913879394531,0.36776691012912327,0.005333333333333333,0.0,-0.0,0.0,0.0,0.0,-0.008637830946180555,0.28246964348687065
281,-0.0,0.0,84.18669128417969,84.96409606933594,12.231864929199219,71.72776794433594,0.3679942660861545,0.005333333333333333,0.0,-0.0,0.0,0.0,0.0,-0.008637830946180555,0.2833788553873698
282,-0.0,0.0,84.22760009765625,84.82088470458984,12.252323150634766,71.72776794433594,0.36776691012912327,0.005,0.0,-0.0,0.0,0.0,0.0,-0.0065920511881510414,0.28360616895887586
283,-0.0,0.0,84.1048583984375,84.88226318359375,12.313697814941406,71.7686767578125,0.36776691012912327,0.005,0.0,-0.0,0.0,0.0,0.0,-0.008637830946180555,0.2838335673014323
284,-0.0,0.0,84.1048583984375,84.84133911132812,12.456905364990234,71.62547302246094,0.36776691012912327,0.004666666666666667,0.0,-0.0,0.0,0.0,0.0,-0.008183119032118056,0.2870159149169922
285,-0.0,0.0,84.14576721191406,84.84133911132812,12.538734436035156,71.54364013671875,0.3679942660861545,0.004666666666666667,0.0,-0.0,0.0,0.0,0.0,-0.00772857666015625,0.2888343811035156
286,-0.0,0.0,84.22760009765625,84.82088470458984,12.886520385742188,71.46180725097656,0.3679942660861545,0.004666666666666667,0.0,-0.0,0.0,0.0,0.0,-0.0065920511881510414,0.2936079237196181
287,-0.0,0.0,84.14576721191406,84.86180114746094,13.234306335449219,71.318603515625,0.36776691012912327,0.004333333333333333,0.0,-0.0,0.0,0.0,0.0,-0.0079559326171875,0.29906336466471356
288,-0.0,0.0,84.22760009765625,84.96409606933594,13.397972106933594,71.11402893066406,0.3682215372721354,0.005,0.0,-0.0,0.0,0.0,0.0,-0.00818328857421875,0.30315492418077256
289,-0.0,0.0,84.20714569091797,84.86180114746094,13.84804916381836,71.01173400878906,0.3682215372721354,0.004333333333333333,0.0,-0.0,0.0,0.0,0.0,-0.0072739495171440975,0.30929239061143665
290,-0.0,0.0,84.22760009765625,84.86180114746094,14.19583511352539,70.88898468017578,0.36776691012912327,0.004333333333333333,0.0,-0.0,0.0,0.0,0.0,-0.007046678331163195,0.3145205603705512
291,-0.0,0.0,84.16622924804688,85.0050048828125,14.379955291748047,70.74578094482422,0.36776691012912327,0.004,0.0,-0.0,0.0,0.0,0.0,-0.009319729275173612,0.3181574927435981
292,-0.0,0.0,84.16622924804688,84.88226318359375,14.3594970703125,70.7662353515625,0.3679942660861545,0.004333333333333333,0.0,-0.0,0.0,0.0,0.0,-0.0079559326171875,0.3177029079861111
293,-0.0,0.0,84.14576721191406,84.77996826171875,14.318580627441406,70.7662353515625,0.36776691012912327,0.004,0.0,-0.0,0.0,0.0,0.0,-0.007046678331163195,0.317248280843099
294,-0.0,0.0,84.16622924804688,84.94363403320312,14.29812240600586,70.72532653808594,0.3679942660861545,0.0036666666666666666,0.0,-0.0,0.0,0.0,0.0,-0.008637830946180555,0.3174755096435547
295,-0.0,0.0,84.14576721191406,84.86180114746094,14.318580627441406,70.74578094482422,0.3679942660861545,0.004333333333333333,0.0,-0.0,0.0,0.0,0.0,-0.0079559326171875,0.31747555202907984
296,-0.0,0.0,84.16622924804688,84.80043029785156,14.400413513183594,70.74578094482422,0.3679942660861545,0.004333333333333333,0.0,-0.0,0.0,0.0,0.0,-0.007046678331163195,0.3183848063151042
297,-0.0,0.0,84.0434799194336,84.82088470458984,14.339038848876953,70.74578094482422,0.3679942660861545,0.004,0.0,-0.0,0.0,0.0,0.0,-0.008637830946180555,0.3177028656005859
298,-0.0,0.0,84.16622924804688,84.86180114746094,14.400413513183594,70.72532653808594,0.36776691012912327,0.004333333333333333,0.0,-0.0,0.0,0.0,0.0,-0.00772857666015625,0.31861207750108506
299,-0.0,0.0,84.14576721191406,84.86180114746094,14.482246398925781,70.70486450195312,0.3682215372721354,0.0036666666666666666,0.0,-0.0,0.0,0.0,0.0,-0.0079559326171875,0.3197486877441406
300,-0.0,0.0,84.12531280517578,84.77996826171875,14.400413513183594,70.72532653808594,0.36776691012912327,0.004,0.0,-0.0,0.0,0.0,0.0,-0.0072739495171440975,0.31861207750108506
301,-0.0,0.0,84.06393432617188,84.82088470458984,14.441329956054688,70.64349365234375,0.3670850118001302,0.004,0.0,-0.0,0.0,0.0,0.0,-0.008410559760199653,0.31997595893012154
302,-0.0,0.0,84.08439636230469,84.75950622558594,14.42087173461914,70.70486450195312,0.3679942660861545,0.004,0.0,-0.0,0.0,0.0,0.0,-0.007501220703125,0.3190667470296224
303,-0.0,0.0,84.0025634765625,84.71859741210938,14.400413513183594,70.64349365234375,0.3679942660861545,0.003,0.0,-0.0,0.0,0.0,0.0,-0.0079559326171875,0.3195213317871094
304,-0.0,0.0,83.85935974121094,84.53446960449219,14.3594970703125,70.68440246582031,0.3673123677571615,0.0033333333333333335,0.0,-0.0,0.0,0.0,0.0,-0.007501220703125,0.3186121622721354
305,-0.0,0.0,83.87982177734375,84.69813537597656,14.236751556396484,70.58211517333984,0.36685774061414933,0.0036666666666666666,0.0,-0.0,0.0,0.0,0.0,-0.00909237331814236,0.31838484870062933
306,-0.0,0.0,83.81844329833984,84.53446960449219,14.154918670654297,70.68440246582031,0.36685774061414933,0.0036666666666666666,0.0,-0.0,0.0,0.0,0.0,-0.007955847846137152,0.31633906894259983
307,-0.0,0.0,83.75706481933594,84.43218231201172,13.909420013427734,70.62303161621094,0.36663038465711806,0.0036666666666666666,0.0,-0.0,0.0,0.0,0.0,-0.007501305474175347,0.31429320441352
308,-0.0,0.0,83.67523193359375,84.5140151977539,13.602550506591797,70.7662353515625,0.36685774061414933,0.003,0.0,-0.0,0.0,0.0,0.0,-0.009319814046223958,0.30929239061143665
309,-0.0,0.0,83.83889770507812,84.63676452636719,13.336597442626953,70.66394805908203,0.36663038465711806,0.0033333333333333335,0.0,-0.0,0.0,0.0,0.0,-0.008865186903211806,0.307473882039388
310,-0.0,0.0,83.96165466308594,84.45263671875,12.804691314697266,70.84806823730469,0.3673123677571615,0.003,0.0,-0.0,0.0,0.0,0.0,-0.005455356174045139,0.29951803419325085
311,-0.0,0.0,83.81844329833984,84.49356079101562,12.722858428955078,70.78669738769531,0.3670850118001302,0.0023333333333333335,0.0,-0.0,0.0,0.0,0.0,-0.007501305474175347,0.29929067823621963
312,-0.0,0.0,83.98210144042969,84.6572265625,11.106674194335938,71.07310485839844,0.36685774061414933,0.0023333333333333335,0.0,-0.0,0.0,0.0,0.0,-0.007501390245225694,0.2781507703993056
313,-0.0,0.0,83.98210144042969,84.6572265625,9.183624267578125,71.09356689453125,0.36663038465711806,0.0023333333333333335,0.0,-0.0,0.0,0.0,0.0,-0.007501390245225694,0.2565561930338542
314,-0.0,0.0,83.98210144042969,84.57539367675781,7.649272918701172,71.68685150146484,0.3673123677571615,0.002,0.0,-0.0,0.0,0.0,0.0,-0.006592135959201389,0.2329157935248481
315,-0.0,0.0,84.1048583984375,84.57539367675781,7.199199676513672,72.46424865722656,0.36776691012912327,0.0016666666666666668,0.0,-0.0,0.0,0.0,0.0,-0.005228169759114583,0.21927723354763454
316,-0.0,0.0,84.0434799194336,84.61630249023438,6.912784576416016,73.99860382080078,0.3679942660861545,0.0016666666666666668,0.0,-0.0,0.0,0.0,0.0,-0.006364695231119792,0.19904645284016928
317,-0.0,0.0,84.0025634765625,84.6572265625,6.4831695556640625,75.00104522705078,0.36776691012912327,0.001,0.0,-0.0,0.0,0.0,0.0,-0.007274034288194444,0.18313471476236978
318,-0.0,0.0,83.94119262695312,84.73905181884766,6.176296234130859,75.28746032714844,0.36776691012912327,0.001,0.0,-0.0,0.0,0.0,0.0,-0.008865102132161459,0.17654262118869357
319,-0.0,0.0,84.02302551269531,84.63676452636719,5.808052062988281,75.65570068359375,0.3679942660861545,0.001,0.0,-0.0,0.0,0.0,0.0,-0.006819322374131944,0.16835945977105035
320,-0.0,0.0,84.14576721191406,84.75950622558594,5.276145935058594,76.08531951904297,0.3682215372721354,0.0006666666666666666,0.0,-0.0,0.0,0.0,0.0,-0.006819322374131944,0.1576758490668403
321,-0.0,0.0,84.14576721191406,84.73905181884766,5.071567535400391,76.45356750488281,0.3682215372721354,0.0006666666666666666,0.0,-0.0,0.0,0.0,0.0,-0.0065920511881510414,0.15131111145019532
322,-0.0,0.0,84.0434799194336,84.77996826171875,4.682865142822266,76.535400390625,0.3679942660861545,0.001,0.0,-0.0,0.0,0.0,0.0,-0.008183203803168403,0.14608294169108074
323,-0.0,0.0,84.18669128417969,84.86180114746094,4.580574035644531,76.63768005371094,0.36776691012912327,0.0006666666666666666,0.0,-0.0,0.0,0.0,0.0,-0.007501220703125,0.1438099331325955
324,-0.0,0.0,84.1048583984375,84.80043029785156,4.253246307373047,76.78089141845703,0.36776691012912327,0.0006666666666666666,0.0,-0.0,0.0,0.0,0.0,-0.00772857666015625,0.13858172098795574
325,-0.0,0.0,84.16622924804688,84.82088470458984,4.171413421630859,76.80134582519531,0.3679942660861545,0.0006666666666666666,0.0,-0.0,0.0,0.0,0.0,-0.0072739495171440975,0.13744519551595052
326,-0.0,0.0,84.02302551269531,84.69813537597656,4.110038757324219,76.96501159667969,0.3682215372721354,0.001,0.0,-0.0,0.0,0.0,0.0,-0.007501220703125,0.13494474622938368
327,-0.0,0.0,84.06393432617188,84.6572265625,3.987293243408203,77.00592803955078,0.3682215372721354,0.0006666666666666666,0.0,-0.0,0.0,0.0,0.0,-0.006592135959201389,0.13312628004286026
328,-0.0,0.0,84.0025634765625,84.71859741210938,3.9259185791015625,77.04684448242188,0.3679942660861545,0.001,0.0,-0.0,0.0,0.0,0.0,-0.0079559326171875,0.13198971218532987
329,-0.0,0.0,84.0434799194336,84.73905181884766,3.9463768005371094,77.10821533203125,0.36776691012912327,0.0006666666666666666,0.0,-0.0,0.0,0.0,0.0,-0.00772857666015625,0.13153512742784287
330,-0.0,0.0,84.08439636230469,84.6572265625,3.8850021362304688,77.12867736816406,0.3679942660861545,0.0006666666666666666,0.0,-0.0,0.0,0.0,0.0,-0.006364780002170139,0.13062583075629342
331,-0.0,0.0,84.0434799194336,84.61630249023438,3.864543914794922,77.19004821777344,0.3679942660861545,0.0006666666666666666,0.0,-0.0,0.0,0.0,0.0,-0.006364695231119792,0.12971661885579427
332,-0.0,0.0,84.16622924804688,84.84133911132812,3.7417945861816406,77.10821533203125,0.3682215372721354,0.0006666666666666666,0.0,-0.0,0.0,0.0,0.0,-0.007501220703125,0.12926199171278213
333,-0.0,0.0,84.0025634765625,84.84133911132812,3.8031692504882812,77.35371398925781,0.3679942660861545,0.0006666666666666666,0.0,-0.0,0.0,0.0,0.0,-0.009319729275173612,0.12721616956922743
334,-0.0,0.0,84.02302551269531,84.86180114746094,3.700878143310547,77.37417602539062,0.3679942660861545,0.0006666666666666666,0.0,-0.0,0.0,0.0,0.0,-0.009319729275173612,0.1258522457546658
335,-0.0,0.0,84.16622924804688,84.69813537597656,3.7622528076171875,77.4764633178711,0.3679942660861545,0.0006666666666666666,0.0,-0.0,0.0,0.0,0.0,-0.0059100680881076385,0.1253976609971788
336,-0.0,0.0,84.0025634765625,84.75950622558594,3.6804237365722656,77.435546875,0.3684488932291667,0.0003333333333333333,0.0,-0.0,0.0,0.0,0.0,-0.008410474989149305,0.12494307623969184
337,-0.0,0.0,84.0025634765625,84.86180114746094,3.619049072265625,77.45600891113281,0.3679942660861545,0.0006666666666666666,0.0,-0.0,0.0,0.0,0.0,-0.009547085232204862,0.12403377956814236
338,-0.0,0.0,84.20714569091797,84.77996826171875,3.6804237365722656,77.55829620361328,0.36753963894314234,0.0006666666666666666,0.0,-0.0,0.0,0.0,0.0,-0.006364695231119792,0.12357919481065538
339,-0.0,0.0,84.18669128417969,84.86180114746094,3.475841522216797,77.64012145996094,0.3679942660861545,0.001,0.0,-0.0,0.0,0.0,0.0,-0.007501220703125,0.12039688958062066
340,-0.0,0.0,84.20714569091797,84.61630249023438,3.3326377868652344,77.55829620361328,0.3682215372721354,0.0013333333333333333,0.0,-0.0,0.0,0.0,0.0,-0.00454618665907118,0.11971490648057725
341,-0.0,0.0,83.98210144042969,84.86180114746094,3.1894302368164062,77.78333282470703,0.3682215372721354,0.0006666666666666666,0.0,-0.0,0.0,0.0,0.0,-0.009774441189236111,0.11562330457899306
342,-0.0,0.0,84.06393432617188,84.75950622558594,3.1485137939453125,78.09020233154297,0.3679942660861545,0.001,0.0,-0.0,0.0,0.0,0.0,-0.00772857666015625,0.11175901624891493
343,-0.0,0.0,84.06393432617188,84.67768096923828,3.0053062438964844,78.27432250976562,0.3679942660861545,0.0006666666666666666,0.0,-0.0,0.0,0.0,0.0,-0.006819407145182292,0.10812204149034288
344,-0.0,0.0,83.85935974121094,84.90271759033203,3.066680908203125,78.21295166015625,0.36776691012912327,0.0,0.0,-0.0,0.0,0.0,0.0,-0.011592864990234375,0.10948588053385416
345,-0.0,0.0,84.08439636230469,84.80043029785156,2.9643936157226562,78.27432250976562,0.3679942660861545,0.0006666666666666666,0.0,-0.0,0.0,0.0,0.0,-0.0079559326171875,0.10766745673285591
346,-0.0,0.0,84.08439636230469,84.73905181884766,3.046222686767578,78.33570098876953,0.36753963894314234,0.0003333333333333333,0.0,-0.0,0.0,0.0,0.0,-0.0072739495171440975,0.10789468553331164
347,-0.0,0.0,84.14576721191406,84.80043029785156,2.9234771728515625,78.35615539550781,0.36776691012912327,0.0,0.0,-0.0,0.0,0.0,0.0,-0.007274034288194444,0.10630357530381944
348,-0.0,0.0,84.16622924804688,84.80043029785156,2.8825607299804688,78.27432250976562,0.36753963894314234,0.0,0.0,-0.0,0.0,0.0,0.0,-0.007046678331163195,0.1067582024468316
349,-0.0,0.0,84.1048583984375,84.86180114746094,2.7598114013671875,78.31524658203125,0.3679942660861545,0.0,0.0,-0.0,0.0,0.0,0.0,-0.008410474989149305,0.10493960910373264
350,-0.0,0.0,84.22760009765625,84.88226318359375,2.698436737060547,78.37661743164062,0.36753963894314234,0.0,0.0,-0.0,0.0,0.0,0.0,-0.007274034288194444,0.10357577006022135
