,WD,WS,AIL_1,AIL_2,ELEV_1,ELEV_2,RUDD,ALT,GS,TH,PTCH,ROLL,PLA_1,AIL,ELEV
7201,-0.0845434237657335,0.19921878814697266,84.6572265625,83.0001220703125,-4.66644287109375,85.455078125,-0.01320648193359375,0.7613333333333333,0.43785714285714283,0.000701904296875,0.9118380546569824,-0.9338098936767594,32.4314079284668,0.018412272135416668,-0.05690578884548611
7202,-0.06110592376573349,0.19921878814697266,86.13019561767578,83.5934066772461,-5.177890777587891,86.13019561767578,-0.00843293931749132,0.7556666666666667,0.43642857142857144,0.0011901431613498264,1.1425440311431885,0.032958000898361206,32.6071891784668,0.028186543782552084,-0.07008984883626303
7203,-0.05719967376573349,0.15937503814697265,87.29630279541016,85.76194763183594,-5.136974334716797,86.35523986816406,-0.005250591701931423,0.7506666666666667,0.43535714285714283,0.0022582583957248266,0.7250760197639465,1.340291976928711,32.4314079284668,0.017048390706380208,-0.07213571336534289
7204,-0.0728246737657335,0.15937503814697265,85.74149322509766,85.12775421142578,-5.055145263671875,85.98699188232422,-0.0007043626573350694,0.7456666666666667,0.4342857142857143,0.0023498111300998266,0.35155200958251953,0.790992021560669,32.4314079284668,0.006819322374131944,-0.06713485717773438
7205,-0.0884496737657335,0.1195312786102295,83.79798889160156,84.86180114746094,-4.932395935058594,86.29386138916016,-0.010251405504014757,0.74,0.43357142857142855,0.0028075324164496527,-0.01098694140625156,-0.9667688780517594,32.4314079284668,-0.011820136176215277,-0.06918063693576389
7206,-0.04157467376573349,0.13945316314697265,85.23004150390625,83.69569396972656,-4.911937713623047,85.74149322509766,-0.006387117173936632,0.7346666666666667,0.43357142857142855,0.0032958136664496527,-0.4174677305908219,-1.2743765288085953,32.4314079284668,0.017048305935329862,-0.06281589931911892
7207,-0.04938717376573349,0.13945316314697265,84.71859741210938,83.73661041259766,-4.911937713623047,85.96653747558594,-0.007296371459960938,0.729,0.4332142857142857,0.0021056705050998266,-0.49437012011718906,-1.3842359953613297,32.4314079284668,0.01091096666124132,-0.06531639099121093
7208,-0.06110592376573349,0.15937503814697265,84.26852416992188,83.81844329833984,-4.8096466064453125,86.17111206054688,-0.003204769558376736,0.7236666666666667,0.4332142857142857,0.0003662109375,-0.6921183043212906,-1.4721247130126969,32.4314079284668,0.00500089857313368,-0.06645287407769097
7209,-0.05329342376573349,0.15937503814697265,86.15065002441406,85.08683776855469,-4.850563049316406,85.86424255371094,-0.0002497355143229167,0.718,0.43357142857142855,-0.000213623046875,-0.6921183043212906,-0.7360617094726578,32.4314079284668,0.011820136176215277,-0.06349784003363715
7210,-0.13923092376573348,0.13945316314697265,85.57783508300781,84.45263671875,-5.239265441894531,86.31431579589844,-0.0034320831298828127,0.7116666666666667,0.43214285714285716,-0.0038756052652994793,-0.6811319761962906,-1.1095873289794937,32.4314079284668,0.012502204047309028,-0.07281756930881077
7211,-0.13532467376573348,0.1195312786102295,86.13019561767578,85.1072998046875,-6.548576354980469,87.41905212402344,-0.008887566460503472,0.707,0.43107142857142855,-0.0038450876871744793,-0.6921183043212906,-0.9228254729003922,32.4314079284668,0.011365509033203125,-0.09964031643337673
7212,-0.1236059237657335,0.1195312786102295,84.0434799194336,84.94363403320312,-6.7531585693359375,87.66455078125,-0.003659396701388889,0.7043333333333334,0.4278571428571429,-0.004028193155924479,-1.4501520567626969,-1.4831110411376969,32.4314079284668,-0.010001712375217013,-0.10464121500651041
7213,-0.16266842376573348,0.09960939407348633,84.37080383300781,83.42974090576172,-8.287506103515625,88.78973388671875,0.0011141459147135417,0.7016666666666667,0.4257142857142857,-0.005767652723524305,-2.6805845671386734,-1.6808592253417984,32.4314079284668,0.010456254747178819,-0.1341915554470486
7214,-0.12751217376573348,0.05976563930511475,84.16622924804688,83.26608276367188,-7.837432861328125,89.05569458007812,-0.009796820746527778,0.7016666666666667,0.42178571428571426,-0.004394404093424479,-4.042849200317384,-0.5163427763671891,32.4314079284668,0.010001627604166667,-0.13214586046006943
7215,-0.02985592376573349,0.07968751907348633,85.88470458984375,84.88226318359375,-7.714683532714844,89.23981475830078,-0.008887566460503472,0.6986666666666667,0.42,-0.0023192511664496527,-4.35045685107422,0.23070600628852844,32.4314079284668,0.011138237847222222,-0.1328277587890625
7216,-0.02594967376573349,0.09960939407348633,85.1072998046875,83.77752685546875,-7.796516418457031,88.68744659423828,-0.00775099860297309,0.694,0.4175,-0.0025023566351996527,-4.196652072021486,-0.2746511870117203,32.4314079284668,0.014775254991319445,-0.12759958902994792
7217,-0.05719967376573349,0.09960939407348633,83.77752685546875,84.86180114746094,-7.857891082763672,88.44195556640625,-0.0009316762288411458,0.689,0.41535714285714287,-0.0034788767496744793,-4.4163729124755875,-0.5492998533935562,32.4314079284668,-0.012047492133246528,-0.12555385165744357
7218,-0.014230923765733492,0.09960939407348633,84.98455047607422,84.18669128417969,-8.205677032470703,88.91248321533203,-0.004114023844401042,0.6853333333333333,0.41285714285714287,-0.0026244269476996527,-4.932715075561525,-1.120571749755861,32.4314079284668,0.008865102132161459,-0.13464622497558593
7219,-0.014230923765733492,0.07968751907348633,85.25050354003906,84.22760009765625,-9.637737274169922,89.93538665771484,0.003841866387261285,0.6816666666666666,0.41035714285714286,-0.0034178415934244793,-5.009617465087892,-1.142544406005861,32.4314079284668,0.011365593804253473,-0.16192359924316407
7220,-0.014230923765733492,0.1195312786102295,84.35034942626953,83.49111938476562,-9.678653717041016,90.6309585571289,-0.01252454121907552,0.6766666666666666,0.4057142857142857,-0.004333368937174479,-5.350182192871095,-1.4721247130126969,32.4314079284668,0.009547000461154514,-0.17010680304633247
7221,-0.02985592376573349,0.07968751907348633,84.77996826171875,82.87738037109375,-9.412696838378906,90.48774719238281,-0.006159803602430555,0.6726666666666666,0.40285714285714286,-0.005554029676649305,-6.185118334838869,-0.6262022429199234,32.34352111816406,0.02113986545138889,-0.16556048923068575
7222,-0.03376217376573349,0.09960939407348633,82.52958679199219,82.97966003417969,-8.962623596191406,90.28317260742188,-0.01729808383517795,0.666,0.3982142857142857,-0.0062558915879991316,-6.679489749023439,-1.0876146727294937,32.34352111816406,-0.0050008138020833336,-0.15828662448459202
7223,0.02092532623426651,0.09960939407348633,83.83889770507812,82.36592102050781,-8.471630096435547,89.62850952148438,-0.00297745598687066,0.6616666666666666,0.3964285714285714,-0.005340406629774305,-6.701460497924806,0.3954960107803345,32.34352111816406,0.016366407606336807,-0.14555710686577691
7224,-0.05329342376573349,0.1195312786102295,85.06637573242188,82.42729949951172,-8.471630096435547,89.2193603515625,0.007024214002821181,0.656,0.3921428571428571,-0.0072629716661241316,-6.38286651904297,1.8786060810089111,32.34352111816406,0.029323069254557292,-0.14101100497775607
7225,-0.0728246737657335,0.1195312786102295,83.47065734863281,85.65966796875,-8.921707153320312,89.81263732910156,-0.0050232781304253475,0.65,0.3889285714285714,-0.0066221025254991316,-5.580889361450197,1.4281799793243408,32.34352111816406,-0.024322340223524305,-0.15260382758246527
7226,-0.0025121737657334917,0.09960939407348633,84.24806213378906,83.49111938476562,-8.307964324951172,89.52622985839844,-0.021389685736762153,0.6466666666666666,0.38321428571428573,-0.0029906378851996527,-5.49300064379883,0.36253800988197327,32.34352111816406,0.008410474989149305,-0.14260215759277345
7227,0.0834253262342665,0.15937503814697265,84.88226318359375,84.06393432617188,-8.51254653930664,89.1579818725586,-0.018661922878689237,0.641,0.38035714285714284,0.0020751529269748266,-5.130463259765627,0.8019779920578003,32.34352111816406,0.009092542860243056,-0.14078364902072482
7228,0.0834253262342665,0.13945316314697265,85.47554016113281,84.47309875488281,-8.51254653930664,89.75126647949219,0.010888502332899305,0.636,0.375,0.0024108462863498266,-4.899756091186525,1.9005780220031738,32.34352111816406,0.011138237847222222,-0.14737570020887586
7229,0.04045657623426651,0.1195312786102295,83.49111938476562,84.69813537597656,-8.655750274658203,89.85355377197266,-0.009796820746527778,0.632,0.37142857142857144,0.0015868716769748264,-4.888771670410158,1.2963480949401855,32.34352111816406,-0.013411288791232639,-0.15010337829589843
7230,0.0717065762342665,0.15937503814697265,85.94607543945312,85.72103881835938,-8.430713653564453,89.36256408691406,-0.01252454121907552,0.6273333333333333,0.36642857142857144,0.004913202921549479,-5.317225115844728,1.4611380100250244,32.34352111816406,0.0025004069010416668,-0.14214753044976128
7231,0.04826907623426651,0.17929691314697266,85.14820861816406,85.12775421142578,-7.960178375244141,89.28073120117188,0.0002048916286892361,0.6216666666666667,0.3632142857142857,0.005157343546549479,-5.383141177246095,1.7467740774154663,34.628658294677734,0.00022727118598090277,-0.13601010640462238
7232,0.02873782623426651,0.219140682220459,84.82088470458984,83.5934066772461,-7.960178375244141,88.42149353027344,-0.00297745598687066,0.617,0.35892857142857143,0.005370924207899305,-4.833840029785158,1.581984043121338,36.29856872558594,0.013638644748263888,-0.12646302117241753
7233,0.02873782623426651,0.219140682220459,86.49844360351562,84.26852416992188,-8.267051696777344,89.34210205078125,-0.006841744316948784,0.6126666666666667,0.35642857142857143,0.006652662489149305,-4.515246050903322,2.032410144805908,36.65013122558594,0.024776882595486112,-0.1401017083062066
7234,0.02483157623426651,0.19921878814697266,85.31187438964844,84.32989501953125,-8.082927703857422,88.91248321533203,-0.0013863033718532986,0.6076666666666667,0.35285714285714287,0.007903840806749132,-4.745953219482423,2.1532559394836426,36.82590866088867,0.010910881890190972,-0.13328234354654947
7235,0.03264407623426651,0.219140682220459,85.61874389648438,84.49356079101562,-8.042011260986328,88.81019592285156,-0.012069914076063368,0.603,0.35,0.010497750176323786,-4.712994235107423,2.0763540267944336,36.82590866088867,0.012502034505208334,-0.13169119093153211
7236,0.04045657623426651,0.219140682220459,86.1097412109375,84.92317199707031,-6.5894927978515625,88.6669921875,-0.012751854790581597,0.598,0.3464285714285714,0.012847518920898438,-4.537218707153322,2.032410144805908,36.91379928588867,0.013184102376302083,-0.11396094428168403
7237,0.04045657623426651,0.219140682220459,86.21202850341797,85.88470458984375,-7.100944519042969,87.80775451660156,-0.0009316762288411458,0.5936666666666667,0.345,0.014281802707248263,-3.6583391600341812,1.7577600479125977,36.91379928588867,0.003636932373046875,-0.1100966559516059
7238,0.04045657623426651,0.219140682220459,86.92805480957031,85.80287170410156,-7.162319183349609,88.17599487304688,-0.005250591701931423,0.5893333333333334,0.3407142857142857,0.01531935797797309,-3.1200243406982437,0.6262019872665405,36.91379928588867,0.012502034505208334,-0.11487015618218316
7239,0.04436282623426651,0.239062557220459,84.77996826171875,85.96653747558594,-7.244148254394531,88.40103149414062,-0.009796820746527778,0.585,0.33785714285714286,0.01596022711859809,-3.1310106688232437,-0.5383154326171891,36.91379928588867,-0.013184102376302083,-0.11827977498372395
7240,0.02873782623426651,0.239062557220459,83.12287139892578,84.73905181884766,-7.203235626220703,88.13508605957031,0.003387239244249132,0.5813333333333334,0.3342857142857143,0.014312320285373263,-3.1090380125732437,-0.7360617094726578,38.320037841796875,-0.017957560221354165,-0.1148702409532335
7241,0.02873782623426651,0.239062557220459,85.88470458984375,83.87982177734375,-6.875904083251953,87.82821655273438,-0.012069914076063368,0.5773333333333334,0.3317857142857143,0.013885074191623263,-2.6915708952636734,-0.2526785307617203,40.25362014770508,0.022276475694444443,-0.10782356262207031
7242,0.01701907623426651,0.219140682220459,86.64164733886719,85.70057678222656,-7.121402740478516,88.13508605957031,-0.002068201700846354,0.5736666666666667,0.3289285714285714,0.012694931030273438,-2.3180471831054703,0.26366400718688965,41.13251876831055,0.010456339518229166,-0.1139609866672092
7243,-0.0025121737657334917,0.239062557220459,84.49356079101562,83.63432312011719,-7.039569854736328,87.82821655273438,-0.00297745598687066,0.5703333333333334,0.3271428571428571,0.01123012966579861,-2.175228732177736,-0.19774879748535312,41.22040939331055,0.009547085232204862,-0.10964207119411892
7244,-0.0025121737657334917,0.25898443222045897,86.559814453125,85.5982894897461,-6.67132568359375,87.66455078125,-0.002750142415364583,0.565,0.3246428571428571,0.010955513848198786,-2.2741018706054703,-0.18676246936035312,42.538761138916016,0.01068361070421007,-0.10373196072048611
7245,-0.02985592376573349,0.239062557220459,86.0074462890625,86.04837036132812,-6.609951019287109,87.39859008789062,0.010433875189887153,0.562,0.32285714285714284,0.008422597249348959,-2.3070608549804703,-0.19774879748535312,43.68132781982422,-0.0004547119140625,-0.10009490119086371
7246,-0.01813717376573349,0.219140682220459,82.36592102050781,82.22271728515625,-5.44384765625,86.37569427490234,-0.029118262396918403,0.5583333333333333,0.32142857142857145,0.009185536702473959,-1.7028299742431656,-3.4056612425537125,45.26335144042969,0.001591152615017361,-0.07577268812391492
7247,0.013112826234266508,0.239062557220459,81.32257080078125,79.84959411621094,-5.689342498779297,86.64164733886719,-0.02389009263780382,0.5553333333333333,0.32107142857142856,0.008270009358723959,-0.9667688780517594,-4.053835528442384,46.58169937133789,0.016366407606336807,-0.08145544264051649
7248,0.02873782623426651,0.219140682220459,86.74394226074219,85.98699188232422,-6.548576354980469,87.6031723022461,0.001341459486219618,0.5523333333333333,0.32071428571428573,0.006072828504774305,-0.19774879748535312,-2.0653692656250016,47.46059799194336,0.008410559760199653,-0.10168609619140626
7249,0.005300326234266508,0.219140682220459,82.44775390625,82.48867797851562,-5.627967834472656,86.47798156738281,-0.0059324900309244795,0.55,0.32,0.0025939093695746527,-0.3185945921630875,-1.9884668760986344,50.09729766845703,-0.0004547119140625,-0.07895499335394965
7250,-0.0025121737657334917,0.219140682220459,86.02790832519531,83.85935974121094,-6.569034576416016,87.45996856689453,-0.004114023844401042,0.5473333333333333,0.32,0.000274658203125,0.23070600628852844,-1.4940973692626969,51.2398681640625,0.024094984266493057,-0.10032225714789497
7251,0.0013940762342665083,0.219140682220459,84.30943298339844,80.23829650878906,-6.691783905029297,87.54179382324219,0.00225067138671875,0.5446666666666666,0.32,-0.0010985904269748264,-0.12084640795898594,-0.4284540587158219,51.2398681640625,0.04523484971788194,-0.10259530809190538
7252,-0.010324673765733492,0.19921878814697266,83.61386108398438,82.59095764160156,-6.875904083251953,88.0123291015625,-0.0043413374159071184,0.5426666666666666,0.32071428571428573,-0.0018309699164496527,-0.7140909605712906,0.09887400269508362,51.2398681640625,0.011365593804253473,-0.10986925760904948
7253,-0.006418423765733492,0.219140682220459,84.22760009765625,83.87982177734375,-6.7531585693359375,87.35768127441406,0.0004322052001953125,0.5403333333333333,0.32107142857142856,-0.0017699771457248264,-1.120571749755861,0.2197200059890747,51.2398681640625,0.0038642035590277777,-0.10123155381944444
7254,0.02092532623426651,0.19921878814697266,84.16622924804688,82.93875122070312,-7.5305633544921875,88.38057708740234,-0.015024948120117187,0.5386666666666666,0.3221428571428571,0.000701904296875,-1.3402925902099625,0.23070600628852844,51.2398681640625,0.013638644748263888,-0.12123489379882812
7255,0.03264407623426651,0.19921878814697266,85.25050354003906,84.71859741210938,-6.7531585693359375,87.86912536621094,-0.0011589898003472221,0.536,0.3225,0.0017699771457248264,-2.2741018706054703,1.1974740028381348,50.976200103759766,0.0059100680881076385,-0.10691426595052084
7256,0.02873782623426651,0.17929691314697266,86.08927917480469,84.77996826171875,-6.425830841064453,87.86912536621094,-0.009796820746527778,0.5333333333333333,0.32392857142857145,0.0024413638644748266,-2.2850881987304703,1.5490260124206543,50.888309478759766,0.014547899034288195,-0.10327729119194878
7257,0.04436282623426651,0.15937503814697265,85.37325286865234,86.02790832519531,-6.691783905029297,87.84866333007812,-0.008887566460503472,0.5296666666666666,0.3246428571428571,0.004455439249674479,-1.8346620970459,1.1315580606460571,50.53675079345703,-0.0072739495171440975,-0.10600496927897135
7258,0.04436282623426651,0.17929691314697266,84.37080383300781,84.39126586914062,-6.057586669921875,87.31675720214844,-0.01002409193250868,0.5256666666666666,0.32535714285714284,0.005431959364149305,-1.9115644865722672,0.747048020362854,50.36096954345703,-0.00022735595703125,-0.09304826524522569
7259,0.02092532623426651,0.15937503814697265,84.71859741210938,83.96165466308594,-6.118961334228516,87.05081176757812,-0.002068201700846354,0.5203333333333333,0.3264285714285714,0.004638544718424479,-1.538040774414064,1.2414180040359497,50.36096954345703,0.008410474989149305,-0.09077525668674045
7260,-0.05329342376573349,0.17929691314697266,83.42974090576172,84.71859741210938,-6.323539733886719,87.21446990966797,0.01316163804796007,0.5176666666666667,0.3271428571428571,0.0006103515625,-1.0876146727294937,1.7907180786132812,50.36096954345703,-0.014320627848307291,-0.0948667738172743
7261,-0.06110592376573349,0.19921878814697266,84.20714569091797,81.75218200683594,-6.078044891357422,86.76439666748047,-0.011842600504557292,0.5143333333333333,0.3267857142857143,0.00103759765625,-0.8898664885253922,1.9445220232009888,50.36096954345703,0.027277374267578126,-0.08713823954264323
7262,-0.06110592376573349,0.19921878814697266,86.5188980102539,86.27340698242188,-6.303081512451172,87.27584838867188,-0.0075236850314670135,0.512,0.3264285714285714,0.0031127081976996527,-0.3735243254394547,2.361989974975586,50.27307891845703,0.0027276780870225696,-0.09532144334581164
7263,-0.0650121737657335,0.19921878814697266,85.68012237548828,86.33477783203125,-6.3644561767578125,87.48042297363281,-0.0013863033718532986,0.5083333333333333,0.32607142857142857,0.004608027140299479,-0.21972145373535312,2.2521300315856934,50.27307891845703,-0.0072739495171440975,-0.09827643500434027
7264,-0.0767309237657335,0.17929691314697266,87.17355346679688,84.5958480834961,-6.855449676513672,87.72592163085938,-0.008660252888997395,0.5063333333333333,0.3246428571428571,0.006103346082899305,-0.07690300280761875,1.9335360527038574,50.27307891845703,0.028641170925564237,-0.10645968119303385
7265,-0.0689184237657335,0.17929691314697266,85.74149322509766,86.64164733886719,-6.7531585693359375,88.0123291015625,-0.009342193603515625,0.5033333333333333,0.32357142857142857,0.0076902177598741316,-0.48338379199218906,0.6921180486679077,50.27307891845703,-0.010001712375217013,-0.10850541856553819
7266,-0.014230923765733492,0.19921878814697266,89.62850952148438,85.31187438964844,-6.834991455078125,88.1555404663086,-0.02980016072591146,0.5016666666666667,0.32321428571428573,0.01184048122829861,-0.9228254729003922,0.16479000449180603,50.27307891845703,0.04796261257595486,-0.1110059102376302
7267,-0.04938717376573349,0.15937503814697265,82.75462341308594,83.53202819824219,-6.078044891357422,87.17355346679688,-0.001613616943359375,0.49866666666666665,0.32321428571428573,0.009917916191948786,-1.5929705076904312,-1.8566347532959,50.27307891845703,-0.008637830946180555,-0.09168442620171441
7268,-0.05329342376573349,0.19921878814697266,78.96989440917969,78.51982116699219,-6.057586669921875,87.27584838867188,-0.015252261691623263,0.496,0.32321428571428573,0.006683180067274305,-1.7907186918945328,-2.493822711059572,50.27307891845703,0.0050008138020833336,-0.0925937228732639
7269,-0.03376217376573349,0.19921878814697266,85.84378051757812,84.82088470458984,-7.121402740478516,88.0737075805664,-0.0002497355143229167,0.49266666666666664,0.32357142857142857,0.006439039442274305,-1.4062086516113297,0.032958000898361206,50.27307891845703,0.011365509033203125,-0.1132790035671658
7270,-0.03376217376573349,0.17929691314697266,85.65966796875,85.1072998046875,-6.9781951904296875,88.0737075805664,-0.011160659790039062,0.489,0.32357142857142857,0.0068052079942491316,-1.7357889586181656,0.07690200209617615,50.27307891845703,0.006137424045138889,-0.11168780856662326
7271,-0.01813717376573349,0.19921878814697266,84.90271759033203,84.12531280517578,-6.937278747558594,88.0123291015625,-0.011387973361545138,0.48533333333333334,0.32357142857142857,0.008025911119249132,-2.3619905882568375,0.3954960107803345,50.27307891845703,0.008637830946180555,-0.1105511983235677
7272,-0.04938717376573349,0.19921878814697266,85.29141998291016,84.16622924804688,-6.609951019287109,87.6031723022461,0.0017960866292317708,0.48,0.3242857142857143,0.005920240614149305,-2.7025572233886734,0.5932440161705017,50.27307891845703,0.01250211927625868,-0.10236803690592448
7273,-0.01813717376573349,0.19921878814697266,85.12775421142578,84.35034942626953,-6.569034576416016,87.27584838867188,-0.018207295735677084,0.4756666666666667,0.325,0.008697255452473959,-2.493822711059572,0.20873400568962097,50.27307891845703,0.008637830946180555,-0.09827647738986545
7274,0.005300326234266508,0.19921878814697266,87.99187469482422,87.23492431640625,-6.8963623046875,87.27584838867188,0.0008868323432074653,0.4716666666666667,0.32571428571428573,0.010497750176323786,-1.9005781584472672,0.26366400718688965,50.27307891845703,0.008410559760199653,-0.1019134521484375
7275,0.005300326234266508,0.17929691314697266,84.67768096923828,84.84133911132812,-7.510105133056641,88.76927947998047,-0.008887566460503472,0.4663333333333333,0.32607142857142857,0.010284127129448786,-1.9115644865722672,-1.6918455534667984,50.27307891845703,-0.0018184238009982638,-0.12532649570041232
7276,0.0638940762342665,0.17929691314697266,85.02546691894531,84.45263671875,-6.528118133544922,87.93049621582031,-0.01957117716471354,0.462,0.3267857142857143,0.012572860717773438,-2.966221468994142,-2.3400179320068375,50.09729766845703,0.006364780002170139,-0.10509571499294705
7277,0.0873315762342665,0.17929691314697266,84.26852416992188,84.43218231201172,-6.2007904052734375,87.0712661743164,-0.012297227647569445,0.457,0.32785714285714285,0.01238979763454861,-2.834389346191408,-2.1093126707763687,50.09729766845703,-0.0018184238009982638,-0.09191173977322048
7278,0.05998782623426651,0.17929691314697266,86.70301818847656,84.45263671875,-6.384914398193359,87.09172058105469,0.009297349717881945,0.452,0.32857142857142857,0.008788808186848959,-2.0653692656250016,-0.9997259550781266,50.0094108581543,0.02500423855251736,-0.09418483310275608
7279,0.005300326234266508,0.17929691314697266,85.27096557617188,84.41172790527344,-7.305522918701172,88.03279113769531,0.002932612101236979,0.44766666666666666,0.3289285714285714,0.004608027140299479,-1.7138163023681656,-0.5712725096435562,50.0094108581543,0.009547085232204862,-0.11487015618218316
7280,-0.02204342376573349,0.19921878814697266,85.92561340332031,84.86180114746094,-6.9781951904296875,88.21691131591797,-0.004795964558919271,0.44266666666666665,0.32857142857142857,0.0021972232394748266,-2.4169203215332047,-0.5602861815185562,49.7457389831543,0.011820136176215277,-0.11327896118164063
7281,-0.02204342376573349,0.19921878814697266,84.84133911132812,83.47065734863281,-7.3668975830078125,87.95095825195312,-0.004568650987413194,0.43833333333333335,0.3289285714285714,0.0016479068332248264,-2.7465006285400406,-0.7140909605712906,49.39418029785156,0.01522979736328125,-0.11464284261067709
7282,-0.0025121737657334917,0.19921878814697266,87.17355346679688,85.70057678222656,-6.9781951904296875,87.91004180908203,-0.012751854790581597,0.434,0.3289285714285714,0.0028380499945746527,-2.790444033691408,-0.6152159147949234,49.13050842285156,0.016366407606336807,-0.10986929999457465
7283,0.005300326234266508,0.17929691314697266,84.75950622558594,83.4501953125,-6.998653411865234,88.05325317382812,-0.008660252888997395,0.429,0.3289285714285714,0.0025023566351996527,-2.6695982390136734,-1.2743765288085953,49.13050842285156,0.014547899034288195,-0.11168785095214843
7284,0.01701907623426651,0.17929691314697266,83.73661041259766,82.65233612060547,-6.016670227050781,86.74394226074219,-0.010933346218532987,0.424,0.3292857142857143,0.0023498111300998266,-2.537766116210939,-1.5929705076904312,49.13050842285156,0.012047492133246528,-0.0862290276421441
7285,0.02483157623426651,0.15937503814697265,83.77752685546875,83.0001220703125,-6.384914398193359,87.05081176757812,-0.0007043626573350694,0.4196666666666667,0.3289285714285714,0.0010985904269748264,-1.4611383848876969,-1.1864878111572281,48.95473098754883,0.008637830946180555,-0.09373029073079427
7286,0.02092532623426651,0.13945316314697265,84.5958480834961,83.85935974121094,-6.405372619628906,87.13264465332031,0.002705298529730903,0.415,0.32821428571428574,-0.00018310546875,-0.834936755249025,-0.15380539233398594,48.95473098754883,0.008183203803168403,-0.09486685858832465
7287,-0.01813717376573349,0.1195312786102295,83.75706481933594,81.36347961425781,-6.057586669921875,86.74394226074219,-0.00843293931749132,0.41133333333333333,0.32785714285714285,-0.0019835578070746527,-0.801977770874025,0.16479000449180603,48.95473098754883,0.02659539116753472,-0.08668365478515624
7288,-0.04157467376573349,0.13945316314697265,85.5982894897461,84.96409606933594,-6.405372619628906,87.0098876953125,0.002705298529730903,0.407,0.3275,-0.0033262888590494793,-0.6811319761962906,0.790992021560669,48.95473098754883,0.007046593560112847,-0.09350289238823785
7289,-0.0767309237657335,0.15937503814697265,82.77508544921875,83.98210144042969,-6.303081512451172,86.82576751708984,-0.0018409305148654514,0.4026666666666667,0.3267857142857143,-0.005126783582899305,-0.7800070219726578,0.23070600628852844,48.95473098754883,-0.013411288791232639,-0.09032054477267795
7290,-0.04157467376573349,0.15937503814697265,84.39126586914062,81.52714538574219,-6.609951019287109,87.05081176757812,-0.013433795505099827,0.3993333333333333,0.3264285714285714,-0.0030516730414496527,-0.7690206938476578,0.17577600479125977,48.95473098754883,0.03182356092664931,-0.09623069763183593
7291,0.005300326234266508,0.17929691314697266,84.61630249023438,83.79798889160156,-6.8963623046875,88.09416198730469,-0.013661109076605903,0.39666666666666667,0.32607142857142857,0.000335693359375,-1.120571749755861,1.06564199924469,48.95473098754883,0.00909237331814236,-0.11100582546657986
7292,-0.0025121737657334917,0.17929691314697266,84.47309875488281,83.87982177734375,-6.609951019287109,87.29630279541016,-0.002750142415364583,0.393,0.32571428571428573,0.000823974609375,-1.6698728972167984,1.9774800539016724,48.95473098754883,0.006591966417100695,-0.0989583757188585
7293,-0.010324673765733492,0.19921878814697266,86.6007308959961,85.61874389648438,-6.9781951904296875,87.66455078125,-0.0043413374159071184,0.39066666666666666,0.32535714285714284,0.0018310123019748264,-1.7467752867431656,1.8786060810089111,48.95473098754883,0.01091096666124132,-0.10714162190755208
7294,0.02092532623426651,0.13945316314697265,85.61874389648438,84.24806213378906,-6.814533233642578,87.97142028808594,-0.0043413374159071184,0.38666666666666666,0.32571428571428573,0.004882685343424479,-2.164242404052736,1.5490260124206543,48.95473098754883,0.01522979736328125,-0.10873281690809462
7295,0.0795190762342665,0.17929691314697266,86.90760040283203,86.15065002441406,-6.630409240722656,87.54179382324219,-0.022753524780273437,0.384,0.32571428571428573,0.010833443535698786,-2.4279066496582047,0.9118380546569824,48.95473098754883,0.008410559760199653,-0.10191336737738715
7296,0.1029565762342665,0.19921878814697266,86.47798156738281,85.61874389648438,-7.285064697265625,87.562255859375,-0.004568650987413194,0.38166666666666665,0.32607142857142857,0.013335800170898438,-2.482836382934572,1.1974740028381348,48.95473098754883,0.009547085232204862,-0.1094146728515625
7297,0.0873315762342665,0.19921878814697266,86.33477783203125,85.57783508300781,-7.325981140136719,88.38057708740234,0.00543306138780382,0.37733333333333335,0.3264285714285714,0.013518905639648438,-2.790444033691408,1.06564199924469,48.95473098754883,0.008410474989149305,-0.11896175808376735
7298,0.1029565762342665,0.15937503814697265,84.06393432617188,82.81600189208984,-6.937278747558594,87.66455078125,-0.0043413374159071184,0.374,0.3264285714285714,0.014007144504123263,-3.3727022581787125,0.13183200359344482,48.95473098754883,0.013865915934244792,-0.10668699476453992
7299,0.1029565762342665,0.17929691314697266,84.5958480834961,83.77752685546875,-6.609951019287109,87.29630279541016,-0.013661109076605903,0.36966666666666664,0.3271428571428571,0.014495425754123263,-3.4605909758300797,-0.2526785307617203,48.95473098754883,0.009092458089192708,-0.0989583757188585
7300,0.0951440762342665,0.17929691314697266,84.80043029785156,82.85691833496094,-6.548576354980469,87.62362670898438,-0.007069057888454861,0.365,0.3264285714285714,0.013610458374023438,-2.955235140869142,-0.05493034655761875,48.95473098754883,0.021594577365451388,-0.10191336737738715
7301,0.05217532623426651,0.15937503814697265,86.29386138916016,85.47554016113281,-6.67132568359375,87.5213394165039,0.0072515275743272566,0.36033333333333334,0.3267857142857143,0.010711373223198786,-2.7465006285400406,0.6921180486679077,48.95473098754883,0.009092458089192708,-0.1021407233344184
7302,0.05998782623426651,0.17929691314697266,85.80287170410156,84.92317199707031,-6.67132568359375,87.37813568115234,-0.015934202406141493,0.356,0.3267857142857143,0.01217617458767361,-2.867346423217775,0.16479000449180603,48.95473098754883,0.009774441189236111,-0.10054957071940104
7303,0.1146753262342665,0.19921878814697266,85.41416931152344,84.75950622558594,-6.691783905029297,87.78729248046875,-0.02616318596733941,0.3516666666666667,0.3271428571428571,0.01626540289984809,-3.163967745849611,-0.5822588377685562,48.95473098754883,0.007274034288194444,-0.1053230709499783
7304,0.13420657623426652,0.13945316314697265,85.94607543945312,84.63676452636719,-6.466747283935547,87.41905212402344,-0.0018409305148654514,0.3456666666666667,0.3275,0.01565505133734809,-3.7242552214355484,0.5383139848709106,48.95473098754883,0.014547899034288195,-0.0987311045328776
7305,0.005300326234266508,0.1195312786102295,86.94851684570312,86.25294494628906,-6.405372619628906,87.23492431640625,0.01770782470703125,0.3426666666666667,0.32821428571428574,0.009032948811848959,-3.823128359863283,1.6369140148162842,48.95473098754883,0.00772857666015625,-0.09600329928927952
7306,-0.15485592376573348,0.15937503814697265,86.88714599609375,86.04837036132812,-6.528118133544922,87.0098876953125,0.01770782470703125,0.3406666666666667,0.33035714285714285,0.0012511783175998264,-3.6143938475341812,2.13128399848938,48.95473098754883,0.009319729275173612,-0.09486673143174913
7307,-0.20954342376573348,0.15937503814697265,86.45751953125,85.88470458984375,-6.405372619628906,87.21446990966797,-0.0059324900309244795,0.33566666666666667,0.33071428571428574,-0.0004577212863498264,-3.4715773039550797,1.252403974533081,48.95473098754883,0.006364610460069444,-0.0957760281032986
7308,-0.1157934237657335,0.15937503814697265,85.5982894897461,84.88226318359375,-6.548576354980469,87.45996856689453,-0.029572847154405384,0.33266666666666667,0.33107142857142857,0.004730097452799479,-2.933262484619142,-0.7909933500976578,48.95473098754883,0.007955847846137152,-0.10009494357638889
7309,-0.04548092376573349,0.13945316314697265,85.43462371826172,84.77996826171875,-6.9781951904296875,88.46240997314453,-0.02457203335232205,0.3293333333333333,0.3314285714285714,0.008270009358723959,-2.7355143004150406,-2.504809039184572,48.95473098754883,0.0072739495171440975,-0.11600672403971354
7310,-0.02204342376573349,0.15937503814697265,82.91828918457031,81.69081115722656,-7.019111633300781,88.23736572265625,-0.013888380262586805,0.32366666666666666,0.33214285714285713,0.0069577958848741316,-2.966221468994142,-2.537766116210939,48.95473098754883,0.013638644748263888,-0.11396085951063369
7311,-0.02204342376573349,0.19921878814697266,83.65477752685547,82.81600189208984,-7.019111633300781,87.95095825195312,-0.009114880032009548,0.319,0.3317857142857143,0.004699579874674479,-3.7681986265869156,-1.7138163023681656,48.95473098754883,0.009319729275173612,-0.11077855428059896
7312,-0.006418423765733492,0.17929691314697266,85.98699188232422,84.6572265625,-6.569034576416016,87.43951416015625,-0.003204769558376736,0.31466666666666665,0.3325,0.005126825968424479,-3.4605909758300797,-0.3845106535644547,48.95473098754883,0.014775170220269097,-0.10009498596191406
7313,-0.02594967376573349,0.17929691314697266,85.39370727539062,85.27096557617188,-6.5894927978515625,87.23492431640625,0.0020233578152126738,0.31,0.33321428571428574,0.0034789191351996527,-2.7355143004150406,-0.3405672484130875,48.95473098754883,0.0013637966579861111,-0.09804907904730903
7314,-0.02204342376573349,0.13945316314697265,83.98210144042969,83.24562072753906,-6.7531585693359375,87.5213394165039,-0.01843460930718316,0.30566666666666664,0.33321428571428574,0.0037535773383246527,-2.186215060302736,-0.7690206938476578,48.95473098754883,0.008183119032118056,-0.10304997762044271
7315,0.005300326234266508,0.1195312786102295,85.16867065429688,84.14576721191406,-6.630409240722656,87.39859008789062,0.00543306138780382,0.302,0.33321428571428574,0.004546991984049479,-2.1202989989013687,0.24169200658798218,48.95473098754883,0.011365593804253473,-0.10032221476236979
7316,0.02483157623426651,0.13945316314697265,85.76194763183594,84.69813537597656,-6.548576354980469,87.45996856689453,-0.018889236450195312,0.2976666666666667,0.33321428571428574,0.006133863661024305,-2.0543829375000016,0.7140899896621704,48.95473098754883,0.011820136176215277,-0.10009494357638889
7317,0.01701907623426651,0.15937503814697265,86.35523986816406,85.61874389648438,-6.466747283935547,87.21446990966797,-0.008660252888997395,0.29333333333333333,0.33285714285714285,0.0067441728379991316,-1.6259294920654312,0.6371880173683167,48.95473098754883,0.00818328857421875,-0.09645796881781685
7318,0.013112826234266508,0.13945316314697265,86.94851684570312,86.19157409667969,-6.5894927978515625,87.19401550292969,-0.002750142415364583,0.291,0.3317857142857143,0.0069883134629991316,-1.0876146727294937,0.4614120125770569,48.95473098754883,0.008410474989149305,-0.09759453667534722
7319,0.013112826234266508,0.1195312786102295,81.48623657226562,85.14820861816406,-7.100944519042969,88.31919860839844,-0.010251405504014757,0.288,0.3317857142857143,0.0068662431504991316,-0.9447962218017594,-1.4171949797363297,48.95473098754883,-0.040688578287760416,-0.11577936808268229
7320,0.03264407623426651,0.15937503814697265,83.67523193359375,83.92073059082031,-6.732700347900391,87.66455078125,-0.0059324900309244795,0.284,0.33107142857142857,0.006683180067274305,-2.3839632445068375,-1.3842359953613297,48.95473098754883,-0.002727762858072917,-0.10441390143500434
7321,0.04826907623426651,0.17929691314697266,85.0050048828125,83.26608276367188,-6.5894927978515625,87.27584838867188,-0.008205625745985243,0.281,0.33071428571428574,0.0068052079942491316,-2.526779788085939,-0.5492998533935562,48.95473098754883,0.01932135687934028,-0.09850379096137153
7322,0.04826907623426651,0.15937503814697265,84.86180114746094,84.554931640625,-6.405372619628906,87.13264465332031,-0.00775099860297309,0.28,0.33071428571428574,0.006530592176649305,-2.186215060302736,0.1538040041923523,48.95473098754883,0.003409661187065972,-0.09486685858832465
7323,0.013112826234266508,0.17929691314697266,82.87738037109375,85.06637573242188,-6.466747283935547,87.29630279541016,0.009524663289388021,0.2763333333333333,0.33071428571428574,0.004363886515299479,-1.3622652464599625,-0.13183273608398594,48.95473098754883,-0.024322170681423613,-0.09736722310384115
7324,-0.0025121737657334917,0.15937503814697265,81.73172760009766,81.83401489257812,-6.548576354980469,87.17355346679688,-0.00047704908582899306,0.27466666666666667,0.33,0.0028990851508246527,-0.6811319761962906,-0.8678938322753922,48.95473098754883,-0.0011365254720052083,-0.09691255357530382
7325,-0.006418423765733492,0.13945316314697265,81.07707214355469,84.06393432617188,-6.650867462158203,87.35768127441406,0.007933468288845487,0.272,0.3289285714285714,0.0014342837863498264,-0.5712725096435562,-1.6698728972167984,48.95473098754883,-0.03318735758463542,-0.10009498596191406
7326,-0.0025121737657334917,0.15937503814697265,83.0001220703125,81.93630981445312,-7.080486297607422,87.93049621582031,-0.001613616943359375,0.26866666666666666,0.32821428571428574,-3.0517578125e-05,-0.7690206938476578,-1.3842359953613297,48.95473098754883,0.011820136176215277,-0.11123313903808593
7327,0.013112826234266508,0.13945316314697265,83.79798889160156,81.64989471435547,-7.019111633300781,88.1146240234375,-0.014797634548611112,0.2673333333333333,0.3271428571428571,-3.0517578125e-05,-1.4831110411376969,0.23070600628852844,48.95473098754883,0.02386771308051215,-0.11259706285264758
7328,-0.02985592376573349,0.15937503814697265,85.70057678222656,85.02546691894531,-7.019111633300781,88.03279113769531,0.009524663289388021,0.263,0.3267857142857143,-0.0020445929633246527,-1.9664942198486344,1.1974740028381348,48.95473098754883,0.007501220703125,-0.11168780856662326
7329,-0.02204342376573349,0.13945316314697265,84.69813537597656,84.82088470458984,-7.5305633544921875,88.48286437988281,-0.005250591701931423,0.25933333333333336,0.3264285714285714,-0.0006713443332248264,-2.4279066496582047,0.23070600628852844,48.95473098754883,-0.0013638814290364584,-0.12237141927083334
7330,0.02483157623426651,0.15937503814697265,82.38638305664062,81.48623657226562,-7.612392425537109,88.91248321533203,-0.020253117879231772,0.256,0.3267857142857143,0.0015563540988498264,-3.218899386474611,-0.9997259550781266,48.95473098754883,0.010001627604166667,-0.1280541737874349
7331,0.05608157623426651,0.13945316314697265,84.75950622558594,82.63188171386719,-6.9781951904296875,87.86912536621094,-0.005705218844943577,0.251,0.3275,0.0024413638644748266,-4.009890215942384,0.24169200658798218,48.86684036254883,0.023640272352430554,-0.1094146728515625
7332,0.04436282623426651,0.15937503814697265,85.74149322509766,84.71859741210938,-6.712242126464844,87.39859008789062,0.0040691799587673615,0.246,0.3292857142857143,0.0025328742133246527,-3.87805809313965,1.6039559841156006,48.86684036254883,0.011365509033203125,-0.1012314690483941
7333,0.02873782623426651,0.15937503814697265,85.65966796875,85.53691101074219,-6.916820526123047,88.29874420166016,0.0024779849582248262,0.239,0.33071428571428574,0.0029906378851996527,-3.207913058349611,0.9887400269508362,48.86684036254883,0.0013639662000868055,-0.1135062747531467
7334,0.0834253262342665,0.13945316314697265,83.61386108398438,83.02058410644531,-6.9781951904296875,87.74638366699219,-0.01957117716471354,0.234,0.33214285714285713,0.006530592176649305,-3.0431219511718766,-0.02197326953125156,48.86684036254883,0.006591966417100695,-0.1080508761935764
7335,0.0951440762342665,0.1195312786102295,84.82088470458984,83.38882446289062,-6.916820526123047,87.93049621582031,0.005887646145290798,0.22933333333333333,0.33321428571428574,0.006194898817274305,-3.2957998686523453,1.032684087753296,48.86684036254883,0.015911780463324653,-0.10941463046603733
7336,0.02873782623426651,0.15937503814697265,82.44775390625,84.26852416992188,-7.203235626220703,87.93049621582031,0.007933468288845487,0.22333333333333333,0.3339285714285714,0.004516474405924479,-3.229883807250978,1.021697998046875,48.86684036254883,-0.020230780707465278,-0.1125970204671224
7337,0.05608157623426651,0.13945316314697265,84.98455047607422,83.552490234375,-7.100944519042969,88.1146240234375,-0.015934202406141493,0.219,0.33464285714285713,0.0068662431504991316,-3.592423098632814,1.4721240997314453,48.86684036254883,0.015911780463324653,-0.11350631713867188
7338,0.03264407623426651,0.15937503814697265,85.23004150390625,83.552490234375,-5.7507171630859375,87.48042297363281,-0.00775099860297309,0.21333333333333335,0.3357142857142857,0.0070798661973741316,-4.009890215942384,2.2191720008850098,48.86684036254883,0.018639458550347224,-0.09145711263020834
7339,-0.02985592376573349,0.219140682220459,86.62118530273438,85.53691101074219,-6.282623291015625,86.96897888183594,0.017935138278537325,0.208,0.3364285714285714,0.005126825968424479,-2.493822711059572,3.6583380699157715,48.86684036254883,0.012047492133246528,-0.09168446858723958
7340,-0.0962621737657335,0.17929691314697266,93.84286499023438,90.75370788574219,-6.282623291015625,86.90760040283203,0.01725323994954427,0.20566666666666666,0.3360714285714286,0.005523512098524305,-1.2853628569335953,6.338922023773193,48.86684036254883,0.034323967827690975,-0.09100248548719618
7341,-0.2525121737657335,0.17929691314697266,86.21202850341797,87.37813568115234,-6.855449676513672,88.0737075805664,0.005205747816297743,0.20366666666666666,0.3360714285714286,0.0023192935519748266,-1.2414194517822281,3.0321359634399414,48.86684036254883,-0.012956746419270833,-0.11032396952311198
7342,-0.2837621737657335,0.15937503814697265,86.70301818847656,85.14820861816406,-7.7555999755859375,88.68744659423828,-0.029345575968424478,0.20266666666666666,0.33535714285714285,0.004241816202799479,-1.7357889586181656,0.7690200209617615,48.86684036254883,0.01727566189236111,-0.12714496188693578
7343,-0.19782467376573348,0.19921878814697266,88.72836303710938,86.98943328857422,-7.632850646972656,88.97386169433594,-0.01843460930718316,0.19833333333333333,0.335,0.005676099989149305,-3.4166475706787125,-0.16478981311035312,48.86684036254883,0.019321441650390625,-0.12896347045898438
7344,-0.24469967376573348,0.13945316314697265,87.68500518798828,85.88470458984375,-7.325981140136719,88.21691131591797,-0.01616151597764757,0.19633333333333333,0.335,0.0069883134629991316,-4.306513445922853,-1.153530734130861,48.86684036254883,0.02000333997938368,-0.11714324951171876
7345,-0.17829342376573348,0.13945316314697265,86.94851684570312,86.90760040283203,-6.834991455078125,88.05325317382812,-0.018889236450195312,0.19266666666666668,0.33535714285714285,0.008453114827473959,-4.174681323120119,-2.219172137329103,48.86684036254883,0.0004546271430121528,-0.109869384765625
7346,-0.1196996737657335,0.17929691314697266,84.43218231201172,85.1072998046875,-6.998653411865234,87.74638366699219,-0.011387973361545138,0.18733333333333332,0.3360714285714286,0.0074155595567491316,-3.6143938475341812,-3.3177725249023453,48.86684036254883,-0.007501305474175347,-0.10827818976508247
7347,-0.1118871737657335,0.17929691314697266,85.20958709716797,84.16622924804688,-6.998653411865234,87.84866333007812,-0.011387973361545138,0.182,0.3364285714285714,0.005340406629774305,-3.218899386474611,-2.9991785460205094,48.86684036254883,0.011592864990234375,-0.10941463046603733
7348,-0.12751217376573348,0.17929691314697266,84.5140151977539,83.53202819824219,-7.325981140136719,88.52378845214844,0.0006595187717013889,0.17766666666666667,0.33714285714285713,0.0015563540988498264,-3.493548052856447,-2.3949495726318375,48.86684036254883,0.01091096666124132,-0.12055299546983507
7349,-0.18610592376573348,0.13945316314697265,84.57539367675781,83.79798889160156,-7.244148254394531,87.91004180908203,-0.002750142415364583,0.17366666666666666,0.3375,-0.0016173892550998264,-3.856087344238283,-2.219172137329103,48.86684036254883,0.008637830946180555,-0.11282433403862847
7350,-0.17048092376573348,0.15937503814697265,82.44775390625,79.80867004394531,-7.203235626220703,87.80775451660156,-0.01616151597764757,0.169,0.3382142857142857,-0.0031432257758246527,-3.4715773039550797,-2.3729769163818375,48.86684036254883,0.029323154025607638,-0.11123322380913628
7351,-0.14704342376573348,0.13945316314697265,87.35768127441406,84.69813537597656,-7.203235626220703,88.19645690917969,-0.00775099860297309,0.164,0.3385714285714286,-0.0028685675726996527,-3.174954073974611,-0.4284540587158219,48.86684036254883,0.02955050998263889,-0.11555213928222656
7352,-0.15485592376573348,0.1195312786102295,87.74638366699219,86.78485107421875,-7.1418609619140625,88.27828979492188,-0.020025804307725693,0.16066666666666668,0.3389285714285714,-0.0024108039008246527,-3.526507037231447,-0.48338379199218906,48.86684036254883,0.010683695475260416,-0.11577945285373265
7353,-0.12751217376573348,0.13945316314697265,85.94607543945312,86.6007308959961,-6.630409240722656,87.88958740234375,0.0015687730577256945,0.15633333333333332,0.33964285714285714,-0.0025633917914496527,-3.7132688933105484,-0.9777552061767594,48.86684036254883,-0.0072739495171440975,-0.10577774047851562
7354,-0.1157934237657335,0.13945316314697265,86.1097412109375,84.41172790527344,-6.855449676513672,87.62362670898438,-0.00843293931749132,0.15266666666666667,0.3410714285714286,-0.0030211554633246527,-3.240870135375978,-1.5819841795654312,48.86684036254883,0.01886681450737847,-0.1053230709499783
7355,-0.0806371737657335,0.15937503814697265,85.33233642578125,86.31431579589844,-7.3668975830078125,88.50332641601562,-0.012979168362087673,0.14866666666666667,0.3410714285714286,-0.0027159796820746527,-3.2957998686523453,-2.0104395323486344,48.86684036254883,-0.010910881890190972,-0.12078026665581597
7356,-0.1079809237657335,0.15937503814697265,85.82332611083984,84.90271759033203,-7.100944519042969,87.84866333007812,0.0006595187717013889,0.146,0.3414285714285714,-0.0061948564317491316,-3.229883807250978,-1.2414194517822281,48.86684036254883,0.010228983561197917,-0.1105511983235677
7357,-0.1236059237657335,0.17929691314697266,82.87738037109375,83.96165466308594,-7.182777404785156,87.97142028808594,-0.0022955152723524307,0.14266666666666666,0.3410714285714286,-0.009002388848198786,-3.174954073974611,-1.4940973692626969,48.86684036254883,-0.012047492133246528,-0.11282441880967882
7358,-0.0962621737657335,0.17929691314697266,84.14576721191406,82.85691833496094,-7.653308868408203,88.99431610107422,-0.01661614312065972,0.139,0.34035714285714286,-0.008453114827473959,-3.0431219511718766,-1.120571749755861,48.86684036254883,0.014320543077256944,-0.12941805521647134
7359,-0.0689184237657335,0.17929691314697266,85.80287170410156,83.67523193359375,-7.5305633544921875,88.6056137084961,-0.010251405504014757,0.13633333333333333,0.33964285714285714,-0.0071409013536241316,-3.3946749144287125,0.8898659944534302,48.86684036254883,0.02364044189453125,-0.1237353006998698
7360,-0.0923559237657335,0.19921878814697266,85.92561340332031,88.62606811523438,-7.305522918701172,88.44195556640625,0.014070849948459202,0.133,0.3392857142857143,-0.0072629716661241316,-3.91101707751465,1.6369140148162842,48.86684036254883,-0.030005052354600693,-0.11941642761230468
7361,-0.0728246737657335,0.15937503814697265,85.0459213256836,84.18669128417969,-7.223690032958984,87.88958740234375,-0.01957117716471354,0.12966666666666668,0.3389285714285714,-0.004669019911024305,-3.515520709106447,0.3405660092830658,48.86684036254883,0.009547000461154514,-0.11236974928114149
7362,-0.04938717376573349,0.15937503814697265,83.0410385131836,82.73416900634766,-7.653308868408203,88.78973388671875,-0.015024948120117187,0.126,0.3389285714285714,-0.0029601203070746527,-3.0101648741455094,-0.08788933093261875,48.86684036254883,0.003409661187065972,-0.1271449195014106
7363,-0.05329342376573349,0.13945316314697265,84.08439636230469,83.02058410644531,-7.244148254394531,88.05325317382812,-0.004795964558919271,0.12133333333333333,0.3385714285714286,-0.0024718390570746527,-3.218899386474611,0.9777539968490601,48.86684036254883,0.011820136176215277,-0.11441557142469617
7364,-0.04548092376573349,0.15937503814697265,84.94363403320312,84.08439636230469,-7.1418609619140625,87.93049621582031,-0.003204769558376736,0.11733333333333333,0.3382142857142857,-0.0013427310519748264,-2.944248812744142,1.8456480503082275,48.86684036254883,0.009547085232204862,-0.11191507975260416
7365,-0.04548092376573349,0.17929691314697266,85.39370727539062,85.18913269042969,-7.1418609619140625,88.09416198730469,-0.009114880032009548,0.11266666666666666,0.3375,0.00018310546875,-2.3290335112304703,1.6149420738220215,48.86684036254883,0.0022730509440104167,-0.11373358832465277
7366,-0.1079809237657335,0.1195312786102295,83.75706481933594,82.89783477783203,-7.121402740478516,87.80775451660156,0.0024779849582248262,0.10866666666666666,0.33714285714285713,-0.0003662109375,-1.7687460356445328,1.3732500076293945,48.86684036254883,0.009547000461154514,-0.11032396952311198
7367,-0.1157934237657335,0.1195312786102295,88.85111236572266,82.48867797851562,-7.182777404785156,88.17599487304688,-0.005705218844943577,0.10466666666666667,0.3364285714285714,0.00067138671875,-1.6808592253417984,2.13128399848938,48.86684036254883,0.07069371541341146,-0.11509746975368923
7368,-0.1040746737657335,0.1195312786102295,86.53935241699219,85.92561340332031,-6.7531585693359375,87.70545959472656,-0.01002409193250868,0.10066666666666667,0.3360714285714286,0.0030211554633246527,-2.0214239531250016,1.724802017211914,48.86684036254883,0.006819322374131944,-0.10509575737847222
7369,-0.0806371737657335,0.13945316314697265,89.0761489868164,86.43707275390625,-6.916820526123047,87.68500518798828,-0.0007043626573350694,0.09633333333333334,0.3357142857142857,0.004485956827799479,-2.0104395323486344,1.6369140148162842,48.86684036254883,0.029323069254557292,-0.10668695237901475
7370,-0.1157934237657335,0.1195312786102295,84.45263671875,85.31187438964844,-6.67132568359375,87.58271789550781,-0.006841744316948784,0.09466666666666666,0.3360714285714286,0.004699579874674479,-1.9994532042236344,0.48338401317596436,48.86684036254883,-0.009547085232204862,-0.1028227064344618
7371,-0.0923559237657335,0.13945316314697265,88.50332641601562,87.86912536621094,-7.407814025878906,88.1555404663086,-0.003204769558376736,0.08966666666666667,0.3360714285714286,0.005248896280924479,-1.8126913481445328,-0.13183273608398594,48.86684036254883,0.007046678331163195,-0.11737060546875
7372,-0.1118871737657335,0.09960939407348633,82.97966003417969,82.75462341308594,-7.325981140136719,89.0761489868164,-0.020707745022243925,0.08733333333333333,0.3357142857142857,0.005248896280924479,-2.6476274901123062,-2.3290335112304703,48.86684036254883,0.0025004069010416668,-0.1266903347439236
7373,-0.06110592376573349,0.19921878814697266,87.45996856689453,87.31675720214844,-7.714683532714844,88.36012268066406,0.006796900431315104,0.084,0.3360714285714286,0.0031432257758246527,-3.537493365356447,-0.9557825499267594,48.86684036254883,0.0015912373860677083,-0.12305340237087674
7374,-0.0689184237657335,0.219140682220459,84.43218231201172,85.94607543945312,-7.551021575927734,88.72836303710938,-0.01002409193250868,0.08033333333333334,0.33714285714285713,0.0013427310519748264,-4.537218707153322,-1.2194467955322281,48.86684036254883,-0.01682103474934896,-0.12532649570041232
7375,-0.1196996737657335,0.19921878814697266,83.5115737915039,84.96409606933594,-7.796516418457031,88.76927947998047,0.0049784342447916664,0.07666666666666666,0.3375,-0.0026244269476996527,-4.262568133422853,-1.9115644865722672,48.86684036254883,-0.0161391364203559,-0.12850884331597223
7376,-0.0884496737657335,0.17929691314697266,82.69325256347656,81.71127319335938,-8.042011260986328,89.23981475830078,-0.018889236450195312,0.07266666666666667,0.33714285714285713,-0.0018004523383246527,-4.460316317626955,-2.2741018706054703,48.427391052246094,0.010910881890190972,-0.13646473354763455
7377,-0.05329342376573349,0.17929691314697266,85.0050048828125,82.79554748535156,-7.816974639892578,88.97386169433594,-0.011160659790039062,0.06766666666666667,0.33714285714285713,-0.0010070376925998264,-4.976658480712892,-0.845923083374025,48.427391052246094,0.02454952663845486,-0.13100929260253907
7378,-0.0884496737657335,0.19921878814697266,87.74638366699219,86.58027648925781,-6.794075012207031,87.43951416015625,0.01543473137749566,0.06333333333333334,0.3375,-0.004424921671549479,-4.712994235107423,0.1538040041923523,48.339500427246094,0.012956746419270833,-0.1025954352484809
7379,-0.1118871737657335,0.17929691314697266,83.96165466308594,82.89783477783203,-7.1418609619140625,87.91004180908203,-0.018889236450195312,0.058333333333333334,0.3375,-0.004943678114149305,-3.3946749144287125,-0.3076082640380875,48.251609802246094,0.011820220947265625,-0.11168780856662326
7380,-0.0962621737657335,0.19921878814697266,82.34546661376953,82.71371459960938,-7.1418609619140625,88.31919860839844,-0.012297227647569445,0.053,0.33714285714285713,-0.004699537489149305,-2.966221468994142,-0.5932451658935562,48.251609802246094,-0.004091644287109375,-0.11623399522569444
7381,-0.0884496737657335,0.17929691314697266,86.39614868164062,82.87738037109375,-6.9781951904296875,87.5213394165039,-0.004568650987413194,0.04766666666666667,0.3364285714285714,-0.003997675577799479,-2.933262484619142,0.8788800239562988,47.196929931640625,0.039097425672743054,-0.10555038452148438
7382,-0.0806371737657335,0.17929691314697266,82.87738037109375,86.84622192382812,-5.771175384521484,87.0098876953125,-0.006159803602430555,0.043333333333333335,0.335,-0.0023192511664496527,-2.230158465454103,0.24169200658798218,46.66958999633789,-0.04409823947482639,-0.08645625644259983
7383,-0.03766842376573349,0.15937503814697265,86.78485107421875,82.5091323852539,-6.343997955322266,87.68500518798828,-0.030709415011935765,0.04,0.33321428571428574,0.000701904296875,-0.9008528166503922,-0.19774879748535312,46.58169937133789,0.047507985432942705,-0.10032225714789497
7384,-0.0767309237657335,0.219140682220459,82.46821594238281,85.02546691894531,-6.9781951904296875,88.42149353027344,0.01247969733344184,0.03833333333333333,0.3314285714285714,-0.0028380499945746527,-0.7909933500976578,-0.01098694140625156,46.58169937133789,-0.028413899739583335,-0.11555209689670139
7385,-0.13923092376573348,0.13945316314697265,89.62850952148438,88.62606811523438,-6.937278747558594,87.82821655273438,-0.013661109076605903,0.036333333333333336,0.3289285714285714,-0.0036924997965494793,-1.6588865690917984,2.0873401165008545,46.58169937133789,0.011138237847222222,-0.10850550333658854
7386,-0.17438717376573348,0.15937503814697265,84.80043029785156,87.39859008789062,-6.937278747558594,87.80775451660156,0.014298163519965278,0.03333333333333333,0.3275,-0.004974195692274305,-2.559738772460939,1.6808580160140991,46.58169937133789,-0.02886844211154514,-0.1082781473795573
7387,-0.0884496737657335,0.17929691314697266,82.61141967773438,87.13264465332031,-5.525676727294922,87.19401550292969,-0.030709415011935765,0.029,0.3264285714285714,0.000701904296875,-2.570725100585939,-1.0766283446044937,46.58169937133789,-0.05023583306206597,-0.08577435811360677
7388,-0.02985592376573349,0.13945316314697265,77.8856201171875,77.9879150390625,-6.569034576416016,87.88958740234375,-0.031164042154947915,0.028,0.32571428571428573,0.0032347785101996527,-2.3290335112304703,-2.6586119108886734,46.40591812133789,-0.0011366102430555556,-0.1050957997639974
7389,-0.05329342376573349,0.17929691314697266,89.73080444335938,88.76927947998047,-6.180332183837891,87.43951416015625,0.02498181660970052,0.022333333333333334,0.325,-0.0004577212863498264,-2.7574869566650406,1.6039559841156006,46.40591812133789,0.01068361070421007,-0.09577607048882378
7390,-0.1040746737657335,0.15937503814697265,84.88226318359375,86.0074462890625,-6.3644561767578125,87.33721923828125,-0.006387117173936632,0.019,0.32392857142857145,-0.0015868716769748264,-2.9772058897705094,1.4721240997314453,45.26335144042969,-0.012502034505208334,-0.09668528238932292
7391,-0.05329342376573349,0.17929691314697266,78.66302490234375,85.12775421142578,-6.875904083251953,88.93293762207031,-0.01661614312065972,0.016,0.3221428571428571,0.0025023566351996527,-2.3949495726318375,0.05493000149726868,30.937278747558594,-0.07183032565646702,-0.1200982411702474
7392,-0.014230923765733492,0.15937503814697265,85.72103881835938,87.0098876953125,-6.957736968994141,87.97142028808594,-0.021389685736762153,0.011,0.3196428571428571,0.005554029676649305,-1.131558077880861,1.0436700582504272,27.245899200439453,-0.014320543077256944,-0.11032396952311198
7393,-0.0650121737657335,0.19921878814697266,85.37325286865234,84.47309875488281,-4.298198699951172,85.08683776855469,-0.022980838351779515,0.006666666666666667,0.31464285714285717,0.0016479068332248264,-0.3625379973144547,0.9008520245552063,26.015439987182617,0.010001712375217013,-0.048722627427842884
7394,-0.15485592376573348,0.13945316314697265,83.02058410644531,84.75950622558594,-2.866138458251953,85.84378051757812,-0.0168434566921658,0.0036666666666666666,0.3107142857142857,-0.0007934146457248264,0.4943700134754181,-0.06591667468261875,25.83966064453125,-0.01932135687934028,-0.04122132195366753
7395,-0.13141842376573348,0.13945316314697265,86.662109375,87.0712661743164,-2.354686737060547,82.48867797851562,-0.03275523715549045,0.0016666666666666668,0.305,-0.0004577212863498264,2.1532559394836426,-0.5163427763671891,25.83966064453125,-0.00454618665907118,0.0017403920491536459
7396,-0.1196996737657335,0.15937503814697265,85.29141998291016,87.58271789550781,-2.4569778442382812,83.5115737915039,-0.0007043626573350694,0.0003333333333333333,0.3003571428571429,-0.0013122134738498264,2.449877977371216,-0.6591612272949234,25.75177001953125,-0.025458865695529513,-0.010761684841579862
7397,-0.14704342376573348,0.15937503814697265,91.18331909179688,82.81600189208984,-0.12476730346679688,83.67523193359375,0.030664571126302085,0.0003333333333333333,0.29392857142857143,-0.0036619822184244793,1.735788106918335,-0.21972145373535312,25.75177001953125,0.0929701911078559,0.013333341810438368
7398,-0.1040746737657335,0.19921878814697266,86.76439666748047,81.9567642211914,-0.22705459594726562,81.85447692871094,-0.028209008110894097,0.0,0.29,-0.0022887335883246527,2.4608640670776367,-1.0107122832031266,25.75177001953125,0.053418138292100695,0.03242742750379774
7399,-0.0767309237657335,0.17929691314697266,88.83065795898438,85.82332611083984,-0.0224761962890625,81.547607421875,0.03134651184082031,0.001,0.2839285714285714,-0.0004577212863498264,2.977205991744995,-0.8788801604003922,25.575990676879883,0.033414798312717015,0.03811018202039931
7400,-0.0689184237657335,0.15937503814697265,88.46240997314453,77.8856201171875,11.147590637207031,76.08531951904297,-0.009796820746527778,0.0,0.27964285714285714,-0.0,2.5487520694732666,-0.2416922026367203,25.575990676879883,0.11751988728841146,0.22291412353515624
