,WD,WS,AIL_1,AIL_2,ELEV_1,ELEV_2,RUDD,ALT,GS,TH,PTCH,ROLL,PLA_1,AIL,ELEV
6858,-0.29467794058770075,0.33867195129394534,85.27096557617188,84.71859741210938,-4.482318878173828,88.564697265625,-0.017070770263671875,0.8363333333333334,0.41928571428571426,-0.023467318216959635,0.5053560137748718,-0.4284540587158219,56.24959945678711,0.006137424045138889,-0.08941129048665365
6859,-0.29077169058770075,0.33867195129394534,84.47309875488281,84.06393432617188,-4.482318878173828,89.26026916503906,-0.01752539740668403,0.8343333333333334,0.42,-0.02291801240709093,0.3076080083847046,-0.6262022429199234,56.24959945678711,0.004546271430121528,-0.0971398671468099
6860,-0.29077169058770075,0.33867195129394534,84.98455047607422,84.39126586914062,-4.298198699951172,88.64653015136719,-0.013433795505099827,0.832,0.4210714285714286,-0.02291801240709093,0.14281800389289856,-0.3954969816894547,55.19491958618164,0.0065920511881510414,-0.08827476501464844
6861,-0.29858419058770075,0.3187500762939453,84.5140151977539,83.96165466308594,-4.1959075927734375,88.6669921875,-0.01616151597764757,0.8296666666666667,0.42214285714285715,-0.02294852998521593,0.2197200059890747,0.14281800389289856,53.96445846557617,0.006137339274088541,-0.0873655531141493
6862,-0.30639669058770075,0.3187500762939453,84.53446960449219,83.96165466308594,-4.3595733642578125,88.58515930175781,-0.008660252888997395,0.827,0.4225,-0.023375765482584635,0.20873400568962097,0.7031040191650391,53.96445846557617,0.006364610460069444,-0.08827480740017361
6863,-0.31420919058770075,0.3187500762939453,85.06637573242188,84.45263671875,-4.277740478515625,89.0147705078125,-0.013888380262586805,0.824,0.42392857142857143,-0.02313163545396593,-0.18676246936035312,1.021697998046875,53.70079040527344,0.006819322374131944,-0.09213901095920139
6864,-0.30639669058770075,0.3187500762939453,85.06637573242188,84.6572265625,-4.8096466064453125,89.26026916503906,-0.012069914076063368,0.821,0.42428571428571427,-0.02279595269097222,-0.5712725096435562,1.0436700582504272,53.70079040527344,0.004546101888020833,-0.10077684190538194
6865,-0.29858419058770075,0.33867195129394534,85.20958709716797,84.47309875488281,-5.157432556152344,89.66943359375,-0.01252454121907552,0.817,0.4257142857142857,-0.022216129302978515,-1.0656420164794937,0.9997260570526123,53.70079040527344,0.008183203803168403,-0.1091874016655816
6866,-0.30249044058770075,0.33867195129394534,84.5958480834961,84.22760009765625,-5.300640106201172,89.85355377197266,-0.01252454121907552,0.813,0.42678571428571427,-0.021788893805609808,-1.6369139128417984,0.9338099956512451,53.70079040527344,0.004091644287109375,-0.11282437642415365
6867,-0.31420919058770075,0.3187500762939453,85.41416931152344,84.45263671875,-4.686901092529297,89.2193603515625,-0.012297227647569445,0.8086666666666666,0.4282142857142857,-0.021331151326497395,-1.7907186918945328,1.0766279697418213,50.36096954345703,0.010683695475260416,-0.09895846048990885
6868,-0.31811544058770075,0.3187500762939453,85.43462371826172,84.84133911132812,-4.768730163574219,89.28073120117188,-0.012751854790581597,0.8033333333333333,0.42892857142857144,-0.020873398251003688,-1.9225508146972672,0.9228240251541138,42.01142120361328,0.0065920511881510414,-0.10054957071940104
6869,-0.32202169058770075,0.3187500762939453,85.23004150390625,84.90271759033203,-4.645984649658203,89.1170654296875,-0.014797634548611112,0.797,0.4282142857142857,-0.02044616275363498,-2.3070608549804703,0.373524010181427,35.41967010498047,0.003636932373046875,-0.09736722310384115
6870,-0.32202169058770075,0.3187500762939453,84.554931640625,83.98210144042969,-4.564151763916016,89.1579818725586,-0.015706888834635415,0.7906666666666666,0.42714285714285716,-0.02001893255445692,-2.6366411619873062,-0.01098694140625156,31.46462059020996,0.006364780002170139,-0.09691259596082899
6871,-0.32202169058770075,0.3187500762939453,84.63676452636719,84.1048583984375,-4.318656921386719,88.76927947998047,-0.014115693834092882,0.7843333333333333,0.425,-0.01980531480577257,-2.867346423217775,0.10986000299453735,31.200950622558594,0.0059100680881076385,-0.08986596001519097
6872,-0.31811544058770075,0.3187500762939453,85.455078125,84.26852416992188,-4.1959075927734375,88.64653015136719,-0.015024948120117187,0.7773333333333333,0.42392857142857143,-0.019622214635213218,-2.966221468994142,0.38451001048088074,31.200950622558594,0.01318393283420139,-0.08713819715711806
6873,-0.32202169058770075,0.29882820129394533,85.61874389648438,85.0459213256836,-3.9504127502441406,88.42149353027344,-0.014570320977105035,0.7706666666666667,0.42142857142857143,-0.019408596886528864,-2.878332751342775,0.48338401317596436,31.200950622558594,0.006364695231119792,-0.08191006978352865
6874,-0.32592794058770075,0.3187500762939453,85.31187438964844,84.90271759033203,-4.318656921386719,88.46240997314453,-0.009569507175021702,0.764,0.42,-0.01992737982008192,-2.6146685057373062,0.5273280143737793,31.113059997558594,0.00454618665907118,-0.086456298828125
6875,-0.33374044058770075,0.3187500762939453,85.43462371826172,84.86180114746094,-4.441402435302734,88.78973388671875,-0.01616151597764757,0.758,0.41785714285714287,-0.01928653187221951,-2.6915708952636734,0.45042601227760315,31.113059997558594,0.006364695231119792,-0.09145707024468316
6876,-0.33374044058770075,0.29882820129394533,85.43462371826172,84.82088470458984,-4.645984649658203,88.99431610107422,-0.016388829549153647,0.7523333333333333,0.41535714285714287,-0.018309995863172744,-2.944248812744142,0.6262019872665405,31.113059997558594,0.006819322374131944,-0.09600334167480469
6877,-0.34155294058770075,0.29882820129394533,85.5164566040039,84.98455047607422,-4.727817535400391,89.28073120117188,-0.014797634548611112,0.7466666666666667,0.41214285714285714,-0.017943800820244684,-3.240870135375978,0.7360620498657227,31.113059997558594,0.0059100680881076385,-0.10009498596191406
6878,-0.34936544058770075,0.29882820129394533,85.49600219726562,84.98455047607422,-4.932395935058594,89.38301849365234,-0.011160659790039062,0.7416666666666667,0.40964285714285714,-0.017821730507744684,-3.515520709106447,0.5712720155715942,31.113059997558594,0.0056827969021267365,-0.10350460476345485
6879,-0.34936544058770075,0.2789063262939453,85.557373046875,85.06637573242188,-5.11651611328125,89.44439697265625,-0.018889236450195312,0.7366666666666667,0.4064285714285714,-0.016234864128960504,-3.7572122984619156,0.5383139848709106,31.113059997558594,0.005455525716145834,-0.10623236762152778
6880,-0.35717794058770075,0.2789063262939453,86.68256378173828,87.78729248046875,-4.8096466064453125,89.34210205078125,-0.012751854790581597,0.7316666666666667,0.4035714285714286,-0.015685563617282443,-3.987919467041017,0.32958000898361206,31.113059997558594,-0.01227476331922743,-0.10168609619140626
6881,-0.34936544058770075,0.2789063262939453,84.98455047607422,83.87982177734375,-5.096061706542969,89.66943359375,-0.012979168362087673,0.7266666666666667,0.4,-0.015899181365966797,-4.119751589843752,0.14281800389289856,31.113059997558594,0.01227476331922743,-0.10850550333658854
6882,-0.35327169058770075,0.29882820129394533,85.98699188232422,85.92561340332031,-4.482318878173828,89.58760070800781,-0.006841744316948784,0.7213333333333334,0.39714285714285713,-0.017455530166625977,-4.273554461547853,0.05493000149726868,31.113059997558594,0.0006819831000434028,-0.10077688429090711
6883,-0.34155294058770075,0.3187500762939453,85.02546691894531,84.43218231201172,-4.461860656738281,88.85111236572266,-0.014797634548611112,0.7163333333333334,0.3939285714285714,-0.01815741327073839,-3.932987826416017,-0.4723993712158219,33.39820098876953,0.0065920511881510414,-0.09236636691623264
6884,-0.34545919058770075,0.29882820129394533,85.0459213256836,84.45263671875,-4.523235321044922,88.97386169433594,-0.01752539740668403,0.7113333333333334,0.3914285714285714,-0.018004830678304037,-3.4825636320800797,-0.6591612272949234,35.7712287902832,0.0065920511881510414,-0.09441218905978732
6885,-0.34936544058770075,0.29882820129394533,85.06637573242188,84.47309875488281,-4.482318878173828,88.93293762207031,-0.014115693834092882,0.7073333333333334,0.38857142857142857,-0.018371031019422744,-3.207913058349611,-0.8788801604003922,37.529029846191406,0.006591966417100695,-0.09350285000271268
6886,-0.34936544058770075,0.29882820129394533,85.06637573242188,84.47309875488281,-4.523235321044922,88.93293762207031,-0.015024948120117187,0.703,0.3867857142857143,-0.01876774893866645,-3.163967745849611,-0.7690206938476578,39.462608337402344,0.006591966417100695,-0.09395747714572483
6887,-0.36499044058770075,0.2789063262939453,85.33233642578125,84.554931640625,-4.707359313964844,89.0147705078125,-0.01320648193359375,0.6983333333333334,0.3842857142857143,-0.01931704945034451,-3.163967745849611,-0.5602861815185562,41.13251876831055,0.008637830946180555,-0.09691255357530382
6888,-0.37280294058770075,0.2789063262939453,85.5164566040039,84.90271759033203,-4.625526428222656,89.17843627929688,-0.01070603264702691,0.6933333333333334,0.38321428571428573,-0.01989686754014757,-3.526507037231447,-0.3295809202880875,42.89031982421875,0.006819322374131944,-0.09782180786132813
6889,-0.37670919058770075,0.2789063262939453,85.557373046875,85.0050048828125,-4.236824035644531,88.83065795898438,-0.012979168362087673,0.688,0.3825,-0.020263067881266274,-3.7901712828369156,-0.2966219359130875,44.12078094482422,0.006137424045138889,-0.08963868882921007
6890,-0.37280294058770075,0.2789063262939453,85.49600219726562,85.0050048828125,-3.725372314453125,87.88958740234375,-0.015024948120117187,0.6833333333333333,0.38285714285714284,-0.020324103037516274,-3.0980535917968766,-0.3185945921630875,44.91178894042969,0.005455525716145834,-0.07349955240885417
6891,-0.36889669058770075,0.2789063262939453,85.5164566040039,84.98455047607422,-3.9708709716796875,88.40103149414062,-0.01547957526312934,0.6783333333333333,0.3825,-0.02038512759738498,-2.3510042601318375,-0.4174677305908219,45.26335144042969,0.0059100680881076385,-0.08191002739800347
6892,-0.36889669058770075,0.2789063262939453,85.5982894897461,84.98455047607422,-4.032245635986328,88.42149353027344,-0.013433795505099827,0.6733333333333333,0.3825,-0.020934433407253688,-2.164242404052736,-0.6042314940185562,45.43912887573242,0.006819322374131944,-0.08281932406955295
6893,-0.37280294058770075,0.2789063262939453,85.57783508300781,85.08683776855469,-4.11407470703125,88.54424285888672,-0.014115693834092882,0.6683333333333333,0.3817857142857143,-0.0214532110426161,-2.175228732177736,-0.6811319761962906,45.70280075073242,0.005455525716145834,-0.08509241739908854
6894,-0.37280294058770075,0.2789063262939453,84.86180114746094,84.80043029785156,-4.011787414550781,88.48286437988281,-0.012297227647569445,0.664,0.38107142857142856,-0.022124587164984808,-2.2850881987304703,-0.3735243254394547,46.142250061035156,0.0006818983289930556,-0.08327390882703993
6895,-0.38452169058770075,0.2789063262939453,85.39370727539062,84.39126586914062,-3.909496307373047,87.78729248046875,-0.009114880032009548,0.6596666666666666,0.3807142857142857,-0.02316215303209093,-1.8236757689209,0.1867620050907135,46.40591812133789,0.011138237847222222,-0.0744087643093533
6896,-0.37670919058770075,0.29882820129394533,85.92561340332031,85.455078125,-3.9504127502441406,88.27828979492188,-0.012751854790581597,0.6553333333333333,0.38035714285714284,-0.023619895511203342,-1.4831110411376969,0.19774800539016724,46.66958999633789,0.005228169759114583,-0.08031891716851128
6897,-0.36889669058770075,0.29882820129394533,85.57783508300781,85.35279846191406,-3.704914093017578,87.86912536621094,-0.016388829549153647,0.6513333333333333,0.3796428571428571,-0.023741965823703342,-1.2853628569335953,-0.17577614123535312,47.196929931640625,0.0025004069010416668,-0.07304488288031684
6898,-0.36499044058770075,0.3187500762939453,85.02546691894531,84.71859741210938,-3.9504127502441406,88.44195556640625,-0.01729808383517795,0.6476666666666666,0.37892857142857145,-0.024321778615315755,-1.142544406005861,-0.19774879748535312,47.46059799194336,0.003409661187065972,-0.08213742574055989
6899,-0.38061544058770075,0.3187500762939453,85.0459213256836,84.53446960449219,-3.9913291931152344,88.23736572265625,-0.009114880032009548,0.644,0.37785714285714284,-0.02618329789903429,-1.0986010008544937,-0.07690300280761875,47.54848861694336,0.0056827969021267365,-0.08031883239746093
6900,-0.38061544058770075,0.3187500762939453,63.46273422241211,84.24806213378906,-4.011787414550781,88.46240997314453,-0.015706888834635415,0.6403333333333333,0.3767857142857143,-0.026732603708902996,-1.0876146727294937,0.5602860450744629,47.54848861694336,-0.23094808790418836,-0.08304663764105903
6901,-0.38452169058770075,0.3187500762939453,93.10637664794922,95.86820983886719,-3.9913291931152344,87.82821655273438,0.0006595187717013889,0.6373333333333333,0.3757142857142857,-0.025969685448540582,-0.845923083374025,6.031314373016357,48.339500427246094,-0.030687035454644098,-0.0757727305094401
6902,-0.38842794058770075,0.33867195129394534,103.3558349609375,96.09324645996094,-4.052700042724609,88.25782775878906,-0.08435482449001735,0.6333333333333333,0.3757142857142857,-0.02300956514146593,-0.3735243254394547,8.503164291381836,48.95473098754883,0.08069542778862847,-0.08122808668348525
6903,-0.41967794058770075,0.3785157012939453,87.70545959472656,93.1268310546875,-4.1959075927734375,88.52378845214844,-0.027981694539388022,0.6283333333333333,0.37642857142857145,-0.023864036136203342,-0.03295769030761875,5.108489990234375,48.95473098754883,-0.06023746066623264,-0.08577440049913194
6904,-0.40795919058770075,0.3585938262939453,82.81600189208984,84.84133911132812,-3.7662887573242188,88.54424285888672,-0.05139473809136285,0.625,0.37642857142857145,-0.018920331531100804,-0.17577614123535312,0.7800060510635376,49.8336296081543,-0.02250374688042535,-0.08122812906901042
6905,-0.38842794058770075,0.3187500762939453,86.45751953125,85.1072998046875,-3.9504127502441406,88.42149353027344,-0.04002918667263455,0.621,0.37642857142857145,-0.013640949461195205,-0.2307058745117203,0.08788800239562988,50.09729766845703,0.01500244140625,-0.08191006978352865
6906,-0.38452169058770075,0.3187500762939453,77.70149993896484,78.49935913085938,-4.339115142822266,88.72836303710938,-0.02684512668185764,0.6156666666666667,0.3767857142857143,-0.01403766738043891,-0.3076082640380875,-2.1093126707763687,50.27307891845703,-0.008865102132161459,-0.0896386464436849
6907,-0.37670919058770075,0.3187500762939453,84.75950622558594,82.20226287841797,-4.298198699951172,88.81019592285156,-0.016388829549153647,0.6103333333333333,0.3767857142857143,-0.01553298102484809,-0.49437012011718906,-1.131558077880861,50.36096954345703,0.028413814968532985,-0.09009327358669705
6908,-0.37670919058770075,0.33867195129394534,84.0025634765625,84.67768096923828,-2.8252220153808594,88.6669921875,-0.009114880032009548,0.605,0.37642857142857145,-0.01873723136054145,-0.6371885710449234,-0.9997259550781266,50.36096954345703,-0.007501305474175347,-0.07213571336534289
6909,-0.38842794058770075,0.33867195129394534,84.02302551269531,83.5115737915039,-3.479877471923828,87.64408874511719,-0.018207295735677084,0.6003333333333334,0.3767857142857143,-0.020324103037516274,0.20873400568962097,-1.0876146727294937,49.48207092285156,0.0056827969021267365,-0.0680440690782335
6910,-0.39624044058770075,0.33867195129394534,83.92073059082031,83.49111938476562,-3.8276634216308594,88.23736572265625,-0.01911655002170139,0.5956666666666667,0.37642857142857145,-0.020995468563503688,0.6481740474700928,-1.0986010008544937,48.339500427246094,0.004773457845052083,-0.07850032382541233
6911,-0.38842794058770075,0.33867195129394534,83.69569396972656,83.4501953125,-3.9504127502441406,88.40103149414062,-0.014115693834092882,0.5906666666666667,0.37535714285714283,-0.0214837286207411,0.3954960107803345,-1.5819841795654312,48.251609802246094,0.002727762858072917,-0.0816827138264974
6912,-0.37280294058770075,0.3187500762939453,83.83889770507812,83.30699157714844,-2.6820144653320312,88.6056137084961,-0.021844270494249134,0.5856666666666667,0.375,-0.0216057989332411,-0.05493034655761875,-1.7577597075195328,48.95473098754883,0.0059100680881076385,-0.06986253526475694
6913,-0.37670919058770075,0.33867195129394534,83.87982177734375,83.40928649902344,-3.2343826293945312,88.6056137084961,-0.013433795505099827,0.5823333333333334,0.3742857142857143,-0.024474366505940755,0.8459219932556152,-1.8895918303222672,49.39418029785156,0.005228169759114583,-0.07599995930989584
6914,-0.38842794058770075,0.33867195129394534,82.01814270019531,83.28652954101562,-3.684459686279297,88.33966064453125,-0.01661614312065972,0.578,0.37285714285714283,-0.026457945505777996,1.0766279697418213,-2.1312853270263687,49.48207092285156,-0.014093187120225694,-0.07804578145345052
6915,-0.39233419058770075,0.33867195129394534,85.76194763183594,81.71127319335938,-4.175449371337891,41.900001525878906,-0.01616151597764757,0.5746666666666667,0.3717857142857143,-0.027709134419759116,0.9447960257530212,-1.7467752867431656,49.48207092285156,0.0450074937608507,0.43249499003092445
6916,-0.39624044058770075,0.33867195129394534,83.63432312011719,83.02058410644531,-3.1934661865234375,88.68744659423828,-0.01547957526312934,0.5713333333333334,0.37107142857142855,-0.029570653703477646,1.1864880323410034,-1.9445234709472672,49.7457389831543,0.006819322374131944,-0.07645458645290798
6917,-0.40014669058770075,0.3187500762939453,83.38882446289062,83.14332580566406,-4.216365814208984,41.900001525878906,-0.01911655002170139,0.5683333333333334,0.3707142857142857,-0.03112699720594618,1.5929700136184692,-1.8566347532959,51.2398681640625,0.002727762858072917,0.4320403628879123
6918,-0.40405294058770075,0.3187500762939453,82.91828918457031,81.36347961425781,-2.2319412231445312,87.72592163085938,-0.0168434566921658,0.5646666666666667,0.3703571428571429,-0.032866446177164714,1.2963480949401855,-1.2084604674072281,52.38243865966797,0.01727566189236111,-0.05508736504448785
6919,-0.40405294058770075,0.33867195129394534,84.12531280517578,83.57295227050781,-3.6230850219726562,85.92561340332031,-0.007978312174479167,0.562,0.3703571428571429,-0.034941577911376955,1.9335360527038574,-0.4064833098144547,53.52500915527344,0.006137339274088541,-0.05054109361436632
6920,-0.41967794058770075,0.33867195129394534,85.80287170410156,85.90515899658203,-4.175449371337891,88.44195556640625,-0.008205625745985243,0.559,0.3703571428571429,-0.03655896716647678,2.3839621543884277,-0.4174677305908219,53.78868103027344,-0.0011365254720052083,-0.08463783264160156
6921,-0.40795919058770075,0.33867195129394534,83.90027618408203,83.22515869140625,-4.011787414550781,88.68744659423828,-0.022526211208767362,0.5563333333333333,0.37,-0.036284319559733075,2.3400180339813232,-0.845923083374025,54.403907775878906,0.007501305474175347,-0.0855470445421007
6922,-0.41186544058770075,0.33867195129394534,84.12531280517578,83.63432312011719,-4.073158264160156,88.21691131591797,-0.021162372165256075,0.554,0.37,-0.03640637927585178,1.9335360527038574,-0.856909411499025,55.98592758178711,0.005455440945095486,-0.08100077311197916
6923,-0.41577169058770075,0.3187500762939453,83.90027618408203,83.4501953125,-2.702472686767578,88.05325317382812,-0.017070770263671875,0.5503333333333333,0.3703571428571429,-0.036314837137858075,1.6918439865112305,-1.3952223234863297,56.33749008178711,0.00500089857313368,-0.06395250956217448
6924,-0.41967794058770075,0.29882820129394533,83.73661041259766,83.26608276367188,-3.7662887573242188,89.34210205078125,-0.022753524780273437,0.5486666666666666,0.3707142857142857,-0.03579604890611437,2.186213970184326,-1.3183199339599625,56.33749008178711,0.005228084988064236,-0.09009323120117188
6925,-0.42749044058770075,0.29882820129394533,83.81844329833984,83.40928649902344,-4.727817535400391,41.900001525878906,-0.011387973361545138,0.5456666666666666,0.3707142857142857,-0.037260850270589195,1.966494083404541,-0.9777552061767594,56.33749008178711,0.00454618665907118,0.4263575659857856
6926,-0.43530294058770075,0.29882820129394533,83.94119262695312,83.47065734863281,-4.482318878173828,88.40103149414062,-0.018207295735677084,0.5423333333333333,0.3717857142857143,-0.0375965330335829,1.0766279697418213,-0.6701475554199234,57.48006057739258,0.005228169759114583,-0.08759278191460504
6927,-0.43920919058770075,0.2789063262939453,81.73172760009766,83.5115737915039,-4.236824035644531,88.72836303710938,-0.02457203335232205,0.5393333333333333,0.37285714285714283,-0.03646741443210178,0.4943700134754181,-0.4504267149658219,57.74372863769531,-0.01977606879340278,-0.08850207858615451
6928,-0.40795919058770075,0.2789063262939453,88.6056137084961,83.0001220703125,-4.216365814208984,89.2193603515625,-0.006387117173936632,0.5346666666666666,0.37535714285714283,-0.03655896716647678,0.38451001048088074,0.9338099956512451,57.83161926269531,0.06228324042426215,-0.09373029073079427
6929,-0.43139669058770075,0.2789063262939453,81.24073791503906,87.23492431640625,-4.564151763916016,89.0147705078125,-0.01752539740668403,0.5313333333333333,0.37642857142857145,-0.037077744801839195,0.13183200359344482,-0.5383154326171891,57.83161926269531,-0.06660207112630208,-0.09532135857476129
6930,-0.36108419058770075,0.2789063262939453,83.08195495605469,83.22515869140625,-4.5846099853515625,41.900001525878906,-0.03093672858344184,0.527,0.3775,-0.035033130645751955,-0.2856375151367203,-1.0986010008544937,55.10702896118164,-0.001591152615017361,0.4279487609863281
6931,-0.37280294058770075,0.25898443222045897,83.92073059082031,84.37080383300781,-4.1959075927734375,88.87156677246094,-0.020480431450737847,0.5226666666666666,0.37785714285714284,-0.03423969480726454,-0.8898664885253922,-0.2416922026367203,53.0855598449707,-0.0050008138020833336,-0.08963860405815972
6932,-0.38452169058770075,0.2789063262939453,85.84378051757812,84.63676452636719,-4.216365814208984,88.17599487304688,-0.003886710272894965,0.5186666666666667,0.3782142857142857,-0.037047227223714195,-0.6591612272949234,0.23070600628852844,51.5035400390625,0.013411288791232639,-0.08213734096950955
6933,-0.41967794058770075,0.29882820129394533,83.79798889160156,83.16378784179688,-4.175449371337891,89.1170654296875,-0.006159803602430555,0.5146666666666667,0.3782142857142857,-0.039305464426676436,-0.4504267149658219,-0.7470480375976578,50.09729766845703,0.007046678331163195,-0.09213905334472657
6934,-0.41186544058770075,0.29882820129394533,81.15890502929688,86.94851684570312,-3.9504127502441406,88.36012268066406,-0.014343007405598959,0.51,0.37785714285714284,-0.03982425265842014,-0.6371885710449234,-0.21972145373535312,49.48207092285156,-0.06432902018229167,-0.08122817145453559
6935,-0.41186544058770075,0.3187500762939453,86.6007308959961,41.900001525878906,-3.11163330078125,88.50332641601562,-0.004568650987413194,0.5053333333333333,0.37785714285714284,-0.04156370162963867,-0.7140909605712906,1.450152039527893,49.48207092285156,0.49667477077907984,-0.07349955240885417
6936,-0.43530294058770075,0.33867195129394534,83.12287139892578,83.4501953125,-3.9913291931152344,88.33966064453125,-0.011160659790039062,0.5006666666666667,0.3775,-0.042753844790988496,-0.49437012011718906,1.6149420738220215,49.48207092285156,-0.003636932373046875,-0.08145544264051649
6937,-0.41967794058770075,0.33867195129394534,83.98210144042969,83.47065734863281,-4.134532928466797,88.44195556640625,-0.009342193603515625,0.495,0.37785714285714284,-0.04244867960611979,-0.13183273608398594,1.5929700136184692,49.48207092285156,0.005682712131076389,-0.0841832054985894
6938,-0.43139669058770075,0.3187500762939453,83.96165466308594,83.4501953125,-4.011787414550781,88.6056137084961,-0.020025804307725693,0.49,0.37785714285714284,-0.03970218234592014,-0.17577614123535312,1.021697998046875,50.27307891845703,0.005682881673177083,-0.08463779025607639
6939,-0.43530294058770075,0.2789063262939453,83.0410385131836,41.900001525878906,-4.052700042724609,88.46240997314453,-0.02752706739637587,0.48533333333333334,0.37785714285714284,-0.03552140129937066,-0.14281906420898594,0.5493000149726868,50.36096954345703,0.4571226331922743,-0.083501222398546
6940,-0.39624044058770075,0.25898443222045897,83.90027618408203,83.57295227050781,-3.8481216430664062,86.49844360351562,-0.032073296440972225,0.4796666666666667,0.3782142857142857,-0.03170682059393989,-0.3405672484130875,0.8239500522613525,50.53675079345703,0.003636932373046875,-0.059406280517578125
6941,-0.40795919058770075,0.2789063262939453,84.12531280517578,85.53691101074219,-3.868579864501953,88.42149353027344,-0.004114023844401042,0.47433333333333333,0.37857142857142856,-0.0320730103386773,-0.08788933093261875,2.0983259677886963,50.712528228759766,-0.015684424506293402,-0.08100081549750435
6942,-0.38061544058770075,0.3187500762939453,86.08927917480469,85.37325286865234,-4.11407470703125,88.6669921875,0.002932612101236979,0.4696666666666667,0.37892857142857145,-0.034117635091145834,0.16479000449180603,2.58171010017395,50.976200103759766,0.007955847846137152,-0.086456298828125
6943,-0.40014669058770075,0.3187500762939453,82.28408813476562,83.36836242675781,-4.093616485595703,88.38057708740234,-0.01070603264702691,0.4643333333333333,0.37857142857142856,-0.033965047200520834,0.19774800539016724,1.450152039527893,50.712528228759766,-0.012047492133246528,-0.08304659525553386
6944,-0.40014669058770075,0.3187500762939453,83.79798889160156,83.20470428466797,-2.8252220153808594,88.6056137084961,-0.020025804307725693,0.46,0.3775,-0.031889915466308594,0.2197200059890747,0.9997260570526123,48.60316848754883,0.0065920511881510414,-0.07145373026529948
6945,-0.38842794058770075,0.29882820129394533,82.79554748535156,83.49111938476562,-4.11407470703125,88.95339965820312,-0.021616956922743055,0.45566666666666666,0.37714285714285717,-0.028349982367621526,0.6262019872665405,0.8129640221595764,48.427391052246094,-0.00772857666015625,-0.08963860405815972
6946,-0.38842794058770075,0.25898443222045897,84.0434799194336,83.71615600585938,-4.339115142822266,87.91004180908203,-0.023662779066297743,0.4513333333333333,0.3757142857142857,-0.024840566847059462,0.23070600628852844,1.4721240997314453,48.427391052246094,0.003636932373046875,-0.08054618835449219
6947,-0.41967794058770075,0.2789063262939453,84.80043029785156,85.96653747558594,-3.8481216430664062,88.6056137084961,0.0024779849582248262,0.44733333333333336,0.375,-0.025634002685546876,-0.03295769030761875,1.6698720455169678,49.21839904785156,-0.012956746419270833,-0.08281928168402777
6948,-0.45874044058770075,0.2789063262939453,80.87248992919922,79.84959411621094,-4.11407470703125,86.04837036132812,-0.005705218844943577,0.443,0.375,-0.027037768893771703,-0.04394401843261875,0.09887400269508362,49.7457389831543,0.011365509033203125,-0.05736050075954861
6949,-0.41967794058770075,0.29882820129394533,81.69081115722656,83.49111938476562,-3.1934661865234375,88.38057708740234,-0.014570320977105035,0.43833333333333335,0.37535714285714283,-0.028594112396240233,0.48338401317596436,-0.3625379973144547,50.62464141845703,-0.020003424750434026,-0.07304492526584201
6950,-0.40405294058770075,0.33867195129394534,83.94119262695312,83.34790802001953,-3.9299545288085938,87.58271789550781,-0.0007043626573350694,0.434,0.3757142857142857,-0.0321035279168023,1.021697998046875,0.5932440161705017,51.855098724365234,0.0065920511881510414,-0.07236302693684896
6951,-0.43139669058770075,0.3585938262939453,83.85935974121094,83.5934066772461,-3.8890380859375,89.05569458007812,0.0020233578152126738,0.428,0.3757142857142857,-0.03469744788275825,1.1535300016403198,0.9338099956512451,52.29454803466797,0.0029550340440538192,-0.08827480740017361
6952,-0.43920919058770075,0.33867195129394534,86.37569427490234,83.4501953125,-4.441402435302734,88.89202880859375,-0.02752706739637587,0.4246666666666667,0.37535714285714283,-0.03103544447157118,0.6371880173683167,0.6481740474700928,51.767208099365234,0.03250554402669271,-0.09259368048773872
6953,-0.43920919058770075,0.29882820129394533,84.08439636230469,86.70301818847656,-3.5412521362304688,86.559814453125,-0.030254787868923612,0.42033333333333334,0.37535714285714283,-0.02728189892239041,-0.2966219359130875,0.5602860450744629,51.5035400390625,-0.02909579806857639,-0.056678517659505205
6954,-0.43139669058770075,0.29882820129394533,86.62118530273438,85.74149322509766,-3.0298004150390625,87.88958740234375,-0.013888380262586805,0.4176666666666667,0.37607142857142856,-0.026976733737521703,0.6262019872665405,0.8788800239562988,51.2398681640625,0.009774356418185763,-0.06577097574869792
6955,-0.44311544058770075,0.3187500762939453,85.78240966796875,83.0001220703125,-3.7662887573242188,88.50332641601562,-0.0002497355143229167,0.41433333333333333,0.37642857142857145,-0.02914341820610894,1.538040041923523,0.09887400269508362,51.6793212890625,0.030914306640625,-0.08077350192599826
6956,-0.46264669058770075,0.3187500762939453,83.69569396972656,83.61386108398438,-3.8276634216308594,88.40103149414062,-0.010478719075520834,0.4103333333333333,0.37642857142857145,-0.030394596523708767,1.4062080383300781,-0.19774879748535312,51.855098724365234,0.0009092542860243056,-0.08031883239746093
6957,-0.45483419058770075,0.3187500762939453,83.77752685546875,84.28897857666016,-3.684459686279297,88.33966064453125,-0.012751854790581597,0.4063333333333333,0.37642857142857145,-0.030577701992458767,1.0986000299453735,-0.14281906420898594,53.0855598449707,-0.0056827969021267365,-0.07804578145345052
6958,-0.45092794058770075,0.3187500762939453,84.06393432617188,83.4501953125,-3.7662887573242188,88.44195556640625,-0.013433795505099827,0.403,0.37714285714285717,-0.030638737148708767,1.06564199924469,-0.18676246936035312,54.31602096557617,0.006819322374131944,-0.0800916035970052
6959,-0.43139669058770075,0.33867195129394534,84.08439636230469,83.5115737915039,-3.725372314453125,88.05325317382812,-0.009569507175021702,0.399,0.37785714285714284,-0.031828880310058594,1.0766279697418213,-0.07690300280761875,54.579689025878906,0.006364695231119792,-0.07531806098090278
6960,-0.43920919058770075,0.33867195129394534,83.98210144042969,83.0001220703125,-3.8890380859375,91.24469757080078,-0.003659396701388889,0.39566666666666667,0.3782142857142857,-0.0323476685418023,1.3293060064315796,-0.3735243254394547,54.579689025878906,0.010910881890190972,-0.11259706285264758
6961,-0.43920919058770075,0.3187500762939453,83.14332580566406,84.43218231201172,-5.382472991943359,89.19889831542969,-0.019343863593207465,0.3923333333333333,0.37785714285714284,-0.03131010267469618,0.7031040191650391,-1.3732515745849625,53.96445846557617,-0.014320627848307291,-0.10645968119303385
6962,-0.42749044058770075,0.3187500762939453,84.35034942626953,82.52958679199219,-4.707359313964844,88.0123291015625,-0.018661922878689237,0.38766666666666666,0.3775,-0.030608219570583767,-0.48338379199218906,-0.7360617094726578,53.1734504699707,0.02023069593641493,-0.0857743157280816
6963,-0.45092794058770075,0.3187500762939453,78.84715270996094,83.40928649902344,-3.704914093017578,87.6031723022461,-0.004795964558919271,0.38466666666666666,0.37785714285714284,-0.03253076341417101,-0.48338379199218906,-0.2526785307617203,52.9097785949707,-0.050690375434027775,-0.07008984883626303
6964,-0.44702169058770075,0.33867195129394534,84.02302551269531,82.93875122070312,-3.8481216430664062,88.62606811523438,-0.008887566460503472,0.381,0.37857142857142856,-0.03369039959377713,0.3185940086841583,-0.07690300280761875,52.64611053466797,0.012047492133246528,-0.08304655287000869
6965,-0.42358419058770075,0.33867195129394534,83.36836242675781,83.32745361328125,-4.052700042724609,88.52378845214844,-0.015024948120117187,0.37566666666666665,0.37857142857142856,-0.03365988201565213,0.6591600179672241,0.0,52.55821990966797,0.00045454237196180554,-0.0841832054985894
6966,-0.47827169058770075,0.29882820129394533,83.65477752685547,83.20470428466797,-4.216365814208984,88.64653015136719,-0.010933346218532987,0.372,0.3782142857142857,-0.03149319754706489,0.6811320185661316,-0.2856375151367203,51.855098724365234,0.0050008138020833336,-0.08736551072862413
6967,-0.44702169058770075,0.239062557220459,81.83401489257812,83.49111938476562,-4.073158264160156,88.29874420166016,-0.03411907619900174,0.369,0.3782142857142857,-0.025359344482421876,0.5712720155715942,-0.3076082640380875,51.6793212890625,-0.018412272135416668,-0.08191002739800347
6968,-0.45092794058770075,0.219140682220459,83.92073059082031,83.552490234375,-3.11163330078125,87.80775451660156,-0.018207295735677084,0.365,0.3796428571428571,-0.023467318216959635,0.3185940086841583,0.9447960257530212,51.855098724365234,0.004091559516059028,-0.06577097574869792
6969,-0.5017091905877007,0.239062557220459,87.03034973144531,84.16622924804688,-4.645984649658203,88.99431610107422,0.001341459486219618,0.3606666666666667,0.38035714285714284,-0.025450897216796876,0.6371880173683167,1.3622640371322632,52.8218879699707,0.03182356092664931,-0.09600334167480469
6970,-0.47827169058770075,0.2789063262939453,84.32989501953125,83.77752685546875,-4.605068206787109,88.74882507324219,-0.0002497355143229167,0.35533333333333333,0.38142857142857145,-0.026702086130777996,0.04394400119781494,0.8349360227584839,52.9097785949707,0.006137424045138889,-0.09282103644476997
6971,-0.5056154405877007,0.2789063262939453,84.26852416992188,83.69569396972656,-4.093616485595703,88.48286437988281,-0.012751854790581597,0.3516666666666667,0.3825,-0.026580015818277996,-0.5822588377685562,0.4064820110797882,52.9097785949707,0.006364780002170139,-0.08418312072753906
6972,-0.47827169058770075,0.2789063262939453,84.20714569091797,83.67523193359375,-2.8456802368164062,88.25782775878906,-0.00775099860297309,0.3466666666666667,0.38392857142857145,-0.027037768893771703,-0.4504267149658219,0.5053560137748718,53.1734504699707,0.005910152859157986,-0.06781675550672743
6973,-0.44311544058770075,0.29882820129394533,84.24806213378906,83.61386108398438,-3.8890380859375,88.93293762207031,-0.021616956922743055,0.3426666666666667,0.3846428571428571,-0.027495511372884116,0.09887400269508362,0.5932440161705017,53.52500915527344,0.007046678331163195,-0.08691084120008681
6974,-0.43530294058770075,0.3187500762939453,84.12531280517578,83.12287139892578,-4.523235321044922,88.64653015136719,0.0036145528157552082,0.3373333333333333,0.3846428571428571,-0.02999787860446506,0.19774800539016724,0.4284540116786957,53.1734504699707,0.011138237847222222,-0.09077517191569011
6975,-0.44702169058770075,0.3187500762939453,83.36836242675781,83.06149291992188,-4.073158264160156,89.40347290039062,-0.015706888834635415,0.333,0.3842857142857143,-0.029295995500352646,0.09887400269508362,-0.16478981311035312,50.36096954345703,0.003409661187065972,-0.0941847907172309
6976,-0.44311544058770075,0.29882820129394533,83.69569396972656,83.36836242675781,-5.014228820800781,89.13752746582031,-0.018207295735677084,0.3283333333333333,0.38285714285714284,-0.02810585233900282,-0.14281906420898594,-0.2416922026367203,48.95473098754883,0.003637017144097222,-0.1016861809624566
6977,-0.43920919058770075,0.29882820129394533,83.87982177734375,83.42974090576172,-4.3595733642578125,88.76927947998047,-0.013433795505099827,0.32366666666666666,0.3825,-0.028166876898871526,-0.7031046324462906,-0.14281906420898594,48.95473098754883,0.00500089857313368,-0.09032058715820312
6978,-0.45092794058770075,0.29882820129394533,83.94119262695312,83.49111938476562,-3.704914093017578,88.0123291015625,-0.01252454121907552,0.319,0.38142857142857145,-0.02795326444837782,-0.834936755249025,0.05493000149726868,48.95473098754883,0.0050008138020833336,-0.07463603549533421
6979,-0.46655294058770075,0.2789063262939453,84.08439636230469,83.42974090576172,-3.6026268005371094,88.19645690917969,-0.01729808383517795,0.31533333333333335,0.38142857142857145,-0.026580015818277996,0.010986000299453735,0.45042601227760315,48.86684036254883,0.0072739495171440975,-0.07554537455240885
6980,-0.45874044058770075,0.2789063262939453,84.35034942626953,83.83889770507812,-3.704914093017578,88.31919860839844,-0.011615286933051215,0.31033333333333335,0.38107142857142856,-0.025756062401665582,0.5053560137748718,0.6811320185661316,48.69105911254883,0.0056827969021267365,-0.07804569668240018
6981,-0.43920919058770075,0.2789063262939453,84.57539367675781,84.0025634765625,-3.7662887573242188,88.09416198730469,-0.01547957526312934,0.305,0.3807142857142857,-0.02423023647732205,0.4943700134754181,0.8129640221595764,48.69105911254883,0.006364780002170139,-0.07622723049587674
6982,-0.45483419058770075,0.25898443222045897,83.98210144042969,83.69569396972656,-3.7867469787597656,86.92805480957031,-0.012297227647569445,0.301,0.38035714285714284,-0.023497835795084635,0.6371880173683167,0.5493000149726868,49.8336296081543,0.003182305230034722,-0.06349779764811198
6983,-0.46655294058770075,0.2789063262939453,84.5140151977539,85.35279846191406,-3.479877471923828,88.19645690917969,-0.005705218844943577,0.297,0.38,-0.02401661343044705,0.9887400269508362,0.7360620498657227,49.8336296081543,-0.009319814046223958,-0.0741814931233724
6984,-0.49389669058770075,0.2789063262939453,82.61141967773438,83.08195495605469,-3.7662887573242188,87.37813568115234,-0.0011589898003472221,0.29333333333333333,0.3792857142857143,-0.024352296193440755,1.3293060064315796,0.5383139848709106,50.27307891845703,-0.005228169759114583,-0.06827138264973959
6985,-0.47045919058770075,0.2789063262939453,81.73172760009766,78.60165405273438,-3.3162155151367188,88.25782775878906,-0.021616956922743055,0.2916666666666667,0.3796428571428571,-0.023314730326334635,1.768746018409729,-0.9008528166503922,51.767208099365234,0.034778594970703125,-0.07304492526584201
6986,-0.5446779405877007,0.25898443222045897,83.73661041259766,83.4501953125,-3.8072052001953125,88.72836303710938,-0.011160659790039062,0.2856666666666667,0.3807142857142857,-0.02401661343044705,1.581984043121338,-1.0436712675781266,52.64611053466797,0.0031823900010850693,-0.08372853597005209
6987,-0.5798341905877007,0.239062557220459,83.77752685546875,83.32745361328125,-4.175449371337891,88.89202880859375,-0.029118262396918403,0.2823333333333333,0.3807142857142857,-0.02053771548800998,0.6262019872665405,-0.10986007983398594,52.64611053466797,0.0050008138020833336,-0.0896386464436849
6988,-0.5407716905877007,0.19921878814697266,83.85935974121094,83.47065734863281,-2.2933120727539062,88.17599487304688,-0.01979849073621962,0.2786666666666667,0.3821428571428571,-0.018309995863172744,-0.01098694140625156,0.41746801137924194,55.722259521484375,0.0043189154730902775,-0.060770077175564235
6989,-0.5251466905877007,0.219140682220459,84.69813537597656,83.79798889160156,-4.236824035644531,88.72836303710938,-0.00297745598687066,0.2753333333333333,0.38392857142857145,-0.018920331531100804,1.0436700582504272,0.790992021560669,56.864830017089844,0.010001627604166667,-0.08850207858615451
6990,-0.48608419058770075,0.219140682220459,83.94119262695312,83.24562072753906,-4.093616485595703,88.23736572265625,-0.017070770263671875,0.27066666666666667,0.38571428571428573,-0.017516565322875977,1.2414180040359497,0.35155200958251953,56.864830017089844,0.00772857666015625,-0.08145535786946614
6991,-0.43530294058770075,0.19921878814697266,84.02302551269531,85.61874389648438,-4.011787414550781,89.73080444335938,-0.015252261691623263,0.26666666666666666,0.38642857142857145,-0.015410916010538737,1.3952220678329468,0.9338099956512451,56.864830017089844,-0.017730204264322917,-0.09713990953233508
6992,-0.48217794058770075,0.19921878814697266,86.98943328857422,87.19401550292969,-5.096061706542969,88.13508605957031,-0.007296371459960938,0.263,0.38607142857142857,-0.014617480172051323,0.747048020362854,2.7245280742645264,55.10702896118164,-0.002273135715060764,-0.09145719740125868
6993,-0.43139669058770075,0.239062557220459,86.84622192382812,85.63920593261719,-3.3366737365722656,88.91248321533203,-0.0022955152723524307,0.258,0.38607142857142857,-0.015868663787841797,0.17577600479125977,1.7797319889068604,53.78868103027344,0.013411288791232639,-0.08054618835449219
6994,-0.47436544058770075,0.239062557220459,86.04837036132812,83.92073059082031,-4.66644287109375,89.68988800048828,-0.016388829549153647,0.25433333333333336,0.38642857142857145,-0.01553298102484809,0.8129640221595764,0.1867620050907135,52.8218879699707,0.02364044189453125,-0.10395923190646701
6995,-0.48608419058770075,0.219140682220459,78.3970718383789,85.02546691894531,-4.686901092529297,88.78973388671875,-0.01843460930718316,0.24966666666666668,0.38571428571428573,-0.014922650655110677,0.6591600179672241,-1.8126913481445328,51.6793212890625,-0.07364883422851562,-0.09418483310275608
6996,-0.5173341905877007,0.19921878814697266,84.24806213378906,83.30699157714844,-4.093616485595703,86.90760040283203,-0.01843460930718316,0.24533333333333332,0.3842857142857143,-0.013824049631754558,0.17577600479125977,-1.2963491850585953,51.2398681640625,0.010456339518229166,-0.06668018764919705
6997,-0.5056154405877007,0.19921878814697266,83.98210144042969,83.5115737915039,-3.725372314453125,88.21691131591797,-0.008205625745985243,0.242,0.3842857142857143,-0.014586962593926323,0.5712720155715942,-0.4064833098144547,50.976200103759766,0.005228084988064236,-0.07713648478190104
6998,-0.5212404405877007,0.219140682220459,84.12531280517578,83.40928649902344,-3.8481216430664062,88.21691131591797,-0.0059324900309244795,0.23733333333333334,0.3846428571428571,-0.015868663787841797,0.9447960257530212,-0.3076082640380875,51.2398681640625,0.007955847846137152,-0.0785003662109375
6999,-0.5329591905877007,0.19921878814697266,83.90027618408203,83.34790802001953,-3.745830535888672,87.82821655273438,-0.013661109076605903,0.23333333333333334,0.385,-0.015838146209716797,1.021697998046875,-0.49437012011718906,52.38243865966797,0.006137424045138889,-0.07304496765136718
7000,-0.5056154405877007,0.19921878814697266,83.87982177734375,83.30699157714844,-3.4594192504882812,87.45996856689453,-0.011615286933051215,0.22833333333333333,0.38571428571428573,-0.016265381707085504,0.9887400269508362,-0.5822588377685562,52.64611053466797,0.006364780002170139,-0.06577097574869792
7001,-0.5251466905877007,0.19921878814697266,82.83645629882812,81.69081115722656,-3.6230850219726562,88.48286437988281,-0.009114880032009548,0.22633333333333333,0.38607142857142857,-0.01663158204820421,1.3512780666351318,-1.0436712675781266,52.64611053466797,0.012729390462239584,-0.07895499335394965
7002,-0.49780294058770075,0.19921878814697266,81.36347961425781,76.65814208984375,-4.175449371337891,88.25782775878906,-0.012751854790581597,0.222,0.3867857142857143,-0.017272429996066624,1.307334065437317,-1.1864878111572281,52.8218879699707,0.05228152804904514,-0.0825919681125217
7003,-0.48608419058770075,0.19921878814697266,85.31187438964844,83.4501953125,-3.9913291931152344,88.48286437988281,-0.011842600504557292,0.217,0.38642857142857145,-0.017516565322875977,0.5053560137748718,-0.4284540587158219,52.8218879699707,0.020685323079427085,-0.08304659525553386
7004,-0.47436544058770075,0.19921878814697266,84.0434799194336,83.49111938476562,-4.7482757568359375,88.48286437988281,-0.015934202406141493,0.215,0.38607142857142857,-0.01708932982550727,0.5493000149726868,0.373524010181427,52.55821990966797,0.006137339274088541,-0.09145711263020834
7005,-0.47045919058770075,0.219140682220459,88.1555404663086,86.0688247680664,-4.66644287109375,89.30118560791016,-0.002068201700846354,0.21233333333333335,0.38571428571428573,-0.01876774893866645,0.5383139848709106,1.3732500076293945,52.38243865966797,0.02318572998046875,-0.09964031643337673
7006,-0.48999044058770075,0.219140682220459,86.25294494628906,85.68012237548828,-4.625526428222656,89.1579818725586,-0.008887566460503472,0.208,0.385,-0.018981366687350804,0.08788800239562988,0.6701459884643555,51.6793212890625,0.006364695231119792,-0.09759453667534722
7007,-0.5134279405877007,0.219140682220459,85.94607543945312,82.77508544921875,-3.7867469787597656,87.99187469482422,-0.020480431450737847,0.20466666666666666,0.3846428571428571,-0.01827948358323839,-0.3954969816894547,-0.5492998533935562,50.888309478759766,0.035233222113715275,-0.07531801859537761
7008,-0.5056154405877007,0.219140682220459,83.83889770507812,77.06730651855469,-4.134532928466797,88.68744659423828,-0.015024948120117187,0.20133333333333334,0.3846428571428571,-0.018920331531100804,0.2746500074863434,-0.10986007983398594,50.53675079345703,0.07523990207248264,-0.08691088358561198
7009,-0.48217794058770075,0.239062557220459,87.6031723022461,85.70057678222656,-4.073158264160156,88.0737075805664,-0.009796820746527778,0.19766666666666666,0.3842857142857143,-0.020812363094753688,0.4394400119781494,0.8459219932556152,50.53675079345703,0.021139950222439235,-0.0794096204969618
7010,-0.5251466905877007,0.239062557220459,85.0050048828125,81.5066909790039,-4.543693542480469,88.70790100097656,-0.009796820746527778,0.19366666666666665,0.3846428571428571,-0.02065978580050998,0.5383139848709106,0.19774800539016724,50.888309478759766,0.038870154486762155,-0.09168438381618924
7011,-0.5173341905877007,0.219140682220459,83.1024169921875,83.24562072753906,-3.868579864501953,88.78973388671875,-0.022526211208767362,0.18966666666666668,0.3846428571428571,-0.019408596886528864,0.373524010181427,0.26366400718688965,51.4156494140625,-0.001591152615017361,-0.08509237501356337
7012,-0.5134279405877007,0.239062557220459,83.90027618408203,81.28164672851562,-4.257282257080078,87.88958740234375,-0.010478719075520834,0.18466666666666667,0.385,-0.01989686754014757,0.0,0.7800060510635376,51.5035400390625,0.029095882839626736,-0.07940966288248698
7013,-0.5329591905877007,0.239062557220459,82.52958679199219,83.38882446289062,-3.9913291931152344,87.72592163085938,-0.0075236850314670135,0.18066666666666667,0.38571428571428573,-0.020110479990641274,-0.3405672484130875,0.9777539968490601,51.5035400390625,-0.009547085232204862,-0.07463612026638455
7014,-0.5095216905877007,0.239062557220459,84.0434799194336,85.37325286865234,-3.745830535888672,88.46240997314453,-0.010933346218532987,0.17466666666666666,0.3867857142857143,-0.01827948358323839,-0.4394403868408219,1.7138160467147827,51.5035400390625,-0.014775254991319445,-0.08009156121148003
7015,-0.45874044058770075,0.219140682220459,86.02790832519531,84.0434799194336,-4.11407470703125,88.95339965820312,-0.01752539740668403,0.172,0.3871428571428571,-0.01550246344672309,-0.17577614123535312,1.3512780666351318,50.712528228759766,0.02204920450846354,-0.08963860405815972
7016,-0.48999044058770075,0.219140682220459,84.35034942626953,84.22760009765625,-4.277740478515625,88.70790100097656,-0.01911655002170139,0.167,0.3871428571428571,-0.013457849290635851,-0.4394403868408219,0.9118380546569824,49.48207092285156,0.0013638814290364584,-0.08872934977213541
7017,-0.48608419058770075,0.219140682220459,84.71859741210938,86.25294494628906,-3.7662887573242188,88.68744659423828,-0.007296371459960938,0.16233333333333333,0.3867857142857143,-0.014190249972873263,-0.6701475554199234,1.581984043121338,48.95473098754883,-0.017048305935329862,-0.08281928168402777
7018,-0.49780294058770075,0.239062557220459,86.1097412109375,82.97966003417969,-3.725372314453125,88.27828979492188,-0.0059324900309244795,0.15766666666666668,0.3867857142857143,-0.014800580342610677,-0.4174677305908219,0.9667680263519287,48.95473098754883,0.03477867974175347,-0.07781846788194445
7019,-0.5212404405877007,0.239062557220459,83.81844329833984,83.73661041259766,-3.8276634216308594,88.46240997314453,-0.01252454121907552,0.15366666666666667,0.38642857142857145,-0.014800580342610677,0.12084600329399109,0.20873400568962097,48.95473098754883,0.0009092542860243056,-0.08100081549750435
7020,-0.5095216905877007,0.239062557220459,88.74882507324219,85.0459213256836,-3.3162155151367188,87.97142028808594,-0.011615286933051215,0.14866666666666667,0.38642857142857145,-0.014220767550998263,0.32958000898361206,0.36253800988197327,48.86684036254883,0.041143374972873265,-0.06986262003580729
7021,-0.5407716905877007,0.239062557220459,81.67034912109375,83.22515869140625,-3.5617103576660156,88.46240997314453,-0.01002409193250868,0.144,0.38607142857142857,-0.014709032906426323,0.7031040191650391,-0.10986007983398594,49.7457389831543,-0.01727566189236111,-0.07804578145345052
7022,-0.5524904405877007,0.239062557220459,84.75950622558594,84.06393432617188,-3.9708709716796875,88.13508605957031,-0.011160659790039062,0.139,0.38607142857142857,-0.01443438000149197,0.747048020362854,0.06591600179672241,49.8336296081543,0.00772857666015625,-0.078955078125
7023,-0.5681154405877007,0.239062557220459,86.08927917480469,83.42974090576172,-3.3366737365722656,86.41661071777344,-0.018207295735677084,0.135,0.38642857142857145,-0.012481313281589084,0.5602860450744629,-0.7250772886962906,50.976200103759766,0.02955042521158854,-0.05281427171495226
7024,-0.5524904405877007,0.19921878814697266,83.90027618408203,83.28652954101562,-3.091175079345703,88.6056137084961,-0.01797998216417101,0.13366666666666666,0.3875,-0.011016517215304904,1.4611380100250244,-0.9338098936767594,52.030879974365234,0.006819407145182292,-0.0744087643093533
7025,-0.6384279405877007,0.19921878814697266,84.0025634765625,85.20958709716797,-3.8890380859375,88.38057708740234,-0.010478719075520834,0.127,0.38785714285714284,-0.009429650836520725,1.5050820112228394,-0.7140909605712906,52.8218879699707,-0.013411373562282987,-0.08077350192599826
7026,-0.5329591905877007,0.17929691314697266,85.68012237548828,85.18913269042969,-4.175449371337891,88.1146240234375,-0.012751854790581597,0.12233333333333334,0.38785714285714284,-0.009887398613823786,0.8788800239562988,-0.3515516691894547,52.8218879699707,0.005455440945095486,-0.08100081549750435
7027,-0.48999044058770075,0.239062557220459,84.98455047607422,79.13356018066406,-3.725372314453125,88.38057708740234,0.009979248046875,0.11966666666666667,0.38785714285714284,-0.01504471566942003,0.9447960257530212,-0.4064833098144547,52.9097785949707,0.06501100328233507,-0.07895499335394965
7028,-0.48608419058770075,0.219140682220459,81.69081115722656,84.39126586914062,-4.1959075927734375,89.36256408691406,-0.022980838351779515,0.11666666666666667,0.38785714285714284,-0.013518879148695205,1.3183200359344482,-0.7470480375976578,52.9097785949707,-0.030005052354600693,-0.09509412977430555
7029,-0.44702169058770075,0.17929691314697266,86.13019561767578,85.53691101074219,-4.461860656738281,89.40347290039062,-0.018661922878689237,0.11433333333333333,0.3871428571428571,-0.010863929324679904,0.5712720155715942,0.10986000299453735,51.855098724365234,0.0065920511881510414,-0.09850370619032119
7030,-0.46264669058770075,0.19921878814697266,83.98210144042969,85.53691101074219,-5.853004455566406,88.97386169433594,-0.006841744316948784,0.11033333333333334,0.38571428571428573,-0.012145630518595378,-0.19774879748535312,0.3405660092830658,50.888309478759766,-0.01727566189236111,-0.1091874016655816
7031,-0.49780294058770075,0.19921878814697266,85.63920593261719,82.59095764160156,-4.339115142822266,88.42149353027344,-0.008887566460503472,0.10733333333333334,0.3846428571428571,-0.012939066357082791,-0.49437012011718906,-0.5273291044921891,49.13050842285156,0.033869425455729164,-0.08622898525661893
7032,-0.49780294058770075,0.19921878814697266,84.41172790527344,86.08927917480469,-4.032245635986328,88.1555404663086,-0.01547957526312934,0.10366666666666667,0.38357142857142856,-0.013274749120076498,0.05493000149726868,0.10986000299453735,48.95473098754883,-0.018639458550347224,-0.07986429002549914
7033,-0.47436544058770075,0.239062557220459,86.37569427490234,81.79310607910156,-3.725372314453125,88.93293762207031,0.004523807101779514,0.10066666666666667,0.38321428571428573,-0.015655046039157443,1.1425440311431885,0.2856360077857971,48.95473098754883,0.05091764662000868,-0.0850923326280382
7034,-0.47045919058770075,0.239062557220459,83.96165466308594,83.08195495605469,-4.482318878173828,89.0147705078125,-0.01547957526312934,0.09666666666666666,0.3825,-0.015960216522216797,1.1205720901489258,-0.6371885710449234,48.95473098754883,0.009774441189236111,-0.09441210428873698
7035,-0.5251466905877007,0.239062557220459,82.9592056274414,82.67279052734375,-4.298198699951172,88.6669921875,-0.01547957526312934,0.092,0.3817857142857143,-0.016387446721394857,0.23070600628852844,-1.153530734130861,49.48207092285156,0.0031823900010850693,-0.08850212097167968
7036,-0.5056154405877007,0.239062557220459,82.81600189208984,81.24073791503906,-3.4389610290527344,88.64653015136719,-0.01070603264702691,0.087,0.3817857142857143,-0.01760811275906033,-0.6262022429199234,-2.0104395323486344,51.6793212890625,0.017502933078342015,-0.07872767978244358
7037,-0.49780294058770075,0.219140682220459,83.1024169921875,79.82913208007812,-3.500335693359375,88.27828979492188,-0.02548124525282118,0.08266666666666667,0.3821428571428571,-0.018584648768107098,-0.5932451658935562,-1.4831110411376969,51.855098724365234,0.03636983235677083,-0.07531806098090278
7038,-0.5017091905877007,0.25898443222045897,83.26608276367188,83.49111938476562,-4.216365814208984,87.50088500976562,0.004296493530273437,0.07966666666666666,0.3825,-0.024474366505940755,0.20873400568962097,-0.03295769030761875,52.118770599365234,-0.0025004069010416668,-0.07463612026638455
7039,-0.5212404405877007,0.2789063262939453,84.08439636230469,85.08683776855469,-3.4594192504882812,87.99187469482422,-0.00297745598687066,0.07466666666666667,0.3825,-0.025664520263671876,0.6262019872665405,0.6152160167694092,55.10702896118164,-0.011138237847222222,-0.07168104383680556
7040,-0.5212404405877007,0.25898443222045897,83.42974090576172,83.32745361328125,-3.5821685791015625,88.83065795898438,-0.021162372165256075,0.07033333333333333,0.3842857142857143,-0.022002516852484808,1.06564199924469,-0.4174677305908219,55.458587646484375,0.0011365254720052083,-0.08236473931206598
7041,-0.46655294058770075,0.19921878814697266,83.67523193359375,77.92654418945312,-4.216365814208984,88.93293762207031,-0.028436321682400175,0.06633333333333333,0.385,-0.01724191771613227,0.9777539968490601,-0.8898664885253922,55.458587646484375,0.06387430826822917,-0.09054781595865885
7042,-0.5212404405877007,0.15937503814697265,85.41416931152344,86.0074462890625,-4.093616485595703,88.72836303710938,-0.035255644056532115,0.06066666666666667,0.38607142857142857,-0.014373350143432616,0.5932440161705017,0.032958000898361206,55.458587646484375,-0.006591966417100695,-0.08691088358561198
7043,-0.5603029405877007,0.19921878814697266,86.31431579589844,83.65477752685547,-3.704914093017578,89.58760070800781,0.00770615471733941,0.058333333333333334,0.38642857142857145,-0.01824896600511339,0.747048020362854,1.0986000299453735,55.458587646484375,0.02955042521158854,-0.09213905334472657
7044,-0.5251466905877007,0.219140682220459,82.87738037109375,82.67279052734375,-5.034687042236328,90.65141296386719,-0.002522828843858507,0.055,0.3871428571428571,-0.01989686754014757,1.021697998046875,0.07690200209617615,55.98592758178711,0.0022732204861111113,-0.11873444451226128
7045,-0.5368654405877007,0.19921878814697266,83.96165466308594,83.02058410644531,-5.955295562744141,91.75614929199219,-0.0075236850314670135,0.050666666666666665,0.3867857142857143,-0.017516565322875977,0.9667680263519287,0.16479000449180603,56.864830017089844,0.010456339518229166,-0.141238276163737
7046,-0.5993654405877007,0.17929691314697266,81.0975341796875,86.37569427490234,-5.055145263671875,90.95828247070312,-0.022526211208767362,0.04533333333333334,0.3867857142857143,-0.01498368051317003,-0.05493034655761875,-0.4504267149658219,56.864830017089844,-0.05864622328016493,-0.12237141927083334
7047,-0.5603029405877007,0.17929691314697266,86.19157409667969,81.01570129394531,-5.484760284423828,91.34698486328125,-0.008205625745985243,0.04133333333333333,0.3875,-0.014068179660373263,-0.04394401843261875,-0.3845106535644547,56.864830017089844,0.057509697808159725,-0.13146383497450087
7048,-0.5798341905877007,0.13945316314697265,84.77996826171875,85.16867065429688,-5.382472991943359,90.28317260742188,-0.0323006100124783,0.037,0.38857142857142857,-0.01138271755642361,-0.3405672484130875,-0.2526785307617203,56.864830017089844,-0.0043189154730902775,-0.11850717332628039
7049,-0.5915529405877007,0.13945316314697265,85.63920593261719,85.02546691894531,-4.543693542480469,89.38301849365234,-0.012069914076063368,0.03166666666666667,0.3892857142857143,-0.009582233428955079,-0.2856375151367203,0.26366400718688965,56.864830017089844,0.006819322374131944,-0.09918568929036459
7050,-0.5915529405877007,0.15937503814697265,86.5188980102539,85.61874389648438,-5.955295562744141,89.71034240722656,0.03339229159884983,0.027333333333333334,0.39071428571428574,-0.010650316874186197,0.3954960107803345,0.07690200209617615,56.864830017089844,0.010001712375217013,-0.11850708855523004
7051,-0.6032716905877007,0.1195312786102295,86.47798156738281,86.31431579589844,-3.8890380859375,88.13508605957031,0.00225067138671875,0.021,0.39107142857142857,-0.007415548960367838,0.1867620050907135,0.05493000149726868,56.864830017089844,0.001818508572048611,-0.0780458238389757
7052,-0.6345216905877007,0.1195312786102295,82.07951354980469,86.82576751708984,-4.339115142822266,84.90271759033203,0.015207417805989583,0.015666666666666666,0.39285714285714285,-0.006408500671386719,0.7580339908599854,-0.02197326953125156,54.667579650878906,-0.052736155192057294,-0.04713147481282552
7053,-0.6032716905877007,0.1195312786102295,86.64164733886719,85.41416931152344,-4.993770599365234,84.26852416992188,0.03384691874186198,0.011333333333333334,0.39285714285714285,-0.005584547254774305,1.9774800539016724,-0.18676246936035312,28.827919006347656,0.013638644748263888,-0.04735883076985677
7054,-0.5524904405877007,0.07968751907348633,83.14332580566406,85.0459213256836,-2.2933120727539062,86.39614868164062,-0.010251405504014757,0.004,0.3896428571428571,-0.0013732486300998264,2.66959810256958,-1.1095873289794937,27.50956916809082,-0.021139950222439235,-0.04099400838216146
7055,-0.6345216905877007,0.07968751907348633,88.62606811523438,87.29630279541016,-2.272857666015625,86.5188980102539,0.012025070190429688,0.002,0.38607142857142857,-0.0017394489712185329,2.8014299869537354,-0.16478981311035312,27.50956916809082,0.014775170220269097,-0.04213061862521701
7056,-0.5134279405877007,0.09960939407348633,84.71859741210938,89.0147705078125,-2.641101837158203,86.31431579589844,0.05475955539279514,0.0003333333333333333,0.3782142857142857,-0.0021056493123372396,2.1532559394836426,-0.8898664885253922,27.50956916809082,-0.04773525661892361,-0.04394908481174045
7057,-0.5173341905877007,0.07968751907348633,94.94759368896484,92.79949951171875,-0.22705459594726562,84.554931640625,0.023617935180664063,0.0,0.37392857142857144,-0.0,2.109312057495117,-0.21972145373535312,27.50956916809082,0.02386771308051215,0.0024223751491970484
