,WD,WS,AIL_1,AIL_2,ELEV_1,ELEV_2,RUDD,ALT,GS,TH,PTCH,ROLL,PLA_1,AIL,ELEV
2782,0.28624437120225693,0.7371095275878906,85.43462371826172,85.08683776855469,-5.464302062988281,89.83309936523438,0.3661757575141059,0.671,0.33107142857142857,0.08514149983723958,-3.4715773039550797,-0.5932451658935562,27.421680450439453,0.003864288330078125,-0.11441557142469617
2783,0.28233812120225693,0.7371095275878906,85.455078125,85.06637573242188,-5.423389434814453,89.81263732910156,0.3661757575141059,0.6643333333333333,0.33,0.08425649007161458,-3.4276319914550797,-1.3073355131835953,27.421680450439453,0.0043189154730902775,-0.11373363071017795
2784,0.28233812120225693,0.7371095275878906,85.41416931152344,85.0459213256836,-5.382472991943359,89.87400817871094,0.36481187608506943,0.6576666666666666,0.32857142857142857,0.08346303304036458,-3.4276319914550797,-1.8017050200195328,27.245899200439453,0.004091644287109375,-0.11396090189615886
2785,0.27843187120225693,0.7371095275878906,84.67768096923828,84.28897857666016,-5.1983489990234375,89.54668426513672,0.3682215372721354,0.6513333333333333,0.3271428571428571,0.08083860609266492,-3.493548052856447,-1.8676210814209,27.421680450439453,0.0043189154730902775,-0.1082781473795573
2786,0.27061937120225693,0.7171876525878906,84.20714569091797,83.98210144042969,-5.8120880126953125,90.1604232788086,0.36890352037217883,0.645,0.32571428571428573,0.07775650024414063,-3.4276319914550797,-1.9335371428222672,27.421680450439453,0.002500491672092014,-0.12191679212782118
2787,0.27061937120225693,0.7171876525878906,83.42974090576172,82.97966003417969,-6.118961334228516,90.81507873535156,0.3673123677571615,0.6386666666666667,0.3242857142857143,0.07595596313476563,-3.8011576109619156,-1.9005781584472672,27.421680450439453,0.00500089857313368,-0.13260044521755643
2788,0.27061937120225693,0.7171876525878906,83.28652954101562,83.40928649902344,-6.262165069580078,90.81507873535156,0.36867616441514756,0.6333333333333333,0.32142857142857145,0.07449120415581598,-4.37242950732422,-1.3512789183349625,27.421680450439453,-0.0013639662000868055,-0.13419159783257378
2789,0.27061937120225693,0.7371095275878906,83.67523193359375,83.20470428466797,-6.9781951904296875,91.14241027832031,0.36753963894314234,0.6283333333333333,0.3196428571428571,0.07342308892144098,-4.570175784179689,-0.7800070219726578,27.421680450439453,0.005228084988064236,-0.14578450520833333
2790,0.26671312120225693,0.7171876525878906,83.36836242675781,83.26608276367188,-7.264606475830078,92.04255676269531,0.3698127746582031,0.624,0.31535714285714284,0.07208040025499132,-4.866799014160158,-0.3845106535644547,27.421680450439453,0.001136440700954861,-0.1589684804280599
2791,0.27061937120225693,0.7171876525878906,83.49111938476562,83.06149291992188,-6.9781951904296875,91.87889099121094,0.3682215372721354,0.6203333333333333,0.3117857142857143,0.07183625962999132,-5.580889361450197,-0.18676246936035312,27.421680450439453,0.004773627387152778,-0.15396762424045138
2792,0.27061937120225693,0.7171876525878906,83.79798889160156,83.49111938476562,-7.080486297607422,91.77660369873047,0.3670850118001302,0.6166666666666667,0.3075,0.07180574205186632,-5.833567278930666,0.05493000149726868,27.421680450439453,0.003409661187065972,-0.15396766662597655
2793,0.26671312120225693,0.7171876525878906,83.47065734863281,83.06149291992188,-7.100944519042969,91.75614929199219,0.36890352037217883,0.612,0.30464285714285716,0.07113435533311632,-5.866524355957033,0.1538040041923523,27.421680450439453,0.004546271430121528,-0.15396770901150172
2794,0.27061937120225693,0.7171876525878906,83.96165466308594,83.4501953125,-6.937278747558594,91.7152328491211,0.3661757575141059,0.6076666666666667,0.3,0.07208040025499132,-6.042299883911134,0.2856360077857971,27.421680450439453,0.005682881673177083,-0.15169457329644098
2795,0.27061937120225693,0.7371095275878906,84.77996826171875,83.98210144042969,-6.794075012207031,91.59248352050781,0.36776691012912327,0.6026666666666667,0.29714285714285715,0.07278221978081598,-6.218077319213869,0.5932440161705017,27.421680450439453,0.008865186903211806,-0.14873953925238714
2796,0.27061937120225693,0.7371095275878906,84.82088470458984,84.45263671875,-6.67132568359375,91.30607604980469,0.36890352037217883,0.5973333333333334,0.29392857142857143,0.07293480767144098,-6.305964129516603,0.5493000149726868,27.421680450439453,0.004091644287109375,-0.14419335259331598
2797,0.27061937120225693,0.7371095275878906,84.84133911132812,84.47309875488281,-6.691783905029297,91.34698486328125,0.3673123677571615,0.5913333333333334,0.29178571428571426,0.07360619439019098,-6.327936785766603,0.04394400119781494,27.421680450439453,0.004091559516059028,-0.14487520853678384
2798,0.27452562120225693,0.7371095275878906,83.87982177734375,84.06393432617188,-6.016670227050781,90.54912567138672,0.36572113037109377,0.585,0.2885714285714286,0.07491845024956598,-6.4268099241943375,-0.3076082640380875,27.421680450439453,-0.0020456949869791666,-0.12850884331597223
2799,0.27452562120225693,0.7570314025878906,84.18669128417969,83.77752685546875,-6.159877777099609,90.65141296386719,0.3684488932291667,0.5783333333333334,0.28714285714285714,0.07531509399414063,-6.108215945312502,-0.2746511870117203,27.421680450439453,0.004546271430121528,-0.13123656378851997
2800,0.27452562120225693,0.7570314025878906,84.26852416992188,83.87982177734375,-6.507663726806641,91.0810317993164,0.36776691012912327,0.572,0.285,0.07549819946289063,-5.811594622680666,-0.2416922026367203,27.421680450439453,0.0043189154730902775,-0.1398743947347005
2801,0.27452562120225693,0.7570314025878906,84.24806213378906,83.87982177734375,-6.159877777099609,90.83554077148438,0.36867616441514756,0.5653333333333334,0.2832142857142857,0.07491845024956598,-6.009342806884767,-0.3625379973144547,27.421680450439453,0.004091559516059028,-0.13328242831759982
2802,0.27452562120225693,0.7570314025878906,84.08439636230469,83.73661041259766,-5.791633605957031,90.46729278564453,0.3679942660861545,0.5586666666666666,0.2814285714285714,0.07449120415581598,-6.262020724365236,-0.6591612272949234,27.421680450439453,0.003864288330078125,-0.12509918212890625
2803,0.27843187120225693,0.7570314025878906,84.69813537597656,83.63432312011719,-5.382472991943359,89.81263732910156,0.3673123677571615,0.552,0.28,0.07470482720269098,-6.086245196411134,-0.856909411499025,27.421680450439453,0.011820136176215277,-0.1132790035671658
2804,0.27843187120225693,0.7769532775878907,83.32745361328125,83.36836242675781,-5.259723663330078,89.50576782226562,0.3684488932291667,0.5453333333333333,0.2785714285714286,0.07421654595269098,-5.4600435667724625,-0.9118391447753922,31.816179275512695,-0.00045454237196180554,-0.10850546095106336
2805,0.27843187120225693,0.7769532775878907,84.26852416992188,83.24562072753906,-5.566593170166016,89.77172088623047,0.36867616441514756,0.539,0.2775,0.07348412407769098,-4.800882952758791,-0.7470480375976578,33.573978424072266,0.011365593804253473,-0.11487015618218316
2806,0.27843187120225693,0.7968751525878907,84.35034942626953,83.94119262695312,-5.546134948730469,89.89447021484375,0.36685774061414933,0.533,0.2757142857142857,0.07418602837456598,-4.482288973876955,-0.4504267149658219,36.38645935058594,0.00454618665907118,-0.11600672403971354
2807,0.28233812120225693,0.7968751525878907,84.45263671875,84.08439636230469,-5.607509613037109,89.97630310058594,0.3684488932291667,0.5276666666666666,0.27464285714285713,0.07427758110894098,-4.33947052294922,-0.20873512561035312,39.726280212402344,0.004091559516059028,-0.11759791904025607
2808,0.28233812120225693,0.7968751525878907,84.92317199707031,84.49356079101562,-5.607509613037109,89.99675750732422,0.3684488932291667,0.522,0.2735714285714286,0.07436913384331598,-4.273554461547853,-0.02197326953125156,39.814170837402344,0.004773457845052083,-0.11782519022623698
2809,0.27843187120225693,0.7968751525878907,84.94363403320312,84.61630249023438,-5.341556549072266,89.77172088623047,0.3684488932291667,0.5163333333333333,0.2732142857142857,0.07433861626519098,-4.207638400146486,0.05493000149726868,39.814170837402344,0.003637017144097222,-0.11236974928114149
2810,0.27843187120225693,0.7968751525878907,85.02546691894531,84.69813537597656,-5.177890777587891,89.52622985839844,0.3684488932291667,0.5113333333333333,0.27285714285714285,0.07378929985894098,-3.987919467041017,-0.03295769030761875,42.099308013916016,0.003637017144097222,-0.10782356262207031
2811,0.27452562120225693,0.7968751525878907,85.0459213256836,84.67768096923828,-5.300640106201172,89.54668426513672,0.3673123677571615,0.506,0.27214285714285713,0.07357567681206598,-3.548477786132814,-0.12084640795898594,43.68132781982422,0.004091559516059028,-0.10941471523708768
2812,0.27061937120225693,0.7968751525878907,84.82088470458984,84.57539367675781,-5.566593170166016,89.93538665771484,0.36867616441514756,0.5013333333333333,0.27214285714285713,0.07259911431206598,-3.0980535917968766,-0.2307058745117203,45.17546081542969,0.0027276780870225696,-0.11668866475423177
2813,0.26671312120225693,0.7968751525878907,84.71859741210938,84.30943298339844,-5.627967834472656,90.03767395019531,0.3691307915581597,0.49633333333333335,0.27214285714285713,0.07150056627061632,-2.9772058897705094,-0.5053564482421891,45.966468811035156,0.004546271430121528,-0.11850713094075521
2814,0.25890062120225693,0.8367189788818359,84.71859741210938,84.37080383300781,-5.546134948730469,90.0785903930664,0.3673123677571615,0.49233333333333335,0.27214285714285713,0.07107332017686632,-3.0431219511718766,-0.6042314940185562,46.66958999633789,0.0038643731011284723,-0.11805250379774306
2815,0.25890062120225693,0.8367189788818359,84.32989501953125,83.92073059082031,-5.5870513916015625,89.83309936523438,0.3682215372721354,0.488,0.2725,0.07006624009874132,-2.9991785460205094,-0.4394403868408219,47.46059799194336,0.004546271430121528,-0.11577945285373265
2816,0.24718187120225693,0.856640853881836,82.79554748535156,82.30455017089844,-5.996212005615234,90.61050415039062,0.3698127746582031,0.4846666666666667,0.2725,0.06884562174479167,-2.6146685057373062,-0.2966219359130875,47.81216049194336,0.005455525716145834,-0.12896351284450955
2817,0.25108812120225693,0.8367189788818359,84.98455047607422,84.30943298339844,-5.648426055908203,90.91737365722656,0.3661757575141059,0.48133333333333334,0.27214285714285713,0.06896769205729167,-2.6146685057373062,0.6371880173683167,47.81216049194336,0.007501305474175347,-0.1285088857014974
2818,0.24327562120225693,0.8167971038818359,84.98455047607422,84.6572265625,-5.771175384521484,90.2218017578125,0.37208582560221354,0.47933333333333333,0.2714285714285714,0.06664835611979167,-2.6146685057373062,1.6588860750198364,47.81216049194336,0.003636932373046875,-0.1221441904703776
2819,0.23546312120225693,0.7968751525878907,84.77996826171875,84.35034942626953,-5.771175384521484,90.24225616455078,0.3704946729871962,0.477,0.2710714285714286,0.06533618503146701,-2.197201388427736,1.6698720455169678,47.81216049194336,0.004773542616102431,-0.12237146165635851
2820,0.23546312120225693,0.7769532775878907,84.71859741210938,84.37080383300781,-5.730258941650391,90.2218017578125,0.3691307915581597,0.4746666666666667,0.27,0.06496997409396701,-1.6588865690917984,1.6588860750198364,47.81216049194336,0.0038643731011284723,-0.12168956332736545
2821,0.22765062120225693,0.7968751525878907,84.75950622558594,84.37080383300781,-5.689342498779297,90.28317260742188,0.36890352037217883,0.47333333333333333,0.26857142857142857,0.06454272800021701,-1.3183199339599625,1.5160679817199707,47.81216049194336,0.0043189154730902775,-0.12191683451334635
2822,0.22765062120225693,0.7769532775878907,84.69813537597656,84.32989501953125,-5.8120880126953125,90.38545989990234,0.36572113037109377,0.472,0.2671428571428571,0.06509204440646701,-1.1095873289794937,1.3842360973358154,47.81216049194336,0.004091559516059028,-0.12441719902886285
2823,0.22765062120225693,0.7570314025878906,84.61630249023438,84.28897857666016,-6.262165069580078,90.95828247070312,0.36549385918511285,0.4713333333333333,0.26571428571428574,0.06609912448459201,-1.0216986113281266,1.06564199924469,47.81216049194336,0.003636932373046875,-0.13578275044759114
2824,0.22765062120225693,0.7769532775878907,85.65966796875,85.12775421142578,-6.4462890625,91.20378112792969,0.36549385918511285,0.4693333333333333,0.2639285714285714,0.06854044596354167,-1.3512789183349625,0.9667680263519287,47.81216049194336,0.005910152859157986,-0.14055633544921875
2825,0.23155687120225693,0.7769532775878907,85.16867065429688,84.86180114746094,-6.159877777099609,90.93782806396484,0.3652665032280816,0.4683333333333333,0.26285714285714284,0.07034089830186632,-1.8346620970459,0.7580339908599854,47.81216049194336,0.003409661187065972,-0.13441895378960503
2826,0.23546312120225693,0.7570314025878906,85.12775421142578,84.84133911132812,-6.037128448486328,90.71278381347656,0.3673123677571615,0.4676666666666667,0.2617857142857143,0.07058503892686632,-2.0873400145263687,0.7690200209617615,47.81216049194336,0.0031823900010850693,-0.13055458068847656
2827,0.23155687120225693,0.7570314025878906,85.18913269042969,84.82088470458984,-6.098503112792969,90.77416229248047,0.3661757575141059,0.4656666666666667,0.26107142857142857,0.07024934556749132,-2.0983263426513687,0.5932440161705017,47.81216049194336,0.004091644287109375,-0.1319185045030382
2828,0.22765062120225693,0.7570314025878906,85.06637573242188,84.82088470458984,-5.934837341308594,90.69232940673828,0.3695854187011719,0.464,0.26071428571428573,0.06924235026041667,-2.197201388427736,0.13183200359344482,47.81216049194336,0.0027276780870225696,-0.12919074164496527
2829,0.21983812120225693,0.7769532775878907,83.20470428466797,82.57050323486328,-5.832546234130859,90.52867126464844,0.3679942660861545,0.4613333333333333,0.26071428571428573,0.06896769205729167,-2.3949495726318375,-0.3954969816894547,47.81216049194336,0.007046678331163195,-0.12623574998643664
2830,0.22765062120225693,0.7570314025878906,84.92317199707031,83.26608276367188,-5.300640106201172,89.54668426513672,0.3643572489420573,0.45866666666666667,0.26107142857142857,0.06939485337999132,-2.3290335112304703,-0.5932451658935562,47.81216049194336,0.018412102593315972,-0.10941471523708768
2831,0.22765062120225693,0.7570314025878906,84.88226318359375,84.61630249023438,-5.791633605957031,90.34454345703125,0.36685774061414933,0.45666666666666667,0.26107142857142857,0.06893717447916667,-1.7687460356445328,0.010986000299453735,47.81216049194336,0.0029551188151041665,-0.1237353006998698
2832,0.22374437120225693,0.7371095275878906,84.82088470458984,84.63676452636719,-5.996212005615234,90.48774719238281,0.37026740180121526,0.4543333333333333,0.26107142857142857,0.06741129557291667,-1.7467752867431656,0.13183200359344482,47.81216049194336,0.002045779758029514,-0.12759954664442275
2833,0.21983812120225693,0.7570314025878906,84.45263671875,84.16622924804688,-5.955295562744141,90.59004211425781,0.3673123677571615,0.452,0.26071428571428573,0.06735026041666667,-2.0873400145263687,-0.09887375170898594,47.81216049194336,0.003182305230034722,-0.12828152974446613
2834,0.21983812120225693,0.7769532775878907,84.47309875488281,84.12531280517578,-5.996212005615234,90.569580078125,0.3661757575141059,0.44966666666666666,0.26035714285714284,0.06835734049479167,-2.3729769163818375,-0.13183273608398594,47.81216049194336,0.003864288330078125,-0.12850880093044706
2835,0.23155687120225693,0.7570314025878906,84.5140151977539,84.22760009765625,-5.9757537841796875,90.65141296386719,0.3629934522840712,0.44733333333333336,0.26035714285714284,0.07052400377061632,-2.482836382934572,0.29662200808525085,47.81216049194336,0.0031823900010850693,-0.12919074164496527
2836,0.22374437120225693,0.7570314025878906,84.53446960449219,84.16622924804688,-5.771175384521484,90.59004211425781,0.36867616441514756,0.44433333333333336,0.26035714285714284,0.06951692369249132,-2.6146685057373062,1.219446063041687,47.81216049194336,0.004091559516059028,-0.12623574998643664
2837,0.21202562120225693,0.7371095275878906,85.33233642578125,84.86180114746094,-5.382472991943359,89.40347290039062,0.3745863172743056,0.44166666666666665,0.26035714285714284,0.06667887369791667,-2.4169203215332047,1.5600121021270752,47.81216049194336,0.005228169759114583,-0.10873273213704428
2838,0.20811937120225693,0.7171876525878906,85.43462371826172,85.08683776855469,-6.159877777099609,90.569580078125,0.3682215372721354,0.43933333333333335,0.26035714285714284,0.06664835611979167,-1.7687460356445328,1.06564199924469,47.81216049194336,0.003864288330078125,-0.13032730950249566
2839,0.20811937120225693,0.7371095275878906,85.49600219726562,85.1072998046875,-5.914379119873047,90.77416229248047,0.36549385918511285,0.43666666666666665,0.26,0.06786905924479167,-1.8895918303222672,0.5053560137748718,47.987937927246094,0.0043189154730902775,-0.12987268235948352
2840,0.20811937120225693,0.7371095275878906,85.61874389648438,85.35279846191406,-5.689342498779297,90.2218017578125,0.36572113037109377,0.434,0.26,0.06844889322916667,-2.219172137329103,0.24169200658798218,47.987937927246094,0.0029549492730034724,-0.1212349361843533
2841,0.20811937120225693,0.7171876525878906,85.37325286865234,85.23004150390625,-5.484760284423828,90.1604232788086,0.3679942660861545,0.43133333333333335,0.2596428571428571,0.06793009440104167,-2.153256075927736,-0.03295769030761875,47.987937927246094,0.0015912373860677083,-0.11827981736924913
2842,0.20421312120225693,0.7171876525878906,85.27096557617188,84.92317199707031,-5.648426055908203,89.85355377197266,0.3670850118001302,0.42933333333333334,0.26,0.06661783854166667,-1.6808592253417984,-0.5492998533935562,47.987937927246094,0.0038643731011284723,-0.11668866475423177
2843,0.20030687120225693,0.7171876525878906,84.26852416992188,84.43218231201172,-5.5870513916015625,90.1195068359375,0.3670850118001302,0.42733333333333334,0.2596428571428571,0.06478686862521701,-1.2414194517822281,-1.0216986113281266,47.987937927246094,-0.0018184238009982638,-0.11896175808376735
2844,0.19640062120225693,0.7171876525878906,83.38882446289062,83.81844329833984,-5.66888427734375,90.1195068359375,0.3670850118001302,0.4246666666666667,0.2596428571428571,0.06286434597439236,-1.0876146727294937,-1.2084604674072281,47.987937927246094,-0.004773542616102431,-0.11987101236979167
2845,0.18858812120225693,0.7171876525878906,84.41172790527344,83.5934066772461,-5.607509613037109,90.1195068359375,0.3673123677571615,0.423,0.2592857142857143,0.06088070339626736,-1.131558077880861,-1.0766283446044937,47.987937927246094,0.009092458089192708,-0.11918907165527344
2846,0.19249437120225693,0.6773439025878907,83.08195495605469,84.18669128417969,-5.709800720214844,89.68988800048828,0.37072202894422746,0.42233333333333334,0.2592857142857143,0.058378346761067706,-1.0546575957031266,-0.48338379199218906,47.987937927246094,-0.012274848090277778,-0.11555209689670139
2847,0.18077562120225693,0.6972657775878907,84.80043029785156,84.94363403320312,-5.832546234130859,90.1604232788086,0.3682215372721354,0.4206666666666667,0.25857142857142856,0.05688307020399305,-0.801977770874025,-0.20873512561035312,47.987937927246094,-0.001591152615017361,-0.12214410569932725
2848,0.18468187120225693,0.6972657775878907,84.14576721191406,83.73661041259766,-6.9781951904296875,90.569580078125,0.36572113037109377,0.4196666666666667,0.25785714285714284,0.05731031629774305,-0.7690206938476578,-0.3735243254394547,47.987937927246094,0.00454618665907118,-0.1394197252061632
2849,0.18858812120225693,0.6972657775878907,85.12775421142578,84.73905181884766,-6.569034576416016,91.44927978515625,0.36549385918511285,0.41833333333333333,0.2571428571428571,0.05782911512586805,-1.4062086516113297,-0.10986007983398594,47.987937927246094,0.0043189154730902775,-0.14464793735080295
2850,0.18468187120225693,0.7171876525878906,84.90271759033203,84.80043029785156,-6.037128448486328,90.61050415039062,0.3684488932291667,0.41633333333333333,0.25642857142857145,0.058225758870442706,-2.3400179320068375,-0.20873512561035312,47.987937927246094,0.0011365254720052083,-0.1294181399875217
2851,0.19249437120225693,0.6773439025878907,84.98455047607422,84.69813537597656,-6.1394195556640625,90.71278381347656,0.365948486328125,0.4146666666666667,0.2567857142857143,0.058256276448567706,-2.6146685057373062,-0.4504267149658219,47.987937927246094,0.0031823900010850693,-0.13169114854600694
2852,0.19640062120225693,0.6574220275878906,84.5140151977539,84.02302551269531,-6.037128448486328,90.87644958496094,0.36640311347113713,0.41233333333333333,0.2571428571428571,0.05752393934461805,-2.7025572233886734,-0.812964098999025,47.987937927246094,0.005455440945095486,-0.13237308926052518
2853,0.17686937120225693,0.7171876525878906,82.12042999267578,82.81600189208984,-6.078044891357422,90.54912567138672,0.3695854187011719,0.409,0.25785714285714284,0.054746924506293405,-3.0541082792968766,-0.7690206938476578,47.987937927246094,-0.00772857666015625,-0.12919078403049045
2854,0.17686937120225693,0.6972657775878907,84.06393432617188,83.22515869140625,-6.180332183837891,90.75370788574219,0.3682215372721354,0.405,0.25892857142857145,0.053587256537543405,-3.273829119750978,-0.14281906420898594,47.987937927246094,0.009319729275173612,-0.13260044521755643
2855,0.18468187120225693,0.6972657775878907,85.61874389648438,84.16622924804688,-5.934837341308594,90.59004211425781,0.36458460489908856,0.40166666666666667,0.2592857142857143,0.05520460340711805,-3.4605909758300797,0.3185940086841583,47.987937927246094,0.016139051649305555,-0.12805421617296006
2856,0.18077562120225693,0.6773439025878907,83.73661041259766,84.98455047607422,-6.057586669921875,90.48774719238281,0.3679942660861545,0.398,0.26071428571428573,0.05535719129774305,-3.4166475706787125,0.8569080233573914,47.987937927246094,-0.013866000705295138,-0.12828148735894096
2857,0.17296312120225693,0.6773439025878907,84.45263671875,83.87982177734375,-5.791633605957031,90.671875,0.37026740180121526,0.394,0.26142857142857145,0.053800879584418405,-3.3507315092773453,1.1974740028381348,47.987937927246094,0.006364610460069444,-0.12737231784396702
2858,0.16905687120225693,0.6574220275878906,84.5140151977539,84.26852416992188,-5.955295562744141,90.40591430664062,0.37004004584418404,0.38966666666666666,0.26285714285714284,0.052854834662543405,-3.229883807250978,1.4281799793243408,47.987937927246094,0.0027276780870225696,-0.1262356652153863
2859,0.15733812120225693,0.6574220275878906,83.90027618408203,83.83889770507812,-5.9757537841796875,90.54912567138672,0.3691307915581597,0.386,0.26321428571428573,0.052213965521918405,-3.185940402099611,1.4721240997314453,47.987937927246094,0.0006819831000434028,-0.12805421617296006
2860,0.16124437120225693,0.6574220275878906,85.98699188232422,84.75950622558594,-6.057586669921875,90.38545989990234,0.36685774061414933,0.38266666666666665,0.2642857142857143,0.053160010443793405,-3.0650946074218766,1.5600121021270752,47.987937927246094,0.013638729519314236,-0.12714496188693578
2861,0.15733812120225693,0.6574220275878906,86.31431579589844,83.20470428466797,-5.8120880126953125,90.50820922851562,0.3691307915581597,0.37866666666666665,0.2646428571428571,0.053892432318793405,-3.0101648741455094,1.1974740028381348,47.987937927246094,0.034551239013671874,-0.12578108045789932
2862,0.15343187120225693,0.6375001525878906,86.37569427490234,86.662109375,-5.996212005615234,90.32408142089844,0.36640311347113713,0.37466666666666665,0.26535714285714285,0.053556738959418405,-2.834389346191408,0.7031040191650391,47.987937927246094,-0.0031823900010850693,-0.12578103807237412
2863,0.14171312120225693,0.6574220275878906,83.5115737915039,85.35279846191406,-6.241706848144531,90.569580078125,0.3684488932291667,0.37166666666666665,0.26571428571428574,0.05193939208984375,-2.6036821776123062,-0.3735243254394547,47.987937927246094,-0.02045805189344618,-0.1312365214029948
2864,0.14171312120225693,0.6375001525878906,82.91828918457031,82.85691833496094,-5.9757537841796875,90.77416229248047,0.37140392727322047,0.36866666666666664,0.26607142857142857,0.05032196044921875,-2.6146685057373062,-1.131558077880861,47.987937927246094,0.0006818983289930556,-0.13055462307400173
2865,0.14561937120225693,0.6375001525878906,85.90515899658203,84.57539367675781,-6.405372619628906,90.85599517822266,0.36867616441514756,0.366,0.2667857142857143,0.04998626708984375,-2.6366411619873062,-0.9008528166503922,47.987937927246094,0.014775170220269097,-0.13623741997612848
2866,0.14171312120225693,0.6375001525878906,85.70057678222656,85.63920593261719,-5.873462677001953,90.97874450683594,0.36663038465711806,0.3616666666666667,0.2671428571428571,0.04937591552734375,-2.834389346191408,-0.812964098999025,47.987937927246094,0.0006818983289930556,-0.13169119093153211
2867,0.13780687120225693,0.6375001525878906,85.33233642578125,85.12775421142578,-6.323539733886719,90.69232940673828,0.3698127746582031,0.35933333333333334,0.2671428571428571,0.0465378655327691,-2.9772058897705094,-1.6808592253417984,47.987937927246094,0.002273135715060764,-0.13350965711805557
2868,0.13780687120225693,0.6175782775878906,83.73661041259766,83.40928649902344,-6.118961334228516,90.91737365722656,0.36412997775607636,0.356,0.26821428571428574,0.04513414171006944,-2.878332751342775,-2.7684732847900406,47.987937927246094,0.003636932373046875,-0.133737055460612
2869,0.13390062120225693,0.6175782775878906,84.71859741210938,84.30943298339844,-5.934837341308594,90.65141296386719,0.36776691012912327,0.35333333333333333,0.26857142857142857,0.04116694132486979,-3.0760809355468766,-2.526779788085939,47.987937927246094,0.004546271430121528,-0.12873611450195313
2870,0.12218187120225694,0.6175782775878906,84.53446960449219,84.30943298339844,-5.934837341308594,90.59004211425781,0.36935814751519097,0.349,0.26964285714285713,0.03689464992947049,-2.9772058897705094,-2.878332751342775,47.987937927246094,0.0025004069010416668,-0.12805421617296006
2871,0.11827562120225694,0.5976564025878907,83.49111938476562,85.37325286865234,-6.2007904052734375,90.85599517822266,0.36685774061414933,0.346,0.27,0.03289697435167101,-2.6476274901123062,-3.0760809355468766,47.987937927246094,-0.020912594265407987,-0.1339642842610677
2872,0.10655687120225694,0.5777345275878907,85.5164566040039,83.28652954101562,-5.7507171630859375,90.671875,0.37026740180121526,0.343,0.27071428571428574,0.027403937445746526,-2.6586119108886734,-3.493548052856447,47.987937927246094,0.024776967366536458,-0.12691769070095485
2873,0.10655687120225694,0.5578126525878906,84.90271759033203,84.82088470458984,-5.8939208984375,90.73324584960938,0.3636753506130642,0.3396666666666667,0.2710714285714286,0.02331470913357205,-2.471850054809572,-3.3946749144287125,47.987937927246094,0.0009092542860243056,-0.12919074164496527
2874,0.09093187120225694,0.5378907394409179,85.23004150390625,84.41172790527344,-5.8939208984375,90.50820922851562,0.3704946729871962,0.33666666666666667,0.2717857142857143,0.017424986097547744,-2.4169203215332047,-3.229883807250978,47.987937927246094,0.00909237331814236,-0.1266903347439236
2875,0.08702562120225694,0.5378907394409179,84.80043029785156,84.43218231201172,-5.873462677001953,90.6309585571289,0.3684488932291667,0.334,0.27214285714285713,0.013396792941623263,-2.3619905882568375,-3.7901712828369156,47.987937927246094,0.004091644287109375,-0.127826902601454
2876,0.07921312120225694,0.5777345275878907,82.9592056274414,82.32501220703125,-5.8939208984375,90.65141296386719,0.3679942660861545,0.32966666666666666,0.2725,0.010009468926323786,-2.3070608549804703,-4.33947052294922,47.987937927246094,0.007046593560112847,-0.12828148735894096
2877,0.08311937120225694,0.5578126525878906,83.83889770507812,83.20470428466797,-6.180332183837891,90.569580078125,0.36890352037217883,0.3263333333333333,0.2732142857142857,0.0065000322129991316,-2.3070608549804703,-3.3067861967773453,47.987937927246094,0.007046593560112847,-0.13055458068847656
2878,0.08702562120225694,0.5179688644409179,83.40928649902344,82.69325256347656,-6.118961334228516,90.48774719238281,0.3673123677571615,0.324,0.2732142857142857,0.0037230173746744793,-2.241144793579103,-3.1529833250732437,47.987937927246094,0.0079559326171875,-0.1289634280734592
2879,0.07530687120225694,0.5578126525878906,81.56806182861328,81.85447692871094,-6.303081512451172,90.89691162109375,0.3709493001302083,0.32133333333333336,0.2735714285714286,-9.1552734375e-05,-2.1312853270263687,-3.273829119750978,47.987937927246094,-0.0031823900010850693,-0.13555547926161024
2880,0.07921312120225694,0.5578126525878906,82.91828918457031,82.30455017089844,-6.159877777099609,90.83554077148438,0.36663038465711806,0.319,0.2739285714285714,-0.0022582583957248266,-2.2741018706054703,-2.482836382934572,47.987937927246094,0.006819322374131944,-0.13328242831759982
2881,0.07921312120225694,0.5578126525878906,82.97966003417969,80.4837875366211,-6.4462890625,90.87644958496094,0.36640311347113713,0.31566666666666665,0.2739285714285714,-0.004608027140299479,-2.3070608549804703,-1.175503390380861,47.987937927246094,0.02773191663953993,-0.13691931830512152
2882,0.059681871202256945,0.5378907394409179,82.91828918457031,82.38638305664062,-6.384914398193359,90.97874450683594,0.37481358846028645,0.313,0.2742857142857143,-0.008575185139973959,-2.4169203215332047,0.32958000898361206,47.987937927246094,0.0059100680881076385,-0.13737398783365887
2883,0.06358812120225694,0.5179688644409179,83.94119262695312,83.40928649902344,-6.282623291015625,90.95828247070312,0.3670850118001302,0.31033333333333335,0.2742857142857143,-0.008300526936848959,-2.6805845671386734,1.1864880323410034,47.987937927246094,0.0059100680881076385,-0.1360100640190972
2884,0.055775621202256945,0.5378907394409179,83.08195495605469,83.49111938476562,-6.343997955322266,90.97874450683594,0.3691307915581597,0.30733333333333335,0.27464285714285713,-0.008178456624348959,-2.548752444335939,1.768746018409729,47.987937927246094,-0.004546271430121528,-0.1369193606906467
2885,0.06749437120225694,0.49804698944091796,84.35034942626953,83.38882446289062,-5.996212005615234,90.87644958496094,0.3661757575141059,0.305,0.275,-0.005828687879774305,-2.7574869566650406,2.13128399848938,47.987937927246094,0.01068361070421007,-0.131918462117513
2886,0.07140062120225694,0.478125114440918,83.49111938476562,83.18424987792969,-6.1394195556640625,90.61050415039062,0.36867616441514756,0.30133333333333334,0.2757142857142857,-0.0036009894476996527,-2.6256548338623062,2.3070600032806396,47.987937927246094,0.003409661187065972,-0.13055470784505208
2887,0.07140062120225694,0.478125114440918,83.5115737915039,82.9592056274414,-5.955295562744141,90.65141296386719,0.365948486328125,0.298,0.2760714285714286,-0.0013732486300998264,-2.526779788085939,2.296074151992798,47.987937927246094,0.006137424045138889,-0.1289634280734592
2888,0.07140062120225694,0.478125114440918,84.73905181884766,84.35034942626953,-6.384914398193359,90.73324584960938,0.36685774061414933,0.29433333333333334,0.2775,0.0003966861300998264,-2.4279066496582047,3.163968086242676,47.987937927246094,0.0043189154730902775,-0.13464622497558593
2889,0.055775621202256945,0.45820323944091795,84.82088470458984,84.61630249023438,-5.8120880126953125,90.03767395019531,0.3732224358452691,0.291,0.2782142857142857,0.00030517578125,-2.7025572233886734,3.8011560440063477,47.987937927246094,0.002273135715060764,-0.12055291069878472
2890,0.036244371202256945,0.478125114440918,85.23004150390625,84.69813537597656,-5.934837341308594,90.26271057128906,0.36935814751519097,0.28733333333333333,0.2789285714285714,0.0005797915988498264,-2.7245279722900406,3.0321359634399414,47.987937927246094,0.0059100680881076385,-0.12441719902886285
2891,0.036244371202256945,0.438281364440918,83.65477752685547,84.75950622558594,-5.8939208984375,90.40591430664062,0.36753963894314234,0.2846666666666667,0.27964285714285714,0.0021056281195746527,-2.515795367309572,1.7028300762176514,47.987937927246094,-0.01227476331922743,-0.12555372450086805
2892,0.040150621202256945,0.478125114440918,83.16378784179688,82.77508544921875,-5.8939208984375,90.6309585571289,0.36776691012912327,0.2806666666666667,0.2807142857142857,0.004058710734049479,-2.548752444335939,1.032684087753296,47.987937927246094,0.0043189154730902775,-0.12805421617296006
2893,0.059681871202256945,0.41835948944091794,83.79798889160156,83.06149291992188,-5.934837341308594,90.42637634277344,0.36412997775607636,0.279,0.2810714285714286,0.0074155595567491316,-2.3290335112304703,1.4281799793243408,47.987937927246094,0.00818328857421875,-0.12623570760091146
2894,0.055775621202256945,0.41835948944091794,87.0098876953125,86.39614868164062,-6.794075012207031,90.71278381347656,0.36867616441514756,0.276,0.2817857142857143,0.008361562093098959,-1.8126913481445328,2.3180460929870605,47.987937927246094,0.006819322374131944,-0.13896509806315105
2895,0.036244371202256945,0.41835948944091794,84.41172790527344,83.83889770507812,-6.2007904052734375,90.83554077148438,0.3764047410753038,0.272,0.2817857142857143,0.0069883134629991316,-2.3510042601318375,1.9555079936981201,47.987937927246094,0.006364780002170139,-0.1337370130750868
2896,0.044056871202256945,0.41835948944091794,84.77996826171875,82.81600189208984,-5.730258941650391,90.20133972167969,0.36685774061414933,0.26966666666666667,0.28285714285714286,0.009429634941948786,-2.922276156494142,1.2084600925445557,47.987937927246094,0.02182184855143229,-0.1214622073703342
2897,0.055775621202256945,0.41835948944091794,87.72592163085938,86.58027648925781,-6.180332183837891,90.73324584960938,0.36412997775607636,0.2663333333333333,0.2835714285714286,0.012298202514648438,-2.7025572233886734,1.9555079936981201,47.987937927246094,0.012729390462239584,-0.13237308926052518
2898,0.020619371202256945,0.438281364440918,84.37080383300781,83.67523193359375,-5.8939208984375,90.05813598632812,0.37595011393229166,0.2633333333333333,0.2842857142857143,0.008636220296223959,-2.856360095092775,1.8566340208053589,47.987937927246094,0.00772857666015625,-0.12168952094184028
2899,0.012806871202256945,0.478125114440918,84.84133911132812,84.28897857666016,-5.832546234130859,90.36500549316406,0.37140392727322047,0.25933333333333336,0.285,0.008453114827473959,-2.7794596129150406,0.9008520245552063,47.987937927246094,0.006137339274088541,-0.12441724141438802
2900,0.040150621202256945,0.438281364440918,86.13019561767578,84.32989501953125,-6.732700347900391,91.42881774902344,0.360038333468967,0.25666666666666665,0.28535714285714286,0.013549380832248263,-2.3729769163818375,0.1867620050907135,47.987937927246094,0.02000333997938368,-0.1462390899658203
2901,0.040150621202256945,0.438281364440918,83.47065734863281,83.16378784179688,-6.466747283935547,91.46973419189453,0.3698127746582031,0.25433333333333336,0.28535714285714286,0.013457828097873263,-2.6805845671386734,-0.812964098999025,47.987937927246094,0.003409661187065972,-0.14373868306477863
2902,0.051869371202256945,0.438281364440918,83.79798889160156,82.93875122070312,-6.569034576416016,91.1628646850586,0.36344807942708335,0.251,0.2860714285714286,0.014495425754123263,-3.0980535917968766,-0.9008528166503922,47.987937927246094,0.009547085232204862,-0.1414655473497179
2903,0.036244371202256945,0.41835948944091794,83.34790802001953,81.34302520751953,-6.016670227050781,90.59004211425781,0.3711766560872396,0.24833333333333332,0.2864285714285714,0.01098598904079861,-3.3507315092773453,-0.3515516691894547,47.987937927246094,0.022276475694444443,-0.12896347045898438
2904,0.024525621202256945,0.39843757629394533,85.90515899658203,83.47065734863281,-6.2007904052734375,90.71278381347656,0.37140392727322047,0.245,0.2882142857142857,0.009246529473198786,-3.6143938475341812,1.3622640371322632,47.987937927246094,0.027050018310546875,-0.132373046875
2905,0.012806871202256945,0.41835948944091794,83.98210144042969,84.69813537597656,-5.9757537841796875,90.65141296386719,0.3716311984592014,0.241,0.2892857142857143,0.008453114827473959,-3.493548052856447,1.450152039527893,47.987937927246094,-0.0079559326171875,-0.12919074164496527
2906,0.004994371202256945,0.39843757629394533,84.5140151977539,83.98210144042969,-6.303081512451172,90.75370788574219,0.3682215372721354,0.236,0.2910714285714286,0.008514149983723959,-3.0870672636718766,1.7797319889068604,47.987937927246094,0.005910152859157986,-0.13396432664659289
2907,0.004994371202256945,0.41835948944091794,85.78240966796875,85.14820861816406,-6.343997955322266,90.91737365722656,0.3695854187011719,0.233,0.2914285714285714,0.01037563747829861,-2.900305407592775,1.538040041923523,47.987937927246094,0.007046678331163195,-0.13623746236165366
2908,0.024525621202256945,0.39843757629394533,85.78240966796875,85.25050354003906,-6.323539733886719,90.99920654296875,0.3670850118001302,0.23,0.29214285714285715,0.014068179660373263,-2.9991785460205094,1.0986000299453735,47.987937927246094,0.0059100680881076385,-0.13691940307617187
2909,0.012806871202256945,0.3785157012939453,85.63920593261719,85.27096557617188,-6.425830841064453,90.93782806396484,0.36867616441514756,0.22666666666666666,0.2925,0.012786483764648438,-3.1200243406982437,0.790992021560669,47.987937927246094,0.004091559516059028,-0.13737398783365887
2910,-0.014536878797743055,0.438281364440918,83.75706481933594,83.20470428466797,-6.241706848144531,90.79461669921875,0.37572284274631074,0.222,0.2932142857142857,0.008941353691948786,-3.196926730224611,-0.6152159147949234,47.987937927246094,0.006137339274088541,-0.13373692830403647
2911,0.0010881212022569445,0.33867195129394534,86.25294494628906,84.71859741210938,-6.405372619628906,91.0810317993164,0.3616295708550347,0.21966666666666668,0.29392857142857143,0.01107754177517361,-2.834389346191408,-0.6921183043212906,47.987937927246094,0.017048305935329862,-0.13873782687717015
2912,-0.006724378797743055,0.3585938262939453,85.76194763183594,85.53691101074219,-6.3644561767578125,90.97874450683594,0.36935814751519097,0.21533333333333332,0.29464285714285715,0.009338082207573786,-2.812416689941408,-0.9667688780517594,47.987937927246094,0.0025004069010416668,-0.13714667426215277
2913,-0.014536878797743055,0.3585938262939453,82.550048828125,82.16134643554688,-6.057586669921875,90.59004211425781,0.3732224358452691,0.21166666666666667,0.2953571428571429,0.0064695146348741316,-3.3836885863037125,-2.3070608549804703,47.987937927246094,0.0043189154730902775,-0.12941809760199652
2914,0.020619371202256945,0.3785157012939453,83.5934066772461,81.79310607910156,-6.098503112792969,90.77416229248047,0.36026568942599824,0.20833333333333334,0.2960714285714286,0.009551705254448786,-3.284815447875978,-2.7025572233886734,47.987937927246094,0.02000333997938368,-0.1319185045030382
2915,0.016713121202256945,0.39843757629394533,84.82088470458984,84.61630249023438,-6.528118133544922,90.77416229248047,0.36867616441514756,0.20366666666666666,0.29678571428571426,0.0070188310411241316,-3.2957998686523453,-0.801977770874025,47.987937927246094,0.002273135715060764,-0.13669200473361545
2916,-0.0028181287977430557,0.39843757629394533,86.21202850341797,86.0688247680664,-6.405372619628906,90.93782806396484,0.37004004584418404,0.20033333333333334,0.29714285714285715,0.0035704294840494793,-3.251856463500978,-0.19774879748535312,47.987937927246094,0.001591152615017361,-0.13714667426215277
2917,-0.026255628797743055,0.3785157012939453,85.43462371826172,85.65966796875,-6.5894927978515625,91.18331909179688,0.3704946729871962,0.19666666666666666,0.2978571428571429,0.0004272037082248264,-3.174954073974611,-0.5822588377685562,47.987937927246094,-0.002500491672092014,-0.14192013210720486
2918,-0.041880628797743055,0.33867195129394534,82.79554748535156,82.69325256347656,-6.1394195556640625,90.89691162109375,0.37208582560221354,0.19366666666666665,0.2985714285714286,-0.0021361880832248266,-3.504534380981447,-2.0543829375000016,47.987937927246094,0.0011366102430555556,-0.1337370130750868
2919,-0.018443128797743055,0.3785157012939453,82.28408813476562,82.01814270019531,-6.384914398193359,91.1628646850586,0.36026568942599824,0.18933333333333333,0.29892857142857143,-0.0012816958957248264,-3.526507037231447,-2.6366411619873062,47.987937927246094,0.0029549492730034724,-0.13941976759168836
2920,-0.026255628797743055,0.3187500762939453,83.0001220703125,82.26363372802734,-6.528118133544922,91.26515197753906,0.36867616441514756,0.18633333333333332,0.3003571428571429,-0.004119745890299479,-3.4825636320800797,-2.3510042601318375,47.987937927246094,0.008183203803168403,-0.14214744567871093
2921,-0.030161878797743055,0.3585938262939453,84.08439636230469,83.61386108398438,-6.343997955322266,90.95828247070312,0.3709493001302083,0.182,0.30107142857142855,-0.006713697645399305,-3.7572122984619156,-1.4281813078613297,47.987937927246094,0.005228169759114583,-0.13669200473361545
2922,-0.061411878797743055,0.29882820129394533,82.01814270019531,85.29141998291016,-6.405372619628906,90.93782806396484,0.3698127746582031,0.17766666666666667,0.30214285714285716,-0.010741890801323786,-3.88904442126465,0.3405660092830658,47.987937927246094,-0.03636974758572049,-0.13714667426215277
2923,-0.07313062879774306,0.29882820129394533,83.79798889160156,83.32745361328125,-5.996212005615234,90.85599517822266,0.37072202894422746,0.17433333333333334,0.3032142857142857,-0.01138271755642361,-4.207638400146486,-0.3405672484130875,47.987937927246094,0.005228169759114583,-0.13169119093153211
2924,-0.049693128797743055,0.29882820129394533,81.42485809326172,80.46333312988281,-5.9757537841796875,90.40591430664062,0.3616295708550347,0.16966666666666666,0.3053571428571429,-0.009307607014973959,-3.812142031738283,-0.845923083374025,47.987937927246094,0.01068361070421007,-0.12646297878689236
2925,-0.041880628797743055,0.33867195129394534,83.1024169921875,82.20226287841797,-6.343997955322266,90.61050415039062,0.37208582560221354,0.165,0.30642857142857144,-0.009673775566948786,-3.3397451811523453,0.5053560137748718,47.987937927246094,0.010001712375217013,-0.13282780117458767
2926,-0.022349378797743055,0.3187500762939453,85.92561340332031,85.1072998046875,-6.794075012207031,91.46973419189453,0.36390262179904515,0.16066666666666668,0.3075,-0.005981275770399305,-2.9881922178955094,1.2963480949401855,47.987937927246094,0.00909237331814236,-0.1473756578233507
2927,-0.041880628797743055,0.25898443222045897,83.47065734863281,79.33814239501953,-7.060028076171875,91.10148620605469,0.37572284274631074,0.15766666666666668,0.3078571428571429,-0.0073545244004991316,-3.6693254881591812,0.5273280143737793,47.81216049194336,0.04591683281792535,-0.14623904758029513
2928,-0.018443128797743055,0.2789063262939453,84.84133911132812,84.71859741210938,-6.282623291015625,91.14241027832031,0.3609475877549913,0.15433333333333332,0.30857142857142855,-0.004363886515299479,-4.097778933593752,0.8239500522613525,47.81216049194336,0.0013637966579861111,-0.13805592854817708
2929,-0.030161878797743055,0.25898443222045897,83.22515869140625,85.29141998291016,-6.180332183837891,91.1628646850586,0.36867616441514756,0.151,0.31,-0.004424921671549479,-4.130736010620119,1.3842360973358154,47.987937927246094,-0.022958458794487848,-0.1371466318766276
2930,-0.030161878797743055,0.3187500762939453,84.18669128417969,82.63188171386719,-6.814533233642578,90.97874450683594,0.3718585544162326,0.147,0.31107142857142855,-0.004546991984049479,-3.867073672363283,0.6811320185661316,47.987937927246094,0.01727566189236111,-0.14214753044976128
2931,-0.022349378797743055,0.29882820129394533,82.24317932128906,83.02058410644531,-6.67132568359375,91.26515197753906,0.3711766560872396,0.143,0.3117857142857143,-0.0031432257758246527,-3.548477786132814,0.29662200808525085,47.987937927246094,-0.008637830946180555,-0.14373864067925346
2932,0.0010881212022569445,0.29882820129394533,83.22515869140625,82.12042999267578,-6.569034576416016,91.42881774902344,0.36276609632703993,0.139,0.31285714285714283,-0.00091552734375,-3.845101016113283,0.29662200808525085,47.987937927246094,0.01227476331922743,-0.1444205813937717
2933,-0.010630628797743055,0.29882820129394533,81.15890502929688,84.61630249023438,-6.773616790771484,91.30607604980469,0.37140392727322047,0.13633333333333333,0.31357142857142856,-0.0014648013644748264,-4.35045685107422,1.0107120275497437,47.987937927246094,-0.03841552734375,-0.14532992045084636
2934,-0.014536878797743055,0.29882820129394533,82.75462341308594,82.12042999267578,-6.855449676513672,91.59248352050781,0.3711766560872396,0.13233333333333333,0.3142857142857143,-0.0015258365207248264,-4.37242950732422,0.2856360077857971,47.987937927246094,0.007046593560112847,-0.14942147996690539
2935,-0.0028181287977430557,0.29882820129394533,83.36836242675781,83.08195495605469,-6.998653411865234,91.69477844238281,0.36572113037109377,0.12866666666666668,0.31535714285714284,-0.00030517578125,-4.559191363403322,0.7580339908599854,47.987937927246094,0.003182305230034722,-0.1521492428249783
2936,0.024525621202256945,0.33867195129394534,85.29141998291016,85.57783508300781,-6.221248626708984,91.67431640625,0.3636753506130642,0.126,0.31535714285714284,0.0037840525309244793,-4.888771670410158,0.8788800239562988,47.987937927246094,-0.0031823900010850693,-0.1432840559217665
2937,0.047963121202256945,0.3187500762939453,85.557373046875,84.82088470458984,-6.5894927978515625,91.18331909179688,0.36344807942708335,0.12133333333333333,0.3167857142857143,0.0070798661973741316,-4.295527117797853,1.1315580606460571,47.81216049194336,0.008183203803168403,-0.14192013210720486
2938,0.0010881212022569445,0.29882820129394533,86.68256378173828,86.29386138916016,-7.3668975830078125,91.77660369873047,0.37595011393229166,0.11866666666666667,0.3175,0.0028380499945746527,-3.6473528319091812,1.8456480503082275,47.987937927246094,0.0043189154730902775,-0.15715001424153646
2939,-0.041880628797743055,0.33867195129394534,85.35279846191406,85.65966796875,-7.694225311279297,92.32897186279297,0.37026740180121526,0.11466666666666667,0.3171428571428571,-0.00067138671875,-4.207638400146486,0.7360620498657227,44.38444900512695,-0.003409661187065972,-0.16692441304524738
2940,-0.06922437879774306,0.3187500762939453,84.16622924804688,85.63920593261719,-6.507663726806641,91.18331909179688,0.3729950798882378,0.11166666666666666,0.31535714285714284,-0.0035399542914496527,-5.383141177246095,-0.2856375151367203,43.85710906982422,-0.016366407606336807,-0.14101092020670572
2941,-0.037974378797743055,0.29882820129394533,85.25050354003906,85.63920593261719,-6.67132568359375,91.38790130615234,0.36390262179904515,0.108,0.31464285714285717,-0.00067138671875,-5.295252459594728,-1.8895918303222672,43.241878509521484,-0.0043189154730902775,-0.14510252210828994
2942,0.0010881212022569445,0.3187500762939453,82.87738037109375,82.52958679199219,-6.487205505371094,91.55156707763672,0.362538825141059,0.10266666666666667,0.31357142857142856,0.0015868716769748264,-5.240322726318361,-2.845373766967775,43.153987884521484,0.0038643731011284723,-0.14487525092230902
2943,0.008900621202256945,0.3585938262939453,84.61630249023438,84.22760009765625,-6.548576354980469,91.24469757080078,0.3652665032280816,0.09833333333333333,0.31285714285714283,0.0008239322238498264,-5.383141177246095,-2.2850881987304703,43.153987884521484,0.0043189154730902775,-0.1421474880642361
2944,-0.010630628797743055,0.39843757629394533,83.79798889160156,83.32745361328125,-6.548576354980469,91.0196533203125,0.37390433417426217,0.094,0.31142857142857144,-0.004241816202799479,-5.51497330004883,-2.4279066496582047,43.153987884521484,0.005228169759114583,-0.1396469963921441
2945,0.004994371202256945,0.3585938262939453,81.36347961425781,80.83157348632812,-6.732700347900391,91.572021484375,0.36390262179904515,0.089,0.3107142857142857,-0.004089228312174479,-4.844826357910158,-3.537493365356447,43.241878509521484,0.0059100680881076385,-0.14783024258083768
2946,0.036244371202256945,0.3585938262939453,80.36103820800781,81.79310607910156,-6.4462890625,91.53111267089844,0.36412997775607636,0.08566666666666667,0.30964285714285716,-0.0027770148383246527,-4.822855609008791,-2.1202989989013687,43.153987884521484,-0.015911865234375,-0.14419335259331598
2947,0.016713121202256945,0.3187500762939453,83.87982177734375,81.30210876464844,-5.627967834472656,90.32408142089844,0.3750409444173177,0.08066666666666666,0.30892857142857144,-0.0068357255723741316,-5.163420336791994,0.8569080233573914,43.153987884521484,0.028641255696614583,-0.12168943617078994
2948,-0.030161878797743055,0.3187500762939453,85.31187438964844,86.92805480957031,-5.055145263671875,88.99431610107422,0.37617746988932294,0.07666666666666666,0.3082142857142857,-0.01135219997829861,-4.559191363403322,2.658612012863159,43.153987884521484,-0.017957560221354165,-0.10054957071940104
2949,-0.030161878797743055,0.3187500762939453,83.38882446289062,83.02058410644531,-4.789188385009766,88.48286437988281,0.3670850118001302,0.07233333333333333,0.3078571428571429,-0.009307607014973959,-2.922276156494142,1.7577600479125977,43.153987884521484,0.004091559516059028,-0.09191169738769531
2950,-0.0028181287977430557,0.3585938262939453,84.06393432617188,83.47065734863281,-5.44384765625,90.40591430664062,0.36572113037109377,0.07,0.3057142857142857,-0.004211298624674479,-1.2524038725585953,1.9005780220031738,43.153987884521484,0.006591966417100695,-0.12055291069878472
2951,-0.014536878797743055,0.33867195129394534,83.5934066772461,83.47065734863281,-5.075603485107422,89.85355377197266,0.3732224358452691,0.068,0.30357142857142855,-0.004089228312174479,-1.0766283446044937,2.999178171157837,43.153987884521484,0.0013638814290364584,-0.11032396952311198
2952,-0.026255628797743055,0.3187500762939453,86.13019561767578,82.87738037109375,-7.1418609619140625,92.04255676269531,0.3750409444173177,0.06633333333333333,0.29928571428571427,-0.0031432257758246527,-0.9667688780517594,3.0321359634399414,43.153987884521484,0.036142391628689235,-0.1576046413845486
2953,-0.0028181287977430557,0.3187500762939453,82.20226287841797,85.20958709716797,-3.8481216430664062,89.99675750732422,0.36663038465711806,0.06533333333333333,0.29642857142857143,0.0020445929633246527,-2.3400179320068375,2.3290319442749023,43.153987884521484,-0.03341471354166667,-0.09827643500434027
2954,0.020619371202256945,0.3187500762939453,83.34790802001953,86.04837036132812,-6.159877777099609,90.89691162109375,0.3623114691840278,0.06566666666666666,0.29392857142857143,0.0066221025254991316,-1.9445234709472672,1.768746018409729,43.153987884521484,-0.030005137125651043,-0.13396432664659289
2955,0.016713121202256945,0.29882820129394533,85.455078125,85.23004150390625,-6.466747283935547,91.42881774902344,0.36572113037109377,0.06366666666666666,0.29178571428571426,0.0075986226399739586,-1.6369139128417984,1.9005780220031738,43.68132781982422,0.0025004069010416668,-0.1432840559217665
2956,-0.014536878797743055,0.29882820129394533,88.42149353027344,88.33966064453125,-5.873462677001953,90.46729278564453,0.37390433417426217,0.062,0.28964285714285715,0.005340406629774305,-2.526779788085939,2.2191720008850098,43.85710906982422,0.0009092542860243056,-0.1260083940294054
2957,-0.037974378797743055,0.29882820129394533,82.18180847167969,83.92073059082031,-5.034687042236328,89.50576782226562,0.37208582560221354,0.059666666666666666,0.2889285714285714,0.004211298624674479,-3.262842791625978,0.4394400119781494,43.85710906982422,-0.01932135687934028,-0.1060050540500217
2958,-0.030161878797743055,0.3187500762939453,83.0410385131836,87.29630279541016,-6.078044891357422,90.48774719238281,0.3711766560872396,0.05566666666666667,0.2885714285714286,0.005218336317274305,-3.1529833250732437,-0.6371885710449234,44.56023025512695,-0.04728071424696181,-0.12850880093044706
2959,0.0010881212022569445,0.33867195129394534,86.68256378173828,85.70057678222656,-5.1983489990234375,89.6080551147461,0.36458460489908856,0.052333333333333336,0.2882142857142857,0.0076901753743489586,-3.3397451811523453,-1.9555078917236344,45.43912887573242,0.01091096666124132,-0.10896004570855035
2960,0.004994371202256945,0.3585938262939453,86.662109375,86.39614868164062,-5.996212005615234,90.40591430664062,0.36776691012912327,0.04833333333333333,0.2892857142857143,0.0061033036973741316,-2.845373766967775,-2.4169203215332047,45.966468811035156,0.0029551188151041665,-0.12669029235839843
2961,0.0010881212022569445,0.33867195129394534,81.93630981445312,83.20470428466797,-5.648426055908203,89.66943359375,0.36640311347113713,0.04466666666666667,0.2892857142857143,0.0031737433539496527,-2.7574869566650406,-3.537493365356447,46.66958999633789,-0.014093271891276042,-0.11464288499620226
2962,-0.0028181287977430557,0.3187500762939453,81.11798858642578,81.547607421875,-5.791633605957031,91.20378112792969,0.3673123677571615,0.041,0.29035714285714287,-0.00054931640625,-2.537766116210939,-2.7574869566650406,46.84537124633789,-0.004773542616102431,-0.13328238593207464
2963,-0.014536878797743055,0.3187500762939453,84.84133911132812,80.11553955078125,-5.505218505859375,89.58760070800781,0.3729950798882378,0.03666666666666667,0.2907142857142857,-0.004058710734049479,-3.0101648741455094,-0.2526785307617203,46.84537124633789,0.05250888400607639,-0.11214243570963542
2964,-0.037974378797743055,0.29882820129394533,90.1195068359375,89.40347290039062,-5.8120880126953125,90.05813598632812,0.37208582560221354,0.033,0.2910714285714286,-0.005584547254774305,-2.867346423217775,2.2631161212921143,46.84537124633789,0.0079559326171875,-0.12078026665581597
2965,-0.041880628797743055,0.33867195129394534,84.75950622558594,84.63676452636719,-6.691783905029297,91.6333999633789,0.3682215372721354,0.029666666666666668,0.2910714285714286,-0.005004755655924479,-2.164242404052736,0.3954960107803345,46.84537124633789,0.0013637966579861111,-0.14805759853786893
2966,-0.030161878797743055,0.3585938262939453,79.56317901611328,77.9879150390625,-7.612392425537109,90.0785903930664,0.3652665032280816,0.025,0.28964285714285715,-0.0038756476508246527,-1.527054446289064,-0.6811319761962906,46.84537124633789,0.017502933078342015,-0.14101092020670572
2967,-0.018443128797743055,0.41835948944091794,87.21446990966797,80.19737243652344,-8.021553039550781,92.77904510498047,0.36935814751519097,0.022333333333333334,0.2882142857142857,-0.0034789191351996527,-1.2853628569335953,1.8786060810089111,46.054359436035156,0.0779677497016059,-0.17556220160590277
2968,-0.018443128797743055,0.39843757629394533,83.22515869140625,82.67279052734375,-7.080486297607422,91.61294555664062,0.3716311984592014,0.019666666666666666,0.28464285714285714,-0.000335693359375,-2.0653692656250016,1.7028300762176514,45.43912887573242,0.006137424045138889,-0.1521492428249783
2969,0.012806871202256945,0.3187500762939453,87.37813568115234,87.74638366699219,-6.303081512451172,91.32653045654297,0.36072031656901044,0.018666666666666668,0.28285714285714286,0.005157301161024305,-1.7687460356445328,0.8678940534591675,45.17546081542969,-0.004091644287109375,-0.14032902187771268
2970,0.020619371202256945,0.33867195129394534,88.87156677246094,83.02058410644531,-6.425830841064453,90.38545989990234,0.36776691012912327,0.015333333333333332,0.28,0.0063779619004991316,-1.0656420164794937,0.2526780068874359,45.17546081542969,0.06501091851128472,-0.13123656378851997
2971,0.004994371202256945,0.33867195129394534,83.16378784179688,84.39126586914062,-5.034687042236328,90.71278381347656,0.3711766560872396,0.012666666666666666,0.2785714285714286,0.004608027140299479,-0.4614130430908219,-0.6921183043212906,45.17546081542969,-0.013638644748263888,-0.11941634284125434
2972,-0.014536878797743055,0.3585938262939453,79.3995132446289,82.63188171386719,-4.339115142822266,90.44683837890625,0.3709493001302083,0.009,0.2760714285714286,0.0010375552707248264,-0.3954969816894547,-1.4611383848876969,45.17546081542969,-0.03591520521375868,-0.10873281690809462
2973,-0.018443128797743055,0.3585938262939453,80.46333312988281,85.53691101074219,-3.4389610290527344,86.98943328857422,0.3698127746582031,0.006,0.2742857142857143,-0.0011901431613498264,-0.3295809202880875,-0.19774879748535312,45.17546081542969,-0.05637308756510417,-0.06031549241807726
2974,-0.010630628797743055,0.3585938262939453,89.32164001464844,81.28164672851562,-4.441402435302734,89.62850952148438,0.36458460489908856,0.004666666666666667,0.2717857142857143,0.0001220703125,0.5493000149726868,1.2414180040359497,43.68132781982422,0.08933325873480903,-0.10077679951985677
2975,-0.034068128797743055,0.29882820129394533,86.04837036132812,84.82088470458984,-5.3620147705078125,87.88958740234375,0.37549557156032987,0.0033333333333333335,0.27,-0.0013122134738498264,1.0766279697418213,0.9777539968490601,41.83563995361328,0.013638729519314236,-0.09168446858723958
2976,-0.06531812879774306,0.2789063262939453,78.92898559570312,80.25875091552734,-0.55438232421875,86.04837036132812,0.37276780870225695,0.0013333333333333333,0.26607142857142857,-0.004852167765299479,0.7250760197639465,-1.4391657286376969,41.74774932861328,-0.014775170220269097,-0.017808363172743057
2977,-0.037974378797743055,0.25898443222045897,85.86424255371094,78.9494400024414,-0.3088874816894531,84.63676452636719,0.36549385918511285,0.001,0.2639285714285714,-0.0032958136664496527,1.724802017211914,-0.4504267149658219,41.74774932861328,0.07683113945855034,0.0006038665771484375
2978,-0.010630628797743055,0.239062557220459,91.6333999633789,87.29630279541016,-0.5952987670898438,84.77996826171875,0.3661757575141059,0.0003333333333333333,0.26107142857142857,-0.0,3.087066173553467,1.175502061843872,41.57196807861328,0.04818996853298611,-0.00416963365342882
2979,-0.010630628797743055,0.239062557220459,78.02882385253906,77.08776092529297,10.902095794677734,82.61141967773438,0.3682215372721354,0.0,0.25892857142857145,0.0008849673800998264,2.2301580905914307,-0.6152159147949234,25.312320709228516,0.010456254747178819,0.14767417907714844
2980,-0.006724378797743055,0.219140682220459,82.93875122070312,81.87493133544922,6.728664398193359,76.73997497558594,0.3577652825249566,0.0,0.25392857142857145,0.0001220703125,1.735788106918335,-0.06591667468261875,25.224430084228516,0.011820220947265625,0.1665409935845269
2981,0.0010881212022569445,0.25898443222045897,81.75218200683594,82.79554748535156,15.505146026611328,76.28990173339844,0.4034547593858507,0.0,0.24928571428571428,-0.0,1.032684087753296,0.010986000299453735,25.224430084228516,-0.011592949761284723,0.2690582699245877
