,WD,WS,AIL_1,AIL_2,ELEV_1,ELEV_2,RUDD,ALT,GS,TH,PTCH,ROLL,PLA_1,AIL,ELEV
5029,-0.055063528068033836,0.3785157012939453,84.22760009765625,84.18669128417969,-3.8276634216308594,88.0737075805664,-0.004568650987413194,0.7496666666666667,0.445,-0.0069883134629991316,-1.9225508146972672,0.9228240251541138,39.462608337402344,0.00045454237196180554,-0.07668190002441407
5030,-0.047251028068033836,0.33867195129394534,86.0688247680664,83.26608276367188,-3.8072052001953125,88.0737075805664,-0.007069057888454861,0.7436666666666667,0.44571428571428573,-0.005706617567274305,-2.197201388427736,2.065368175506592,39.462608337402344,0.031141577826605902,-0.07645458645290798
5031,-0.039438528068033836,0.3187500762939453,86.43707275390625,85.90515899658203,-3.6026268005371094,88.05325317382812,-0.008660252888997395,0.739,0.44642857142857145,-0.0030821906195746527,-2.812416689941408,2.197200059890747,39.462608337402344,0.005910152859157986,-0.0739542219373915
5032,-0.02381352806803384,0.3585938262939453,85.06637573242188,84.28897857666016,-3.4185028076171875,87.95095825195312,-0.01616151597764757,0.7323333333333333,0.44785714285714284,-0.0008544921875,-3.0431219511718766,0.9997260570526123,39.462608337402344,0.008637746175130209,-0.07077178955078126
5033,-0.039438528068033836,0.3585938262939453,84.96409606933594,84.43218231201172,-3.479877471923828,87.88958740234375,-0.0075236850314670135,0.7236666666666667,0.44821428571428573,-0.0014037662082248264,-2.197201388427736,0.4614120125770569,39.28683090209961,0.005910152859157986,-0.07077183193630643
5034,-0.06287602806803384,0.33867195129394534,84.90271759033203,83.94119262695312,-3.5412521362304688,88.17599487304688,0.0006595187717013889,0.719,0.4492857142857143,-0.0028685675726996527,-2.3180471831054703,1.538040041923523,39.462608337402344,0.01068361070421007,-0.07463607788085938
5035,-0.06287602806803384,0.3585938262939453,85.16867065429688,84.47309875488281,-3.704914093017578,87.86912536621094,-0.002750142415364583,0.7123333333333334,0.45035714285714284,-0.0023803287082248266,-2.900305407592775,1.9335360527038574,39.462608337402344,0.00772857666015625,-0.07304488288031684
5036,-0.06678227806803384,0.39843757629394533,84.35034942626953,83.71615600585938,-3.684459686279297,88.13508605957031,-0.005250591701931423,0.7056666666666667,0.4514285714285714,-0.0021056705050998266,-2.5926958494873062,1.307334065437317,39.462608337402344,0.007046593560112847,-0.0757727305094401
5037,-0.07068852806803384,0.3785157012939453,84.45263671875,83.71615600585938,-3.8276634216308594,88.40103149414062,-0.010933346218532987,0.6996666666666667,0.4521428571428571,-0.0016479068332248264,-2.2850881987304703,0.6701459884643555,39.462608337402344,0.008183119032118056,-0.08031883239746093
5038,-0.06287602806803384,0.39843757629394533,85.02546691894531,83.92073059082031,-3.7867469787597656,88.40103149414062,-0.010251405504014757,0.6933333333333334,0.4525,-0.001007080078125,-2.537766116210939,0.8349360227584839,39.462608337402344,0.012274848090277778,-0.07986420525444879
5039,-0.07068852806803384,0.3785157012939453,85.43462371826172,84.88226318359375,-3.909496307373047,88.23736572265625,-0.003886710272894965,0.687,0.45321428571428574,-0.000762939453125,-2.482836382934572,0.790992021560669,37.96847915649414,0.006137339274088541,-0.07940957811143663
5040,-0.06678227806803384,0.3785157012939453,85.1072998046875,84.86180114746094,-3.6230850219726562,88.29874420166016,-0.01070603264702691,0.6813333333333333,0.4539285714285714,0.0001220703125,-2.6805845671386734,-0.3735243254394547,37.79269790649414,0.002727762858072917,-0.07690921359592014
5041,-0.051157278068033836,0.3785157012939453,83.75706481933594,84.26852416992188,-3.4594192504882812,88.17599487304688,-0.009342193603515625,0.6753333333333333,0.4546428571428571,0.0009765201144748264,-2.6036821776123062,-1.2524038725585953,37.79269790649414,-0.005682881673177083,-0.07372682359483507
5042,-0.055063528068033836,0.3785157012939453,83.552490234375,82.73416900634766,-3.500335693359375,88.0123291015625,-0.0043413374159071184,0.6693333333333333,0.455,-0.0001220703125,-2.3290335112304703,-0.6701475554199234,37.79269790649414,0.009092458089192708,-0.07236294216579861
5043,-0.06287602806803384,0.3785157012939453,85.82332611083984,84.84133911132812,-3.6026268005371094,88.0737075805664,-0.01002409193250868,0.6633333333333333,0.45571428571428574,-0.000823974609375,-1.9774805479736344,0.35155200958251953,37.79269790649414,0.01091096666124132,-0.0741814931233724
5044,-0.07850102806803384,0.33867195129394534,86.27340698242188,85.63920593261719,-3.643543243408203,88.31919860839844,-0.009796820746527778,0.6583333333333333,0.45571428571428574,-0.0014953189425998264,-1.9555078917236344,0.4614120125770569,36.56224060058594,0.007046678331163195,-0.07736379835340712
5045,-0.09021977806803384,0.3785157012939453,86.94851684570312,83.24562072753906,-3.4594192504882812,87.80775451660156,-0.009114880032009548,0.6533333333333333,0.45607142857142857,-0.0026854621039496527,-1.9664942198486344,1.0436700582504272,32.6071891784668,0.04114329020182292,-0.06963526407877604
5046,-0.10193852806803384,0.39843757629394533,83.69569396972656,84.96409606933594,-3.500335693359375,88.1146240234375,-0.009114880032009548,0.6473333333333333,0.45535714285714285,-0.0035094367133246527,-1.538040774414064,0.3954960107803345,32.4314079284668,-0.01409335666232639,-0.07349955240885417
5047,-0.10584477806803384,0.3585938262939453,85.06637573242188,84.06393432617188,-3.500335693359375,88.09416198730469,-0.008887566460503472,0.6433333333333333,0.455,-0.0026854621039496527,-1.4611383848876969,0.6042300462722778,32.4314079284668,0.011138237847222222,-0.07327219645182291
5048,-0.10193852806803384,0.3585938262939453,85.29141998291016,84.554931640625,-3.500335693359375,87.76683807373047,-0.011842600504557292,0.638,0.4546428571428571,-0.0019225650363498264,-1.7907186918945328,0.2526780068874359,32.4314079284668,0.008183203803168403,-0.06963526407877604
5049,-0.10584477806803384,0.3187500762939453,85.63920593261719,85.12775421142578,-3.704914093017578,88.1146240234375,-0.0059324900309244795,0.634,0.4546428571428571,-0.0013427310519748264,-1.8566347532959,0.32958000898361206,32.4314079284668,0.0056827969021267365,-0.07577264573838975
5050,-0.10975102806803384,0.3187500762939453,85.29141998291016,84.80043029785156,-3.5412521362304688,88.05325317382812,-0.009114880032009548,0.6293333333333333,0.4546428571428571,-0.0013427310519748264,-2.0763555937500016,-0.19774879748535312,32.34352111816406,0.005455440945095486,-0.07327228122287327
5051,-0.10193852806803384,0.29882820129394533,85.18913269042969,84.82088470458984,-3.5412521362304688,88.13508605957031,-0.01252454121907552,0.6243333333333333,0.4542857142857143,-0.00018310546875,-1.9774805479736344,-0.20873512561035312,32.4314079284668,0.004091644287109375,-0.07418153550889757
5052,-0.09803227806803384,0.2789063262939453,86.72348022460938,86.41661071777344,-3.4389610290527344,87.97142028808594,-0.011615286933051215,0.62,0.4542857142857143,0.0006103091769748264,-1.8895918303222672,-0.5712725096435562,32.4314079284668,0.003409661187065972,-0.07122645907931857
5053,-0.08631352806803384,0.29882820129394533,85.74149322509766,85.76194763183594,-3.3162155151367188,87.74638366699219,-0.011615286933051215,0.6143333333333333,0.4539285714285714,0.000274658203125,-1.9994532042236344,-2.164242404052736,32.4314079284668,-0.00022727118598090277,-0.06736221313476562
5054,-0.07850102806803384,0.3187500762939453,82.57050323486328,84.0025634765625,-3.4594192504882812,87.93049621582031,-0.010933346218532987,0.609,0.4542857142857143,-0.001068115234375,-1.8566347532959,-3.7352415495605484,32.4314079284668,-0.015911780463324653,-0.07099906073676215
5055,-0.051157278068033836,0.3187500762939453,83.67523193359375,82.91828918457031,-3.500335693359375,87.82821655273438,-0.01547957526312934,0.6043333333333333,0.45357142857142857,-0.001007080078125,-1.9225508146972672,-2.6915708952636734,32.4314079284668,0.008410474989149305,-0.07031724717881944
5056,-0.07068852806803384,0.3187500762939453,84.88226318359375,84.554931640625,-4.461860656738281,88.36012268066406,-0.001613616943359375,0.6,0.45071428571428573,-0.004363886515299479,-1.7797323637695328,-1.164517062255861,32.4314079284668,0.003637017144097222,-0.08691092597113716
5057,-0.09412602806803384,0.33867195129394534,83.38882446289062,83.42974090576172,-5.014228820800781,88.99431610107422,-0.006841744316948784,0.5946666666666667,0.44857142857142857,-0.0071103837754991316,-2.186215060302736,-0.9228254729003922,32.4314079284668,-0.0004546271430121528,-0.10009494357638889
5058,-0.07850102806803384,0.3585938262939453,84.24806213378906,83.36836242675781,-5.7507171630859375,90.1195068359375,-0.01320648193359375,0.593,0.44357142857142856,-0.006378004286024305,-2.548752444335939,-0.4064833098144547,32.4314079284668,0.009774441189236111,-0.12078026665581597
5059,-0.055063528068033836,0.3585938262939453,84.98455047607422,84.32989501953125,-6.405372619628906,90.73324584960938,-0.01252454121907552,0.5913333333333334,0.4392857142857143,-0.004516474405924479,-2.933262484619142,-0.16478981311035312,32.4314079284668,0.0072739495171440975,-0.13487353854709203
5060,-0.07850102806803384,0.3585938262939453,84.77996826171875,84.35034942626953,-6.691783905029297,91.26515197753906,-0.003204769558376736,0.5913333333333334,0.43214285714285716,-0.0069577958848741316,-3.6912962370605484,-0.19774879748535312,32.4314079284668,0.004773542616102431,-0.14396595425075956
5061,-0.10975102806803384,0.3187500762939453,83.20470428466797,82.32501220703125,-6.732700347900391,91.14241027832031,-0.01070603264702691,0.5886666666666667,0.4278571428571429,-0.009399159749348959,-4.020876544067384,-0.9887415343017594,32.4314079284668,0.009774356418185763,-0.1430567847357856
5062,-0.07850102806803384,0.29882820129394533,83.71615600585938,82.40684509277344,-6.957736968994141,91.85843658447266,-0.020253117879231772,0.5866666666666667,0.42214285714285715,-0.006713697645399305,-4.669050829956056,-0.856909411499025,32.34352111816406,0.014547899034288195,-0.1535130394829644
5063,-0.09021977806803384,0.29882820129394533,85.90515899658203,85.57783508300781,-6.609951019287109,91.04011535644531,0.0002048916286892361,0.583,0.41892857142857143,-0.0076291826036241316,-5.723705905029298,0.38451001048088074,32.34352111816406,0.003636932373046875,-0.14055629306369358
5064,-0.11756352806803384,0.3187500762939453,83.77752685546875,85.14820861816406,-5.771175384521484,90.71278381347656,-0.0059324900309244795,0.577,0.415,-0.010253609551323786,-6.064272540161134,-0.04394401843261875,32.34352111816406,-0.01522979736328125,-0.12759954664442275
5065,-0.09803227806803384,0.3585938262939453,86.0688247680664,83.24562072753906,-5.464302062988281,89.79217529296875,-0.011615286933051215,0.5706666666666667,0.41214285714285714,-0.009704293145073786,-5.4600435667724625,0.05493000149726868,32.34352111816406,0.03136893378363715,-0.11396085951063369
5066,-0.06678227806803384,0.3585938262939453,86.02790832519531,85.02546691894531,-5.075603485107422,89.95584106445312,-0.015252261691623263,0.565,0.4089285714285714,-0.006164381239149305,-5.50398697192383,0.5822579860687256,32.34352111816406,0.011138237847222222,-0.11146049499511719
5067,-0.10975102806803384,0.29882820129394533,83.71615600585938,84.26852416992188,-5.5870513916015625,89.87400817871094,0.0015687730577256945,0.56,0.4064285714285714,-0.008666737874348959,-4.844826357910158,0.17577600479125977,32.34352111816406,-0.006137424045138889,-0.11623399522569444
5068,-0.07459477806803384,0.3187500762939453,83.87982177734375,83.22515869140625,-4.871021270751953,89.32164001464844,-0.0168434566921658,0.5533333333333333,0.40285714285714286,-0.006316969129774305,-4.855812686035158,-0.3845106535644547,32.34352111816406,0.007274034288194444,-0.10214068094889323
5069,-0.039438528068033836,0.3187500762939453,84.5958480834961,83.47065734863281,-4.911937713623047,89.36256408691406,-0.011842600504557292,0.5483333333333333,0.4007142857142857,-0.0030821906195746527,-4.37242950732422,0.14281800389289856,32.34352111816406,0.01250211927625868,-0.10305002000596789
5070,-0.058969778068033836,0.3187500762939453,85.76194763183594,85.0050048828125,-5.136974334716797,89.28073120117188,0.002932612101236979,0.543,0.39714285714285713,-0.004333368937174479,-4.053835528442384,1.1205720901489258,32.34352111816406,0.008410474989149305,-0.10464117262098524
5071,-0.08631352806803384,0.29882820129394533,83.94119262695312,84.63676452636719,-4.911937713623047,89.2193603515625,-0.008887566460503472,0.537,0.39464285714285713,-0.005767652723524305,-3.812142031738283,0.5053560137748718,32.34352111816406,-0.00772857666015625,-0.10145886739095052
5072,-0.10975102806803384,0.29882820129394533,85.94607543945312,84.67768096923828,-4.339115142822266,88.97386169433594,0.0017960866292317708,0.5326666666666666,0.39035714285714285,-0.0068357255723741316,-3.7572122984619156,1.3512780666351318,32.34352111816406,0.014093271891276042,-0.09236640930175781
5073,-0.12146977806803384,0.29882820129394533,86.15065002441406,86.33477783203125,-4.461860656738281,88.38057708740234,-0.0054779052734375,0.528,0.38821428571428573,-0.0070188310411241316,-3.229883807250978,0.8349360227584839,32.34352111816406,-0.002045864529079861,-0.08713819715711806
5074,-0.09021977806803384,0.3187500762939453,85.49600219726562,84.82088470458984,-4.175449371337891,88.36012268066406,-0.018661922878689237,0.5236666666666666,0.3846428571428571,-0.004333368937174479,-2.955235140869142,-0.15380539233398594,32.34352111816406,0.007501305474175347,-0.08372857835557726
5075,-0.07068852806803384,0.3187500762939453,84.90271759033203,84.5958480834961,-4.400489807128906,88.62606811523438,-0.012979168362087673,0.519,0.3825,-0.0027464972601996527,-2.504809039184572,-0.3845106535644547,32.34352111816406,0.003409661187065972,-0.08918397691514757
5076,-0.055063528068033836,0.29882820129394533,84.49356079101562,84.0025634765625,-4.7482757568359375,88.97386169433594,-0.01002409193250868,0.515,0.3775,-0.0012816958957248264,-2.812416689941408,-0.49437012011718906,32.34352111816406,0.005455525716145834,-0.09691263834635416
5077,-0.01990727806803384,0.29882820129394533,84.57539367675781,84.08439636230469,-4.850563049316406,89.23981475830078,-0.021844270494249134,0.5133333333333333,0.37392857142857144,0.0019530402289496527,-3.163967745849611,-0.7800070219726578,32.34352111816406,0.005455525716145834,-0.1010041978624132
5078,-0.043344778068033836,0.3187500762939453,85.12775421142578,84.82088470458984,-5.300640106201172,88.6056137084961,0.011797756618923612,0.512,0.3675,-0.00054931640625,-3.0870672636718766,0.12084600329399109,32.34352111816406,0.003409661187065972,-0.0989583757188585
5079,-0.031626028068033836,0.33867195129394534,85.06637573242188,84.24806213378906,-6.016670227050781,90.6309585571289,-0.01911655002170139,0.5103333333333333,0.3628571428571429,0.0006103091769748264,-3.3727022581787125,0.1867620050907135,32.34352111816406,0.00909237331814236,-0.12941809760199652
5080,-0.02771977806803384,0.33867195129394534,85.39370727539062,84.49356079101562,-5.771175384521484,90.59004211425781,-0.003659396701388889,0.509,0.35535714285714287,0.0011596255832248264,-4.229611056396486,0.4943700134754181,32.34352111816406,0.010001627604166667,-0.12623574998643664
5081,-0.035532278068033836,0.3187500762939453,85.31187438964844,85.35279846191406,-5.730258941650391,90.36500549316406,-0.002068201700846354,0.509,0.35035714285714287,0.0012206607394748264,-4.449329989501955,0.4064820110797882,32.34352111816406,-0.0004547119140625,-0.12328071594238281
5082,-0.055063528068033836,0.3187500762939453,85.68012237548828,84.75950622558594,-5.791633605957031,90.28317260742188,-0.0009316762288411458,0.5073333333333333,0.34285714285714286,-0.000823974609375,-4.3834139281005875,0.6591600179672241,32.34352111816406,0.010229068332248265,-0.12305340237087674
5083,-0.07850102806803384,0.33867195129394534,85.57783508300781,85.455078125,-5.853004455566406,90.28317260742188,0.0031599256727430558,0.5056666666666667,0.3382142857142857,-0.0032042609320746527,-4.570175784179689,0.2197200059890747,32.34352111816406,0.0013639662000868055,-0.1237353006998698
5084,-0.07850102806803384,0.3585938262939453,84.77996826171875,84.94363403320312,-5.730258941650391,90.26271057128906,-0.008660252888997395,0.5033333333333333,0.3314285714285714,-0.0038146124945746527,-4.921728747436525,-0.8678938322753922,32.34352111816406,-0.001818508572048611,-0.12214410569932725
5085,-0.06287602806803384,0.3585938262939453,83.4501953125,81.93630981445312,-5.1983489990234375,90.1195068359375,-0.01752539740668403,0.5006666666666667,0.3271428571428571,-0.0026854621039496527,-5.4600435667724625,-1.2743765288085953,32.25563049316406,0.01682094997829861,-0.11464284261067709
5086,-0.047251028068033836,0.33867195129394534,83.24562072753906,84.02302551269531,-4.9733123779296875,89.66943359375,-0.01252454121907552,0.49766666666666665,0.3217857142857143,-0.0014953189425998264,-5.712721484252931,-0.856909411499025,32.25563049316406,-0.008637830946180555,-0.10714162190755208
5087,-0.06287602806803384,0.3187500762939453,83.69569396972656,83.65477752685547,-4.789188385009766,89.26026916503906,-0.00297745598687066,0.49433333333333335,0.3196428571428571,-0.0035094367133246527,-5.668776171752931,-0.9997259550781266,32.25563049316406,0.0004546271430121528,-0.10054952833387587
5088,-0.058969778068033836,0.33867195129394534,84.32989501953125,82.93875122070312,-4.461860656738281,89.05569458007812,-0.013888380262586805,0.48933333333333334,0.315,-0.004241816202799479,-5.613846438476564,-0.801977770874025,35.41967010498047,0.0154571533203125,-0.0946395026312934
5089,-0.06287602806803384,0.3585938262939453,84.0434799194336,84.28897857666016,-4.461860656738281,88.81019592285156,-0.0022955152723524307,0.485,0.31285714285714283,-0.005676099989149305,-5.712721484252931,-0.3735243254394547,39.11104965209961,-0.002727762858072917,-0.09191173977322048
5090,-0.06678227806803384,0.3585938262939453,84.43218231201172,83.79798889160156,-4.768730163574219,89.0761489868164,-0.003659396701388889,0.48,0.3107142857142857,-0.006011793348524305,-5.635819094726564,0.07690200209617615,39.462608337402344,0.007046593560112847,-0.09827643500434027
5091,-0.058969778068033836,0.33867195129394534,84.24806213378906,84.5958480834961,-4.339115142822266,88.87156677246094,-0.013888380262586805,0.4746666666666667,0.3107142857142857,-0.004791132609049479,-5.888497012207033,-0.08788933093261875,39.462608337402344,-0.003864288330078125,-0.09122979905870225
5092,-0.039438528068033836,0.3585938262939453,84.96409606933594,84.5958480834961,-4.318656921386719,88.64653015136719,-0.012979168362087673,0.469,0.31,-0.0025633917914496527,-5.910469668457033,-0.2526785307617203,39.550498962402344,0.004091644287109375,-0.08850207858615451
5093,-0.039438528068033836,0.3585938262939453,84.71859741210938,84.75950622558594,-3.357128143310547,88.23736572265625,-0.009114880032009548,0.463,0.31,-0.0028075324164496527,-5.635819094726564,-0.3625379973144547,39.550498962402344,-0.00045454237196180554,-0.07327215406629774
5094,-0.055063528068033836,0.33867195129394534,85.02546691894531,84.61630249023438,-3.500335693359375,87.88958740234375,-0.0034320831298828127,0.457,0.30964285714285716,-0.004669062296549479,-4.954685824462892,0.032958000898361206,39.550498962402344,0.004546271430121528,-0.0709991455078125
5095,-0.07068852806803384,0.33867195129394534,85.78240966796875,84.92317199707031,-2.641101837158203,87.45996856689453,-0.0018409305148654514,0.452,0.30892857142857144,-0.006561109754774305,-4.449329989501955,0.032958000898361206,39.550498962402344,0.009547085232204862,-0.056678560045030385
5096,-0.08631352806803384,0.3187500762939453,84.554931640625,83.47065734863281,-3.3366737365722656,86.53935241699219,0.0006595187717013889,0.44733333333333336,0.30857142857142855,-0.008666737874348959,-3.284815447875978,-0.01098694140625156,39.550498962402344,0.012047492133246528,-0.05417806837293837
5097,-0.09021977806803384,0.3187500762939453,86.37569427490234,85.37325286865234,-2.743389129638672,87.66455078125,-0.007296371459960938,0.44266666666666665,0.3078571428571429,-0.008636220296223959,-2.944248812744142,0.1538040041923523,39.550498962402344,0.011138237847222222,-0.06008822123209635
5098,-0.09021977806803384,0.33867195129394534,84.5140151977539,84.96409606933594,-2.9888877868652344,87.1121826171875,-0.01752539740668403,0.439,0.3057142857142857,-0.009155019124348959,-2.7794596129150406,-0.6371885710449234,41.57196807861328,-0.00500089857313368,-0.056678560045030385
5099,-0.07068852806803384,0.3785157012939453,85.08683776855469,81.62944030761719,-3.66400146484375,88.36012268066406,-0.02207158406575521,0.435,0.3032142857142857,-0.008361562093098959,-2.6915708952636734,-1.0436712675781266,41.74774932861328,0.03841552734375,-0.0780458238389757
5100,-0.06678227806803384,0.3785157012939453,81.91584777832031,84.39126586914062,-3.254840850830078,87.37813568115234,-0.01252454121907552,0.432,0.30214285714285716,-0.008514149983723959,-2.7684732847900406,-1.0436712675781266,41.74774932861328,-0.02750464545355903,-0.06258862813313802
5101,-0.09021977806803384,0.33867195129394534,81.85447692871094,83.87982177734375,-3.5617103576660156,87.78729248046875,0.004296493530273437,0.42966666666666664,0.30107142857142855,-0.01135219997829861,-2.3839632445068375,-1.0216986113281266,41.74774932861328,-0.022503831651475695,-0.07054447597927517
5102,-0.09021977806803384,0.33867195129394534,83.16378784179688,80.32012939453125,-3.4185028076171875,88.09416198730469,-0.011160659790039062,0.42733333333333334,0.29928571428571427,-0.012572860717773438,-2.6695982390136734,-0.7140909605712906,41.74774932861328,0.031596204969618055,-0.07236294216579861
5103,-0.10193852806803384,0.3187500762939453,85.53691101074219,86.17111206054688,-3.5821685791015625,87.91004180908203,0.004296493530273437,0.425,0.2982142857142857,-0.013640975952148438,-2.812416689941408,1.1205720901489258,41.74774932861328,-0.007046678331163195,-0.07213567097981771
5104,-0.11756352806803384,0.29882820129394533,85.98699188232422,86.35523986816406,-3.643543243408203,87.97142028808594,-0.0007043626573350694,0.421,0.2975,-0.013976626925998263,-3.1200243406982437,1.0986000299453735,41.74774932861328,-0.004091644287109375,-0.07349959479437934
5105,-0.07850102806803384,0.29882820129394533,84.35034942626953,84.16622924804688,-3.0707168579101562,87.80775451660156,-0.032073296440972225,0.4186666666666667,0.2975,-0.008636220296223959,-3.7352415495605484,0.2746500074863434,43.505550384521484,0.002045779758029514,-0.06531634860568576
5106,-0.031626028068033836,0.29882820129394533,88.62606811523438,86.45751953125,-3.0707168579101562,87.0712661743164,-0.02752706739637587,0.415,0.2978571428571429,-0.0029601203070746527,-3.6473528319091812,0.8569080233573914,43.76921844482422,0.024094984266493057,-0.05713314480251736
5107,-0.06287602806803384,0.33867195129394534,86.25294494628906,88.13508605957031,-3.3775863647460938,87.43951416015625,0.010433875189887153,0.411,0.2975,-0.005859205457899305,-3.4386183195800797,0.5273280143737793,44.56023025512695,-0.020912679036458333,-0.0646344502766927
5108,-0.08240727806803384,0.3187500762939453,82.550048828125,84.49356079101562,-2.272857666015625,87.19401550292969,0.0011141459147135417,0.407,0.2975,-0.008788808186848959,-3.273829119750978,-0.6042314940185562,44.56023025512695,-0.021594577365451388,-0.04963192409939236
5109,-0.07068852806803384,0.29882820129394533,84.39126586914062,84.28897857666016,-2.907054901123047,87.27584838867188,-0.014570320977105035,0.4033333333333333,0.2978571428571429,-0.0075376298692491316,-2.6366411619873062,-0.7250772886962906,44.56023025512695,0.0011365254720052083,-0.057587814331054685
5110,-0.06287602806803384,0.3187500762939453,86.49844360351562,86.0074462890625,-2.9684295654296875,87.0098876953125,-0.004795964558919271,0.3993333333333333,0.2978571428571429,-0.0070188310411241316,-2.570725100585939,0.29662200808525085,45.52701950073242,0.005455525716145834,-0.05531463623046875
5111,-0.08631352806803384,0.29882820129394533,84.84133911132812,85.35279846191406,-3.4389610290527344,87.50088500976562,-0.0018409305148654514,0.3953333333333333,0.2985714285714286,-0.008971913655598959,-2.6805845671386734,0.373524010181427,45.52701950073242,-0.005682881673177083,-0.06599828932020399
5112,-0.07459477806803384,0.3187500762939453,83.26608276367188,84.5958480834961,-2.866138458251953,87.50088500976562,-0.014570320977105035,0.392,0.29964285714285716,-0.0077817704942491316,-3.3507315092773453,0.23070600628852844,45.70280075073242,-0.014775170220269097,-0.0596335940890842
5113,-0.051157278068033836,0.3785157012939453,83.18424987792969,82.44775390625,-3.5617103576660156,88.27828979492188,-0.01729808383517795,0.388,0.3,-0.006072828504774305,-3.284815447875978,0.4614120125770569,45.70280075073242,0.00818328857421875,-0.07600000169542101
5114,-0.07068852806803384,0.3585938262939453,84.88226318359375,84.80043029785156,-3.725372314453125,88.05325317382812,0.001341459486219618,0.38466666666666666,0.3,-0.0077817704942491316,-3.284815447875978,0.6481740474700928,45.70280075073242,0.0009092542860243056,-0.07531806098090278
5115,-0.09803227806803384,0.3187500762939453,86.04837036132812,82.28408813476562,-3.684459686279297,88.17599487304688,-0.00297745598687066,0.38066666666666665,0.3,-0.009429677327473959,-3.207913058349611,1.4171940088272095,45.70280075073242,0.041825358072916666,-0.07622727288140191
5116,-0.09803227806803384,0.2789063262939453,86.90760040283203,86.23248291015625,-3.643543243408203,88.0123291015625,-0.004568650987413194,0.37533333333333335,0.3007142857142857,-0.0072019365098741316,-3.3946749144287125,1.6259280443191528,45.70280075073242,0.007501305474175347,-0.07395413716634115
5117,-0.06287602806803384,0.2789063262939453,86.662109375,87.68500518798828,-3.357128143310547,87.45996856689453,-0.020707745022243925,0.37166666666666665,0.30178571428571427,-0.0021972232394748266,-3.6473528319091812,0.4064820110797882,45.70280075073242,-0.011365509033203125,-0.06463440789116753
5118,-0.031626028068033836,0.2789063262939453,85.18913269042969,85.49600219726562,-3.2343826293945312,87.66455078125,-0.020025804307725693,0.36666666666666664,0.3028571428571429,0.0010985904269748264,-3.87805809313965,-0.3295809202880875,45.70280075073242,-0.003409661187065972,-0.06554370456271702
5119,-0.031626028068033836,0.239062557220459,87.54179382324219,84.63676452636719,-3.295757293701172,87.39859008789062,-0.010251405504014757,0.36233333333333334,0.30464285714285716,0.0014953189425998264,-3.987919467041017,0.14281800389289856,45.70280075073242,0.03227810329861111,-0.06327052646213108
5120,-0.043344778068033836,0.25898443222045897,86.19157409667969,86.21202850341797,-3.4185028076171875,87.58271789550781,-0.0043413374159071184,0.3576666666666667,0.3057142857142857,0.000335693359375,-4.009890215942384,0.02197200059890747,45.70280075073242,-0.00022727118598090277,-0.06668023003472222
5121,-0.06287602806803384,0.219140682220459,85.84378051757812,85.61874389648438,-3.3775863647460938,87.5213394165039,-0.006159803602430555,0.3536666666666667,0.3067857142857143,-0.00091552734375,-4.086792605468752,-0.12084640795898594,45.70280075073242,0.0025004069010416668,-0.06554361979166666
5122,-0.06678227806803384,0.2789063262939453,84.57539367675781,84.02302551269531,-3.520793914794922,87.74638366699219,-0.013661109076605903,0.3486666666666667,0.30857142857142855,-0.0026549445258246527,-4.119751589843752,-1.153530734130861,45.70280075073242,0.006137424045138889,-0.06963530646430122
5123,-0.07068852806803384,0.239062557220459,84.32989501953125,83.08195495605469,-3.704914093017578,87.97142028808594,-0.00843293931749132,0.345,0.3092857142857143,-0.0035704718695746527,-4.229611056396486,-0.7140909605712906,45.70280075073242,0.013866000705295138,-0.0741814931233724
5124,-0.07850102806803384,0.2789063262939453,87.13264465332031,86.45751953125,-3.1934661865234375,87.6031723022461,0.010433875189887153,0.34,0.3107142857142857,-0.005554029676649305,-4.647078173706056,1.0436700582504272,45.70280075073242,0.007501390245225694,-0.06440709431966146
5125,-0.08631352806803384,0.2789063262939453,85.31187438964844,86.94851684570312,-2.7843055725097656,87.43951416015625,0.0004322052001953125,0.3353333333333333,0.31214285714285717,-0.005309931437174479,-4.669050829956056,0.8349360227584839,45.70280075073242,-0.018184916178385416,-0.05804244147406684
5126,-0.055063528068033836,0.25898443222045897,88.52378845214844,89.91493225097656,-2.9684295654296875,87.13264465332031,-0.0168434566921658,0.332,0.31357142857142856,-0.000335693359375,-4.152708666870119,0.5602860450744629,45.70280075073242,-0.0154571533203125,-0.05667860243055556
5127,-0.055063528068033836,0.2789063262939453,85.88470458984375,85.43462371826172,-3.275299072265625,87.58271789550781,-0.010251405504014757,0.3273333333333333,0.31464285714285717,-0.0003662109375,-3.823128359863283,-0.4064833098144547,45.70280075073242,0.00500089857313368,-0.06508907741970486
5128,-0.08631352806803384,0.2789063262939453,84.47309875488281,85.33233642578125,-3.8072052001953125,87.562255859375,0.010206561618381077,0.324,0.315,-0.004608027140299479,-3.4715773039550797,-0.7470480375976578,45.70280075073242,-0.009547085232204862,-0.07077178955078126
5129,-0.09021977806803384,0.25898443222045897,84.35034942626953,84.08439636230469,-3.7662887573242188,88.42149353027344,-0.007296371459960938,0.31966666666666665,0.3142857142857143,-0.005584547254774305,-3.262842791625978,-1.0326849394531266,45.70280075073242,0.0029550340440538192,-0.07986424763997396
5130,-0.06287602806803384,0.29882820129394533,84.92317199707031,84.08439636230469,-2.866138458251953,87.45996856689453,-0.011842600504557292,0.316,0.3142857142857143,-0.004485956827799479,-3.0321375303955094,-0.20873512561035312,45.70280075073242,0.009319729275173612,-0.05917896694607205
5131,-0.06678227806803384,0.2789063262939453,87.58271789550781,85.96653747558594,-2.8252220153808594,87.0712661743164,-0.00775099860297309,0.313,0.31392857142857145,-0.0039061652289496527,-2.3400179320068375,1.1864880323410034,45.70280075073242,0.017957560221354165,-0.054405424329969615
5132,-0.06678227806803384,0.2789063262939453,90.569580078125,90.1195068359375,-3.66400146484375,87.68500518798828,-0.00297745598687066,0.31,0.3132142857142857,-0.0023192935519748266,-1.7687460356445328,1.4611380100250244,45.70280075073242,0.0050008138020833336,-0.07054451836480034
5133,-0.07068852806803384,0.239062557220459,86.29386138916016,85.86424255371094,-3.7662887573242188,88.1555404663086,-0.018661922878689237,0.30733333333333335,0.3117857142857143,-0.000640869140625,-1.7797323637695328,0.4064820110797882,45.70280075073242,0.004773542616102431,-0.07690921359592014
5134,-0.06678227806803384,0.29882820129394533,87.54179382324219,86.15065002441406,-3.684459686279297,88.1146240234375,0.0040691799587673615,0.305,0.31107142857142855,-0.0015258365207248264,-2.0873400145263687,2.0214240550994873,45.70280075073242,0.0154571533203125,-0.07554537455240885
5135,-0.10193852806803384,0.25898443222045897,88.31919860839844,90.95828247070312,-4.564151763916016,88.29874420166016,-0.006387117173936632,0.30266666666666664,0.31035714285714283,-0.0017089419894748264,-2.922276156494142,0.5383139848709106,45.70280075073242,-0.029323154025607638,-0.08736551072862413
5136,-0.07850102806803384,0.239062557220459,86.21202850341797,84.26852416992188,-3.4594192504882812,87.82821655273438,-0.021162372165256075,0.30033333333333334,0.31,0.0005187564425998264,-3.7462259703369156,-1.131558077880861,45.70280075073242,0.021594492594401042,-0.06986262003580729
5137,-0.08631352806803384,0.219140682220459,84.96409606933594,84.77996826171875,-2.6820144653320312,86.78485107421875,-0.003659396701388889,0.298,0.3107142857142857,-0.000701904296875,-3.229883807250978,-1.8126913481445328,45.70280075073242,0.002045864529079861,-0.04963183932834202
5138,-0.07850102806803384,0.25898443222045897,82.36592102050781,84.47309875488281,-3.3775863647460938,87.17355346679688,-0.008887566460503472,0.295,0.31107142857142855,-0.0029906378851996527,-2.3729769163818375,-2.482836382934572,45.70280075073242,-0.0234130859375,-0.06167933146158854
5139,-0.058969778068033836,0.2789063262939453,76.59677124023438,80.4837875366211,-2.6820144653320312,86.53935241699219,-0.019343863593207465,0.2926666666666667,0.3107142857142857,-0.0039061652289496527,-2.4279066496582047,-2.493822711059572,45.70280075073242,-0.04318906995985243,-0.0469040764702691
5140,-0.051157278068033836,0.219140682220459,85.23004150390625,85.16867065429688,-3.0298004150390625,87.6031723022461,-0.004568650987413194,0.29,0.3107142857142857,-0.0032347785101996527,-2.197201388427736,-0.07690300280761875,45.70280075073242,0.0006818983289930556,-0.06258858574761285
5141,-0.08631352806803384,0.219140682220459,82.93875122070312,86.0688247680664,-3.0502586364746094,87.33721923828125,0.008615409003363715,0.289,0.31035714285714283,-0.005737135145399305,-2.0543829375000016,0.790992021560669,45.70280075073242,-0.034778594970703125,-0.0598608652750651
5142,-0.11365727806803384,0.239062557220459,84.12531280517578,86.25294494628906,-3.4594192504882812,87.64408874511719,0.012025070190429688,0.287,0.31035714285714283,-0.008483632405598959,-2.164242404052736,0.9008520245552063,45.70280075073242,-0.023640357123480903,-0.06781675550672743
5143,-0.10975102806803384,0.239062557220459,81.56806182861328,83.18424987792969,-3.1730079650878906,87.64408874511719,-0.02320815192328559,0.2846666666666667,0.3092857142857143,-0.0072629716661241316,-2.2741018706054703,0.1867620050907135,45.70280075073242,-0.017957644992404515,-0.06463440789116753
5144,-0.12537602806803383,0.219140682220459,82.89783477783203,85.37325286865234,-3.9504127502441406,87.88958740234375,0.0049784342447916664,0.2836666666666667,0.3092857142857143,-0.0077512529161241316,-1.9445234709472672,0.010986000299453735,45.70280075073242,-0.02750464545355903,-0.07600000169542101
5145,-0.09412602806803384,0.19921878814697266,80.545166015625,79.93142700195312,-3.3162155151367188,88.09416198730469,-0.02525397406684028,0.2816666666666667,0.30892857142857144,-0.004455439249674479,-2.845373766967775,-0.6371885710449234,45.70280075073242,0.006819322374131944,-0.0712264166937934
5146,-0.058969778068033836,0.17929691314697266,80.77020263671875,84.1048583984375,-3.1730079650878906,87.37813568115234,-0.01616151597764757,0.2793333333333333,0.30964285714285716,-0.0019836001925998266,-3.229883807250978,-0.07690300280761875,45.966468811035156,-0.03705173068576389,-0.061679373847113715
5147,-0.051157278068033836,0.17929691314697266,86.49844360351562,88.62606811523438,-3.4594192504882812,87.21446990966797,-0.011615286933051215,0.27566666666666667,0.3107142857142857,-0.000701904296875,-3.0101648741455094,0.8239500522613525,46.66958999633789,-0.023640272352430554,-0.063043212890625
5148,-0.058969778068033836,0.239062557220459,85.68012237548828,84.57539367675781,-3.4185028076171875,87.6031723022461,-0.0043413374159071184,0.272,0.31214285714285717,-0.0022277408175998266,-2.823403018066408,0.5273280143737793,47.284820556640625,0.01227476331922743,-0.06690750122070313
5149,-0.07850102806803384,0.239062557220459,85.43462371826172,85.68012237548828,-3.2139244079589844,87.58271789550781,-0.00775099860297309,0.26766666666666666,0.31357142857142856,-0.0037230597601996527,-3.1419969969482437,0.16479000449180603,47.284820556640625,-0.002727762858072917,-0.06440713670518664
5150,-0.10584477806803384,0.219140682220459,84.69813537597656,85.90515899658203,-2.9275131225585938,87.1121826171875,-0.011387973361545138,0.264,0.31464285714285717,-0.004943720499674479,-2.900305407592775,-0.834936755249025,47.46059799194336,-0.013411373562282987,-0.05599661933051215
5151,-0.11756352806803384,0.219140682220459,83.49111938476562,84.0434799194336,-3.275299072265625,87.27584838867188,-0.004795964558919271,0.2613333333333333,0.31535714285714284,-0.0073545244004991316,-2.3180471831054703,-0.7690206938476578,47.46059799194336,-0.006137339274088541,-0.06167941623263889
5152,-0.15662602806803383,0.19921878814697266,81.77264404296875,82.42729949951172,-3.8481216430664062,87.27584838867188,0.0031599256727430558,0.25733333333333336,0.31607142857142856,-0.010284127129448786,-1.9005781584472672,-0.801977770874025,47.46059799194336,-0.0072739495171440975,-0.06804411146375867
5153,-0.10584477806803384,0.239062557220459,84.28897857666016,85.16867065429688,-3.4594192504882812,87.80775451660156,-0.01661614312065972,0.25566666666666665,0.31642857142857145,-0.008056428697374132,-2.6146685057373062,-0.2526785307617203,47.46059799194336,-0.009774356418185763,-0.06963526407877604
5154,-0.11756352806803384,0.19921878814697266,85.70057678222656,84.71859741210938,-3.7662887573242188,88.13508605957031,-0.018207295735677084,0.25333333333333335,0.3171428571428571,-0.0076597001817491316,-2.889319079467775,0.09887400269508362,47.46059799194336,0.010910881890190972,-0.07668194240993924
5155,-0.15271977806803383,0.19921878814697266,88.58515930175781,87.21446990966797,-3.7662887573242188,88.09416198730469,0.005205747816297743,0.25,0.3182142857142857,-0.009490712483723959,-3.196926730224611,1.5600121021270752,47.46059799194336,0.015229882134331598,-0.07622723049587674
5156,-0.20740727806803383,0.219140682220459,84.75950622558594,84.73905181884766,-3.9913291931152344,88.13508605957031,0.00770615471733941,0.248,0.3192857142857143,-0.013488388061523438,-3.526507037231447,0.6701459884643555,47.46059799194336,0.00022727118598090277,-0.07918239169650608
5157,-0.16834477806803383,0.239062557220459,86.90760040283203,85.84378051757812,-4.216365814208984,88.42149353027344,-0.01911655002170139,0.245,0.32071428571428573,-0.01177944607204861,-3.87805809313965,-0.05493034655761875,47.46059799194336,0.011820220947265625,-0.08486510382758247
5158,-0.19959477806803383,0.19921878814697266,83.1024169921875,85.35279846191406,-4.1959075927734375,88.78973388671875,-0.01843460930718316,0.242,0.32107142857142856,-0.01211513943142361,-4.36144317919922,-2.0873400145263687,47.46059799194336,-0.02500423855251736,-0.08872934977213541
5159,-0.14881352806803383,0.2789063262939453,82.28408813476562,78.62211608886719,-4.502777099609375,88.52378845214844,-0.00297745598687066,0.23733333333333334,0.3225,-0.014861636691623263,-4.196652072021486,-1.175503390380861,47.46059799194336,0.040688578287760416,-0.08918406168619791
5160,-0.18396977806803383,0.19921878814697266,87.21446990966797,83.552490234375,-4.380031585693359,89.2193603515625,-0.0043413374159071184,0.23233333333333334,0.32357142857142857,-0.014037662082248263,-4.756939547607423,-0.3954969816894547,47.46059799194336,0.04068866305881076,-0.09554879930284288
5161,-0.14881352806803383,0.15937503814697265,80.13600158691406,78.84715270996094,-4.216365814208984,88.74882507324219,-0.024799346923828125,0.22966666666666666,0.32571428571428573,-0.010741890801323786,-4.932715075561525,-1.8566347532959,47.46059799194336,0.014320543077256944,-0.08850212097167968
5162,-0.02381352806803384,0.19921878814697266,84.86180114746094,83.06149291992188,-3.684459686279297,88.42149353027344,-0.0323006100124783,0.22533333333333333,0.3271428571428571,-0.004943720499674479,-5.350182192871095,-0.2746511870117203,47.46059799194336,0.020003424750434026,-0.07895503573947482
5163,-0.07068852806803384,0.239062557220459,84.28897857666016,84.61630249023438,-3.9504127502441406,88.21691131591797,0.014298163519965278,0.22066666666666668,0.3292857142857143,-0.009216054280598959,-5.229336398193361,1.1645159721374512,47.46059799194336,-0.003636932373046875,-0.07963693406846788
5164,-0.10975102806803384,0.239062557220459,83.73661041259766,84.77996826171875,-4.564151763916016,88.564697265625,0.005887646145290798,0.21633333333333332,0.33035714285714285,-0.01132168240017361,-4.811869280883791,1.3732500076293945,47.46059799194336,-0.011592864990234375,-0.09032054477267795
5165,-0.10584477806803384,0.25898443222045897,85.57783508300781,84.84133911132812,-4.645984649658203,88.6669921875,-0.006841744316948784,0.21166666666666667,0.33071428571428574,-0.010894478691948786,-4.526232379028322,1.2414180040359497,47.46059799194336,0.00818328857421875,-0.09236640930175781
5166,-0.07068852806803384,0.25898443222045897,85.70057678222656,85.35279846191406,-4.5846099853515625,88.58515930175781,-0.021389685736762153,0.20766666666666667,0.33,-0.006744215223524305,-4.570175784179689,0.7140899896621704,47.46059799194336,0.0038642035590277777,-0.09077521430121528
5167,-0.047251028068033836,0.219140682220459,85.94607543945312,85.14820861816406,-4.645984649658203,89.32164001464844,-0.011842600504557292,0.204,0.33035714285714285,-0.0032652960883246527,-4.647078173706056,2.361989974975586,47.196929931640625,0.008865186903211806,-0.09964027404785156
5168,-0.07459477806803384,0.239062557220459,87.82821655273438,87.78729248046875,-4.441402435302734,88.70790100097656,0.010206561618381077,0.20066666666666666,0.33035714285714285,-0.0034789191351996527,-4.954685824462892,2.8673460483551025,47.109039306640625,0.0004547119140625,-0.09054781595865885
5169,-0.07459477806803384,0.239062557220459,85.70057678222656,86.53935241699219,-4.564151763916016,89.03523254394531,-0.0002497355143229167,0.19666666666666666,0.33071428571428574,-0.0018310123019748264,-4.680037158081056,1.8236761093139648,47.109039306640625,-0.009319729275173612,-0.09554871453179253
5170,-0.09803227806803384,0.19921878814697266,85.455078125,86.15065002441406,-4.502777099609375,89.44439697265625,-0.014570320977105035,0.19266666666666668,0.33071428571428574,-0.000946044921875,-4.756939547607423,0.6042300462722778,47.196929931640625,-0.00772857666015625,-0.09941304524739583
5171,-0.09412602806803384,0.17929691314697266,83.65477752685547,82.63188171386719,-3.909496307373047,88.23736572265625,-0.020025804307725693,0.18766666666666668,0.3314285714285714,-0.0001220703125,-4.976658480712892,-0.5053564482421891,47.109039306640625,0.011365509033203125,-0.07940957811143663
5172,-0.07850102806803384,0.17929691314697266,80.44287109375,82.89783477783203,-3.500335693359375,88.19645690917969,-0.010933346218532987,0.185,0.3317857142857143,-0.000335693359375,-4.526232379028322,-0.8898664885253922,47.109039306640625,-0.027277374267578126,-0.07440880669487847
5173,-0.07068852806803384,0.19921878814697266,83.63432312011719,83.20470428466797,-4.543693542480469,88.564697265625,-0.0050232781304253475,0.18066666666666667,0.3325,-0.000885009765625,-4.163694994995119,-0.48338379199218906,47.109039306640625,0.004773542616102431,-0.09009323120117188
5174,-0.047251028068033836,0.239062557220459,84.80043029785156,83.79798889160156,-3.9504127502441406,88.40103149414062,-0.011160659790039062,0.177,0.3325,-0.0,-4.4273592406005875,0.13183200359344482,47.109039306640625,0.011138237847222222,-0.0816827138264974
5175,-0.058969778068033836,0.25898443222045897,86.53935241699219,86.64164733886719,-4.727817535400391,88.83065795898438,0.001341459486219618,0.17466666666666666,0.3325,-0.0014342837863498264,-4.515246050903322,1.021697998046875,47.109039306640625,-0.0011366102430555556,-0.09509417215983072
5176,-0.09412602806803384,0.25898443222045897,82.77508544921875,84.69813537597656,-5.423389434814453,89.93538665771484,0.004523807101779514,0.171,0.3317857142857143,-0.0037535773383246527,-4.932715075561525,0.35155200958251953,47.109039306640625,-0.02136722140842014,-0.1150975121392144
5177,-0.09803227806803384,0.19921878814697266,81.83401489257812,86.31431579589844,-4.8096466064453125,89.28073120117188,-0.01729808383517795,0.169,0.3314285714285714,-0.0020751529269748266,-5.624832766601564,-0.08788933093261875,47.109039306640625,-0.049781121148003475,-0.1010041978624132
5178,-0.14100102806803383,0.15937503814697265,83.34790802001953,81.05661010742188,-4.339115142822266,88.81019592285156,-0.006159803602430555,0.166,0.3317857142857143,-0.004089228312174479,-5.4051119261474625,0.6262019872665405,47.109039306640625,0.025458865695529513,-0.0905479007297092
5179,-0.12928227806803383,0.25898443222045897,84.16622924804688,83.57295227050781,-4.257282257080078,88.83065795898438,0.004296493530273437,0.16033333333333333,0.33285714285714285,-0.006622144911024305,-5.317225115844728,1.4391660690307617,47.109039306640625,0.006591966417100695,-0.08986600240071614
5180,-0.14100102806803383,0.25898443222045897,85.88470458984375,84.86180114746094,-4.073158264160156,88.23736572265625,-0.009796820746527778,0.156,0.33285714285714285,-0.005889723036024305,-4.921728747436525,2.13128399848938,47.109039306640625,0.011365593804253473,-0.08122804429796007
5181,-0.20350102806803383,0.25898443222045897,84.554931640625,85.94607543945312,-4.523235321044922,89.30118560791016,0.014070849948459202,0.152,0.33285714285714285,-0.010680855645073786,-4.4273592406005875,0.6701459884643555,47.109039306640625,-0.0154571533203125,-0.0980491214328342
5182,-0.14881352806803383,0.29882820129394533,83.34790802001953,82.07951354980469,-5.402931213378906,89.13752746582031,-0.03184598286946615,0.147,0.33214285714285713,-0.0069272783067491316,-3.812142031738283,-0.4394403868408219,47.109039306640625,0.014093271891276042,-0.10600509643554687
5183,-0.12146977806803384,0.2789063262939453,81.60897827148438,86.662109375,-4.768730163574219,90.36500549316406,-0.011615286933051215,0.14466666666666667,0.3314285714285714,-0.005065790812174479,-4.537218707153322,-0.9887415343017594,47.109039306640625,-0.05614590115017361,-0.11259706285264758
5184,-0.11365727806803384,0.29882820129394533,83.08195495605469,86.49844360351562,-4.8096466064453125,88.87156677246094,-0.00047704908582899306,0.14133333333333334,0.33071428571428574,-0.005706617567274305,-4.921728747436525,-1.8456484251709,47.109039306640625,-0.037960984971788195,-0.09645792643229166
5185,-0.09021977806803384,0.219140682220459,84.28897857666016,81.547607421875,-5.096061706542969,89.38301849365234,-0.03275523715549045,0.138,0.3296428571428571,-0.0023803287082248266,-4.789896624633791,-2.3400179320068375,47.109039306640625,0.030459679497612847,-0.10532311333550347
5186,-0.09412602806803384,0.19921878814697266,82.71371459960938,83.18424987792969,-4.502777099609375,88.83065795898438,-0.02389009263780382,0.13333333333333333,0.3292857142857143,-0.004119745890299479,-4.943701403686525,-2.186215060302736,47.109039306640625,-0.005228169759114583,-0.0925937228732639
5187,-0.17615727806803383,0.19921878814697266,84.92317199707031,84.69813537597656,-4.1959075927734375,88.0737075805664,0.013616265190972223,0.13066666666666665,0.3296428571428571,-0.01162685818142361,-4.899756091186525,-0.2856375151367203,47.109039306640625,0.0025004069010416668,-0.08077350192599826
5188,-0.24256352806803383,0.19921878814697266,85.455078125,85.20958709716797,-4.7482757568359375,90.48774719238281,0.005887646145290798,0.12633333333333333,0.33035714285714285,-0.014861636691623263,-4.4383455687255875,0.48338401317596436,47.109039306640625,0.0027276780870225696,-0.11373358832465277
5189,-0.23084477806803383,0.17929691314697266,88.13508605957031,89.28073120117188,-4.339115142822266,88.6056137084961,-0.02525397406684028,0.123,0.3314285714285714,-0.01123012966579861,-4.965672152587892,0.29662200808525085,47.109039306640625,-0.012729390462239584,-0.08827476501464844
5190,-0.17615727806803383,0.17929691314697266,81.9567642211914,85.57783508300781,-4.318656921386719,88.40103149414062,-0.021616956922743055,0.11933333333333333,0.33214285714285713,-0.008544667561848959,-4.800882952758791,-1.0326849394531266,47.109039306640625,-0.04023412068684896,-0.0857743157280816
5191,-0.12146977806803384,0.19921878814697266,84.6572265625,84.30943298339844,-4.400489807128906,88.48286437988281,-0.02389009263780382,0.115,0.33321428571428574,-0.0074460771348741316,-4.614121096679689,-0.6481748991699234,47.109039306640625,0.0038643731011284723,-0.08759282430013021
5192,-0.14490727806803383,0.15937503814697265,84.86180114746094,84.6572265625,-4.502777099609375,88.74882507324219,-0.00047704908582899306,0.111,0.3335714285714286,-0.008117463853624132,-5.075533526489259,0.10986000299453735,47.109039306640625,0.0022730509440104167,-0.09168446858723958
5193,-0.09412602806803384,0.219140682220459,83.47065734863281,84.554931640625,-4.134532928466797,88.68744659423828,-0.012751854790581597,0.10733333333333334,0.3339285714285714,-0.0068662431504991316,-5.020601885864259,-0.49437012011718906,47.109039306640625,-0.012047492133246528,-0.08691088358561198
5194,-0.06678227806803384,0.17929691314697266,80.83157348632812,80.62699890136719,-4.441402435302734,88.70790100097656,-0.01843460930718316,0.10333333333333333,0.3342857142857143,-0.004669062296549479,-4.767923968383791,-1.3732515745849625,47.109039306640625,0.0022730509440104167,-0.09054781595865885
5195,-0.02381352806803384,0.13945316314697265,78.04928588867188,80.62699890136719,-3.8890380859375,88.78973388671875,-0.014115693834092882,0.09966666666666667,0.33464285714285713,-0.0030516730414496527,-4.603134768554689,-1.7907186918945328,47.109039306640625,-0.028641255696614583,-0.08531968858506944
5196,0.007436471931966161,0.1195312786102295,84.18669128417969,80.4837875366211,-4.400489807128906,88.29874420166016,-0.0059324900309244795,0.09566666666666666,0.33464285714285713,-0.0031432257758246527,-4.207638400146486,-0.2856375151367203,47.109039306640625,0.041143374972873265,-0.0855470445421007
5197,-0.0003760280680338389,0.19921878814697266,85.37325286865234,84.63676452636719,-4.11407470703125,88.31919860839844,-0.004568650987413194,0.09133333333333334,0.33535714285714285,-0.0030821906195746527,-4.504261630126955,0.6591600179672241,47.109039306640625,0.008183203803168403,-0.08259192572699653
5198,-0.01600102806803384,0.19921878814697266,84.43218231201172,84.1048583984375,-4.1959075927734375,88.1555404663086,-0.001613616943359375,0.08733333333333333,0.3357142857142857,-0.0036315070258246527,-4.647078173706056,1.8786060810089111,46.84537124633789,0.003636932373046875,-0.08168275621202258
5199,-0.039438528068033836,0.219140682220459,85.35279846191406,85.23004150390625,-4.543693542480469,88.99431610107422,-0.003204769558376736,0.08466666666666667,0.33535714285714285,-0.0037230597601996527,-4.822855609008791,2.592696189880371,46.58169937133789,0.0013639662000868055,-0.0948667738172743
5200,-0.07850102806803384,0.13945316314697265,81.547607421875,85.25050354003906,-4.5846099853515625,88.95339965820312,-0.0011589898003472221,0.082,0.3357142857142857,-0.0030211554633246527,-4.482288973876955,1.8346620798110962,46.318031311035156,-0.04114329020182292,-0.0948667738172743
5201,-0.12537602806803383,0.1195312786102295,82.89783477783203,82.61141967773438,-4.686901092529297,89.2193603515625,-0.008887566460503472,0.07866666666666666,0.3357142857142857,-0.0033568488226996527,-4.295527117797853,1.2743760347366333,46.142250061035156,0.0031823900010850693,-0.09895846048990885
5202,-0.08240727806803384,0.17929691314697266,84.94363403320312,85.27096557617188,-4.441402435302734,89.03523254394531,-0.008887566460503472,0.07466666666666667,0.33535714285714285,-0.0023803287082248266,-4.669050829956056,1.724802017211914,45.966468811035156,-0.003637017144097222,-0.09418483310275608
5203,-0.07459477806803384,0.25898443222045897,86.80531311035156,85.43462371826172,-4.134532928466797,88.6669921875,0.0017960866292317708,0.07066666666666667,0.33464285714285713,-0.0026244269476996527,-4.811869280883791,1.5929700136184692,45.966468811035156,0.015229882134331598,-0.08668361239963107
5204,-0.058969778068033836,0.25898443222045897,86.49844360351562,82.22271728515625,-4.686901092529297,89.0761489868164,-0.024799346923828125,0.06666666666666667,0.3339285714285714,-0.0001220703125,-4.196652072021486,0.6481740474700928,45.79069137573242,0.04750807020399306,-0.09736722310384115
5205,-0.039438528068033836,0.219140682220459,85.27096557617188,85.0459213256836,-4.727817535400391,89.1170654296875,-0.022753524780273437,0.06433333333333334,0.33285714285714285,0.0028380499945746527,-4.108765261718752,-0.4064833098144547,45.79069137573242,0.002500491672092014,-0.09827647738986545
5206,-0.031626028068033836,0.239062557220459,84.94363403320312,83.71615600585938,-4.400489807128906,88.564697265625,0.0020233578152126738,0.06,0.33214285714285713,0.0028685675726996527,-4.35045685107422,0.516342043876648,45.70280075073242,0.013638644748263888,-0.08850207858615451
5207,-0.06287602806803384,0.2789063262939453,85.5982894897461,83.87982177734375,-4.789188385009766,89.34210205078125,0.00225067138671875,0.05733333333333333,0.33071428571428574,-3.0517578125e-05,-4.295527117797853,0.9008520245552063,45.70280075073242,0.019094085693359374,-0.10145878261990017
5208,-0.08240727806803384,0.25898443222045897,89.1170654296875,85.02546691894531,-4.830104827880859,89.2193603515625,-0.007978312174479167,0.054,0.3292857142857143,-0.00067138671875,-4.152708666870119,0.4723980128765106,45.52701950073242,0.04546220567491319,-0.10054961310492622
5209,-0.058969778068033836,0.239062557220459,84.80043029785156,85.5164566040039,-4.461860656738281,89.17843627929688,-0.02434471978081597,0.050666666666666665,0.3271428571428571,0.0019225226508246527,-4.185667651245119,-1.0766283446044937,45.52701950073242,-0.007955847846137152,-0.09600329928927952
5210,-0.06678227806803384,0.239062557220459,82.12042999267578,85.02546691894531,-4.523235321044922,88.93293762207031,-0.004568650987413194,0.04666666666666667,0.32607142857142857,-0.000244140625,-4.042849200317384,-2.471850054809572,45.52701950073242,-0.032278188069661456,-0.09395747714572483
5211,-0.09021977806803384,0.2789063262939453,80.545166015625,79.09264373779297,-4.093616485595703,88.64653015136719,0.0004322052001953125,0.041666666666666664,0.3242857142857143,-0.005920240614149305,-3.6363665037841812,-1.6588865690917984,45.52701950073242,0.0161391364203559,-0.08600162929958767
5212,-0.11365727806803384,0.239062557220459,82.26363372802734,84.554931640625,-4.298198699951172,88.72836303710938,-0.01070603264702691,0.03866666666666667,0.32285714285714284,-0.008178499009874132,-3.6912962370605484,-1.3402925902099625,45.52701950073242,-0.025458865695529513,-0.08918401930067274
5213,-0.09412602806803384,0.239062557220459,80.81111145019531,82.65233612060547,-4.216365814208984,88.40103149414062,-0.0043413374159071184,0.035,0.32107142857142856,-0.0074765947129991316,-3.0541082792968766,-1.120571749755861,45.43912887573242,-0.02045805189344618,-0.08463774787055121
5214,-0.09412602806803384,0.219140682220459,84.75950622558594,79.542724609375,-6.834991455078125,91.26515197753906,-0.0002497355143229167,0.031,0.31892857142857145,-0.008117463853624132,-3.0101648741455094,0.24169200658798218,45.43912887573242,0.05796424018012153,-0.1455571492513021
5215,-0.09412602806803384,0.219140682220459,83.90027618408203,84.47309875488281,-4.911937713623047,89.03523254394531,0.009751976860894098,0.028,0.31607142857142856,-0.0071409013536241316,-3.90003074938965,-0.2856375151367203,45.43912887573242,-0.006364695231119792,-0.09941300286187066
5216,-0.02771977806803384,0.239062557220459,81.83401489257812,82.61141967773438,-4.707359313964844,89.48530578613281,-0.0066144307454427086,0.025666666666666667,0.3142857142857143,-0.0020141177707248266,-3.284815447875978,-0.49437012011718906,45.43912887573242,-0.008637830946180555,-0.1021407233344184
5217,-0.035532278068033836,0.19921878814697266,86.58027648925781,88.09416198730469,-5.259723663330078,89.17843627929688,-2.242194281684028e-05,0.021,0.31142857142857144,-0.0026549445258246527,-2.6915708952636734,0.2526780068874359,45.43912887573242,-0.01682094997829861,-0.10486844380696615
5218,-0.07459477806803384,0.17929691314697266,81.81356048583984,83.28652954101562,-3.9504127502441406,88.0123291015625,0.03089188469780816,0.017333333333333333,0.30964285714285716,-0.004363886515299479,-2.0983263426513687,0.09887400269508362,45.43912887573242,-0.016366322835286457,-0.07736379835340712
5219,-0.035532278068033836,0.17929691314697266,88.03279113769531,87.35768127441406,-3.725372314453125,87.33721923828125,-0.007978312174479167,0.012333333333333333,0.3078571428571429,-0.00042724609375,-1.8786074095459,1.1535300016403198,40.95674133300781,0.007501220703125,-0.06736212836371527
5220,-0.06678227806803384,0.219140682220459,90.569580078125,87.35768127441406,-3.745830535888672,87.74638366699219,0.03157382541232639,0.009333333333333334,0.30642857142857144,-0.0022277408175998266,-1.2963491850585953,1.2084600925445557,32.6071891784668,0.035687764485677086,-0.07213571336534289
5221,-0.07459477806803384,0.239062557220459,82.71371459960938,87.31675720214844,-3.8276634216308594,87.86912536621094,0.010206561618381077,0.005666666666666667,0.30107142857142855,-0.0027464972601996527,-1.527054446289064,-1.164517062255861,28.124799728393555,-0.051144917805989586,-0.0744087643093533
5222,0.007436471931966161,0.219140682220459,85.68012237548828,87.50088500976562,-2.518352508544922,86.47798156738281,-0.01957117716471354,0.004666666666666667,0.29714285714285715,0.005676099989149305,-1.153530734130861,-1.4062086516113297,28.036909103393555,-0.02023069593641493,-0.0444037119547526
5223,0.08556147193196616,0.19921878814697266,86.98943328857422,86.27340698242188,-1.8023223876953125,86.43707275390625,-0.02866363525390625,0.001,0.2914285714285714,0.01116909450954861,-0.13183273608398594,0.48338401317596436,28.036909103393555,0.007955847846137152,-0.03599327935112847
5224,0.01915522193196616,0.219140682220459,89.05569458007812,90.671875,1.6141624450683594,82.26363372802734,0.013843536376953125,-0.001,0.2867857142857143,0.0061643388536241316,1.021697998046875,1.307334065437317,28.036909103393555,-0.017957560221354165,0.0483392079671224
5225,-0.07850102806803384,0.17929691314697266,89.48530578613281,86.49844360351562,-0.06339263916015625,84.90271759033203,0.01543473137749566,0.0003333333333333333,0.2807142857142857,-0.0006103515625,1.8236761093139648,-0.5932451658935562,27.861129760742188,0.03318735758463542,0.0003765530056423611
5226,-0.055063528068033836,0.29882820129394533,88.17599487304688,84.63676452636719,0.6321792602539062,82.46821594238281,0.03089188469780816,-0.0016666666666666668,0.2764285714285714,-0.0018920474582248264,1.768746018409729,-2.4279066496582047,27.861129760742188,0.039324781629774305,0.03515514797634549
5227,-0.031626028068033836,0.19921878814697266,87.5213394165039,84.5140151977539,2.5552330017089844,81.71127319335938,0.009751976860894098,-0.0016666666666666668,0.27035714285714285,0.0007628970675998264,1.922550082206726,-1.8786074095459,27.773239135742188,0.03341471354166667,0.0649328867594401
5228,-0.039438528068033836,0.15937503814697265,85.74149322509766,88.46240997314453,5.3170623779296875,76.73997497558594,0.023617935180664063,0.0,0.26607142857142857,-0.0,2.614668130874634,-1.7028299742431656,27.861129760742188,-0.030232408311631945,0.15085652669270833
