,WD,WS,AIL_1,AIL_2,ELEV_1,ELEV_2,RUDD,ALT,GS,TH,PTCH,ROLL,PLA_1,AIL,ELEV
3136,-0.28649935680677624,0.3585938262939453,86.45751953125,85.39370727539062,-2.8252220153808594,87.27584838867188,0.36663038465711806,0.5596666666666666,0.46,-0.01663158204820421,1.1425440311431885,3.4386181831359863,43.417659759521484,0.011820136176215277,-0.056678560045030385
3137,-0.27868685680677624,0.39843757629394533,86.15065002441406,85.84378051757812,-3.3366737365722656,87.58271789550781,0.3691307915581597,0.5596666666666666,0.4592857142857143,-0.01654002931382921,1.3512780666351318,3.3287580013275146,43.417659759521484,0.003409661187065972,-0.06577101813422309
3138,-0.28649935680677624,0.438281364440918,86.53935241699219,85.29141998291016,-2.9684295654296875,87.41905212402344,0.36867616441514756,0.5596666666666666,0.4585714285714286,-0.01751656002468533,1.4831100702285767,2.4938220977783203,42.71453857421875,0.013865915934244792,-0.059860907660590275
3139,-0.28259310680677624,0.438281364440918,84.24806213378906,83.61386108398438,-3.3162155151367188,87.35768127441406,0.3684488932291667,0.559,0.4567857142857143,-0.017211394839816624,1.4831100702285767,1.3622640371322632,41.22040939331055,0.007046678331163195,-0.06304329766167535
3140,-0.29040560680677624,0.41835948944091794,85.57783508300781,84.84133911132812,-3.0093421936035156,87.29630279541016,0.36685774061414933,0.5593333333333333,0.45535714285714285,-0.015288845698038737,1.1645159721374512,0.790992021560669,40.42940139770508,0.00818328857421875,-0.058951610989040795
3141,-0.29431185680677624,0.39843757629394533,87.43951416015625,86.41661071777344,-2.7843055725097656,87.562255859375,0.36663038465711806,0.5603333333333333,0.45321428571428574,-0.01388507948981391,1.2414180040359497,1.0107120275497437,40.07783889770508,0.011365593804253473,-0.05940623813205295
3142,-0.29821810680677624,0.41835948944091794,84.61630249023438,85.39370727539062,-2.866138458251953,87.43951416015625,0.3684488932291667,0.5603333333333333,0.4517857142857143,-0.015136263105604383,1.4611380100250244,0.5493000149726868,40.07783889770508,-0.008637830946180555,-0.05895169576009115
3143,-0.32946810680677624,0.39843757629394533,85.29141998291016,85.0459213256836,-2.7843055725097656,86.88714599609375,0.36640311347113713,0.56,0.45035714285714284,-0.01562453375922309,1.2853620052337646,-0.4394403868408219,40.95674133300781,0.002727762858072917,-0.05190501742892795
3144,-0.32946810680677624,0.3785157012939453,82.20226287841797,83.40928649902344,-2.497894287109375,86.88714599609375,0.3695854187011719,0.5586666666666666,0.4492857142857143,-0.01495316293504503,1.4171940088272095,-1.516068118164064,41.13251876831055,-0.013411373562282987,-0.04872266981336806
3145,-0.30993685680677624,0.33867195129394534,83.32745361328125,83.61386108398438,-2.313770294189453,86.74394226074219,0.3670850118001302,0.5586666666666666,0.4471428571428571,-0.012389765845404731,1.1315580606460571,-2.0433966093750016,36.0349006652832,-0.003182305230034722,-0.04508569505479601
3146,-0.25915560680677624,0.33867195129394534,85.37325286865234,84.26852416992188,-2.743389129638672,86.88714599609375,0.3670850118001302,0.5583333333333333,0.44571428571428573,-0.01126064724392361,1.175502061843872,-1.6588865690917984,32.4314079284668,0.01227476331922743,-0.0514503902859158
3147,-0.25134310680677624,0.3585938262939453,85.33233642578125,84.14576721191406,-2.477436065673828,86.6007308959961,0.37026740180121526,0.559,0.44285714285714284,-0.012878031200832791,1.1205720901489258,-0.9997259550781266,31.552509307861328,0.013184102376302083,-0.04531296624077691
3148,-0.25134310680677624,0.39843757629394533,85.35279846191406,85.80287170410156,-2.722930908203125,87.0098876953125,0.3679942660861545,0.559,0.44107142857142856,-0.01501419809129503,1.5160679817199707,-0.13183273608398594,31.552509307861328,-0.0050008138020833336,-0.052586873372395836
3149,-0.30212435680677624,0.39843757629394533,84.1048583984375,83.96165466308594,-2.3956031799316406,87.13264465332031,0.37004004584418404,0.5596666666666666,0.43785714285714283,-0.019194984436035158,1.5929700136184692,-0.7360617094726578,31.552509307861328,0.001591152615017361,-0.05031386481391059
3150,-0.29431185680677624,0.438281364440918,84.5958480834961,84.47309875488281,-2.5797271728515625,86.82576751708984,0.3684488932291667,0.5596666666666666,0.4357142857142857,-0.021148045857747395,1.3732500076293945,-0.7031046324462906,31.46462059020996,0.0013638814290364584,-0.048949940999348955
3151,-0.30603060680677624,0.39843757629394533,84.39126586914062,83.81844329833984,-2.272857666015625,87.0098876953125,0.3673123677571615,0.5616666666666666,0.43214285714285716,-0.02062926822238498,1.307334065437317,-1.4281813078613297,31.46462059020996,0.006364695231119792,-0.0475860595703125
3152,-0.29821810680677624,0.39843757629394533,84.53446960449219,84.41172790527344,-2.354686737060547,86.76439666748047,0.3673123677571615,0.562,0.42928571428571427,-0.02044616275363498,1.3183200359344482,-1.4171949797363297,31.46462059020996,0.0013637966579861111,-0.045767593383789065
3153,-0.29821810680677624,0.41835948944091794,85.49600219726562,85.14820861816406,-2.129650115966797,86.33477783203125,0.3684488932291667,0.56,0.425,-0.02398609585232205,1.4062080383300781,-1.4721247130126969,31.46462059020996,0.0038643731011284723,-0.038493643866644965
3154,-0.30212435680677624,0.41835948944091794,86.08927917480469,84.90271759033203,-2.4365196228027344,86.86668395996094,0.36640311347113713,0.5606666666666666,0.42178571428571426,-0.02511521445380317,2.0104379653930664,-1.7797323637695328,31.46462059020996,0.013184017605251737,-0.04781337314181858
3155,-0.28649935680677624,0.438281364440918,84.20714569091797,85.33233642578125,-1.8841552734375,86.29386138916016,0.3684488932291667,0.559,0.4160714285714286,-0.02603071000840929,1.724802017211914,-1.8786074095459,31.46462059020996,-0.01250211927625868,-0.03531129625108507
3156,-0.27868685680677624,0.438281364440918,87.25538635253906,83.28652954101562,-2.6820144653320312,87.13264465332031,0.36685774061414933,0.5596666666666666,0.41214285714285714,-0.02725138134426541,1.9005780220031738,-2.911289828369142,31.46462059020996,0.04409840901692708,-0.05349621242947049
3157,-0.30212435680677624,0.39843757629394533,86.45751953125,88.52378845214844,-2.7843055725097656,87.05081176757812,0.3650392320421007,0.561,0.40535714285714286,-0.027587064107259116,1.5929700136184692,-1.505081790039064,31.28883934020996,-0.022958543565538194,-0.05372352600097656
3158,-0.33337435680677624,0.39843757629394533,80.97477722167969,82.18180847167969,-3.3162155151367188,87.62362670898438,0.3723131815592448,0.5603333333333333,0.4010714285714286,-0.03103544447157118,1.4281799793243408,-2.4279066496582047,31.28883934020996,-0.013411458333333333,-0.06599824693467882
3159,-0.27868685680677624,0.3585938262939453,85.94607543945312,84.1048583984375,-3.9708709716796875,88.31919860839844,0.3609475877549913,0.5633333333333334,0.39357142857142857,-0.026580015818277996,1.2414180040359497,-1.6259294920654312,31.28883934020996,0.020457967122395834,-0.08100077311197916
3160,-0.26306185680677624,0.3585938262939453,87.70545959472656,85.80287170410156,-3.704914093017578,88.21691131591797,0.3670850118001302,0.564,0.38821428571428573,-0.025481414794921876,0.6591600179672241,0.02197200059890747,31.28883934020996,0.02113986545138889,-0.07690917121039496
3161,-0.25524935680677624,0.39843757629394533,87.17355346679688,88.89202880859375,-4.686901092529297,88.74882507324219,0.3682215372721354,0.566,0.38107142857142856,-0.02780067655775282,-0.01098694140625156,0.16479000449180603,31.991960525512695,-0.019094170464409723,-0.09373029073079427
3162,-0.28259310680677624,0.39843757629394533,83.57295227050781,85.5164566040039,-4.502777099609375,88.87156677246094,0.36867616441514756,0.5666666666666667,0.37642857142857145,-0.030699761708577473,-0.07690300280761875,-0.845923083374025,36.91379928588867,-0.021594492594401042,-0.09304826524522569
3163,-0.34118685680677624,0.3585938262939453,85.557373046875,84.92317199707031,-3.2343826293945312,88.36012268066406,0.3682215372721354,0.567,0.37214285714285716,-0.0321950806511773,-0.6481748991699234,-1.4281813078613297,39.550498962402344,0.007046678331163195,-0.07327228122287327
3164,-0.30603060680677624,0.3785157012939453,86.29386138916016,85.18913269042969,-3.3162155151367188,87.84866333007812,0.3673123677571615,0.566,0.3703571428571429,-0.031889915466308594,-1.2194467955322281,-0.6371885710449234,40.69306945800781,0.01227476331922743,-0.06849865383572049
3165,-0.29821810680677624,0.39843757629394533,87.45996856689453,85.18913269042969,-3.66400146484375,87.93049621582031,0.3684488932291667,0.5643333333333334,0.36857142857142855,-0.03369039959377713,-1.2414194517822281,-0.5602861815185562,40.95674133300781,0.025231509738498265,-0.07327219645182291
3166,-0.30603060680677624,0.39843757629394533,84.53446960449219,84.96409606933594,-3.643543243408203,87.95095825195312,0.3691307915581597,0.562,0.36642857142857144,-0.034941577911376955,-1.4721247130126969,-0.6042314940185562,35.50756072998047,-0.004773627387152778,-0.0732722388373481
3167,-0.29040560680677624,0.39843757629394533,85.02546691894531,85.90515899658203,-3.3980445861816406,88.0123291015625,0.36344807942708335,0.56,0.3628571428571429,-0.03332419925265842,-1.6149431639404312,-1.2524038725585953,32.25563049316406,-0.009774356418185763,-0.07122637430826823
3168,-0.26306185680677624,0.41835948944091794,88.6669921875,87.19401550292969,-3.0298004150390625,87.41905212402344,0.36344807942708335,0.557,0.3585714285714286,-0.03344626956515842,-2.153256075927736,-0.4504267149658219,32.07984924316406,0.016366407606336807,-0.06054280598958333
3169,-0.30603060680677624,0.41835948944091794,88.91248321533203,90.46729278564453,-2.497894287109375,87.17355346679688,0.3698127746582031,0.5516666666666666,0.35678571428571426,-0.037108262379964195,-2.4388929777832047,0.9447960257530212,31.816179275512695,-0.01727566189236111,-0.05190497504340278
3170,-0.31384310680677624,0.49804698944091796,80.38150024414062,85.88470458984375,-2.641101837158203,86.78485107421875,0.3764047410753038,0.5486666666666666,0.35428571428571426,-0.04366935094197591,-2.3839632445068375,-0.823950427124025,31.816179275512695,-0.061146714952256945,-0.049177254570855033
3171,-0.32556185680677624,0.438281364440918,81.36347961425781,83.552490234375,-2.6615562438964844,87.23492431640625,0.36185684204101565,0.5443333333333333,0.3525,-0.04226558473375108,-2.2741018706054703,-2.6036821776123062,31.816179275512695,-0.024322340223524305,-0.05440533955891927
3172,-0.30212435680677624,0.39843757629394533,82.9592056274414,84.30943298339844,-2.8456802368164062,87.25538635253906,0.3643572489420573,0.5403333333333333,0.3485714285714286,-0.038237380981445315,-2.6915708952636734,-1.2633902006835953,31.816179275512695,-0.015002526177300347,-0.056678517659505205
3173,-0.28649935680677624,0.3585938262939453,86.76439666748047,86.86668395996094,-3.3775863647460938,87.80775451660156,0.36549385918511285,0.5373333333333333,0.3460714285714286,-0.03439228269788954,-3.3287588530273453,0.29662200808525085,31.816179275512695,-0.0011365254720052083,-0.06872600979275173
3174,-0.27087435680677624,0.33867195129394534,86.41661071777344,88.62606811523438,-3.643543243408203,88.1555404663086,0.36344807942708335,0.5343333333333333,0.3425,-0.03121854994032118,-3.9989038878173844,1.0436700582504272,31.728290557861328,-0.02454952663845486,-0.07554537455240885
3175,-0.28649935680677624,0.3585938262939453,86.90760040283203,85.90515899658203,-4.441402435302734,88.44195556640625,0.3673123677571615,0.5306666666666666,0.34,-0.03262231614854601,-4.603134768554689,-0.17577614123535312,31.816179275512695,0.011138237847222222,-0.08759286668565539
3176,-0.33337435680677624,0.3187500762939453,85.02546691894531,86.23248291015625,-4.073158264160156,88.87156677246094,0.37276780870225695,0.5263333333333333,0.3364285714285714,-0.034117635091145834,-5.350182192871095,0.06591600179672241,31.728290557861328,-0.013411288791232639,-0.08827472262912327
3177,-0.32556185680677624,0.3187500762939453,90.03767395019531,86.86668395996094,-2.9275131225585938,87.78729248046875,0.3643572489420573,0.523,0.3335714285714286,-0.03271386888292101,-6.130188601562502,0.07690200209617615,31.728290557861328,0.035233222113715275,-0.06349784003363715
3178,-0.30603060680677624,0.39843757629394533,84.30943298339844,87.05081176757812,-3.500335693359375,87.05081176757812,0.3745863172743056,0.519,0.33071428571428574,-0.037291367848714195,-5.679762499877931,0.5712720155715942,31.728290557861328,-0.030459764268663196,-0.06167941623263889
3179,-0.30603060680677624,0.45820323944091795,77.4764633178711,78.68348693847656,-2.8865966796875,87.39859008789062,0.37481358846028645,0.514,0.3289285714285714,-0.04351676305135091,-4.592148440429689,-1.3732515745849625,34.101318359375,-0.013411373562282987,-0.058724297417534724
3180,-0.29040560680677624,0.39843757629394533,80.0337142944336,83.20470428466797,-2.866138458251953,87.562255859375,0.36640311347113713,0.5096666666666667,0.325,-0.03875616921318902,-3.559464114257814,-1.0107122832031266,35.8591194152832,-0.035233222113715275,-0.06031549241807726
3181,-0.28259310680677624,0.3585938262939453,86.27340698242188,85.33233642578125,-2.641101837158203,87.35768127441406,0.37004004584418404,0.506,0.32285714285714284,-0.035002613067626955,-3.3177725249023453,1.6259280443191528,37.00168991088867,0.010456339518229166,-0.05554203457302517
3182,-0.28649935680677624,0.3585938262939453,85.557373046875,84.37080383300781,-2.702472686767578,87.0098876953125,0.37026740180121526,0.5013333333333333,0.32107142857142856,-0.03372091717190213,-3.867073672363283,1.7138160467147827,38.320037841796875,0.013184102376302083,-0.05235955980088976
3183,-0.26696810680677624,0.33867195129394534,88.0123291015625,87.70545959472656,-2.641101837158203,87.41905212402344,0.36049296061197916,0.5003333333333333,0.32,-0.029326513078477646,-4.042849200317384,0.7690200209617615,39.550498962402344,0.003409661187065972,-0.05622393290201823
3184,-0.28259310680677624,0.33867195129394534,86.662109375,85.96653747558594,-2.4365196228027344,87.23492431640625,0.3698127746582031,0.496,0.31857142857142856,-0.02920445336235894,-3.526507037231447,0.373524010181427,40.60517883300781,0.00772857666015625,-0.05190493265787761
3185,-0.29431185680677624,0.3585938262939453,87.64408874511719,88.23736572265625,-2.1501083374023438,86.68256378173828,0.37004004584418404,0.49433333333333335,0.31785714285714284,-0.03271386888292101,-3.273829119750978,0.29662200808525085,42.099308013916016,-0.006591966417100695,-0.04258524576822917
3186,-0.30993685680677624,0.39843757629394533,84.80043029785156,84.30943298339844,-2.252399444580078,86.662109375,0.3704946729871962,0.49066666666666664,0.3171428571428571,-0.03781014548407661,-2.559738772460939,-0.812964098999025,43.153987884521484,0.005455525716145834,-0.04349454243977865
3187,-0.29431185680677624,0.41835948944091794,84.20714569091797,83.28652954101562,-2.129650115966797,86.39614868164062,0.3704946729871962,0.48733333333333334,0.31607142857142856,-0.03912236955430773,-2.0214239531250016,-1.4501520567626969,44.29655838012695,0.010229068332248265,-0.03917554219563802
3188,-0.30993685680677624,0.39843757629394533,81.19981384277344,82.14088439941406,-3.1525497436523438,87.6031723022461,0.3725404527452257,0.48433333333333334,0.31535714285714284,-0.039397017161051436,-1.6149431639404312,-0.7909933500976578,44.91178894042969,-0.010456339518229166,-0.0639524671766493
3189,-0.27868685680677624,0.41835948944091794,84.75950622558594,83.73661041259766,-3.8072052001953125,87.74638366699219,0.3652665032280816,0.482,0.31464285714285717,-0.038389968872070315,-2.834389346191408,-0.3405672484130875,44.99967956542969,0.011365509033203125,-0.07281765407986111
3190,-0.27868685680677624,0.41835948944091794,87.97142028808594,84.86180114746094,-3.4389610290527344,87.6031723022461,0.36890352037217883,0.48033333333333333,0.3142857142857143,-0.03860358132256402,-4.130736010620119,1.219446063041687,45.17546081542969,0.03455132378472222,-0.0671348147922092
3191,-0.30603060680677624,0.438281364440918,86.94851684570312,86.88714599609375,-2.7638473510742188,87.31675720214844,0.37208582560221354,0.478,0.31392857142857145,-0.0431810802883572,-4.3834139281005875,1.0986000299453735,44.99967956542969,0.0006818983289930556,-0.05645116170247396
3192,-0.33337435680677624,0.478125114440918,81.9567642211914,83.65477752685547,-2.702472686767578,87.0712661743164,0.37140392727322047,0.474,0.3132142857142857,-0.04940648608737522,-3.834114687988283,-1.0107122832031266,44.12078094482422,-0.01886681450737847,-0.05304154290093316
3193,-0.33337435680677624,0.45820323944091795,82.67279052734375,80.27920532226562,-2.5797271728515625,87.15309143066406,0.36685774061414933,0.4706666666666667,0.31285714285714283,-0.049498028225368924,-3.2957998686523453,-1.8566347532959,43.68132781982422,0.02659539116753472,-0.052586873372395836
3194,-0.31774935680677624,0.438281364440918,86.19157409667969,84.5958480834961,-2.497894287109375,86.96897888183594,0.365948486328125,0.4673333333333333,0.3117857142857143,-0.046507400936550564,-3.207913058349611,0.09887400269508362,43.505550384521484,0.017730289035373263,-0.04963192409939236
3195,-0.32165560680677624,0.438281364440918,86.39614868164062,86.1097412109375,-2.5388107299804688,86.86668395996094,0.36867616441514756,0.46366666666666667,0.3117857142857143,-0.04730083677503798,-3.218899386474611,1.219446063041687,43.76921844482422,0.003182305230034722,-0.048949940999348955
3196,-0.31774935680677624,0.478125114440918,84.73905181884766,84.90271759033203,-2.4160614013671875,86.74394226074219,0.3684488932291667,0.46,0.3117857142857143,-0.049528545803493924,-2.9772058897705094,0.6701459884643555,44.38444900512695,-0.001818508572048611,-0.04622226291232639
3197,-0.32946810680677624,0.45820323944091795,82.0385971069336,83.40928649902344,-2.4365196228027344,86.88714599609375,0.3679942660861545,0.45566666666666666,0.31142857142857144,-0.049742168850368924,-2.6586119108886734,0.14281800389289856,44.38444900512695,-0.015229882134331598,-0.04804072909884983
3198,-0.30603060680677624,0.45820323944091795,83.65477752685547,82.83645629882812,-2.088733673095703,86.559814453125,0.36458460489908856,0.453,0.31035714285714283,-0.04614120059543186,-2.570725100585939,0.3954960107803345,44.56023025512695,0.009092458089192708,-0.04053942362467448
3199,-0.27087435680677624,0.438281364440918,85.1072998046875,84.24806213378906,-2.6820144653320312,86.92805480957031,0.3632207234700521,0.45066666666666666,0.30964285714285716,-0.04003786510891384,-1.8676210814209,1.032684087753296,44.99967956542969,0.009547085232204862,-0.05122299194335937
3200,-0.28259310680677624,0.39843757629394533,85.63920593261719,85.14820861816406,-2.5797271728515625,86.94851684570312,0.36776691012912327,0.44766666666666666,0.30857142857142855,-0.038237380981445315,-1.516068118164064,0.8129640221595764,45.17546081542969,0.005455525716145834,-0.05031382242838542
3201,-0.27868685680677624,0.39843757629394533,85.1072998046875,84.69813537597656,-2.7638473510742188,86.88714599609375,0.3673123677571615,0.44533333333333336,0.3075,-0.036314837137858075,-1.4831110411376969,0.32958000898361206,45.43912887573242,0.004546271430121528,-0.051677703857421875
3202,-0.26306185680677624,0.39843757629394533,86.21202850341797,84.53446960449219,-3.66400146484375,87.80775451660156,0.36776691012912327,0.44233333333333336,0.30714285714285716,-0.03530777825249566,-1.4831110411376969,0.08788800239562988,46.66958999633789,0.01863954332139757,-0.0719083997938368
3203,-0.26696810680677624,0.41835948944091794,81.73172760009766,82.34546661376953,-2.743389129638672,87.0712661743164,0.3682215372721354,0.44,0.30714285714285716,-0.03677257961697049,-2.219172137329103,-0.5822588377685562,47.54848861694336,-0.006819322374131944,-0.053496170043945315
3204,-0.29821810680677624,0.3585938262939453,83.28652954101562,83.79798889160156,-3.357128143310547,87.78729248046875,0.3682215372721354,0.43733333333333335,0.3082142857142857,-0.036223284403483075,-2.4388929777832047,-1.0216986113281266,47.81216049194336,-0.005682881673177083,-0.06827134026421441
3205,-0.29821810680677624,0.3585938262939453,84.96409606933594,84.96409606933594,-1.9250717163085938,86.98943328857422,0.3679942660861545,0.43366666666666664,0.30892857142857144,-0.037138779958089195,-3.4276319914550797,0.6152160167694092,48.427391052246094,0.0,-0.043494500054253475
3206,-0.29040560680677624,0.39843757629394533,84.94363403320312,85.53691101074219,-2.497894287109375,86.21202850341797,0.3682215372721354,0.43033333333333335,0.31142857142857144,-0.03863409890068902,-3.91101707751465,1.1095860004425049,49.13050842285156,-0.006591966417100695,-0.041221364339192705
3207,-0.27087435680677624,0.39843757629394533,83.69569396972656,82.65233612060547,-4.339115142822266,88.17599487304688,0.36640311347113713,0.42766666666666664,0.31357142857142856,-0.037230332692464195,-3.4386183195800797,0.32958000898361206,49.39418029785156,0.011592864990234375,-0.083501222398546
3208,-0.29431185680677624,0.3187500762939453,86.62118530273438,88.54424285888672,-1.4545364379882812,86.90760040283203,0.3643572489420573,0.42533333333333334,0.315,-0.03253076341417101,-4.3944002562255875,1.3732500076293945,47.81216049194336,-0.021367306179470486,-0.03735707600911458
3209,-0.25915560680677624,0.3785157012939453,88.6056137084961,89.62850952148438,-2.252399444580078,86.49844360351562,0.3682215372721354,0.42,0.3157142857142857,-0.03259179857042101,-3.570450442382814,2.2521300315856934,46.318031311035156,-0.011365509033203125,-0.041676033867730035
3210,-0.29431185680677624,0.438281364440918,83.83889770507812,85.14820861816406,-2.7843055725097656,86.90760040283203,0.37390433417426217,0.41633333333333333,0.3157142857142857,-0.039274946848551436,-2.3180471831054703,0.5932440161705017,46.142250061035156,-0.014547899034288195,-0.05213228861490885
3211,-0.31384310680677624,0.438281364440918,82.18180847167969,82.24317932128906,-2.6615562438964844,87.25538635253906,0.3684488932291667,0.41233333333333333,0.315,-0.04147214889526367,-2.1202989989013687,-1.2853628569335953,46.142250061035156,-0.0006818983289930556,-0.05463269551595052
3212,-0.28259310680677624,0.438281364440918,84.96409606933594,82.77508544921875,-2.722930908203125,87.0098876953125,0.36753963894314234,0.4096666666666667,0.3132142857142857,-0.03893926408555773,-1.9335371428222672,-0.4284540587158219,46.142250061035156,0.024322340223524305,-0.052586873372395836
3213,-0.29040560680677624,0.41835948944091794,86.94851684570312,85.94607543945312,-3.275299072265625,87.76683807373047,0.3679942660861545,0.4063333333333333,0.3125,-0.03875616921318902,-1.8346620970459,1.2084600925445557,46.054359436035156,0.011138237847222222,-0.06713485717773438
3214,-0.29040560680677624,0.438281364440918,86.23248291015625,86.21202850341797,-3.132091522216797,87.48042297363281,0.3691307915581597,0.4033333333333333,0.31142857142857144,-0.03976321750217014,-2.526779788085939,1.4611380100250244,46.054359436035156,0.00022727118598090277,-0.06236127217610677
3215,-0.31384310680677624,0.438281364440918,81.91584777832031,84.26852416992188,-3.254840850830078,87.35768127441406,0.3679942660861545,0.39966666666666667,0.31142857142857144,-0.04122801886664496,-2.790444033691408,0.6811320185661316,46.58169937133789,-0.026140848795572918,-0.062361356947157116
3216,-0.31774935680677624,0.3785157012939453,81.71127319335938,83.02058410644531,-2.354686737060547,88.05325317382812,0.3636753506130642,0.39766666666666667,0.3117857142857143,-0.03683361477322049,-3.1200243406982437,-0.5602861815185562,46.66958999633789,-0.014547899034288195,-0.06008822123209635
3217,-0.29431185680677624,0.3585938262939453,85.84378051757812,82.79554748535156,-2.7843055725097656,87.27584838867188,0.3652665032280816,0.394,0.3117857142857143,-0.03353781170315213,-4.075806277343752,0.19774800539016724,46.933258056640625,0.03386925591362847,-0.05622393290201823
3218,-0.30993685680677624,0.3585938262939453,89.0147705078125,87.6031723022461,-2.722930908203125,87.15309143066406,0.36890352037217883,0.39066666666666666,0.31392857142857145,-0.03433124754163954,-4.196652072021486,1.4391660690307617,47.54848861694336,0.015684424506293402,-0.0541780259874132
3219,-0.35290560680677624,0.3785157012939453,82.28408813476562,86.08927917480469,-2.313770294189453,87.29630279541016,0.3716311984592014,0.387,0.31535714285714284,-0.04000734753078884,-3.88904442126465,0.8678940534591675,47.72426986694336,-0.04227990044487847,-0.051223034328884545
3220,-0.34509310680677624,0.39843757629394533,80.62699890136719,81.81356048583984,-2.497894287109375,86.74394226074219,0.36685774061414933,0.384,0.3167857142857143,-0.04000734753078884,-3.92200340563965,-0.8678938322753922,47.109039306640625,-0.013184017605251737,-0.047131517198350695
3221,-0.30603060680677624,0.3785157012939453,82.52958679199219,82.36592102050781,-1.945526123046875,86.74394226074219,0.36572113037109377,0.37966666666666665,0.3175,-0.03539933098687066,-2.9772058897705094,-0.2526785307617203,46.84537124633789,0.001818508572048611,-0.04099409315321181
3222,-0.29040560680677624,0.3585938262939453,88.0123291015625,85.78240966796875,-3.500335693359375,87.80775451660156,0.3673123677571615,0.376,0.3182142857142857,-0.0321035279168023,-2.504809039184572,1.647900104522705,46.66958999633789,0.024776882595486112,-0.0700898912217882
3223,-0.32556185680677624,0.3785157012939453,80.15646362304688,87.76683807373047,-2.1501083374023438,86.86668395996094,0.37026740180121526,0.37133333333333335,0.31857142857142856,-0.035979143778483075,-2.7684732847900406,1.8676199913024902,46.933258056640625,-0.0845597161187066,-0.04463102552625868
3224,-0.30212435680677624,0.39843757629394533,81.67034912109375,83.92073059082031,-3.3366737365722656,88.0123291015625,0.365948486328125,0.368,0.31857142857142856,-0.03546036614312066,-2.955235140869142,-0.7690206938476578,46.933258056640625,-0.02500423855251736,-0.07054447597927517
3225,-0.30603060680677624,0.29882820129394533,84.94363403320312,81.547607421875,-2.9888877868652344,87.48042297363281,0.3611749437120226,0.36633333333333334,0.31857142857142856,-0.02734293407864041,-3.2957998686523453,-0.49437012011718906,47.109039306640625,0.03773362901475694,-0.06077011956108941
3226,-0.27868685680677624,0.25898443222045897,87.25538635253906,87.13264465332031,-2.7638473510742188,87.09172058105469,0.36572113037109377,0.363,0.3192857142857143,-0.0216973516676161,-3.515520709106447,1.3512780666351318,47.109039306640625,0.0013637966579861111,-0.05395075480143229
3227,-0.28259310680677624,0.25898443222045897,80.93386840820312,81.30210876464844,-2.7638473510742188,86.78485107421875,0.36753963894314234,0.359,0.32071428571428573,-0.020934433407253688,-3.537493365356447,0.6262019872665405,46.933258056640625,-0.004091559516059028,-0.05054109361436632
3228,-0.26696810680677624,0.25898443222045897,81.24073791503906,84.26852416992188,-2.252399444580078,87.21446990966797,0.36640311347113713,0.3556666666666667,0.32321428571428573,-0.019164466857910158,-3.4386183195800797,-0.3076082640380875,48.251609802246094,-0.03364206949869792,-0.04963188171386719
3229,-0.27478060680677624,0.219140682220459,86.6007308959961,85.16867065429688,-3.1934661865234375,86.78485107421875,0.3673123677571615,0.352,0.3246428571428571,-0.017089335123697917,-3.6912962370605484,0.5822579860687256,48.339500427246094,0.015911780463324653,-0.05531463623046875
3230,-0.31774935680677624,0.219140682220459,84.5958480834961,86.15065002441406,-2.7638473510742188,87.25538635253906,0.3698127746582031,0.34933333333333333,0.3271428571428571,-0.019194984436035158,-3.4605909758300797,1.1974740028381348,48.339500427246094,-0.017275577121310764,-0.055769263373480905
3231,-0.30603060680677624,0.2789063262939453,87.31675720214844,87.62362670898438,-3.3980445861816406,87.76683807373047,0.3704946729871962,0.3443333333333333,0.3292857142857143,-0.023375765482584635,-3.207913058349611,1.1645159721374512,48.69105911254883,-0.003409661187065972,-0.06849869622124566
3232,-0.34899935680677624,0.29882820129394533,82.93875122070312,84.0434799194336,-3.479877471923828,88.1146240234375,0.3711766560872396,0.3403333333333333,0.3314285714285714,-0.027587064107259116,-4.020876544067384,0.17577600479125977,48.69105911254883,-0.01227476331922743,-0.0732722388373481
3233,-0.31384310680677624,0.3187500762939453,84.32989501953125,81.17935943603516,-2.9888877868652344,88.03279113769531,0.3673123677571615,0.338,0.33214285714285713,-0.02633588578965929,-4.965672152587892,-0.812964098999025,48.251609802246094,0.035005950927734376,-0.0669075436062283
3234,-0.29821810680677624,0.29882820129394533,86.64164733886719,85.06637573242188,-3.479877471923828,87.86912536621094,0.36776691012912327,0.33466666666666667,0.33321428571428574,-0.024291261037190755,-4.767923968383791,0.8459219932556152,46.84537124633789,0.01750301784939236,-0.07054447597927517
3235,-0.30993685680677624,0.3585938262939453,86.82576751708984,86.662109375,-2.5592689514160156,86.96897888183594,0.37208582560221354,0.33,0.3325,-0.02917393578423394,-4.504261630126955,1.5050820112228394,44.82389831542969,0.0018184238009982638,-0.05031386481391059
3236,-0.29821810680677624,0.41835948944091794,83.75706481933594,86.88714599609375,-3.1934661865234375,87.48042297363281,0.37072202894422746,0.32566666666666666,0.3314285714285714,-0.03356832928127713,-3.218899386474611,0.2197200059890747,43.68132781982422,-0.03477867974175347,-0.063043212890625
3237,-0.29431185680677624,0.41835948944091794,81.15890502929688,82.36592102050781,-3.1934661865234375,87.80775451660156,0.36685774061414933,0.32133333333333336,0.3292857142857143,-0.03350729412502713,-2.219172137329103,-1.6918455534667984,42.275089263916016,-0.013411288791232639,-0.06668023003472222
3238,-0.29431185680677624,0.39843757629394533,82.550048828125,83.28652954101562,-3.0707168579101562,87.21446990966797,0.3682215372721354,0.31733333333333336,0.3246428571428571,-0.033965047200520834,-2.0653692656250016,-1.4501520567626969,41.39619064331055,-0.008183119032118056,-0.058724297417534724
3239,-0.28259310680677624,0.41835948944091794,87.41905212402344,86.41661071777344,-3.643543243408203,87.86912536621094,0.3679942660861545,0.315,0.3221428571428571,-0.035124683380126955,-2.0873400145263687,-0.18676246936035312,41.39619064331055,0.011138237847222222,-0.07236298455132378
3240,-0.30212435680677624,0.41835948944091794,89.81263732910156,86.98943328857422,-3.4594192504882812,88.13508605957031,0.3679942660861545,0.31166666666666665,0.31857142857142856,-0.0375660154554579,-2.504809039184572,0.4394400119781494,41.39619064331055,0.03136893378363715,-0.07327228122287327
3241,-0.33337435680677624,0.39843757629394533,81.547607421875,80.62699890136719,-2.702472686767578,87.27584838867188,0.3679942660861545,0.30766666666666664,0.3167857142857143,-0.0377186033460829,-3.1200243406982437,-0.9008528166503922,42.97821044921875,0.010228983561197917,-0.05531467861599392
3242,-0.31774935680677624,0.29882820129394533,89.52622985839844,82.07951354980469,-2.2933120727539062,86.49844360351562,0.3568560282389323,0.30666666666666664,0.3157142857142857,-0.029295995500352646,-3.3287588530273453,-0.4284540587158219,43.76921844482422,0.08274129231770834,-0.04213061862521701
3243,-0.31384310680677624,0.2789063262939453,93.49507141113281,89.03523254394531,-2.3956031799316406,86.08927917480469,0.365948486328125,0.3016666666666667,0.31607142857142856,-0.024779531690809462,-2.3510042601318375,2.5597381591796875,45.70280075073242,0.049553765190972224,-0.03872091505262587
3244,-0.33728060680677624,0.33867195129394534,90.32408142089844,89.58760070800781,-3.3980445861816406,86.90760040283203,0.37549557156032987,0.30033333333333334,0.3175,-0.03143216239081489,-1.9225508146972672,2.1752281188964844,47.72426986694336,0.008183119032118056,-0.058951610989040795
3245,-0.37634310680677624,0.3785157012939453,82.85691833496094,85.06637573242188,-2.5388107299804688,87.84866333007812,0.37004004584418404,0.296,0.31892857142857145,-0.03567397859361437,-2.5926958494873062,-1.505081790039064,48.251609802246094,-0.02454952663845486,-0.05986082288953993
3246,-0.36071810680677624,0.3585938262939453,79.0312728881836,82.9592056274414,-2.8865966796875,86.80531311035156,0.3684488932291667,0.29233333333333333,0.32,-0.03579604890611437,-3.0650946074218766,-2.6366411619873062,48.339500427246094,-0.04364369710286458,-0.052132331000434025
3247,-0.29821810680677624,0.39843757629394533,80.50424194335938,83.12287139892578,-2.6001853942871094,87.13264465332031,0.3691307915581597,0.29,0.32107142857142856,-0.03558243645562066,-3.3727022581787125,-2.0983263426513687,48.339500427246094,-0.029095882839626736,-0.052587000528971355
3248,-0.27868685680677624,0.3785157012939453,84.37080383300781,85.31187438964844,-4.216365814208984,87.25538635253906,0.36685774061414933,0.2856666666666667,0.32107142857142856,-0.033842976888020834,-3.0760809355468766,-0.3735243254394547,48.339500427246094,-0.010456339518229166,-0.07190835740831163
3249,-0.29431185680677624,0.3785157012939453,84.6572265625,82.91828918457031,-3.3366737365722656,88.48286437988281,0.3684488932291667,0.2823333333333333,0.32107142857142856,-0.03466693030463325,-2.9881922178955094,-0.02197326953125156,46.66958999633789,0.01932152642144097,-0.07577264573838975
3250,-0.29431185680677624,0.3585938262939453,84.71859741210938,83.94119262695312,-2.722930908203125,87.23492431640625,0.3691307915581597,0.2786666666666667,0.3196428571428571,-0.03469744788275825,-3.526507037231447,-0.2416922026367203,45.17546081542969,0.008637830946180555,-0.0550872802734375
3251,-0.29431185680677624,0.33867195129394534,83.96165466308594,84.06393432617188,-3.254840850830078,87.62362670898438,0.36776691012912327,0.276,0.3192857142857143,-0.03362936443752713,-3.1419969969482437,-0.06591667468261875,44.03289031982422,-0.001136440700954861,-0.06531630622016059
3252,-0.27868685680677624,0.3585938262939453,85.5164566040039,84.47309875488281,-3.275299072265625,87.37813568115234,0.36663038465711806,0.2723333333333333,0.3182142857142857,-0.0323476685418023,-3.0101648741455094,0.516342043876648,43.68132781982422,0.011592864990234375,-0.0628159417046441
3253,-0.28259310680677624,0.3585938262939453,86.70301818847656,86.37569427490234,-2.907054901123047,87.31675720214844,0.3682215372721354,0.2683333333333333,0.3182142857142857,-0.032866446177164714,-3.229883807250978,1.0546560287475586,43.505550384521484,0.003636932373046875,-0.058042356703016496
3254,-0.29431185680677624,0.3785157012939453,83.69569396972656,84.88226318359375,-2.722930908203125,86.94851684570312,0.3695854187011719,0.265,0.3175,-0.03637586169772678,-3.3507315092773453,0.12084600329399109,43.68132781982422,-0.013184102376302083,-0.05190497504340278
3255,-0.31384310680677624,0.39843757629394533,84.16622924804688,82.42729949951172,-3.1934661865234375,87.72592163085938,0.3691307915581597,0.26066666666666666,0.3175,-0.039335982004801436,-3.229883807250978,-0.856909411499025,44.38444900512695,0.019321441650390625,-0.06577097574869792
3256,-0.30993685680677624,0.3785157012939453,85.49600219726562,82.550048828125,-2.8456802368164062,87.13264465332031,0.3670850118001302,0.259,0.3167857142857143,-0.03790169821845161,-3.6253801756591812,-0.7140909605712906,44.38444900512695,0.03273281521267361,-0.055314721001519095
3257,-0.29431185680677624,0.33867195129394534,83.12287139892578,84.92317199707031,-3.5821685791015625,87.48042297363281,0.3650392320421007,0.25533333333333336,0.31642857142857145,-0.033904012044270834,-3.284815447875978,0.4064820110797882,44.38444900512695,-0.02000333997938368,-0.06736212836371527
3258,-0.29040560680677624,0.33867195129394534,83.18424987792969,82.79554748535156,-2.3956031799316406,86.86668395996094,0.3682215372721354,0.252,0.31642857142857145,-0.033842976888020834,-3.0431219511718766,0.45042601227760315,44.38444900512695,0.0043189154730902775,-0.04735874599880642
3259,-0.27087435680677624,0.33867195129394534,89.62850952148438,85.76194763183594,-3.2343826293945312,87.45996856689453,0.3661757575141059,0.248,0.3167857142857143,-0.03146267996893989,-2.6476274901123062,1.340291976928711,45.79069137573242,0.042961798773871525,-0.06327056884765625
3260,-0.27868685680677624,0.33867195129394534,93.20866394042969,91.10148620605469,-2.497894287109375,87.13264465332031,0.36753963894314234,0.245,0.3171428571428571,-0.030516666836208767,-3.2957998686523453,3.0980520248413086,46.054359436035156,0.0234130859375,-0.05145043267144097
3261,-0.32556185680677624,0.3585938262939453,87.21446990966797,84.43218231201172,-2.6206436157226562,87.23492431640625,0.36890352037217883,0.24133333333333334,0.3171428571428571,-0.03274438646104601,-3.207913058349611,1.263390064239502,46.054359436035156,0.030914306640625,-0.05395075480143229
3262,-0.32165560680677624,0.3585938262939453,79.9927978515625,81.87493133544922,-2.4569778442382812,86.92805480957031,0.36776691012912327,0.237,0.3175,-0.03356832928127713,-2.7465006285400406,-1.516068118164064,45.79069137573242,-0.020912594265407987,-0.04872258504231771
3263,-0.30603060680677624,0.29882820129394533,84.1048583984375,83.22515869140625,-2.9479713439941406,87.17355346679688,0.3632207234700521,0.234,0.3171428571428571,-0.027678616841634116,-2.153256075927736,-0.823950427124025,45.70280075073242,0.009774441189236111,-0.056905831231011283
3264,-0.32556185680677624,0.25898443222045897,88.74882507324219,87.5213394165039,-2.088733673095703,86.559814453125,0.36753963894314234,0.23066666666666666,0.31785714285714284,-0.02508469687567817,-2.3070608549804703,1.4171940088272095,47.109039306640625,0.013638729519314236,-0.04053942362467448
3265,-0.37243685680677624,0.25898443222045897,88.38057708740234,89.05569458007812,-1.8841552734375,86.74394226074219,0.3679942660861545,0.227,0.31892857142857145,-0.02615278032090929,-2.0433966093750016,2.186213970184326,48.339500427246094,-0.007501305474175347,-0.04031219482421875
3266,-0.39978060680677624,0.25898443222045897,83.53202819824219,82.81600189208984,-2.5388107299804688,86.37569427490234,0.36753963894314234,0.223,0.3217857142857143,-0.02612226274278429,-1.9115644865722672,-0.03295769030761875,50.36096954345703,0.007955847846137152,-0.043494500054253475
3267,-0.30993685680677624,0.239062557220459,84.30943298339844,83.0001220703125,-3.5617103576660156,87.6031723022461,0.3636753506130642,0.22066666666666668,0.32357142857142857,-0.020720810360378688,-1.7248026304931656,-0.06591667468261875,52.030879974365234,0.014547899034288195,-0.06849869622124566
3268,-0.37243685680677624,0.19921878814697266,86.90760040283203,85.68012237548828,-3.091175079345703,87.6031723022461,0.3679942660861545,0.21733333333333332,0.3271428571428571,-0.01968324449327257,-2.6366411619873062,1.0766279697418213,53.2613410949707,0.013638644748263888,-0.06327052646213108
3269,-0.39978060680677624,0.219140682220459,89.23981475830078,86.53935241699219,-2.8252220153808594,87.31675720214844,0.3682215372721354,0.214,0.3296428571428571,-0.021392186482747395,-3.87805809313965,1.581984043121338,53.43711853027344,0.030005137125651043,-0.05713310241699219
3270,-0.43103060680677624,0.219140682220459,85.70057678222656,84.94363403320312,-3.295757293701172,86.70301818847656,0.3682215372721354,0.21033333333333334,0.3339285714285714,-0.02282645967271593,-4.064819949218752,0.5822579860687256,53.43711853027344,0.008410474989149305,-0.05554194980197483
3271,-0.38415560680677624,0.239062557220459,83.0410385131836,84.80043029785156,-3.745830535888672,88.13508605957031,0.3679942660861545,0.20733333333333334,0.3364285714285714,-0.023467318216959635,-3.6912962370605484,-0.3845106535644547,52.55821990966797,-0.019548797607421876,-0.07645462883843315
3272,-0.39978060680677624,0.239062557220459,83.42974090576172,82.32501220703125,-2.6820144653320312,87.19401550292969,0.3682215372721354,0.20233333333333334,0.3389285714285714,-0.024718496534559462,-4.240597384521486,-1.0876146727294937,50.27307891845703,0.01227476331922743,-0.054178110758463544
3273,-0.43103060680677624,0.239062557220459,84.67768096923828,84.0025634765625,-3.8890380859375,87.97142028808594,0.3684488932291667,0.19933333333333333,0.34,-0.026824145846896703,-4.185667651245119,0.06591600179672241,48.339500427246094,0.007501305474175347,-0.07622731526692708
3274,-0.32556185680677624,0.33867195129394534,83.79798889160156,84.02302551269531,-3.9299545288085938,87.21446990966797,0.3684488932291667,0.19366666666666665,0.3414285714285714,-0.03015046649509006,-4.603134768554689,0.6591600179672241,47.987937927246094,-0.0025004069010416668,-0.06827138264973959
3275,-0.36071810680677624,0.3187500762939453,84.53446960449219,84.80043029785156,-0.042934417724609375,88.40103149414062,0.36685774061414933,0.19266666666666668,0.3417857142857143,-0.030364078945583767,-5.196379321166994,0.5273280143737793,47.987937927246094,-0.0029551188151041665,-0.038266287909613714
3276,-0.36853060680677624,0.29882820129394533,83.96165466308594,83.61386108398438,-4.871021270751953,87.09172058105469,0.3673123677571615,0.187,0.3417857142857143,-0.029906336466471353,-3.7791849547119156,0.9118380546569824,47.81216049194336,0.0038643731011284723,-0.07736379835340712
3277,-0.37243685680677624,0.3585938262939453,84.18669128417969,83.67523193359375,-3.295757293701172,87.43951416015625,0.37595011393229166,0.182,0.3414285714285714,-0.03356832928127713,-3.196926730224611,2.3180460929870605,47.72426986694336,0.005682881673177083,-0.06372523837619358
3278,-0.39196810680677624,0.33867195129394534,93.35186767578125,84.90271759033203,-2.7843055725097656,87.0712661743164,0.3661757575141059,0.17833333333333334,0.3410714285714286,-0.030577701992458767,-3.845101016113283,4.0977783203125,47.72426986694336,0.09387944539388021,-0.053950797186957465
3279,-0.39587435680677624,0.33867195129394534,84.96409606933594,85.0050048828125,-2.722930908203125,86.84622192382812,0.37072202894422746,0.17533333333333334,0.3414285714285714,-0.02719034618801541,-3.284815447875978,3.537492036819458,47.72426986694336,-0.00045454237196180554,-0.05076836480034722
3280,-0.39978060680677624,0.3187500762939453,85.18913269042969,85.1072998046875,-3.091175079345703,87.27584838867188,0.3691307915581597,0.17166666666666666,0.3417857142857143,-0.022460269927978515,-2.482836382934572,2.515794038772583,47.72426986694336,0.0009092542860243056,-0.0596335940890842
3281,-0.35290560680677624,0.3187500762939453,88.6056137084961,84.98455047607422,-3.909496307373047,87.95095825195312,0.365948486328125,0.16933333333333334,0.3410714285714286,-0.01879826651679145,-2.933262484619142,2.2301580905914307,47.72426986694336,0.04023403591579861,-0.07622727288140191
3282,-0.34509310680677624,0.33867195129394534,86.72348022460938,86.53935241699219,-3.909496307373047,88.03279113769531,0.37072202894422746,0.16533333333333333,0.34035714285714286,-0.01779121822781033,-3.515520709106447,1.2963480949401855,47.72426986694336,0.002045864529079861,-0.07713652716742622
3283,-0.37634310680677624,0.25898443222045897,84.86180114746094,84.88226318359375,-3.254840850830078,87.68500518798828,0.3636753506130642,0.163,0.3392857142857143,-0.011169099807739257,-3.867073672363283,-1.0546575957031266,47.72426986694336,-0.00022735595703125,-0.06599828932020399
3284,-0.29040560680677624,0.19921878814697266,84.77996826171875,84.39126586914062,-3.132091522216797,87.562255859375,0.360038333468967,0.16233333333333333,0.3389285714285714,-0.003600962956746419,-3.3946749144287125,-2.4388929777832047,47.72426986694336,0.0043189154730902775,-0.06327052646213108
3285,-0.25524935680677624,0.17929691314697266,85.02546691894531,84.61630249023438,-3.091175079345703,87.13264465332031,0.3661757575141059,0.159,0.3385714285714286,-0.0017394489712185329,-3.196926730224611,-1.3842359953613297,47.72426986694336,0.004546271430121528,-0.05804244147406684
3286,-0.27868685680677624,0.19921878814697266,88.36012268066406,89.05569458007812,-3.2343826293945312,88.05325317382812,0.37208582560221354,0.156,0.33785714285714286,-0.005065764321221245,-3.7352415495605484,-0.3405672484130875,47.54848861694336,-0.00772857666015625,-0.06986262003580729
3287,-0.26696810680677624,0.239062557220459,94.35430908203125,92.81996154785156,-3.6026268005371094,87.64408874511719,0.37140392727322047,0.15366666666666667,0.33785714285714286,-0.009246545367770725,-4.3834139281005875,-1.6808592253417984,47.54848861694336,0.017048305935329862,-0.06940795050726997
3288,-0.31774935680677624,0.19921878814697266,84.57539367675781,84.86180114746094,-2.6820144653320312,87.19401550292969,0.36572113037109377,0.15,0.3375,-0.010314628813001844,-4.174681323120119,-6.580614703247072,47.54848861694336,-0.003182305230034722,-0.054178110758463544
3289,-0.35290560680677624,0.17929691314697266,84.1048583984375,83.79798889160156,-2.9684295654296875,87.0712661743164,0.36572113037109377,0.14833333333333334,0.33714285714285713,-0.015716081195407443,-3.3177725249023453,-6.042299883911134,47.54848861694336,0.003409661187065972,-0.05599661933051215
3290,-0.34118685680677624,0.219140682220459,78.56073760986328,79.72684478759766,-3.2139244079589844,87.66455078125,0.3711766560872396,0.144,0.3367857142857143,-0.02392506069607205,-3.0870672636718766,-4.811869280883791,47.54848861694336,-0.012956746419270833,-0.06531639099121093
3291,-0.38415560680677624,0.219140682220459,84.37080383300781,84.47309875488281,-3.11163330078125,86.98943328857422,0.3718585544162326,0.141,0.3360714285714286,-0.02917393578423394,-3.3836885863037125,-0.9997259550781266,47.54848861694336,-0.0011366102430555556,-0.056678517659505205
3292,-0.32165560680677624,0.2789063262939453,84.1048583984375,83.77752685546875,-5.627967834472656,90.52867126464844,0.3741316901312934,0.13766666666666666,0.3360714285714286,-0.03155423270331489,-3.7242552214355484,0.373524010181427,47.54848861694336,0.003637017144097222,-0.12396265665690104
3293,-0.33337435680677624,0.2789063262939453,83.552490234375,83.63432312011719,-2.6001853942871094,87.562255859375,0.36753963894314234,0.13466666666666666,0.33535714285714285,-0.03256128099229601,-6.031315463134767,0.8129640221595764,47.54848861694336,-0.0009092542860243056,-0.05736045837402344
3294,-0.32556185680677624,0.33867195129394534,84.39126586914062,83.92073059082031,-3.0707168579101562,87.09172058105469,0.3752682156032986,0.12966666666666668,0.3364285714285714,-0.03579604890611437,-5.075533526489259,1.7467740774154663,47.54848861694336,0.005228169759114583,-0.05736041598849827
3295,-0.33337435680677624,0.33867195129394534,84.57539367675781,84.22760009765625,-3.704914093017578,87.78729248046875,0.37026740180121526,0.12433333333333334,0.3367857142857143,-0.03549088372124566,-4.185667651245119,1.6808580160140991,47.54848861694336,0.0038643731011284723,-0.07213562859429254
3296,-0.33337435680677624,0.3187500762939453,87.17355346679688,86.33477783203125,-3.11163330078125,86.90760040283203,0.36481187608506943,0.12066666666666667,0.3364285714285714,-0.03246972825792101,-4.042849200317384,1.5600121021270752,47.54848861694336,0.009319729275173612,-0.055769263373480905
3297,-0.32946810680677624,0.29882820129394533,85.455078125,85.02546691894531,-4.523235321044922,88.97386169433594,0.36663038465711806,0.117,0.3357142857142857,-0.03018098407321506,-3.3507315092773453,0.8349360227584839,47.46059799194336,0.004773457845052083,-0.09441218905978732
3298,-0.34899935680677624,0.25898443222045897,84.26852416992188,84.82088470458984,-2.497894287109375,88.23736572265625,0.3650392320421007,0.112,0.335,-0.02709879345364041,-4.614121096679689,-0.48338379199218906,47.54848861694336,-0.006137339274088541,-0.06372511121961806
3299,-0.32556185680677624,0.2789063262939453,83.53202819824219,83.06149291992188,-2.907054901123047,86.92805480957031,0.36458460489908856,0.10866666666666666,0.335,-0.02795326444837782,-4.910742419311525,-0.5383154326171891,47.196929931640625,0.005228169759114583,-0.053723441229926214
3300,-0.29821810680677624,0.33867195129394534,85.70057678222656,83.16378784179688,-4.830104827880859,87.1121826171875,0.3729950798882378,0.105,0.33464285714285713,-0.03149319754706489,-3.6912962370605484,0.3185940086841583,47.109039306640625,0.028186543782552084,-0.07713652716742622
3301,-0.33337435680677624,0.29882820129394533,83.98210144042969,83.75706481933594,-3.0502586364746094,87.45996856689453,0.3723131815592448,0.10066666666666667,0.3339285714285714,-0.029723230997721353,-3.7901712828369156,0.5053560137748718,47.109039306640625,0.0025004069010416668,-0.061224746704101565
3302,-0.36462435680677624,0.2789063262939453,84.02302551269531,83.85935974121094,-3.132091522216797,87.54179382324219,0.3695854187011719,0.09766666666666667,0.33285714285714285,-0.030577701992458767,-3.932987826416017,0.373524010181427,47.109039306640625,0.001818508572048611,-0.06304317050509983
3303,-0.39978060680677624,0.3187500762939453,86.68256378173828,83.73661041259766,-4.216365814208984,88.87156677246094,0.3750409444173177,0.09366666666666666,0.3325,-0.03643689685397678,-3.7132688933105484,1.3952220678329468,47.109039306640625,0.03273281521267361,-0.0898659176296658
3304,-0.42321810680677624,0.3187500762939453,85.76194763183594,85.65966796875,-3.2343826293945312,87.5213394165039,0.37390433417426217,0.08933333333333333,0.3314285714285714,-0.03692516750759549,-4.471302645751955,0.8239500522613525,47.109039306640625,0.001136440700954861,-0.0639524671766493
3305,-0.40759310680677624,0.2789063262939453,84.77996826171875,84.5140151977539,-3.1934661865234375,87.68500518798828,0.3598110622829861,0.08466666666666667,0.3317857142857143,-0.030638726552327473,-4.943701403686525,-0.7031046324462906,47.109039306640625,0.0029550340440538192,-0.06531634860568576
3306,-0.45837435680677624,0.239062557220459,81.46577453613281,81.24073791503906,-1.7000312805175781,85.70057678222656,0.3643572489420573,0.08033333333333334,0.3325,-0.028838253021240233,-5.196379321166994,-2.471850054809572,47.109039306640625,0.0025004069010416668,-0.02667342291937934
3307,-0.35681185680677624,0.239062557220459,81.46577453613281,80.38150024414062,-2.0273590087890625,86.47798156738281,0.3616295708550347,0.07566666666666666,0.3335714285714286,-0.02795326444837782,-4.306513445922853,-1.8895918303222672,47.109039306640625,0.012047492133246528,-0.03894822862413194
3308,-0.39587435680677624,0.219140682220459,85.25050354003906,85.02546691894531,-2.7638473510742188,86.94851684570312,0.3732224358452691,0.07066666666666667,0.3342857142857143,-0.02905186547173394,-3.932987826416017,0.8898659944534302,47.109039306640625,0.0025004069010416668,-0.05235960218641493
3309,-0.40759310680677624,0.239062557220459,83.92073059082031,83.47065734863281,-2.641101837158203,86.80531311035156,0.36867616441514756,0.066,0.33464285714285713,-0.029631678263346353,-4.119751589843752,1.9005780220031738,47.109039306640625,0.0050008138020833336,-0.049404610527886285
3310,-0.47009310680677624,0.219140682220459,86.88714599609375,85.57783508300781,-1.5159111022949219,86.29386138916016,0.3723131815592448,0.062,0.3360714285714286,-0.02783119413587782,-4.086792605468752,2.8014299869537354,47.109039306640625,0.014547899034288195,-0.03121969434950087
3311,-0.47009310680677624,0.19921878814697266,85.5982894897461,86.21202850341797,-2.1705665588378906,87.13264465332031,0.3670850118001302,0.057,0.3367857142857143,-0.02392506069607205,-3.570450442382814,2.427906036376953,47.109039306640625,-0.006819322374131944,-0.04781345791286892
3312,-0.38415560680677624,0.19921878814697266,86.15065002441406,87.64408874511719,-2.7638473510742188,86.33477783203125,0.36481187608506943,0.05366666666666667,0.3375,-0.018523618910047744,-3.3287588530273453,1.6149420738220215,47.109039306640625,-0.016593763563368055,-0.04554027981228299
3313,-0.41149935680677624,0.17929691314697266,91.38790130615234,85.53691101074219,-2.9888877868652344,87.33721923828125,0.3684488932291667,0.05,0.3375,-0.01657054689195421,-3.1200243406982437,1.3183200359344482,47.109039306640625,0.06501100328233507,-0.05917896694607205
3314,-0.39978060680677624,0.19921878814697266,85.12775421142578,85.57783508300781,-2.702472686767578,86.82576751708984,0.37140392727322047,0.04633333333333333,0.33785714285714286,-0.01776070064968533,-3.273829119750978,0.02197200059890747,47.109039306640625,-0.00500089857313368,-0.050313780042860246
3315,-0.39587435680677624,0.19921878814697266,84.37080383300781,83.90027618408203,-2.702472686767578,87.64408874511719,0.3698127746582031,0.042666666666666665,0.33785714285714286,-0.019347561730278864,-3.0321375303955094,-0.6811319761962906,47.109039306640625,0.005228084988064236,-0.05940623813205295
3316,-0.32946810680677624,0.219140682220459,88.70790100097656,85.27096557617188,-1.945526123046875,87.64408874511719,0.3684488932291667,0.03766666666666667,0.33714285714285713,-0.01873723136054145,-3.1419969969482437,-0.4284540587158219,47.109039306640625,0.03818817138671875,-0.050995720757378474
3317,-0.40759310680677624,0.219140682220459,83.24562072753906,82.9592056274414,-3.9504127502441406,87.88958740234375,0.3716311984592014,0.036,0.3367857142857143,-0.02270439995659722,-3.1310106688232437,-1.3622652464599625,47.109039306640625,0.0031823900010850693,-0.07600000169542101
3318,-0.23962435680677624,0.2789063262939453,78.27432250976562,77.96745300292969,-3.0093421936035156,87.33721923828125,0.362538825141059,0.034,0.3357142857142857,-0.020263067881266274,-4.141722338745119,-3.0321375303955094,47.109039306640625,0.003409661187065972,-0.05940623813205295
3319,-0.36462435680677624,0.17929691314697266,87.21446990966797,87.50088500976562,-4.073158264160156,87.86912536621094,0.3661757575141059,0.032,0.33535714285714285,-0.02041564517550998,-3.7462259703369156,0.9228240251541138,47.109039306640625,-0.0031823900010850693,-0.07713648478190104
3320,-0.31384310680677624,0.2789063262939453,87.562255859375,88.38057708740234,-4.154991149902344,89.68988800048828,0.3750409444173177,0.028,0.335,-0.02612226274278429,-3.570450442382814,2.834388017654419,46.933258056640625,-0.009092458089192708,-0.09827643500434027
3321,-0.29431185680677624,0.33867195129394534,87.23492431640625,87.50088500976562,-3.1525497436523438,87.54179382324219,0.37344970703125,0.025,0.3335714285714286,-0.02780067655775282,-4.581162112304689,1.8895920515060425,41.22040939331055,-0.0029551188151041665,-0.0632704840766059
3322,-0.32556185680677624,0.3187500762939453,88.05325317382812,87.95095825195312,-3.8072052001953125,88.23736572265625,0.36753963894314234,0.022,0.3325,-0.02789222929212782,-3.943974154541017,0.17577600479125977,40.95674133300781,0.0011366102430555556,-0.07827301025390625
3323,-0.37243685680677624,0.3187500762939453,85.70057678222656,87.5213394165039,-4.154991149902344,88.09416198730469,0.3684488932291667,0.017666666666666667,0.33,-0.029631678263346353,-2.7135435515136734,-1.3512789183349625,40.95674133300781,-0.02023069593641493,-0.08054614596896702
3324,-0.41931185680677624,0.3187500762939453,77.31279754638672,78.82669067382812,-1.945526123046875,86.96897888183594,0.3695854187011719,0.015,0.325,-0.03591811921861437,-2.570725100585939,-3.3617159300537125,41.13251876831055,-0.01682103474934896,-0.043494500054253475
3325,-0.46618685680677624,0.29882820129394533,90.20133972167969,84.75950622558594,-1.3113288879394531,85.92561340332031,0.3684488932291667,0.011333333333333334,0.3217857142857143,-0.03845099343193902,-2.1202989989013687,-1.0107122832031266,41.13251876831055,0.06046481662326389,-0.02485491434733073
3326,-0.40759310680677624,0.2789063262939453,84.0434799194336,83.30699157714844,-0.4725532531738281,86.559814453125,0.36549385918511285,0.007,0.3182142857142857,-0.035033130645751955,-1.2743765288085953,-1.6259294920654312,41.13251876831055,0.008183203803168403,-0.022581863403320312
3327,-0.38415560680677624,0.239062557220459,86.98943328857422,87.68500518798828,-0.329345703125,84.41172790527344,0.3900434705946181,0.005,0.31535714285714284,-0.029509618547227646,-0.3625379973144547,-1.6149431639404312,27.68535041809082,-0.00772857666015625,0.002876959906684028
3328,-0.44274935680677624,0.1195312786102295,91.89935302734375,90.2218017578125,0.10027313232421875,84.32989501953125,0.3895888434516059,0.003,0.31,-0.01669261720445421,0.8129640221595764,-1.3622652464599625,27.50956916809082,0.018639458550347224,0.008559756808810763
3329,-0.30603060680677624,0.07968751907348633,87.91004180908203,84.35034942626953,2.1665306091308594,82.63188171386719,0.3895888434516059,-0.0006666666666666666,0.30607142857142855,-0.006866248448689779,1.0766279697418213,-1.8895918303222672,27.50956916809082,0.03955213758680556,0.05038498772515191
3330,-0.27087435680677624,0.03984375953674316,88.21691131591797,90.42637634277344,2.3915672302246094,83.24562072753906,0.4020909627278646,-0.0016666666666666668,0.3003571428571429,-0.002868562274509006,1.724802017211914,-1.142544406005861,27.50956916809082,-0.02454961140950521,0.046066072252061635
3331,-0.24743685680677624,0.03984375953674316,89.23981475830078,89.30118560791016,3.9259185791015625,81.01570129394531,0.4007270812988281,-0.003,0.2960714285714286,-0.0003051651848687066,1.6808580160140991,-1.3842359953613297,27.50956916809082,-0.0006818983289930556,0.08789130316840278
3332,-0.15759310680677627,0.03984375953674316,90.6309585571289,91.49018859863281,4.130496978759766,79.60409545898438,0.4075464036729601,-0.0036666666666666666,0.2910714285714286,0.0018615192837185329,2.0983259677886963,-1.5819841795654312,27.50956916809082,-0.009547000461154514,0.10584890577528212
3333,-0.040405606806776254,0.07968751907348633,103.2535400390625,102.02606201171875,12.702400207519531,75.57386779785156,0.40572789510091145,-0.004333333333333333,0.2864285714285714,0.005126804775661893,2.0983259677886963,-1.3512789183349625,27.421680450439453,0.013638644748263888,0.2458725823296441
3334,-0.06384310680677625,0.05976563930511475,103.66270446777344,103.66270446777344,12.722858428955078,71.80960083007812,0.36753963894314234,-0.002,0.2782142857142857,0.005401452382405599,1.8017040491104126,-1.505081790039064,27.421680450439453,0.0,0.2879250844319661
3335,-0.09899935680677627,0.1195312786102295,103.62178802490234,103.78544616699219,16.34392547607422,67.39067077636719,0.39231652153862845,0.0,0.27285714285714285,-0.0,1.1095860004425049,-0.21972145373535312,27.50956916809082,-0.0018184238009982638,0.37725838555230035
