,WD,WS,AIL_1,AIL_2,ELEV_1,ELEV_2,RUDD,ALT,GS,TH,PTCH,ROLL,PLA_1,AIL,ELEV
3379,0.16556351491427954,0.3585938262939453,84.32989501953125,84.45263671875,-4.277740478515625,88.31919860839844,0.3679942660861545,0.7876666666666666,0.4492857142857143,0.01318325466579861,-0.5273291044921891,-0.10986007983398594,39.19894027709961,-0.0013637966579861111,-0.08441043429904514
3380,0.16556351491427954,0.3785157012939453,82.85691833496094,82.75462341308594,-4.461860656738281,88.40103149414062,0.36753963894314234,0.7846666666666666,0.44857142857142857,0.01379360622829861,-1.0656420164794937,-0.6921183043212906,37.96847915649414,0.0011366102430555556,-0.08736546834309895
3381,0.16556351491427954,0.41835948944091794,84.57539367675781,83.98210144042969,-4.686901092529297,88.48286437988281,0.36753963894314234,0.7806666666666666,0.44821428571428573,0.014464908175998263,-1.560013430664064,0.10986000299453735,36.82590866088867,0.006592135959201389,-0.09077517191569011
3382,0.17337601491427954,0.3785157012939453,85.02546691894531,84.18669128417969,-4.768730163574219,88.62606811523438,0.36685774061414933,0.7756666666666666,0.44821428571428573,0.014403873019748263,-2.153256075927736,0.14281800389289856,35.24388885498047,0.009319729275173612,-0.09327553643120659
3383,0.16165726491427954,0.39843757629394533,85.08683776855469,84.84133911132812,-4.66644287109375,88.6056137084961,0.36935814751519097,0.7683333333333333,0.44821428571428573,0.01351894802517361,-2.933262484619142,-0.20873512561035312,32.8708610534668,0.002727762858072917,-0.09191173977322048
3384,0.16556351491427954,0.41835948944091794,83.36836242675781,83.28652954101562,-4.277740478515625,88.64653015136719,0.36753963894314234,0.76,0.4492857142857143,0.01370205349392361,-3.603409426757814,-0.8678938322753922,31.728290557861328,0.0009092542860243056,-0.08804745144314235
3385,0.18118851491427954,0.41835948944091794,83.38882446289062,83.73661041259766,-3.2139244079589844,87.74638366699219,0.36572113037109377,0.7516666666666667,0.45071428571428573,0.015014224582248263,-3.4825636320800797,-1.0216986113281266,31.552509307861328,-0.003864288330078125,-0.06622564527723525
3386,0.18900101491427954,0.438281364440918,84.06393432617188,82.91828918457031,-3.704914093017578,87.80775451660156,0.3673123677571615,0.7426666666666667,0.45285714285714285,0.015716128879123263,-2.7355143004150406,-0.2966219359130875,31.46462059020996,0.012729390462239584,-0.07236298455132378
3387,0.18900101491427954,0.41835948944091794,85.0050048828125,84.61630249023438,-3.684459686279297,87.86912536621094,0.36776691012912327,0.7333333333333333,0.4542857142857143,0.015624576144748263,-2.834389346191408,-0.01098694140625156,27.158010482788086,0.0043189154730902775,-0.07281761169433594
3388,0.19290726491427954,0.438281364440918,84.53446960449219,84.14576721191406,-3.643543243408203,87.78729248046875,0.36685774061414933,0.7246666666666667,0.45571428571428574,0.015868716769748263,-2.856360095092775,-0.48338379199218906,27.158010482788086,0.0043189154730902775,-0.07145373026529948
3389,0.20071976491427954,0.438281364440918,84.1048583984375,83.71615600585938,-4.318656921386719,88.44195556640625,0.36663038465711806,0.7163333333333334,0.4567857142857143,0.016204410129123263,-2.834389346191408,-0.6262022429199234,27.158010482788086,0.0043189154730902775,-0.0862290276421441
3390,0.19681351491427954,0.438281364440918,84.18669128417969,83.5934066772461,-3.8481216430664062,88.09416198730469,0.3670850118001302,0.7076666666666667,0.45785714285714285,0.016173892550998263,-3.196926730224611,-0.3405672484130875,27.158010482788086,0.0065920511881510414,-0.07713648478190104
3391,0.19681351491427954,0.438281364440918,85.06637573242188,83.61386108398438,-3.8481216430664062,87.97142028808594,0.3679942660861545,0.6986666666666667,0.4589285714285714,0.015807681613498263,-3.196926730224611,0.09887400269508362,27.158010482788086,0.016139051649305555,-0.07577268812391492
3392,0.19681351491427954,0.438281364440918,84.49356079101562,84.24806213378906,-3.357128143310547,87.54179382324219,0.36753963894314234,0.69,0.46035714285714285,0.015777164035373263,-3.0870672636718766,-0.14281906420898594,27.158010482788086,0.002727762858072917,-0.06554357740614149
3393,0.20071976491427954,0.438281364440918,84.06393432617188,83.49111938476562,-3.745830535888672,87.76683807373047,0.3673123677571615,0.6823333333333333,0.4617857142857143,0.016112857394748263,-2.6036821776123062,-0.07690300280761875,27.158010482788086,0.006364610460069444,-0.07236298455132378
3394,0.20462601491427954,0.438281364440918,84.43218231201172,83.63432312011719,-3.745830535888672,87.97142028808594,0.36776691012912327,0.674,0.46285714285714286,0.016295962863498263,-2.559738772460939,0.36253800988197327,27.158010482788086,0.008865102132161459,-0.07463612026638455
3395,0.20071976491427954,0.438281364440918,84.47309875488281,83.85935974121094,-3.7662887573242188,87.82821655273438,0.36753963894314234,0.6666666666666666,0.4635714285714286,0.016234927707248263,-2.4608656340332047,0.4064820110797882,27.158010482788086,0.006819322374131944,-0.07327228122287327
3396,0.19681351491427954,0.45820323944091795,84.41172790527344,83.83889770507812,-3.6230850219726562,88.09416198730469,0.36753963894314234,0.6593333333333333,0.4642857142857143,0.016448550754123263,-2.471850054809572,0.45042601227760315,27.158010482788086,0.006364780002170139,-0.07463607788085938
3397,0.19681351491427954,0.45820323944091795,84.5140151977539,83.87982177734375,-3.3980445861816406,87.45996856689453,0.36753963894314234,0.6526666666666666,0.465,0.016875712076822917,-1.9774805479736344,0.5273280143737793,27.158010482788086,0.007046593560112847,-0.06508903503417969
3398,0.20071976491427954,0.45820323944091795,84.49356079101562,83.87982177734375,-4.052700042724609,87.88958740234375,0.3670850118001302,0.6466666666666666,0.465,0.017852274576822917,-1.3732515745849625,0.373524010181427,27.158010482788086,0.006819322374131944,-0.07713652716742622
3399,0.21243851491427954,0.478125114440918,84.554931640625,83.90027618408203,-4.257282257080078,88.50332641601562,0.36663038465711806,0.642,0.46464285714285714,0.019134012858072917,-1.7248026304931656,0.26366400718688965,27.158010482788086,0.0072739495171440975,-0.08622898525661893
3400,0.21243851491427954,0.45820323944091795,84.5140151977539,83.90027618408203,-4.236824035644531,88.42149353027344,0.36753963894314234,0.637,0.46285714285714286,0.019103495279947917,-2.1312853270263687,0.032958000898361206,27.158010482788086,0.006819322374131944,-0.08509241739908854
3401,0.21243851491427954,0.45820323944091795,84.45263671875,83.92073059082031,-4.66644287109375,88.72836303710938,0.36776691012912327,0.6306666666666667,0.4614285714285714,0.018798319498697917,-2.3070608549804703,-0.10986007983398594,27.158010482788086,0.0059100680881076385,-0.09327562120225695
3402,0.20853226491427954,0.45820323944091795,83.87982177734375,83.47065734863281,-4.66644287109375,88.91248321533203,0.3679942660861545,0.623,0.4592857142857143,0.017913309733072917,-2.6146685057373062,-0.2416922026367203,27.158010482788086,0.004546271430121528,-0.09532140096028646
3403,0.21634476491427954,0.45820323944091795,84.0025634765625,83.5115737915039,-4.380031585693359,88.78973388671875,0.365948486328125,0.6173333333333333,0.45714285714285713,0.018493143717447917,-2.7684732847900406,-0.18676246936035312,27.158010482788086,0.005455440945095486,-0.09077517191569011
3404,0.22025101491427954,0.478125114440918,83.92073059082031,83.36836242675781,-3.66400146484375,88.21691131591797,0.3661757575141059,0.6103333333333333,0.45535714285714285,0.01968324449327257,-2.6366411619873062,0.3954960107803345,27.158010482788086,0.006137424045138889,-0.07645458645290798
3405,0.21634476491427954,0.478125114440918,84.06393432617188,83.32745361328125,-3.868579864501953,87.91004180908203,0.3682215372721354,0.604,0.45357142857142857,0.019378153483072917,-1.9225508146972672,1.1645159721374512,27.158010482788086,0.008183119032118056,-0.07531801859537761
3406,0.21243851491427954,0.478125114440918,84.0434799194336,83.38882446289062,-4.257282257080078,88.19645690917969,0.36685774061414933,0.5973333333333334,0.45071428571428573,0.01965272691514757,-1.516068118164064,1.6369140148162842,27.158010482788086,0.0072739495171440975,-0.08281932406955295
3407,0.21243851491427954,0.478125114440918,84.06393432617188,83.34790802001953,-4.830104827880859,88.68744659423828,0.3673123677571615,0.5923333333333334,0.4475,0.02102601793077257,-1.4611383848876969,2.065368175506592,27.158010482788086,0.007955847846137152,-0.09463946024576823
3408,0.21634476491427954,0.45820323944091795,84.37080383300781,83.34790802001953,-5.525676727294922,89.30118560791016,0.3679942660861545,0.589,0.44285714285714284,0.02236879136827257,-1.6698728972167984,2.5707240104675293,27.158010482788086,0.011365509033203125,-0.10918735928005642
3409,0.22025101491427954,0.45820323944091795,85.43462371826172,84.45263671875,-6.650867462158203,90.71278381347656,0.36640311347113713,0.5866666666666667,0.43892857142857145,0.02444390190972222,-2.4169203215332047,2.7794580459594727,27.158010482788086,0.01091096666124132,-0.1373739030626085
3410,0.22415726491427954,0.45820323944091795,85.68012237548828,85.06637573242188,-6.855449676513672,91.40835571289062,0.3679942660861545,0.5853333333333334,0.4325,0.025664520263671876,-3.6363665037841812,2.4828360080718994,26.982229232788086,0.006819407145182292,-0.1473756154378255
3411,0.23196976491427954,0.438281364440918,85.53691101074219,85.0459213256836,-6.957736968994141,91.18331909179688,0.3670850118001302,0.5833333333333334,0.42892857142857144,0.027190399169921876,-4.130736010620119,1.647900104522705,27.158010482788086,0.005455440945095486,-0.14601173400878906
3412,0.23587601491427954,0.438281364440918,85.18913269042969,84.61630249023438,-7.019111633300781,91.0810317993164,0.3661757575141059,0.5796666666666667,0.42428571428571427,0.028136444091796876,-4.36144317919922,1.032684087753296,27.158010482788086,0.006364780002170139,-0.1455571492513021
3413,0.23196976491427954,0.438281364440918,86.15065002441406,85.35279846191406,-5.8939208984375,90.69232940673828,0.3682215372721354,0.575,0.4210714285714286,0.027983856201171876,-4.899756091186525,0.6042300462722778,27.158010482788086,0.00886501736111111,-0.12873611450195313
3414,0.22806351491427954,0.438281364440918,84.49356079101562,84.20714569091797,-5.3620147705078125,89.64897155761719,0.36753963894314234,0.5693333333333334,0.4185714285714286,0.027037811279296876,-4.33947052294922,-0.3845106535644547,27.158010482788086,0.0031823900010850693,-0.1112331814236111
3415,0.23587601491427954,0.438281364440918,84.16622924804688,83.63432312011719,-5.546134948730469,89.87400817871094,0.36572113037109377,0.5643333333333334,0.4164285714285714,0.028319464789496526,-3.537493365356447,-0.5822588377685562,32.4314079284668,0.0059100680881076385,-0.11577936808268229
3416,0.23587601491427954,0.45820323944091795,84.35034942626953,83.61386108398438,-5.66888427734375,90.44683837890625,0.3682215372721354,0.5596666666666666,0.41285714285714287,0.028563605414496526,-3.7242552214355484,0.1538040041923523,32.8708610534668,0.008183203803168403,-0.1235080295138889
3417,0.22806351491427954,0.438281364440918,84.39126586914062,83.79798889160156,-5.648426055908203,90.2218017578125,0.3684488932291667,0.5543333333333333,0.4107142857142857,0.027312469482421876,-3.823128359863283,0.7690200209617615,32.8708610534668,0.006591966417100695,-0.12078030904134114
3418,0.22415726491427954,0.438281364440918,86.0688247680664,84.49356079101562,-5.791633605957031,89.1170654296875,0.36753963894314234,0.5496666666666666,0.4075,0.027404022216796876,-3.4056612425537125,0.8569080233573914,32.8708610534668,0.017502933078342015,-0.1100966559516059
3419,0.22415726491427954,0.438281364440918,85.76194763183594,85.74149322509766,-5.259723663330078,90.20133972167969,0.36640311347113713,0.5446666666666666,0.40535714285714286,0.028105926513671876,-3.3836885863037125,0.12084600329399109,31.200950622558594,0.00022727118598090277,-0.11623403761121961
3420,0.23196976491427954,0.438281364440918,84.37080383300781,84.02302551269531,-4.871021270751953,89.0147705078125,0.36572113037109377,0.5403333333333333,0.40214285714285714,0.028716193305121526,-2.944248812744142,-0.4174677305908219,31.113059997558594,0.0038642035590277777,-0.09873101976182726
3421,0.22415726491427954,0.438281364440918,85.12775421142578,84.14576721191406,-5.832546234130859,89.50576782226562,0.3691307915581597,0.5356666666666666,0.4,0.026915740966796876,-2.3290335112304703,-0.2307058745117203,31.113059997558594,0.01091096666124132,-0.11487015618218316
3422,0.22025101491427954,0.438281364440918,84.554931640625,84.24806213378906,-5.136974334716797,89.567138671875,0.3661757575141059,0.5313333333333333,0.3964285714285714,0.026152801513671876,-2.845373766967775,-0.6591612272949234,29.794710159301758,0.003409661187065972,-0.10782347785101996
3423,0.22806351491427954,0.438281364440918,84.32989501953125,83.79798889160156,-5.627967834472656,89.71034240722656,0.3670850118001302,0.5273333333333333,0.39464285714285713,0.025969696044921876,-2.7574869566650406,-0.6811319761962906,29.794710159301758,0.0059100680881076385,-0.11487011379665799
3424,0.22415726491427954,0.438281364440918,84.30943298339844,83.75706481933594,-5.239265441894531,89.71034240722656,0.3684488932291667,0.5226666666666666,0.39107142857142857,0.025420379638671876,-3.0321375303955094,-0.4394403868408219,29.794710159301758,0.006137424045138889,-0.1105511983235677
3425,0.22025101491427954,0.438281364440918,84.30943298339844,83.77752685546875,-5.218807220458984,89.30118560791016,0.3684488932291667,0.5183333333333333,0.3892857142857143,0.02462700737847222,-3.1310106688232437,-0.02197326953125156,29.706819534301758,0.0059100680881076385,-0.10577769809299045
3426,0.21243851491427954,0.438281364440918,84.49356079101562,83.94119262695312,-4.216365814208984,88.36012268066406,0.36776691012912327,0.5133333333333333,0.38642857142857145,0.02380303276909722,-2.911289828369142,0.2856360077857971,29.794710159301758,0.006137424045138889,-0.0841832054985894
3427,0.20853226491427954,0.438281364440918,84.37080383300781,83.92073059082031,-4.625526428222656,88.74882507324219,0.36753963894314234,0.5086666666666667,0.3846428571428571,0.02395562065972222,-2.0653692656250016,0.2856360077857971,29.794710159301758,0.0050008138020833336,-0.09304835001627604
3428,0.21634476491427954,0.438281364440918,84.32989501953125,83.85935974121094,-4.993770599365234,89.17843627929688,0.3670850118001302,0.504,0.3817857142857143,0.02474907769097222,-1.9664942198486344,0.2746500074863434,29.794710159301758,0.005228169759114583,-0.10191340976291233
3429,0.21634476491427954,0.438281364440918,84.30943298339844,83.79798889160156,-4.952854156494141,89.0761489868164,0.3682215372721354,0.5,0.3796428571428571,0.02508477105034722,-2.3510042601318375,0.5273280143737793,29.706819534301758,0.005682712131076389,-0.10032225714789497
3430,0.21634476491427954,0.438281364440918,84.39126586914062,83.87982177734375,-4.318656921386719,88.0737075805664,0.36753963894314234,0.496,0.37642857142857145,0.025511932373046876,-2.0653692656250016,0.8239500522613525,29.794710159301758,0.005682712131076389,-0.08213738335503472
3431,0.21634476491427954,0.438281364440918,85.5164566040039,84.5140151977539,-4.502777099609375,88.72836303710938,0.36663038465711806,0.49233333333333335,0.37464285714285717,0.026152801513671876,-1.5709978514404312,0.7690200209617615,29.794710159301758,0.011138237847222222,-0.09145711263020834
3432,0.22806351491427954,0.438281364440918,85.5164566040039,84.92317199707031,-4.5846099853515625,88.6669921875,0.365948486328125,0.4886666666666667,0.37142857142857144,0.027526092529296876,-1.549027102539064,0.4943700134754181,29.794710159301758,0.0065920511881510414,-0.09168446858723958
3433,0.22415726491427954,0.45820323944091795,84.94363403320312,84.5958480834961,-5.566593170166016,89.97630310058594,0.36776691012912327,0.4846666666666667,0.3692857142857143,0.027922821044921876,-1.9225508146972672,0.41746801137924194,29.794710159301758,0.003864288330078125,-0.11714329189724393
3434,0.22806351491427954,0.438281364440918,84.43218231201172,84.06393432617188,-5.055145263671875,89.46485137939453,0.3679942660861545,0.481,0.3653571428571429,0.027861785888671876,-2.812416689941408,0.32958000898361206,29.794710159301758,0.004091644287109375,-0.10577774047851562
3435,0.22415726491427954,0.438281364440918,84.14576721191406,83.61386108398438,-5.259723663330078,89.30118560791016,0.36753963894314234,0.478,0.3625,0.027190399169921876,-2.834389346191408,0.4943700134754181,29.794710159301758,0.0059100680881076385,-0.10623232523600261
3436,0.23196976491427954,0.41835948944091794,84.43218231201172,83.53202819824219,-6.650867462158203,90.03767395019531,0.3673123677571615,0.47533333333333333,0.3578571428571429,0.027342987060546876,-2.7135435515136734,0.9008520245552063,29.794710159301758,0.010001712375217013,-0.12987268235948352
3437,0.23196976491427954,0.41835948944091794,84.61630249023438,84.1048583984375,-6.487205505371094,90.54912567138672,0.3679942660861545,0.472,0.35428571428571426,0.028136444091796876,-3.6693254881591812,1.2743760347366333,29.794710159301758,0.005682712131076389,-0.1337370130750868
3438,0.22806351491427954,0.39843757629394533,85.33233642578125,85.23004150390625,-5.9757537841796875,90.36500549316406,0.36935814751519097,0.4693333333333333,0.3489285714285714,0.027556610107421876,-4.614121096679689,0.9887400269508362,29.794710159301758,0.0011366102430555556,-0.12600843641493056
3439,0.22806351491427954,0.41835948944091794,84.24806213378906,83.73661041259766,-5.423389434814453,89.73080444335938,0.36481187608506943,0.4663333333333333,0.3457142857142857,0.028594122992621526,-4.658064501831056,0.23070600628852844,29.794710159301758,0.0056827969021267365,-0.11282437642415365
3440,0.23587601491427954,0.41835948944091794,84.18669128417969,83.65477752685547,-6.282623291015625,90.81507873535156,0.36640311347113713,0.4623333333333333,0.3417857142857143,0.029723273383246526,-4.31749786669922,-0.03295769030761875,29.794710159301758,0.005910152859157986,-0.13441891140407985
3441,0.22415726491427954,0.438281364440918,84.22760009765625,83.69569396972656,-5.7507171630859375,90.52867126464844,0.3684488932291667,0.45766666666666667,0.3385714285714286,0.030181037055121526,-4.910742419311525,0.13183200359344482,29.794710159301758,0.0059100680881076385,-0.1253265380859375
3442,0.23587601491427954,0.438281364440918,85.70057678222656,86.64164733886719,-4.66644287109375,88.74882507324219,0.36640311347113713,0.4533333333333333,0.33464285714285713,0.03182890150282118,-5.130463259765627,0.41746801137924194,29.794710159301758,-0.010456339518229166,-0.0935029771592882
3443,0.23196976491427954,0.438281364440918,84.96409606933594,84.41172790527344,-4.768730163574219,88.89202880859375,0.3673123677571615,0.448,0.33321428571428574,0.03179838392469618,-4.3944002562255875,0.7360620498657227,29.794710159301758,0.006137424045138889,-0.09623065524631076
3444,0.20853226491427954,0.438281364440918,84.554931640625,84.61630249023438,-5.1983489990234375,89.44439697265625,0.37481358846028645,0.44333333333333336,0.3296428571428571,0.028227912055121526,-4.141722338745119,0.5383139848709106,30.058380126953125,-0.0006818983289930556,-0.10714162190755208
3445,0.20462601491427954,0.438281364440918,83.94119262695312,84.02302551269531,-4.482318878173828,88.83065795898438,0.3661757575141059,0.439,0.3275,0.027739715576171876,-4.229611056396486,-0.6042314940185562,33.837650299072266,-0.0009092542860243056,-0.09236640930175781
3446,0.21243851491427954,0.45820323944091795,83.5934066772461,83.08195495605469,-4.154991149902344,88.19645690917969,0.3636753506130642,0.43466666666666665,0.3242857142857143,0.029418097601996526,-3.6143938475341812,-1.153530734130861,37.704811096191406,0.0056827969021267365,-0.08168275621202258
3447,0.22415726491427954,0.45820323944091795,83.57295227050781,83.1024169921875,-4.625526428222656,88.68744659423828,0.36663038465711806,0.43066666666666664,0.3225,0.030394660101996526,-2.823403018066408,-0.49437012011718906,40.07783889770508,0.005228169759114583,-0.09236636691623264
3448,0.22025101491427954,0.478125114440918,83.63432312011719,83.1024169921875,-4.625526428222656,88.74882507324219,0.36867616441514756,0.4266666666666667,0.3192857142857143,0.029906378851996526,-2.7025572233886734,0.373524010181427,40.34151077270508,0.0059100680881076385,-0.09304835001627604
3449,0.22025101491427954,0.45820323944091795,83.63432312011719,83.12287139892578,-4.093616485595703,88.50332641601562,0.36685774061414933,0.42333333333333334,0.3175,0.030303107367621526,-2.6586119108886734,1.2963480949401855,40.42940139770508,0.0056827969021267365,-0.08441047668457032
3450,0.22025101491427954,0.45820323944091795,85.47554016113281,83.5934066772461,-4.625526428222656,88.54424285888672,0.36753963894314234,0.4196666666666667,0.31464285714285717,0.03137113783094618,-2.230158465454103,2.427906036376953,40.42940139770508,0.020912594265407987,-0.09077521430121528
3451,0.21634476491427954,0.45820323944091795,86.76439666748047,86.43707275390625,-3.8481216430664062,87.78729248046875,0.3684488932291667,0.4166666666666667,0.31285714285714283,0.03219511244032118,-1.9115644865722672,2.208186149597168,41.74774932861328,0.003636932373046875,-0.07372682359483507
3452,0.20853226491427954,0.478125114440918,85.14820861816406,84.77996826171875,-4.605068206787109,88.21691131591797,0.3682215372721354,0.41333333333333333,0.30964285714285716,0.034117635091145834,-1.4831110411376969,1.5050820112228394,42.01142120361328,0.004091559516059028,-0.08691088358561198
3453,0.21634476491427954,0.478125114440918,86.04837036132812,84.77996826171875,-3.8481216430664062,88.64653015136719,0.3650392320421007,0.41,0.3075,0.035948689778645834,-1.6808592253417984,1.1425440311431885,42.01142120361328,0.01409335666232639,-0.08327390882703993
3454,0.22415726491427954,0.45820323944091795,86.6007308959961,85.98699188232422,-3.868579864501953,88.1146240234375,0.3650392320421007,0.4076666666666667,0.305,0.03747448391384549,-1.3842359953613297,0.9008520245552063,43.417659759521484,0.006819322374131944,-0.07759115431043836
3455,0.22025101491427954,0.45820323944091795,86.45751953125,85.92561340332031,-3.6230850219726562,87.95095825195312,0.36776691012912327,0.4046666666666667,0.3032142857142857,0.03744396633572049,-1.0326849394531266,0.9008520245552063,43.505550384521484,0.0059100680881076385,-0.07304492526584201
3456,0.20462601491427954,0.478125114440918,85.88470458984375,85.82332611083984,-3.8072052001953125,87.66455078125,0.36867616441514756,0.40166666666666667,0.30107142857142855,0.036345418294270834,-0.7250772886962906,0.5493000149726868,45.26335144042969,0.0006819831000434028,-0.0719083997938368
3457,0.20853226491427954,0.45820323944091795,84.82088470458984,84.49356079101562,-3.868579864501953,88.1146240234375,0.36458460489908856,0.399,0.29928571428571427,0.035857137044270834,-0.6481748991699234,0.29662200808525085,47.987937927246094,0.003636932373046875,-0.07759115431043836
3458,0.20071976491427954,0.478125114440918,84.86180114746094,84.47309875488281,-3.8890380859375,87.84866333007812,0.3652665032280816,0.3963333333333333,0.2985714285714286,0.036314900716145834,-0.4284540587158219,0.6262019872665405,47.987937927246094,0.0043189154730902775,-0.07486334906684028
3459,0.19681351491427954,0.45820323944091795,86.92805480957031,86.68256378173828,-4.11407470703125,87.72592163085938,0.3691307915581597,0.3933333333333333,0.2985714285714286,0.035551961263020834,-0.3076082640380875,0.6481740474700928,47.987937927246094,0.0027276780870225696,-0.07599995930989584
3460,0.19290726491427954,0.438281364440918,84.18669128417969,86.15065002441406,-4.052700042724609,88.29874420166016,0.36867616441514756,0.3903333333333333,0.2978571428571429,0.034361775716145834,-0.6152159147949234,-0.2636648588867203,48.95473098754883,-0.021821763780381944,-0.0816827138264974
3461,0.18900101491427954,0.478125114440918,83.69569396972656,83.34790802001953,-3.9913291931152344,88.1555404663086,0.36663038465711806,0.38766666666666666,0.29714285714285715,0.034575398763020834,-0.7800070219726578,-0.5602861815185562,49.8336296081543,0.003864288330078125,-0.07940966288248698
3462,0.18900101491427954,0.478125114440918,85.63920593261719,84.47309875488281,-4.707359313964844,88.54424285888672,0.365948486328125,0.38533333333333336,0.2975,0.034453328450520834,-0.823950427124025,-0.4284540587158219,49.8336296081543,0.012956746419270833,-0.09168446858723958
3463,0.18509476491427954,0.45820323944091795,84.90271759033203,84.67768096923828,-4.768730163574219,88.91248321533203,0.3684488932291667,0.382,0.2978571428571429,0.03277494642469618,-1.164517062255861,-0.4723993712158219,49.8336296081543,0.0025004069010416668,-0.09645792643229166
3464,0.18118851491427954,0.45820323944091795,83.83889770507812,84.26852416992188,-3.9708709716796875,87.88958740234375,0.36776691012912327,0.379,0.2982142857142857,0.03137113783094618,-1.4940973692626969,-0.6042314940185562,49.8336296081543,-0.004773627387152778,-0.07622731526692708
3465,0.18118851491427954,0.45820323944091795,85.53691101074219,86.27340698242188,-4.052700042724609,88.05325317382812,0.36776691012912327,0.376,0.29892857142857143,0.030547247992621526,-1.2524038725585953,-0.6481748991699234,49.8336296081543,-0.00818328857421875,-0.07895503573947482
3466,0.18509476491427954,0.45820323944091795,83.96165466308594,83.57295227050781,-4.11407470703125,88.21691131591797,0.3650392320421007,0.37333333333333335,0.29964285714285716,0.030638800726996526,-0.9997259550781266,-0.9887415343017594,49.8336296081543,0.0043189154730902775,-0.08145540025499132
3467,0.18509476491427954,0.45820323944091795,83.73661041259766,83.34790802001953,-4.11407470703125,88.33966064453125,0.3661757575141059,0.37,0.3007142857142857,0.030181037055121526,-0.9557825499267594,-0.5932451658935562,49.8336296081543,0.0043189154730902775,-0.08281928168402777
3468,0.18118851491427954,0.45820323944091795,83.87982177734375,83.38882446289062,-3.9708709716796875,88.13508605957031,0.36935814751519097,0.36733333333333335,0.30107142857142855,0.028807746039496526,-0.9338098936767594,0.4614120125770569,49.7457389831543,0.005455525716145834,-0.078955078125
3469,0.17728226491427954,0.438281364440918,84.30943298339844,83.63432312011719,-4.686901092529297,88.17599487304688,0.3695854187011719,0.36533333333333334,0.30107142857142855,0.028197394476996526,-0.7580343657226578,1.0766279697418213,49.7457389831543,0.007501220703125,-0.08736551072862413
3470,0.17337601491427954,0.438281364440918,85.455078125,84.71859741210938,-5.44384765625,89.87400817871094,0.3679942660861545,0.3626666666666667,0.30107142857142855,0.028411017523871526,-1.3622652464599625,1.1864880323410034,49.8336296081543,0.008183119032118056,-0.11464284261067709
3471,0.17337601491427954,0.438281364440918,85.96653747558594,85.61874389648438,-5.136974334716797,89.30118560791016,0.36640311347113713,0.3596666666666667,0.30142857142857143,0.028990851508246526,-2.153256075927736,0.8239500522613525,49.13050842285156,0.0038643731011284723,-0.10486844380696615
3472,0.18118851491427954,0.438281364440918,86.53935241699219,86.53935241699219,-5.239265441894531,89.1579818725586,0.3650392320421007,0.3566666666666667,0.30178571428571427,0.029692755805121526,-2.581711428710939,-0.01098694140625156,48.86684036254883,0.0,-0.10441385904947917
3473,0.18118851491427954,0.438281364440918,84.88226318359375,84.47309875488281,-4.605068206787109,88.87156677246094,0.3661757575141059,0.35233333333333333,0.3028571428571429,0.030181037055121526,-2.878332751342775,-0.3515516691894547,48.86684036254883,0.004546271430121528,-0.09418483310275608
3474,0.17728226491427954,0.438281364440918,85.12775421142578,84.63676452636719,-4.625526428222656,88.74882507324219,0.3670850118001302,0.348,0.30357142857142855,0.029326544867621526,-2.922276156494142,-0.12084640795898594,48.86684036254883,0.005455440945095486,-0.09304835001627604
3475,0.16946976491427954,0.438281364440918,87.03034973144531,86.15065002441406,-4.1959075927734375,88.13508605957031,0.3684488932291667,0.343,0.305,0.027983856201171876,-2.955235140869142,0.09887400269508362,48.69105911254883,0.009774441189236111,-0.08145548502604166
3476,0.17728226491427954,0.39843757629394533,86.53935241699219,87.05081176757812,-4.011787414550781,88.03279113769531,0.36663038465711806,0.33866666666666667,0.30607142857142855,0.026641082763671876,-2.3400179320068375,-0.6042314940185562,48.251609802246094,-0.005682881673177083,-0.0782730950249566
3477,0.16946976491427954,0.39843757629394533,86.17111206054688,85.74149322509766,-3.9913291931152344,88.27828979492188,0.3679942660861545,0.334,0.30714285714285716,0.025450897216796876,-1.8126913481445328,-0.7470480375976578,47.72426986694336,0.004773542616102431,-0.08077354431152343
3478,0.17728226491427954,0.3785157012939453,85.78240966796875,85.37325286865234,-3.1730079650878906,87.03034973144531,0.36663038465711806,0.32866666666666666,0.3078571428571429,0.02447441948784722,-1.2743765288085953,-1.120571749755861,47.54848861694336,0.00454618665907118,-0.05781508551703559
3479,0.18118851491427954,0.3785157012939453,85.0050048828125,84.14576721191406,-3.9708709716796875,88.36012268066406,0.36344807942708335,0.32466666666666666,0.3078571428571429,0.02423027886284722,-0.5273291044921891,-1.9884668760986344,47.54848861694336,0.009547085232204862,-0.08145548502604166
3480,0.16946976491427954,0.438281364440918,79.25630950927734,80.93386840820312,-3.684459686279297,88.0123291015625,0.3691307915581597,0.32,0.30714285714285716,0.02261284722222222,-0.6591612272949234,-3.3507315092773453,48.075828552246094,-0.01863954332139757,-0.0744087643093533
3481,0.20462601491427954,0.438281364440918,86.78485107421875,80.545166015625,-3.500335693359375,88.05325317382812,0.36549385918511285,0.318,0.30714285714285716,0.02465752495659722,-0.21972145373535312,0.7360620498657227,48.427391052246094,0.069329833984375,-0.07281765407986111
3482,0.18509476491427954,0.39843757629394533,90.26271057128906,90.65141296386719,-3.725372314453125,87.93049621582031,0.3741316901312934,0.315,0.3067857142857143,0.02297905815972222,0.2856360077857971,2.7794580459594727,48.427391052246094,-0.0043189154730902775,-0.07395409478081597
3483,0.16165726491427954,0.39843757629394533,83.53202819824219,83.61386108398438,-4.543693542480469,87.70545959472656,0.36890352037217883,0.31366666666666665,0.3053571428571429,0.02120912339952257,0.32958000898361206,-0.3845106535644547,48.427391052246094,-0.0009092542860243056,-0.08054614596896702
3484,0.18509476491427954,0.41835948944091794,84.08439636230469,83.14332580566406,-5.014228820800781,89.42393493652344,0.3595837910970052,0.31066666666666665,0.30428571428571427,0.02383355034722222,-0.4174677305908219,-1.2414194517822281,48.427391052246094,0.010456339518229166,-0.10486848619249133
3485,0.18509476491427954,0.41835948944091794,82.79554748535156,84.26852416992188,-4.686901092529297,88.6056137084961,0.36549385918511285,0.30866666666666664,0.30392857142857144,0.02343682183159722,-1.3293062620849625,-1.2084604674072281,48.427391052246094,-0.016366407606336807,-0.09213905334472657
3486,0.17728226491427954,0.438281364440918,83.73661041259766,82.89783477783203,-4.911937713623047,89.97630310058594,0.36663038465711806,0.30666666666666664,0.30357142857142855,0.02297905815972222,-1.8786074095459,-0.5273291044921891,48.427391052246094,0.009319729275173612,-0.10986934238009982
3487,0.18118851491427954,0.41835948944091794,85.65966796875,83.75706481933594,-4.932395935058594,88.95339965820312,0.3698127746582031,0.30333333333333334,0.30357142857142855,0.02197206285264757,-2.3729769163818375,0.8569080233573914,48.427391052246094,0.021140034993489584,-0.09873106214735243
3488,0.16556351491427954,0.438281364440918,85.08683776855469,84.98455047607422,-4.564151763916016,88.6669921875,0.36753963894314234,0.29933333333333334,0.30392857142857144,0.02114808824327257,-2.482836382934572,1.0436700582504272,47.81216049194336,0.0011365254720052083,-0.09145715501573351
3489,0.18118851491427954,0.39843757629394533,84.61630249023438,85.02546691894531,-4.686901092529297,88.89202880859375,0.36412997775607636,0.29633333333333334,0.30464285714285716,0.02255181206597222,-2.570725100585939,0.9667680263519287,47.54848861694336,-0.004546271430121528,-0.09532144334581164
3490,0.21634476491427954,0.3187500762939453,87.09172058105469,88.23736572265625,-4.4209442138671875,88.44195556640625,0.36867616441514756,0.29233333333333333,0.3053571428571429,0.02291802300347222,-2.801430361816408,2.438892126083374,47.46059799194336,-0.012729390462239584,-0.0873655531141493
3491,0.15384476491427954,0.3785157012939453,86.86668395996094,87.93049621582031,-4.216365814208984,88.25782775878906,0.37390433417426217,0.28733333333333333,0.30607142857142855,0.02023256089952257,-2.9991785460205094,1.4831100702285767,47.46059799194336,-0.011820136176215277,-0.08304659525553386
3492,0.14993851491427954,0.39843757629394533,83.1024169921875,82.85691833496094,-2.518352508544922,86.53935241699219,0.36412997775607636,0.2823333333333333,0.30714285714285716,0.02114808824327257,-2.3949495726318375,-0.4174677305908219,47.46059799194336,0.002727762858072917,-0.04508561028374566
3493,0.17337601491427954,0.39843757629394533,83.14332580566406,82.67279052734375,-4.7482757568359375,87.91004180908203,0.36208419799804686,0.279,0.3082142857142857,0.02349785698784722,-0.7470480375976578,-0.9338098936767594,47.46059799194336,0.005228169759114583,-0.08509241739908854
3494,0.18118851491427954,0.39843757629394533,84.49356079101562,86.17111206054688,-4.154991149902344,88.6056137084961,0.36412997775607636,0.274,0.3075,0.02398613823784722,-0.9667688780517594,-0.48338379199218906,47.46059799194336,-0.018639458550347224,-0.08622894287109376
3495,0.16946976491427954,0.33867195129394534,85.06637573242188,83.71615600585938,-3.2139244079589844,88.19645690917969,0.37481358846028645,0.2703333333333333,0.3075,0.019134012858072917,-1.3732515745849625,0.48338401317596436,47.46059799194336,0.01500244140625,-0.07122645907931857
3496,0.15384476491427954,0.33867195129394534,84.94363403320312,84.67768096923828,-3.8481216430664062,87.80775451660156,0.36663038465711806,0.267,0.3075,0.016814676920572917,-1.131558077880861,0.3185940086841583,47.46059799194336,0.0029550340440538192,-0.07395417955186633
3497,0.16165726491427954,0.33867195129394534,83.85935974121094,84.16622924804688,-3.909496307373047,87.80775451660156,0.36072031656901044,0.264,0.3075,0.018493143717447917,-0.834936755249025,-1.120571749755861,47.46059799194336,-0.003409661187065972,-0.07463612026638455
3498,0.17728226491427954,0.3585938262939453,82.65233612060547,82.28408813476562,-3.7662887573242188,88.0737075805664,0.3650392320421007,0.26033333333333336,0.30714285714285716,0.019378153483072917,-0.856909411499025,-0.9777552061767594,47.81216049194336,0.004091644287109375,-0.07599995930989584
3499,0.13821976491427954,0.3585938262939453,83.22515869140625,82.81600189208984,-4.073158264160156,87.91004180908203,0.3750409444173177,0.25733333333333336,0.30714285714285716,0.014068179660373263,-0.9118391447753922,0.373524010181427,47.81216049194336,0.00454618665907118,-0.07759111192491319
3500,0.1186885149142796,0.33867195129394534,83.0410385131836,82.87738037109375,-3.8276634216308594,88.0123291015625,0.36890352037217883,0.25433333333333336,0.3067857142857143,0.01147427029079861,-0.6921183043212906,0.20873400568962097,47.81216049194336,0.0018184238009982638,-0.07599991692437066
3501,0.14993851491427954,0.3187500762939453,82.26363372802734,81.93630981445312,-3.5412521362304688,87.66455078125,0.36208419799804686,0.25133333333333335,0.30642857142857144,0.014464908175998263,-0.5712725096435562,0.04394400119781494,48.95473098754883,0.003636932373046875,-0.06895336574978299
3502,0.16165726491427954,0.3585938262939453,84.45263671875,83.92073059082031,-3.0502586364746094,86.88714599609375,0.36481187608506943,0.24866666666666667,0.3067857142857143,0.017791239420572917,-0.5053564482421891,0.7580339908599854,49.13050842285156,0.0059100680881076385,-0.05486005147298177
3503,0.14603226491427954,0.41835948944091794,84.71859741210938,84.35034942626953,-4.605068206787109,88.0737075805664,0.36640311347113713,0.246,0.3067857142857143,0.019103495279947917,0.10986000299453735,0.6262019872665405,49.13050842285156,0.004091644287109375,-0.08531973097059461
3504,0.15775101491427954,0.41835948944091794,84.5958480834961,84.20714569091797,-4.8914794921875,89.0147705078125,0.3650392320421007,0.244,0.3057142857142857,0.02038514879014757,-0.2856375151367203,0.1538040041923523,48.427391052246094,0.0043189154730902775,-0.09895833333333333
3505,0.18118851491427954,0.3785157012939453,84.47309875488281,84.24806213378906,-4.952854156494141,89.6080551147461,0.36412997775607636,0.24133333333333334,0.30464285714285716,0.02181947496202257,-0.9997259550781266,0.26366400718688965,48.251609802246094,0.0025004069010416668,-0.10623232523600261
3506,0.20853226491427954,0.33867195129394534,84.37080383300781,84.14576721191406,-4.707359313964844,89.32164001464844,0.36390262179904515,0.238,0.30428571428571427,0.02236879136827257,-1.6588865690917984,0.7580339908599854,48.075828552246094,0.0025004069010416668,-0.10032221476236979
3507,0.17337601491427954,0.3187500762939453,88.38057708740234,88.03279113769531,-4.707359313964844,88.99431610107422,0.37481358846028645,0.23566666666666666,0.30464285714285716,0.018157450358072917,-1.8456484251709,2.372976064682007,47.987937927246094,0.003864288330078125,-0.09668528238932292
3508,0.13431351491427954,0.29882820129394533,85.57783508300781,86.88714599609375,-3.5617103576660156,87.99187469482422,0.3711766560872396,0.23166666666666666,0.3053571428571429,0.015075259738498263,-2.0763555937500016,1.1864880323410034,48.427391052246094,-0.014547899034288195,-0.07281761169433594
3509,0.12259476491427954,0.33867195129394534,85.39370727539062,85.18913269042969,-3.6230850219726562,87.43951416015625,0.3673123677571615,0.226,0.30714285714285716,0.016265445285373263,-1.8895918303222672,-0.3185945921630875,48.427391052246094,0.0022730509440104167,-0.06736221313476562
3510,0.13040726491427954,0.41835948944091794,83.49111938476562,83.32745361328125,-3.9913291931152344,87.99187469482422,0.36458460489908856,0.22233333333333333,0.3078571428571429,0.019164530436197917,-1.3622652464599625,-1.0876146727294937,48.427391052246094,0.001818508572048611,-0.07759115431043836
3511,0.16165726491427954,0.39843757629394533,83.49111938476562,83.14332580566406,-4.11407470703125,88.38057708740234,0.36412997775607636,0.21933333333333332,0.3082142857142857,0.02175843980577257,-1.0766283446044937,-0.9667688780517594,48.427391052246094,0.0038643731011284723,-0.08327390882703993
3512,0.16556351491427954,0.39843757629394533,84.75950622558594,84.02302551269531,-4.830104827880859,89.42393493652344,0.3691307915581597,0.216,0.3078571428571429,0.02142274644639757,-1.4831110411376969,0.06591600179672241,47.987937927246094,0.008183119032118056,-0.10282266404893663
3513,0.17337601491427954,0.33867195129394534,85.53691101074219,85.68012237548828,-4.727817535400391,89.13752746582031,0.3709493001302083,0.21233333333333335,0.3078571428571429,0.019591776529947917,-2.0873400145263687,0.4394400119781494,47.54848861694336,-0.0015912373860677083,-0.0985038333468967
3514,0.18509476491427954,0.29882820129394533,86.04837036132812,87.562255859375,-3.9913291931152344,88.85111236572266,0.37026740180121526,0.20933333333333334,0.3082142857142857,0.018035380045572917,-2.6036821776123062,0.02197200059890747,47.54848861694336,-0.01682094997829861,-0.08713823954264323
3515,0.16556351491427954,0.3187500762939453,86.559814453125,84.84133911132812,-3.091175079345703,87.17355346679688,0.365948486328125,0.20533333333333334,0.30964285714285716,0.017302958170572917,-2.142269747802736,0.5602860450744629,47.46059799194336,0.019094170464409723,-0.058496983846028645
3516,0.15775101491427954,0.3187500762939453,87.68500518798828,87.39859008789062,-3.4185028076171875,87.39859008789062,0.3698127746582031,0.20066666666666666,0.31035714285714283,0.017394510904947917,-1.4721247130126969,0.516342043876648,47.54848861694336,0.0031823900010850693,-0.06463436550564236
3517,0.16556351491427954,0.33867195129394534,87.21446990966797,88.1555404663086,-3.7662887573242188,88.25782775878906,0.36390262179904515,0.19766666666666666,0.3107142857142857,0.02004945543077257,-0.9887415343017594,-0.19774879748535312,47.54848861694336,-0.010456339518229166,-0.07804573906792535
3518,0.15775101491427954,0.3785157012939453,87.97142028808594,85.70057678222656,-4.932395935058594,89.0761489868164,0.36685774061414933,0.19366666666666665,0.31035714285714283,0.02044618394639757,-1.516068118164064,0.2526780068874359,47.54848861694336,0.02523159450954861,-0.10009494357638889
3519,0.16556351491427954,0.3585938262939453,86.45751953125,86.82576751708984,-3.8481216430664062,87.88958740234375,0.3629934522840712,0.19033333333333333,0.30964285714285716,0.02017152574327257,-1.3622652464599625,-1.6918455534667984,47.54848861694336,-0.004091644287109375,-0.07486343383789062
3520,0.19681351491427954,0.3187500762939453,82.71371459960938,82.30455017089844,-4.768730163574219,89.48530578613281,0.3589018079969618,0.18866666666666668,0.30964285714285716,0.02050721910264757,-0.48338379199218906,-3.0760809355468766,47.54848861694336,0.004546271430121528,-0.10282262166341145
3521,0.21243851491427954,0.3187500762939453,82.81600189208984,82.59095764160156,-4.134532928466797,89.567138671875,0.36458460489908856,0.184,0.30964285714285716,0.019561258951822917,-1.0326849394531266,-2.153256075927736,47.72426986694336,0.002500491672092014,-0.09668524000379775
3522,0.18509476491427954,0.33867195129394534,84.88226318359375,82.20226287841797,-3.3366737365722656,87.5213394165039,0.3682215372721354,0.18,0.30964285714285716,0.015594058566623263,-1.3183199339599625,0.36253800988197327,49.21839904785156,0.02977778116861979,-0.06508903503417969
3523,0.1147822649142796,0.33867195129394534,88.13508605957031,87.15309143066406,-4.339115142822266,88.03279113769531,0.37481358846028645,0.17633333333333334,0.31,0.008666737874348959,-0.9557825499267594,1.7467740774154663,49.21839904785156,0.010911051432291667,-0.08191006978352865
3524,0.1069697649142796,0.3585938262939453,85.78240966796875,86.29386138916016,-4.461860656738281,88.29874420166016,0.3611749437120226,0.17333333333333334,0.31,0.009704335530598959,-0.6811319761962906,-0.03295769030761875,49.21839904785156,-0.0056827969021267365,-0.08622894287109376
3525,0.13040726491427954,0.33867195129394534,84.71859741210938,84.20714569091797,-3.9504127502441406,88.42149353027344,0.36344807942708335,0.17133333333333334,0.31,0.01156582302517361,-0.7909933500976578,-0.20873512561035312,49.21839904785156,0.0056827969021267365,-0.08191006978352865
3526,0.12650101491427954,0.33867195129394534,87.5213394165039,85.70057678222656,-4.850563049316406,88.95339965820312,0.3704946729871962,0.16733333333333333,0.31,0.010894521077473959,-1.1864878111572281,0.7800060510635376,49.21839904785156,0.02023069593641493,-0.09782180786132813
3527,0.14603226491427954,0.29882820129394533,84.18669128417969,83.77752685546875,-4.032245635986328,88.09416198730469,0.37026740180121526,0.16466666666666666,0.31035714285714283,0.010986073811848959,-1.2304331236572281,-0.2526785307617203,49.21839904785156,0.004546271430121528,-0.07918230692545573
3528,0.18509476491427954,0.29882820129394533,84.71859741210938,84.20714569091797,-4.257282257080078,88.64653015136719,0.3609475877549913,0.16266666666666665,0.31035714285714283,0.014831119113498263,-1.0766283446044937,-0.2307058745117203,49.21839904785156,0.0056827969021267365,-0.08782013787163628
3529,0.18118851491427954,0.3187500762939453,84.98455047607422,84.47309875488281,-3.6026268005371094,88.1555404663086,0.3670850118001302,0.16,0.31142857142857144,0.015197330050998263,-1.2743765288085953,0.6262019872665405,50.0094108581543,0.0056827969021267365,-0.0750907474093967
3530,0.19681351491427954,0.25898443222045897,86.43707275390625,86.0074462890625,-3.8276634216308594,88.17599487304688,0.365948486328125,0.156,0.31285714285714283,0.01373257107204861,-1.1864878111572281,0.6591600179672241,50.0094108581543,0.004773627387152778,-0.07781842549641928
3531,0.17337601491427954,0.219140682220459,83.71615600585938,83.5115737915039,-4.318656921386719,88.33966064453125,0.37344970703125,0.153,0.31464285714285717,0.010223134358723959,-1.527054446289064,-0.13183273608398594,50.0094108581543,0.002273135715060764,-0.08509241739908854
3532,0.15775101491427954,0.239062557220459,83.63432312011719,83.26608276367188,-3.9299545288085938,88.42149353027344,0.3661757575141059,0.148,0.3157142857142857,0.009521230061848959,-1.7357889586181656,-0.3735243254394547,50.0094108581543,0.004091559516059028,-0.08168275621202258
3533,0.0952510149142796,0.29882820129394533,82.83645629882812,83.02058410644531,-3.9913291931152344,88.27828979492188,0.37481358846028645,0.146,0.3175,0.005981275770399305,-1.8126913481445328,0.010986000299453735,49.39418029785156,-0.002045864529079861,-0.08077354431152343
3534,0.1147822649142796,0.2789063262939453,86.43707275390625,81.91584777832031,-5.136974334716797,88.74882507324219,0.3691307915581597,0.14133333333333334,0.31857142857142856,0.007629224989149305,-2.0104395323486344,1.7467740774154663,49.13050842285156,0.05023583306206597,-0.0987311045328776
3535,0.16556351491427954,0.25898443222045897,89.0761489868164,89.1170654296875,-5.5870513916015625,90.65141296386719,0.36208419799804686,0.139,0.3192857142857143,0.01278652615017361,-2.801430361816408,0.9997260570526123,48.339500427246094,-0.0004546271430121528,-0.124871826171875
3536,0.17337601491427954,0.3187500762939453,83.34790802001953,83.26608276367188,-4.154991149902344,88.36012268066406,0.3609475877549913,0.135,0.3192857142857143,0.017516581217447917,-2.878332751342775,-0.5712725096435562,48.075828552246094,0.0009091695149739584,-0.08350126478407117
3537,0.20462601491427954,0.29882820129394533,83.42974090576172,83.06149291992188,-4.645984649658203,89.0761489868164,0.36481187608506943,0.13133333333333333,0.32,0.018004862467447917,-2.197201388427736,0.14281800389289856,47.987937927246094,0.004091644287109375,-0.09691259596082899
3538,0.17337601491427954,0.25898443222045897,87.03034973144531,83.36836242675781,-4.502777099609375,89.26026916503906,0.3752682156032986,0.12666666666666668,0.32071428571428573,0.014464908175998263,-2.4498793059082047,3.5045340061187744,47.54848861694336,0.04068874782986111,-0.09736718071831597
3539,0.0991572649142796,0.219140682220459,88.17599487304688,88.62606811523438,-3.9913291931152344,88.1555404663086,0.3752682156032986,0.12166666666666667,0.32142857142857145,0.009063466389973959,-2.900305407592775,2.746500015258789,47.46059799194336,-0.0050008138020833336,-0.07940966288248698
3540,0.13040726491427954,0.219140682220459,85.02546691894531,84.6572265625,-4.318656921386719,87.95095825195312,0.36049296061197916,0.11933333333333333,0.3225,0.01321377224392361,-2.790444033691408,0.032958000898361206,47.46059799194336,0.004091559516059028,-0.08077350192599826
3541,0.16946976491427954,0.2789063262939453,84.554931640625,83.94119262695312,-4.871021270751953,88.19645690917969,0.3591291639539931,0.114,0.32357142857142857,0.018981424967447917,-2.537766116210939,-1.2853628569335953,47.46059799194336,0.006819322374131944,-0.0896386464436849
3542,0.22415726491427954,0.219140682220459,86.45751953125,86.41661071777344,-3.295757293701172,88.40103149414062,0.36867616441514756,0.10966666666666666,0.32392857142857145,0.017516581217447917,-2.7465006285400406,-1.4831110411376969,47.46059799194336,0.00045454237196180554,-0.0744087643093533
3543,0.19290726491427954,0.17929691314697266,81.93630981445312,81.71127319335938,-3.8072052001953125,87.86912536621094,0.3732224358452691,0.10733333333333334,0.32535714285714284,0.01217617458767361,-2.0543829375000016,-1.4062086516113297,47.46059799194336,0.0025004069010416668,-0.07418145073784722
3544,0.17728226491427954,0.19921878814697266,85.76194763183594,81.67034912109375,-4.380031585693359,88.19645690917969,0.3682215372721354,0.10333333333333333,0.3264285714285714,0.01141323513454861,-1.7138163023681656,0.6701459884643555,47.46059799194336,0.04546220567491319,-0.0841832054985894
3545,0.14603226491427954,0.219140682220459,86.21202850341797,85.88470458984375,-4.400489807128906,88.50332641601562,0.36753963894314234,0.09866666666666667,0.3264285714285714,0.01132168240017361,-2.2960745268554703,0.9777539968490601,47.46059799194336,0.003636932373046875,-0.08782018025716146
3546,0.14993851491427954,0.25898443222045897,86.6007308959961,85.88470458984375,-4.605068206787109,88.52378845214844,0.36208419799804686,0.096,0.3267857142857143,0.014464908175998263,-2.142269747802736,0.373524010181427,47.46059799194336,0.007955847846137152,-0.0903206295437283
3547,0.16556351491427954,0.25898443222045897,86.39614868164062,87.03034973144531,-4.625526428222656,88.74882507324219,0.3684488932291667,0.09266666666666666,0.32607142857142857,0.015044742160373263,-2.3070608549804703,-0.20873512561035312,46.84537124633789,-0.007046678331163195,-0.09304835001627604
3548,0.18118851491427954,0.219140682220459,87.17355346679688,87.5213394165039,-4.482318878173828,88.91248321533203,0.3616295708550347,0.08966666666666667,0.32607142857142857,0.014831119113498263,-2.6586119108886734,-1.538040774414064,46.84537124633789,-0.003864288330078125,-0.09327557881673178
3549,0.16946976491427954,0.219140682220459,82.0385971069336,81.81356048583984,-3.9504127502441406,87.86912536621094,0.36935814751519097,0.08566666666666667,0.3264285714285714,0.01153530544704861,-2.482836382934572,-1.8236757689209,44.38444900512695,0.0025004069010416668,-0.07577264573838975
3550,0.1069697649142796,0.2789063262939453,86.25294494628906,85.08683776855469,-4.543693542480469,89.0147705078125,0.3698127746582031,0.082,0.32607142857142857,0.007720777723524305,-2.526779788085939,-0.5053564482421891,44.38444900512695,0.012956746419270833,-0.0950940450032552
3551,0.1030635149142796,0.25898443222045897,84.47309875488281,82.38638305664062,-4.461860656738281,87.86912536621094,0.36549385918511285,0.079,0.325,0.006255933973524305,-1.9115644865722672,-0.4174677305908219,44.91178894042969,0.02318572998046875,-0.08145540025499132
3552,0.1108760149142796,0.2789063262939453,85.84378051757812,85.02546691894531,-5.627967834472656,90.34454345703125,0.36390262179904515,0.075,0.32392857142857145,0.006957838270399305,-1.7248026304931656,-0.18676246936035312,44.99967956542969,0.00909237331814236,-0.12191679212782118
3553,0.1108760149142796,0.2789063262939453,84.96409606933594,85.12775421142578,-5.382472991943359,89.97630310058594,0.36640311347113713,0.073,0.3221428571428571,0.006805250379774305,-2.911289828369142,-1.1095873289794937,44.99967956542969,-0.0018184238009982638,-0.1150975121392144
3554,0.13821976491427954,0.25898443222045897,84.39126586914062,84.47309875488281,-4.543693542480469,88.83065795898438,0.3632207234700521,0.06933333333333333,0.3217857142857143,0.007842848036024306,-3.3067861967773453,-1.1864878111572281,44.03289031982422,-0.0009092542860243056,-0.09304835001627604
3555,0.1186885149142796,0.25898443222045897,87.84866333007812,83.77752685546875,-3.8072052001953125,87.76683807373047,0.3723131815592448,0.065,0.32107142857142856,0.005035315619574653,-2.933262484619142,0.6591600179672241,43.85710906982422,0.04523484971788194,-0.07304492526584201
3556,0.0757197649142796,0.2789063262939453,86.88714599609375,86.68256378173828,-5.218807220458984,88.17599487304688,0.3732224358452691,0.062,0.32107142857142856,0.002105712890625,-2.0653692656250016,1.1315580606460571,43.85710906982422,0.002273135715060764,-0.09327557881673178
3557,0.0640010149142796,0.33867195129394534,86.80531311035156,86.41661071777344,-5.321098327636719,89.89447021484375,0.3632207234700521,0.059,0.31892857142857145,0.0031127081976996527,-2.911289828369142,-0.2416922026367203,41.83563995361328,0.0043189154730902775,-0.11350631713867188
3558,0.0796260149142796,0.3187500762939453,88.1146240234375,86.41661071777344,-4.932395935058594,88.83065795898438,0.3670850118001302,0.055,0.31785714285714284,0.004394446478949653,-3.1310106688232437,0.4723980128765106,41.48408126831055,0.01886681450737847,-0.09736726548936632
3559,0.0874385149142796,0.3187500762939453,83.49111938476562,85.68012237548828,-3.8276634216308594,87.80775451660156,0.36640311347113713,0.052,0.3157142857142857,0.004974280463324653,-2.3070608549804703,-1.0107122832031266,41.48408126831055,-0.02432225545247396,-0.07372686598036024
3560,0.15384476491427954,0.2789063262939453,83.12287139892578,82.36592102050781,-4.7482757568359375,89.6080551147461,0.3632207234700521,0.049,0.31392857142857145,0.008697255452473959,-1.2743765288085953,-0.845923083374025,41.48408126831055,0.008410559760199653,-0.10395923190646701
3561,0.16165726491427954,0.2789063262939453,84.18669128417969,83.87982177734375,-4.993770599365234,90.03767395019531,0.3650392320421007,0.04566666666666667,0.31107142857142855,0.009948476155598959,-1.7907186918945328,0.14281800389289856,41.48408126831055,0.003409661187065972,-0.11146049499511719
3562,0.18509476491427954,0.239062557220459,84.06393432617188,83.67523193359375,-3.2139244079589844,87.72592163085938,0.3695854187011719,0.041,0.31,0.009582265218098959,-2.790444033691408,0.8569080233573914,42.89031982421875,0.0043189154730902775,-0.06599828932020399
3563,0.13821976491427954,0.219140682220459,84.86180114746094,84.0025634765625,-3.0298004150390625,86.33477783203125,0.3752682156032986,0.03833333333333333,0.3092857142857143,0.005706617567274305,-1.8786074095459,1.735788106918335,43.68132781982422,0.009547085232204862,-0.048495313856336805
3564,0.0991572649142796,0.239062557220459,85.53691101074219,85.14820861816406,-3.3980445861816406,87.43951416015625,0.3716311984592014,0.03333333333333333,0.30857142857142855,0.004211341010199653,-1.131558077880861,2.120298147201538,44.29655838012695,0.0043189154730902775,-0.06486176384819878
3565,0.1030635149142796,0.239062557220459,87.09172058105469,88.95339965820312,-3.4389610290527344,87.31675720214844,0.36549385918511285,0.029666666666666668,0.30857142857142855,0.006713697645399305,-0.7031046324462906,0.8898659944534302,44.29655838012695,-0.020685323079427085,-0.06395242479112413
3566,0.16165726491427954,0.219140682220459,83.552490234375,83.38882446289062,-3.2139244079589844,87.33721923828125,0.36049296061197916,0.027,0.3078571428571429,0.010680898030598959,-0.5053564482421891,-0.9447962218017594,44.29655838012695,0.001818508572048611,-0.061679373847113715
3567,0.17728226491427954,0.219140682220459,84.12531280517578,83.20470428466797,-3.520793914794922,87.0098876953125,0.36572113037109377,0.022,0.30714285714285716,0.01129116482204861,-0.3185945921630875,0.04394400119781494,44.29655838012695,0.010228983561197917,-0.061452017890082464
3568,0.14993851491427954,0.17929691314697266,86.0074462890625,85.72103881835938,-3.725372314453125,89.40347290039062,0.3752682156032986,0.019,0.30607142857142855,0.006713697645399305,-0.9228254729003922,1.7467740774154663,44.38444900512695,0.003182305230034722,-0.09032050238715278
3569,0.0718135149142796,0.19921878814697266,88.50332641601562,90.42637634277344,-3.1525497436523438,88.1555404663086,0.37026740180121526,0.014,0.3053571428571429,0.004211341010199653,-1.2743765288085953,0.7031040191650391,44.38444900512695,-0.02136722140842014,-0.0700898912217882
3570,0.060094764914279605,0.219140682220459,86.37569427490234,85.31187438964844,-3.3366737365722656,87.88958740234375,0.36481187608506943,0.010333333333333333,0.30428571428571427,0.0038146124945746527,-0.6042314940185562,-0.7140909605712906,44.29655838012695,0.011820220947265625,-0.06918067932128906
3571,0.0679072649142796,0.13945316314697265,86.29386138916016,85.14820861816406,-2.2114830017089844,86.39614868164062,0.36685774061414933,0.008,0.3025,0.00091552734375,0.8459219932556152,-0.9338098936767594,38.583709716796875,0.012729475233289931,-0.04008479648166233
3572,0.02884476491427961,0.17929691314697266,83.98210144042969,83.26608276367188,-0.8817138671875,84.96409606933594,0.36640311347113713,0.0026666666666666666,0.3007142857142857,-0.0020140753851996527,2.0214240550994873,-1.6808592253417984,27.68535041809082,0.007955763075086806,-0.00939788818359375
3573,0.0679072649142796,0.1195312786102295,78.15158081054688,82.05905151367188,0.9185905456542969,83.83889770507812,0.365948486328125,0.0,0.2957142857142857,-0.0022582160101996527,2.0763540267944336,-1.8895918303222672,27.421680450439453,-0.043416341145833336,0.023107698228624133
3574,0.14603226491427954,0.13945316314697265,82.9592056274414,87.15309143066406,2.1869888305664062,80.8929443359375,0.37026740180121526,-0.0016666666666666668,0.29285714285714287,0.001434326171875,2.680583953857422,0.16479000449180603,27.50956916809082,-0.046598731146918405,0.06993382771809896
3575,0.16165726491427954,0.1195312786102295,84.49356079101562,85.02546691894531,7.9356842041015625,80.01325988769531,0.3673123677571615,-0.0013333333333333333,0.2864285714285714,0.0038756476508246527,2.3290319442749023,-1.4501520567626969,27.421680450439453,-0.0059100680881076385,0.1435824924045139
3576,0.0952510149142796,0.15937503814697265,83.94119262695312,83.61386108398438,11.393089294433594,73.67127990722656,0.365948486328125,-0.001,0.2810714285714286,0.0028075324164496527,2.5487520694732666,-1.3952223234863297,27.421680450439453,0.003637017144097222,0.2524645487467448
3577,0.056188514914279605,0.07968751907348633,84.88226318359375,84.75950622558594,10.145149230957031,73.58944702148438,0.37004004584418404,-0.0003333333333333333,0.2714285714285714,0.000335693359375,2.7245280742645264,-0.9118391447753922,27.421680450439453,0.0013639662000868055,0.23950780232747396
3578,0.01712601491427961,0.13945316314697265,85.94607543945312,85.78240966796875,11.924995422363281,70.39799499511719,0.3652665032280816,0.0,0.265,-0.0,1.647900104522705,-0.6262022429199234,27.421680450439453,0.001818508572048611,0.29474444919162324
