,WD,WS,AIL_1,AIL_2,ELEV_1,ELEV_2,RUDD,ALT,GS,TH,PTCH,ROLL,PLA_1,AIL,ELEV
4138,0.9949867818467882,0.5378907394409179,84.53446960449219,83.87982177734375,-1.0658340454101562,85.5164566040039,0.36685774061414933,1.5146666666666666,0.7425,0.007171461317274305,-1.1095873289794937,-0.12084640795898594,27.773239135742188,0.00727386474609375,-0.017581007215711805
4139,0.9988930318467882,0.5179688644409179,85.0050048828125,84.18669128417969,-1.1272087097167969,85.47554016113281,0.36663038465711806,1.501,0.7407142857142858,0.006927320692274305,-1.0876146727294937,0.6152160167694092,27.773239135742188,0.00909237331814236,-0.017808320787217884
4140,0.9949867818467882,0.5179688644409179,84.63676452636719,83.71615600585938,-1.1272087097167969,85.47554016113281,0.365948486328125,1.488,0.7396428571428572,0.007751295301649305,-1.153530734130861,0.7690200209617615,27.773239135742188,0.010228983561197917,-0.017808320787217884
4141,0.9988930318467882,0.49804698944091796,85.37325286865234,84.84133911132812,-1.2090415954589844,85.43462371826172,0.365948486328125,1.474,0.7375,0.007842848036024306,-1.131558077880861,0.7690200209617615,27.773239135742188,0.005910152859157986,-0.018262947930230033
4142,-0.9972007181532118,0.5179688644409179,85.02546691894531,84.35034942626953,-1.0658340454101562,85.49600219726562,0.36640311347113713,1.4603333333333333,0.7360714285714286,0.007629224989149305,-1.1095873289794937,0.17577600479125977,27.68535041809082,0.007501305474175347,-0.017353736029730903
4143,0.9988930318467882,0.49804698944091796,84.63676452636719,83.61386108398438,-1.0453758239746094,85.43462371826172,0.36549385918511285,1.4473333333333334,0.7342857142857143,0.007842848036024306,-1.0766283446044937,-0.2966219359130875,27.773239135742188,0.011365593804253473,-0.016444439358181424
4144,0.9949867818467882,0.49804698944091796,85.0459213256836,84.53446960449219,-1.0862922668457031,85.39370727539062,0.36549385918511285,1.4336666666666666,0.7321428571428571,0.008270009358723959,-1.0876146727294937,-0.812964098999025,27.50956916809082,0.0056827969021267365,-0.016444439358181424
4145,0.9871742818467882,0.49804698944091796,84.47309875488281,83.49111938476562,-1.1272087097167969,85.43462371826172,0.36640311347113713,1.4206666666666667,0.7307142857142858,0.008270009358723959,-1.0766283446044937,-0.845923083374025,27.421680450439453,0.010910881890190972,-0.01735369364420573
4146,0.9871742818467882,0.49804698944091796,83.552490234375,83.16378784179688,-1.0862922668457031,85.43462371826172,0.36685774061414933,1.408,0.7285714285714285,0.008147939046223959,-1.0766283446044937,-0.3954969816894547,27.421680450439453,0.0043189154730902775,-0.016899066501193577
4147,0.9793617818467882,0.49804698944091796,84.45263671875,83.12287139892578,-1.0249176025390625,85.41416931152344,0.365948486328125,1.3943333333333334,0.7275,0.009093983968098959,-1.0656420164794937,0.6921180486679077,27.421680450439453,0.014775170220269097,-0.015989854600694443
4148,0.9754555318467882,0.49804698944091796,85.37325286865234,84.5140151977539,-0.9635429382324219,85.33233642578125,0.36572113037109377,1.3803333333333334,0.7253571428571428,0.009795888264973959,-1.0107122832031266,0.8459219932556152,27.421680450439453,0.009547085232204862,-0.01439865960015191
4149,0.9754555318467882,0.49804698944091796,85.31187438964844,84.39126586914062,-0.8407974243164062,85.25050354003906,0.36572113037109377,1.368,0.7242857142857143,0.010192616780598959,-0.812964098999025,0.010986000299453735,27.421680450439453,0.010228983561197917,-0.01212556627061632
4150,0.9754555318467882,0.49804698944091796,86.02790832519531,84.75950622558594,-0.8817138671875,85.25050354003906,0.3652665032280816,1.3553333333333333,0.7217857142857143,0.009795888264973959,-0.6262022429199234,-1.0216986113281266,27.421680450439453,0.01409335666232639,-0.012580193413628472
4151,0.9754555318467882,0.49804698944091796,84.22760009765625,84.6572265625,-0.9021682739257812,85.27096557617188,0.36572113037109377,1.343,0.7207142857142858,0.009002431233723959,-0.5602861815185562,-2.4388929777832047,27.421680450439453,-0.004773627387152778,-0.013034820556640625
4152,0.9754555318467882,0.5179688644409179,82.89783477783203,82.57050323486328,-0.9226264953613281,85.33233642578125,0.36685774061414933,1.33,0.7182142857142857,0.008056471082899306,-0.5163427763671891,-1.9115644865722672,27.421680450439453,0.003637017144097222,-0.013944032457139757
4153,0.9715492818467882,0.5179688644409179,82.59095764160156,82.0999755859375,-0.8817138671875,85.25050354003906,0.3670850118001302,1.3173333333333332,0.7167857142857142,0.007812330457899305,-0.4723993712158219,-0.17577614123535312,27.421680450439453,0.005455356174045139,-0.012580193413628472
4154,0.9559242818467882,0.5179688644409179,84.28897857666016,83.02058410644531,-0.9226264953613281,85.33233642578125,0.36640311347113713,1.3056666666666668,0.7142857142857143,0.009887440999348959,-0.4504267149658219,1.768746018409729,27.421680450439453,0.014093271891276042,-0.013944032457139757
4155,0.9481117818467882,0.5179688644409179,85.29141998291016,84.0025634765625,-0.9021682739257812,85.27096557617188,0.36663038465711806,1.2933333333333332,0.7128571428571429,0.01162685818142361,-0.5053564482421891,2.768472194671631,27.421680450439453,0.014320627848307291,-0.013034820556640625
4156,0.9520180318467882,0.5179688644409179,85.94607543945312,85.06637573242188,-0.9021682739257812,85.27096557617188,0.365948486328125,1.2816666666666667,0.7107142857142857,0.01254238552517361,-0.48338379199218906,2.3949480056762695,27.421680450439453,0.009774441189236111,-0.013034820556640625
4157,0.9598305318467882,0.5179688644409179,85.25050354003906,84.82088470458984,-0.8203392028808594,85.20958709716797,0.365948486328125,1.2693333333333334,0.7092857142857143,0.01254238552517361,-0.4614130430908219,1.2743760347366333,27.421680450439453,0.004773542616102431,-0.01144362555609809
4158,0.9598305318467882,0.5179688644409179,85.76194763183594,84.69813537597656,-0.7998809814453125,85.27096557617188,0.3652665032280816,1.2566666666666666,0.7067857142857142,0.01303066677517361,-0.5053564482421891,0.36253800988197327,27.421680450439453,0.011820136176215277,-0.011898295084635416
4159,0.9676430318467882,0.5179688644409179,84.90271759033203,84.32989501953125,-0.7998809814453125,85.23004150390625,0.36640311347113713,1.2453333333333334,0.7053571428571429,0.01205410427517361,-0.49437012011718906,-0.5492998533935562,27.421680450439453,0.006364695231119792,-0.011443583170572917
4160,0.9715492818467882,0.5179688644409179,84.73905181884766,83.5115737915039,-1.4749946594238281,85.455078125,0.3661757575141059,1.233,0.7035714285714286,0.01165737575954861,-0.2966219359130875,-0.5932451658935562,27.421680450439453,0.013638644748263888,-0.021445253160264757
4161,0.9754555318467882,0.5179688644409179,84.84133911132812,84.14576721191406,-2.5797271728515625,86.64164733886719,0.3682215372721354,1.2193333333333334,0.7021428571428572,0.010833485921223959,-0.856909411499025,-0.4064833098144547,27.421680450439453,0.00772857666015625,-0.04690416124131944
4162,0.9754555318467882,0.5179688644409179,85.61874389648438,83.85935974121094,-3.3366737365722656,87.58271789550781,0.36572113037109377,1.2073333333333334,0.6992857142857143,0.010375722249348959,-1.8676210814209,-0.4504267149658219,27.421680450439453,0.019548712836371527,-0.06577101813422309
4163,0.9871742818467882,0.5179688644409179,85.41416931152344,85.16867065429688,-3.8072052001953125,87.93049621582031,0.36685774061414933,1.1946666666666668,0.6967857142857142,0.008910878499348959,-2.559738772460939,-1.0986010008544937,27.421680450439453,0.002727762858072917,-0.07486334906684028
4164,0.9910805318467882,0.5378907394409179,85.27096557617188,84.49356079101562,-3.684459686279297,88.44195556640625,0.3652665032280816,1.1823333333333332,0.6932142857142857,0.007964918348524306,-3.185940402099611,-1.9555078917236344,27.421680450439453,0.008637830946180555,-0.07918239169650608
4165,0.9910805318467882,0.5179688644409179,83.38882446289062,82.93875122070312,-4.236824035644531,88.27828979492188,0.36685774061414933,1.17,0.6917857142857143,0.006622144911024305,-2.911289828369142,-2.3839632445068375,27.421680450439453,0.0050008138020833336,-0.08350126478407117
4166,0.9793617818467882,0.5179688644409179,84.12531280517578,83.14332580566406,-5.321098327636719,89.58760070800781,0.3670850118001302,1.1586666666666667,0.6889285714285714,0.006652662489149305,-3.3287588530273453,-1.4611383848876969,27.421680450439453,0.01091096666124132,-0.1100966559516059
4167,0.9832680318467882,0.5378907394409179,84.82088470458984,83.5115737915039,-5.832546234130859,90.34454345703125,0.3670850118001302,1.1456666666666666,0.6864285714285714,0.005920240614149305,-4.581162112304689,-0.5602861815185562,27.421680450439453,0.014547899034288195,-0.12418988545735678
4168,0.9832680318467882,0.5378907394409179,83.57295227050781,83.34790802001953,-5.157432556152344,89.46485137939453,0.3661757575141059,1.1343333333333334,0.6832142857142857,0.005554029676649305,-4.756939547607423,-0.7800070219726578,27.421680450439453,0.002500491672092014,-0.10691426595052084
4169,0.9637367818467882,0.5179688644409179,84.37080383300781,82.91828918457031,-5.075603485107422,89.83309936523438,0.36549385918511285,1.123,0.68,0.007293531629774305,-4.35045685107422,0.0,27.421680450439453,0.016139051649305555,-0.11009669833713108
4170,0.9793617818467882,0.5179688644409179,85.18913269042969,84.1048583984375,-5.218807220458984,89.83309936523438,0.36685774061414933,1.11,0.6760714285714285,0.005981275770399305,-4.097778933593752,0.8898659944534302,27.421680450439453,0.012047492133246528,-0.11168785095214843
4171,0.9910805318467882,0.49804698944091796,84.6572265625,84.12531280517578,-5.484760284423828,90.0785903930664,0.36572113037109377,1.0956666666666666,0.6725,0.004913245307074653,-3.88904442126465,0.3076080083847046,27.421680450439453,0.005910152859157986,-0.11737056308322483
4172,0.9910805318467882,0.5179688644409179,83.63432312011719,83.06149291992188,-5.66888427734375,90.40591430664062,0.3670850118001302,1.0843333333333334,0.6664285714285715,0.004913245307074653,-3.88904442126465,0.20873400568962097,27.421680450439453,0.006364780002170139,-0.12305331759982639
4173,0.9871742818467882,0.5378907394409179,84.5140151977539,83.30699157714844,-5.566593170166016,90.34454345703125,0.3661757575141059,1.074,0.6617857142857143,0.005706617567274305,-4.086792605468752,0.9118380546569824,27.421680450439453,0.013411373562282987,-0.12123485141330295
4174,0.9871742818467882,0.5378907394409179,83.92073059082031,83.30699157714844,-5.709800720214844,90.40591430664062,0.36640311347113713,1.0633333333333332,0.6553571428571429,0.006255933973524305,-3.965946810791017,1.494096040725708,27.421680450439453,0.006819322374131944,-0.12350794474283854
4175,0.9988930318467882,0.5179688644409179,85.90515899658203,84.88226318359375,-5.66888427734375,90.28317260742188,0.3670850118001302,1.0526666666666666,0.6514285714285715,0.005431959364149305,-4.020876544067384,1.8786060810089111,27.421680450439453,0.011365509033203125,-0.12168952094184028
4176,-0.9932944681532118,0.5179688644409179,85.25050354003906,85.23004150390625,-5.709800720214844,90.38545989990234,0.3652665032280816,1.0416666666666667,0.6446428571428572,0.005462476942274305,-4.042849200317384,0.41746801137924194,27.421680450439453,0.00022735595703125,-0.12328067355685764
4177,-0.9972007181532118,0.5179688644409179,85.29141998291016,84.554931640625,-5.8120880126953125,90.42637634277344,0.36549385918511285,1.032,0.6407142857142857,0.005950758192274305,-4.086792605468752,-0.4174677305908219,27.421680450439453,0.008183203803168403,-0.124871826171875
4178,0.9988930318467882,0.5179688644409179,84.43218231201172,84.0434799194336,-5.996212005615234,90.59004211425781,0.365948486328125,1.022,0.6342857142857142,0.006072828504774305,-4.097778933593752,-1.0326849394531266,27.421680450439453,0.0043189154730902775,-0.1287361568874783
4179,0.9871742818467882,0.49804698944091796,84.92317199707031,83.38882446289062,-6.241706848144531,90.85599517822266,0.36572113037109377,1.012,0.63,0.006927320692274305,-4.262568133422853,-0.7909933500976578,27.421680450439453,0.017048305935329862,-0.13441891140407985
4180,0.9988930318467882,0.5179688644409179,84.26852416992188,84.08439636230469,-6.650867462158203,91.04011535644531,0.36776691012912327,1.002,0.6239285714285714,0.004943762885199653,-4.4273592406005875,-0.3845106535644547,27.421680450439453,0.002045864529079861,-0.14101092020670572
4181,0.9988930318467882,0.5179688644409179,84.12531280517578,82.89783477783203,-6.8963623046875,91.0196533203125,0.36640311347113713,0.9933333333333333,0.6196428571428572,0.005065833197699653,-4.31749786669922,0.05493000149726868,27.421680450439453,0.013638644748263888,-0.14351128472222222
4182,0.9988930318467882,0.5179688644409179,85.31187438964844,84.63676452636719,-7.121402740478516,91.69477844238281,0.36685774061414933,0.9843333333333333,0.6128571428571429,0.005035315619574653,-4.833840029785158,0.8788800239562988,27.421680450439453,0.007501220703125,-0.15351312425401475
4183,-0.9932944681532118,0.5179688644409179,84.32989501953125,84.08439636230469,-6.794075012207031,91.55156707763672,0.36685774061414933,0.975,0.6089285714285714,0.004577551947699653,-5.4600435667724625,0.7800060510635376,27.421680450439453,0.002727762858072917,-0.148284912109375
4184,-0.9932944681532118,0.5179688644409179,84.45263671875,83.90027618408203,-6.569034576416016,91.30607604980469,0.36663038465711806,0.9646666666666667,0.6042857142857143,0.004974280463324653,-5.613846438476564,0.9777539968490601,27.421680450439453,0.006137339274088541,-0.1430567847357856
4185,0.9988930318467882,0.5179688644409179,84.18669128417969,83.63432312011719,-6.4462890625,91.1628646850586,0.365948486328125,0.954,0.6007142857142858,0.006561109754774305,-5.536944048950197,1.450152039527893,27.421680450439453,0.006137424045138889,-0.1401017083062066
4186,-0.9972007181532118,0.5179688644409179,84.96409606933594,84.69813537597656,-6.303081512451172,91.0196533203125,0.3673123677571615,0.9436666666666667,0.5960714285714286,0.007201978895399305,-5.613846438476564,1.8566340208053589,27.421680450439453,0.0029551188151041665,-0.13691927591959635
4187,-0.9932944681532118,0.5179688644409179,84.45263671875,83.77752685546875,-6.221248626708984,90.93782806396484,0.36776691012912327,0.9316666666666666,0.5935714285714285,0.007171461317274305,-5.558916705200197,1.8786060810089111,27.421680450439453,0.007501220703125,-0.1351008521185981
4188,-0.9932944681532118,0.5179688644409179,85.33233642578125,84.08439636230469,-6.098503112792969,90.83554077148438,0.3650392320421007,0.92,0.5896428571428571,0.008605702718098959,-5.50398697192383,1.647900104522705,27.421680450439453,0.013866000705295138,-0.1326004876030816
4189,-0.9972007181532118,0.49804698944091796,85.57783508300781,85.02546691894531,-6.078044891357422,90.73324584960938,0.36549385918511285,0.9083333333333333,0.5871428571428572,0.009856923421223959,-5.49300064379883,1.1974740028381348,27.421680450439453,0.006137424045138889,-0.13123656378851997
4190,-0.9932944681532118,0.49804698944091796,85.06637573242188,84.92317199707031,-6.057586669921875,90.69232940673828,0.3670850118001302,0.896,0.5835714285714285,0.009429677327473959,-5.50398697192383,0.35155200958251953,27.421680450439453,0.001591152615017361,-0.13055462307400173
4191,-0.9972007181532118,0.5179688644409179,84.96409606933594,84.08439636230469,-6.159877777099609,90.69232940673828,0.36549385918511285,0.8853333333333333,0.5810714285714286,0.010406239827473959,-5.536944048950197,-0.3735243254394547,27.421680450439453,0.009774441189236111,-0.13169119093153211
4192,0.9988930318467882,0.5179688644409179,83.94119262695312,82.83645629882812,-6.712242126464844,90.97874450683594,0.3673123677571615,0.8736666666666667,0.5782142857142857,0.010070546468098959,-5.745678561279298,-0.5383154326171891,27.421680450439453,0.012274848090277778,-0.1410109625922309
4193,0.9949867818467882,0.5378907394409179,83.92073059082031,83.30699157714844,-7.7555999755859375,93.04499816894531,0.3661757575141059,0.8623333333333333,0.5753571428571429,0.010589345296223959,-6.734419482299806,-0.08788933093261875,27.421680450439453,0.006819322374131944,-0.17556220160590277
4194,0.9910805318467882,0.5378907394409179,84.37080383300781,83.63432312011719,-8.082927703857422,92.26759338378906,0.3661757575141059,0.8513333333333334,0.5714285714285714,0.01119961208767361,-7.4485079222412125,0.9557820558547974,27.421680450439453,0.008183119032118056,-0.17056134541829426
4195,-0.9932944681532118,0.5378907394409179,84.554931640625,84.24806213378906,-8.246593475341797,93.08592224121094,0.36867616441514756,0.8403333333333334,0.5685714285714286,0.009978993733723959,-8.030766146728517,1.7028300762176514,27.421680450439453,0.003409661187065972,-0.18147239685058594
4196,-0.9854819681532118,0.5378907394409179,84.45263671875,83.40928649902344,-8.062469482421875,92.86087799072266,0.3673123677571615,0.8296666666666667,0.5646428571428571,0.010070546468098959,-8.118654864379884,1.9445220232009888,27.421680450439453,0.011592780219184027,-0.17692608303493923
4197,-0.9854819681532118,0.5378907394409179,84.67768096923828,83.87982177734375,-8.635292053222656,93.39279174804688,0.36663038465711806,0.8186666666666667,0.5621428571428572,0.01126064724392361,-8.052738802978517,2.1642420291900635,27.421680450439453,0.008865102132161459,-0.18920093112521702
4198,-0.9854819681532118,0.5378907394409179,84.84133911132812,84.57539367675781,-8.082927703857422,93.08592224121094,0.36663038465711806,0.8083333333333333,0.5575,0.01245083279079861,-8.118654864379884,2.054382085800171,27.421680450439453,0.0029549492730034724,-0.17965388827853732
4199,-0.9815757181532118,0.5179688644409179,86.13019561767578,84.63676452636719,-8.267051696777344,93.02454376220703,0.36685774061414933,0.7966666666666666,0.5553571428571429,0.01318325466579861,-7.98682274157715,2.032410144805908,27.421680450439453,0.01659367879231771,-0.1810177273220486
4200,-0.9776694681532118,0.5179688644409179,83.77752685546875,83.49111938476562,-8.22613525390625,93.00408935546875,0.3670850118001302,0.7856666666666666,0.5517857142857143,0.01373257107204861,-8.030766146728517,1.4281799793243408,27.421680450439453,0.003182305230034722,-0.18033582899305556
4201,-0.9776694681532118,0.5179688644409179,85.72103881835938,85.33233642578125,-8.144302368164062,93.04499816894531,0.3673123677571615,0.775,0.5489285714285714,0.014495425754123263,-8.228514330932619,1.494096040725708,27.421680450439453,0.0043189154730902775,-0.17988111707899307
4202,-0.9776694681532118,0.5179688644409179,85.08683776855469,84.554931640625,-8.22613525390625,93.2291259765625,0.36663038465711806,0.764,0.5453571428571429,0.014983707004123263,-8.360346453735353,0.9008520245552063,27.421680450439453,0.0059100680881076385,-0.18283623589409723
4203,-0.9776694681532118,0.5179688644409179,84.86180114746094,84.47309875488281,-8.144302368164062,93.02454376220703,0.36663038465711806,0.7526666666666667,0.5432142857142858,0.015563540988498263,-8.44823517138672,0.48338401317596436,27.421680450439453,0.0043189154730902775,-0.17965384589301214
4204,-0.9776694681532118,0.5179688644409179,85.0459213256836,85.31187438964844,-8.533004760742188,93.35186767578125,0.36640311347113713,0.7413333333333333,0.5403571428571429,0.015868716769748263,-8.645983355590822,-0.12084640795898594,27.421680450439453,-0.0029550340440538192,-0.18760969373914932
4205,-0.9776694681532118,0.5179688644409179,84.14576721191406,83.71615600585938,-7.960178375244141,92.96316528320312,0.36663038465711806,0.7293333333333333,0.5382142857142858,0.015624576144748263,-8.87668861682129,-0.3954969816894547,27.421680450439453,0.004773457845052083,-0.17692604064941406
4206,-0.9776694681532118,0.5378907394409179,84.22760009765625,83.4501953125,-7.735141754150391,92.39035034179688,0.36776691012912327,0.7166666666666667,0.5360714285714285,0.015105777316623263,-8.514151232788087,-0.07690300280761875,27.421680450439453,0.008637830946180555,-0.16806102328830294
4207,-0.9776694681532118,0.5179688644409179,84.53446960449219,83.81844329833984,-7.898807525634766,92.28805541992188,0.3661757575141059,0.7046666666666667,0.5342857142857143,0.015319400363498263,-8.272459643432619,0.35155200958251953,27.421680450439453,0.007955847846137152,-0.168742921617296
4208,-0.9737632181532118,0.5378907394409179,84.84133911132812,84.22760009765625,-8.042011260986328,92.65629577636719,0.3673123677571615,0.6933333333333334,0.5321428571428571,0.015288882785373263,-8.283444064208986,0.5932440161705017,27.421680450439453,0.006819322374131944,-0.1744256337483724
4209,-0.9737632181532118,0.5378907394409179,87.41905212402344,86.80531311035156,-8.144302368164062,92.92225646972656,0.36753963894314234,0.683,0.5303571428571429,0.015594058566623263,-8.261473315307619,0.1867620050907135,27.245899200439453,0.006819322374131944,-0.17851732042100693
4210,-0.9737632181532118,0.5578126525878906,85.37325286865234,84.94363403320312,-9.474071502685547,94.39523315429688,0.365948486328125,0.6736666666666666,0.5260714285714285,0.015441470675998263,-8.316403048583986,-1.3622652464599625,27.421680450439453,0.004773542616102431,-0.20965894063313803
4211,-0.9776694681532118,0.5578126525878906,84.0025634765625,83.42974090576172,-9.105827331542969,94.19064331054688,0.3673123677571615,0.6663333333333333,0.5225,0.014556460910373263,-9.107395785400392,-2.0763555937500016,27.421680450439453,0.006364695231119792,-0.20329411824544272
4212,-0.9815757181532118,0.5777345275878907,84.08439636230469,83.5115737915039,-9.146743774414062,93.88377380371094,0.365948486328125,0.6586666666666666,0.5175,0.01354946560329861,-8.788799899169923,-1.8895918303222672,27.421680450439453,0.006364695231119792,-0.20033908420138888
4213,-0.9737632181532118,0.5578126525878906,84.0434799194336,83.5934066772461,-9.28995132446289,93.94515228271484,0.3684488932291667,0.65,0.5139285714285714,0.01107754177517361,-8.45922149951172,-1.505081790039064,27.421680450439453,0.0050008138020833336,-0.20261226230197482
4214,-0.9737632181532118,0.5777345275878907,84.37080383300781,83.4501953125,-9.16720199584961,94.27247619628906,0.36663038465711806,0.6423333333333333,0.5082142857142857,0.009948476155598959,-8.678940432617189,-1.3402925902099625,27.421680450439453,0.010228983561197917,-0.20488531324598525
4215,-0.9737632181532118,0.5777345275878907,84.35034942626953,83.87982177734375,-8.839874267578125,93.7201156616211,0.3670850118001302,0.6343333333333333,0.5053571428571428,0.009002431233723959,-8.689926760742189,-1.2084604674072281,27.421680450439453,0.005228084988064236,-0.19511099921332464
4216,-0.9737632181532118,0.5578126525878906,84.47309875488281,83.87982177734375,-8.328422546386719,93.27003479003906,0.36685774061414933,0.626,0.5010714285714286,0.008117421468098959,-8.239500659057619,-1.1974741392822281,27.421680450439453,0.006591966417100695,-0.18442730373806424
4217,-0.9737632181532118,0.5578126525878906,85.12775421142578,84.80043029785156,-8.533004760742188,93.31095886230469,0.3661757575141059,0.6176666666666667,0.4975,0.007354566786024305,-8.140627520629884,-1.3952223234863297,27.421680450439453,0.003636932373046875,-0.1871551513671875
4218,-0.9776694681532118,0.5777345275878907,84.47309875488281,84.12531280517578,-8.471630096435547,93.14729309082031,0.3661757575141059,0.6103333333333333,0.49392857142857144,0.006927320692274305,-9.294157641479494,-1.8017050200195328,27.421680450439453,0.003864288330078125,-0.18465470208062065
4219,-0.9776694681532118,0.5976564025878907,84.5140151977539,83.98210144042969,-8.123844146728516,92.88133239746094,0.3673123677571615,0.6026666666666667,0.4925,0.005401441786024305,-10.46965851123047,-1.9445234709472672,27.421680450439453,0.005910152859157986,-0.17783529493543837
4220,-0.9776694681532118,0.5976564025878907,84.16622924804688,83.92073059082031,-6.875904083251953,91.55156707763672,0.36753963894314234,0.5933333333333334,0.4907142857142857,0.0037535773383246527,-10.414730685302736,-1.9884668760986344,27.421680450439453,0.002727762858072917,-0.14919412400987414
4221,-0.9776694681532118,0.5777345275878907,83.73661041259766,83.24562072753906,-7.100944519042969,91.44927978515625,0.36685774061414933,0.5833333333333334,0.48964285714285716,0.002197265625,-9.349087374755861,-1.6588865690917984,27.421680450439453,0.005455440945095486,-0.15055804782443577
4222,-0.9698569681532118,0.5578126525878906,83.83889770507812,83.38882446289062,-7.121402740478516,91.75614929199219,0.3673123677571615,0.5736666666666667,0.4882142857142857,0.000335693359375,-8.920632021972658,-1.2304331236572281,27.421680450439453,0.0050008138020833336,-0.15419502258300782
4223,-0.9698569681532118,0.5777345275878907,83.85935974121094,83.30699157714844,-7.019111633300781,91.38790130615234,0.3679942660861545,0.565,0.48678571428571427,-0.0009154425726996528,-8.667954104492189,-0.801977770874025,27.421680450439453,0.006137424045138889,-0.14896681043836807
4224,-0.9698569681532118,0.5777345275878907,84.39126586914062,83.57295227050781,-6.998653411865234,91.42881774902344,0.36776691012912327,0.5566666666666666,0.485,-0.0016783820258246527,-8.338375704833986,-0.4614130430908219,27.421680450439453,0.00909237331814236,-0.14919412400987414
4225,-0.9698569681532118,0.5777345275878907,84.73905181884766,84.37080383300781,-6.998653411865234,91.26515197753906,0.3670850118001302,0.549,0.4832142857142857,-0.0018614874945746527,-7.98682274157715,-0.4723993712158219,28.388469696044922,0.004091644287109375,-0.1473756154378255
4226,-0.9737632181532118,0.5777345275878907,84.554931640625,84.20714569091797,-6.9781951904296875,91.44927978515625,0.36549385918511285,0.5416666666666666,0.4810714285714286,-0.0016783820258246527,-7.756117480346681,-0.6042314940185562,28.56424903869629,0.003864288330078125,-0.1491941663953993
4227,-0.9737632181532118,0.5777345275878907,84.5140151977539,83.96165466308594,-6.957736968994141,91.49018859863281,0.3661757575141059,0.534,0.4789285714285714,-0.0021361456976996527,-7.646256106445314,-0.48338379199218906,28.56424903869629,0.006137339274088541,-0.14942139519585504
4228,-0.9737632181532118,0.5777345275878907,84.67768096923828,84.22760009765625,-6.998653411865234,91.40835571289062,0.36663038465711806,0.527,0.4764285714285714,-0.0024413214789496527,-7.613299029418947,-0.4284540587158219,31.113059997558594,0.00500089857313368,-0.14896676805284287
4229,-0.9737632181532118,0.5777345275878907,83.22515869140625,83.75706481933594,-6.8963623046875,91.18331909179688,0.3670850118001302,0.5203333333333333,0.47464285714285714,-0.0029906378851996527,-7.4814669066162125,-0.3295809202880875,32.07984924316406,-0.0059100680881076385,-0.14532979329427084
4230,-0.9698569681532118,0.5777345275878907,86.58027648925781,85.18913269042969,-6.732700347900391,91.1219482421875,0.3684488932291667,0.5133333333333333,0.4717857142857143,-0.003936598036024305,-7.294705050537111,-0.4064833098144547,32.95874786376953,0.0154571533203125,-0.14282942877875435
4231,-0.9776694681532118,0.5777345275878907,84.06393432617188,84.0434799194336,-6.712242126464844,90.89691162109375,0.36481187608506943,0.5063333333333333,0.47035714285714286,-0.0033262464735243054,-6.965124743530275,-0.8898664885253922,34.101318359375,0.00022727118598090277,-0.1401017083062066
4232,-0.9776694681532118,0.5777345275878907,84.0025634765625,83.53202819824219,-6.773616790771484,91.24469757080078,0.3673123677571615,0.5,0.46785714285714286,-0.0033262464735243054,-6.910195010253908,-0.3625379973144547,31.728290557861328,0.005228169759114583,-0.14464793735080295
4233,-0.9737632181532118,0.5777345275878907,84.45263671875,83.83889770507812,-6.773616790771484,91.24469757080078,0.36867616441514756,0.493,0.4660714285714286,-0.003967115614149305,-7.096956866333009,0.45042601227760315,30.058380126953125,0.006819322374131944,-0.14464793735080295
4234,-0.9698569681532118,0.5777345275878907,84.96409606933594,84.20714569091797,-6.773616790771484,91.1628646850586,0.36867616441514756,0.48633333333333334,0.4639285714285714,-0.004882642957899305,-7.261746066162111,0.8239500522613525,29.970489501953125,0.008410559760199653,-0.14373868306477863
4235,-0.9659507181532118,0.5777345275878907,85.43462371826172,85.02546691894531,-6.343997955322266,90.569580078125,0.3673123677571615,0.47933333333333333,0.46214285714285713,-0.004699537489149305,-7.283718722412111,0.6152160167694092,29.970489501953125,0.00454618665907118,-0.13237308926052518
4236,-0.9659507181532118,0.5777345275878907,84.47309875488281,85.5982894897461,-6.425830841064453,90.81507873535156,0.36640311347113713,0.472,0.46035714285714285,-0.004119703504774305,-7.020054476806642,0.0,30.322050094604492,-0.01250211927625868,-0.13601010640462238
4237,-0.9737632181532118,0.5578126525878906,84.45263671875,83.92073059082031,-6.343997955322266,90.79461669921875,0.365948486328125,0.465,0.4585714285714286,-0.0028990851508246527,-6.954138415405275,0.032958000898361206,34.364990234375,0.0059100680881076385,-0.13487349616156685
4238,-0.9737632181532118,0.5578126525878906,87.17355346679688,86.90760040283203,-6.282623291015625,90.28317260742188,0.3670850118001302,0.458,0.4567857142857143,-0.0031432257758246527,-6.767376559326173,-0.14281906420898594,36.0349006652832,0.0029550340440538192,-0.12850884331597223
4239,-0.9737632181532118,0.5578126525878906,84.20714569091797,83.96165466308594,-6.855449676513672,91.42881774902344,0.36776691012912327,0.45066666666666666,0.45571428571428574,-0.0036009046766493054,-6.888222354003908,-0.801977770874025,36.29856872558594,0.0027276780870225696,-0.14760297139485676
4240,-0.9737632181532118,0.5777345275878907,84.37080383300781,83.94119262695312,-6.650867462158203,91.04011535644531,0.36663038465711806,0.44366666666666665,0.4539285714285714,-0.0036009046766493054,-7.4704805784912125,-0.5383154326171891,34.628658294677734,0.004773457845052083,-0.14101092020670572
4241,-0.9737632181532118,0.5777345275878907,87.35768127441406,86.58027648925781,-6.303081512451172,90.81507873535156,0.36776691012912327,0.436,0.45285714285714285,-0.004455396864149305,-7.854990618774416,-0.3295809202880875,34.101318359375,0.008637830946180555,-0.13464622497558593
4242,-0.9659507181532118,0.5777345275878907,84.47309875488281,84.84133911132812,-6.712242126464844,91.30607604980469,0.3682215372721354,0.428,0.4525,-0.0061032613118489586,-7.98682274157715,-1.131558077880861,34.101318359375,-0.004091559516059028,-0.14464797973632812
4243,-0.9698569681532118,0.5777345275878907,85.08683776855469,84.20714569091797,-6.67132568359375,91.2242431640625,0.3652665032280816,0.41933333333333334,0.4521428571428571,-0.0066525777180989586,-8.393305438110353,-1.3732515745849625,34.101318359375,0.009774356418185763,-0.14328409830729166
4244,-0.9659507181532118,0.5777345275878907,83.53202819824219,83.16378784179688,-5.9757537841796875,90.36500549316406,0.3684488932291667,0.4103333333333333,0.4525,-0.008025868733723959,-8.624010699340822,-0.9557825499267594,34.101318359375,0.004091559516059028,-0.12600843641493056
4245,-0.9620444681532118,0.5777345275878907,84.0434799194336,83.42974090576172,-5.484760284423828,89.87400817871094,0.3682215372721354,0.4013333333333333,0.45321428571428574,-0.00946011013454861,-8.195557253906252,-0.18676246936035312,34.101318359375,0.006819322374131944,-0.11509742736816406
4246,-0.9581382181532118,0.5578126525878906,84.24806213378906,83.73661041259766,-5.157432556152344,89.50576782226562,0.3684488932291667,0.39166666666666666,0.4539285714285714,-0.01034511990017361,-7.305691378662111,0.4064820110797882,34.101318359375,0.0056827969021267365,-0.10736889309353298
4247,-0.9581382181532118,0.5578126525878906,85.20958709716797,84.49356079101562,-5.402931213378906,89.73080444335938,0.3670850118001302,0.38366666666666666,0.4539285714285714,-0.01031460232204861,-6.40483917529297,0.6042300462722778,34.101318359375,0.007955847846137152,-0.11259706285264758
4248,-0.9542319681532118,0.5578126525878906,85.455078125,83.63432312011719,-5.934837341308594,89.97630310058594,0.3673123677571615,0.376,0.45357142857142857,-0.01019253200954861,-5.9214540892334,0.48338401317596436,34.101318359375,0.020230611165364582,-0.12123489379882812
4249,-0.9581382181532118,0.5578126525878906,84.90271759033203,85.68012237548828,-5.832546234130859,90.36500549316406,0.36640311347113713,0.369,0.45285714285714285,-0.00970425075954861,-6.031315463134767,-0.2636648588867203,34.277099609375,-0.008637830946180555,-0.12441724141438802
4250,-0.9620444681532118,0.5578126525878906,84.22760009765625,83.87982177734375,-5.914379119873047,90.40591430664062,0.36685774061414933,0.3626666666666667,0.45107142857142857,-0.00906338161892361,-6.152161257812502,-0.49437012011718906,34.277099609375,0.0038642035590277777,-0.12578103807237412
4251,-0.9620444681532118,0.5578126525878906,84.90271759033203,85.557373046875,-6.037128448486328,90.42637634277344,0.36776691012912327,0.356,0.45,-0.00973476833767361,-6.218077319213869,-0.7031046324462906,34.277099609375,-0.0072739495171440975,-0.12737227545844185
4252,-0.9620444681532118,0.5578126525878906,84.26852416992188,83.94119262695312,-5.873462677001953,90.34454345703125,0.36776691012912327,0.3496666666666667,0.44821428571428573,-0.01058926052517361,-6.294979708740236,-0.9118391447753922,34.101318359375,0.003637017144097222,-0.12464451260036892
4253,-0.9620444681532118,0.5578126525878906,83.5934066772461,83.94119262695312,-5.791633605957031,89.95584106445312,0.3679942660861545,0.3426666666666667,0.4475,-0.012023501925998263,-6.163147585937502,-0.9008528166503922,34.101318359375,-0.003864288330078125,-0.11941638522677951
4254,-0.9581382181532118,0.5578126525878906,84.57539367675781,84.6572265625,-5.382472991943359,90.1604232788086,0.36753963894314234,0.336,0.44607142857142856,-0.012694888644748263,-6.042299883911134,-0.856909411499025,34.101318359375,-0.0009092542860243056,-0.11714329189724393
4255,-0.9659507181532118,0.5578126525878906,86.15065002441406,85.25050354003906,-5.709800720214844,90.09904479980469,0.36549385918511285,0.32966666666666666,0.445,-0.012359195285373263,-5.855538027832033,-1.3293062620849625,34.101318359375,0.010001627604166667,-0.12009828355577257
4256,-0.9659507181532118,0.5378907394409179,84.28897857666016,84.71859741210938,-5.8120880126953125,89.95584106445312,0.3673123677571615,0.323,0.44392857142857145,-0.013427310519748263,-5.811594622680666,-2.1202989989013687,34.101318359375,-0.004773542616102431,-0.11964365641276041
4257,-0.9698569681532118,0.5378907394409179,82.26363372802734,81.8953857421875,-5.157432556152344,89.73080444335938,0.36685774061414933,0.31666666666666665,0.44285714285714284,-0.014953104654947917,-5.844553607055666,-1.6588865690917984,34.277099609375,0.004091644287109375,-0.10986929999457465
4258,-0.9698569681532118,0.5378907394409179,84.18669128417969,83.08195495605469,-5.607509613037109,89.42393493652344,0.3684488932291667,0.31066666666666665,0.4417857142857143,-0.016234842936197917,-5.328211443969728,-0.48338379199218906,35.6833381652832,0.012274848090277778,-0.11146049499511719
4259,-0.9659507181532118,0.5378907394409179,84.28897857666016,83.94119262695312,-5.791633605957031,90.20133972167969,0.36935814751519097,0.30433333333333334,0.4407142857142857,-0.017272440592447917,-5.262295382568361,-0.07690300280761875,35.6833381652832,0.003864288330078125,-0.12214414808485242
4260,-0.9659507181532118,0.5378907394409179,82.69325256347656,83.38882446289062,-5.239265441894531,89.34210205078125,0.36753963894314234,0.29833333333333334,0.43892857142857145,-0.017455546061197917,-5.273281710693361,0.04394400119781494,35.6833381652832,-0.00772857666015625,-0.10645963880750868
4261,-0.9659507181532118,0.5378907394409179,82.30455017089844,81.8953857421875,-4.850563049316406,89.13752746582031,0.36890352037217883,0.2926666666666667,0.4382142857142857,-0.017455546061197917,-4.844826357910158,0.9338099956512451,35.6833381652832,0.004546271430121528,-0.09986767239040799
4262,-0.9659507181532118,0.5378907394409179,84.96409606933594,84.20714569091797,-5.157432556152344,89.1170654296875,0.37026740180121526,0.287,0.43714285714285717,-0.016845194498697917,-4.262568133422853,1.8786060810089111,35.6833381652832,0.008410559760199653,-0.10304997762044271
4263,-0.9659507181532118,0.5378907394409179,83.77752685546875,84.5140151977539,-5.546134948730469,89.6080551147461,0.3673123677571615,0.282,0.43535714285714283,-0.015044657389322917,-4.141722338745119,1.735788106918335,35.6833381652832,-0.008183203803168403,-0.11282433403862847
4264,-0.9737632181532118,0.5378907394409179,83.57295227050781,83.28652954101562,-4.645984649658203,89.42393493652344,0.36640311347113713,0.27666666666666667,0.43357142857142855,-0.012481265597873263,-4.273554461547853,1.9555079936981201,35.6833381652832,0.0031824747721354166,-0.10077688429090711
4265,-0.9737632181532118,0.5179688644409179,86.33477783203125,85.25050354003906,-4.482318878173828,88.6056137084961,0.3684488932291667,0.272,0.4325,-0.01074184841579861,-3.7352415495605484,2.2301580905914307,36.91379928588867,0.012047492133246528,-0.0898659176296658
4266,-0.9737632181532118,0.49804698944091796,84.90271759033203,86.08927917480469,-5.11651611328125,88.99431610107422,0.3673123677571615,0.2673333333333333,0.4307142857142857,-0.00909389919704861,-3.1310106688232437,1.1864880323410034,37.265357971191406,-0.013184017605251737,-0.1012314690483941
4267,-0.9854819681532118,0.49804698944091796,82.85691833496094,82.59095764160156,-4.645984649658203,88.78973388671875,0.36572113037109377,0.263,0.42928571428571427,-0.0066830952962239586,-2.966221468994142,0.9118380546569824,37.441139221191406,0.0029551188151041665,-0.09373020595974392
4268,-0.9893882181532118,0.49804698944091796,84.61630249023438,83.61386108398438,-4.073158264160156,88.27828979492188,0.36663038465711806,0.25933333333333336,0.42678571428571427,-0.004821607801649305,-2.3510042601318375,1.7467740774154663,37.441139221191406,0.011138237847222222,-0.08168275621202258
4269,-0.9854819681532118,0.49804698944091796,86.29386138916016,86.15065002441406,-4.5846099853515625,88.64653015136719,0.3691307915581597,0.256,0.425,-0.0037840101453993054,-1.4831110411376969,1.9994521141052246,37.441139221191406,0.0015912373860677083,-0.09145711263020834
4270,-0.9854819681532118,0.49804698944091796,83.67523193359375,84.77996826171875,-4.66644287109375,88.74882507324219,0.3670850118001302,0.25333333333333335,0.42142857142857143,-0.0024413214789496527,-1.1864878111572281,1.5270540714263916,37.441139221191406,-0.012274848090277778,-0.0935029771592882
4271,-0.9893882181532118,0.478125114440918,85.96653747558594,84.84133911132812,-4.441402435302734,89.26026916503906,0.3673123677571615,0.25066666666666665,0.41928571428571426,-0.0006102667914496528,-1.3622652464599625,1.6588860750198364,38.93526840209961,0.012502204047309028,-0.09668524000379775
4272,-0.9893882181532118,0.478125114440918,85.57783508300781,85.94607543945312,-4.830104827880859,88.62606811523438,0.3673123677571615,0.248,0.4160714285714286,0.00115966796875,-1.3073355131835953,1.340291976928711,40.95674133300781,-0.004091559516059028,-0.09395747714572483
4273,-0.9932944681532118,0.478125114440918,85.25050354003906,84.86180114746094,-4.830104827880859,89.0761489868164,0.3661757575141059,0.24533333333333332,0.4142857142857143,0.0025633917914496527,-1.2524038725585953,0.9118380546569824,41.13251876831055,0.0043189154730902775,-0.0989583757188585
4274,-0.9932944681532118,0.478125114440918,85.98699188232422,85.78240966796875,-4.789188385009766,89.0761489868164,0.36776691012912327,0.243,0.4117857142857143,0.0033263312445746527,-1.4281813078613297,0.32958000898361206,41.13251876831055,0.002273135715060764,-0.09850374857584636
4275,-0.9972007181532118,0.478125114440918,84.45263671875,84.88226318359375,-5.402931213378906,90.09904479980469,0.3670850118001302,0.23966666666666667,0.4107142857142857,0.0034789191351996527,-1.8236757689209,-0.49437012011718906,41.13251876831055,-0.004773627387152778,-0.1166886223687066
4276,-0.9972007181532118,0.478125114440918,84.14576721191406,83.5934066772461,-4.3595733642578125,88.97386169433594,0.3682215372721354,0.236,0.4092857142857143,0.0032347785101996527,-2.4498793059082047,-0.5163427763671891,41.13251876831055,0.006137339274088541,-0.0925937228732639
4277,-0.9972007181532118,0.478125114440918,85.70057678222656,85.80287170410156,-4.441402435302734,88.64653015136719,0.3679942660861545,0.232,0.4085714285714286,0.0023193359375,-2.3949495726318375,-0.5053564482421891,41.13251876831055,-0.0011366102430555556,-0.0898659176296658
4278,-0.9972007181532118,0.478125114440918,84.63676452636719,82.57050323486328,-5.464302062988281,89.23981475830078,0.36776691012912327,0.228,0.40785714285714286,0.001556396484375,-2.3619905882568375,-0.3625379973144547,41.13251876831055,0.022958458794487848,-0.10782352023654514
4279,-0.9932944681532118,0.478125114440918,84.16622924804688,83.98210144042969,-4.789188385009766,89.50576782226562,0.3684488932291667,0.22333333333333333,0.4075,0.000701904296875,-3.0980535917968766,-0.17577614123535312,41.13251876831055,0.002045864529079861,-0.10327729119194878
4280,-0.9972007181532118,0.478125114440918,85.08683776855469,85.455078125,-4.1959075927734375,88.89202880859375,0.36663038465711806,0.21833333333333332,0.4075,0.00103759765625,-3.493548052856447,-0.14281906420898594,41.13251876831055,-0.004091559516059028,-0.08986596001519097
4281,-0.9972007181532118,0.478125114440918,86.76439666748047,84.53446960449219,-4.3595733642578125,88.52378845214844,0.36685774061414933,0.21366666666666667,0.4075,0.00140380859375,-3.251856463500978,-0.2966219359130875,41.13251876831055,0.024776967366536458,-0.08759290907118056
4282,0.9988930318467882,0.45820323944091795,83.36836242675781,84.61630249023438,-3.8481216430664062,88.68744659423828,0.3670850118001302,0.208,0.4082142857142857,0.001434326171875,-3.0101648741455094,-0.5273291044921891,41.13251876831055,-0.013866000705295138,-0.08372853597005209
4283,0.9988930318467882,0.45820323944091795,83.53202819824219,83.16378784179688,-3.868579864501953,87.80775451660156,0.3679942660861545,0.203,0.4082142857142857,0.001007080078125,-2.5926958494873062,0.0,41.13251876831055,0.004091559516059028,-0.0741814931233724
4284,-0.9972007181532118,0.45820323944091795,84.37080383300781,83.81844329833984,-4.11407470703125,88.23736572265625,0.3691307915581597,0.198,0.40785714285714286,0.000335693359375,-2.0653692656250016,0.6262019872665405,41.13251876831055,0.006137339274088541,-0.08168267144097222
4285,-0.9972007181532118,0.438281364440918,82.75462341308594,83.12287139892578,-4.768730163574219,88.89202880859375,0.3679942660861545,0.19366666666666665,0.4075,0.000640869140625,-1.8895918303222672,1.021697998046875,41.13251876831055,-0.004091644287109375,-0.09623065524631076
4286,0.9988930318467882,0.45820323944091795,84.12531280517578,82.69325256347656,-4.154991149902344,89.28073120117188,0.3673123677571615,0.18933333333333333,0.4067857142857143,0.002197265625,-2.3070608549804703,1.9335360527038574,41.13251876831055,0.015911780463324653,-0.0937302483452691
4287,-0.9972007181532118,0.438281364440918,85.63920593261719,85.33233642578125,-4.707359313964844,88.6669921875,0.36890352037217883,0.18533333333333332,0.4064285714285714,0.0034789191351996527,-2.3510042601318375,2.3400180339813232,41.13251876831055,0.003409661187065972,-0.09304835001627604
4288,-0.9972007181532118,0.45820323944091795,84.57539367675781,84.94363403320312,-4.871021270751953,89.23981475830078,0.36776691012912327,0.181,0.4057142857142857,0.004974280463324653,-2.6366411619873062,1.9774800539016724,41.13251876831055,-0.004091559516059028,-0.10123151143391927
4289,-0.9972007181532118,0.438281364440918,85.20958709716797,85.0459213256836,-4.543693542480469,88.83065795898438,0.3673123677571615,0.17633333333333334,0.40535714285714286,0.006866285536024305,-2.867346423217775,1.7028300762176514,41.13251876831055,0.001818508572048611,-0.09304835001627604
4290,0.9988930318467882,0.438281364440918,85.5982894897461,84.88226318359375,-4.154991149902344,88.62606811523438,0.36685774061414933,0.17133333333333334,0.40464285714285714,0.008392079671223959,-2.790444033691408,1.3732500076293945,41.22040939331055,0.007955847846137152,-0.08645621405707465
4291,0.9988930318467882,0.438281364440918,85.0459213256836,85.94607543945312,-4.216365814208984,88.52378845214844,0.365948486328125,0.16733333333333333,0.40464285714285714,0.009765370686848959,-2.482836382934572,0.6591600179672241,41.13251876831055,-0.010001712375217013,-0.08600171407063802
4292,0.9949867818467882,0.438281364440918,86.21202850341797,83.38882446289062,-4.339115142822266,88.72836303710938,0.3673123677571615,0.16233333333333333,0.4042857142857143,0.010436757405598959,-2.197201388427736,0.6921180486679077,41.22040939331055,0.03136893378363715,-0.0896386464436849
4293,0.9949867818467882,0.438281364440918,84.98455047607422,85.33233642578125,-4.175449371337891,88.62606811523438,0.3673123677571615,0.158,0.4039285714285714,0.010741933186848959,-2.0763555937500016,0.4394400119781494,41.13251876831055,-0.003864288330078125,-0.08668352762858073
4294,0.9988930318467882,0.438281364440918,84.94363403320312,84.61630249023438,-4.216365814208984,88.52378845214844,0.3682215372721354,0.154,0.4035714285714286,0.010345204671223959,-1.9555078917236344,0.14281800389289856,41.13251876831055,0.003637017144097222,-0.08600171407063802
4295,-0.9972007181532118,0.438281364440918,85.96653747558594,85.78240966796875,-4.441402435302734,88.44195556640625,0.3682215372721354,0.14966666666666667,0.40285714285714286,0.009887440999348959,-1.8126913481445328,-0.6152159147949234,41.13251876831055,0.002045864529079861,-0.08759286668565539
4296,0.9949867818467882,0.41835948944091794,85.72103881835938,85.455078125,-4.3595733642578125,88.81019592285156,0.3652665032280816,0.146,0.4017857142857143,0.009795888264973959,-1.8346620970459,-1.5929705076904312,41.13251876831055,0.0029551188151041665,-0.09077521430121528
4297,0.9910805318467882,0.438281364440918,83.08195495605469,82.81600189208984,-4.339115142822266,88.83065795898438,0.365948486328125,0.142,0.4010714285714286,0.008819325764973959,-1.9225508146972672,-2.0763555937500016,41.22040939331055,0.0029550340440538192,-0.09077525668674045
4298,0.9871742818467882,0.438281364440918,83.65477752685547,83.26608276367188,-4.564151763916016,88.83065795898438,0.36685774061414933,0.138,0.4,0.007446119520399305,-1.9774805479736344,-1.4721247130126969,41.22040939331055,0.004318830702039931,-0.09327566358778212
4299,0.9910805318467882,0.438281364440918,83.5115737915039,83.18424987792969,-4.830104827880859,89.52622985839844,0.36890352037217883,0.13366666666666666,0.39964285714285713,0.005706617567274305,-2.3510042601318375,-0.801977770874025,41.13251876831055,0.003636932373046875,-0.10395927429199218
4300,0.9949867818467882,0.41835948944091794,84.73905181884766,84.6572265625,-4.482318878173828,89.2193603515625,0.3691307915581597,0.12933333333333333,0.3985714285714286,0.004485999213324653,-2.845373766967775,-0.4394403868408219,41.13251876831055,0.0009091695149739584,-0.09668532477484809
4301,0.9910805318467882,0.41835948944091794,84.73905181884766,84.32989501953125,-4.093616485595703,88.46240997314453,0.36685774061414933,0.12466666666666666,0.3989285714285714,0.004638587103949653,-2.922276156494142,-0.3625379973144547,41.22040939331055,0.00454618665907118,-0.08395584954155816
4302,0.9910805318467882,0.41835948944091794,84.08439636230469,84.32989501953125,-3.6026268005371094,87.72592163085938,0.36753963894314234,0.12,0.3989285714285714,0.004363928900824653,-2.4279066496582047,-0.3405672484130875,41.22040939331055,-0.002727762858072917,-0.07031720479329427
4303,0.9910805318467882,0.39843757629394533,83.67523193359375,83.75706481933594,-4.154991149902344,88.33966064453125,0.36776691012912327,0.11533333333333333,0.3989285714285714,0.003997717963324653,-1.7907186918945328,-0.20873512561035312,41.22040939331055,-0.0009092542860243056,-0.08327390882703993
4304,0.9910805318467882,0.3785157012939453,83.5934066772461,83.36836242675781,-4.277740478515625,88.564697265625,0.36776691012912327,0.11066666666666666,0.39785714285714285,0.0036315070258246527,-1.7028299742431656,0.2197200059890747,41.22040939331055,0.002500491672092014,-0.08713819715711806
4305,0.9910805318467882,0.3585938262939453,84.75950622558594,83.73661041259766,-4.911937713623047,89.30118560791016,0.3673123677571615,0.10666666666666667,0.3975,0.003997717963324653,-1.9555078917236344,1.1315580606460571,41.22040939331055,0.011365509033203125,-0.10236803690592448
4306,0.9949867818467882,0.3785157012939453,83.53202819824219,86.04837036132812,-4.564151763916016,88.93293762207031,0.3711766560872396,0.10233333333333333,0.39571428571428574,0.004302893744574653,-2.3839632445068375,1.5929700136184692,40.69306945800781,-0.027959357367621528,-0.09441210428873698
4307,0.9910805318467882,0.3585938262939453,84.82088470458984,86.21202850341797,-4.052700042724609,88.25782775878906,0.3682215372721354,0.09866666666666667,0.395,0.005889723036024305,-2.2850881987304703,1.494096040725708,40.69306945800781,-0.0154571533203125,-0.08122808668348525
4308,0.9793617818467882,0.33867195129394534,86.662109375,84.45263671875,-4.5846099853515625,89.03523254394531,0.36572113037109377,0.09466666666666666,0.3939285714285714,0.008422597249348959,-2.186215060302736,1.6588860750198364,40.69306945800781,0.024549696180555556,-0.0957760281032986
4309,0.9793617818467882,0.3585938262939453,86.662109375,87.37813568115234,-4.502777099609375,88.95339965820312,0.3682215372721354,0.09133333333333334,0.39285714285714285,0.009917958577473959,-2.263117449829103,1.7467740774154663,40.69306945800781,-0.007955847846137152,-0.09395751953125
4310,0.9832680318467882,0.29882820129394533,85.90515899658203,88.97386169433594,-4.768730163574219,88.93293762207031,0.3670850118001302,0.08666666666666667,0.39107142857142857,0.010467274983723959,-2.3510042601318375,-0.3295809202880875,40.69306945800781,-0.03409669664171007,-0.09668519761827257
4311,0.9676430318467882,0.3187500762939453,82.79554748535156,82.73416900634766,-4.8096466064453125,89.38301849365234,0.362538825141059,0.083,0.39,0.01101650661892361,-2.4388929777832047,-1.7248026304931656,40.69306945800781,0.0006819831000434028,-0.1021407233344184
4312,0.9637367818467882,0.3187500762939453,85.43462371826172,83.1024169921875,-4.850563049316406,41.900001525878906,0.36663038465711806,0.07966666666666666,0.38857142857142857,0.010345204671223959,-2.7135435515136734,-1.0436712675781266,40.34151077270508,0.02591340806749132,0.42499372694227433
4313,0.9676430318467882,0.29882820129394533,82.63188171386719,82.57050323486328,-5.096061706542969,88.99431610107422,0.3691307915581597,0.075,0.3875,0.008697255452473959,-2.955235140869142,-1.2743765288085953,40.34151077270508,0.0006819831000434028,-0.1010041978624132
4314,0.9715492818467882,0.2789063262939453,81.28164672851562,81.0975341796875,-4.380031585693359,41.900001525878906,0.3695854187011719,0.07033333333333333,0.38607142857142857,0.006805250379774305,-2.9991785460205094,-0.8788801604003922,40.34151077270508,0.0020456949869791666,0.43022185431586374
4315,0.9715492818467882,0.25898443222045897,82.89783477783203,81.4453125,-4.073158264160156,88.72836303710938,0.36935814751519097,0.06633333333333333,0.38535714285714284,0.006255933973524305,-2.9772058897705094,0.8788800239562988,40.34151077270508,0.0161391364203559,-0.0866835700141059
4316,0.9676430318467882,0.239062557220459,86.31431579589844,85.455078125,-4.564151763916016,41.900001525878906,0.3691307915581597,0.06166666666666667,0.38392857142857145,0.007049391004774305,-2.6256548338623062,2.0104379653930664,40.34151077270508,0.009547085232204862,0.4281760745578342
4317,0.9637367818467882,0.239062557220459,88.62606811523438,89.52622985839844,-5.218807220458984,89.44439697265625,0.3652665032280816,0.057666666666666665,0.3825,0.009521230061848959,-2.581711428710939,0.2856360077857971,39.726280212402344,-0.01000179714626736,-0.10736893547905815
4318,0.9442055318467882,0.25898443222045897,80.58607482910156,83.65477752685547,-4.830104827880859,89.13752746582031,0.36458460489908856,0.054,0.38142857142857145,0.010680898030598959,-2.867346423217775,-1.0326849394531266,39.550498962402344,-0.03409669664171007,-0.0996403588189019
4319,0.9402992818467882,0.219140682220459,86.76439666748047,85.94607543945312,-4.707359313964844,41.900001525878906,0.3709493001302083,0.049666666666666665,0.3792857142857143,0.009795888264973959,-3.1090380125732437,0.36253800988197327,39.550498962402344,0.009092458089192708,0.4265848795572917
4320,0.9520180318467882,0.219140682220459,85.16867065429688,88.58515930175781,-4.298198699951172,89.17843627929688,0.3698127746582031,0.04533333333333334,0.3782142857142857,0.009124501546223959,-2.834389346191408,-0.4284540587158219,38.84737777709961,-0.037960984971788195,-0.09418483310275608
4321,0.9207680318467882,0.19921878814697266,79.25630950927734,83.18424987792969,-5.259723663330078,88.81019592285156,0.3652665032280816,0.04133333333333333,0.3757142857142857,0.009795888264973959,-2.4279066496582047,-0.801977770874025,38.84737777709961,-0.04364378187391493,-0.10077688429090711
4322,0.9207680318467882,0.19921878814697266,85.41416931152344,84.06393432617188,-4.727817535400391,88.68744659423828,0.37026740180121526,0.037,0.37392857142857144,0.009399159749348959,-2.933262484619142,1.6259280443191528,38.84737777709961,0.015002610948350694,-0.09350293477376302
4323,0.9363930318467882,0.17929691314697266,88.13508605957031,87.72592163085938,-4.236824035644531,87.95095825195312,0.3673123677571615,0.03333333333333333,0.37142857142857144,0.009826405843098959,-2.845373766967775,0.9557820558547974,38.84737777709961,0.004546271430121528,-0.07986424763997396
4324,0.9129555318467882,0.15937503814697265,84.26852416992188,86.41661071777344,-4.298198699951172,89.05569458007812,0.36572113037109377,0.029333333333333333,0.3703571428571429,0.01119961208767361,-2.493822711059572,-0.2636648588867203,38.84737777709961,-0.023867628309461805,-0.09282103644476997
4325,0.8973305318467882,0.17929691314697266,85.16867065429688,85.70057678222656,-4.789188385009766,89.03523254394531,0.36640311347113713,0.025333333333333333,0.3675,0.01217617458767361,-2.3839632445068375,-0.05493034655761875,38.84737777709961,-0.0059100680881076385,-0.0980491214328342
4326,0.8817055318467882,0.13945316314697265,85.65966796875,86.13019561767578,-4.850563049316406,89.26026916503906,0.3679942660861545,0.021333333333333333,0.3657142857142857,0.01168789333767361,-2.504809039184572,-0.2966219359130875,37.79269790649414,-0.005228084988064236,-0.1012314690483941
4327,0.8817055318467882,0.13945316314697265,88.29874420166016,83.57295227050781,-4.727817535400391,90.0785903930664,0.3652665032280816,0.017666666666666667,0.36214285714285716,0.01174892849392361,-2.252131121704103,-0.4064833098144547,37.79269790649414,0.05250879923502604,-0.10896008809407552
4328,0.8660805318467882,0.1195312786102295,86.21202850341797,81.67034912109375,-5.1983489990234375,88.78973388671875,0.3695854187011719,0.014,0.35892857142857143,0.010528310139973959,-1.560013430664064,-0.14281906420898594,37.79269790649414,0.050463104248046876,-0.09986758761935764
4329,0.8856117818467882,0.1195312786102295,82.24317932128906,83.24562072753906,-2.866138458251953,87.91004180908203,0.3682215372721354,0.010333333333333333,0.35428571428571426,0.009155019124348959,-1.0216986113281266,-0.5383154326171891,37.704811096191406,-0.011138237847222222,-0.06417978074815538
4330,0.8777992818467882,0.09960939407348633,84.45263671875,85.20958709716797,-2.9888877868652344,88.36012268066406,0.36935814751519097,0.007,0.3507142857142857,0.008514149983723959,0.19774800539016724,-0.09887375170898594,31.46462059020996,-0.008410559760199653,-0.07054456075032552
4331,0.8660805318467882,0.09960939407348633,83.18424987792969,85.65966796875,-3.0093421936035156,88.13508605957031,0.36776691012912327,0.004333333333333333,0.34535714285714286,0.008208974202473959,0.9777539968490601,0.8678940534591675,28.65213966369629,-0.02750464545355903,-0.06827142503526476
4332,0.9090492818467882,0.09960939407348633,83.49111938476562,41.900001525878906,-4.11407470703125,86.88714599609375,0.37004004584418404,0.003,0.3407142857142857,0.008056471082899306,1.263390064239502,1.5160679817199707,28.036909103393555,0.462123531765408,-0.06668023003472222
4333,0.9168617818467882,0.07968751907348633,86.08927917480469,84.86180114746094,-3.9299545288085938,84.94363403320312,0.3591291639539931,0.0013333333333333333,0.3339285714285714,0.008636220296223959,1.2743760347366333,1.6259280443191528,27.861129760742188,0.013638644748263888,-0.04303987291124132
4334,0.9988930318467882,0.09960939407348633,85.02546691894531,84.86180114746094,-1.8636970520019531,85.08683776855469,0.360038333468967,0.0006666666666666666,0.33,0.005645582411024305,1.494096040725708,1.2743760347366333,27.861129760742188,0.001818508572048611,-0.02167260911729601
4335,-0.9268882181532118,0.09960939407348633,83.92073059082031,80.68836975097656,1.9414901733398438,79.07218933105469,0.3591291639539931,-0.001,0.32357142857142857,0.0027159796820746527,2.186213970184326,0.14281800389289856,27.861129760742188,0.03591512044270833,0.08743667602539062
4336,-0.9268882181532118,0.09960939407348633,80.72928619384766,82.52958679199219,-0.16568374633789062,82.97966003417969,0.3550375196668837,-0.001,0.32035714285714284,0.001495361328125,3.460590124130249,0.23070600628852844,27.861129760742188,-0.02000333997938368,0.020607291327582464
4337,-0.8917319681532118,0.09960939407348633,83.06149291992188,82.32501220703125,1.6141624450683594,67.55433654785156,0.35458289252387154,0.0,0.31285714285714283,-0.0,3.383687973022461,0.35155200958251953,27.773239135742188,0.008183119032118056,0.21177584330240887
