,WD,WS,AIL_1,AIL_2,ELEV_1,ELEV_2,RUDD,ALT,GS,TH,PTCH,ROLL,PLA_1,AIL,ELEV
4444,0.8037717677303738,0.09960939407348633,84.98455047607422,84.02302551269531,-4.073158264160156,88.42149353027344,-0.012069914076063368,0.5896666666666667,0.5378571428571428,0.005340417226155599,0.747048020362854,-0.03295769030761875,29.179479598999023,0.01068361070421007,-0.08327390882703993
4445,0.8193967677303738,0.09960939407348633,85.35279846191406,84.67768096923828,-4.052700042724609,88.44195556640625,-0.012751854790581597,0.5873333333333334,0.5360714285714285,0.005004734463161893,0.8019779920578003,-0.06591667468261875,29.179479598999023,0.007501305474175347,-0.0832739512125651
4446,0.8311155177303738,0.09960939407348633,84.92317199707031,84.88226318359375,-4.032245635986328,88.44195556640625,-0.013661109076605903,0.5853333333333334,0.5332142857142858,0.004394398795233833,0.9008520245552063,-0.7909933500976578,29.003700256347656,0.00045454237196180554,-0.0830466800265842
4447,0.8233030177303738,0.09960939407348633,84.0025634765625,83.79798889160156,-3.9913291931152344,88.38057708740234,-0.01320648193359375,0.5836666666666667,0.5314285714285715,0.003784068425496419,0.9997260570526123,-1.516068118164064,29.003700256347656,0.0022730509440104167,-0.08191006978352865
4448,0.7959592677303738,0.09960939407348633,84.26852416992188,83.75706481933594,-3.9708709716796875,88.38057708740234,-0.012069914076063368,0.582,0.5292857142857142,0.003326315350002713,1.1095860004425049,-1.538040774414064,31.46462059020996,0.005682881673177083,-0.08168275621202258
4449,0.7881467677303738,0.09960939407348633,84.02302551269531,83.81844329833984,-3.9299545288085938,88.36012268066406,-0.011387973361545138,0.5803333333333334,0.5275,0.0025328848097059464,1.2084600925445557,-1.3512789183349625,34.892330169677734,0.002273135715060764,-0.08100085788302952
4450,0.7842405177303738,0.09960939407348633,83.26608276367188,83.42974090576172,-3.9708709716796875,88.36012268066406,-0.01002409193250868,0.579,0.5253571428571429,0.0017089313930935329,1.340291976928711,-1.0107122832031266,36.1227912902832,-0.0018184238009982638,-0.08145548502604166
4451,0.7764280177303738,0.09960939407348633,83.28652954101562,82.65233612060547,-3.9913291931152344,88.36012268066406,-0.008887566460503472,0.578,0.5242857142857142,0.0014037662082248264,1.4391660690307617,-0.08788933093261875,37.704811096191406,0.007046593560112847,-0.08168279859754775
4452,0.7725217677303738,0.09960939407348633,83.69569396972656,83.32745361328125,-3.9708709716796875,88.33966064453125,-0.00843293931749132,0.5766666666666667,0.5225,0.0015563488006591797,1.5490260124206543,1.06564199924469,38.671600341796875,0.004091559516059028,-0.08122812906901042
4453,0.7842405177303738,0.09960939407348633,84.86180114746094,84.0025634765625,-3.9504127502441406,88.31919860839844,-0.01002409193250868,0.5756666666666667,0.5217857142857143,0.0020141018761528863,1.6369140148162842,1.8346620798110962,40.07783889770508,0.009547085232204862,-0.08077345954047309
4454,0.7998655177303738,0.09960939407348633,84.71859741210938,84.57539367675781,-3.9504127502441406,88.33966064453125,-0.010933346218532987,0.5746666666666667,0.5203571428571429,0.0024718496534559464,1.7577600479125977,1.6918439865112305,40.69306945800781,0.001591152615017361,-0.08100081549750435
4455,0.8037717677303738,0.09960939407348633,84.18669128417969,83.90027618408203,-3.9708709716796875,88.33966064453125,-0.011387973361545138,0.5736666666666667,0.5196428571428572,0.003021150165134006,1.8346620798110962,1.2414180040359497,41.83563995361328,0.0031823900010850693,-0.08122812906901042
4456,0.7959592677303738,0.09960939407348633,83.92073059082031,83.36836242675781,-3.9708709716796875,88.33966064453125,-0.010478719075520834,0.5723333333333334,0.5189285714285714,0.0038145807054307725,1.922550082206726,1.1095860004425049,42.362979888916016,0.006137424045138889,-0.08122812906901042
4457,0.7803342677303738,0.09960939407348633,84.39126586914062,83.92073059082031,-3.9913291931152344,88.38057708740234,-0.011842600504557292,0.572,0.5185714285714286,0.004821634292602539,2.0214240550994873,1.1425440311431885,42.97821044921875,0.005228169759114583,-0.08191006978352865
4458,0.7725217677303738,0.1195312786102295,83.5115737915039,83.47065734863281,-3.9913291931152344,88.40103149414062,-0.010478719075520834,0.5713333333333334,0.5182142857142857,0.005676099989149305,2.065368175506592,1.1315580606460571,43.68132781982422,0.0004546271430121528,-0.08213734096950955
4459,0.7608030177303738,0.1195312786102295,83.71615600585938,83.30699157714844,-4.011787414550781,88.38057708740234,-0.009796820746527778,0.5706666666666667,0.5182142857142857,0.006652630700005426,2.120298147201538,1.5929700136184692,44.38444900512695,0.004546271430121528,-0.08213738335503472
4460,0.7490842677303738,0.1195312786102295,84.35034942626953,83.69569396972656,-4.052700042724609,88.40103149414062,-0.01070603264702691,0.5703333333333334,0.5178571428571429,0.007964851092820701,2.1752281188964844,2.1752281188964844,44.38444900512695,0.0072739495171440975,-0.0828192392985026
4461,0.7529905177303738,0.1195312786102295,85.37325286865234,84.47309875488281,-4.073158264160156,88.46240997314453,-0.010933346218532987,0.57,0.5178571428571429,0.009063451205550304,2.197200059890747,2.504807949066162,45.17546081542969,0.010001712375217013,-0.08372853597005209
4462,0.7686155177303738,0.1195312786102295,84.90271759033203,84.77996826171875,-4.052700042724609,88.44195556640625,-0.012069914076063368,0.5696666666666667,0.5178571428571429,0.009673784555519956,2.2191720008850098,1.9994521141052246,45.26335144042969,0.0013638814290364584,-0.0832739512125651
4463,0.7764280177303738,0.09960939407348633,84.5140151977539,84.18669128417969,-4.073158264160156,88.46240997314453,-0.012297227647569445,0.569,0.5175,0.010162051235495677,2.2411441802978516,1.3622640371322632,45.26335144042969,0.003636932373046875,-0.08372853597005209
4464,0.7764280177303738,0.09960939407348633,84.37080383300781,84.02302551269531,-4.073158264160156,88.46240997314453,-0.01252454121907552,0.5686666666666667,0.5171428571428571,0.010711351084899907,2.285088062286377,0.8788800239562988,45.52701950073242,0.0038642035590277777,-0.08372853597005209
4465,0.7686155177303738,0.1195312786102295,85.02546691894531,84.53446960449219,-4.073158264160156,88.46240997314453,-0.013888380262586805,0.5683333333333334,0.5171428571428571,0.011291167850155305,2.3180460929870605,0.5053560137748718,45.52701950073242,0.005455525716145834,-0.08372853597005209
4466,0.7568967677303738,0.09960939407348633,84.35034942626953,84.49356079101562,-4.093616485595703,88.48286437988281,-0.013433795505099827,0.5686666666666667,0.5171428571428571,0.011260651265441051,2.3400180339813232,-0.2636648588867203,45.52701950073242,-0.0015912373860677083,-0.08418312072753906
4467,0.7608030177303738,0.1195312786102295,84.0025634765625,83.49111938476562,-4.093616485595703,88.50332641601562,-0.012297227647569445,0.5683333333333334,0.5171428571428571,0.011047034510167444,2.3290319442749023,-0.6481748991699234,45.79069137573242,0.005682712131076389,-0.08441047668457032
4468,0.7608030177303738,0.13945316314697265,84.14576721191406,83.92073059082031,-4.093616485595703,88.564697265625,-0.014343007405598959,0.5686666666666667,0.5171428571428571,0.011413234520149236,2.3180460929870605,-0.6152159147949234,45.966468811035156,0.0025004069010416668,-0.08509237501356337
4469,0.7490842677303738,0.13945316314697265,84.26852416992188,83.81844329833984,-4.11407470703125,88.50332641601562,-0.010933346218532987,0.5686666666666667,0.5171428571428571,0.011169101180161374,2.285088062286377,-0.3295809202880875,46.054359436035156,0.00500089857313368,-0.08463779025607639
4470,0.7608030177303738,0.1195312786102295,84.37080383300781,84.06393432617188,-4.11407470703125,88.50332641601562,-0.011387973361545138,0.569,0.5175,0.010314634490203861,2.3180460929870605,-0.13183273608398594,46.054359436035156,0.003409661187065972,-0.08463779025607639
4471,0.7647092677303738,0.1195312786102295,83.49111938476562,83.32745361328125,-4.093616485595703,88.52378845214844,-0.010478719075520834,0.5686666666666667,0.5178571428571429,0.009765334640799633,2.274101972579956,0.032958000898361206,46.318031311035156,0.001818508572048611,-0.08463783264160156
4472,0.7608030177303738,0.1195312786102295,83.98210144042969,83.32745361328125,-4.134532928466797,88.52378845214844,-0.01070603264702691,0.569,0.5178571428571429,0.00982636781022814,2.296074151992798,0.7140899896621704,46.40591812133789,0.00727386474609375,-0.08509245978461372
4473,0.7647092677303738,0.1195312786102295,83.77752685546875,83.0410385131836,-4.093616485595703,88.52378845214844,-0.011615286933051215,0.569,0.5178571428571429,0.010131534319644508,2.2631161212921143,1.4721240997314453,46.40591812133789,0.008183203803168403,-0.08463783264160156
4474,0.7686155177303738,0.1195312786102295,84.5958480834961,84.22760009765625,-4.11407470703125,88.52378845214844,-0.010251405504014757,0.5686666666666667,0.5178571428571429,0.010711351084899907,2.285088062286377,2.2411441802978516,46.40591812133789,0.004091644287109375,-0.08486514621310765
4475,0.7842405177303738,0.1195312786102295,83.83889770507812,84.0025634765625,-4.073158264160156,88.50332641601562,-0.011615286933051215,0.5683333333333334,0.5178571428571429,0.011382717935434982,2.3070600032806396,2.065368175506592,46.40591812133789,-0.001818508572048611,-0.08418316311306423
4476,0.7764280177303738,0.1195312786102295,85.25050354003906,84.43218231201172,-4.134532928466797,88.52378845214844,-0.012979168362087673,0.569,0.5178571428571429,0.012847517975362146,2.296074151992798,2.1532559394836426,46.58169937133789,0.009092458089192708,-0.08509245978461372
4477,0.7842405177303738,0.1195312786102295,85.53691101074219,85.1072998046875,-4.134532928466797,88.564697265625,-0.013433795505099827,0.5693333333333334,0.5182142857142857,0.013427334740617544,2.3070600032806396,1.6918439865112305,46.58169937133789,0.004773457845052083,-0.08554700215657553
4478,0.8037717677303738,0.1195312786102295,85.25050354003906,84.86180114746094,-4.11407470703125,88.54424285888672,-0.015024948120117187,0.5693333333333334,0.5182142857142857,0.01351888482589722,2.285088062286377,0.6262019872665405,46.58169937133789,0.0043189154730902775,-0.08509241739908854
4479,0.8115842677303738,0.1195312786102295,85.18913269042969,84.88226318359375,-4.134532928466797,88.564697265625,-0.015252261691623263,0.5693333333333334,0.5182142857142857,0.013274751485909361,2.285088062286377,-0.48338379199218906,46.58169937133789,0.003409661187065972,-0.08554700215657553
4480,0.7998655177303738,0.09960939407348633,85.14820861816406,84.84133911132812,-4.093616485595703,88.54424285888672,-0.01547957526312934,0.5696666666666667,0.5182142857142857,0.012603384635374285,2.285088062286377,-1.516068118164064,46.58169937133789,0.003409661187065972,-0.08486510382758247
4481,0.7842405177303738,0.09960939407348633,85.25050354003906,84.57539367675781,-4.134532928466797,88.564697265625,-0.015024948120117187,0.569,0.5185714285714286,0.01144375110486349,2.3070600032806396,-2.263117449829103,46.58169937133789,0.007501220703125,-0.08554700215657553
4482,0.7959592677303738,0.09960939407348633,85.31187438964844,84.94363403320312,-4.134532928466797,88.564697265625,-0.015252261691623263,0.5696666666666667,0.5185714285714286,0.009490684384960603,2.296074151992798,-3.0321375303955094,46.58169937133789,0.004091559516059028,-0.08554700215657553
4483,0.7998655177303738,0.09960939407348633,84.61630249023438,84.5958480834961,-4.154991149902344,88.54424285888672,-0.014797634548611112,0.5696666666666667,0.5185714285714286,0.007262967740355602,2.296074151992798,-3.943974154541017,46.58169937133789,0.00022727118598090277,-0.0855470445421007
4484,0.7803342677303738,0.09960939407348633,83.02058410644531,83.40928649902344,-4.093616485595703,88.54424285888672,-0.012751854790581597,0.5696666666666667,0.5185714285714286,0.005004734463161893,2.285088062286377,-4.4383455687255875,46.58169937133789,-0.0043189154730902775,-0.08486510382758247
4485,0.7568967677303738,0.1195312786102295,82.77508544921875,82.61141967773438,-4.154991149902344,88.6056137084961,-0.011160659790039062,0.5696666666666667,0.5185714285714286,0.003387350506252713,2.285088062286377,-3.7462259703369156,46.142250061035156,0.001818508572048611,-0.08622894287109376
4486,0.7451780177303738,0.1195312786102295,82.9592056274414,82.79554748535156,-4.277740478515625,88.6056137084961,-0.00775099860297309,0.5696666666666667,0.5185714285714286,0.0021361668904622396,2.2411441802978516,-2.230158465454103,46.142250061035156,0.0018184238009982638,-0.08759282430013021
4487,0.7490842677303738,0.1195312786102295,83.75706481933594,83.28652954101562,-4.461860656738281,88.89202880859375,-0.01070603264702691,0.5693333333333334,0.5185714285714286,0.0013122134738498264,1.9774800539016724,-0.6921183043212906,45.17546081542969,0.005228169759114583,-0.0928209940592448
4488,0.7608030177303738,0.1195312786102295,83.90027618408203,83.42974090576172,-4.502777099609375,88.93293762207031,-0.009114880032009548,0.569,0.5178571428571429,0.0005798180898030599,1.450152039527893,0.38451001048088074,43.68132781982422,0.005228169759114583,-0.09373016357421875
4489,0.7686155177303738,0.1195312786102295,84.41172790527344,83.67523193359375,-4.5846099853515625,89.0147705078125,-0.011842600504557292,0.568,0.5175,0.0004272301991780599,0.9667680263519287,0.9667680263519287,42.71453857421875,0.00818328857421875,-0.09554867214626736
4490,0.7725217677303738,0.09960939407348633,84.24806213378906,83.81844329833984,-4.4209442138671875,88.95339965820312,-0.012297227647569445,0.5663333333333334,0.5171428571428571,0.0004882653554280599,0.4394400119781494,1.1645159721374512,41.83563995361328,0.004773542616102431,-0.09304826524522569
4491,0.7803342677303738,0.09960939407348633,83.4501953125,83.63432312011719,-4.298198699951172,88.83065795898438,-0.011615286933051215,0.5636666666666666,0.5171428571428571,0.0008239481184217664,0.12084600329399109,1.1645159721374512,40.95674133300781,-0.002045864529079861,-0.0903206295437283
4492,0.7725217677303738,0.1195312786102295,82.42729949951172,82.89783477783203,-4.216365814208984,88.74882507324219,-0.010478719075520834,0.561,0.5175,0.0018920315636528863,-0.05493034655761875,1.5709980726242065,39.98994827270508,-0.005228169759114583,-0.08850212097167968
4493,0.7568967677303738,0.1195312786102295,84.26852416992188,82.89783477783203,-4.134532928466797,88.6056137084961,-0.010478719075520834,0.5573333333333333,0.5167857142857143,0.0035399330986870658,-0.2636648588867203,2.8673460483551025,34.892330169677734,0.015229882134331598,-0.08600162929958767
4494,0.7764280177303738,0.1195312786102295,84.88226318359375,84.26852416992188,-4.032245635986328,88.50332641601562,-0.012069914076063368,0.5533333333333333,0.5164285714285715,0.004974216885036893,-0.3845106535644547,3.4276320934295654,29.706819534301758,0.006819322374131944,-0.08372857835557726
4495,0.7881467677303738,0.1195312786102295,85.35279846191406,84.6572265625,-3.9504127502441406,88.36012268066406,-0.014570320977105035,0.549,0.5160714285714286,0.0062254005008273655,-0.4723993712158219,3.0321359634399414,29.706819534301758,0.00772857666015625,-0.08122817145453559
4496,0.7959592677303738,0.1195312786102295,84.37080383300781,84.39126586914062,-3.5412521362304688,88.25782775878906,-0.014343007405598959,0.5446666666666666,0.5157142857142857,0.007324001075352567,-0.4723993712158219,2.120298147201538,29.44314956665039,-0.00022735595703125,-0.07554533216688368
4497,0.7842405177303738,0.1195312786102295,83.5115737915039,83.38882446289062,-3.11163330078125,87.64408874511719,-0.014115693834092882,0.54,0.5153571428571428,0.008697251195568512,-0.08788933093261875,1.5600121021270752,29.44314956665039,0.0013638814290364584,-0.0639524671766493
4498,0.7686155177303738,0.13945316314697265,84.73905181884766,83.4501953125,-3.5617103576660156,87.74638366699219,-0.013888380262586805,0.536,0.5146428571428572,0.01019256782020993,0.516342043876648,1.7797319889068604,29.44314956665039,0.014320627848307291,-0.07008993360731337
4499,0.7881467677303738,0.13945316314697265,84.92317199707031,85.20958709716797,-3.66400146484375,88.17599487304688,-0.013888380262586805,0.532,0.5139285714285714,0.010955484424887767,0.35155200958251953,1.4831100702285767,29.44314956665039,-0.0031823900010850693,-0.07599995930989584
4500,0.7725217677303738,0.13945316314697265,84.61630249023438,84.22760009765625,-3.5617103576660156,88.17599487304688,-0.01752539740668403,0.529,0.5117857142857143,0.012084601039547395,0.032958000898361206,0.7360620498657227,29.44314956665039,0.0043189154730902775,-0.07486339145236545
4501,0.7490842677303738,0.13945316314697265,85.08683776855469,84.53446960449219,-3.704914093017578,88.25782775878906,-0.01547957526312934,0.5253333333333333,0.5107142857142857,0.012847517975362146,0.05493000149726868,0.3185940086841583,29.44314956665039,0.006137424045138889,-0.07736379835340712
4502,0.7647092677303738,0.13945316314697265,84.554931640625,84.57539367675781,-4.318656921386719,88.64653015136719,-0.011160659790039062,0.5203333333333333,0.5075,0.011779434530131026,0.04394400119781494,-0.3735243254394547,29.44314956665039,-0.00022735595703125,-0.08850207858615451
4503,0.7803342677303738,0.13945316314697265,83.71615600585938,83.65477752685547,-5.239265441894531,89.46485137939453,-0.01252454121907552,0.5163333333333333,0.5053571428571428,0.01077238458546533,-0.2856375151367203,-1.0986010008544937,29.44314956665039,0.0006819831000434028,-0.10782352023654514
4504,0.7842405177303738,0.13945316314697265,82.85691833496094,82.75462341308594,-5.771175384521484,89.93538665771484,-0.012297227647569445,0.513,0.5010714285714286,0.010314634490203861,-1.0546575957031266,-1.1095873289794937,29.267370223999023,0.0011366102430555556,-0.11896180046929253
4505,0.7686155177303738,0.15937503814697265,84.12531280517578,83.22515869140625,-6.3644561767578125,90.42637634277344,-0.013888380262586805,0.5106666666666667,0.49785714285714283,0.01101651792545319,-1.8126913481445328,-0.3515516691894547,29.267370223999023,0.010001712375217013,-0.1310092502170139
4506,0.7686155177303738,0.15937503814697265,84.88226318359375,84.12531280517578,-7.203235626220703,91.10148620605469,-0.012297227647569445,0.508,0.4932142857142857,0.01086393433960809,-2.581711428710939,0.19774800539016724,29.44314956665039,0.008410559760199653,-0.14783024258083768
4507,0.7764280177303738,0.15937503814697265,85.0050048828125,85.06637573242188,-6.814533233642578,91.32653045654297,-0.013888380262586805,0.5046666666666667,0.48964285714285716,0.010741868000751076,-3.4605909758300797,-0.07690300280761875,29.44314956665039,-0.0006818983289930556,-0.1460118187798394
4508,0.7686155177303738,0.15937503814697265,83.42974090576172,83.61386108398438,-6.262165069580078,90.83554077148438,-0.014115693834092882,0.501,0.4857142857142857,0.010741868000751076,-3.812142031738283,-0.6921183043212906,29.44314956665039,-0.002045779758029514,-0.13441895378960503
4509,0.7373655177303738,0.17929691314697266,83.12287139892578,82.61141967773438,-6.078044891357422,90.6309585571289,-0.015706888834635415,0.49633333333333335,0.4832142857142857,0.012023567870118887,-3.6693254881591812,-0.3515516691894547,29.44314956665039,0.0056827969021267365,-0.13010003831651476
4510,0.7256467677303738,0.17929691314697266,83.5934066772461,82.81600189208984,-5.914379119873047,90.52867126464844,-0.011842600504557292,0.49133333333333334,0.48035714285714287,0.013213717654207022,-3.537493365356447,0.9228240251541138,29.44314956665039,0.008637830946180555,-0.12714500427246095
4511,0.7295530177303738,0.17929691314697266,86.19157409667969,85.06637573242188,-5.853004455566406,90.28317260742188,-0.01252454121907552,0.486,0.4785714285714286,0.013671468080605405,-3.4715773039550797,1.922550082206726,29.267370223999023,0.012502204047309028,-0.1237353006998698
4512,0.7412717677303738,0.17929691314697266,85.37325286865234,85.72103881835938,-5.791633605957031,90.28317260742188,-0.013661109076605903,0.481,0.4757142857142857,0.013274751485909361,-3.4386183195800797,1.252403974533081,29.267370223999023,-0.003864288330078125,-0.12305340237087674
4513,0.7334592677303738,0.17929691314697266,84.0434799194336,84.16622924804688,-5.566593170166016,90.1604232788086,-0.017070770263671875,0.47533333333333333,0.4739285714285714,0.01403766775945028,-3.4166475706787125,0.23070600628852844,29.267370223999023,-0.0013638814290364584,-0.11918907165527344
4514,0.7217405177303738,0.17929691314697266,82.81600189208984,82.67279052734375,-5.423389434814453,90.03767395019531,-0.011387973361545138,0.4703333333333333,0.4710714285714286,0.014983684865824385,-3.229883807250978,0.19774800539016724,29.267370223999023,0.0015912373860677083,-0.11623403761121961
4515,0.7139280177303738,0.17929691314697266,84.88226318359375,83.69569396972656,-5.44384765625,89.93538665771484,-0.01070603264702691,0.4653333333333333,0.4692857142857143,0.015777118055216477,-2.9991785460205094,1.06564199924469,29.267370223999023,0.013184102376302083,-0.11532482571072049
4516,0.6943967677303738,0.15937503814697265,83.96165466308594,84.45263671875,-5.402931213378906,89.89447021484375,-0.009796820746527778,0.46,0.4667857142857143,0.015410917714097768,-2.834389346191408,1.0546560287475586,29.267370223999023,-0.005455356174045139,-0.11441557142469617
4517,0.6943967677303738,0.15937503814697265,83.14332580566406,83.47065734863281,-5.505218505859375,89.93538665771484,-0.010933346218532987,0.4553333333333333,0.465,0.016082284564632843,-2.7355143004150406,0.7800060510635376,29.267370223999023,-0.003637017144097222,-0.11600672403971354
4518,0.7022092677303738,0.17929691314697266,84.80043029785156,84.08439636230469,-5.423389434814453,89.99675750732422,-0.010478719075520834,0.4503333333333333,0.4625,0.016662101329888244,-2.812416689941408,1.175502061843872,29.267370223999023,0.0079559326171875,-0.11577941046820747
4519,0.7217405177303738,0.15937503814697265,85.37325286865234,84.1048583984375,-5.177890777587891,89.71034240722656,-0.005250591701931423,0.446,0.4607142857142857,0.016204351565763688,-2.834389346191408,1.1425440311431885,29.267370223999023,0.014093271891276042,-0.10986925760904948
4520,0.6748655177303738,0.17929691314697266,85.70057678222656,84.39126586914062,-5.034687042236328,89.50576782226562,-0.024117406209309897,0.44133333333333336,0.45785714285714285,0.01858465179621379,-2.3949495726318375,1.032684087753296,29.44314956665039,0.014547899034288195,-0.1060050540500217
4521,0.6904905177303738,0.17929691314697266,85.08683776855469,85.20958709716797,-5.014228820800781,89.58760070800781,-0.01797998216417101,0.43733333333333335,0.45607142857142857,0.0198358340874566,-1.8676210814209,0.6481740474700928,29.267370223999023,-0.0013638814290364584,-0.10668699476453992
4522,0.6983030177303738,0.17929691314697266,83.40928649902344,83.73661041259766,-4.911937713623047,89.50576782226562,-0.014115693834092882,0.433,0.45285714285714285,0.019286534900326203,-1.7248026304931656,0.12084600329399109,29.267370223999023,-0.003636932373046875,-0.10464117262098524
4523,0.6826780177303738,0.17929691314697266,84.1048583984375,83.53202819824219,-5.157432556152344,89.58760070800781,-0.009342193603515625,0.428,0.45071428571428573,0.01885930072750516,-1.7028299742431656,0.35155200958251953,29.267370223999023,0.006364780002170139,-0.1082781473795573
4524,0.6709592677303738,0.17929691314697266,84.75950622558594,84.20714569091797,-5.096061706542969,89.62850952148438,-0.01252454121907552,0.42433333333333334,0.4475,0.01931705115390354,-1.8566347532959,0.41746801137924194,29.003700256347656,0.006137339274088541,-0.10805079142252604
4525,0.6670530177303738,0.17929691314697266,85.0050048828125,84.20714569091797,-4.952854156494141,89.46485137939453,-0.012297227647569445,0.42,0.44535714285714284,0.019561185156165232,-1.9335371428222672,0.24169200658798218,29.267370223999023,0.008865102132161459,-0.10464117262098524
4526,0.6670530177303738,0.17929691314697266,84.22760009765625,83.90027618408203,-4.727817535400391,89.34210205078125,-0.0168434566921658,0.4156666666666667,0.44285714285714284,0.019988418004438617,-1.8236757689209,-0.06591667468261875,29.44314956665039,0.003636932373046875,-0.10077688429090711
4527,0.6709592677303738,0.17929691314697266,84.86180114746094,84.22760009765625,-4.441402435302734,89.09660339355469,-0.015934202406141493,0.4116666666666667,0.44107142857142856,0.020537718516116677,-1.5819841795654312,-0.15380539233398594,29.267370223999023,0.007046678331163195,-0.09486673143174913
4528,0.6865842677303738,0.19921878814697266,84.0434799194336,84.39126586914062,-4.789188385009766,89.05569458007812,-0.01616151597764757,0.4073333333333333,0.4382142857142857,0.020110484343295633,-1.3402925902099625,-0.4284540587158219,29.267370223999023,-0.003864288330078125,-0.09827647738986545
4529,0.6865842677303738,0.19921878814697266,83.40928649902344,83.552490234375,-5.423389434814453,89.85355377197266,-0.01616151597764757,0.4033333333333333,0.43642857142857144,0.020049451836140954,-1.527054446289064,-0.5932451658935562,29.267370223999023,-0.001591152615017361,-0.1141882578531901
4530,0.6983030177303738,0.219140682220459,83.22515869140625,82.67279052734375,-6.098503112792969,90.6309585571289,-0.01616151597764757,0.4,0.43214285714285716,0.020415650852712,-2.230158465454103,-0.16478981311035312,29.267370223999023,0.006137424045138889,-0.13032735188802083
4531,0.7100217677303738,0.219140682220459,83.85935974121094,83.42974090576172,-6.650867462158203,91.0810317993164,-0.015706888834635415,0.397,0.42892857142857144,0.020263068260277645,-3.1529833250732437,0.5822579860687256,29.44314956665039,0.004773542616102431,-0.1414655473497179
4532,0.7295530177303738,0.219140682220459,85.08683776855469,84.53446960449219,-6.732700347900391,91.34698486328125,-0.015934202406141493,0.394,0.42428571428571427,0.019561185156165232,-4.141722338745119,0.8129640221595764,29.267370223999023,0.006137424045138889,-0.14532983567979602
4533,0.7334592677303738,0.219140682220459,84.28897857666016,84.41172790527344,-6.630409240722656,91.28561401367188,-0.01616151597764757,0.39066666666666666,0.41964285714285715,0.019469635070885557,-4.965672152587892,0.2197200059890747,29.267370223999023,-0.0013638814290364584,-0.14351136949327256
4534,0.7334592677303738,0.219140682220459,83.20470428466797,83.65477752685547,-5.914379119873047,90.91737365722656,-0.016388829549153647,0.387,0.41678571428571426,0.020110484343295633,-5.372154849121095,-0.2966219359130875,29.267370223999023,-0.0050008138020833336,-0.13146391974555122
4535,0.7217405177303738,0.239062557220459,83.92073059082031,83.61386108398438,-5.1983489990234375,90.0785903930664,-0.01616151597764757,0.38233333333333336,0.4135714285714286,0.020842885025533046,-5.108490603515627,-0.08788933093261875,29.267370223999023,0.003409661187065972,-0.11418821546766493
4536,0.7139280177303738,0.239062557220459,84.37080383300781,83.94119262695312,-5.034687042236328,89.75126647949219,-0.015934202406141493,0.37766666666666665,0.4114285714285714,0.02093443511081272,-4.306513445922853,0.1867620050907135,29.44314956665039,0.004773457845052083,-0.10873281690809462
4537,0.7178342677303738,0.239062557220459,84.61630249023438,84.20714569091797,-4.9733123779296875,89.62850952148438,-0.015934202406141493,0.37266666666666665,0.40785714285714286,0.020202034428575308,-3.6583391600341812,0.17577600479125977,29.267370223999023,0.00454618665907118,-0.10668690999348958
4538,0.7256467677303738,0.219140682220459,83.53202819824219,84.0025634765625,-4.8096466064453125,89.34210205078125,-0.015934202406141493,0.36866666666666664,0.4057142857142857,0.019194984815046525,-3.2957998686523453,-0.21972145373535312,29.44314956665039,-0.005228169759114583,-0.10168609619140626
4539,0.7178342677303738,0.219140682220459,82.40684509277344,82.34546661376953,-4.850563049316406,89.34210205078125,-0.01661614312065972,0.36466666666666664,0.4017857142857143,0.018981368390909834,-2.9991785460205094,-0.3735243254394547,29.267370223999023,0.0006819831000434028,-0.1021407233344184
4540,0.7061155177303738,0.239062557220459,84.1048583984375,82.63188171386719,-5.075603485107422,89.73080444335938,-0.017070770263671875,0.3606666666666667,0.3992857142857143,0.019591701409742573,-2.9881922178955094,0.3954960107803345,29.267370223999023,0.016366407606336807,-0.10896008809407552
4541,0.7139280177303738,0.239062557220459,84.6572265625,84.41172790527344,-4.830104827880859,89.48530578613281,-0.015934202406141493,0.3566666666666667,0.39535714285714285,0.019256018646748866,-3.251856463500978,0.7800060510635376,29.267370223999023,0.002727762858072917,-0.10350456237792968
4542,0.7022092677303738,0.219140682220459,82.75462341308594,84.0434799194336,-4.625526428222656,89.26026916503906,-0.017070770263671875,0.35233333333333333,0.39321428571428574,0.01962221766331991,-3.3507315092773453,0.516342043876648,29.267370223999023,-0.014320627848307291,-0.09873106214735243
4543,0.7022092677303738,0.239062557220459,83.12287139892578,82.61141967773438,-4.3595733642578125,89.0147705078125,-0.01911655002170139,0.3486666666666667,0.39,0.020873401279110384,-3.251856463500978,0.5712720155715942,31.200950622558594,0.0056827969021267365,-0.09304826524522569
4544,0.6904905177303738,0.239062557220459,83.22515869140625,83.0410385131836,-4.032245635986328,88.564697265625,-0.01752539740668403,0.3446666666666667,0.38857142857142857,0.021636318214925135,-2.911289828369142,0.9118380546569824,34.980220794677734,0.002045779758029514,-0.08441047668457032
4545,0.6904905177303738,0.239062557220459,83.96165466308594,83.16378784179688,-4.236824035644531,88.50332641601562,-0.018661922878689237,0.34,0.38642857142857145,0.022643367828453918,-2.471850054809572,1.4281799793243408,36.29856872558594,0.008865186903211806,-0.08600167168511284
4546,0.6631467677303738,0.239062557220459,83.71615600585938,83.73661041259766,-3.868579864501953,88.36012268066406,-0.0168434566921658,0.33566666666666667,0.3846428571428571,0.02331473467898899,-2.2960745268554703,1.6149420738220215,37.441139221191406,-0.00022727118598090277,-0.08031891716851128
4547,0.6670530177303738,0.239062557220459,84.06393432617188,83.53202819824219,-3.8481216430664062,88.25782775878906,-0.0168434566921658,0.3323333333333333,0.38285714285714284,0.02392506769782173,-1.9005781584472672,1.4611380100250244,38.05636978149414,0.0059100680881076385,-0.07895499335394965
4548,0.6592405177303738,0.239062557220459,84.24806213378906,83.94119262695312,-3.9504127502441406,88.29874420166016,-0.018889236450195312,0.3283333333333333,0.3817857142857143,0.025115218806457524,-1.4831110411376969,1.032684087753296,38.93526840209961,0.003409661187065972,-0.08054618835449219
4549,0.6514280177303738,0.239062557220459,83.90027618408203,83.73661041259766,-3.8890380859375,88.27828979492188,-0.020480431450737847,0.3253333333333333,0.3796428571428571,0.027220868118794764,-1.153530734130861,0.6811320185661316,39.726280212402344,0.001818508572048611,-0.07963697645399305
4550,0.6475217677303738,0.25898443222045897,83.77752685546875,83.61386108398438,-4.073158264160156,88.46240997314453,-0.01957117716471354,0.32233333333333336,0.3782142857142857,0.029234967345852327,-0.856909411499025,0.8019779920578003,40.34151077270508,0.001818508572048611,-0.08372853597005209
4551,0.6475217677303738,0.25898443222045897,83.79798889160156,83.49111938476562,-4.277740478515625,88.72836303710938,-0.017070770263671875,0.319,0.37642857142857145,0.030150468198649093,-0.812964098999025,1.2084600925445557,41.74774932861328,0.003409661187065972,-0.08895670572916667
4552,0.6475217677303738,0.25898443222045897,84.98455047607422,84.37080383300781,-4.216365814208984,88.6669921875,-0.01616151597764757,0.31566666666666665,0.37535714285714283,0.03024201828392877,-0.9997259550781266,1.5270540714263916,42.362979888916016,0.006819407145182292,-0.08759286668565539
4553,0.6592405177303738,0.25898443222045897,85.41416931152344,84.88226318359375,-4.400489807128906,88.74882507324219,-0.01616151597764757,0.31266666666666665,0.3742857142857143,0.030028400535244415,-1.153530734130861,1.2304320335388184,43.241878509521484,0.0059100680881076385,-0.09054794311523437
4554,0.6592405177303738,0.25898443222045897,83.06149291992188,83.87982177734375,-4.134532928466797,88.74882507324219,-0.01775266859266493,0.30933333333333335,0.37392857142857144,0.0305471861178928,-1.3732515745849625,0.45042601227760315,43.76921844482422,-0.009092542860243056,-0.08759286668565539
4555,0.6592405177303738,0.2789063262939453,81.81356048583984,81.9567642211914,-3.9913291931152344,88.52378845214844,-0.018661922878689237,0.306,0.37392857142857144,0.032164567425706656,-1.4062086516113297,0.4723980128765106,44.03289031982422,-0.001591152615017361,-0.08350130716959635
4556,0.6553342677303738,0.2789063262939453,83.22515869140625,82.48867797851562,-4.073158264160156,88.46240997314453,-0.01752539740668403,0.30233333333333334,0.37392857142857144,0.03304955070037842,-1.2853628569335953,1.5050820112228394,44.38444900512695,0.008183119032118056,-0.08372853597005209
4557,0.6592405177303738,0.2789063262939453,85.455078125,84.73905181884766,-4.073158264160156,88.44195556640625,-0.01616151597764757,0.29833333333333334,0.37392857142857144,0.0331411007856581,-1.1864878111572281,2.197200059890747,44.29655838012695,0.007955847846137152,-0.08350126478407117
4558,0.6631467677303738,0.25898443222045897,85.1072998046875,85.33233642578125,-4.154991149902344,88.40103149414062,-0.01729808383517795,0.2946666666666667,0.37357142857142855,0.033263168449062776,-1.142544406005861,1.6259280443191528,44.56023025512695,-0.0025004069010416668,-0.08395580715603299
4559,0.6631467677303738,0.25898443222045897,84.24806213378906,84.28897857666016,-4.3595733642578125,88.83065795898438,-0.01979849073621962,0.291,0.37357142857142855,0.03478900232069228,-1.2524038725585953,0.7360620498657227,44.56023025512695,-0.0004546271430121528,-0.09100257025824653
4560,0.6553342677303738,0.2789063262939453,84.26852416992188,84.14576721191406,-4.257282257080078,88.87156677246094,-0.020025804307725693,0.28733333333333333,0.37357142857142855,0.03674206904059517,-1.560013430664064,0.2856360077857971,44.82389831542969,0.0013639662000868055,-0.09032054477267795
4561,0.6553342677303738,0.29882820129394533,83.24562072753906,83.71615600585938,-4.154991149902344,88.62606811523438,-0.01616151597764757,0.2836666666666667,0.3742857142857143,0.037474469722832575,-1.7138163023681656,0.2856360077857971,44.99967956542969,-0.005228169759114583,-0.08645621405707465
4562,0.6592405177303738,0.2789063262939453,84.45263671875,83.73661041259766,-3.8481216430664062,88.40103149414062,-0.01616151597764757,0.2793333333333333,0.37464285714285717,0.03698620171830919,-1.6479002409667984,0.6262019872665405,44.99967956542969,0.007955847846137152,-0.08054614596896702
4563,0.6670530177303738,0.2789063262939453,84.69813537597656,84.57539367675781,-4.952854156494141,88.23736572265625,-0.013888380262586805,0.27566666666666667,0.375,0.03631483619232178,-1.3293062620849625,0.5712720155715942,44.99967956542969,0.0013637966579861111,-0.09100244310167101
4564,0.6631467677303738,0.2789063262939453,84.41172790527344,84.41172790527344,-4.605068206787109,89.19889831542969,-0.01661614312065972,0.2713333333333333,0.37535714285714283,0.03677258396962484,-1.6039568358154312,0.14281800389289856,44.99967956542969,0.0,-0.0978218502468533
4565,0.6670530177303738,0.29882820129394533,84.32989501953125,84.1048583984375,-4.318656921386719,88.83065795898438,-0.01752539740668403,0.267,0.3757142857142857,0.03750498465186226,-2.1312853270263687,-0.13183273608398594,44.99967956542969,0.0025004069010416668,-0.09054794311523437
4566,0.6670530177303738,0.29882820129394533,84.37080383300781,84.16622924804688,-3.9913291931152344,88.38057708740234,-0.01252454121907552,0.263,0.37642857142857145,0.037413434566582575,-2.175228732177736,-0.18676246936035312,44.99967956542969,0.0022730509440104167,-0.08191006978352865
4567,0.6709592677303738,0.29882820129394533,84.75950622558594,84.88226318359375,-4.3595733642578125,88.27828979492188,-0.008660252888997395,0.25866666666666666,0.37857142857142856,0.03634535112135146,-1.7248026304931656,-0.3076082640380875,44.91178894042969,-0.0013639662000868055,-0.08486514621310765
4568,0.6709592677303738,0.29882820129394533,84.69813537597656,84.5140151977539,-4.257282257080078,88.6056137084961,-0.015024948120117187,0.25433333333333336,0.38107142857142856,0.03591811827307807,-1.3512789183349625,-0.7580343657226578,44.91178894042969,0.002045779758029514,-0.08736551072862413
4569,0.6748655177303738,0.29882820129394533,83.98210144042969,84.49356079101562,-4.441402435302734,88.6669921875,-0.01729808383517795,0.25033333333333335,0.38357142857142856,0.035582435510084366,-1.1974741392822281,-1.2304331236572281,44.99967956542969,-0.005682881673177083,-0.09009327358669705
4570,0.6748655177303738,0.3187500762939453,83.81844329833984,83.552490234375,-4.4209442138671875,88.83065795898438,-0.014570320977105035,0.24666666666666667,0.385,0.03485003482784695,-1.2084604674072281,-1.3183199339599625,44.99967956542969,0.0029550340440538192,-0.09168446858723958
4571,0.6787717677303738,0.3187500762939453,83.83889770507812,83.65477752685547,-4.441402435302734,88.74882507324219,-0.012297227647569445,0.243,0.3867857142857143,0.03365988636830648,-1.2084604674072281,-1.164517062255861,44.99967956542969,0.002045779758029514,-0.09100252787272135
4572,0.6787717677303738,0.3187500762939453,84.0025634765625,83.67523193359375,-4.400489807128906,88.76927947998047,-0.013433795505099827,0.23966666666666667,0.3875,0.03271386793738472,-1.142544406005861,-0.9997259550781266,44.99967956542969,0.003637017144097222,-0.09077521430121528
4573,0.6748655177303738,0.3187500762939453,83.4501953125,83.0001220703125,-5.055145263671875,89.62850952148438,-0.010251405504014757,0.23666666666666666,0.38857142857142857,0.03182888466271295,-1.0876146727294937,-0.6811319761962906,44.99967956542969,0.0050008138020833336,-0.10759616427951389
4574,0.6826780177303738,0.3187500762939453,83.47065734863281,83.24562072753906,-4.5846099853515625,89.46485137939453,-0.011387973361545138,0.23366666666666666,0.3889285714285714,0.031188034065755214,-1.4940973692626969,-0.3076082640380875,44.99967956542969,0.0025004069010416668,-0.10054957071940104
4575,0.6826780177303738,0.33867195129394534,83.49111938476562,84.47309875488281,-4.523235321044922,89.03523254394531,-0.014570320977105035,0.23033333333333333,0.3889285714285714,0.031188034065755214,-1.5929705076904312,0.0,44.99967956542969,-0.010910881890190972,-0.09509408738878038
4576,0.6748655177303738,0.33867195129394534,83.4501953125,83.1024169921875,-4.5846099853515625,89.42393493652344,-0.015706888834635415,0.22733333333333333,0.3892857142857143,0.031798369733683274,-1.4940973692626969,0.3185940086841583,45.17546081542969,0.0038642035590277777,-0.10009494357638889
4577,0.6787717677303738,0.33867195129394534,83.552490234375,83.26608276367188,-4.727817535400391,89.13752746582031,-0.010933346218532987,0.224,0.3892857142857143,0.03243921768154569,-1.516068118164064,0.790992021560669,44.99967956542969,0.003182305230034722,-0.0985038333468967
4578,0.6709592677303738,0.33867195129394534,86.49844360351562,83.47065734863281,-4.871021270751953,89.1170654296875,-0.015934202406141493,0.221,0.3892857142857143,0.03372091887546116,-1.6479002409667984,1.2084600925445557,44.99967956542969,0.03364206949869792,-0.09986763000488282
4579,0.6748655177303738,0.3585938262939453,84.08439636230469,85.53691101074219,-5.464302062988281,89.46485137939453,-0.011842600504557292,0.21766666666666667,0.3896428571428571,0.034941584913126635,-1.8676210814209,0.8788800239562988,44.99967956542969,-0.016139051649305555,-0.1103239271375868
4580,0.6709592677303738,0.3585938262939453,84.24806213378906,84.06393432617188,-4.9733123779296875,89.52622985839844,-0.014570320977105035,0.21366666666666667,0.3896428571428571,0.03634535112135146,-2.3949495726318375,0.5383139848709106,44.99967956542969,0.002045864529079861,-0.10555046929253473
4581,0.6709592677303738,0.3785157012939453,84.08439636230469,84.06393432617188,-4.523235321044922,89.42393493652344,-0.015024948120117187,0.21,0.39035714285714285,0.037840667414855964,-2.7465006285400406,0.48338401317596436,44.99967956542969,0.00022735595703125,-0.09941300286187066
4582,0.6670530177303738,0.3785157012939453,84.35034942626953,84.06393432617188,-4.830104827880859,89.30118560791016,-0.015252261691623263,0.206,0.39071428571428574,0.03906133610161676,-2.7025572233886734,0.6591600179672241,44.91178894042969,0.0031823900010850693,-0.10145878261990017
4583,0.6670530177303738,0.3785157012939453,84.0434799194336,84.08439636230469,-4.8914794921875,89.36256408691406,-0.010933346218532987,0.20166666666666666,0.39107142857142857,0.039610636613294815,-2.7135435515136734,0.8788800239562988,44.99967956542969,-0.0004546271430121528,-0.1028227064344618
4584,0.6631467677303738,0.3785157012939453,84.08439636230469,83.90027618408203,-4.871021270751953,89.36256408691406,-0.011842600504557292,0.197,0.3914285714285714,0.039976834305318204,-2.911289828369142,1.0766279697418213,44.12078094482422,0.002045779758029514,-0.10259539286295573
4585,0.6592405177303738,0.3785157012939453,84.6572265625,84.554931640625,-4.686901092529297,89.0761489868164,-0.016388829549153647,0.192,0.3917857142857143,0.041258535499233674,-3.0541082792968766,1.2414180040359497,43.241878509521484,0.0011366102430555556,-0.09736722310384115
4586,0.6553342677303738,0.3785157012939453,84.67768096923828,84.41172790527344,-4.543693542480469,89.1170654296875,-0.014343007405598959,0.18766666666666668,0.3917857142857143,0.04226558643731012,-3.0321375303955094,1.3183200359344482,43.241878509521484,0.0029550340440538192,-0.09623065524631076
4587,0.6553342677303738,0.3785157012939453,85.25050354003906,86.37569427490234,-4.543693542480469,88.48286437988281,-0.014115693834092882,0.18333333333333332,0.3917857142857143,0.04321160221913656,-2.7574869566650406,1.1974740028381348,43.241878509521484,-0.01250211927625868,-0.08918397691514757
4588,0.6592405177303738,0.3785157012939453,84.98455047607422,84.90271759033203,-4.380031585693359,88.6056137084961,-0.01070603264702691,0.17866666666666667,0.3914285714285714,0.04324211979726156,-2.3619905882568375,0.8459219932556152,43.241878509521484,0.0009092542860243056,-0.0887293921576606
4589,0.6553342677303738,0.3585938262939453,83.85935974121094,84.35034942626953,-4.625526428222656,88.76927947998047,-0.012979168362087673,0.175,0.39071428571428574,0.04324211979726156,-2.0214239531250016,0.6042300462722778,43.241878509521484,-0.005455440945095486,-0.09327562120225695
4590,0.6553342677303738,0.3585938262939453,84.16622924804688,83.63432312011719,-5.075603485107422,89.03523254394531,-0.01070603264702691,0.171,0.39,0.04287591945614285,-1.9445234709472672,0.8788800239562988,43.241878509521484,0.0059100680881076385,-0.10123151143391927
4591,0.6631467677303738,0.33867195129394534,84.98455047607422,84.69813537597656,-4.871021270751953,89.44439697265625,-0.005250591701931423,0.16733333333333333,0.3889285714285714,0.04199093618147109,-2.252131121704103,0.9887400269508362,43.417659759521484,0.0031823900010850693,-0.10350464714898003
4592,0.6631467677303738,0.33867195129394534,85.0050048828125,85.5164566040039,-4.686901092529297,89.28073120117188,-0.01616151597764757,0.16366666666666665,0.38857142857142857,0.04199093618147109,-2.3839632445068375,0.5493000149726868,43.241878509521484,-0.0056827969021267365,-0.0996403588189019
4593,0.6592405177303738,0.33867195129394534,84.12531280517578,84.77996826171875,-4.461860656738281,88.97386169433594,-0.01547957526312934,0.16,0.38785714285714284,0.04183835093994141,-2.3290335112304703,0.10986000299453735,43.153987884521484,-0.0072739495171440975,-0.0937302483452691
4594,0.6592405177303738,0.33867195129394534,84.37080383300781,83.96165466308594,-4.482318878173828,88.81019592285156,-0.015706888834635415,0.15633333333333332,0.3875,0.041716285925632056,-2.0763555937500016,0.16479000449180603,43.153987884521484,0.004546101888020833,-0.09213905334472657
4595,0.6123655177303738,0.29882820129394533,84.24806213378906,84.06393432617188,-5.055145263671875,89.34210205078125,-0.00843293931749132,0.153,0.3867857142857143,0.04080078507283529,-1.9445234709472672,0.5822579860687256,43.241878509521484,0.002045864529079861,-0.10441385904947917
4596,0.7295530177303738,0.3187500762939453,83.96165466308594,83.87982177734375,-5.239265441894531,89.62850952148438,0.0056603749593098955,0.14966666666666667,0.38642857142857145,0.037443952144707575,-2.2741018706054703,1.032684087753296,43.241878509521484,0.0009092542860243056,-0.1096419440375434
4597,0.7217405177303738,0.2789063262939453,84.18669128417969,83.98210144042969,-4.8914794921875,89.36256408691406,-0.006159803602430555,0.14566666666666667,0.38571428571428573,0.03506365257653131,-2.878332751342775,0.6701459884643555,41.83563995361328,0.0022732204861111113,-0.1028227064344618
4598,0.6865842677303738,0.29882820129394533,84.1048583984375,83.96165466308594,-3.8481216430664062,88.50332641601562,-0.034346389770507815,0.14233333333333334,0.385,0.03845100308278402,-2.845373766967775,-0.2526785307617203,41.83563995361328,0.001591152615017361,-0.08168275621202258
4599,0.6631467677303738,0.29882820129394533,84.26852416992188,83.67523193359375,-4.7482757568359375,88.0123291015625,-0.01979849073621962,0.138,0.3842857142857143,0.04009890196872288,-2.3619905882568375,-0.08788933093261875,41.83563995361328,0.006592135959201389,-0.08622894287109376
4600,0.6709592677303738,0.2789063262939453,87.21446990966797,85.68012237548828,-4.605068206787109,88.85111236572266,-0.002750142415364583,0.13366666666666666,0.38321428571428573,0.0373829196375529,-2.3729769163818375,0.2526780068874359,41.83563995361328,0.017048305935329862,-0.09395756191677518
4601,0.6826780177303738,0.25898443222045897,88.25782775878906,85.29141998291016,-4.11407470703125,88.29874420166016,-0.01957117716471354,0.12966666666666668,0.3825,0.03500261742028131,-2.3070608549804703,-0.5932451658935562,41.74774932861328,0.03296008639865451,-0.08236465454101563
4602,0.6670530177303738,0.25898443222045897,84.0434799194336,84.0434799194336,-4.11407470703125,89.1170654296875,-0.018207295735677084,0.125,0.3817857142857143,0.033415751041497126,-2.142269747802736,-1.5709978514404312,41.74774932861328,0.0,-0.09145711263020834
4603,0.6631467677303738,0.25898443222045897,84.5140151977539,84.28897857666016,-4.318656921386719,88.74882507324219,-0.020025804307725693,0.12133333333333333,0.38,0.031737334577433274,-2.263117449829103,-1.6369139128417984,41.74774932861328,0.0025004069010416668,-0.08963868882921007
4604,0.6709592677303738,0.239062557220459,85.41416931152344,85.29141998291016,-4.073158264160156,87.97142028808594,-0.008660252888997395,0.11733333333333333,0.3796428571428571,0.028288951564025885,-2.142269747802736,-1.4281813078613297,41.74774932861328,0.0013638814290364584,-0.0782730950249566
4605,0.6787717677303738,0.19921878814697266,85.06637573242188,84.96409606933594,-4.298198699951172,88.78973388671875,-0.00843293931749132,0.114,0.37857142857142856,0.02355886868125068,-1.5709978514404312,-1.7467752867431656,41.74774932861328,0.001136440700954861,-0.0898659176296658
4606,0.6865842677303738,0.19921878814697266,83.5934066772461,83.69569396972656,-4.523235321044922,89.03523254394531,-0.014115693834092882,0.11,0.3775,0.020141001921420633,-1.4721247130126969,-2.197201388427736,41.48408126831055,-0.0011365254720052083,-0.09509408738878038
4607,0.7061155177303738,0.19921878814697266,82.85691833496094,81.4453125,-4.461860656738281,88.93293762207031,-0.01752539740668403,0.10633333333333334,0.37535714285714283,0.017394501349851824,-1.8017050200195328,-1.7577597075195328,39.550498962402344,0.01568450927734375,-0.09327553643120659
4608,0.7451780177303738,0.19921878814697266,83.65477752685547,80.17691802978516,-3.7662887573242188,88.29874420166016,-0.012297227647569445,0.10333333333333333,0.37392857142857144,0.014159734760581126,-2.0763555937500016,-0.5273291044921891,39.550498962402344,0.03864288330078125,-0.0785003662109375
4609,0.7568967677303738,0.17929691314697266,84.57539367675781,81.62944030761719,-3.909496307373047,87.86912536621094,0.0020233578152126738,0.09933333333333333,0.37214285714285716,0.011260651265441051,-1.3732515745849625,0.8129640221595764,40.25362014770508,0.03273281521267361,-0.07531801859537761
4610,0.7373655177303738,0.15937503814697265,82.16134643554688,83.47065734863281,-4.277740478515625,88.74882507324219,-0.021162372165256075,0.09633333333333334,0.3707142857142857,0.012420284464814932,-0.9557825499267594,0.8788800239562988,40.25362014770508,-0.014547899034288195,-0.08918406168619791
4611,0.6983030177303738,0.17929691314697266,85.80287170410156,86.64164733886719,-4.073158264160156,88.62606811523438,-0.01911655002170139,0.09233333333333334,0.36857142857142855,0.015502467799377445,-1.3842359953613297,1.8786060810089111,40.25362014770508,-0.009319729275173612,-0.08554695977105034
4612,0.6904905177303738,0.17929691314697266,87.27584838867188,87.19401550292969,-3.725372314453125,87.17355346679688,-0.015024948120117187,0.08866666666666667,0.3675,0.017455534519280332,-1.4611383848876969,2.13128399848938,40.25362014770508,0.0009092542860243056,-0.06554361979166666
4613,0.7178342677303738,0.17929691314697266,86.559814453125,86.39614868164062,-4.277740478515625,88.83065795898438,-0.01661614312065972,0.085,0.36607142857142855,0.01827948528679742,-1.3512789183349625,1.581984043121338,40.25362014770508,0.001818508572048611,-0.09009331597222223
4614,0.6709592677303738,0.13945316314697265,87.84866333007812,87.35768127441406,-3.275299072265625,87.562255859375,-0.017070770263671875,0.08066666666666666,0.365,0.018004835030958392,-1.7248026304931656,1.0876140594482422,40.25362014770508,0.005455356174045139,-0.0648617214626736
4615,0.7022092677303738,0.13945316314697265,83.67523193359375,82.65233612060547,-3.8890380859375,88.0123291015625,-0.018889236450195312,0.077,0.36392857142857143,0.01675365141516792,-1.4611383848876969,0.26366400718688965,40.25362014770508,0.011365509033203125,-0.07668185763888889
4616,0.7100217677303738,0.13945316314697265,84.75950622558594,81.22027587890625,-4.216365814208984,88.564697265625,-0.01320648193359375,0.073,0.3632142857142857,0.016387451074049212,-1.505081790039064,0.7031040191650391,40.07783889770508,0.039324781629774305,-0.08645625644259983
4617,0.6709592677303738,0.13945316314697265,86.0688247680664,85.37325286865234,-4.032245635986328,88.23736572265625,-0.01911655002170139,0.06966666666666667,0.36178571428571427,0.01773018477511936,-1.8676210814209,1.021697998046875,40.25362014770508,0.00772857666015625,-0.08077345954047309
4618,0.7100217677303738,0.13945316314697265,85.02546691894531,88.19645690917969,-3.9299545288085938,86.68256378173828,-0.011615286933051215,0.06566666666666666,0.3607142857142857,0.017363984434000654,-1.527054446289064,0.6591600179672241,40.25362014770508,-0.035233222113715275,-0.06236131456163194
4619,0.7061155177303738,0.1195312786102295,82.85691833496094,84.92317199707031,-3.9913291931152344,87.91004180908203,-0.00843293931749132,0.06166666666666667,0.36,0.0156855679699368,-0.9997259550781266,-0.2966219359130875,40.25362014770508,-0.0229583740234375,-0.07668190002441407
4620,0.7217405177303738,0.09960939407348633,84.16622924804688,85.82332611083984,-4.073158264160156,88.42149353027344,-0.014343007405598959,0.058,0.35892857142857143,0.014251284845860803,-0.9338098936767594,-0.856909411499025,40.25362014770508,-0.01841218736436632,-0.08327390882703993
4621,0.7373655177303738,0.1195312786102295,84.69813537597656,84.67768096923828,-3.9913291931152344,88.48286437988281,-0.017070770263671875,0.05366666666666667,0.3578571428571429,0.013213717654207022,-1.2304331236572281,-0.9338098936767594,40.25362014770508,0.00022727118598090277,-0.08304659525553386
4622,0.7139280177303738,0.09960939407348633,82.46821594238281,84.32989501953125,-3.3366737365722656,87.72592163085938,-0.013888380262586805,0.049666666666666665,0.3575,0.01144375110486349,-1.4611383848876969,-1.2524038725585953,40.25362014770508,-0.020685323079427085,-0.06736217074924045
4623,0.6709592677303738,0.07968751907348633,81.32257080078125,81.64989471435547,-3.3980445861816406,87.43951416015625,-0.01911655002170139,0.04566666666666667,0.3560714285714286,0.01019256782020993,-1.0436712675781266,-0.9777552061767594,40.25362014770508,-0.003636932373046875,-0.06486176384819878
4624,0.6748655177303738,0.09960939407348633,83.08195495605469,83.22515869140625,-3.3366737365722656,87.64408874511719,-0.020253117879231772,0.042666666666666665,0.35535714285714287,0.010528251245477469,-0.6701475554199234,-0.09887375170898594,40.25362014770508,-0.001591152615017361,-0.06645291646321615
4625,0.6787717677303738,0.09960939407348633,83.552490234375,82.73416900634766,-3.2343826293945312,87.5213394165039,-0.011387973361545138,0.039,0.3539285714285714,0.010284117905489608,-0.4504267149658219,0.8459219932556152,40.25362014770508,0.009092458089192708,-0.0639524671766493
4626,0.6670530177303738,0.07968751907348633,84.08439636230469,87.0098876953125,-3.3366737365722656,87.95095825195312,-0.007069057888454861,0.035666666666666666,0.35285714285714287,0.009887400979656649,-0.18676246936035312,0.9338099956512451,40.25362014770508,-0.03250545925564236,-0.06986257765028211
4627,0.6748655177303738,0.07968751907348633,83.98210144042969,81.05661010742188,-3.357128143310547,87.70545959472656,-0.018207295735677084,0.03233333333333333,0.3507142857142857,0.009399134465249384,0.05493000149726868,0.8459219932556152,39.814170837402344,0.03250545925564236,-0.0673620859781901
4628,0.7373655177303738,0.07968751907348633,86.15065002441406,85.27096557617188,-4.441402435302734,88.78973388671875,-0.012751854790581597,0.029666666666666668,0.3485714285714286,0.009185517875544235,0.5602860450744629,0.9887400269508362,38.14426040649414,0.009774271647135417,-0.09145707024468316
4629,0.6983030177303738,0.07968751907348633,86.68256378173828,85.49600219726562,-4.8096466064453125,88.85111236572266,-0.01547957526312934,0.026,0.345,0.00958223447024028,0.4284540116786957,0.747048020362854,38.05636978149414,0.013184017605251737,-0.09623065524631076
4630,0.7217405177303738,0.07968751907348633,83.87982177734375,86.47798156738281,-4.175449371337891,87.39859008789062,-0.01957117716471354,0.02266666666666667,0.34214285714285714,0.010528251245477469,0.32958000898361206,-0.16478981311035312,38.05636978149414,-0.02886844211154514,-0.07304488288031684
4631,0.7451780177303738,0.09960939407348633,83.85935974121094,83.90027618408203,-3.8072052001953125,87.80775451660156,-0.022298897637261283,0.02,0.3385714285714286,0.010680834500185653,0.747048020362854,-0.5053564482421891,38.05636978149414,-0.0004546271430121528,-0.07349955240885417
4632,0.7061155177303738,0.07968751907348633,82.48867797851562,83.77752685546875,-2.2319412231445312,86.13019561767578,-0.015706888834635415,0.015666666666666666,0.3360714285714286,0.009673784555519956,1.1315580606460571,-0.2966219359130875,38.05636978149414,-0.014320543077256944,-0.03735707600911458
4633,0.7100217677303738,0.05976563930511475,82.73416900634766,82.550048828125,-0.5952987670898438,85.43462371826172,-0.009114880032009548,0.012333333333333333,0.33321428571428574,0.007751234420331324,2.032410144805908,0.45042601227760315,38.05636978149414,0.002045779758029514,-0.011443583170572917
4634,0.7803342677303738,0.05976563930511475,85.86424255371094,84.86180114746094,0.12073135375976562,83.14332580566406,-0.007978312174479167,0.009,0.33071428571428574,0.006316947937011719,3.4276320934295654,1.032684087753296,35.50756072998047,0.011138237847222222,0.021971172756618924
4635,0.8037717677303738,0.05976563930511475,84.94363403320312,84.77996826171875,1.2663764953613281,83.22515869140625,-0.01729808383517795,0.006,0.3267857142857143,0.006866248448689779,4.119750022888184,0.6042300462722778,26.89434051513672,0.001818508572048611,0.033791308932834205
4636,0.8428342677303738,0.09960939407348633,84.57539367675781,84.53446960449219,3.700878143310547,80.9952392578125,-0.01911655002170139,0.004,0.32392857142857145,0.007873301090325253,4.394400119781494,-0.04394401843261875,26.71855926513672,0.0004547119140625,0.08561820983886718
4637,0.8154905177303738,0.09960939407348633,82.05905151367188,84.24806213378906,4.212329864501953,80.36103820800781,-0.023435465494791665,0.0033333333333333335,0.31892857142857145,0.008819317865562443,4.910742282867432,-0.4394403868408219,26.63067054748535,-0.024322340223524305,0.09834768507215712
4638,0.7998655177303738,0.09960939407348633,83.4501953125,83.65477752685547,6.053550720214844,78.33570098876953,-0.018207295735677084,0.0026666666666666666,0.3157142857142857,0.009277067795255453,5.328210353851318,-0.19774879748535312,26.54277992248535,-0.002273135715060764,0.14130944146050348
4639,0.8428342677303738,0.07968751907348633,82.01814270019531,83.38882446289062,8.01751708984375,77.333251953125,-0.02616318596733941,0.001,0.30857142857142855,0.007842784422826772,4.207638263702393,-1.120571749755861,26.63067054748535,-0.01522979736328125,0.17426961263020832
4640,0.9131467677303738,0.07968751907348633,84.67768096923828,83.98210144042969,15.443771362304688,66.96105194091797,-0.027754380967881943,0.001,0.30428571428571427,0.005004734463161893,2.6476261615753174,-0.12084640795898594,26.63067054748535,0.007728661431206597,0.37203021579318574
4641,0.9912717677303738,0.03984375953674316,84.12531280517578,85.14820861816406,14.768657684326172,67.14517211914062,-0.007978312174479167,0.0003333333333333333,0.29642857142857143,0.0006103303697374132,2.427906036376953,-0.05493034655761875,26.63067054748535,-0.011365509033203125,0.36248317294650606
4642,0.8936155177303738,0.0,83.87982177734375,84.0025634765625,15.382396697998047,69.12960052490234,-0.018207295735677084,0.0006666666666666666,0.2910714285714286,-0.0005187829335530599,1.9555079936981201,0.2746500074863434,26.54277992248535,-0.0013637966579861111,0.3472532908121745
4643,0.07330301773037382,0.01992187976837158,83.87982177734375,83.71615600585938,14.891407012939453,68.57723236083984,-0.020253117879231772,0.0,0.2832142857142857,-0.0,0.6591600179672241,-0.03295769030761875,26.54277992248535,0.001818508572048611,0.3479352739122179
