,WD,WS,AIL_1,AIL_2,ELEV_1,ELEV_2,RUDD,ALT,GS,TH,PTCH,ROLL,PLA_1,AIL,ELEV
9130,0.3191272050998264,0.13945316314697265,84.24806213378906,83.83889770507812,-3.5821685791015625,87.99187469482422,-0.013433795505099827,0.788,0.5275,0.014648013644748263,-2.504809039184572,1.9884660243988037,34.716548919677734,0.004546271430121528,-0.07304492526584201
9131,0.3230334550998264,0.15937503814697265,84.20714569091797,83.73661041259766,-3.6026268005371094,87.99187469482422,-0.014115693834092882,0.7823333333333333,0.5271428571428571,0.015655093722873263,-2.493822711059572,1.8236761093139648,34.716548919677734,0.005228169759114583,-0.0732722388373481
9132,0.3191272050998264,0.15937503814697265,84.0025634765625,83.63432312011719,-3.500335693359375,87.95095825195312,-0.013888380262586805,0.7763333333333333,0.5267857142857143,0.016570536295572917,-2.526779788085939,1.6588860750198364,34.716548919677734,0.004091559516059028,-0.07168104383680556
9133,0.3269397050998264,0.15937503814697265,84.0434799194336,83.5115737915039,-3.500335693359375,87.93049621582031,-0.015252261691623263,0.7706666666666667,0.5267857142857143,0.017943827311197917,-2.471850054809572,1.6149420738220215,34.716548919677734,0.0059100680881076385,-0.07145368787977431
9134,0.3269397050998264,0.17929691314697266,84.32989501953125,83.71615600585938,-3.66400146484375,87.99187469482422,-0.01547957526312934,0.7663333333333333,0.5260714285714285,0.01946962144639757,-2.4059339934082047,1.724802017211914,34.716548919677734,0.006819322374131944,-0.07395417955186633
9135,0.3152209550998264,0.17929691314697266,84.47309875488281,84.0025634765625,-3.7662887573242188,88.13508605957031,-0.014570320977105035,0.761,0.5246428571428572,0.02047670152452257,-2.493822711059572,1.6698720455169678,34.716548919677734,0.005228169759114583,-0.07668194240993924
9136,0.3074084550998264,0.17929691314697266,84.53446960449219,84.08439636230469,-3.8481216430664062,88.23736572265625,-0.013661109076605903,0.755,0.5228571428571429,0.02096498277452257,-2.504809039184572,1.4831100702285767,34.892330169677734,0.0050008138020833336,-0.0787276373969184
9137,0.3113147050998264,0.17929691314697266,83.81844329833984,83.75706481933594,-3.9504127502441406,88.21691131591797,-0.014115693834092882,0.7483333333333333,0.5203571428571429,0.02105653550889757,-2.3839632445068375,1.0766279697418213,36.29856872558594,0.0006819831000434028,-0.07963693406846788
9138,0.3152209550998264,0.17929691314697266,83.69569396972656,83.38882446289062,-4.032245635986328,88.38057708740234,-0.013661109076605903,0.7436666666666667,0.5185714285714286,0.02181939019097222,-2.3619905882568375,0.9667680263519287,37.17747116088867,0.003409661187065972,-0.0823646969265408
9139,0.3308459550998264,0.19921878814697266,84.12531280517578,83.49111938476562,-4.052700042724609,88.46240997314453,-0.01547957526312934,0.739,0.5157142857142857,0.02346733940972222,-2.504809039184572,1.2743760347366333,38.93526840209961,0.007046593560112847,-0.083501222398546
9140,0.3386584550998264,0.19921878814697266,84.77996826171875,84.0434799194336,-4.032245635986328,88.44195556640625,-0.016388829549153647,0.7343333333333333,0.5142857142857142,0.024779510498046876,-2.570725100585939,1.6039559841156006,40.42940139770508,0.008183203803168403,-0.0830466800265842
9141,0.3308459550998264,0.19921878814697266,84.49356079101562,84.20714569091797,-4.093616485595703,88.44195556640625,-0.015252261691623263,0.729,0.5128571428571429,0.025328826904296876,-2.6036821776123062,1.307334065437317,41.83563995361328,0.0031823900010850693,-0.08372857835557726
9142,0.3308459550998264,0.219140682220459,84.63676452636719,83.90027618408203,-4.052700042724609,88.46240997314453,-0.012751854790581597,0.7233333333333334,0.5117857142857143,0.026274871826171876,-2.6805845671386734,1.1645159721374512,42.71453857421875,0.008183203803168403,-0.083501222398546
9143,0.3347522050998264,0.219140682220459,84.20714569091797,83.98210144042969,-4.011787414550781,88.42149353027344,-0.015706888834635415,0.718,0.5110714285714286,0.027312384711371526,-2.6915708952636734,0.8569080233573914,43.505550384521484,0.002500491672092014,-0.08259201049804688
9144,0.3425647050998264,0.239062557220459,84.28897857666016,83.92073059082031,-4.011787414550781,88.42149353027344,-0.014797634548611112,0.7126666666666667,0.5107142857142857,0.028166876898871526,-2.6586119108886734,0.7690200209617615,44.03289031982422,0.004091644287109375,-0.08259201049804688
9145,0.3386584550998264,0.239062557220459,84.5140151977539,83.94119262695312,-4.073158264160156,88.46240997314453,-0.014115693834092882,0.7073333333333334,0.51,0.028288947211371526,-2.6915708952636734,0.7250760197639465,44.12078094482422,0.006364695231119792,-0.08372853597005209
9146,0.3464709550998264,0.239062557220459,84.35034942626953,84.06393432617188,-3.9708709716796875,88.42149353027344,-0.014343007405598959,0.702,0.51,0.028655158148871526,-2.7025572233886734,0.5383139848709106,44.82389831542969,0.0031823900010850693,-0.08213738335503472
9147,0.3464709550998264,0.239062557220459,84.63676452636719,83.92073059082031,-3.909496307373047,88.38057708740234,-0.014570320977105035,0.6966666666666667,0.5096428571428572,0.029082404242621526,-2.6366411619873062,0.5053560137748718,44.91178894042969,0.0079559326171875,-0.08100081549750435
9148,0.3425647050998264,0.239062557220459,84.67768096923828,84.24806213378906,-3.9504127502441406,88.31919860839844,-0.014115693834092882,0.6913333333333334,0.5096428571428572,0.029112921820746526,-2.548752444335939,0.2856360077857971,44.91178894042969,0.004773542616102431,-0.08077345954047309
9149,0.3425647050998264,0.239062557220459,84.28897857666016,84.0434799194336,-4.032245635986328,88.36012268066406,-0.014570320977105035,0.686,0.5096428571428572,0.029143439398871526,-2.504809039184572,0.010986000299453735,45.52701950073242,0.002727762858072917,-0.08213742574055989
9150,0.3425647050998264,0.239062557220459,85.33233642578125,84.39126586914062,-4.134532928466797,88.44195556640625,-0.0168434566921658,0.6806666666666666,0.51,0.029509650336371526,-2.526779788085939,-0.20873512561035312,45.70280075073242,0.010456339518229166,-0.0841832054985894
9151,0.3425647050998264,0.25898443222045897,84.14576721191406,84.41172790527344,-4.154991149902344,88.46240997314453,-0.014343007405598959,0.6753333333333333,0.51,0.029112921820746526,-2.6036821776123062,-0.8898664885253922,45.79069137573242,-0.0029551188151041665,-0.08463779025607639
9152,0.3464709550998264,0.25898443222045897,83.69569396972656,82.87738037109375,-4.093616485595703,88.52378845214844,-0.015252261691623263,0.6703333333333333,0.51,0.029296027289496526,-2.6256548338623062,-0.6481748991699234,45.79069137573242,0.00909237331814236,-0.08463783264160156
9153,0.3464709550998264,0.25898443222045897,85.14820861816406,84.41172790527344,-4.052700042724609,88.46240997314453,-0.014570320977105035,0.665,0.51,0.028838263617621526,-2.6036821776123062,-0.2416922026367203,45.79069137573242,0.008183119032118056,-0.083501222398546
9154,0.3386584550998264,0.25898443222045897,83.73661041259766,84.18669128417969,-4.134532928466797,88.44195556640625,-0.011387973361545138,0.6596666666666666,0.51,0.027739630805121526,-2.559738772460939,-0.6481748991699234,45.79069137573242,-0.00500089857313368,-0.0841832054985894
9155,0.3425647050998264,0.25898443222045897,82.9592056274414,82.85691833496094,-4.236824035644531,88.52378845214844,-0.011615286933051215,0.6546666666666666,0.51,0.027739630805121526,-2.6146685057373062,-0.3625379973144547,45.79069137573242,0.0011365254720052083,-0.0862290276421441
9156,0.3503772050998264,0.25898443222045897,84.63676452636719,83.38882446289062,-4.3595733642578125,88.58515930175781,-0.012297227647569445,0.6493333333333333,0.5103571428571428,0.028014289008246526,-2.7465006285400406,0.5053560137748718,45.79069137573242,0.013866000705295138,-0.08827480740017361
9157,0.3425647050998264,0.25898443222045897,85.25050354003906,85.23004150390625,-4.277740478515625,88.64653015136719,-0.015024948120117187,0.644,0.5103571428571428,0.027617560492621526,-2.878332751342775,0.13183200359344482,45.79069137573242,0.00022735595703125,-0.08804745144314235
9158,0.3425647050998264,0.25898443222045897,83.0001220703125,83.36836242675781,-4.175449371337891,88.564697265625,-0.015024948120117187,0.6383333333333333,0.5107142857142857,0.027403937445746526,-2.900305407592775,-0.6262022429199234,45.79069137573242,-0.004091559516059028,-0.08600162929958767
9159,0.3503772050998264,0.2789063262939453,84.32989501953125,82.85691833496094,-4.134532928466797,88.54424285888672,-0.015934202406141493,0.633,0.5107142857142857,0.028411017523871526,-2.878332751342775,-0.03295769030761875,45.79069137573242,0.016366407606336807,-0.08531973097059461
9160,0.3503772050998264,0.2789063262939453,84.77996826171875,84.41172790527344,-4.154991149902344,88.50332641601562,-0.012979168362087673,0.6273333333333333,0.5110714285714286,0.027953253851996526,-2.867346423217775,0.032958000898361206,45.79069137573242,0.004091559516059028,-0.08509241739908854
9161,0.3542834550998264,0.2789063262939453,83.94119262695312,83.81844329833984,-4.11407470703125,88.54424285888672,-0.014343007405598959,0.6216666666666667,0.5110714285714286,0.027892218695746526,-2.867346423217775,-0.4614130430908219,45.79069137573242,0.0013638814290364584,-0.08509241739908854
9162,0.3581897050998264,0.29882820129394533,83.4501953125,83.18424987792969,-4.134532928466797,88.564697265625,-0.013888380262586805,0.6166666666666667,0.5110714285714286,0.028502570258246526,-2.856360095092775,-0.3405672484130875,45.79069137573242,0.0029549492730034724,-0.08554700215657553
9163,0.3581897050998264,0.29882820129394533,84.41172790527344,83.77752685546875,-4.154991149902344,88.50332641601562,-0.014797634548611112,0.611,0.5110714285714286,0.029021369086371526,-2.812416689941408,0.23070600628852844,45.79069137573242,0.007046678331163195,-0.08509241739908854
9164,0.3581897050998264,0.29882820129394533,85.29141998291016,84.24806213378906,-4.1959075927734375,88.52378845214844,-0.014343007405598959,0.6053333333333333,0.5110714285714286,0.028929816351996526,-2.801430361816408,0.3405660092830658,45.79069137573242,0.011592864990234375,-0.08577440049913194
9165,0.3581897050998264,0.29882820129394533,84.35034942626953,84.24806213378906,-4.154991149902344,88.52378845214844,-0.014570320977105035,0.6,0.5107142857142857,0.028472052680121526,-2.7794596129150406,-0.16478981311035312,45.79069137573242,0.0011365254720052083,-0.08531977335611979
9166,0.3503772050998264,0.29882820129394533,83.92073059082031,83.71615600585938,-4.175449371337891,88.52378845214844,-0.013433795505099827,0.5943333333333334,0.5103571428571428,0.027770148383246526,-2.7574869566650406,-0.48338379199218906,45.52701950073242,0.0022730509440104167,-0.08554708692762587
9167,0.3542834550998264,0.29882820129394533,84.47309875488281,83.71615600585938,-4.1959075927734375,88.52378845214844,-0.014115693834092882,0.5886666666666667,0.5103571428571428,0.027678595648871526,-2.7135435515136734,-0.4064833098144547,45.43912887573242,0.008410474989149305,-0.08577440049913194
9168,0.3503772050998264,0.29882820129394533,83.73661041259766,83.65477752685547,-4.11407470703125,88.50332641601562,-0.013661109076605903,0.5833333333333334,0.51,0.027159881591796876,-2.6915708952636734,-0.48338379199218906,45.43912887573242,0.0009092542860243056,-0.08463779025607639
9169,0.3542834550998264,0.29882820129394533,83.94119262695312,83.552490234375,-4.093616485595703,88.50332641601562,-0.013888380262586805,0.578,0.5096428571428572,0.027037811279296876,-2.6146685057373062,-0.20873512561035312,45.43912887573242,0.0043189154730902775,-0.08441047668457032
9170,0.3542834550998264,0.3187500762939453,83.92073059082031,83.5115737915039,-4.134532928466797,88.54424285888672,-0.014115693834092882,0.573,0.5096428571428572,0.027464972601996526,-2.570725100585939,0.2526780068874359,45.43912887573242,0.00454618665907118,-0.08531973097059461
9171,0.3503772050998264,0.3187500762939453,84.12531280517578,83.552490234375,-4.134532928466797,88.52378845214844,-0.010478719075520834,0.5673333333333334,0.5092857142857142,0.027251349555121526,-2.581711428710939,0.8459219932556152,45.43912887573242,0.006364695231119792,-0.08509245978461372
9172,0.3503772050998264,0.3187500762939453,84.30943298339844,83.63432312011719,-4.400489807128906,88.54424285888672,-0.013888380262586805,0.5623333333333334,0.5082142857142857,0.027312384711371526,-2.581711428710939,1.2743760347366333,45.26335144042969,0.007501220703125,-0.08827480740017361
9173,0.3503772050998264,0.29882820129394533,84.88226318359375,84.02302551269531,-5.136974334716797,88.85111236572266,-0.01547957526312934,0.5573333333333333,0.5075,0.027556525336371526,-2.845373766967775,1.307334065437317,45.43912887573242,0.009547085232204862,-0.09986763000488282
9174,0.3542834550998264,0.29882820129394533,84.92317199707031,84.30943298339844,-5.791633605957031,89.567138671875,-0.017070770263671875,0.5533333333333333,0.5053571428571428,0.028105841742621526,-3.3946749144287125,0.9447960257530212,43.76921844482422,0.006819322374131944,-0.11509746975368923
9175,0.3620959550998264,0.29882820129394533,84.82088470458984,84.49356079101562,-6.384914398193359,90.24225616455078,-0.014797634548611112,0.5496666666666666,0.5032142857142857,0.028472052680121526,-4.086792605468752,0.5383139848709106,43.505550384521484,0.003636932373046875,-0.12919078403049045
9176,0.3660022050998264,0.29882820129394533,83.57295227050781,83.30699157714844,-6.937278747558594,90.83554077148438,-0.015024948120117187,0.5466666666666666,0.5007142857142857,0.028502570258246526,-4.833840029785158,0.4723980128765106,44.56023025512695,0.0029551188151041665,-0.1419202168782552
9177,0.3699084550998264,0.29882820129394533,84.26852416992188,83.38882446289062,-7.162319183349609,91.34698486328125,-0.015252261691623263,0.5433333333333333,0.4992857142857143,0.028349982367621526,-5.49300064379883,0.8569080233573914,46.318031311035156,0.009774441189236111,-0.15010337829589843
9178,0.3699084550998264,0.2789063262939453,83.49111938476562,83.42974090576172,-6.814533233642578,91.10148620605469,-0.01252454121907552,0.5386666666666666,0.49785714285714283,0.028166876898871526,-5.811594622680666,0.8129640221595764,47.109039306640625,0.0006819831000434028,-0.1435113271077474
9179,0.3699084550998264,0.29882820129394533,84.30943298339844,83.71615600585938,-6.5894927978515625,90.97874450683594,-0.013661109076605903,0.5333333333333333,0.4975,0.028807746039496526,-5.778637545654298,1.021697998046875,47.46059799194336,0.006591966417100695,-0.13964708116319444
9180,0.3581897050998264,0.29882820129394533,84.47309875488281,83.67523193359375,-6.507663726806641,90.85599517822266,-0.014115693834092882,0.528,0.49714285714285716,0.028899298773871526,-5.745678561279298,1.0436700582504272,47.72426986694336,0.008865186903211806,-0.13737398783365887
9181,0.3503772050998264,0.29882820129394533,84.37080383300781,83.83889770507812,-6.4462890625,90.79461669921875,-0.016388829549153647,0.5223333333333333,0.49642857142857144,0.028960333930121526,-5.778637545654298,0.8459219932556152,47.81216049194336,0.0059100680881076385,-0.1360100640190972
9182,0.3386584550998264,0.29882820129394533,84.49356079101562,83.81844329833984,-6.487205505371094,90.75370788574219,-0.014797634548611112,0.5163333333333333,0.49607142857142855,0.028990851508246526,-5.745678561279298,0.6591600179672241,47.81216049194336,0.007501305474175347,-0.13601014879014756
9183,0.3347522050998264,0.29882820129394533,84.06393432617188,83.57295227050781,-6.466747283935547,90.81507873535156,-0.012979168362087673,0.511,0.4957142857142857,0.029234992133246526,-5.745678561279298,0.5712720155715942,47.109039306640625,0.005455356174045139,-0.13646473354763455
9184,0.3347522050998264,0.3187500762939453,84.18669128417969,83.61386108398438,-6.4462890625,90.85599517822266,-0.018889236450195312,0.5056666666666667,0.4942857142857143,0.029936896430121526,-5.712721484252931,0.7250760197639465,46.933258056640625,0.006364780002170139,-0.13669204711914062
9185,0.3269397050998264,0.29882820129394533,84.77996826171875,84.14576721191406,-6.384914398193359,90.73324584960938,-0.013661109076605903,0.5,0.49392857142857144,0.029112921820746526,-5.646805422851564,0.7690200209617615,46.40591812133789,0.007046678331163195,-0.13464622497558593
9186,0.3269397050998264,0.29882820129394533,84.80043029785156,84.24806213378906,-6.5894927978515625,90.46729278564453,-0.01616151597764757,0.49466666666666664,0.4925,0.029326544867621526,-5.4051119261474625,0.1867620050907135,46.318031311035156,0.006137424045138889,-0.1339642842610677
9187,0.3308459550998264,0.3187500762939453,84.75950622558594,84.16622924804688,-6.384914398193359,90.85599517822266,-0.01752539740668403,0.48966666666666664,0.49142857142857144,0.030089484320746526,-5.49300064379883,-0.2636648588867203,43.76921844482422,0.006591966417100695,-0.13601010640462238
9188,0.3308459550998264,0.29882820129394533,84.67768096923828,84.18669128417969,-6.3644561767578125,90.89691162109375,-0.014343007405598959,0.4846666666666667,0.48964285714285716,0.029265509711371526,-5.591875689575197,-0.6481748991699234,40.86885070800781,0.005455440945095486,-0.13623741997612848
9189,0.3230334550998264,0.29882820129394533,84.20714569091797,83.77752685546875,-6.037128448486328,90.59004211425781,-0.014570320977105035,0.47933333333333333,0.4875,0.027861701117621526,-5.48201431567383,-1.0436712675781266,40.69306945800781,0.004773542616102431,-0.12919078403049045
9190,0.3152209550998264,0.29882820129394533,83.65477752685547,82.93875122070312,-6.037128448486328,90.46729278564453,-0.012297227647569445,0.474,0.48392857142857143,0.026549530029296876,-5.185392993041994,-1.0546575957031266,40.69306945800781,0.007955847846137152,-0.127826902601454
9191,0.3230334550998264,0.3187500762939453,83.87982177734375,83.08195495605469,-6.262165069580078,91.0810317993164,-0.024117406209309897,0.4696666666666667,0.48142857142857143,0.027495490180121526,-5.207365649291994,-0.6481748991699234,40.69306945800781,0.008865186903211806,-0.1371466318766276
9192,0.3269397050998264,0.3187500762939453,84.32989501953125,83.85935974121094,-6.078044891357422,90.59004211425781,-0.012069914076063368,0.465,0.4785714285714286,0.027098846435546876,-5.361168520996095,0.12084600329399109,40.69306945800781,0.005228169759114583,-0.12964541117350262
9193,0.3152209550998264,0.29882820129394533,84.35034942626953,83.77752685546875,-6.2007904052734375,90.36500549316406,-0.01070603264702691,0.46,0.4764285714285714,0.025786590576171876,-5.108490603515627,0.3405660092830658,40.69306945800781,0.006364695231119792,-0.12850884331597223
9194,0.3113147050998264,0.29882820129394533,84.32989501953125,83.77752685546875,-6.098503112792969,90.671875,-0.013433795505099827,0.455,0.4732142857142857,0.025695037841796876,-5.229336398193361,0.20873400568962097,40.42940139770508,0.006137424045138889,-0.13078197903103297
9195,0.3152209550998264,0.3187500762939453,84.37080383300781,83.81844329833984,-5.934837341308594,90.42637634277344,-0.01979849073621962,0.45066666666666666,0.4710714285714286,0.026824188232421876,-5.262295382568361,0.2526780068874359,39.28683090209961,0.006137339274088541,-0.12623570760091146
9196,0.3113147050998264,0.3187500762939453,84.37080383300781,83.87982177734375,-5.873462677001953,90.26271057128906,-0.01070603264702691,0.445,0.46785714285714286,0.026000213623046876,-5.108490603515627,0.4943700134754181,39.28683090209961,0.005455356174045139,-0.12373525831434462
9197,0.3074084550998264,0.3187500762939453,84.32989501953125,83.77752685546875,-5.934837341308594,90.30363464355469,-0.018207295735677084,0.44,0.4660714285714286,0.026335906982421876,-4.976658480712892,0.4723980128765106,39.28683090209961,0.006137424045138889,-0.12487191094292535
9198,0.3113147050998264,0.3187500762939453,84.30943298339844,83.69569396972656,-5.8939208984375,90.13996887207031,-0.015934202406141493,0.43533333333333335,0.4625,0.026763153076171876,-4.987644808837892,0.747048020362854,39.28683090209961,0.006819322374131944,-0.12259877522786458
9199,0.3035022050998264,0.29882820129394533,84.08439636230469,83.69569396972656,-6.037128448486328,90.61050415039062,-0.013433795505099827,0.43,0.46035714285714285,0.026335906982421876,-5.317225115844728,0.9228240251541138,39.19894027709961,0.0043189154730902775,-0.1294181399875217
9200,0.3113147050998264,0.3187500762939453,84.18669128417969,83.63432312011719,-5.8939208984375,90.28317260742188,-0.018207295735677084,0.42533333333333334,0.4575,0.027648078070746526,-5.536944048950197,1.2084600925445557,39.19894027709961,0.006137424045138889,-0.12418992784288195
9201,0.3074084550998264,0.29882820129394533,84.5958480834961,83.94119262695312,-6.2007904052734375,90.46729278564453,-0.01002409193250868,0.41933333333333334,0.45571428571428574,0.027220916748046876,-5.767651217529298,1.581984043121338,39.19894027709961,0.0072739495171440975,-0.12964536878797744
9202,0.3035022050998264,0.29882820129394533,84.69813537597656,84.18669128417969,-6.303081512451172,90.79461669921875,-0.014797634548611112,0.414,0.4525,0.027739630805121526,-6.327936785766603,1.3622640371322632,39.19894027709961,0.005682712131076389,-0.13441886901855468
9203,0.3035022050998264,0.29882820129394533,84.69813537597656,84.14576721191406,-6.241706848144531,90.65141296386719,-0.01797998216417101,0.4093333333333333,0.4496428571428571,0.028319464789496526,-6.569628375122072,0.9667680263519287,39.19894027709961,0.006137424045138889,-0.13214577568901908
9204,0.2917834550998264,0.2789063262939453,84.5140151977539,83.98210144042969,-6.405372619628906,90.77416229248047,-0.009114880032009548,0.405,0.44571428571428573,0.027312384711371526,-6.646530764648439,0.6262019872665405,39.19894027709961,0.005910152859157986,-0.13532816569010417
9205,0.2917834550998264,0.2789063262939453,83.98210144042969,83.90027618408203,-7.489646911621094,92.06301879882812,-0.013433795505099827,0.40166666666666667,0.4425,0.027129364013671876,-6.921181338378908,0.12084600329399109,39.19894027709961,0.0009091695149739584,-0.16169628567165797
9206,0.3035022050998264,0.29882820129394533,83.73661041259766,83.40928649902344,-6.834991455078125,91.59248352050781,-0.01775266859266493,0.39866666666666667,0.43714285714285717,0.028014289008246526,-7.4485079222412125,-0.06591667468261875,39.19894027709961,0.003636932373046875,-0.1491941663953993
9207,0.2956897050998264,0.29882820129394533,83.77752685546875,83.18424987792969,-6.7531585693359375,91.28561401367188,-0.01002409193250868,0.3943333333333333,0.43392857142857144,0.027220916748046876,-7.294705050537111,0.3405660092830658,39.19894027709961,0.006591966417100695,-0.14487525092230902
9208,0.2917834550998264,0.29882820129394533,84.5958480834961,84.1048583984375,-6.957736968994141,91.20378112792969,-0.01661614312065972,0.39,0.42964285714285716,0.027617560492621526,-7.096956866333009,0.41746801137924194,39.19894027709961,0.005455440945095486,-0.1462390899658203
9209,0.2839709550998264,0.29882820129394533,83.98210144042969,83.28652954101562,-7.019111633300781,91.61294555664062,-0.01547957526312934,0.38566666666666666,0.42642857142857143,0.027159881591796876,-7.426537173339845,0.373524010181427,39.19894027709961,0.00772857666015625,-0.15146730211046006
9210,0.2839709550998264,0.29882820129394533,84.45263671875,83.92073059082031,-6.609951019287109,91.1219482421875,-0.01320648193359375,0.38133333333333336,0.42214285714285715,0.026976776123046876,-7.56935562426758,0.36253800988197327,39.19894027709961,0.0059100680881076385,-0.1414655473497179
9211,0.2800647050998264,0.29882820129394533,84.39126586914062,83.92073059082031,-6.1394195556640625,90.40591430664062,-0.020025804307725693,0.37566666666666665,0.41964285714285715,0.027281867133246526,-7.184845583984377,0.05493000149726868,39.19894027709961,0.005228169759114583,-0.12828148735894096
9212,0.2761584550998264,0.29882820129394533,84.35034942626953,83.87982177734375,-6.180332183837891,90.46729278564453,-0.012297227647569445,0.37066666666666664,0.4160714285714286,0.027312384711371526,-6.690474169799806,-0.12084640795898594,39.19894027709961,0.005228084988064236,-0.12941805521647134
9213,0.2722522050998264,0.3187500762939453,82.73416900634766,82.01814270019531,-6.303081512451172,90.671875,-0.014115693834092882,0.366,0.4135714285714286,0.026976776123046876,-6.635544436523439,0.09887400269508362,39.11104965209961,0.007955847846137152,-0.13305507236056857
9214,0.2800647050998264,0.29882820129394533,82.550048828125,82.42729949951172,-6.118961334228516,90.77416229248047,-0.012979168362087673,0.3616666666666667,0.4092857142857143,0.027159881591796876,-6.822306292602541,0.9997260570526123,38.407928466796875,0.0013638814290364584,-0.13214581807454426
9215,0.2800647050998264,0.29882820129394533,83.16378784179688,82.24317932128906,-6.118961334228516,90.42637634277344,-0.015024948120117187,0.35733333333333334,0.4075,0.027800665961371526,-6.756390231201173,2.296074151992798,38.407928466796875,0.010228983561197917,-0.12828152974446613
9216,0.2722522050998264,0.29882820129394533,84.71859741210938,83.47065734863281,-6.159877777099609,90.42637634277344,-0.012297227647569445,0.3526666666666667,0.4039285714285714,0.028716193305121526,-6.712446826049806,3.076080083847046,38.320037841796875,0.013866000705295138,-0.1287361568874783
9217,0.2683459550998264,0.29882820129394533,85.88470458984375,85.455078125,-6.118961334228516,90.42637634277344,-0.013433795505099827,0.348,0.4007142857142857,0.030089484320746526,-6.954138415405275,2.6476261615753174,38.407928466796875,0.004773627387152778,-0.12828152974446613
9218,0.2722522050998264,0.29882820129394533,85.20958709716797,85.57783508300781,-6.078044891357422,90.40591430664062,-0.017070770263671875,0.344,0.3967857142857143,0.03155424329969618,-7.338648455688478,1.3183200359344482,38.407928466796875,-0.004091644287109375,-0.12759954664442275
9219,0.2800647050998264,0.29882820129394533,84.20714569091797,84.26852416992188,-5.934837341308594,90.1604232788086,-0.01729808383517795,0.3396666666666667,0.39464285714285713,0.03237821790907118,-7.4485079222412125,0.35155200958251953,38.407928466796875,-0.0006819831000434028,-0.12328067355685764
9220,0.2761584550998264,0.29882820129394533,83.92073059082031,83.38882446289062,-5.607509613037109,89.50576782226562,-0.012979168362087673,0.335,0.39107142857142857,0.03228666517469618,-6.811319964477541,0.08788800239562988,36.1227912902832,0.0059100680881076385,-0.11236974928114149
9221,0.2761584550998264,0.29882820129394533,82.48867797851562,83.40928649902344,-6.078044891357422,89.50576782226562,-0.013888380262586805,0.33066666666666666,0.38785714285714284,0.03188993665907118,-6.4377962523193375,0.032958000898361206,36.1227912902832,-0.010228983561197917,-0.11759791904025607
9222,0.2761584550998264,0.29882820129394533,82.89783477783203,82.16134643554688,-5.648426055908203,90.03767395019531,-0.01752539740668403,0.327,0.38321428571428573,0.03219511244032118,-6.866251605102541,0.7580339908599854,36.1227912902832,0.008183203803168403,-0.11873444451226128
9223,0.2722522050998264,0.29882820129394533,84.96409606933594,83.77752685546875,-5.014228820800781,89.46485137939453,-0.009569507175021702,0.32266666666666666,0.3807142857142857,0.03240873548719618,-6.778362887451173,1.5709980726242065,36.1227912902832,0.013184102376302083,-0.10532311333550347
9224,0.2566272050998264,0.29882820129394533,85.0459213256836,84.6572265625,-4.993770599365234,89.13752746582031,-0.010478719075520834,0.31833333333333336,0.37642857142857145,0.03201200697157118,-6.207090991088869,1.2963480949401855,36.1227912902832,0.004318830702039931,-0.10145886739095052
9225,0.2527209550998264,0.29882820129394533,84.57539367675781,84.37080383300781,-5.034687042236328,89.2193603515625,-0.0168434566921658,0.314,0.37357142857142855,0.03250028822157118,-6.042299883911134,0.5383139848709106,36.0349006652832,0.0022732204861111113,-0.10282274881998697
9226,0.2527209550998264,0.29882820129394533,82.36592102050781,81.79310607910156,-4.073158264160156,88.54424285888672,-0.018207295735677084,0.31,0.36964285714285716,0.03280546400282118,-5.9544130736084,0.5822579860687256,36.1227912902832,0.006364610460069444,-0.08463779025607639
9227,0.2370959550998264,0.3187500762939453,83.552490234375,82.77508544921875,-4.052700042724609,88.0123291015625,-0.009342193603515625,0.30633333333333335,0.36714285714285716,0.03262235853407118,-5.086517947265627,1.581984043121338,36.1227912902832,0.008637830946180555,-0.07850032382541233
9228,0.2253772050998264,0.29882820129394533,84.61630249023438,84.24806213378906,-4.441402435302734,88.78973388671875,-0.008887566460503472,0.30266666666666664,0.36214285714285716,0.03237821790907118,-4.647078173706056,1.966494083404541,36.0349006652832,0.004091559516059028,-0.09145707024468316
9229,0.2253772050998264,0.29882820129394533,84.69813537597656,84.0025634765625,-4.380031585693359,88.72836303710938,-0.015706888834635415,0.29933333333333334,0.3585714285714286,0.033873494466145834,-4.811869280883791,1.812690019607544,36.0349006652832,0.00772857666015625,-0.09009327358669705
9230,0.2214709550998264,0.3187500762939453,85.74149322509766,85.455078125,-4.134532928466797,88.29874420166016,-0.017070770263671875,0.2966666666666667,0.35428571428571426,0.034880574544270834,-4.734966891357423,1.340291976928711,36.0349006652832,0.0031823900010850693,-0.0825919681125217
9231,0.2214709550998264,0.3187500762939453,83.85935974121094,83.4501953125,-4.1959075927734375,88.38057708740234,-0.01661614312065972,0.29333333333333333,0.3510714285714286,0.035582478841145834,-4.581162112304689,0.7140899896621704,36.0349006652832,0.004546271430121528,-0.08418316311306423
9232,0.2214709550998264,0.3187500762939453,83.98210144042969,83.4501953125,-4.154991149902344,88.25782775878906,-0.013888380262586805,0.29033333333333333,0.3467857142857143,0.03600964016384549,-4.625107424804689,0.7800060510635376,36.0349006652832,0.0059100680881076385,-0.08236465454101563
9233,0.2214709550998264,0.3187500762939453,84.39126586914062,84.0434799194336,-3.7662887573242188,87.80775451660156,-0.01616151597764757,0.287,0.3442857142857143,0.03665050930447049,-4.603134768554689,0.8788800239562988,36.0349006652832,0.003864288330078125,-0.07304492526584201
9234,0.2214709550998264,0.3187500762939453,84.22760009765625,83.85935974121094,-2.8252220153808594,87.72592163085938,-0.01616151597764757,0.2836666666666667,0.34035714285714286,0.03698620266384549,-4.33947052294922,0.8349360227584839,36.0349006652832,0.004091559516059028,-0.061679373847113715
9235,0.2253772050998264,0.3187500762939453,85.53691101074219,84.30943298339844,-3.11163330078125,87.21446990966797,-0.01979849073621962,0.28,0.33785714285714286,0.03814587063259549,-3.7352415495605484,0.7690200209617615,36.0349006652832,0.013638644748263888,-0.059178924560546874
9236,0.2175647050998264,0.3187500762939453,86.53935241699219,86.41661071777344,-3.132091522216797,87.29630279541016,-0.014343007405598959,0.27666666666666667,0.3339285714285714,0.03771862453884549,-3.526507037231447,-0.2526785307617203,36.0349006652832,0.0013637966579861111,-0.06031549241807726
9237,0.2214709550998264,0.3187500762939453,83.4501953125,83.24562072753906,-3.1525497436523438,87.39859008789062,-0.020253117879231772,0.2733333333333333,0.3314285714285714,0.03741344875759549,-3.6363665037841812,-1.2194467955322281,36.0349006652832,0.0022730509440104167,-0.06167933146158854
9238,0.2214709550998264,0.3187500762939453,83.49111938476562,83.30699157714844,-2.088733673095703,86.0074462890625,-0.015252261691623263,0.27,0.32785714285714285,0.03643688625759549,-3.4276319914550797,-1.0986010008544937,36.0349006652832,0.002045864529079861,-0.03440199957953559
9239,0.2136584550998264,0.3187500762939453,84.24806213378906,84.0434799194336,-2.313770294189453,86.25294494628906,-0.012069914076063368,0.267,0.32571428571428573,0.034392293294270834,-2.7135435515136734,-0.8898664885253922,35.8591194152832,0.002273135715060764,-0.03963016933865017
9240,0.2097522050998264,0.3187500762939453,83.34790802001953,82.22271728515625,-2.5388107299804688,86.98943328857422,-0.014115693834092882,0.26366666666666666,0.32142857142857145,0.03280546400282118,-2.6695982390136734,-0.6921183043212906,36.0349006652832,0.01250211927625868,-0.05031382242838542
9241,0.2058459550998264,0.3187500762939453,84.43218231201172,84.26852416992188,-1.9046134948730469,86.23248291015625,-0.013661109076605903,0.26033333333333336,0.3192857142857143,0.03155424329969618,-2.7794596129150406,-0.5602861815185562,36.0349006652832,0.0018184238009982638,-0.034856626722547746
9242,0.2019397050998264,0.3187500762939453,84.47309875488281,84.24806213378906,-1.3727035522460938,85.47554016113281,-0.018207295735677084,0.25733333333333336,0.31607142857142856,0.03066923353407118,-2.153256075927736,-0.856909411499025,37.265357971191406,0.0025004069010416668,-0.020536041259765624
9243,0.1980334550998264,0.3187500762939453,83.67523193359375,84.26852416992188,-2.0682754516601562,85.96653747558594,-0.015252261691623263,0.25466666666666665,0.31357142857142856,0.029357062445746526,-1.5819841795654312,-1.2304331236572281,40.34151077270508,-0.006592135959201389,-0.033720143636067706
9244,0.2019397050998264,0.3187500762939453,84.47309875488281,81.8953857421875,-2.2319412231445312,86.39614868164062,-0.017070770263671875,0.25133333333333335,0.3107142857142857,0.028441535101996526,-1.9994532042236344,-0.7140909605712906,40.42940139770508,0.028641255696614583,-0.040312110053168405
9245,0.2019397050998264,0.3187500762939453,84.24806213378906,84.20714569091797,-0.9021682739257812,84.98455047607422,-0.017070770263671875,0.248,0.3092857142857143,0.027709113226996526,-2.153256075927736,-0.5273291044921891,40.42940139770508,0.0004546271430121528,-0.009852430555555555
9246,0.1980334550998264,0.3187500762939453,82.75462341308594,82.44775390625,-1.2090415954589844,85.25050354003906,-0.015024948120117187,0.24533333333333332,0.3078571428571429,0.026793670654296876,-1.4611383848876969,-0.10986007983398594,40.42940139770508,0.003409661187065972,-0.016217168172200522
9247,0.1941272050998264,0.3187500762939453,84.0434799194336,83.85935974121094,-1.1681251525878906,85.25050354003906,-0.012069914076063368,0.24166666666666667,0.30642857142857144,0.025725555419921876,-1.131558077880861,0.32958000898361206,42.62664794921875,0.002045779758029514,-0.01576254102918837
9248,0.1902209550998264,0.3187500762939453,84.26852416992188,84.16622924804688,-1.331787109375,85.5982894897461,-0.014115693834092882,0.23866666666666667,0.30464285714285716,0.025206756591796876,-1.120571749755861,0.3185940086841583,44.29655838012695,0.0011366102430555556,-0.02144529554578993
9249,0.1902209550998264,0.3187500762939453,84.1048583984375,83.90027618408203,-1.2908706665039062,85.27096557617188,-0.018661922878689237,0.23533333333333334,0.30392857142857144,0.025267791748046876,-1.0986010008544937,0.16479000449180603,44.29655838012695,0.002273135715060764,-0.017353736029730903
9250,0.1941272050998264,0.3187500762939453,84.02302551269531,83.83889770507812,-0.5748405456542969,85.1072998046875,-0.0168434566921658,0.23233333333333334,0.30357142857142855,0.025481414794921876,-0.9557825499267594,0.12084600329399109,44.29655838012695,0.002045864529079861,-0.007579337226019965
9251,0.1902209550998264,0.29882820129394533,84.0025634765625,83.83889770507812,-0.6157569885253906,84.53446960449219,-0.015252261691623263,0.22966666666666666,0.3028571428571429,0.025237274169921876,-0.3515516691894547,0.09887400269508362,44.29655838012695,0.001818508572048611,-0.0016691843668619792
9252,0.1902209550998264,0.29882820129394533,83.90027618408203,83.79798889160156,-1.1885833740234375,85.25050354003906,-0.015934202406141493,0.227,0.30214285714285716,0.024993133544921876,0.02197200059890747,0.05493000149726868,45.966468811035156,0.0011365254720052083,-0.015989854600694443
9253,0.1941272050998264,0.29882820129394533,81.77264404296875,81.32257080078125,-1.5363693237304688,86.0074462890625,-0.016388829549153647,0.224,0.30107142857142855,0.025023651123046876,-0.4174677305908219,0.8239500522613525,45.966468811035156,0.0050008138020833336,-0.028264617919921874
9254,0.1902209550998264,0.29882820129394533,85.08683776855469,84.82088470458984,-1.4136199951171875,85.61874389648438,-0.010478719075520834,0.221,0.3007142857142857,0.025359344482421876,-0.812964098999025,1.581984043121338,46.054359436035156,0.0029550340440538192,-0.02258182101779514
9255,0.1902209550998264,0.29882820129394533,84.73905181884766,84.96409606933594,-0.37026214599609375,85.06637573242188,-0.016388829549153647,0.218,0.3003571428571429,0.026396942138671876,-0.801977770874025,1.307334065437317,46.054359436035156,-0.002500491672092014,-0.004851531982421875
9256,0.1902209550998264,0.29882820129394533,84.554931640625,84.45263671875,-0.4725532531738281,84.57539367675781,-0.015934202406141493,0.21533333333333332,0.3003571428571429,0.027526007758246526,-0.14281906420898594,0.8898659944534302,46.84537124633789,0.0011366102430555556,-0.0005327436659071181
9257,0.1980334550998264,0.29882820129394533,82.20226287841797,82.79554748535156,-1.4545364379882812,85.76194763183594,-0.01729808383517795,0.21266666666666667,0.3,0.028502570258246526,0.08788800239562988,0.9777539968490601,46.933258056640625,-0.0065920511881510414,-0.024627600775824654
9258,0.1941272050998264,0.29882820129394533,84.18669128417969,83.81844329833984,-1.4340782165527344,85.65966796875,-0.009342193603515625,0.20966666666666667,0.29964285714285716,0.028533087836371526,-0.4723993712158219,1.5270540714263916,46.84537124633789,0.004091644287109375,-0.023263846503363717
9259,0.1863147050998264,0.29882820129394533,84.67768096923828,84.63676452636719,-0.4316368103027344,85.43462371826172,-0.012979168362087673,0.20666666666666667,0.3,0.028899298773871526,-0.823950427124025,1.4611380100250244,46.933258056640625,0.0004546271430121528,-0.009625116984049479
9260,0.1863147050998264,0.2789063262939453,84.63676452636719,84.5958480834961,-0.5952987670898438,84.63676452636719,-0.012979168362087673,0.204,0.3003571428571429,0.029479132758246526,-0.3185945921630875,1.1205720901489258,46.933258056640625,0.0004546271430121528,-0.002578481038411458
9261,0.1863147050998264,0.29882820129394533,83.96165466308594,84.32989501953125,-1.331787109375,85.65966796875,-0.01729808383517795,0.201,0.3003571428571429,0.03045561048719618,-0.14281906420898594,0.7690200209617615,46.933258056640625,-0.004091559516059028,-0.022127278645833335
9262,0.1902209550998264,0.2789063262939453,84.41172790527344,84.0434799194336,-1.1476669311523438,85.47554016113281,-0.015934202406141493,0.19766666666666666,0.3,0.03094389173719618,-0.5163427763671891,0.7140899896621704,47.109039306640625,0.004091644287109375,-0.01803563435872396
9263,0.1863147050998264,0.2789063262939453,84.69813537597656,84.63676452636719,-1.0044593811035156,85.14820861816406,-0.014343007405598959,0.19466666666666665,0.3,0.03082182142469618,-0.5492998533935562,0.5273280143737793,47.196929931640625,0.0006818983289930556,-0.0128074222140842
9264,0.1824084550998264,0.2789063262939453,84.57539367675781,84.53446960449219,-0.9840011596679688,85.18913269042969,-0.013433795505099827,0.19166666666666668,0.3007142857142857,0.03030302259657118,-0.4614130430908219,0.13183200359344482,47.109039306640625,0.0004547119140625,-0.013034820556640625
9265,0.1785022050998264,0.2789063262939453,83.53202819824219,82.85691833496094,-1.0249176025390625,85.06637573242188,-0.014570320977105035,0.18833333333333332,0.3007142857142857,0.029814826117621526,-0.3735243254394547,0.13183200359344482,47.109039306640625,0.007501220703125,-0.012125481499565972
9266,0.1824084550998264,0.2789063262939453,84.35034942626953,83.94119262695312,-1.1681251525878906,85.455078125,-0.014797634548611112,0.18533333333333332,0.30107142857142855,0.029509650336371526,-0.4614130430908219,0.23070600628852844,47.109039306640625,0.00454618665907118,-0.018035591973198786
9267,0.1785022050998264,0.25898443222045897,84.96409606933594,84.94363403320312,-1.0453758239746094,85.35279846191406,-0.014797634548611112,0.18233333333333332,0.30107142857142855,0.028960333930121526,-0.6152159147949234,-0.07690300280761875,47.109039306640625,0.00022735595703125,-0.015535269843207465
9268,0.1785022050998264,0.25898443222045897,82.97966003417969,82.73416900634766,-0.9840011596679688,85.12775421142578,-0.015706888834635415,0.179,0.30142857142857143,0.028288947211371526,-0.5932451658935562,-0.18676246936035312,46.933258056640625,0.0027276780870225696,-0.012352837456597222
9269,0.1785022050998264,0.25898443222045897,83.77752685546875,83.26608276367188,-1.10675048828125,85.31187438964844,-0.014797634548611112,0.176,0.30178571428571427,0.027831183539496526,-0.5602861815185562,0.16479000449180603,46.933258056640625,0.005682712131076389,-0.015762498643663195
9270,0.1745959550998264,0.25898443222045897,84.32989501953125,84.06393432617188,-1.10675048828125,85.33233642578125,-0.014343007405598959,0.17266666666666666,0.3025,0.027312384711371526,-0.6262022429199234,0.3405660092830658,47.196929931640625,0.0029551188151041665,-0.015989854600694443
9271,0.1706897050998264,0.25898443222045897,84.41172790527344,84.30943298339844,-0.7998809814453125,84.92317199707031,-0.0168434566921658,0.16966666666666666,0.3028571428571429,0.027098846435546876,-0.6042314940185562,0.23070600628852844,47.196929931640625,0.0011366102430555556,-0.008033921983506944
9272,0.1706897050998264,0.25898443222045897,84.43218231201172,84.30943298339844,-0.7998809814453125,84.98455047607422,-0.016388829549153647,0.16633333333333333,0.3032142857142857,0.026915740966796876,-0.3515516691894547,0.0,47.284820556640625,0.0013638814290364584,-0.008715905083550347
9273,0.1667834550998264,0.239062557220459,84.43218231201172,84.30943298339844,-0.9021682739257812,85.08683776855469,-0.015252261691623263,0.16333333333333333,0.30392857142857144,0.026152801513671876,-0.14281906420898594,-0.2636648588867203,47.72426986694336,0.0013638814290364584,-0.010988956027560764
9274,0.1667834550998264,0.239062557220459,82.91828918457031,82.63188171386719,-1.0044593811035156,85.18913269042969,-0.014115693834092882,0.16033333333333333,0.30392857142857144,0.025145721435546876,-0.10986007983398594,-0.3405672484130875,47.81216049194336,0.003182305230034722,-0.013262134128146702
9275,0.1628772050998264,0.239062557220459,83.5934066772461,82.87738037109375,-0.9840011596679688,85.20958709716797,-0.015024948120117187,0.15733333333333333,0.30428571428571427,0.02438286675347222,-0.13183273608398594,0.032958000898361206,47.987937927246094,0.007955847846137152,-0.013262091742621527
9276,0.1589709550998264,0.239062557220459,83.94119262695312,83.71615600585938,-1.0658340454101562,85.37325286865234,-0.01070603264702691,0.15466666666666667,0.305,0.02334526909722222,-0.13183273608398594,0.14281800389289856,47.81216049194336,0.0025004069010416668,-0.015989854600694443
9277,0.1589709550998264,0.239062557220459,83.77752685546875,83.92073059082031,-1.2704124450683594,85.61874389648438,-0.018207295735677084,0.152,0.305,0.02331475151909722,-0.2856375151367203,-0.05493034655761875,47.987937927246094,-0.001591152615017361,-0.020990626017252604
9278,0.1706897050998264,0.239062557220459,83.552490234375,83.42974090576172,-1.2090415954589844,85.68012237548828,-0.020480431450737847,0.14933333333333335,0.3053571428571429,0.02386406792534722,-0.5712725096435562,-0.01098694140625156,47.81216049194336,0.0013638814290364584,-0.02099071078830295
9279,0.1706897050998264,0.219140682220459,83.94119262695312,83.65477752685547,-1.2090415954589844,85.43462371826172,-0.012751854790581597,0.146,0.3057142857142857,0.02337578667534722,-0.6591612272949234,0.2526780068874359,47.81216049194336,0.0031823900010850693,-0.018262947930230033
9280,0.1628772050998264,0.219140682220459,84.14576721191406,83.96165466308594,-1.2499542236328125,85.47554016113281,-0.013661109076605903,0.14333333333333334,0.3067857142857143,0.02279595269097222,-0.7140909605712906,0.3954960107803345,47.81216049194336,0.0020456949869791666,-0.019172159830729167
9281,0.1589709550998264,0.219140682220459,84.28897857666016,84.16622924804688,-1.2294998168945312,85.49600219726562,-0.015252261691623263,0.14,0.30714285714285716,0.02261284722222222,-0.7360617094726578,0.3405660092830658,47.987937927246094,0.0013638814290364584,-0.019172244601779513
9282,0.1628772050998264,0.219140682220459,84.20714569091797,84.08439636230469,-1.0249176025390625,85.31187438964844,-0.015706888834635415,0.13666666666666666,0.3078571428571429,0.02255181206597222,-0.6921183043212906,0.17577600479125977,47.81216049194336,0.0013638814290364584,-0.014853244357638889
9283,0.1628772050998264,0.219140682220459,84.26852416992188,84.1048583984375,-1.0862922668457031,85.72103881835938,-0.01752539740668403,0.13366666666666666,0.30857142857142855,0.02255181206597222,-0.5492998533935562,0.0,47.81216049194336,0.001818508572048611,-0.020081456502278647
9284,0.1589709550998264,0.219140682220459,84.18669128417969,84.06393432617188,-1.3727035522460938,85.88470458984375,-0.015934202406141493,0.13066666666666665,0.30892857142857144,0.02194146050347222,-0.6262022429199234,-0.18676246936035312,47.81216049194336,0.0013639662000868055,-0.025082312689887153
9285,0.1511584550998264,0.19921878814697266,82.42729949951172,83.81844329833984,-1.5159111022949219,85.78240966796875,-0.012751854790581597,0.12766666666666668,0.3092857142857143,0.02069032457139757,-0.9338098936767594,-0.3295809202880875,47.987937927246094,-0.0154571533203125,-0.025536897447374134
9286,0.1550647050998264,0.19921878814697266,83.73661041259766,83.5934066772461,-1.4749946594238281,85.80287170410156,-0.015252261691623263,0.124,0.31,0.02020204332139757,-1.2084604674072281,-0.2307058745117203,47.987937927246094,0.001591152615017361,-0.025309626261393228
9287,0.1511584550998264,0.19921878814697266,84.24806213378906,84.16622924804688,-1.4545364379882812,85.78240966796875,-0.014570320977105035,0.121,0.3107142857142857,0.01965272691514757,-1.3183199339599625,-0.06591667468261875,47.987937927246094,0.0009092542860243056,-0.024854956732855902
9288,0.14334595509982648,0.19921878814697266,84.26852416992188,84.08439636230469,-1.4545364379882812,85.68012237548828,-0.014570320977105035,0.11733333333333333,0.3117857142857143,0.01888978746202257,-1.3732515745849625,0.12084600329399109,47.46059799194336,0.002045864529079861,-0.023718431260850693
9289,0.13943970509982648,0.19921878814697266,84.30943298339844,84.14576721191406,-1.4340782165527344,85.53691101074219,-0.015252261691623263,0.11366666666666667,0.31285714285714283,0.018432108561197917,-1.4171949797363297,0.12084600329399109,46.933258056640625,0.001818508572048611,-0.02189988030327691
9290,0.13943970509982648,0.19921878814697266,85.557373046875,84.35034942626953,-1.1476669311523438,85.92561340332031,-0.018661922878689237,0.11033333333333334,0.31357142857142856,0.018157450358072917,-1.4062086516113297,0.2526780068874359,46.933258056640625,0.013411373562282987,-0.023036448160807292
9291,0.11600220509982648,0.19921878814697266,84.86180114746094,84.5140151977539,-1.3522453308105469,41.900001525878906,-0.009796820746527778,0.10666666666666667,0.31392857142857145,0.016387430826822917,-1.2853628569335953,-0.3185945921630875,46.933258056640625,0.003864288330078125,0.46386392381456165
9292,0.11209595509982648,0.17929691314697266,82.30455017089844,83.87982177734375,-1.0249176025390625,85.76194763183594,-0.015706888834635415,0.10366666666666667,0.3142857142857143,0.014709048800998263,-0.9777552061767594,-0.7470480375976578,46.933258056640625,-0.01750301784939236,-0.019854058159722222
9293,0.10428345509982648,0.13945316314697265,79.33814239501953,82.89783477783203,-1.4136199951171875,85.39370727539062,-0.002750142415364583,0.1,0.3142857142857143,0.01180996365017361,-0.6152159147949234,-1.4062086516113297,46.933258056640625,-0.03955213758680556,-0.020081414116753474
9294,0.12381470509982648,0.13945316314697265,84.24806213378906,80.66790771484375,-1.2090415954589844,41.900001525878906,-0.02320815192328559,0.09666666666666666,0.315,0.01147427029079861,-0.6152159147949234,0.010986000299453735,46.933258056640625,0.03977949354383681,0.465455076429579
9295,0.08865845509982648,0.13945316314697265,84.73905181884766,84.47309875488281,-0.9635429382324219,84.96409606933594,-0.0075236850314670135,0.09366666666666666,0.31535714285714284,0.009185536702473959,-0.5383154326171891,0.48338401317596436,46.933258056640625,0.0029550340440538192,-0.010307100084092882
9296,0.07693970509982648,0.1195312786102295,84.53446960449219,84.49356079101562,-0.7589645385742188,85.0050048828125,-0.013433795505099827,0.09,0.3157142857142857,0.008422597249348959,-0.3295809202880875,0.3954960107803345,46.933258056640625,0.00045454237196180554,-0.008488549126519097
9297,0.09256470509982648,0.15937503814697265,81.71127319335938,84.75950622558594,-0.8612556457519531,85.80287170410156,-0.02570855882432726,0.08633333333333333,0.31607142857142856,0.01037563747829861,-0.20873512561035312,0.3954960107803345,46.933258056640625,-0.03386925591362847,-0.018490303887261285
9298,0.13943970509982648,0.1195312786102295,84.90271759033203,41.900001525878906,-1.331787109375,85.53691101074219,-0.023662779066297743,0.084,0.31607142857142856,0.01257290310329861,-0.3295809202880875,1.3622640371322632,46.933258056640625,0.47780795627170136,-0.02076331244574653
9299,0.10037720509982648,0.13945316314697265,86.47798156738281,84.18669128417969,-1.331787109375,85.78240966796875,-0.01002409193250868,0.08033333333333334,0.31607142857142856,0.01168789333767361,-0.4723993712158219,1.175502061843872,46.933258056640625,0.025458780924479167,-0.023491075303819445
9300,0.08475220509982648,0.1195312786102295,82.67279052734375,41.900001525878906,-1.1885833740234375,85.557373046875,-0.009342193603515625,0.07766666666666666,0.31642857142857145,0.01123012966579861,-0.6701475554199234,0.5602860450744629,46.933258056640625,0.4530309889051649,-0.019399515787760415
9301,0.08865845509982648,0.09960939407348633,82.71371459960938,84.86180114746094,-1.2704124450683594,85.557373046875,-0.011615286933051215,0.07533333333333334,0.31642857142857145,0.01098598904079861,-0.6921183043212906,0.5712720155715942,46.933258056640625,-0.023867628309461805,-0.02030872768825955
9302,0.13162720509982648,0.05976563930511475,87.93049621582031,88.25782775878906,-0.9840011596679688,85.37325286865234,-0.014115693834092882,0.073,0.3171428571428571,0.01156582302517361,-0.5053564482421891,2.3839621543884277,46.933258056640625,-0.003637017144097222,-0.015080600314670138
9303,-0.0011852949001735168,0.1195312786102295,87.05081176757812,41.900001525878906,-0.8203392028808594,85.08683776855469,0.0002048916286892361,0.06833333333333333,0.3182142857142857,0.010070546468098959,-0.801977770874025,1.3622640371322632,46.933258056640625,0.5016756693522135,-0.010079744127061632
9304,-0.005091544900173517,0.09960939407348633,84.0025634765625,87.66455078125,-0.7589645385742188,85.63920593261719,-0.015252261691623263,0.065,0.3196428571428571,0.01040615505642361,-1.2963491850585953,0.4614120125770569,46.933258056640625,-0.04068874782986111,-0.015535227457682292
9305,0.030064705099826484,0.1195312786102295,84.53446960449219,83.36836242675781,-0.9226264953613281,85.65966796875,-0.012069914076063368,0.062,0.32071428571428573,0.01208462185329861,-1.3073355131835953,-0.5383154326171891,46.933258056640625,0.012956746419270833,-0.017581049601236978
9306,0.09647095509982648,0.09960939407348633,85.53691101074219,82.65233612060547,-1.495452880859375,86.78485107421875,-0.03457370334201389,0.058,0.32142857142857145,0.014068179660373263,-1.549027102539064,-1.142544406005861,46.933258056640625,0.032050832112630205,-0.03644782172309028
9307,0.10037720509982648,0.1195312786102295,82.79554748535156,78.3970718383789,-1.720489501953125,85.37325286865234,-0.024117406209309897,0.05533333333333333,0.32142857142857145,0.013518863254123263,-2.548752444335939,-1.9664942198486344,46.933258056640625,0.048871951633029515,-0.02326380411783854
9308,0.10037720509982648,0.13945316314697265,81.58851623535156,41.900001525878906,-1.0249176025390625,85.63920593261719,-0.014115693834092882,0.051666666666666666,0.32285714285714284,0.01242031521267361,-2.252131121704103,-0.9118391447753922,46.142250061035156,0.4409834967719184,-0.018490261501736112
9309,0.11990845509982648,0.1195312786102295,83.81844329833984,84.1048583984375,-0.9226264953613281,86.19157409667969,-0.004795964558919271,0.048,0.32392857142857145,0.01156582302517361,-1.516068118164064,-0.9557825499267594,45.966468811035156,-0.0031823900010850693,-0.02349111768934462
9310,0.14334595509982648,0.1195312786102295,80.83157348632812,82.85691833496094,-1.5159111022949219,85.41416931152344,-0.01752539740668403,0.044333333333333336,0.3242857142857143,0.01113857693142361,-1.153530734130861,-0.6811319761962906,45.966468811035156,-0.022503831651475695,-0.021445337931315103
9311,0.07303345509982648,0.1195312786102295,76.10577392578125,73.67127990722656,-1.9046134948730469,85.65966796875,0.0065695868598090275,0.041,0.32392857142857145,0.007110426161024305,-1.2743765288085953,-1.0436712675781266,45.966468811035156,0.02704993353949653,-0.028492016262478298
9312,0.06912720509982648,0.15937503814697265,84.554931640625,88.0737075805664,-0.12476730346679688,83.53202819824219,-0.011160659790039062,0.037,0.32392857142857145,0.006683180067274305,-1.560013430664064,1.1645159721374512,45.966468811035156,-0.0390975104437934,0.01492449442545573
9313,0.06522095509982648,0.19921878814697266,87.99187469482422,76.8831787109375,0.4685173034667969,86.37569427490234,-0.01775266859266493,0.034666666666666665,0.3242857142857143,0.009246571858723959,-0.15380539233398594,0.8788800239562988,45.79069137573242,0.1234299553765191,-0.010079744127061632
9314,0.11600220509982648,0.09960939407348633,75.08287811279297,88.09416198730469,-2.2933120727539062,85.78240966796875,-0.014570320977105035,0.032,0.32321428571428573,0.008361562093098959,0.3954960107803345,-0.10986007983398594,45.79069137573242,-0.14456982082790798,-0.03417468600802952
9315,0.045689705099826484,0.17929691314697266,88.40103149414062,71.85050964355469,-1.5159111022949219,87.5213394165039,0.004751120673285591,0.029333333333333333,0.3221428571428571,0.007110426161024305,-0.2966219359130875,0.6701459884643555,45.79069137573242,0.18389468722873265,-0.04485833909776476
9316,0.057408455099826484,0.17929691314697266,71.70730590820312,41.900001525878906,-2.7638473510742188,85.74149322509766,-0.03411907619900174,0.02666666666666667,0.32107142857142856,0.006530592176649305,-0.9118391447753922,-1.516068118164064,45.79069137573242,0.33119227091471354,-0.03894822862413194
9317,0.1941272050998264,0.05976563930511475,90.77416229248047,89.36256408691406,-1.9659843444824219,86.08927917480469,-0.01843460930718316,0.024333333333333332,0.32035714285714284,0.007842763264973959,-0.834936755249025,3.47157621383667,45.966468811035156,0.015684424506293402,-0.03394737243652344
9318,0.010533455099826483,0.09960939407348633,91.81752014160156,86.84622192382812,-1.7000312805175781,86.15065002441406,0.007478841145833333,0.022,0.31857142857142856,0.006286451551649305,-0.09887375170898594,3.5045340061187744,45.966468811035156,0.05523664686414931,-0.031674236721462676
9319,0.002720955099826483,0.07968751907348633,85.5164566040039,85.0050048828125,-1.5977401733398438,86.45751953125,-0.0250266604953342,0.019,0.3175,0.008514149983723959,0.5712720155715942,1.1535300016403198,45.79069137573242,0.0056827969021267365,-0.033947330050998266
9320,0.006627205099826483,0.09960939407348633,80.05416870117188,84.49356079101562,-2.518352508544922,85.68012237548828,-0.008205625745985243,0.014333333333333333,0.31464285714285717,0.009032948811848959,0.5932440161705017,0.5053560137748718,45.79069137573242,-0.049326578776041664,-0.03553860982259115
9321,0.014439705099826483,0.1195312786102295,84.71859741210938,74.40776062011719,-0.5134696960449219,85.57783508300781,-0.03343713548448351,0.011333333333333334,0.31285714285714283,0.010101064046223959,0.06591600179672241,-1.2743765288085953,45.79069137573242,0.11456485324435764,-0.012125608656141493
9322,-0.016810294900173516,0.1195312786102295,72.40287780761719,85.84378051757812,-0.8612556457519531,84.14576721191406,-0.005250591701931423,0.009,0.31107142857142855,0.005889723036024305,0.8239500522613525,-1.2853628569335953,45.52701950073242,-0.14934336344401042,-7.803175184461806e-05
9323,-0.06368529490017352,0.07968751907348633,91.46973419189453,83.83889770507812,0.10027313232421875,82.01814270019531,-0.006159803602430555,0.006,0.31035714285714283,0.005340406629774305,1.6039559841156006,2.5377659797668457,43.241878509521484,0.08478707207573785,0.03424589369032118
9324,-0.1691540171223958,0.05976563930511475,85.18913269042969,84.88226318359375,0.8572196960449219,81.85447692871094,-0.014570320977105035,0.004333333333333333,0.3078571428571429,0.0039061652289496527,1.9884660243988037,0.4943700134754181,43.153987884521484,0.003409661187065972,0.04447491963704427
9325,-0.036341544900173516,0.05976563930511475,84.554931640625,84.26852416992188,2.841644287109375,80.97477722167969,-0.040711127387152775,0.0023333333333333335,0.30607142857142855,0.0076291402180989586,2.1642420291900635,-0.7470480375976578,39.19894027709961,0.003182305230034722,0.07629852294921875
9326,0.2058459550998264,0.01992187976837158,84.39126586914062,84.47309875488281,2.637065887451172,77.333251953125,-0.04002918667263455,0.0016666666666666668,0.30357142857142855,0.01086391872829861,3.076080083847046,-0.801977770874025,38.583709716796875,-0.0009092542860243056,0.11448682149251302
9327,0.045689705099826484,0.03984375953674316,84.47309875488281,84.37080383300781,4.089580535888672,78.68348693847656,-0.029118262396918403,0.0006666666666666666,0.30107142857142855,0.007934315999348959,4.0977783203125,-0.4284540587158219,38.05636978149414,0.0011366102430555556,0.11562326219346789
9328,-0.1496227671223958,0.03984375953674316,84.06393432617188,82.93875122070312,6.176296234130859,76.78089141845703,-0.01616151597764757,0.0006666666666666666,0.2960714285714286,0.0027464972601996527,3.2518560886383057,-0.9228254729003922,33.837650299072266,0.012502034505208334,0.15994894239637586
9329,-0.1808727671223958,0.03984375953674316,82.42729949951172,80.62699890136719,11.597667694091797,68.55677795410156,-0.02525397406684028,0.0,0.29285714285714287,-0.0,1.9005780220031738,0.17577600479125977,29.44314956665039,0.02000333997938368,0.3115654415554471
