,WD,WS,AIL_1,AIL_2,ELEV_1,ELEV_2,RUDD,ALT,GS,TH,PTCH,ROLL,PLA_1,AIL,ELEV
4142,0.032002427842881945,0.19921878814697266,85.20958709716797,84.53446960449219,-5.505218505859375,90.05813598632812,-0.012069914076063368,0.6243333333333333,0.4232142857142857,0.005004713270399305,0.9667680263519287,-1.2524038725585953,46.054359436035156,0.007501305474175347,-0.11737060546875
4143,0.028096177842881945,0.19921878814697266,85.23004150390625,85.27096557617188,-5.382472991943359,89.97630310058594,-0.010478719075520834,0.626,0.4203571428571429,0.0038756052652994793,0.7580339908599854,-1.7138163023681656,45.966468811035156,-0.0004547119140625,-0.1150975121392144
4144,0.020283677842881945,0.219140682220459,84.08439636230469,83.81844329833984,-5.1983489990234375,89.567138671875,-0.010251405504014757,0.6273333333333333,0.41678571428571426,0.0021971808539496527,0.7250760197639465,-2.2960745268554703,45.966468811035156,0.0029550340440538192,-0.10850541856553819
4145,0.024189927842881945,0.219140682220459,83.92073059082031,83.85935974121094,-5.239265441894531,89.75126647949219,-0.012297227647569445,0.6283333333333333,0.4142857142857143,0.0007934146457248264,0.6921180486679077,-2.3949495726318375,45.966468811035156,0.0006818983289930556,-0.1110059102376302
4146,0.032002427842881945,0.219140682220459,83.61386108398438,83.61386108398438,-4.9733123779296875,89.54668426513672,-0.013661109076605903,0.6293333333333333,0.4107142857142857,-0.000274658203125,0.5822579860687256,-2.0653692656250016,45.70280075073242,0.0,-0.10577774047851562
4147,0.032002427842881945,0.219140682220459,83.96165466308594,83.77752685546875,-4.830104827880859,89.19889831542969,-0.012069914076063368,0.6296666666666667,0.4082142857142857,-0.001373291015625,0.7250760197639465,-1.4501520567626969,45.70280075073242,0.002045864529079861,-0.10032225714789497
4148,0.028096177842881945,0.219140682220459,83.5934066772461,83.47065734863281,-4.830104827880859,89.17843627929688,-0.010933346218532987,0.63,0.40535714285714286,-0.0023498111300998266,0.8239500522613525,-0.801977770874025,45.70280075073242,0.0013638814290364584,-0.10009490119086371
4149,0.024189927842881945,0.219140682220459,84.16622924804688,83.69569396972656,-4.850563049316406,89.09660339355469,-0.009114880032009548,0.6303333333333333,0.4032142857142857,-0.0031127081976996527,0.747048020362854,-0.09887375170898594,45.70280075073242,0.005228169759114583,-0.09941296047634549
4150,0.032002427842881945,0.219140682220459,84.82088470458984,84.71859741210938,-4.625526428222656,88.99431610107422,-0.014115693834092882,0.6303333333333333,0.40035714285714286,-0.0024718814425998266,0.6371880173683167,0.23070600628852844,45.70280075073242,0.0011365254720052083,-0.0957760281032986
4151,0.032002427842881945,0.219140682220459,85.18913269042969,85.39370727539062,-4.564151763916016,88.85111236572266,-0.008660252888997395,0.6303333333333333,0.3985714285714286,-0.0021972232394748266,0.8349360227584839,0.1867620050907135,45.52701950073242,-0.0022730509440104167,-0.09350293477376302
4152,0.035908677842881945,0.219140682220459,82.20226287841797,81.8953857421875,-4.482318878173828,88.81019592285156,-0.011615286933051215,0.63,0.3960714285714286,-0.0017394595675998264,0.9008520245552063,0.8239500522613525,45.70280075073242,0.0034097459581163194,-0.09213905334472657
4153,0.032002427842881945,0.219140682220459,83.32745361328125,83.24562072753906,-4.441402435302734,88.52378845214844,-0.0022955152723524307,0.63,0.3942857142857143,-0.001190185546875,0.8569080233573914,2.66959810256958,45.70280075073242,0.0009092542860243056,-0.08850212097167968
4154,0.024189927842881945,0.219140682220459,85.25050354003906,85.18913269042969,-4.707359313964844,89.05569458007812,-0.00843293931749132,0.6296666666666667,0.3917857142857143,0.0007323794894748264,0.7580339908599854,3.548478126525879,45.70280075073242,0.0006818983289930556,-0.09736726548936632
4155,0.024189927842881945,0.219140682220459,85.20958709716797,85.12775421142578,-4.727817535400391,89.09660339355469,-0.012069914076063368,0.629,0.39,0.0030821482340494793,0.26366400718688965,3.372702121734619,45.70280075073242,0.0009092542860243056,-0.0980491214328342
4156,0.035908677842881945,0.219140682220459,82.79554748535156,82.38638305664062,-4.9733123779296875,89.30118560791016,-0.015706888834635415,0.6276666666666667,0.38785714285714284,0.0060117509629991316,-0.3295809202880875,3.207911968231201,45.52701950073242,0.004546271430121528,-0.10304997762044271
4157,0.043721177842881945,0.219140682220459,84.08439636230469,82.75462341308594,-5.730258941650391,89.79217529296875,-0.007296371459960938,0.6263333333333333,0.38642857142857145,0.008849800957573786,-1.1095873289794937,4.350456237792969,45.52701950073242,0.014775254991319445,-0.11691593594021267
4158,0.020283677842881945,0.219140682220459,84.49356079101562,84.39126586914062,-5.730258941650391,90.20133972167969,-0.0043413374159071184,0.625,0.38392857142857145,0.01046719021267361,-2.0873400145263687,5.152434349060059,45.52701950073242,0.0011366102430555556,-0.1214622073703342
4159,0.016377427842881945,0.19921878814697266,83.94119262695312,84.24806213378906,-5.66888427734375,90.18087768554688,-0.011160659790039062,0.6233333333333333,0.3825,0.013549380832248263,-2.856360095092775,5.361167907714844,45.52701950073242,-0.003409661187065972,-0.12055291069878472
4160,0.004658677842881945,0.19921878814697266,85.47554016113281,85.35279846191406,-5.873462677001953,90.34454345703125,-0.007978312174479167,0.6216666666666667,0.38,0.016601053873697917,-3.3397451811523453,5.394125938415527,45.52701950073242,0.0013637966579861111,-0.12464451260036892
4161,0.0007524278428819444,0.19921878814697266,86.33477783203125,86.53935241699219,-5.771175384521484,90.48774719238281,-0.012069914076063368,0.62,0.37785714285714284,0.020018895467122395,-3.867073672363283,4.614120006561279,45.52701950073242,-0.0022730509440104167,-0.12509913974338108
4162,0.012471177842881945,0.19921878814697266,86.25294494628906,85.96653747558594,-5.5870513916015625,89.91493225097656,-0.015934202406141493,0.6183333333333333,0.3757142857142857,0.02380299038357205,-4.086792605468752,3.3617160320281982,45.52701950073242,0.003182305230034722,-0.11668870713975694
4163,0.028096177842881945,0.19921878814697266,86.08927917480469,86.15065002441406,-5.730258941650391,90.1195068359375,-0.015252261691623263,0.616,0.37392857142857144,0.026885181003146703,-3.88904442126465,2.186213970184326,45.70280075073242,-0.0006818983289930556,-0.1205529530843099
4164,0.028096177842881945,0.19921878814697266,85.18913269042969,85.94607543945312,-5.66888427734375,90.20133972167969,-0.011615286933051215,0.6136666666666667,0.37142857142857144,0.028288947211371526,-3.943974154541017,1.0107120275497437,45.70280075073242,-0.008410474989149305,-0.12078026665581597
4165,0.039814927842881945,0.19921878814697266,85.37325286865234,84.20714569091797,-5.484760284423828,90.05813598632812,-0.015934202406141493,0.6113333333333333,0.37,0.029601160685221353,-4.053835528442384,0.45042601227760315,45.70280075073242,0.012956746419270833,-0.11714329189724393
4166,0.039814927842881945,0.19921878814697266,85.25050354003906,85.16867065429688,-5.546134948730469,90.20133972167969,-0.010933346218532987,0.6086666666666667,0.3682142857142857,0.02987577650282118,-4.163694994995119,0.19774800539016724,45.70280075073242,0.0009092542860243056,-0.11941638522677951
4167,0.039814927842881945,0.19921878814697266,84.82088470458984,85.1072998046875,-5.689342498779297,90.1604232788086,-0.01002409193250868,0.6056666666666667,0.36678571428571427,0.029692713419596353,-4.37242950732422,-0.21972145373535312,45.70280075073242,-0.0031823900010850693,-0.1205529530843099
4168,0.039814927842881945,0.19921878814697266,84.63676452636719,84.69813537597656,-5.484760284423828,90.1195068359375,-0.011387973361545138,0.6026666666666667,0.3653571428571429,0.029448572794596353,-4.734966891357423,-0.48338379199218906,45.52701950073242,-0.0006818983289930556,-0.11782519022623698
4169,0.028096177842881945,0.19921878814697266,84.94363403320312,84.53446960449219,-5.505218505859375,89.83309936523438,-0.009569507175021702,0.5986666666666667,0.36464285714285716,0.028258429633246526,-4.789896624633791,-0.6591612272949234,45.52701950073242,0.004546271430121528,-0.11487019856770833
4170,0.032002427842881945,0.19921878814697266,85.31187438964844,85.47554016113281,-5.259723663330078,89.64897155761719,-0.013661109076605903,0.5946666666666667,0.36357142857142855,0.028014289008246526,-4.800882952758791,-1.131558077880861,45.52701950073242,-0.001818508572048611,-0.11009661356608073
4171,0.043721177842881945,0.19921878814697266,84.43218231201172,84.12531280517578,-5.218807220458984,89.62850952148438,-0.016388829549153647,0.5906666666666667,0.3632142857142857,0.027739630805121526,-4.734966891357423,-1.505081790039064,45.52701950073242,0.003409661187065972,-0.10941463046603733
4172,0.032002427842881945,0.19921878814697266,86.49844360351562,85.14820861816406,-5.239265441894531,89.54668426513672,-0.006159803602430555,0.5863333333333334,0.3625,0.025878100925021703,-4.712994235107423,-1.6369139128417984,45.52701950073242,0.015002610948350694,-0.10873277452256945
4173,0.028096177842881945,0.19921878814697266,85.49600219726562,85.43462371826172,-5.014228820800781,89.36256408691406,-0.011842600504557292,0.5816666666666667,0.36214285714285716,0.02413868374294705,-4.702007906982423,-2.6146685057373062,45.52701950073242,0.0006819831000434028,-0.10418658786349827
4174,0.035908677842881945,0.19921878814697266,83.90027618408203,84.94363403320312,-4.911937713623047,89.0761489868164,-0.01547957526312934,0.5773333333333334,0.36178571428571427,0.02230767144097222,-4.460316317626955,-3.4276319914550797,45.70280075073242,-0.011592864990234375,-0.09986763000488282
4175,0.028096177842881945,0.19921878814697266,83.08195495605469,83.32745361328125,-5.177890777587891,89.48530578613281,-0.00775099860297309,0.5726666666666667,0.3610714285714286,0.01895082261827257,-4.306513445922853,-3.3177725249023453,45.70280075073242,-0.002727762858072917,-0.10736885070800781
4176,0.020283677842881945,0.219140682220459,83.26608276367188,82.89783477783203,-5.341556549072266,89.66943359375,-0.00843293931749132,0.5686666666666667,0.3607142857142857,0.015777079264322917,-4.559191363403322,-2.581711428710939,45.70280075073242,0.004091644287109375,-0.11123322380913628
4177,0.004658677842881945,0.219140682220459,83.36836242675781,83.18424987792969,-5.11651611328125,89.48530578613281,-0.00843293931749132,0.564,0.36,0.012969546847873263,-4.833840029785158,-1.7797323637695328,44.56023025512695,0.0020456949869791666,-0.10668690999348958
4178,0.0007524278428819444,0.219140682220459,83.34790802001953,83.16378784179688,-5.239265441894531,89.58760070800781,-0.00843293931749132,0.5596666666666666,0.35928571428571426,0.01135219997829861,-4.921728747436525,-0.9338098936767594,44.38444900512695,0.002045779758029514,-0.1091874016655816
4179,-0.014872572157118055,0.219140682220459,83.63432312011719,83.26608276367188,-5.341556549072266,89.6080551147461,-0.007296371459960938,0.5546666666666666,0.3585714285714286,0.009673775566948786,-5.064547198364259,-0.12084640795898594,44.38444900512695,0.004091559516059028,-0.11055124070909288
4180,-0.022685072157118055,0.219140682220459,81.67034912109375,86.39614868164062,-4.932395935058594,89.1579818725586,-0.010478719075520834,0.55,0.3582142857142857,0.009093941582573786,-5.141449587890627,-0.2416922026367203,44.29655838012695,-0.05250888400607639,-0.1010041978624132
4181,-0.026591322157118055,0.219140682220459,84.94363403320312,83.18424987792969,-5.239265441894531,89.28073120117188,-0.00843293931749132,0.545,0.3578571428571429,0.008178456624348959,-4.943701403686525,0.4064820110797882,44.29655838012695,0.019548712836371527,-0.10577774047851562
4182,-0.042216322157118055,0.219140682220459,84.75950622558594,83.87982177734375,-5.177890777587891,89.46485137939453,-0.010478719075520834,0.54,0.3575,0.0073849995930989586,-4.976658480712892,0.5712720155715942,44.29655838012695,0.009774271647135417,-0.10714157952202691
4183,-0.046122572157118055,0.219140682220459,83.83889770507812,84.554931640625,-4.850563049316406,88.99431610107422,-0.007978312174479167,0.535,0.35714285714285715,0.0073239644368489586,-4.943701403686525,0.38451001048088074,44.29655838012695,-0.0079559326171875,-0.09827643500434027
4184,-0.042216322157118055,0.219140682220459,83.96165466308594,83.79798889160156,-4.952854156494141,89.23981475830078,-0.011615286933051215,0.53,0.35678571428571426,0.0075986226399739586,-4.756939547607423,0.38451001048088074,44.29655838012695,0.001818508572048611,-0.10214076571994357
4185,-0.038310072157118055,0.219140682220459,84.06393432617188,83.92073059082031,-4.952854156494141,89.2193603515625,-0.011387973361545138,0.525,0.3560714285714286,0.007873280843098959,-4.712994235107423,0.48338401317596436,44.29655838012695,0.001591152615017361,-0.10191349453396267
4186,-0.038310072157118055,0.239062557220459,84.14576721191406,83.87982177734375,-4.5846099853515625,88.89202880859375,-0.008887566460503472,0.52,0.3557142857142857,0.008056386311848959,-4.669050829956056,0.6042300462722778,44.29655838012695,0.0029549492730034724,-0.09418487548828125
4187,-0.034403822157118055,0.239062557220459,84.77996826171875,84.554931640625,-4.3595733642578125,88.29874420166016,-0.010478719075520834,0.5156666666666667,0.355,0.008514149983723959,-4.097778933593752,0.5053560137748718,44.29655838012695,0.0025004069010416668,-0.08509241739908854
4188,-0.026591322157118055,0.239062557220459,85.63920593261719,85.63920593261719,-4.543693542480469,88.58515930175781,-0.014115693834092882,0.511,0.3539285714285714,0.009185494316948786,-3.559464114257814,-0.12084640795898594,44.38444900512695,0.0,-0.09032058715820312
4189,-0.014872572157118055,0.239062557220459,84.92317199707031,84.75950622558594,-4.523235321044922,88.78973388671875,-0.014570320977105035,0.5073333333333333,0.3532142857142857,0.009460152520073786,-3.3836885863037125,-1.0546575957031266,44.29655838012695,0.001818508572048611,-0.09236632453070746
4190,-0.010966322157118055,0.25898443222045897,84.82088470458984,84.80043029785156,-4.5846099853515625,88.83065795898438,-0.011160659790039062,0.504,0.3510714285714286,0.008544667561848959,-3.251856463500978,-1.8566347532959,44.29655838012695,0.00022727118598090277,-0.0935029771592882
4191,0.008564927842881945,0.25898443222045897,84.26852416992188,83.57295227050781,-4.543693542480469,88.85111236572266,-0.01661614312065972,0.5006666666666667,0.35,0.008270009358723959,-3.1090380125732437,-2.4279066496582047,44.29655838012695,0.00772857666015625,-0.09327562120225695
4192,0.024189927842881945,0.25898443222045897,84.45263671875,83.0410385131836,-4.8096466064453125,89.28073120117188,-0.014570320977105035,0.498,0.34785714285714286,0.0075986226399739586,-3.1529833250732437,-2.4498793059082047,44.29655838012695,0.015684424506293402,-0.1010041978624132
4193,0.028096177842881945,0.25898443222045897,83.08195495605469,82.91828918457031,-4.032245635986328,88.81019592285156,-0.01002409193250868,0.495,0.3467857142857143,0.0060117509629991316,-3.1090380125732437,-2.142269747802736,44.29655838012695,0.001818508572048611,-0.08713823954264323
4194,0.028096177842881945,0.25898443222045897,83.20470428466797,84.80043029785156,-4.564151763916016,88.74882507324219,-0.007069057888454861,0.49233333333333335,0.345,0.004272333780924479,-2.6586119108886734,-1.9005781584472672,44.29655838012695,-0.017730289035373263,-0.09236640930175781
4195,0.028096177842881945,0.25898443222045897,83.73661041259766,83.69569396972656,-4.543693542480469,88.91248321533203,-0.007978312174479167,0.48966666666666664,0.3435714285714286,0.0023497687445746527,-2.6695982390136734,-1.6369139128417984,44.29655838012695,0.0004546271430121528,-0.09395751953125
4196,0.028096177842881945,0.25898443222045897,83.49111938476562,83.34790802001953,-4.66644287109375,88.91248321533203,-0.010478719075520834,0.487,0.34214285714285714,0.0009460025363498264,-2.7465006285400406,-1.3293062620849625,44.82389831542969,0.0015912373860677083,-0.09532140096028646
4197,0.032002427842881945,0.25898443222045897,83.34790802001953,82.97966003417969,-4.502777099609375,88.72836303710938,-0.009114880032009548,0.48433333333333334,0.3414285714285714,0.00021358066134982638,-2.823403018066408,-0.812964098999025,45.79069137573242,0.004091644287109375,-0.09145711263020834
4198,0.039814927842881945,0.25898443222045897,84.12531280517578,83.77752685546875,-4.5846099853515625,88.89202880859375,-0.015252261691623263,0.482,0.3407142857142857,0.0005797915988498264,-2.7245279722900406,-0.17577614123535312,45.79069137573242,0.003864288330078125,-0.09418487548828125
4199,0.039814927842881945,0.25898443222045897,84.35034942626953,84.08439636230469,-4.543693542480469,88.83065795898438,-0.007978312174479167,0.4796666666666667,0.34035714285714286,0.0003661685519748264,-2.7135435515136734,0.3076080083847046,45.966468811035156,0.0029550340440538192,-0.09304835001627604
4200,0.035908677842881945,0.25898443222045897,82.67279052734375,84.43218231201172,-4.482318878173828,89.09660339355469,-0.009342193603515625,0.477,0.34,-0.000244140625,-2.7794596129150406,0.3185940086841583,45.966468811035156,-0.019548797607421876,-0.09532135857476129
4201,0.039814927842881945,0.25898443222045897,82.83645629882812,81.62944030761719,-4.441402435302734,88.68744659423828,-0.0066144307454427086,0.47433333333333333,0.33964285714285714,0.0004577212863498264,-2.7794596129150406,1.5709980726242065,45.966468811035156,0.013411288791232639,-0.09032054477267795
4202,0.032002427842881945,0.25898443222045897,83.02058410644531,82.87738037109375,-4.543693542480469,88.64653015136719,-0.0059324900309244795,0.472,0.3392857142857143,0.0010680728488498264,-2.6586119108886734,2.6476261615753174,45.966468811035156,0.001591152615017361,-0.09100248548719618
4203,0.024189927842881945,0.25898443222045897,83.81844329833984,83.20470428466797,-4.686901092529297,88.95339965820312,-0.009114880032009548,0.469,0.3392857142857143,0.0023497687445746527,-2.7574869566650406,2.8893179893493652,45.966468811035156,0.006819322374131944,-0.09600334167480469
4204,0.032002427842881945,0.25898443222045897,83.79798889160156,83.73661041259766,-4.625526428222656,88.85111236572266,-0.013433795505099827,0.4666666666666667,0.3389285714285714,0.005309889051649305,-3.0870672636718766,2.8893179893493652,45.966468811035156,0.0006819831000434028,-0.09418487548828125
4205,0.039814927842881945,0.239062557220459,84.53446960449219,84.43218231201172,-4.236824035644531,88.48286437988281,-0.007978312174479167,0.4643333333333333,0.3389285714285714,0.007934315999348959,-3.0870672636718766,3.3397440910339355,45.966468811035156,0.0011365254720052083,-0.0857743157280816
4206,0.032002427842881945,0.239062557220459,86.37569427490234,85.98699188232422,-4.277740478515625,88.29874420166016,-0.005705218844943577,0.461,0.3389285714285714,0.009551705254448786,-2.6036821776123062,3.372702121734619,45.966468811035156,0.0043189154730902775,-0.08418316311306423
4207,0.028096177842881945,0.239062557220459,83.96165466308594,84.92317199707031,-4.8096466064453125,89.1579818725586,-0.012751854790581597,0.4583333333333333,0.3389285714285714,0.011657333374023438,-2.4279066496582047,2.515794038772583,45.966468811035156,-0.010683525933159722,-0.09964031643337673
4208,0.039814927842881945,0.219140682220459,87.27584838867188,83.90027618408203,-4.4209442138671875,88.52378845214844,-0.015252261691623263,0.45566666666666666,0.3382142857142857,0.014129214816623263,-2.7025572233886734,2.4059340953826904,45.966468811035156,0.037506357828776045,-0.08827480740017361
4209,0.039814927842881945,0.219140682220459,86.76439666748047,86.98943328857422,-4.318656921386719,88.48286437988281,-0.009342193603515625,0.45366666666666666,0.3382142857142857,0.015929667154947917,-2.581711428710939,1.5270540714263916,45.966468811035156,-0.0025004069010416668,-0.0866835700141059
4210,0.035908677842881945,0.219140682220459,84.53446960449219,85.08683776855469,-4.645984649658203,88.83065795898438,-0.01320648193359375,0.4503333333333333,0.33785714285714286,0.016448465983072917,-2.6915708952636734,0.2526780068874359,45.966468811035156,-0.006137424045138889,-0.09418491787380642
4211,0.059346177842881945,0.19921878814697266,86.02790832519531,84.57539367675781,-4.4209442138671875,88.64653015136719,-0.020480431450737847,0.44733333333333336,0.3375,0.018065855238172744,-2.9772058897705094,-0.20873512561035312,45.966468811035156,0.016139051649305555,-0.08963860405815972
4212,0.059346177842881945,0.19921878814697266,85.88470458984375,85.80287170410156,-4.175449371337891,88.05325317382812,-0.01252454121907552,0.44433333333333336,0.3375,0.017791197035047744,-3.1310106688232437,-0.5822588377685562,46.054359436035156,0.0009092542860243056,-0.08031891716851128
4213,0.047627427842881945,0.219140682220459,83.38882446289062,84.14576721191406,-4.1959075927734375,88.33966064453125,-0.009796820746527778,0.441,0.33785714285714286,0.016082255045572917,-3.1310106688232437,-1.1864878111572281,46.054359436035156,-0.008410474989149305,-0.08372853597005209
4214,0.039814927842881945,0.239062557220459,84.67768096923828,83.06149291992188,-4.1959075927734375,88.29874420166016,-0.011387973361545138,0.438,0.3382142857142857,0.01425124274359809,-3.0321375303955094,-0.8788801604003922,46.054359436035156,0.017957644992404515,-0.08327390882703993
4215,0.020283677842881945,0.219140682220459,83.75706481933594,83.57295227050781,-4.093616485595703,88.23736572265625,-0.007069057888454861,0.435,0.3382142857142857,0.011931991577148438,-2.7355143004150406,-0.7800070219726578,46.054359436035156,0.0020456949869791666,-0.08145535786946614
4216,0.016377427842881945,0.239062557220459,82.550048828125,82.34546661376953,-4.1959075927734375,88.48286437988281,-0.012069914076063368,0.432,0.33785714285714286,0.01071133083767361,-2.515795367309572,-0.6042314940185562,46.054359436035156,0.002273135715060764,-0.08531968858506944
4217,0.016377427842881945,0.239062557220459,84.35034942626953,83.65477752685547,-4.400489807128906,88.52378845214844,-0.01070603264702691,0.42966666666666664,0.3375,0.01034511990017361,-2.4279066496582047,0.12084600329399109,45.966468811035156,0.00772857666015625,-0.08804753621419271
4218,0.012471177842881945,0.239062557220459,86.68256378173828,85.43462371826172,-4.564151763916016,88.76927947998047,-0.013433795505099827,0.4266666666666667,0.3364285714285714,0.01025356716579861,-2.4279066496582047,0.06591600179672241,45.966468811035156,0.013866000705295138,-0.09259368048773872
4219,0.020283677842881945,0.239062557220459,84.12531280517578,84.06393432617188,-4.564151763916016,88.87156677246094,-0.016388829549153647,0.42333333333333334,0.3357142857142857,0.01058926052517361,-2.790444033691408,-0.5053564482421891,45.966468811035156,0.0006819831000434028,-0.09373020595974392
4220,0.016377427842881945,0.219140682220459,86.04837036132812,84.18669128417969,-4.564151763916016,88.27828979492188,-0.003886710272894965,0.42033333333333334,0.335,0.009368599785698786,-2.966221468994142,0.010986000299453735,45.966468811035156,0.020685323079427085,-0.08713823954264323
4221,0.004658677842881945,0.219140682220459,85.12775421142578,85.27096557617188,-4.380031585693359,88.23736572265625,-0.008660252888997395,0.41633333333333333,0.335,0.008331044514973959,-3.0211512022705094,-0.3845106535644547,45.966468811035156,-0.0015912373860677083,-0.08463774787055121
4222,0.020283677842881945,0.239062557220459,84.57539367675781,84.77996826171875,-4.175449371337891,88.6056137084961,-0.01797998216417101,0.412,0.33464285714285713,0.009063424004448786,-3.218899386474611,-1.2304331236572281,45.966468811035156,-0.0022730509440104167,-0.08645625644259983
4223,0.035908677842881945,0.219140682220459,83.16378784179688,83.0410385131836,-4.277740478515625,88.58515930175781,-0.018889236450195312,0.4083333333333333,0.33464285714285713,0.009246529473198786,-2.9991785460205094,-1.3183199339599625,45.966468811035156,0.0013638814290364584,-0.0873655531141493
4224,0.043721177842881945,0.19921878814697266,85.0050048828125,84.32989501953125,-4.7482757568359375,88.70790100097656,-0.0034320831298828127,0.404,0.33464285714285713,0.008575142754448786,-2.6366411619873062,-0.5492998533935562,45.966468811035156,0.007501220703125,-0.09395751953125
4225,0.035908677842881945,0.219140682220459,85.557373046875,85.14820861816406,-4.154991149902344,88.31919860839844,-0.0054779052734375,0.399,0.3342857142857143,0.0077817281087239586,-2.801430361816408,0.4723980128765106,45.966468811035156,0.004546271430121528,-0.08304655287000869
4226,0.028096177842881945,0.19921878814697266,86.27340698242188,87.37813568115234,-3.8276634216308594,87.66455078125,-0.009114880032009548,0.3943333333333333,0.33464285714285713,0.0074460347493489586,-2.7025572233886734,0.4284540116786957,45.966468811035156,-0.01227476331922743,-0.07213571336534289
4227,0.035908677842881945,0.17929691314697266,85.72103881835938,85.88470458984375,-3.868579864501953,87.72592163085938,-0.015252261691623263,0.39,0.33464285714285713,0.0078122456868489586,-2.4498793059082047,-0.3845106535644547,45.966468811035156,-0.001818508572048611,-0.0732722388373481
4228,0.032002427842881945,0.17929691314697266,85.70057678222656,85.74149322509766,-3.8481216430664062,87.88958740234375,-0.009569507175021702,0.38533333333333336,0.335,0.0069577958848741316,-2.3510042601318375,-0.7909933500976578,45.966468811035156,-0.0004546271430121528,-0.07486343383789062
4229,0.016377427842881945,0.15937503814697265,84.86180114746094,83.47065734863281,-2.9479713439941406,87.31675720214844,-0.012751854790581597,0.381,0.3357142857142857,0.005187818739149305,-2.230158465454103,-0.9667688780517594,45.966468811035156,0.0154571533203125,-0.058496983846028645
4230,-0.007060072157118055,0.13945316314697265,85.08683776855469,84.20714569091797,-4.073158264160156,87.54179382324219,-0.009569507175021702,0.377,0.3364285714285714,0.0028685251871744793,-1.6808592253417984,-0.8898664885253922,46.58169937133789,0.009774356418185763,-0.07349946763780382
4231,-0.061747572157118055,0.09960939407348633,84.06393432617188,83.65477752685547,-3.6230850219726562,88.0737075805664,-0.003886710272894965,0.37333333333333335,0.33714285714285713,0.00018306308322482638,-1.7467752867431656,-0.19774879748535312,46.66958999633789,0.00454618665907118,-0.07440880669487847
4232,-0.10471632215711806,0.1195312786102295,83.18424987792969,83.12287139892578,-3.66400146484375,87.35768127441406,-0.0050232781304253475,0.369,0.3389285714285714,-0.0021972232394748266,-1.8126913481445328,0.7250760197639465,46.66958999633789,0.0006819831000434028,-0.06690758599175348
4233,-0.10081007215711806,0.13945316314697265,82.550048828125,82.81600189208984,-3.357128143310547,87.76683807373047,-0.011615286933051215,0.36533333333333334,0.33964285714285714,-0.0022582583957248266,-1.7577597075195328,1.4281799793243408,46.66958999633789,-0.0029550340440538192,-0.0680440690782335
4234,-0.10081007215711806,0.1195312786102295,84.26852416992188,82.71371459960938,-4.093616485595703,88.50332641601562,-0.013888380262586805,0.36133333333333334,0.3414285714285714,-0.000762939453125,-1.6588865690917984,2.3070600032806396,46.66958999633789,0.01727566189236111,-0.08441047668457032
4235,-0.11643507215711806,0.1195312786102295,85.57783508300781,85.88470458984375,-4.11407470703125,88.29874420166016,-0.009796820746527778,0.358,0.34214285714285714,0.0005797915988498264,-2.0324102812500016,2.1532559394836426,46.66958999633789,-0.003409661187065972,-0.08236465454101563
4236,-0.10862257215711806,0.13945316314697265,84.43218231201172,84.32989501953125,-4.032245635986328,88.33966064453125,-0.01729808383517795,0.3546666666666667,0.3432142857142857,0.0018004523383246527,-2.4498793059082047,1.4391660690307617,46.66958999633789,0.0011365254720052083,-0.08191006978352865
4237,-0.12424757215711806,0.09960939407348633,85.61874389648438,85.33233642578125,-3.9504127502441406,88.0123291015625,-0.01070603264702691,0.35133333333333333,0.3439285714285714,0.0032957712809244793,-2.4608656340332047,1.2963480949401855,46.84537124633789,0.003182305230034722,-0.07736379835340712
4238,-0.12034132215711806,0.09960939407348633,85.0459213256836,85.39370727539062,-3.66400146484375,87.68500518798828,-0.016388829549153647,0.348,0.3457142857142857,0.004882642957899305,-2.1202989989013687,0.516342043876648,46.84537124633789,-0.003864288330078125,-0.07054451836480034
4239,-0.08909132215711806,0.1195312786102295,83.73661041259766,84.75950622558594,-3.7662887573242188,88.09416198730469,-0.015934202406141493,0.3443333333333333,0.3464285714285714,0.005248853895399305,-1.9555078917236344,-0.6042314940185562,46.84537124633789,-0.011365509033203125,-0.07622723049587674
4240,-0.046122572157118055,0.1195312786102295,85.18913269042969,81.93630981445312,-4.441402435302734,88.42149353027344,-0.01775266859266493,0.341,0.34785714285714286,0.0064695146348741316,-1.7907186918945328,0.35155200958251953,46.66958999633789,0.03614247639973958,-0.08736551072862413
4241,-0.12424757215711806,0.09960939407348633,87.21446990966797,85.0459213256836,-4.257282257080078,88.46240997314453,0.0024779849582248262,0.33766666666666667,0.34785714285714286,0.004607984754774305,-2.3070608549804703,1.7467740774154663,46.66958999633789,0.024094984266493057,-0.08577435811360677
4242,-0.12034132215711806,0.13945316314697265,83.06149291992188,82.63188171386719,-3.745830535888672,87.70545959472656,-0.0066144307454427086,0.33366666666666667,0.3489285714285714,0.004424879286024305,-2.4169203215332047,1.2743760347366333,46.66958999633789,0.004773457845052083,-0.07168100145128038
4243,-0.08518507215711806,0.09960939407348633,84.47309875488281,83.85935974121094,-4.318656921386719,88.13508605957031,-0.015706888834635415,0.331,0.35,0.007995351155598959,-1.9994532042236344,1.5490260124206543,46.66958999633789,0.006819322374131944,-0.08281936645507812
4244,-0.038310072157118055,0.09960939407348633,89.91493225097656,86.5188980102539,-4.073158264160156,88.6056137084961,-0.014797634548611112,0.32766666666666666,0.3507142857142857,0.01129116482204861,-2.153256075927736,2.922276020050049,46.66958999633789,0.03773371378580729,-0.08531968858506944
4245,-0.08909132215711806,0.09960939407348633,85.5164566040039,85.96653747558594,-3.868579864501953,87.91004180908203,-0.007296371459960938,0.325,0.3510714285714286,0.011626815795898438,-1.8676210814209,2.208186149597168,46.66958999633789,-0.00500089857313368,-0.07531801859537761
4246,-0.14377882215711807,0.09960939407348633,84.37080383300781,84.30943298339844,-4.441402435302734,88.72836303710938,-0.0013863033718532986,0.32266666666666666,0.3510714285714286,0.011474227905273438,-1.549027102539064,1.8566340208053589,46.66958999633789,0.0006818983289930556,-0.09077517191569011
4247,-0.20237257215711807,0.09960939407348633,85.65966796875,85.82332611083984,-4.134532928466797,88.91248321533203,-0.004114023844401042,0.319,0.3514285714285714,0.01074184841579861,-1.8786074095459,1.450152039527893,46.66958999633789,-0.0018184238009982638,-0.08941129048665365
4248,-0.14377882215711807,0.13945316314697265,85.68012237548828,85.61874389648438,-4.257282257080078,88.50332641601562,-0.015024948120117187,0.316,0.3517857142857143,0.011748886108398438,-2.0873400145263687,0.6701459884643555,46.84537124633789,0.0006819831000434028,-0.08622898525661893
4249,-0.13206007215711807,0.1195312786102295,85.02546691894531,84.96409606933594,-4.093616485595703,88.36012268066406,-0.02457203335232205,0.313,0.3517857142857143,0.013305240207248263,-2.0543829375000016,0.0,46.84537124633789,0.0006818983289930556,-0.08281932406955295
4250,-0.20237257215711807,0.09960939407348633,85.39370727539062,87.25538635253906,-3.9913291931152344,88.31919860839844,0.002705298529730903,0.31066666666666665,0.35285714285714287,0.01123012966579861,-1.8895918303222672,0.1867620050907135,46.84537124633789,-0.020685323079427085,-0.08122808668348525
4251,-0.26096632215711807,0.09960939407348633,81.85447692871094,83.79798889160156,-4.11407470703125,88.31919860839844,-0.014115693834092882,0.30766666666666664,0.3532142857142857,0.009856881035698786,-1.7028299742431656,-0.812964098999025,46.84537124633789,-0.021594577365451388,-0.08259192572699653
4252,-0.13596632215711807,0.09960939407348633,87.48042297363281,84.554931640625,-4.216365814208984,88.17599487304688,-0.02729975382486979,0.305,0.35285714285714287,0.013000064425998263,-1.7577597075195328,-0.6481748991699234,46.84537124633789,0.03250545925564236,-0.08213734096950955
4253,-0.16721632215711807,0.05976563930511475,87.09172058105469,83.65477752685547,-4.236824035644531,88.6056137084961,-0.012297227647569445,0.30233333333333334,0.3532142857142857,0.013854556613498263,-1.9555078917236344,-0.48338379199218906,46.84537124633789,0.0381882561577691,-0.08713819715711806
4254,-0.09690382215711806,0.07968751907348633,84.20714569091797,85.57783508300781,-4.1959075927734375,88.52378845214844,-0.011842600504557292,0.3,0.3525,0.013793521457248263,-2.0873400145263687,-1.8236757689209,46.84537124633789,-0.015229882134331598,-0.08577440049913194
4255,-0.09299757215711806,0.03984375953674316,84.18669128417969,84.0025634765625,-4.523235321044922,88.78973388671875,-0.01752539740668403,0.2976666666666667,0.3525,0.013701968722873263,-2.0763555937500016,-2.790444033691408,46.84537124633789,0.002045864529079861,-0.09236632453070746
4256,-0.10471632215711806,0.05976563930511475,83.20470428466797,83.24562072753906,-4.461860656738281,88.78973388671875,-0.006841744316948784,0.294,0.3525,0.01037563747829861,-2.1093126707763687,-2.834389346191408,46.84537124633789,-0.0004546271430121528,-0.09168438381618924
4257,-0.15159132215711807,0.05976563930511475,82.42729949951172,82.12042999267578,-4.134532928466797,88.564697265625,-0.002068201700846354,0.2906666666666667,0.3525,0.0064084794786241316,-2.4169203215332047,-2.3949495726318375,46.84537124633789,0.003409661187065972,-0.08554700215657553
4258,-0.23362257215711807,0.05976563930511475,82.79554748535156,82.63188171386719,-3.868579864501953,87.66455078125,-0.003886710272894965,0.28733333333333333,0.35285714285714287,0.0031126658121744793,-2.4059339934082047,-1.120571749755861,46.66958999633789,0.001818508572048611,-0.07259034050835503
4259,-0.16721632215711807,0.1195312786102295,83.1024169921875,85.35279846191406,-3.7662887573242188,88.03279113769531,0.0002048916286892361,0.2833333333333333,0.3535714285714286,0.0008239322238498264,-2.471850054809572,-0.5492998533935562,46.66958999633789,-0.02500423855251736,-0.07554533216688368
4260,-0.17893507215711807,0.09960939407348633,85.18913269042969,85.18913269042969,-4.093616485595703,88.1555404663086,-0.015706888834635415,0.2803333333333333,0.3535714285714286,0.0013732486300998264,-2.208185809204103,-0.4174677305908219,46.66958999633789,0.0,-0.08054618835449219
4261,-0.16331007215711807,0.09960939407348633,85.5164566040039,83.12287139892578,-4.3595733642578125,88.1555404663086,-0.013433795505099827,0.2763333333333333,0.3535714285714286,0.0007934146457248264,-1.9994532042236344,0.2197200059890747,46.84537124633789,0.02659539116753472,-0.08350126478407117
4262,-0.19065382215711807,0.1195312786102295,86.15065002441406,86.43707275390625,-4.134532928466797,88.1146240234375,-0.004568650987413194,0.27266666666666667,0.3532142857142857,-0.0013427734375,-2.1093126707763687,0.7360620498657227,46.84537124633789,-0.0031824747721354166,-0.08054618835449219
4263,-0.21018507215711807,0.1195312786102295,86.84622192382812,87.21446990966797,-3.8276634216308594,88.76927947998047,-0.010478719075520834,0.2693333333333333,0.3532142857142857,-0.0003662109375,-2.3619905882568375,0.5273280143737793,46.84537124633789,-0.004091644287109375,-0.08441047668457032
4264,-0.13206007215711807,0.1195312786102295,85.94607543945312,86.15065002441406,-4.011787414550781,87.95095825195312,-0.021616956922743055,0.267,0.35285714285714287,0.0022582160101996527,-1.9335371428222672,-0.02197326953125156,46.84537124633789,-0.0022730509440104167,-0.0773638407389323
4265,-0.15549757215711807,0.09960939407348633,85.0050048828125,85.57783508300781,-3.7662887573242188,87.68500518798828,-0.009796820746527778,0.26366666666666666,0.35285714285714287,0.0022887335883246527,-1.6808592253417984,-0.2966219359130875,46.84537124633789,-0.006364780002170139,-0.07168104383680556
4266,-0.09690382215711806,0.1195312786102295,86.62118530273438,86.86668395996094,-4.134532928466797,88.46240997314453,-0.015252261691623263,0.26066666666666666,0.3525,0.0030211130777994793,-1.538040774414064,-1.1864878111572281,46.84537124633789,-0.002727762858072917,-0.08441047668457032
4267,-0.09299757215711806,0.09960939407348633,81.30210876464844,83.92073059082031,-4.400489807128906,88.64653015136719,-0.010251405504014757,0.25766666666666665,0.3517857142857143,0.0020751105414496527,-1.4940973692626969,-2.7025572233886734,46.66958999633789,-0.02909579806857639,-0.08941133287217883
4268,-0.042216322157118055,0.09960939407348633,86.74394226074219,83.61386108398438,-4.625526428222656,89.1579818725586,-0.01775266859266493,0.25466666666666665,0.3510714285714286,0.0019835578070746527,-1.7687460356445328,-1.8017050200195328,46.66958999633789,0.03477867974175347,-0.09759453667534722
4269,-0.08909132215711806,0.09960939407348633,84.57539367675781,83.49111938476562,-4.605068206787109,88.52378845214844,-0.0009316762288411458,0.252,0.3507142857142857,-0.0014648013644748264,-1.9664942198486344,-1.538040774414064,46.66958999633789,0.012047492133246528,-0.0903206295437283
4270,-0.16331007215711807,0.07968751907348633,84.35034942626953,84.35034942626953,-4.543693542480469,89.05569458007812,-0.0034320831298828127,0.249,0.35035714285714287,-0.004577509562174479,-2.142269747802736,-1.3183199339599625,46.66958999633789,0.0,-0.0955487569173177
4271,-0.16331007215711807,0.1195312786102295,82.14088439941406,84.16622924804688,-4.1959075927734375,88.6669921875,-0.0007043626573350694,0.24566666666666667,0.35,-0.006988355848524305,-2.4498793059082047,-1.549027102539064,46.66958999633789,-0.022503831651475695,-0.0873655531141493
4272,-0.14377882215711807,0.07968751907348633,83.73661041259766,80.9952392578125,-4.482318878173828,88.19645690917969,-0.01911655002170139,0.24233333333333335,0.35035714285714287,-0.006133863661024305,-2.4498793059082047,-0.6481748991699234,46.66958999633789,0.030459679497612847,-0.08531973097059461
4273,-0.13987257215711807,0.09960939407348633,84.5958480834961,83.92073059082031,-4.277740478515625,88.27828979492188,-0.0007043626573350694,0.23833333333333334,0.3510714285714286,-0.0073545244004991316,-2.878332751342775,0.5053560137748718,46.66958999633789,0.007501305474175347,-0.08395589192708333
4274,-0.25315382215711807,0.07968751907348633,86.45751953125,86.72348022460938,-3.9913291931152344,88.03279113769531,-0.0009316762288411458,0.235,0.3517857142857143,-0.009185536702473959,-2.9991785460205094,0.6921180486679077,46.66958999633789,-0.0029551188151041665,-0.07804578145345052
4275,-0.36643507215711807,0.07968751907348633,83.4501953125,80.40196228027344,-4.175449371337891,88.21691131591797,-0.009796820746527778,0.23133333333333334,0.35285714285714287,-0.010039986504448786,-2.7355143004150406,0.29662200808525085,46.66958999633789,0.03386925591362847,-0.08213734096950955
4276,-0.24534132215711807,0.05976563930511475,84.77996826171875,86.64164733886719,-3.9299545288085938,88.27828979492188,-0.020253117879231772,0.227,0.3539285714285714,-0.0071103837754991316,-2.955235140869142,0.26366400718688965,46.66958999633789,-0.020685323079427085,-0.0800916035970052
4277,-0.23752882215711807,0.03984375953674316,86.98943328857422,88.62606811523438,-4.4209442138671875,88.70790100097656,-0.021162372165256075,0.22433333333333333,0.35464285714285715,-0.005615107218424479,-2.966221468994142,-0.15380539233398594,46.84537124633789,-0.01818483140733507,-0.09032050238715278
4278,-0.26877882215711807,0.03984375953674316,84.30943298339844,81.83401489257812,-4.7482757568359375,88.52378845214844,-0.0050232781304253475,0.21966666666666668,0.3560714285714286,-0.006164381239149305,-3.1419969969482437,-0.15380539233398594,46.66958999633789,0.02750464545355903,-0.09191182454427084
4279,-0.06956007215711806,0.03984375953674316,84.90271759033203,85.0050048828125,-4.093616485595703,88.70790100097656,-0.024799346923828125,0.216,0.35678571428571426,-0.0027465396457248266,-3.6912962370605484,0.19774800539016724,46.84537124633789,-0.0011365254720052083,-0.08668352762858073
4280,-0.612528822157118,0.0,85.41416931152344,85.41416931152344,-3.9913291931152344,87.58271789550781,-0.006387117173936632,0.21166666666666667,0.3582142857142857,-0.0019836001925998266,-3.4386183195800797,1.3952220678329468,46.84537124633789,0.0,-0.07304496765136718
4281,-0.33127882215711807,0.01992187976837158,84.82088470458984,83.26608276367188,-3.745830535888672,87.68500518798828,-0.003204769558376736,0.207,0.35928571428571426,-0.0033263312445746527,-3.0321375303955094,0.8019779920578003,46.84537124633789,0.017275577121310764,-0.07145373026529948
4282,-0.36643507215711807,0.01992187976837158,83.47065734863281,83.98210144042969,-3.8481216430664062,87.99187469482422,-0.010933346218532987,0.202,0.3610714285714286,-0.004150305853949653,-2.7355143004150406,-0.01098694140625156,46.66958999633789,-0.005682712131076389,-0.07599995930989584
4283,-0.42502882215711807,0.03984375953674316,81.81356048583984,82.32501220703125,-4.073158264160156,88.93293762207031,-0.009342193603515625,0.19833333333333333,0.3625,-0.004760615030924479,-2.6695982390136734,0.19774800539016724,46.66958999633789,-0.0056827969021267365,-0.08895662095811632
4284,-0.23362257215711807,0.05976563930511475,87.76683807373047,82.73416900634766,-4.380031585693359,88.93293762207031,-0.007296371459960938,0.194,0.36392857142857143,-0.004363886515299479,-3.0321375303955094,1.647900104522705,46.66958999633789,0.05591854519314236,-0.09236632453070746
4285,-0.39377882215711807,0.03984375953674316,85.92561340332031,85.68012237548828,-4.523235321044922,88.74882507324219,-0.007296371459960938,0.19,0.365,-0.003936682807074653,-3.3177725249023453,2.0214240550994873,46.66958999633789,0.0027276780870225696,-0.09191178215874565
4286,-0.42502882215711807,0.05976563930511475,84.49356079101562,86.31431579589844,-4.645984649658203,88.74882507324219,0.004523807101779514,0.18666666666666668,0.36642857142857144,-0.004089270697699653,-3.4276319914550797,1.735788106918335,46.66958999633789,-0.020230611165364582,-0.09327566358778212
4287,-0.40940382215711807,0.03984375953674316,85.96653747558594,85.5982894897461,-4.154991149902344,87.95095825195312,-0.014570320977105035,0.18266666666666667,0.36678571428571427,-0.0019225650363498264,-3.4166475706787125,1.4391660690307617,46.84537124633789,0.004091644287109375,-0.07895499335394965
4288,-0.37424757215711807,0.03984375953674316,86.0074462890625,85.68012237548828,-4.502777099609375,88.54424285888672,-0.01616151597764757,0.17966666666666667,0.36714285714285716,-0.00067138671875,-2.9991785460205094,1.3622640371322632,46.318031311035156,0.003636932373046875,-0.08941133287217883
4289,-0.44065382215711807,0.05976563930511475,85.20958709716797,85.53691101074219,-4.482318878173828,88.70790100097656,-0.008660252888997395,0.17533333333333334,0.36678571428571427,-0.000762939453125,-2.834389346191408,0.6371880173683167,45.17546081542969,-0.003636932373046875,-0.09100244310167101
4290,-0.38596632215711807,0.05976563930511475,83.28652954101562,82.65233612060547,-4.502777099609375,88.76927947998047,-0.01002409193250868,0.17133333333333334,0.36642857142857144,-0.0019836001925998266,-3.0760809355468766,0.0,44.82389831542969,0.007046593560112847,-0.09191173977322048
4291,-0.24534132215711807,0.07968751907348633,83.90027618408203,83.0001220703125,-4.830104827880859,88.38057708740234,-0.009796820746527778,0.16633333333333333,0.3657142857142857,-0.0018920474582248264,-3.0870672636718766,0.2526780068874359,44.64812088012695,0.010001712375217013,-0.09122979905870225
4292,-0.22971632215711807,0.07968751907348633,85.68012237548828,83.75706481933594,-3.9504127502441406,89.1579818725586,-0.011842600504557292,0.16266666666666665,0.36464285714285716,-0.000396728515625,-3.3946749144287125,0.5822579860687256,44.64812088012695,0.021367306179470486,-0.09009327358669705
4293,-0.11252882215711806,0.05976563930511475,85.23004150390625,84.84133911132812,-4.032245635986328,88.1555404663086,-0.024117406209309897,0.16,0.36392857142857143,0.0034178415934244793,-3.0431219511718766,0.8349360227584839,44.64812088012695,0.0043189154730902775,-0.07986429002549914
4294,-0.18284132215711807,0.05976563930511475,86.25294494628906,85.33233642578125,-4.645984649658203,88.64653015136719,-0.003886710272894965,0.15666666666666668,0.3628571428571429,0.0036619822184244793,-2.4608656340332047,1.5600121021270752,44.64812088012695,0.010228983561197917,-0.09213905334472657
4295,-0.28049757215711807,0.05976563930511475,86.0074462890625,86.6007308959961,-4.3595733642578125,89.32164001464844,-0.0007043626573350694,0.154,0.36178571428571427,0.0016783820258246527,-2.845373766967775,1.2963480949401855,44.64812088012695,-0.0065920511881510414,-0.09645792643229166
4296,-0.38987257215711807,0.05976563930511475,86.15065002441406,86.39614868164062,-4.502777099609375,88.62606811523438,-0.01320648193359375,0.15133333333333332,0.36142857142857143,0.0009765201144748264,-3.0321375303955094,-0.08788933093261875,44.64812088012695,-0.002727762858072917,-0.09032050238715278
4297,-0.37424757215711807,0.05976563930511475,82.22271728515625,81.85447692871094,-4.400489807128906,88.87156677246094,-0.020025804307725693,0.14833333333333334,0.3603571428571429,0.0013427310519748264,-2.9991785460205094,-1.0876146727294937,44.64812088012695,0.004091559516059028,-0.09191173977322048
4298,-0.25315382215711807,0.05976563930511475,86.74394226074219,86.62118530273438,-4.3595733642578125,88.68744659423828,-0.015024948120117187,0.14466666666666667,0.36,0.0018309699164496527,-3.3836885863037125,-0.9008528166503922,44.56023025512695,0.0013639662000868055,-0.08941133287217883
4299,-0.13206007215711807,0.07968751907348633,84.80043029785156,84.554931640625,-4.543693542480469,88.03279113769531,-0.021844270494249134,0.14166666666666666,0.35928571428571426,0.0021971808539496527,-3.493548052856447,-1.3183199339599625,44.56023025512695,0.002727762858072917,-0.08418316311306423
4300,-0.24143507215711807,0.05976563930511475,83.30699157714844,84.92317199707031,-3.8276634216308594,87.78729248046875,-0.006841744316948784,0.139,0.3585714285714286,-0.000640869140625,-3.240870135375978,-1.7028299742431656,44.56023025512695,-0.017957560221354165,-0.073499510023329
4301,-0.22971632215711807,0.07968751907348633,87.54179382324219,80.58607482910156,-4.7482757568359375,89.09660339355469,-0.00047704908582899306,0.13466666666666666,0.3578571428571429,-0.0030516730414496527,-2.889319079467775,-0.3954969816894547,44.56023025512695,0.0772857666015625,-0.09827643500434027
4302,-0.26487257215711807,0.05976563930511475,80.52470397949219,87.13264465332031,-4.032245635986328,88.31919860839844,-0.013888380262586805,0.132,0.3578571428571429,-0.0021972232394748266,-3.0760809355468766,-1.2963491850585953,44.56023025512695,-0.07342156304253472,-0.0816827138264974
4303,-0.17893507215711807,0.05976563930511475,83.73661041259766,80.9952392578125,-4.441402435302734,88.91248321533203,-0.013661109076605903,0.128,0.35678571428571426,-0.0021056705050998266,-2.9881922178955094,-0.7470480375976578,44.56023025512695,0.030459679497612847,-0.09282095167371962
4304,-0.12424757215711806,0.05976563930511475,84.45263671875,83.4501953125,-4.502777099609375,88.38057708740234,-0.020707745022243925,0.12466666666666666,0.35642857142857143,-0.0015563540988498264,-3.0760809355468766,0.04394400119781494,44.56023025512695,0.011138237847222222,-0.08759282430013021
4305,-0.20627882215711807,0.05976563930511475,85.1072998046875,84.69813537597656,-4.216365814208984,88.1146240234375,-0.0050232781304253475,0.12166666666666667,0.3557142857142857,-0.0026855044894748266,-3.0541082792968766,0.9777539968490601,44.38444900512695,0.004546271430121528,-0.08145544264051649
4306,-0.27659132215711807,0.05976563930511475,84.45263671875,84.45263671875,-4.073158264160156,88.17599487304688,-0.0013863033718532986,0.11733333333333333,0.355,-0.003936682807074653,-2.493822711059572,0.6811320185661316,44.56023025512695,0.0,-0.08054614596896702
4307,-0.25315382215711807,0.05976563930511475,84.61630249023438,84.98455047607422,-4.1959075927734375,88.40103149414062,-0.016388829549153647,0.114,0.3539285714285714,-0.0028075748019748266,-2.3949495726318375,-0.05493034655761875,44.56023025512695,-0.004091644287109375,-0.08441043429904514
4308,-0.21018507215711807,0.05976563930511475,83.49111938476562,85.5164566040039,-4.380031585693359,88.76927947998047,-0.015024948120117187,0.11066666666666666,0.3535714285714286,-0.0020446353488498266,-2.7355143004150406,-0.2746511870117203,44.56023025512695,-0.02250374688042535,-0.0905479007297092
4309,-0.17893507215711807,0.05976563930511475,84.57539367675781,84.18669128417969,-3.8481216430664062,88.52378845214844,-0.010251405504014757,0.106,0.3532142857142857,-0.0020751529269748266,-3.4605909758300797,0.26366400718688965,44.56023025512695,0.0043189154730902775,-0.08191011216905382
4310,-0.18674757215711807,0.05976563930511475,86.6007308959961,86.90760040283203,-3.500335693359375,86.76439666748047,-0.009796820746527778,0.103,0.3535714285714286,-0.0021056705050998266,-2.823403018066408,0.4943700134754181,44.56023025512695,-0.003409661187065972,-0.05849702623155382
4311,-0.20237257215711807,0.07968751907348633,82.85691833496094,81.91584777832031,-4.461860656738281,88.31919860839844,-0.012751854790581597,0.1,0.3532142857142857,-0.0032347785101996527,-2.197201388427736,-0.3295809202880875,44.38444900512695,0.010456339518229166,-0.08645621405707465
4312,-0.28440382215711807,0.05976563930511475,85.96653747558594,84.5958480834961,-3.66400146484375,88.42149353027344,-0.01616151597764757,0.09633333333333334,0.35285714285714287,-0.0036620246039496527,-2.471850054809572,0.08788800239562988,44.38444900512695,0.015229882134331598,-0.07872772216796875
4313,-0.24534132215711807,0.07968751907348633,84.86180114746094,81.69081115722656,-3.8276634216308594,88.05325317382812,-0.014797634548611112,0.093,0.35214285714285715,-0.004608027140299479,-2.3839632445068375,-0.17577614123535312,44.38444900512695,0.035233222113715275,-0.07645462883843315
4314,-0.24924757215711807,0.07968751907348633,84.69813537597656,85.41416931152344,-4.073158264160156,87.86912536621094,-0.0066144307454427086,0.08966666666666667,0.3517857142857143,-0.005248896280924479,-2.208185809204103,-0.20873512561035312,44.38444900512695,-0.0079559326171875,-0.07713648478190104
4315,-0.22581007215711807,0.05976563930511475,83.32745361328125,83.1024169921875,-4.318656921386719,88.33966064453125,-0.015252261691623263,0.086,0.3507142857142857,-0.004516474405924479,-2.2850881987304703,-0.5822588377685562,44.38444900512695,0.0025004069010416668,-0.08509241739908854
4316,-0.28440382215711807,0.03984375953674316,82.85691833496094,82.57050323486328,-3.5412521362304688,87.6031723022461,-0.01547957526312934,0.083,0.35035714285714287,-0.004180823432074653,-2.4059339934082047,-0.5273291044921891,44.38444900512695,0.0031823900010850693,-0.06827138264973959
4317,-0.21018507215711807,0.05976563930511475,81.30210876464844,82.28408813476562,-4.093616485595703,87.562255859375,-0.006159803602430555,0.07966666666666666,0.35,-0.005096308390299479,-1.9774805479736344,-0.21972145373535312,44.38444900512695,-0.010910881890190972,-0.07395413716634115
4318,-0.22190382215711807,0.03984375953674316,85.12775421142578,85.0050048828125,-3.2139244079589844,87.93049621582031,-0.004114023844401042,0.07566666666666666,0.34964285714285714,-0.0037840949164496527,-2.482836382934572,1.3842360973358154,44.38444900512695,0.0013638814290364584,-0.06827134026421441
4319,-0.24143507215711807,0.01992187976837158,86.98943328857422,86.08927917480469,-3.2343826293945312,87.39859008789062,-0.018661922878689237,0.07266666666666667,0.3492857142857143,-0.0015258365207248264,-2.3949495726318375,1.9335360527038574,44.38444900512695,0.010001712375217013,-0.06258858574761285
4320,-0.31956007215711807,0.01992187976837158,86.559814453125,89.52622985839844,-3.4185028076171875,87.5213394165039,-0.005250591701931423,0.06933333333333333,0.3489285714285714,-0.00042724609375,-1.7248026304931656,1.9774800539016724,44.38444900512695,-0.03296017116970486,-0.06599824693467882
4321,-0.19846632215711807,0.03984375953674316,81.30210876464844,80.56562042236328,-3.909496307373047,87.25538635253906,-0.009569507175021702,0.06533333333333333,0.3482142857142857,0.0012816958957248264,-1.6588865690917984,0.9557820558547974,44.38444900512695,0.008183203803168403,-0.06849869622124566
4322,-0.12815382215711807,0.05976563930511475,87.1121826171875,85.90515899658203,-3.4389610290527344,88.13508605957031,-0.009569507175021702,0.062,0.3475,0.0021361456976996527,-1.9335371428222672,1.2084600925445557,44.38444900512695,0.013411373562282987,-0.07304496765136718
4323,-0.22581007215711807,0.05976563930511475,82.12042999267578,80.0337142944336,-3.2343826293945312,88.25782775878906,-0.006159803602430555,0.058666666666666666,0.34714285714285714,0.0008544498019748264,-2.153256075927736,1.9445220232009888,44.56023025512695,0.02318572998046875,-0.07213567097981771
4324,-0.28049757215711807,0.05976563930511475,85.29141998291016,87.64408874511719,-3.6026268005371094,87.95095825195312,-0.003886710272894965,0.054,0.3464285714285714,0.0016173468695746527,-2.3949495726318375,2.4608640670776367,44.56023025512695,-0.02614076402452257,-0.07281761169433594
4325,-0.31174757215711807,0.05976563930511475,85.25050354003906,91.75614929199219,-2.9888877868652344,87.5213394165039,-0.011615286933051215,0.051666666666666666,0.3464285714285714,0.0037535349527994793,-2.252131121704103,1.9115641117095947,44.56023025512695,-0.07228495279947916,-0.061224746704101565
4326,-0.25315382215711807,0.05976563930511475,86.62118530273438,86.559814453125,-3.5821685791015625,88.09416198730469,-0.014797634548611112,0.04766666666666667,0.3460714285714286,0.005126783582899305,-2.4388929777832047,1.0876140594482422,44.38444900512695,0.0006818983289930556,-0.07418145073784722
4327,-0.27268507215711807,0.05976563930511475,84.47309875488281,88.93293762207031,-2.7843055725097656,88.0123291015625,-0.011615286933051215,0.043666666666666666,0.3464285714285714,0.005187818739149305,-2.845373766967775,-0.16478981311035312,44.38444900512695,-0.049553765190972224,-0.06440705193413629
4328,-0.31174757215711807,0.05976563930511475,80.32012939453125,80.93386840820312,-3.2343826293945312,88.76927947998047,-0.012297227647569445,0.04066666666666666,0.3467857142857143,0.0033873240152994793,-2.900305407592775,-0.856909411499025,43.241878509521484,-0.006819322374131944,-0.07781846788194445
4329,-0.510966322157118,0.05976563930511475,83.06149291992188,85.16867065429688,-3.275299072265625,86.53935241699219,-0.014797634548611112,0.03666666666666667,0.34714285714285714,0.0022582160101996527,-2.834389346191408,-0.3845106535644547,43.241878509521484,-0.0234130859375,-0.05349612765842014
4330,-0.39377882215711807,0.07968751907348633,86.53935241699219,86.47798156738281,-2.334228515625,88.48286437988281,-0.004114023844401042,0.03133333333333333,0.3467857142857143,0.0003051333957248264,-2.570725100585939,-0.2307058745117203,43.153987884521484,0.0006818983289930556,-0.06463436550564236
4331,-0.32346632215711807,0.05976563930511475,88.6056137084961,84.45263671875,-1.9046134948730469,86.80531311035156,-0.02434471978081597,0.028,0.3460714285714286,0.0020445929633246527,-2.1312853270263687,-0.6042314940185562,43.153987884521484,0.046144188774956595,-0.041221406724717885
4332,-0.35862257215711807,0.03984375953674316,80.38150024414062,80.07463073730469,-1.8636970520019531,88.40103149414062,-0.015706888834635415,0.023666666666666666,0.3457142857142857,0.0033262888590494793,-2.0324102812500016,-0.6921183043212906,42.538761138916016,0.003409661187065972,-0.058496983846028645
4333,-0.44846632215711807,0.01992187976837158,84.28897857666016,85.98699188232422,-2.907054901123047,86.76439666748047,-0.015024948120117187,0.02,0.34464285714285714,0.004241816202799479,-1.7248026304931656,-0.2636648588867203,42.01142120361328,-0.01886681450737847,-0.05190501742892795
4334,-0.18674757215711807,0.03984375953674316,89.42393493652344,75.96257019042969,-1.9659843444824219,86.96897888183594,-0.01729808383517795,0.014666666666666666,0.3432142857142857,0.004791090223524305,-1.3732515745849625,0.7360620498657227,41.83563995361328,0.14957071940104166,-0.04372181362575955
4335,-0.13596632215711807,0.03984375953674316,88.58515930175781,89.54668426513672,-3.132091522216797,86.62118530273438,-0.003886710272894965,0.011666666666666667,0.3407142857142857,0.0063169267442491316,-0.6371885710449234,1.2743760347366333,41.22040939331055,-0.01068361070421007,-0.05281418694390191
4336,-0.09690382215711806,0.01992187976837158,78.80622863769531,88.36012268066406,-1.8636970520019531,41.900001525878906,-0.031164042154947915,0.008,0.33785714285714286,0.0077817281087239586,-0.01098694140625156,-0.20873512561035312,40.69306945800781,-0.10615437825520833,0.4581811269124349
4337,-0.534403822157118,0.01992187976837158,84.47309875488281,85.33233642578125,-0.943084716796875,84.18669128417969,-0.006841744316948784,0.005333333333333333,0.33464285714285713,0.004852125379774305,0.5602860450744629,0.1867620050907135,27.50956916809082,-0.009547085232204862,-0.00144195556640625
4338,-0.651591322157118,0.05976563930511475,83.0001220703125,83.49111938476562,3.1280555725097656,84.47309875488281,-0.003659396701388889,0.003,0.33214285714285713,-0.000152587890625,1.9335360527038574,-0.04394401843261875,27.421680450439453,-0.005455525716145834,0.04061063130696615
4339,-0.581278822157118,0.05976563930511475,84.80043029785156,87.25538635253906,1.4709587097167969,82.67279052734375,-0.024117406209309897,0.0016666666666666668,0.3267857142857143,-0.0006103515625,2.823402166366577,-0.5822588377685562,27.421680450439453,-0.027277289496527777,0.042201868693033856
4340,-0.7101850999348959,0.05976563930511475,85.53691101074219,80.8929443359375,2.5756912231445312,81.52714538574219,-0.021844270494249134,0.001,0.32321428571428573,0.00021358066134982638,2.4169201850891113,-0.06591667468261875,27.245899200439453,0.05159962972005208,0.06720606486002605
4341,-0.47971632215711807,0.03984375953674316,83.75706481933594,84.88226318359375,2.309734344482422,81.62944030761719,-0.008660252888997395,0.0,0.3175,-0.0,2.3400180339813232,-0.3295809202880875,27.245899200439453,-0.012502204047309028,0.06311437818739149
