,WD,WS,AIL_1,AIL_2,ELEV_1,ELEV_2,RUDD,ALT,GS,TH,PTCH,ROLL,PLA_1,AIL,ELEV
10919,-0.5651343712348089,0.478125114440918,83.83889770507812,83.5115737915039,-2.9888877868652344,87.43951416015625,-0.013661109076605903,0.701,0.4764285714285714,-0.1680858188205295,0.09887400269508362,0.3405660092830658,41.57196807861328,0.003636932373046875,-0.060315577189127605
10920,-0.5651343712348089,0.478125114440918,83.83889770507812,83.53202819824219,-3.0093421936035156,87.25538635253906,-0.01320648193359375,0.698,0.4767857142857143,-0.1679942660861545,0.032958000898361206,0.4614120125770569,41.57196807861328,0.003409661187065972,-0.058496983846028645
10921,-0.5651343712348089,0.478125114440918,83.85935974121094,83.5115737915039,-3.0093421936035156,87.41905212402344,-0.01320648193359375,0.6943333333333334,0.4767857142857143,-0.1678416781955295,-0.03295769030761875,0.5383139848709106,41.13251876831055,0.003864288330078125,-0.06031549241807726
10922,-0.5651343712348089,0.478125114440918,83.79798889160156,83.47065734863281,-3.0298004150390625,87.43951416015625,-0.012979168362087673,0.691,0.47714285714285715,-0.1675365024142795,-0.09887375170898594,0.5602860450744629,41.48408126831055,0.003637017144097222,-0.06077016194661458
10923,-0.5612281212348089,0.478125114440918,83.83889770507812,83.49111938476562,-3.0093421936035156,87.43951416015625,-0.014797634548611112,0.6876666666666666,0.4775,-0.1670482211642795,-0.13183273608398594,0.6481740474700928,39.550498962402344,0.0038642035590277777,-0.06054284837510851
10924,-0.5612281212348089,0.478125114440918,83.83889770507812,83.49111938476562,-3.0298004150390625,87.50088500976562,-0.012979168362087673,0.684,0.4775,-0.16674308776855468,-0.20873512561035312,0.8678940534591675,36.0349006652832,0.0038642035590277777,-0.06145206027560764
10925,-0.5651343712348089,0.478125114440918,83.83889770507812,83.53202819824219,-3.1525497436523438,87.72592163085938,-0.012297227647569445,0.6803333333333333,0.4775,-0.16652946472167968,-0.3625379973144547,1.0436700582504272,32.4314079284668,0.003409661187065972,-0.06531634860568576
10926,-0.5651343712348089,0.478125114440918,83.83889770507812,83.5115737915039,-2.9888877868652344,87.43951416015625,-0.012979168362087673,0.676,0.4764285714285714,-0.16619377136230468,-0.7470480375976578,1.175502061843872,26.54277992248535,0.003636932373046875,-0.060315577189127605
10927,-0.5651343712348089,0.478125114440918,83.81844329833984,83.53202819824219,-2.9684295654296875,87.35768127441406,-0.01320648193359375,0.672,0.4757142857142857,-0.16558346218532985,-0.856909411499025,1.2743760347366333,26.54277992248535,0.0031823900010850693,-0.05917900933159722
10928,-0.5651343712348089,0.478125114440918,83.81844329833984,83.5115737915039,-2.9684295654296875,87.33721923828125,-0.01320648193359375,0.6673333333333333,0.475,-0.16491207546657985,-0.9118391447753922,1.3842360973358154,26.367000579833984,0.003409661187065972,-0.058951653374565975
10929,-0.5651343712348089,0.478125114440918,83.81844329833984,83.47065734863281,-2.9479713439941406,87.33721923828125,-0.01320648193359375,0.6626666666666666,0.4742857142857143,-0.16414917839898002,-1.0546575957031266,1.5490260124206543,26.367000579833984,0.003864288330078125,-0.0587243398030599
10930,-0.5651343712348089,0.478125114440918,83.81844329833984,83.5115737915039,-2.9479713439941406,87.29630279541016,-0.01252454121907552,0.6573333333333333,0.4739285714285714,-0.16329468621148002,-1.2304331236572281,1.6918439865112305,26.367000579833984,0.003409661187065972,-0.05826971266004774
10931,-0.5651343712348089,0.478125114440918,83.83889770507812,83.49111938476562,-2.9275131225585938,87.29630279541016,-0.01320648193359375,0.6516666666666666,0.4735714285714286,-0.1624402364095052,-1.3512789183349625,1.8236761093139648,26.367000579833984,0.0038642035590277777,-0.05804239908854167
10932,-0.5651343712348089,0.478125114440918,83.81844329833984,83.5115737915039,-2.9275131225585938,87.27584838867188,-0.01320648193359375,0.6463333333333333,0.4732142857142857,-0.1614331563313802,-1.516068118164064,1.9884660243988037,26.367000579833984,0.003409661187065972,-0.05781512790256076
10933,-0.5651343712348089,0.478125114440918,84.06393432617188,83.73661041259766,-2.8865966796875,87.29630279541016,-0.012751854790581597,0.6403333333333333,0.47285714285714286,-0.16042611863878037,-1.7138163023681656,2.0763540267944336,26.367000579833984,0.003636932373046875,-0.05758777194552951
10934,-0.5651343712348089,0.478125114440918,83.94119262695312,83.65477752685547,-2.866138458251953,87.19401550292969,-0.01320648193359375,0.634,0.4732142857142857,-0.15932752821180557,-1.8566347532959,1.9115641117095947,26.367000579833984,0.0031823900010850693,-0.05622393290201823
10935,-0.5651343712348089,0.478125114440918,83.90027618408203,83.57295227050781,-2.702472686767578,87.21446990966797,-0.013888380262586805,0.6276666666666667,0.4735714285714286,-0.15816790262858074,-1.9005781584472672,1.8236761093139648,26.367000579833984,0.003636932373046875,-0.05463269551595052
10936,-0.5690406212348089,0.478125114440918,83.98210144042969,83.63432312011719,-2.4569778442382812,86.72348022460938,-0.013661109076605903,0.6213333333333333,0.4739285714285714,-0.15700827704535592,-1.8676210814209,1.9005780220031738,26.367000579833984,0.0038642035590277777,-0.046449534098307294
10937,-0.5651343712348089,0.45820323944091795,84.22760009765625,83.83889770507812,-2.477436065673828,86.45751953125,-0.012979168362087673,0.616,0.4735714285714286,-0.15569602118598092,-1.4501520567626969,1.9884660243988037,26.367000579833984,0.0043189154730902775,-0.0437217288547092
10938,-0.5612281212348089,0.478125114440918,84.16622924804688,83.83889770507812,-2.641101837158203,87.21446990966797,-0.012069914076063368,0.61,0.47285714285714286,-0.1547805362277561,-1.0216986113281266,1.812690019607544,26.367000579833984,0.003637017144097222,-0.053950797186957465
10939,-0.5651343712348089,0.478125114440918,84.14576721191406,83.79798889160156,-2.272857666015625,86.6007308959961,-0.012069914076063368,0.6026666666666667,0.4710714285714286,-0.15417022705078126,-0.9777552061767594,1.5600121021270752,26.367000579833984,0.0038642035590277777,-0.04303987291124132
10940,-0.5690406212348089,0.478125114440918,84.16622924804688,83.85935974121094,-2.9479713439941406,86.94851684570312,-0.010933346218532987,0.5973333333333334,0.4689285714285714,-0.15401763916015626,-0.4614130430908219,1.021697998046875,26.279109954833984,0.003409661187065972,-0.054405424329969615
10941,-0.5729468712348089,0.478125114440918,83.87982177734375,83.57295227050781,-3.909496307373047,88.21691131591797,-0.01320648193359375,0.5926666666666667,0.4664285714285714,-0.15377349853515626,-0.5932451658935562,0.2526780068874359,26.367000579833984,0.003409661187065972,-0.07918230692545573
10942,-0.5768531212348089,0.45820323944091795,83.73661041259766,83.38882446289062,-4.298198699951172,88.74882507324219,-0.01729808383517795,0.5883333333333334,0.4614285714285714,-0.15319366455078126,-1.6479002409667984,-0.3735243254394547,26.367000579833984,0.003864288330078125,-0.089411375257704
10943,-0.5768531212348089,0.45820323944091795,83.57295227050781,83.30699157714844,-4.768730163574219,89.13752746582031,-0.015252261691623263,0.585,0.45821428571428574,-0.15331573486328126,-2.493822711059572,-0.5273291044921891,26.367000579833984,0.0029551188151041665,-0.09895841810438367
10944,-0.5807593712348089,0.45820323944091795,83.47065734863281,83.12287139892578,-5.44384765625,90.0785903930664,-0.017070770263671875,0.5813333333333334,0.45357142857142857,-0.15304107666015626,-3.0101648741455094,-0.4174677305908219,26.367000579833984,0.003864288330078125,-0.11691597832573784
10945,-0.5885718712348089,0.438281364440918,83.42974090576172,83.12287139892578,-5.996212005615234,90.73324584960938,-0.01775266859266493,0.5776666666666667,0.45035714285714284,-0.15246128506130643,-3.7242552214355484,0.20873400568962097,26.367000579833984,0.003409661187065972,-0.13032730950249566
10946,-0.5924781212348089,0.45820323944091795,83.92073059082031,83.26608276367188,-5.566593170166016,90.44683837890625,-0.010933346218532987,0.5733333333333334,0.44571428571428573,-0.15319366455078126,-4.636091845581056,0.9887400269508362,26.367000579833984,0.00727386474609375,-0.12237146165635851
10947,-0.5885718712348089,0.45820323944091795,84.06393432617188,83.69569396972656,-4.523235321044922,89.0761489868164,-0.014797634548611112,0.568,0.44357142857142856,-0.15252232021755643,-4.976658480712892,1.3293060064315796,26.367000579833984,0.004091559516059028,-0.09554871453179253
10948,-0.5846656212348089,0.45820323944091795,84.14576721191406,83.77752685546875,-4.482318878173828,88.36012268066406,-0.014343007405598959,0.562,0.44107142857142856,-0.1511795891655816,-4.042849200317384,1.6039559841156006,26.367000579833984,0.004091559516059028,-0.08713823954264323
10949,-0.5924781212348089,0.45820323944091795,84.45263671875,83.77752685546875,-3.868579864501953,88.99431610107422,-0.00843293931749132,0.5566666666666666,0.43892857142857145,-0.1505082024468316,-3.3507315092773453,1.6918439865112305,26.54277992248535,0.007501220703125,-0.08736551072862413
10950,-0.5846656212348089,0.45820323944091795,84.57539367675781,84.24806213378906,-3.8276634216308594,88.03279113769531,-0.014570320977105035,0.5516666666666666,0.43607142857142855,-0.14901288350423178,-3.0870672636718766,1.5490260124206543,27.158010482788086,0.003637017144097222,-0.07622727288140191
10951,-0.5807593712348089,0.45820323944091795,84.63676452636719,84.22760009765625,-3.8072052001953125,88.19645690917969,-0.015252261691623263,0.547,0.43392857142857144,-0.14837205674913195,-2.3180471831054703,1.219446063041687,27.158010482788086,0.004546271430121528,-0.07781846788194445
10952,-0.5807593712348089,0.45820323944091795,84.554931640625,84.26852416992188,-2.866138458251953,87.17355346679688,-0.010933346218532987,0.543,0.4303571428571429,-0.14818895128038195,-1.8346620970459,0.6481740474700928,27.158010482788086,0.003182305230034722,-0.05599657694498698
10953,-0.5885718712348089,0.45820323944091795,83.79798889160156,83.83889770507812,-3.2343826293945312,87.43951416015625,-0.014570320977105035,0.5403333333333333,0.4275,-0.14733445909288195,-0.7909933500976578,-0.2307058745117203,27.158010482788086,-0.00045454237196180554,-0.06304329766167535
10954,-0.5807593712348089,0.438281364440918,83.69569396972656,83.36836242675781,-2.5797271728515625,87.54179382324219,-0.01957117716471354,0.538,0.42214285714285715,-0.14672414991590713,-0.20873512561035312,-0.3625379973144547,27.158010482788086,0.003637017144097222,-0.05690578884548611
10955,-0.5846656212348089,0.45820323944091795,83.90027618408203,83.40928649902344,-3.11163330078125,87.33721923828125,-0.011387973361545138,0.5363333333333333,0.4185714285714286,-0.14754808213975695,0.23070600628852844,0.13183200359344482,27.158010482788086,0.005455440945095486,-0.06054280598958333
10956,-0.5885718712348089,0.45820323944091795,83.81844329833984,83.65477752685547,-3.909496307373047,87.80775451660156,-0.011842600504557292,0.535,0.41285714285714287,-0.14785325792100695,0.5273280143737793,0.4284540116786957,27.158010482788086,0.001818508572048611,-0.07463612026638455
10957,-0.5846656212348089,0.45820323944091795,83.81844329833984,83.5934066772461,-3.8481216430664062,88.62606811523438,-0.015024948120117187,0.5336666666666666,0.4085714285714286,-0.14751756456163195,0.02197200059890747,0.4943700134754181,27.245899200439453,0.0025004069010416668,-0.08304655287000869
10958,-0.5768531212348089,0.45820323944091795,83.98210144042969,83.79798889160156,-3.520793914794922,88.0737075805664,-0.013661109076605903,0.5323333333333333,0.4032142857142857,-0.14681570265028213,-0.812964098999025,0.6811320185661316,27.245899200439453,0.0020456949869791666,-0.0732722388373481
10959,-0.5807593712348089,0.438281364440918,84.47309875488281,84.18669128417969,-2.8252220153808594,87.23492431640625,-0.015706888834635415,0.53,0.40035714285714286,-0.1457171122233073,-1.0546575957031266,0.8898659944534302,27.245899200439453,0.003182305230034722,-0.05622384813096788
10960,-0.5807593712348089,0.45820323944091795,84.67768096923828,84.37080383300781,-2.866138458251953,87.1121826171875,-0.01320648193359375,0.5273333333333333,0.3964285714285714,-0.1454424540201823,-0.7360617094726578,0.8898659944534302,27.245899200439453,0.0034097459581163194,-0.05531467861599392
10961,-0.5768531212348089,0.45820323944091795,84.6572265625,84.47309875488281,-2.8456802368164062,87.1121826171875,-0.009342193603515625,0.5246666666666666,0.3939285714285714,-0.1457171122233073,-0.5163427763671891,0.48338401317596436,27.245899200439453,0.002045864529079861,-0.05508736504448785
10962,-0.5729468712348089,0.45820323944091795,83.75706481933594,83.79798889160156,-3.0502586364746094,87.29630279541016,-0.018207295735677084,0.5206666666666667,0.39035714285714285,-0.1450457255045573,-0.7250772886962906,-0.14281906420898594,27.245899200439453,-0.0004547119140625,-0.05940623813205295
10963,-0.5768531212348089,0.45820323944091795,83.85935974121094,83.5934066772461,-3.0707168579101562,87.15309143066406,-0.01797998216417101,0.518,0.3871428571428571,-0.1450762430826823,-0.9667688780517594,-0.4064833098144547,27.245899200439453,0.0029550340440538192,-0.05804231431749132
10964,-0.5846656212348089,0.45820323944091795,83.81844329833984,83.5934066772461,-3.9504127502441406,87.70545959472656,-0.00843293931749132,0.5153333333333333,0.3821428571428571,-0.14635793897840713,-0.9667688780517594,-0.5932451658935562,27.245899200439453,0.0025004069010416668,-0.07395413716634115
10965,-0.5807593712348089,0.45820323944091795,83.65477752685547,83.4501953125,-4.400489807128906,88.78973388671875,-0.014570320977105035,0.5126666666666667,0.3782142857142857,-0.14681570265028213,-1.4062086516113297,-0.9557825499267594,27.245899200439453,0.002273135715060764,-0.09100248548719618
10966,-0.5846656212348089,0.438281364440918,83.38882446289062,83.77752685546875,-4.502777099609375,88.95339965820312,-0.01752539740668403,0.5106666666666667,0.37142857142857144,-0.14693777296278213,-2.570725100585939,-1.2633902006835953,27.158010482788086,-0.0043189154730902775,-0.09395751953125
10967,-0.5885718712348089,0.45820323944091795,81.77264404296875,81.67034912109375,-3.9913291931152344,88.6669921875,-0.010478719075520834,0.5083333333333333,0.3682142857142857,-0.14867719014485678,-3.603409426757814,-1.2633902006835953,29.794710159301758,0.0011366102430555556,-0.08509245978461372
10968,-0.5924781212348089,0.45820323944091795,82.59095764160156,81.91584777832031,-3.500335693359375,88.36012268066406,-0.011615286933051215,0.506,0.3625,-0.14971478780110678,-3.9989038878173844,-0.4394403868408219,31.200950622558594,0.007501220703125,-0.07622731526692708
10969,-0.5885718712348089,0.45820323944091795,82.87738037109375,82.57050323486328,-3.520793914794922,87.84866333007812,-0.013888380262586805,0.5026666666666667,0.35928571428571426,-0.14998944600423178,-3.834114687988283,0.5383139848709106,36.82590866088867,0.0034097459581163194,-0.07077174716525608
10970,-0.5885718712348089,0.45820323944091795,83.0410385131836,82.67279052734375,-3.643543243408203,87.82821655273438,-0.00843293931749132,0.49866666666666665,0.3560714285714286,-0.1506607903374566,-3.6253801756591812,1.1095860004425049,40.60517883300781,0.004091644287109375,-0.07190844217936197
10971,-0.5885718712348089,0.45820323944091795,83.34790802001953,83.16378784179688,-3.6026268005371094,88.0123291015625,-0.013888380262586805,0.49466666666666664,0.355,-0.14980634053548178,-3.7572122984619156,1.3512780666351318,40.95674133300781,0.002045779758029514,-0.073499510023329
10972,-0.5846656212348089,0.45820323944091795,83.30699157714844,83.1024169921875,-2.9479713439941406,87.35768127441406,-0.01616151597764757,0.49,0.35428571428571426,-0.14821946885850695,-4.097778933593752,1.4831100702285767,40.95674133300781,0.0022730509440104167,-0.05895169576009115
10973,-0.5885718712348089,0.45820323944091795,83.36836242675781,83.08195495605469,-2.0273590087890625,86.1097412109375,-0.011387973361545138,0.485,0.3539285714285714,-0.14754808213975695,-3.856087344238283,1.581984043121338,41.83563995361328,0.003182305230034722,-0.03485666910807292
10974,-0.5846656212348089,0.45820323944091795,83.30699157714844,83.08195495605469,-2.6206436157226562,87.0712661743164,-0.013888380262586805,0.4806666666666667,0.3539285714285714,-0.14608328077528213,-2.7684732847900406,1.450152039527893,41.83563995361328,0.0025004069010416668,-0.052132331000434025
10975,-0.5846656212348089,0.45820323944091795,83.30699157714844,83.08195495605469,-1.9659843444824219,86.53935241699219,-0.014343007405598959,0.476,0.3535714285714286,-0.14422179328070747,-2.3619905882568375,1.5160679817199707,41.83563995361328,0.0025004069010416668,-0.03894818623860677
10976,-0.5846656212348089,0.45820323944091795,83.34790802001953,83.08195495605469,-2.3751449584960938,86.559814453125,-0.01320648193359375,0.472,0.3525,-0.14287906222873265,-1.9225508146972672,1.5929700136184692,42.538761138916016,0.0029550340440538192,-0.043721771240234374
10977,-0.5846656212348089,0.45820323944091795,83.42974090576172,83.16378784179688,-2.7843055725097656,87.27584838867188,-0.013661109076605903,0.4686666666666667,0.3517857142857143,-0.14144477844238282,-1.6588865690917984,1.6259280443191528,42.538761138916016,0.0029550340440538192,-0.05622393290201823
10978,-0.5846656212348089,0.45820323944091795,83.5934066772461,83.32745361328125,-2.5797271728515625,87.03034973144531,-0.01070603264702691,0.4646666666666667,0.35,-0.14043769836425782,-1.9774805479736344,1.6698720455169678,42.538761138916016,0.0029550340440538192,-0.051223076714409725
10979,-0.5846656212348089,0.45820323944091795,83.63432312011719,83.42974090576172,-2.1705665588378906,86.53935241699219,-0.015252261691623263,0.4613333333333333,0.3492857142857143,-0.138942379421658,-2.153256075927736,1.5270540714263916,42.538761138916016,0.002273135715060764,-0.04122132195366753
10980,-0.5846656212348089,0.45820323944091795,83.67523193359375,83.42974090576172,-2.5388107299804688,86.88714599609375,-0.010933346218532987,0.458,0.3485714285714286,-0.13793534172905816,-1.8676210814209,1.4062080383300781,42.538761138916016,0.0027276780870225696,-0.049177296956380206
10981,-0.5846656212348089,0.438281364440918,83.61386108398438,83.47065734863281,-2.252399444580078,86.58027648925781,-0.016388829549153647,0.4543333333333333,0.34785714285714286,-0.13662312825520834,-1.8346620970459,1.2084600925445557,42.538761138916016,0.001591152615017361,-0.04258528815375434
10982,-0.5846656212348089,0.438281364440918,83.53202819824219,83.36836242675781,-2.2114830017089844,86.6007308959961,-0.014115693834092882,0.451,0.3467857142857143,-0.1357381608751085,-1.8236757689209,0.9997260570526123,44.91178894042969,0.001818508572048611,-0.04235793219672309
10983,-0.5846656212348089,0.438281364440918,83.40928649902344,83.32745361328125,-2.252399444580078,86.58027648925781,-0.011842600504557292,0.44733333333333336,0.3460714285714286,-0.1351888444688585,-1.7248026304931656,0.8239500522613525,45.26335144042969,0.0009092542860243056,-0.04258528815375434
10984,-0.5807593712348089,0.438281364440918,82.18180847167969,82.89783477783203,-2.3751449584960938,86.96897888183594,-0.016388829549153647,0.444,0.3460714285714286,-0.1346090104844835,-1.6698728972167984,0.6262019872665405,46.318031311035156,-0.007955847846137152,-0.0482680426703559
10985,-0.5807593712348089,0.438281364440918,82.59095764160156,81.69081115722656,-2.4160614013671875,86.84622192382812,-0.011842600504557292,0.44,0.3460714285714286,-0.1344259050157335,-1.8346620970459,0.8678940534591675,46.84537124633789,0.010001627604166667,-0.04735870361328125
10986,-0.5846656212348089,0.438281364440918,83.5934066772461,83.32745361328125,-2.313770294189453,86.92805480957031,-0.011387973361545138,0.43633333333333335,0.3464285714285714,-0.13357145521375868,-1.9664942198486344,1.494096040725708,46.933258056640625,0.0029550340440538192,-0.047131390041775176
10987,-0.5846656212348089,0.45820323944091795,83.47065734863281,83.38882446289062,-2.0478172302246094,86.41661071777344,-0.011387973361545138,0.43266666666666664,0.3475,-0.13283907572428386,-2.0104395323486344,1.5929700136184692,46.933258056640625,0.0009092542860243056,-0.038493643866644965
10988,-0.5807593712348089,0.45820323944091795,83.71615600585938,83.22515869140625,-2.2933120727539062,86.6007308959961,-0.013888380262586805,0.429,0.3485714285714286,-0.13161837259928386,-1.7028299742431656,1.5490260124206543,46.933258056640625,0.005455525716145834,-0.043267144097222224
10989,-0.5807593712348089,0.45820323944091795,84.77996826171875,84.08439636230469,-2.4160614013671875,86.84622192382812,-0.015024948120117187,0.42533333333333334,0.3489285714285714,-0.13024512396918403,-1.538040774414064,1.5270540714263916,46.933258056640625,0.00772857666015625,-0.04735870361328125
10990,-0.5807593712348089,0.45820323944091795,84.77996826171875,84.77996826171875,-2.4365196228027344,86.88714599609375,-0.014570320977105035,0.4216666666666667,0.3492857142857143,-0.1292380862765842,-1.6149431639404312,0.9997260570526123,46.933258056640625,0.0,-0.04804072909884983
10991,-0.5807593712348089,0.438281364440918,84.28897857666016,84.18669128417969,-2.477436065673828,86.90760040283203,-0.01661614312065972,0.41833333333333333,0.34964285714285714,-0.12847518920898438,-1.7028299742431656,0.09887400269508362,46.933258056640625,0.0011365254720052083,-0.048722627427842884
10992,-0.5846656212348089,0.438281364440918,83.18424987792969,83.14332580566406,-2.497894287109375,87.03034973144531,-0.0168434566921658,0.415,0.35,-0.12835311889648438,-1.7687460356445328,-0.6371885710449234,46.933258056640625,0.0004547119140625,-0.05031382242838542
10993,-0.5807593712348089,0.438281364440918,83.47065734863281,83.12287139892578,-2.497894287109375,86.88714599609375,-0.014570320977105035,0.4116666666666667,0.34964285714285714,-0.1289634280734592,-1.8566347532959,-0.801977770874025,46.933258056640625,0.003864288330078125,-0.04872266981336806
10994,-0.5807593712348089,0.438281364440918,83.96165466308594,83.77752685546875,-2.354686737060547,86.94851684570312,-0.011387973361545138,0.408,0.34964285714285714,-0.13036719428168403,-1.8676210814209,-0.856909411499025,46.933258056640625,0.002045864529079861,-0.04781337314181858
10995,-0.5807593712348089,0.45820323944091795,83.90027618408203,83.75706481933594,-1.9864425659179688,86.25294494628906,-0.011160659790039062,0.4046666666666667,0.34964285714285714,-0.13164889017740886,-1.6918455534667984,-1.2743765288085953,46.933258056640625,0.0015912373860677083,-0.035993194580078124
10996,-0.5807593712348089,0.438281364440918,82.30455017089844,82.61141967773438,-2.641101837158203,86.98943328857422,-0.0168434566921658,0.40166666666666667,0.34964285714285714,-0.13228975931803386,-1.153530734130861,-1.7687460356445328,46.933258056640625,-0.003409661187065972,-0.0514503902859158
10997,-0.5807593712348089,0.438281364440918,82.69325256347656,82.44775390625,-2.477436065673828,86.98943328857422,-0.01729808383517795,0.39866666666666667,0.3489285714285714,-0.13317472669813368,-1.1974741392822281,-1.5929705076904312,46.933258056640625,0.002727762858072917,-0.04963188171386719
10998,-0.5846656212348089,0.438281364440918,82.69325256347656,82.48867797851562,-2.4365196228027344,86.78485107421875,-0.011387973361545138,0.39566666666666667,0.3485714285714286,-0.1345174577501085,-1.3622652464599625,-1.0876146727294937,46.933258056640625,0.0022730509440104167,-0.04690411885579427
10999,-0.5885718712348089,0.438281364440918,82.550048828125,82.28408813476562,-2.334228515625,86.72348022460938,-0.011160659790039062,0.393,0.3482142857142857,-0.1357076432969835,-1.3512789183349625,-0.7140909605712906,46.933258056640625,0.0029551188151041665,-0.04508565266927083
11000,-0.5846656212348089,0.438281364440918,82.75462341308594,82.30455017089844,-2.3956031799316406,86.78485107421875,-0.012297227647569445,0.39,0.3475,-0.13616536458333334,-1.2194467955322281,-0.19774879748535312,46.933258056640625,0.0050008138020833336,-0.04644949171278212
11001,-0.5846656212348089,0.438281364440918,83.61386108398438,82.89783477783203,-2.5388107299804688,86.94851684570312,-0.01252454121907552,0.387,0.3475,-0.13622639973958334,-1.120571749755861,0.23070600628852844,46.933258056640625,0.007955847846137152,-0.04985919528537326
11002,-0.5846656212348089,0.438281364440918,83.67523193359375,83.5115737915039,-2.6001853942871094,87.0712661743164,-0.014115693834092882,0.38433333333333336,0.34714285714285714,-0.13607381184895834,-1.2304331236572281,0.35155200958251953,46.933258056640625,0.0018184238009982638,-0.05190501742892795
11003,-0.5807593712348089,0.438281364440918,83.98210144042969,83.79798889160156,-2.1501083374023438,86.84622192382812,-0.012297227647569445,0.38133333333333336,0.3467857142857143,-0.13592122395833334,-1.4281813078613297,0.2197200059890747,46.933258056640625,0.0020456949869791666,-0.04440366956922743
11004,-0.5846656212348089,0.438281364440918,83.85935974121094,83.69569396972656,-2.3956031799316406,86.47798156738281,-0.015934202406141493,0.37866666666666665,0.3467857142857143,-0.1356771257188585,-1.2633902006835953,-0.06591667468261875,46.933258056640625,0.001818508572048611,-0.043039830525716145
11005,-0.5846656212348089,0.438281364440918,83.79798889160156,83.61386108398438,-2.334228515625,86.78485107421875,-0.014343007405598959,0.376,0.3464285714285714,-0.13610432942708334,-0.9667688780517594,-0.3735243254394547,46.933258056640625,0.002045864529079861,-0.04576755099826389
11006,-0.5846656212348089,0.438281364440918,82.36592102050781,82.12042999267578,-2.1705665588378906,86.98943328857422,-0.013888380262586805,0.37333333333333335,0.3460714285714286,-0.13634847005208334,-0.9667688780517594,-0.5602861815185562,46.933258056640625,0.0027276780870225696,-0.046222220526801215
11007,-0.5846656212348089,0.41835948944091794,82.46821594238281,82.20226287841797,-2.334228515625,86.6007308959961,-0.014570320977105035,0.37066666666666664,0.3457142857142857,-0.13625691731770834,-0.9777552061767594,-0.12084640795898594,46.933258056640625,0.0029550340440538192,-0.043721771240234374
11008,-0.5807593712348089,0.41835948944091794,82.44775390625,82.22271728515625,-2.4569778442382812,86.98943328857422,-0.014115693834092882,0.36766666666666664,0.34535714285714286,-0.13595174153645834,-0.8678938322753922,0.4943700134754181,46.933258056640625,0.0025004069010416668,-0.04940456814236111
11009,-0.5807593712348089,0.41835948944091794,82.38638305664062,82.26363372802734,-2.5592689514160156,86.96897888183594,-0.011615286933051215,0.36533333333333334,0.345,-0.13589070638020834,-1.0216986113281266,1.2963480949401855,46.933258056640625,0.0013638814290364584,-0.05031386481391059
11010,-0.5846656212348089,0.438281364440918,82.9592056274414,82.40684509277344,-2.5388107299804688,87.09172058105469,-0.0054779052734375,0.36233333333333334,0.345,-0.13601277669270834,-1.2304331236572281,2.109312057495117,46.933258056640625,0.006137339274088541,-0.051450347900390624
11011,-0.5846656212348089,0.438281364440918,83.12287139892578,82.89783477783203,-2.354686737060547,86.80531311035156,-0.013888380262586805,0.3596666666666667,0.345,-0.13427335951063368,-1.4940973692626969,2.504807949066162,46.933258056640625,0.0025004069010416668,-0.046222220526801215
11012,-0.5885718712348089,0.438281364440918,83.12287139892578,82.91828918457031,-2.1705665588378906,86.6007308959961,-0.014797634548611112,0.3566666666666667,0.3457142857142857,-0.13207613627115886,-1.4721247130126969,2.8014299869537354,46.933258056640625,0.002273135715060764,-0.04190330505371094
11013,-0.5807593712348089,0.438281364440918,83.20470428466797,83.02058410644531,-2.2933120727539062,86.76439666748047,-0.014797634548611112,0.354,0.3457142857142857,-0.1295127444797092,-1.2853628569335953,3.0980520248413086,46.933258056640625,0.002045779758029514,-0.04508565266927083
11014,-0.5846656212348089,0.438281364440918,83.57295227050781,83.06149291992188,-2.313770294189453,86.70301818847656,-0.012297227647569445,0.3506666666666667,0.3464285714285714,-0.12697987026638455,-1.175503390380861,3.317772150039673,46.933258056640625,0.005682881673177083,-0.04463098314073351
11015,-0.5846656212348089,0.438281364440918,83.32745361328125,83.0001220703125,-2.3751449584960938,86.96897888183594,-0.01070603264702691,0.3473333333333333,0.34714285714285714,-0.12450798882378472,-1.1864878111572281,3.526506185531616,46.933258056640625,0.003637017144097222,-0.0482680426703559
11016,-0.5807593712348089,0.438281364440918,83.552490234375,83.32745361328125,-2.3751449584960938,86.74394226074219,-0.009796820746527778,0.344,0.3475,-0.12228029039171007,-1.3402925902099625,3.603408098220825,46.933258056640625,0.0025004069010416668,-0.04576763576931424
11017,-0.5846656212348089,0.438281364440918,83.69569396972656,83.552490234375,-2.3751449584960938,86.72348022460938,-0.012069914076063368,0.341,0.3482142857142857,-0.11974741617838541,-1.3732515745849625,3.5045340061187744,47.109039306640625,0.001591152615017361,-0.04554027981228299
11018,-0.5846656212348089,0.438281364440918,83.67523193359375,83.49111938476562,-1.9659843444824219,86.68256378173828,-0.013433795505099827,0.33766666666666667,0.3489285714285714,-0.11703143649631076,-1.3402925902099625,3.306786060333252,46.933258056640625,0.0020456949869791666,-0.04053942362467448
11019,-0.5885718712348089,0.438281364440918,83.5934066772461,83.40928649902344,-2.3956031799316406,86.90760040283203,-0.01320648193359375,0.33466666666666667,0.3492857142857143,-0.1144070095486111,-1.131558077880861,3.1200242042541504,46.933258056640625,0.002045779758029514,-0.04781337314181858
11020,-0.5885718712348089,0.438281364440918,83.552490234375,83.38882446289062,-2.3956031799316406,86.84622192382812,-0.013888380262586805,0.332,0.34964285714285714,-0.11156895955403646,-1.131558077880861,2.8014299869537354,46.933258056640625,0.001818508572048611,-0.047131390041775176
11021,-0.5924781212348089,0.438281364440918,83.61386108398438,83.38882446289062,-2.354686737060547,86.80531311035156,-0.0168434566921658,0.32866666666666666,0.35,-0.10833418104383681,-1.2963491850585953,2.614668130874634,46.933258056640625,0.0025004069010416668,-0.046222220526801215
11022,-0.5885718712348089,0.438281364440918,83.5934066772461,83.4501953125,-2.2114830017089844,86.662109375,-0.010933346218532987,0.32566666666666666,0.3507142857142857,-0.10632006327311198,-1.3842359953613297,2.66959810256958,46.933258056640625,0.0015912373860677083,-0.04303991529676649
11023,-0.5885718712348089,0.438281364440918,83.63432312011719,83.42974090576172,-2.1705665588378906,86.559814453125,-0.012297227647569445,0.32233333333333336,0.3510714285714286,-0.10427547030978733,-1.2963491850585953,2.658612012863159,46.933258056640625,0.002273135715060764,-0.041448677910698783
11024,-0.5846656212348089,0.438281364440918,83.63432312011719,83.40928649902344,-2.1705665588378906,86.58027648925781,-0.011615286933051215,0.31933333333333336,0.3517857142857143,-0.1021392822265625,-1.120571749755861,2.603682041168213,46.933258056640625,0.0025004069010416668,-0.041676033867730035
11025,-0.5846656212348089,0.438281364440918,83.53202819824219,83.42974090576172,-2.334228515625,86.72348022460938,-0.012069914076063368,0.31633333333333336,0.35214285714285715,-0.10009468926323785,-0.9777552061767594,2.526780128479004,46.933258056640625,0.0011365254720052083,-0.04508565266927083
11026,-0.5885718712348089,0.438281364440918,82.87738037109375,82.67279052734375,-2.4160614013671875,86.90760040283203,-0.013888380262586805,0.31333333333333335,0.3517857142857143,-0.09795850118001302,-0.9447962218017594,2.5377659797668457,47.109039306640625,0.0022732204861111113,-0.048040686713324655
11027,-0.5885718712348089,0.438281364440918,82.87738037109375,82.59095764160156,-2.4160614013671875,86.88714599609375,-0.013888380262586805,0.31033333333333335,0.35214285714285715,-0.09554769727918837,-1.142544406005861,2.7904441356658936,46.933258056640625,0.0031824747721354166,-0.04781341552734375
11028,-0.5885718712348089,0.438281364440918,84.32989501953125,83.36836242675781,-2.3751449584960938,86.84622192382812,-0.008887566460503472,0.30733333333333335,0.3525,-0.09338099161783854,-1.3512789183349625,3.1969261169433594,46.933258056640625,0.010683695475260416,-0.0469040764702691
11029,-0.5885718712348089,0.41835948944091794,85.12775421142578,85.1072998046875,-2.1910247802734375,86.559814453125,-0.013433795505099827,0.30433333333333334,0.3532142857142857,-0.09042087131076389,-1.3952223234863297,3.054108142852783,46.933258056640625,0.00022727118598090277,-0.04167599148220486
11030,-0.5846656212348089,0.41835948944091794,84.90271759033203,84.75950622558594,-2.1910247802734375,86.559814453125,-0.015252261691623263,0.301,0.3535714285714286,-0.08810162014431423,-1.1974741392822281,2.285088062286377,46.933258056640625,0.0015912373860677083,-0.04167599148220486
11031,-0.5885718712348089,0.438281364440918,84.5958480834961,84.5958480834961,-2.272857666015625,86.62118530273438,-0.009569507175021702,0.298,0.3539285714285714,-0.0870030297173394,-0.9997259550781266,1.4062080383300781,46.933258056640625,0.0,-0.043267144097222224
11032,-0.5885718712348089,0.41835948944091794,82.71371459960938,83.06149291992188,-2.354686737060547,86.90760040283203,-0.0168434566921658,0.295,0.35428571428571426,-0.08584340413411458,-0.9557825499267594,0.4943700134754181,46.933258056640625,-0.0038642035590277777,-0.04735874599880642
11033,-0.5885718712348089,0.41835948944091794,80.58607482910156,82.34546661376953,-2.3956031799316406,86.92805480957031,-0.014570320977105035,0.292,0.3539285714285714,-0.08550771077473958,-1.0986010008544937,0.3405660092830658,46.933258056640625,-0.019548797607421876,-0.04804064432779948
11034,-0.5885718712348089,0.41835948944091794,82.89783477783203,82.63188171386719,-1.8841552734375,86.37569427490234,-0.010933346218532987,0.289,0.3539285714285714,-0.08538564046223958,-1.2304331236572281,1.4391660690307617,47.109039306640625,0.0029550340440538192,-0.036220550537109375
11035,-0.5846656212348089,0.438281364440918,82.85691833496094,82.67279052734375,-2.6615562438964844,87.15309143066406,-0.007978312174479167,0.286,0.3539285714285714,-0.08456170823838975,-1.0107122832031266,2.065368175506592,47.109039306640625,0.002045864529079861,-0.05349608527289496
11036,-0.5885718712348089,0.438281364440918,83.552490234375,83.28652954101562,-2.6615562438964844,87.13264465332031,-0.012751854790581597,0.283,0.35428571428571426,-0.08291380140516492,-1.2084604674072281,2.4608640670776367,46.933258056640625,0.0029551188151041665,-0.05326889885796441
11037,-0.5963843712348089,0.438281364440918,81.71127319335938,83.24562072753906,-2.641101837158203,87.1121826171875,-0.013888380262586805,0.2796666666666667,0.35464285714285715,-0.0810217539469401,-1.5929705076904312,2.603682041168213,46.933258056640625,-0.017048305935329862,-0.05281427171495226
11038,-0.5963843712348089,0.438281364440918,83.5115737915039,81.547607421875,-2.4160614013671875,87.15309143066406,-0.013888380262586805,0.2763333333333333,0.35535714285714287,-0.07882457309299046,-1.9555078917236344,3.1090381145477295,46.933258056640625,0.02182184855143229,-0.05076836480034722
11039,-0.5963843712348089,0.41835948944091794,85.12775421142578,84.84133911132812,-2.3751449584960938,86.72348022460938,-0.008205625745985243,0.27266666666666667,0.3557142857142857,-0.0758644527859158,-2.1312853270263687,3.537492036819458,46.933258056640625,0.0031823900010850693,-0.04554027981228299
11040,-0.5963843712348089,0.41835948944091794,83.90027618408203,84.0434799194336,-2.4160614013671875,86.78485107421875,-0.015706888834635415,0.26866666666666666,0.3575,-0.07235501607259115,-2.0324102812500016,2.8673460483551025,46.40591812133789,-0.001591152615017361,-0.04667680528428819
11041,-0.6002906212348089,0.41835948944091794,83.5115737915039,83.47065734863281,-2.4365196228027344,86.92805480957031,-0.01752539740668403,0.265,0.3578571428571429,-0.0690592024061415,-1.9774805479736344,2.3400180339813232,46.40591812133789,0.0004546271430121528,-0.04849527147081163
11042,-0.6002906212348089,0.39843757629394533,82.91828918457031,82.18180847167969,-2.1705665588378906,86.92805480957031,-0.014797634548611112,0.261,0.35892857142857143,-0.06643477545844184,-2.0873400145263687,2.296074151992798,46.40591812133789,0.008183119032118056,-0.045540237426757814
11043,-0.6041968712348089,0.39843757629394533,83.77752685546875,83.69569396972656,-2.2114830017089844,86.35523986816406,-0.010478719075520834,0.257,0.35964285714285715,-0.06469535827636719,-1.9884668760986344,2.614668130874634,46.40591812133789,0.0009092542860243056,-0.03963025410970052
11044,-0.6002906212348089,0.41835948944091794,83.12287139892578,83.26608276367188,-2.518352508544922,86.96897888183594,-0.009114880032009548,0.25333333333333335,0.3607142857142857,-0.06320003933376736,-1.7357889586181656,2.5487520694732666,46.40591812133789,-0.0015912373860677083,-0.049859237670898435
11045,-0.6002906212348089,0.41835948944091794,81.91584777832031,82.38638305664062,-2.702472686767578,87.21446990966797,-0.010251405504014757,0.249,0.3610714285714286,-0.061491097344292533,-1.9115644865722672,2.5377659797668457,46.40591812133789,-0.005228169759114583,-0.05463269551595052
11046,-0.6041968712348089,0.41835948944091794,84.0434799194336,80.15646362304688,-2.354686737060547,86.90760040283203,-0.014343007405598959,0.24533333333333332,0.36214285714285716,-0.05908029344346788,-2.2850881987304703,3.5704500675201416,46.40591812133789,0.04318906995985243,-0.04735874599880642
11047,-0.6041968712348089,0.41835948944091794,84.96409606933594,84.02302551269531,-2.10919189453125,86.62118530273438,-0.002522828843858507,0.241,0.3625,-0.05694410536024305,-2.2850881987304703,4.877784252166748,46.40591812133789,0.010456339518229166,-0.04144863552517361
11048,-0.6081031212348089,0.41835948944091794,85.31187438964844,85.12775421142578,-2.088733673095703,86.5188980102539,-0.01070603264702691,0.237,0.36464285714285716,-0.05309901767306858,-1.9884668760986344,4.4493303298950195,46.40591812133789,0.002045779758029514,-0.04008479648166233
11049,-0.6120093712348089,0.41835948944091794,86.6007308959961,86.25294494628906,-1.9864425659179688,86.662109375,-0.018207295735677084,0.23333333333333334,0.3653571428571429,-0.0482773674858941,-1.7138163023681656,3.2628421783447266,46.318031311035156,0.003864288330078125,-0.04053946601019965
11050,-0.6159156212348089,0.39843757629394533,86.19157409667969,86.08927917480469,-2.313770294189453,87.0098876953125,-0.01979849073621962,0.22933333333333333,0.36607142857142855,-0.044798490736219616,-1.6259294920654312,1.6259280443191528,46.318031311035156,0.0011366102430555556,-0.04804064432779948
11051,-0.6198218712348089,0.39843757629394533,83.47065734863281,83.67523193359375,-2.2933120727539062,86.662109375,-0.01843460930718316,0.22566666666666665,0.36642857142857144,-0.04345575968424479,-1.6808592253417984,0.12084600329399109,46.40591812133789,-0.0022730509440104167,-0.043949127197265625
11052,-0.6237281212348089,0.39843757629394533,82.40684509277344,82.16134643554688,-2.1910247802734375,86.6007308959961,-0.015934202406141493,0.222,0.36642857142857144,-0.04330317179361979,-1.5709978514404312,-0.2416922026367203,46.40591812133789,0.002727762858072917,-0.04213061862521701
11053,-0.6237281212348089,0.39843757629394533,84.53446960449219,84.57539367675781,-2.2319412231445312,86.559814453125,-0.007069057888454861,0.21833333333333332,0.36678571428571427,-0.044432279798719616,-1.3732515745849625,0.08788800239562988,46.40591812133789,-0.0004547119140625,-0.04213061862521701
11054,-0.6237281212348089,0.39843757629394533,83.42974090576172,84.14576721191406,-2.497894287109375,86.96897888183594,-0.014343007405598959,0.215,0.36678571428571427,-0.044584867689344616,-1.2963491850585953,-0.3185945921630875,46.40591812133789,-0.007955847846137152,-0.04963192409939236
11055,-0.6237281212348089,0.39843757629394533,83.53202819824219,83.40928649902344,-2.3956031799316406,86.86668395996094,-0.015252261691623263,0.21133333333333335,0.36642857142857144,-0.044829008314344616,-1.4721247130126969,-0.6591612272949234,46.40591812133789,0.0013637966579861111,-0.04735874599880642
11056,-0.6237281212348089,0.39843757629394533,83.69569396972656,83.49111938476562,-2.0682754516601562,86.43707275390625,-0.0168434566921658,0.208,0.36642857142857144,-0.04504258897569444,-1.5819841795654312,-0.834936755249025,46.40591812133789,0.0022730509440104167,-0.038948313395182295
11057,-0.6276343712348089,0.39843757629394533,83.4501953125,83.36836242675781,-2.334228515625,86.78485107421875,-0.015706888834635415,0.20466666666666666,0.36642857142857144,-0.04550035264756944,-1.3512789183349625,-0.9118391447753922,46.40591812133789,0.0009092542860243056,-0.04576755099826389
11058,-0.6276343712348089,0.39843757629394533,82.36592102050781,81.97721862792969,-2.3956031799316406,86.84622192382812,-0.012069914076063368,0.20133333333333334,0.36607142857142855,-0.04684308369954427,-1.2853628569335953,-0.7909933500976578,46.40591812133789,0.0043189154730902775,-0.047131390041775176
11059,-0.6276343712348089,0.39843757629394533,83.14332580566406,82.71371459960938,-2.313770294189453,86.72348022460938,-0.011615286933051215,0.19766666666666666,0.36607142857142855,-0.0477890862358941,-1.3952223234863297,-0.3185945921630875,46.40591812133789,0.004773457845052083,-0.04485833909776476
11060,-0.6315406212348089,0.39843757629394533,84.0434799194336,83.81844329833984,-2.2933120727539062,86.74394226074219,-0.013888380262586805,0.19433333333333333,0.36607142857142855,-0.0479416741265191,-1.4501520567626969,-0.06591667468261875,46.318031311035156,0.0025004069010416668,-0.04485838148328993
11061,-0.6315406212348089,0.39843757629394533,84.554931640625,84.14576721191406,-2.0682754516601562,86.43707275390625,-0.012979168362087673,0.19066666666666668,0.36607142857142855,-0.0480637444390191,-1.4062086516113297,-0.3076082640380875,46.318031311035156,0.004546271430121528,-0.038948313395182295
11062,-0.6354468712348089,0.39843757629394533,84.1048583984375,84.45263671875,-2.8047637939453125,86.53935241699219,-0.01729808383517795,0.18733333333333332,0.36642857142857144,-0.0479416741265191,-1.1864878111572281,-0.9667688780517594,46.40591812133789,-0.0038642035590277777,-0.048267957899305554
11063,-0.6354468712348089,0.39843757629394533,83.63432312011719,83.5115737915039,-2.702472686767578,87.29630279541016,-0.01729808383517795,0.184,0.3657142857142857,-0.0482773674858941,-1.3622652464599625,-1.5709978514404312,46.40591812133789,0.0013638814290364584,-0.05554194980197483
11064,-0.6393531212348089,0.3785157012939453,80.8929443359375,82.36592102050781,-2.313770294189453,86.80531311035156,-0.01797998216417101,0.18033333333333335,0.3653571428571429,-0.049162334865993924,-1.9005781584472672,-1.7357889586181656,46.40591812133789,-0.016366407606336807,-0.045767593383789065
11065,-0.6432593712348089,0.3785157012939453,83.71615600585938,83.79798889160156,-2.252399444580078,86.5188980102539,-0.011387973361545138,0.177,0.3653571428571429,-0.05087127685546875,-2.0104395323486344,-0.6591612272949234,46.40591812133789,-0.0009092542860243056,-0.04190330505371094
11066,-0.6393531212348089,0.39843757629394533,81.87493133544922,82.20226287841797,-2.4365196228027344,86.80531311035156,-0.00775099860297309,0.173,0.3657142857142857,-0.05200038486056858,-1.8786074095459,-0.09887375170898594,46.40591812133789,-0.003637017144097222,-0.04713147481282552
11067,-0.6393531212348089,0.39843757629394533,82.73416900634766,80.83157348632812,-2.477436065673828,86.94851684570312,-0.011387973361545138,0.169,0.36607142857142855,-0.05227504306369358,-1.9225508146972672,0.7360620498657227,46.40591812133789,0.021139950222439235,-0.049177254570855033
11068,-0.6354468712348089,0.39843757629394533,84.18669128417969,84.08439636230469,-2.477436065673828,86.84622192382812,-0.009569507175021702,0.165,0.36678571428571427,-0.05160369873046875,-2.1202989989013687,1.812690019607544,46.40591812133789,0.0011366102430555556,-0.04804064432779948
11069,-0.6354468712348089,0.39843757629394533,84.32989501953125,84.08439636230469,-2.641101837158203,87.23492431640625,-0.011387973361545138,0.16133333333333333,0.3675,-0.05084075927734375,-2.3619905882568375,1.768746018409729,46.40591812133789,0.002727762858072917,-0.05417806837293837
11070,-0.6354468712348089,0.39843757629394533,83.85935974121094,84.1048583984375,-2.7638473510742188,87.09172058105469,-0.01070603264702691,0.157,0.36857142857142855,-0.049833721584743924,-2.6695982390136734,1.175502061843872,46.40591812133789,-0.002727762858072917,-0.05395075480143229
11071,-0.6354468712348089,0.39843757629394533,83.08195495605469,83.63432312011719,-2.518352508544922,86.92805480957031,-0.01616151597764757,0.153,0.3692857142857143,-0.0485215081108941,-2.834389346191408,0.5822579860687256,46.40591812133789,-0.006137424045138889,-0.04940452575683594
11072,-0.6354468712348089,0.39843757629394533,82.91828918457031,82.75462341308594,-2.518352508544922,86.98943328857422,-0.015252261691623263,0.14866666666666667,0.3703571428571429,-0.0477280510796441,-2.801430361816408,0.45042601227760315,46.40591812133789,0.001818508572048611,-0.05008650885687934
11073,-0.6354468712348089,0.3785157012939453,82.79554748535156,82.67279052734375,-2.5388107299804688,86.94851684570312,-0.015252261691623263,0.14433333333333334,0.3707142857142857,-0.04723981221516927,-2.6915708952636734,0.7360620498657227,45.966468811035156,0.0013639662000868055,-0.04985919528537326
11074,-0.6315406212348089,0.39843757629394533,82.48867797851562,82.52958679199219,-2.5592689514160156,87.05081176757812,-0.00843293931749132,0.13966666666666666,0.3717857142857143,-0.04708722432454427,-2.6476274901123062,0.9557820558547974,45.966468811035156,-0.00045454237196180554,-0.0512231190999349
11075,-0.6315406212348089,0.3785157012939453,82.52958679199219,81.71127319335938,-2.5592689514160156,87.25538635253906,-0.011842600504557292,0.13566666666666666,0.37214285714285716,-0.04611070421006944,-2.6695982390136734,1.2743760347366333,45.966468811035156,0.00909237331814236,-0.053496170043945315
11076,-0.6315406212348089,0.3785157012939453,82.01814270019531,81.79310607910156,-2.6001853942871094,87.1121826171875,-0.012297227647569445,0.13166666666666665,0.37285714285714283,-0.044676420423719616,-2.7025572233886734,1.8566340208053589,45.966468811035156,0.0025004069010416668,-0.0523596445719401
11077,-0.6315406212348089,0.3785157012939453,83.26608276367188,82.16134643554688,-2.6001853942871094,86.98943328857422,-0.01070603264702691,0.12766666666666668,0.3732142857142857,-0.04260126749674479,-2.6366411619873062,2.7794580459594727,45.966468811035156,0.012274848090277778,-0.05099576314290365
11078,-0.6315406212348089,0.3785157012939453,83.98210144042969,84.12531280517578,-2.702472686767578,87.19401550292969,-0.009342193603515625,0.124,0.37392857142857144,-0.04034305148654514,-2.504809039184572,3.2738280296325684,45.79069137573242,-0.0015912373860677083,-0.054405424329969615
11079,-0.6354468712348089,0.3785157012939453,83.53202819824219,83.0410385131836,-2.6001853942871094,87.0712661743164,-0.011387973361545138,0.12033333333333333,0.37464285714285717,-0.03759655422634549,-2.4388929777832047,3.0101640224456787,44.91178894042969,0.005455440945095486,-0.05190501742892795
11080,-0.6393531212348089,0.3785157012939453,83.71615600585938,83.5115737915039,-2.6615562438964844,87.09172058105469,-0.015934202406141493,0.117,0.37464285714285717,-0.034056599934895834,-2.3180471831054703,2.7904441356658936,44.82389831542969,0.002273135715060764,-0.05281418694390191
11081,-0.6393531212348089,0.3585938262939453,85.27096557617188,84.47309875488281,-2.5388107299804688,86.96897888183594,-0.01661614312065972,0.11333333333333333,0.375,-0.030547205607096353,-2.208185809204103,2.3949480056762695,44.82389831542969,0.008865186903211806,-0.05008655124240451
11082,-0.6354468712348089,0.33867195129394534,86.47798156738281,85.84378051757812,-2.6820144653320312,87.21446990966797,-0.012979168362087673,0.11,0.37464285714285717,-0.027617602878146703,-2.0104395323486344,1.307334065437317,44.82389831542969,0.007046678331163195,-0.05440538194444444
11083,-0.6432593712348089,0.33867195129394534,85.65966796875,86.27340698242188,-2.641101837158203,87.15309143066406,-0.018207295735677084,0.106,0.37392857142857144,-0.025359344482421876,-1.9555078917236344,-0.49437012011718906,44.82389831542969,-0.006819322374131944,-0.053268814086914064
11084,-0.6549781212348089,0.3187500762939453,85.14820861816406,85.08683776855469,-2.5592689514160156,87.0712661743164,-0.02207158406575521,0.10333333333333333,0.3732142857142857,-0.02377247280544705,-1.8676210814209,-2.219172137329103,44.82389831542969,0.0006818983289930556,-0.0514503902859158
11085,-0.6784155934570312,0.29882820129394533,84.67768096923828,84.5140151977539,-2.3956031799316406,86.86668395996094,-0.022298897637261283,0.10033333333333333,0.3725,-0.02331475151909722,-1.7797323637695328,-3.163967745849611,44.82389831542969,0.001818508572048611,-0.04735874599880642
11086,-0.6940405934570312,0.29882820129394533,83.75706481933594,84.6572265625,-2.313770294189453,86.78485107421875,-0.011842600504557292,0.097,0.3717857142857143,-0.02465748257107205,-1.6588865690917984,-4.064819949218752,44.64812088012695,-0.01000179714626736,-0.045540237426757814
11087,-0.7135718434570312,0.2789063262939453,81.60897827148438,81.83401489257812,-2.088733673095703,86.47798156738281,-0.021389685736762153,0.09433333333333334,0.37107142857142855,-0.025878143310546876,-1.4062086516113297,-4.449329989501955,44.38444900512695,-0.0025004069010416668,-0.03963016933865017
11088,-0.6979468434570312,0.239062557220459,84.84133911132812,84.98455047607422,-2.1501083374023438,86.64164733886719,-0.03275523715549045,0.091,0.37,-0.027587085300021703,-1.1864878111572281,-3.7791849547119156,44.38444900512695,-0.0015912373860677083,-0.04213061862521701
11089,-0.7135718434570312,0.2789063262939453,80.11553955078125,83.90027618408203,-3.11163330078125,86.90760040283203,0.002932612101236979,0.08833333333333333,0.3692857142857143,-0.03332422044542101,-0.9667688780517594,-3.8011576109619156,44.56023025512695,-0.04205262925889757,-0.055769263373480905
11090,-0.6862280934570312,0.2789063262939453,78.56073760986328,77.537841796875,-3.254840850830078,87.88958740234375,-0.011387973361545138,0.08533333333333333,0.3675,-0.038176345825195315,-1.3952223234863297,-2.142269747802736,44.38444900512695,0.011365509033203125,-0.06827142503526476
11091,-0.6823218434570312,0.29882820129394533,83.34790802001953,83.4501953125,-3.357128143310547,87.5213394165039,0.009297349717881945,0.08133333333333333,0.36678571428571427,-0.04101439581976996,-2.4498793059082047,0.2526780068874359,44.38444900512695,-0.0011365254720052083,-0.06531630622016059
11092,-0.7252905934570312,0.2789063262939453,80.74974060058594,78.09020233154297,-1.8023223876953125,87.41905212402344,-0.01752539740668403,0.07766666666666666,0.36678571428571427,-0.038512039184570315,-3.2957998686523453,0.010986000299453735,43.505550384521484,0.02955042521158854,-0.04690416124131944
11093,-0.7252905934570312,0.25898443222045897,78.82669067382812,81.73172760009766,-2.088733673095703,86.02790832519531,-0.027754380967881943,0.07333333333333333,0.36714285714285716,-0.034911092122395834,-3.0211512022705094,1.1425440311431885,43.417659759521484,-0.032278188069661456,-0.03462935553656684
11094,-0.6940405934570312,0.239062557220459,82.46821594238281,82.83645629882812,-2.4160614013671875,86.19157409667969,-0.013433795505099827,0.06933333333333333,0.3675,-0.033659871419270834,-2.186215060302736,3.0321359634399414,43.241878509521484,-0.004091559516059028,-0.0400848388671875
11095,-0.7252905934570312,0.2789063262939453,83.87982177734375,85.65966796875,-2.5388107299804688,85.88470458984375,0.002932612101236979,0.065,0.3678571428571429,-0.03216455247667101,-1.7907186918945328,4.064820289611816,43.241878509521484,-0.01977606879340278,-0.03803905910915799
11096,-0.6979468434570312,0.239062557220459,86.559814453125,85.61874389648438,-3.5412521362304688,86.39614868164062,-0.013661109076605903,0.060333333333333336,0.3675,-0.028288947211371526,-1.538040774414064,3.3287580013275146,43.241878509521484,0.010456339518229166,-0.0548600090874566
11097,-0.7526343434570312,0.239062557220459,85.12775421142578,84.96409606933594,-1.9659843444824219,87.562255859375,-0.023662779066297743,0.057666666666666665,0.36678571428571427,-0.02230767144097222,-2.0324102812500016,1.2304320335388184,43.241878509521484,0.0018184238009982638,-0.050313780042860246
11098,-0.7331030934570312,0.219140682220459,84.45263671875,84.43218231201172,-1.6795730590820312,86.6007308959961,-0.011615286933051215,0.05333333333333334,0.36678571428571427,-0.01998842027452257,-2.526779788085939,0.373524010181427,42.62664794921875,0.00022727118598090277,-0.03644782172309028
11099,-0.7604468434570312,0.219140682220459,81.8953857421875,80.68836975097656,-1.945526123046875,87.03034973144531,-0.00775099860297309,0.049666666666666665,0.36642857142857144,-0.01974427964952257,-2.1312853270263687,-0.08788933093261875,42.538761138916016,0.013411288791232639,-0.04417639838324653
11100,-0.7174780934570312,0.19921878814697266,83.34790802001953,80.85203552246094,-2.8456802368164062,86.76439666748047,-0.007296371459960938,0.04633333333333333,0.3653571428571429,-0.018859312269422744,-1.142544406005861,0.9777539968490601,42.362979888916016,0.02773191663953993,-0.051223076714409725
11101,-0.7174780934570312,0.17929691314697266,85.20958709716797,85.98699188232422,-4.154991149902344,88.74882507324219,-0.012751854790581597,0.042666666666666665,0.3625,-0.017577616373697917,-0.3625379973144547,1.4391660690307617,42.362979888916016,-0.008637830946180555,-0.08782018025716146
11102,-0.7213843434570312,0.19921878814697266,84.86180114746094,86.1097412109375,-3.8072052001953125,89.32164001464844,-0.014115693834092882,0.03866666666666667,0.35964285714285715,-0.016631571451822917,-1.3402925902099625,0.6591600179672241,42.362979888916016,-0.013866000705295138,-0.09032050238715278
11103,-0.7291968434570312,0.17929691314697266,86.35523986816406,83.38882446289062,-3.7867469787597656,88.1555404663086,-0.01843460930718316,0.036,0.35714285714285715,-0.014495425754123263,-2.0324102812500016,0.12084600329399109,42.362979888916016,0.03296017116970486,-0.07713652716742622
11104,-0.7526343434570312,0.17929691314697266,81.8953857421875,81.38394165039062,-2.8252220153808594,87.80775451660156,-0.014343007405598959,0.03233333333333333,0.3557142857142857,-0.013610458374023438,-1.8895918303222672,-0.4723993712158219,42.362979888916016,0.005682712131076389,-0.06258862813313802
11105,-0.7448218434570312,0.17929691314697266,82.93875122070312,82.48867797851562,-3.7867469787597656,88.72836303710938,-0.006387117173936632,0.029,0.3535714285714286,-0.014800601535373263,-1.6479002409667984,-0.17577614123535312,42.275089263916016,0.0050008138020833336,-0.083501222398546
11106,-0.7409155934570312,0.17929691314697266,80.87248992919922,84.28897857666016,-1.7614059448242188,87.58271789550781,-0.006841744316948784,0.023666666666666666,0.3525,-0.015014224582248263,-2.0873400145263687,-0.16478981311035312,40.69306945800781,-0.037960984971788195,-0.0482680426703559
11107,-0.7565405934570312,0.15937503814697265,88.42149353027344,78.09020233154297,-1.9659843444824219,86.98943328857422,-0.01320648193359375,0.018666666666666668,0.3507142857142857,-0.014281802707248263,-1.7797323637695328,1.032684087753296,40.60517883300781,0.11479212443033854,-0.04394908481174045
11108,-0.7252905934570312,0.15937503814697265,87.17355346679688,89.6080551147461,-0.6566734313964844,85.84378051757812,0.007933468288845487,0.014,0.34964285714285714,-0.014068179660373263,-0.9338098936767594,1.647900104522705,40.42940139770508,-0.027050018310546875,-0.016671710544162326
11109,-0.7799780934570312,0.15937503814697265,81.26119232177734,80.8929443359375,1.7573699951171875,83.12287139892578,-0.02434471978081597,0.009666666666666667,0.3475,-0.01113857693142361,0.16479000449180603,-0.4174677305908219,40.42940139770508,0.004091644287109375,0.04038331773546007
11110,-0.8268530934570312,0.13945316314697265,85.557373046875,78.9903564453125,1.5118751525878906,81.52714538574219,-0.022753524780273437,0.006333333333333333,0.3460714285714286,-0.0073545244004991316,2.4828360080718994,0.2746500074863434,34.628658294677734,0.07296685112847222,0.05538588629828559
11111,-0.8463843434570312,0.15937503814697265,85.06637573242188,84.61630249023438,2.473400115966797,85.16867065429688,0.00225067138671875,0.003,0.3414285714285714,-0.0071103837754991316,3.4056601524353027,0.5493000149726868,26.63067054748535,0.0050008138020833336,0.025608105129665798
11112,-0.8854468434570312,0.17929691314697266,86.17111206054688,87.66455078125,6.646831512451172,80.56562042236328,-0.022526211208767362,0.001,0.3382142857142857,-0.005187818739149305,2.7355141639709473,-0.3735243254394547,26.63067054748535,-0.016593763563368055,0.12312456766764322
11113,-0.8776343434570312,0.17929691314697266,75.08287811279297,83.26608276367188,2.841644287109375,79.33814239501953,0.05248646206325955,0.001,0.33321428571428574,-0.006439039442274305,4.71299409866333,-2.142269747802736,26.54277992248535,-0.09092449612087673,0.09448335435655382
11114,-0.9635718434570312,0.15937503814697265,88.31919860839844,86.41661071777344,5.746681213378906,75.41020202636719,0.0295280032687717,-0.0003333333333333333,0.32857142857142857,-0.000152587890625,4.855812072753906,0.10986000299453735,26.367000579833984,0.02113986545138889,0.1704053243001302
11115,0.9817406565429688,0.19921878814697266,92.69721984863281,97.64805603027344,6.442253112792969,78.17203521728516,0.0072515275743272566,-0.0003333333333333333,0.3225,0.0067441728379991316,4.27355432510376,1.8346620798110962,26.367000579833984,-0.05500929090711806,0.14744686550564237
11116,0.9973656565429688,0.15937503814697265,77.66058349609375,83.57295227050781,9.63370132446289,75.53295135498047,-0.020253117879231772,-0.0016666666666666668,0.31892857142857145,0.006164381239149305,3.7352399826049805,-2.856360095092775,26.367000579833984,-0.06569298638237847,0.21223055521647136
11117,-0.9713843434570312,0.13945316314697265,92.59492492675781,95.56134033203125,12.06820297241211,71.50273132324219,-0.005250591701931423,-0.0013333333333333333,0.31107142857142855,0.004211298624674479,2.2521300315856934,0.06591600179672241,26.367000579833984,-0.03296017116970486,0.284060796101888
11118,-0.9127905934570312,0.09960939407348633,82.75462341308594,88.0123291015625,14.64590835571289,68.22944641113281,-0.00297745598687066,0.0,0.30607142857142855,-0.0,1.1974740028381348,0.8678940534591675,26.279109954833984,-0.058418952094184025,0.3490717993842231
