,WD,WS,AIL_1,AIL_2,ELEV_1,ELEV_2,RUDD,ALT,GS,TH,PTCH,ROLL,PLA_1,AIL,ELEV
4762,0.05291652020941847,0.5777345275878907,84.0025634765625,84.22760009765625,-7.060028076171875,91.44927978515625,-0.02866363525390625,0.851,0.4089285714285714,0.011686535297309003,-3.6143938475341812,0.16479000449180603,35.24388885498047,-0.0025004069010416668,-0.1501034206814236
4763,0.07244777020941848,0.5976564025878907,83.98210144042969,84.77996826171875,-6.998653411865234,92.55400848388672,-0.011842600504557292,0.848,0.4064285714285714,0.014371997401258656,-3.4496046477050797,0.2197200059890747,35.15599822998047,-0.008865186903211806,-0.1616962432861328
4764,0.06072902020941847,0.5777345275878907,84.69813537597656,84.18669128417969,-7.325981140136719,91.65385437011719,-0.0054779052734375,0.8443333333333334,0.4017857142857143,0.012418957172309003,-4.240597384521486,1.021697998046875,35.15599822998047,0.005682712131076389,-0.15533150566948783
4765,0.06854152020941848,0.5578126525878906,83.90027618408203,88.6056137084961,-7.3668975830078125,91.1628646850586,-0.029118262396918403,0.839,0.3989285714285714,0.014433032557508656,-4.482288973876955,1.0436700582504272,35.15599822998047,-0.05228152804904514,-0.15033069186740453
4766,0.07244777020941848,0.5777345275878907,85.0050048828125,85.43462371826172,-6.630409240722656,90.569580078125,-0.009569507175021702,0.8333333333333334,0.395,0.016080981776258656,-4.460316317626955,0.20873400568962097,35.15599822998047,-0.004773542616102431,-0.13555543687608507
4767,0.07244777020941848,0.5578126525878906,85.31187438964844,84.28897857666016,-6.221248626708984,90.61050415039062,-0.015024948120117187,0.828,0.39285714285714285,0.015043384120008656,-3.6912962370605484,-0.801977770874025,35.15599822998047,0.011365509033203125,-0.13146391974555122
4768,0.06463527020941848,0.5378907394409179,84.63676452636719,81.42485809326172,-6.323539733886719,90.30363464355469,-0.00047704908582899306,0.8223333333333334,0.3892857142857143,0.013426037250434003,-3.262842791625978,-1.4831110411376969,35.15599822998047,0.03568784925672743,-0.12919082641601562
4769,0.08026027020941848,0.5777345275878907,83.92073059082031,83.53202819824219,-6.159877777099609,90.671875,-0.02093505859375,0.8173333333333334,0.3871428571428571,0.015134936854383656,-3.1310106688232437,-1.549027102539064,36.29856872558594,0.0043189154730902775,-0.13146391974555122
4770,0.09197902020941848,0.5578126525878906,85.78240966796875,85.35279846191406,-6.221248626708984,90.73324584960938,-0.006841744316948784,0.8116666666666666,0.38357142857142856,0.016172534510633656,-3.0541082792968766,0.5273280143737793,36.82590866088867,0.004773457845052083,-0.13282771640353733
4771,0.09197902020941848,0.5378907394409179,85.74149322509766,85.57783508300781,-6.303081512451172,90.30363464355469,-0.008660252888997395,0.806,0.3821428571428571,0.016355639979383656,-3.3287588530273453,1.1535300016403198,41.22040939331055,0.0018184238009982638,-0.12896351284450955
4772,0.08416652020941848,0.49804698944091796,85.5982894897461,82.91828918457031,-6.037128448486328,89.79217529296875,0.0017960866292317708,0.8013333333333333,0.38035714285714284,0.015195972010633656,-3.581436770507814,1.032684087753296,42.71453857421875,0.02977778116861979,-0.12032559712727865
4773,0.09197902020941848,0.5578126525878906,86.04837036132812,83.16378784179688,-6.691783905029297,90.28317260742188,-0.01843460930718316,0.797,0.38,0.01797298684895831,-3.0541082792968766,0.8239500522613525,44.82389831542969,0.03205091688368056,-0.13305507236056857
4774,0.09197902020941848,0.5378907394409179,82.65233612060547,81.01570129394531,-5.996212005615234,89.93538665771484,-0.010478719075520834,0.791,0.3796428571428571,0.01840023294270831,-2.7355143004150406,0.9228240251541138,44.82389831542969,0.01818483140733507,-0.1214622073703342
4775,0.09197902020941848,0.478125114440918,81.56806182861328,86.70301818847656,-5.8939208984375,90.0785903930664,0.0036145528157552082,0.7856666666666666,0.3796428571428571,0.01769832864583331,-1.9335371428222672,3.790170192718506,44.82389831542969,-0.05705507066514757,-0.12191679212782118
4776,0.05291652020941847,0.438281364440918,86.80531311035156,85.94607543945312,-5.9757537841796875,90.20133972167969,0.0040691799587673615,0.7793333333333333,0.3782142857142857,0.015531665370008656,-1.6698728972167984,4.229609966278076,44.82389831542969,0.009547085232204862,-0.12418992784288195
4777,0.05291652020941847,0.45820323944091795,84.90271759033203,84.32989501953125,-6.118961334228516,89.99675750732422,-0.03184598286946615,0.7736666666666666,0.37785714285714284,0.01794246927083331,-1.9994532042236344,1.6808580160140991,44.82389831542969,0.006364695231119792,-0.12350798712836372
4778,0.06854152020941848,0.45820323944091795,84.5958480834961,84.69813537597656,-5.484760284423828,90.42637634277344,-0.02525397406684028,0.7666666666666667,0.3775,0.021024659890407964,-1.8017050200195328,0.6481740474700928,48.60316848754883,-0.0011365254720052083,-0.12123485141330295
4779,0.04510402020941847,0.438281364440918,84.67768096923828,85.74149322509766,-6.2007904052734375,90.99920654296875,-0.002068201700846354,0.7636666666666667,0.3782142857142857,0.01775936380208331,-1.4831110411376969,1.021697998046875,48.60316848754883,-0.011820136176215277,-0.1355555216471354
4780,0.021666520209418474,0.3785157012939453,84.53446960449219,86.5188980102539,-6.630409240722656,90.73324584960938,-0.013661109076605903,0.757,0.37892857142857145,0.015592700526258656,-1.9335371428222672,1.2963480949401855,48.075828552246094,-0.02204920450846354,-0.1373739454481337
4781,-0.01348970201280382,0.3187500762939453,85.78240966796875,85.47554016113281,-6.384914398193359,90.42637634277344,-0.009114880032009548,0.753,0.3792857142857143,0.012449474750434003,-2.482836382934572,0.9008520245552063,47.987937927246094,0.003409661187065972,-0.13123656378851997
4782,-0.01739595201280382,0.3585938262939453,85.70057678222656,82.22271728515625,-6.384914398193359,91.04011535644531,-0.022526211208767362,0.746,0.3807142857142857,0.012052746234809003,-3.3287588530273453,-1.0986010008544937,47.987937927246094,0.03864288330078125,-0.1380558861626519
4783,0.017760270209418474,0.33867195129394534,81.67034912109375,89.0147705078125,-6.2007904052734375,89.89447021484375,-0.0250266604953342,0.7396666666666667,0.3825,0.014738208338758656,-4.910742419311525,-1.2524038725585953,47.987937927246094,-0.08160468207465278,-0.12328067355685764
4784,0.0021352979871961807,0.3585938262939453,88.68744659423828,87.27584838867188,-5.055145263671875,89.38301849365234,-0.005250591701931423,0.7316666666666667,0.38607142857142857,0.013303966937934003,-4.800882952758791,0.373524010181427,47.987937927246094,0.015684424506293402,-0.10486848619249133
4785,-0.05255220201280382,0.33867195129394534,84.6572265625,85.02546691894531,-5.730258941650391,90.71278381347656,-0.009114880032009548,0.7286666666666667,0.38857142857142857,0.007293531629774305,-3.987919467041017,-0.15380539233398594,47.109039306640625,-0.004091559516059028,-0.1271449195014106
4786,-0.06427095201280382,0.3187500762939453,85.61874389648438,83.552490234375,-6.3644561767578125,89.99675750732422,-0.00775099860297309,0.721,0.3917857142857143,0.005859205457899305,-4.844826357910158,-0.4614130430908219,44.29655838012695,0.0229583740234375,-0.12623570760091146
4787,-0.01739595201280382,0.3187500762939453,83.83889770507812,81.8953857421875,-5.914379119873047,89.93538665771484,-0.028436321682400175,0.7153333333333334,0.3925,0.010343846630859351,-4.734966891357423,-2.197201388427736,44.12078094482422,0.021594577365451388,-0.1205529530843099
4788,0.009947770209418474,0.41835948944091794,84.32989501953125,83.81844329833984,-5.607509613037109,90.0785903930664,-0.009569507175021702,0.7086666666666667,0.39357142857142857,0.011137303662109351,-3.845101016113283,-2.1312853270263687,44.12078094482422,0.0056827969021267365,-0.11873444451226128
4789,0.009947770209418474,0.3585938262939453,84.06393432617188,81.36347961425781,-5.832546234130859,89.54668426513672,-0.012069914076063368,0.703,0.39464285714285713,0.009429677327473959,-3.91101707751465,-2.823403018066408,44.12078094482422,0.030005052354600693,-0.11532478332519532
4790,0.0021352979871961807,0.29882820129394533,77.35371398925781,82.46821594238281,-5.423389434814453,89.62850952148438,-0.01797998216417101,0.6983333333333334,0.39464285714285713,0.006347486707899305,-3.0101648741455094,-2.2850881987304703,44.12078094482422,-0.05682779947916667,-0.11168776618109809
4791,0.017760270209418474,0.29882820129394533,83.06149291992188,81.11798858642578,-5.607509613037109,91.32653045654297,-0.01661614312065972,0.692,0.3942857142857143,0.006591627332899305,-1.8895918303222672,-1.4611383848876969,44.12078094482422,0.021594492594401042,-0.13260044521755643
4792,0.07635402020941848,0.3187500762939453,80.8929443359375,83.77752685546875,-6.528118133544922,90.65141296386719,-0.011842600504557292,0.6843333333333333,0.39321428571428574,0.010679539990234351,-2.504809039184572,-1.7028299742431656,43.85710906982422,-0.03205091688368056,-0.135328123304579
4793,0.12322902020941848,0.39843757629394533,83.28652954101562,83.47065734863281,-6.037128448486328,90.09904479980469,-0.03593758477105035,0.679,0.3925,0.01745418802083331,-3.3177725249023453,-0.9887415343017594,43.505550384521484,-0.002045864529079861,-0.12373525831434462
4794,0.11541652020941848,0.33867195129394534,83.34790802001953,92.43125915527344,-6.2007904052734375,89.91493225097656,0.012707010904947916,0.6756666666666666,0.3921428571428571,0.014341479823133656,-3.3287588530273453,2.680583953857422,43.417659759521484,-0.1009261237250434,-0.1235080295138889
4795,0.09588527020941848,0.3187500762939453,87.6031723022461,85.84378051757812,-6.098503112792969,90.69232940673828,-0.014797634548611112,0.6703333333333333,0.3917857142857143,0.014585620448133656,-2.7465006285400406,1.812690019607544,43.417659759521484,0.019548797607421876,-0.1310092502170139
4796,0.10760402020941848,0.3785157012939453,85.92561340332031,83.75706481933594,-6.078044891357422,90.36500549316406,-0.01775266859266493,0.663,0.3914285714285714,0.01800350442708331,-3.4056612425537125,-0.06591667468261875,43.417659759521484,0.024094984266493057,-0.12714500427246095
4797,0.13494777020941848,0.3585938262939453,84.18669128417969,85.5982894897461,-5.8939208984375,90.03767395019531,-0.018889236450195312,0.657,0.3914285714285714,0.020017579812282964,-3.834114687988283,-0.06591667468261875,43.417659759521484,-0.015684424506293402,-0.12146216498480902
4798,0.09197902020941848,0.39843757629394533,87.66455078125,84.86180114746094,-5.709800720214844,90.05813598632812,0.002932612101236979,0.6506666666666666,0.3914285714285714,0.01721004739583331,-3.4166475706787125,0.23070600628852844,43.417659759521484,0.03114166259765625,-0.11964374118381077
4799,0.08416652020941848,0.3785157012939453,85.557373046875,85.31187438964844,-5.771175384521484,90.1195068359375,0.005205747816297743,0.6453333333333333,0.39107142857142857,0.015226489588758656,-2.823403018066408,0.3076080083847046,43.417659759521484,0.002727762858072917,-0.12100758022732205
4800,0.06463527020941848,0.41835948944091794,87.5213394165039,85.455078125,-5.934837341308594,90.42637634277344,-0.01252454121907552,0.64,0.39071428571428574,0.014738208338758656,-2.6805845671386734,0.14281800389289856,43.417659759521484,0.022958458794487848,-0.12623570760091146
4801,0.09979152020941848,0.33867195129394534,83.42974090576172,83.28652954101562,-6.098503112792969,90.671875,-0.021389685736762153,0.6336666666666667,0.39071428571428574,0.016630298182508656,-3.493548052856447,-1.4281813078613297,43.417659759521484,0.0015912373860677083,-0.13078197903103297
4802,0.13104152020941848,0.2789063262939453,80.52470397949219,84.14576721191406,-5.955295562744141,90.1604232788086,-0.010933346218532987,0.63,0.3914285714285714,0.016264087245008656,-4.196652072021486,-0.845923083374025,43.417659759521484,-0.04023403591579861,-0.12350798712836372
4803,0.08807277020941848,0.33867195129394534,84.94363403320312,85.39370727539062,-5.8120880126953125,90.03767395019531,-0.018889236450195312,0.6216666666666667,0.3914285714285714,0.014127941547309003,-4.031862872192384,0.4284540116786957,43.417659759521484,-0.0050008138020833336,-0.12055291069878472
4804,0.04510402020941847,0.3187500762939453,85.33233642578125,84.16622924804688,-6.057586669921875,90.05813598632812,0.011797756618923612,0.6156666666666667,0.3921428571428571,0.009826405843098959,-3.91101707751465,0.8019779920578003,43.417659759521484,0.012956746419270833,-0.1235080295138889
4805,0.08807277020941848,0.3187500762939453,85.16867065429688,80.8929443359375,-6.078044891357422,89.73080444335938,-0.03184598286946615,0.612,0.3925,0.014585620448133656,-4.196652072021486,-0.823950427124025,43.417659759521484,0.04750807020399306,-0.12009832594129774
4806,0.13104152020941848,0.33867195129394534,84.84133911132812,84.554931640625,-5.505218505859375,89.89447021484375,-0.01911655002170139,0.606,0.39357142857142857,0.01852230325520831,-3.8011576109619156,-0.6042314940185562,43.417659759521484,0.003182305230034722,-0.11555209689670139
4807,0.08807277020941848,0.39843757629394533,82.63188171386719,81.38394165039062,-5.9757537841796875,89.64897155761719,-0.004114023844401042,0.6003333333333334,0.3939285714285714,0.014860278651258656,-3.91101707751465,-1.175503390380861,43.417659759521484,0.013866000705295138,-0.11805250379774306
4808,0.07635402020941848,0.41835948944091794,85.557373046875,81.58851623535156,-5.505218505859375,91.14241027832031,-0.015706888834635415,0.593,0.39357142857142857,0.013426037250434003,-3.229883807250978,-0.49437012011718906,43.417659759521484,0.04409840901692708,-0.12941809760199652
4809,0.03729152020941847,0.45820323944091795,82.01814270019531,83.90027618408203,-6.916820526123047,90.89691162109375,0.012025070190429688,0.589,0.39285714285714285,0.008300611707899306,-3.0541082792968766,0.6262019872665405,43.417659759521484,-0.020912594265407987,-0.14237480163574218
4810,0.029479020209418474,0.438281364440918,84.39126586914062,81.32257080078125,-6.507663726806641,90.83554077148438,-0.015934202406141493,0.5836666666666667,0.3914285714285714,0.008361646864149306,-3.7352415495605484,0.04394400119781494,43.241878509521484,0.034096611870659724,-0.13714671664767794
4811,0.03338527020941847,0.41835948944091794,83.81844329833984,84.14576721191406,-6.425830841064453,90.93782806396484,-0.010933346218532987,0.579,0.39071428571428574,0.008392164442274306,-3.91101707751465,0.14281800389289856,42.89031982421875,-0.003636932373046875,-0.13737398783365887
4812,0.03338527020941847,0.41835948944091794,82.42729949951172,83.42974090576172,-6.487205505371094,90.79461669921875,-0.007296371459960938,0.5733333333333334,0.39,0.008025953504774306,-3.954960482666017,-0.15380539233398594,42.89031982421875,-0.011138237847222222,-0.13646469116210938
4813,0.05291652020941847,0.41835948944091794,82.93875122070312,84.75950622558594,-6.405372619628906,90.6309585571289,-0.02866363525390625,0.568,0.3892857142857143,0.010526952099609351,-4.196652072021486,-0.4394403868408219,42.89031982421875,-0.020230611165364582,-0.1337370130750868
4814,0.06463527020941848,0.438281364440918,84.71859741210938,84.84133911132812,-6.262165069580078,90.54912567138672,-0.009569507175021702,0.5616666666666666,0.3889285714285714,0.012083263812934003,-4.152708666870119,0.5822579860687256,42.89031982421875,-0.0013637966579861111,-0.13123656378851997
4815,0.05291652020941847,0.45820323944091795,85.43462371826172,85.557373046875,-6.159877777099609,90.24225616455078,-0.006387117173936632,0.556,0.38857142857142857,0.011564464984809003,-4.097778933593752,0.8788800239562988,42.89031982421875,-0.0013638814290364584,-0.12669037712944878
4816,0.06072902020941847,0.438281364440918,85.5164566040039,82.59095764160156,-6.037128448486328,89.95584106445312,-0.022298897637261283,0.5503333333333333,0.38857142857142857,0.012449474750434003,-3.7242552214355484,-0.7470480375976578,42.89031982421875,0.03250554402669271,-0.12214410569932725
4817,0.08026027020941848,0.45820323944091795,83.1024169921875,82.12042999267578,-5.464302062988281,89.34210205078125,-0.02207158406575521,0.544,0.38821428571428573,0.014646655604383656,-2.911289828369142,-1.153530734130861,40.60517883300781,0.01091096666124132,-0.10896004570855035
4818,0.09588527020941848,0.49804698944091796,82.69325256347656,82.69325256347656,-5.136974334716797,89.97630310058594,-0.011387973361545138,0.5383333333333333,0.3871428571428571,0.016782886073133656,-1.7357889586181656,-0.9228254729003922,38.93526840209961,0.0,-0.11236974928114149
4819,0.11932277020941848,0.5179688644409179,83.16378784179688,84.28897857666016,-5.8939208984375,90.38545989990234,-0.02093505859375,0.5353333333333333,0.385,0.01989559427083331,-1.4611383848876969,-0.2526785307617203,38.84737777709961,-0.01250211927625868,-0.12532645331488715
4820,0.12322902020941848,0.5179688644409179,94.10881805419922,83.98210144042969,-5.996212005615234,90.71278381347656,-0.0013863033718532986,0.533,0.38107142857142856,0.021390870827907964,-1.9994532042236344,0.9667680263519287,38.84737777709961,0.11251907348632813,-0.13009995354546441
4821,0.13104152020941848,0.41835948944091794,85.86424255371094,85.08683776855469,-6.3644561767578125,90.81507873535156,-0.014570320977105035,0.5306666666666666,0.3782142857142857,0.020322755593532964,-1.7687460356445328,0.1538040041923523,38.320037841796875,0.008637830946180555,-0.13532816569010417
4822,0.11932277020941848,0.438281364440918,87.1121826171875,85.12775421142578,-6.712242126464844,90.48774719238281,-0.012297227647569445,0.5273333333333333,0.37464285714285717,0.01937679544270831,-1.8566347532959,-0.7250772886962906,27.68535041809082,0.02204920450846354,-0.13555543687608507
4823,0.12713527020941848,0.45820323944091795,85.02546691894531,84.49356079101562,-6.159877777099609,90.671875,-0.01797998216417101,0.5233333333333333,0.3725,0.020566896218532964,-2.559738772460939,-1.549027102539064,27.68535041809082,0.0059100680881076385,-0.13146391974555122
4824,0.11932277020941848,0.478125114440918,84.61630249023438,83.94119262695312,-6.425830841064453,91.32653045654297,-0.00843293931749132,0.5196666666666667,0.36892857142857144,0.01891903177083331,-3.3946749144287125,-1.3293062620849625,27.68535041809082,0.007501220703125,-0.14169290330674914
4825,0.11541652020941848,0.45820323944091795,84.37080383300781,83.94119262695312,-8.144302368164062,92.20622253417969,-0.009796820746527778,0.514,0.36642857142857144,0.01721004739583331,-4.306513445922853,-0.9777552061767594,27.68535041809082,0.004773457845052083,-0.17056138780381944
4826,0.08807277020941848,0.438281364440918,84.18669128417969,83.87982177734375,-7.796516418457031,89.93538665771484,-0.009114880032009548,0.5086666666666667,0.3625,0.012998791156684003,-6.130188601562502,-0.5822588377685562,31.113059997558594,0.003409661187065972,-0.14146558973524306
4827,0.03338527020941847,0.39843757629394533,83.75706481933594,81.24073791503906,-6.323539733886719,91.73568725585938,0.009524663289388021,0.5063333333333333,0.3603571428571429,0.004394446478949653,-5.52595962817383,0.04394400119781494,34.101318359375,0.027959187825520832,-0.14510252210828994
4828,0.00604154798719618,0.39843757629394533,82.42729949951172,84.22760009765625,-7.387355804443359,91.53111267089844,-0.0050232781304253475,0.49933333333333335,0.35642857142857143,0.001007080078125,-5.031588213989259,0.5053560137748718,34.101318359375,-0.02000333997938368,-0.15464964972601997
4829,0.021666520209418474,0.3785157012939453,83.79798889160156,84.43218231201172,-7.121402740478516,91.46973419189453,-0.021844270494249134,0.49533333333333335,0.3539285714285714,0.0030211554633246527,-5.52595962817383,0.747048020362854,34.101318359375,-0.007046593560112847,-0.15101263258192274
4830,0.0021352979871961807,0.3785157012939453,84.57539367675781,84.16622924804688,-7.162319183349609,91.14241027832031,0.003387239244249132,0.491,0.35,0.0013427734375,-5.811594622680666,1.0107120275497437,34.277099609375,0.004546271430121528,-0.14783032735188803
4831,0.021666520209418474,0.3785157012939453,84.80043029785156,84.57539367675781,-6.834991455078125,91.20378112792969,-0.021844270494249134,0.486,0.3475,0.004302893744574653,-5.712721484252931,0.4394400119781494,34.277099609375,0.0025004069010416668,-0.14487525092230902
4832,0.03338527020941847,0.41835948944091794,84.80043029785156,84.67768096923828,-6.773616790771484,91.0810317993164,-0.02389009263780382,0.481,0.3439285714285714,0.006255933973524305,-5.4270845823974625,-0.02197326953125156,34.277099609375,0.0013638814290364584,-0.14282942877875435
4833,0.025572770209418474,0.438281364440918,84.73905181884766,81.32257080078125,-6.67132568359375,90.69232940673828,-0.008660252888997395,0.476,0.3417857142857143,0.005248938666449653,-5.4600435667724625,-0.18676246936035312,34.277099609375,0.03796090020073785,-0.1373739454481337
4834,0.03338527020941847,0.39843757629394533,84.80043029785156,77.86516571044922,-6.180332183837891,90.38545989990234,-0.01911655002170139,0.47333333333333333,0.3382142857142857,0.005859205457899305,-5.174406664916994,-1.1864878111572281,34.277099609375,0.0770584954155816,-0.12850880093044706
4835,0.04901027020941847,0.438281364440918,85.41416931152344,81.40440368652344,-6.7531585693359375,91.59248352050781,-0.002522828843858507,0.4683333333333333,0.3357142857142857,0.007720777723524305,-4.284540789672853,0.8349360227584839,35.24388885498047,0.04455295138888889,-0.148284912109375
4836,0.017760270209418474,0.438281364440918,83.90027618408203,78.78577423095703,-7.489646911621094,90.75370788574219,0.010433875189887153,0.4633333333333333,0.3317857142857143,0.004028235541449653,-5.4160982542724625,1.812690019607544,35.24388885498047,0.05682779947916667,-0.1471483866373698
4837,0.025572770209418474,0.41835948944091794,79.74729919433594,83.83889770507812,-6.1394195556640625,90.0785903930664,-0.020707745022243925,0.4613333333333333,0.3296428571428571,0.006042310926649305,-6.020329135009767,2.120298147201538,35.24388885498047,-0.04546220567491319,-0.1246445549858941
4838,0.03338527020941847,0.45820323944091795,83.14332580566406,83.36836242675781,-5.955295562744141,90.48774719238281,-0.006159803602430555,0.45666666666666667,0.3271428571428571,0.008941396077473959,-5.383141177246095,2.3400180339813232,38.320037841796875,-0.0025004069010416668,-0.1271449195014106
4839,0.021666520209418474,0.3785157012939453,83.47065734863281,84.37080383300781,-6.180332183837891,90.61050415039062,0.0036145528157552082,0.452,0.325,0.008514149983723959,-4.108765261718752,2.4718501567840576,38.320037841796875,-0.010001627604166667,-0.13100929260253907
4840,0.009947770209418474,0.438281364440918,83.69569396972656,85.0459213256836,-6.425830841064453,90.61050415039062,-0.0002497355143229167,0.445,0.3225,0.008849843343098959,-3.92200340563965,2.3400180339813232,38.407928466796875,-0.015002526177300347,-0.133737055460612
4841,-0.01739595201280382,0.438281364440918,84.86180114746094,84.71859741210938,-6.67132568359375,90.30363464355469,-0.0054779052734375,0.43933333333333335,0.32107142857142856,0.006255933973524305,-5.207365649291994,2.2301580905914307,38.407928466796875,0.001591152615017361,-0.13305511474609374
4842,0.009947770209418474,0.478125114440918,84.92317199707031,83.42974090576172,-5.934837341308594,90.13996887207031,-0.034801016913519965,0.43533333333333335,0.3192857142857143,0.012663097797309003,-5.4051119261474625,0.9997260570526123,38.407928466796875,0.01659367879231771,-0.12305340237087674
4843,0.04119777020941847,0.45820323944091795,83.53202819824219,83.49111938476562,-5.791633605957031,90.34454345703125,-0.02752706739637587,0.43066666666666664,0.31785714285714284,0.01751522317708331,-4.734966891357423,0.4064820110797882,38.407928466796875,0.00045454237196180554,-0.1237353006998698
4844,0.04510402020941847,0.438281364440918,83.65477752685547,87.68500518798828,-6.057586669921875,90.30363464355469,-0.006159803602430555,0.426,0.3167857142857143,0.01797298684895831,-4.32848419482422,1.8346620798110962,38.407928466796875,-0.04478030734592014,-0.1262357923719618
4845,0.025572770209418474,0.438281364440918,86.17111206054688,83.98210144042969,-6.2007904052734375,90.1604232788086,0.0024779849582248262,0.42133333333333334,0.31464285714285717,0.016965991541883656,-4.32848419482422,1.7138160467147827,38.407928466796875,0.024322340223524305,-0.12623570760091146
4846,0.029479020209418474,0.41835948944091794,82.38638305664062,82.71371459960938,-5.9757537841796875,89.79217529296875,-0.012297227647569445,0.4166666666666667,0.3132142857142857,0.01824764505208331,-4.141722338745119,0.19774800539016724,38.407928466796875,-0.003637017144097222,-0.11964365641276041
4847,0.05291652020941847,0.438281364440918,83.1024169921875,84.75950622558594,-5.382472991943359,90.05813598632812,-0.016388829549153647,0.41133333333333333,0.31214285714285717,0.021390870827907964,-3.603409426757814,0.1867620050907135,38.407928466796875,-0.018412102593315972,-0.11600676642523872
4848,0.06463527020941848,0.438281364440918,85.72103881835938,82.40684509277344,-5.66888427734375,89.44439697265625,-0.0168434566921658,0.407,0.3107142857142857,0.023374428634982614,-3.823128359863283,-0.5822588377685562,38.407928466796875,0.03682437472873264,-0.11236979166666666
4849,0.07635402020941848,0.39843757629394533,82.57050323486328,83.22515869140625,-5.382472991943359,89.52622985839844,-0.015252261691623263,0.4026666666666667,0.3092857142857143,0.023343911056857614,-3.570450442382814,-0.5932451658935562,38.407928466796875,-0.0072739495171440975,-0.11009669833713108
4850,0.06854152020941848,0.39843757629394533,85.84378051757812,83.85935974121094,-6.67132568359375,89.6080551147461,0.003841866387261285,0.397,0.30857142857142855,0.022397950906032964,-3.504534380981447,0.32958000898361206,38.407928466796875,0.022049119737413195,-0.12532645331488715
4851,0.06854152020941848,0.3785157012939453,81.52714538574219,81.01570129394531,-5.423389434814453,88.58515930175781,-0.015252261691623263,0.393,0.30642857142857144,0.022306398171657964,-3.559464114257814,-0.9228254729003922,38.407928466796875,0.005682712131076389,-0.10009498596191406
4852,0.07244777020941848,0.39843757629394533,85.82332611083984,82.26363372802734,-4.686901092529297,89.50576782226562,-0.0059324900309244795,0.38866666666666666,0.30607142857142855,0.022092775124782964,-2.7355143004150406,-0.3735243254394547,38.407928466796875,0.03955213758680556,-0.10214076571994357
4853,0.07244777020941848,0.33867195129394534,82.28408813476562,80.25875091552734,-5.11651611328125,88.83065795898438,-0.0054779052734375,0.38266666666666665,0.3053571428571429,0.020536378640407964,-2.966221468994142,-1.0326849394531266,38.407928466796875,0.02250374688042535,-0.09941304524739583
4854,0.06854152020941848,0.33867195129394534,85.70057678222656,84.18669128417969,-4.830104827880859,88.85111236572266,-0.0054779052734375,0.378,0.30464285714285716,0.01882747903645831,-3.0321375303955094,-0.18676246936035312,42.099308013916016,0.01682094997829861,-0.09645796881781685
4855,0.05291652020941847,0.3585938262939453,83.24562072753906,82.32501220703125,-4.727817535400391,88.72836303710938,-0.009796820746527778,0.37433333333333335,0.30392857142857144,0.016843921229383656,-2.955235140869142,0.10986000299453735,44.29655838012695,0.010228983561197917,-0.09395756191677518
4856,0.029479020209418474,0.2789063262939453,84.35034942626953,79.8905029296875,-4.707359313964844,88.54424285888672,0.002705298529730903,0.37,0.30464285714285716,0.013395519672309003,-2.6586119108886734,0.3076080083847046,44.38444900512695,0.04955384996202257,-0.09168446858723958
4857,0.029479020209418474,0.33867195129394534,85.88470458984375,81.62944030761719,-4.543693542480469,88.1555404663086,-0.007069057888454861,0.36233333333333334,0.30642857142857144,0.013761730609809003,-2.6256548338623062,0.6481740474700928,44.38444900512695,0.04728071424696181,-0.0855470445421007
4858,0.08807277020941848,0.39843757629394533,81.75218200683594,81.91584777832031,-4.441402435302734,89.52622985839844,-0.035255644056532115,0.36033333333333334,0.3078571428571429,0.022611573952907964,-2.933262484619142,-0.12084640795898594,44.38444900512695,-0.001818508572048611,-0.0996403588189019
4859,0.11932277020941848,0.3785157012939453,81.547607421875,80.13600158691406,-5.177890777587891,89.68988800048828,-0.022526211208767362,0.357,0.30857142857142855,0.02691438292643227,-3.0760809355468766,-0.07690300280761875,44.38444900512695,0.01568450927734375,-0.10964198642306858
4860,0.11541652020941848,0.29882820129394533,84.5140151977539,85.80287170410156,-5.44384765625,89.38301849365234,0.011797756618923612,0.35533333333333333,0.30964285714285716,0.023923745041232614,-3.6473528319091812,1.263390064239502,44.38444900512695,-0.014320627848307291,-0.1091874016655816
4861,0.09197902020941848,0.2789063262939453,85.65966796875,86.76439666748047,-5.239265441894531,88.87156677246094,-0.005250591701931423,0.35,0.3107142857142857,0.022153810281032964,-3.976933138916017,1.647900104522705,44.38444900512695,-0.01227476331922743,-0.1012314690483941
4862,0.017760270209418474,0.3187500762939453,87.70545959472656,84.57539367675781,-4.5846099853515625,88.31919860839844,0.011115815904405382,0.3466666666666667,0.31142857142857144,0.015836841151258656,-4.119751589843752,1.4171940088272095,44.38444900512695,0.03477851019965278,-0.08782009548611111
4863,-0.00958345201280382,0.3585938262939453,83.92073059082031,83.24562072753906,-4.380031585693359,88.68744659423828,-0.012979168362087673,0.3413333333333333,0.31214285714285717,0.011991711078559003,-2.9772058897705094,-0.07690300280761875,44.56023025512695,0.007501220703125,-0.0896386464436849
4864,0.0021352979871961807,0.39843757629394533,79.33814239501953,85.12775421142578,-4.543693542480469,89.81263732910156,-0.01957117716471354,0.337,0.3125,0.012937756000434003,-2.219172137329103,0.20873400568962097,44.56023025512695,-0.06432902018229167,-0.10395923190646701
4865,-0.0017709520128038195,0.3187500762939453,85.84378051757812,88.564697265625,-5.505218505859375,89.75126647949219,-0.0050232781304253475,0.33466666666666667,0.31285714285714283,0.013090343891059003,-2.493822711059572,1.7028300762176514,44.38444900512695,-0.030232408311631945,-0.11396094428168403
4866,-0.03302095201280382,0.3187500762939453,93.04499816894531,78.90852355957031,-5.607509613037109,88.93293762207031,0.001341459486219618,0.3283333333333333,0.31357142857142856,0.011106786083984351,-3.6803099089355484,-0.05493034655761875,44.38444900512695,0.15707194010416667,-0.10600496927897135
4867,0.009947770209418474,0.3785157012939453,78.21295166015625,85.1072998046875,-4.645984649658203,89.1579818725586,-0.02729975382486979,0.32266666666666666,0.31392857142857145,0.014890796229383656,-3.7791849547119156,-0.845923083374025,44.38444900512695,-0.07660386827256944,-0.0978218502468533
4868,0.07635402020941848,0.41835948944091794,85.53691101074219,83.81844329833984,-5.11651611328125,90.36500549316406,-0.029118262396918403,0.322,0.31392857142857145,0.024289955978732614,-3.163967745849611,-0.20873512561035312,44.38444900512695,0.019094085693359374,-0.1164613511827257
4869,0.11151027020941848,0.39843757629394533,85.49600219726562,84.5958480834961,-6.650867462158203,91.32653045654297,-0.02207158406575521,0.318,0.31285714285714283,0.02898949346788192,-2.7574869566650406,-0.2526785307617203,44.38444900512695,0.010001712375217013,-0.1441933102077908
4870,0.09979152020941848,0.41835948944091794,83.87982177734375,81.85447692871094,-6.507663726806641,89.54668426513672,-0.0043413374159071184,0.313,0.31214285714285717,0.02776887511393227,-3.592423098632814,-0.9118391447753922,44.38444900512695,0.022503831651475695,-0.12282608879937065
4871,0.09197902020941848,0.39843757629394533,86.559814453125,85.92561340332031,-5.11651611328125,89.34210205078125,0.006114959716796875,0.309,0.3117857142857143,0.025052895431857614,-3.6143938475341812,-0.4723993712158219,44.38444900512695,0.007046678331163195,-0.10509575737847222
4872,0.09197902020941848,0.41835948944091794,85.20958709716797,84.82088470458984,-5.218807220458984,89.34210205078125,-0.0168434566921658,0.30466666666666664,0.31142857142857144,0.025266518478732614,-2.5926958494873062,-0.6811319761962906,44.38444900512695,0.0043189154730902775,-0.10623232523600261
4873,0.09588527020941848,0.39843757629394533,85.557373046875,86.17111206054688,-5.075603485107422,89.26026916503906,-0.006841744316948784,0.298,0.31107142857142855,0.024839272384982614,-2.0104395323486344,0.4064820110797882,44.38444900512695,-0.006819322374131944,-0.10373191833496094
4874,0.04901027020941847,0.3785157012939453,87.19401550292969,87.1121826171875,-5.096061706542969,89.1170654296875,0.011797756618923612,0.2966666666666667,0.31107142857142855,0.01885799661458331,-2.3619905882568375,1.5709980726242065,44.38444900512695,0.0009092542860243056,-0.10236807929144966
4875,-0.0017709520128038195,0.39843757629394533,87.21446990966797,86.53935241699219,-5.300640106201172,89.28073120117188,0.007024214002821181,0.292,0.31107142857142855,0.012724132953559003,-3.0980535917968766,0.6262019872665405,44.56023025512695,0.007501305474175347,-0.10645968119303385
4876,-0.00567720201280382,0.3785157012939453,82.12042999267578,83.90027618408203,-5.136974334716797,89.30118560791016,-0.03616489834255642,0.2896666666666667,0.31142857142857144,0.012266369281684003,-3.1090380125732437,-1.1864878111572281,44.56023025512695,-0.01977606879340278,-0.10486844380696615
4877,-0.00567720201280382,0.41835948944091794,82.97966003417969,83.20470428466797,-4.952854156494141,89.17843627929688,-0.01661614312065972,0.28733333333333333,0.31142857142857144,0.010679539990234351,-2.548752444335939,-1.1095873289794937,44.56023025512695,-0.002500491672092014,-0.10145878261990017
4878,0.0021352979871961807,0.3585938262939453,83.34790802001953,81.17935943603516,-5.096061706542969,89.32164001464844,-0.020480431450737847,0.2846666666666667,0.31107142857142855,0.010679539990234351,-2.219172137329103,-1.549027102539064,44.56023025512695,0.024094984266493057,-0.10464113023546007
4879,0.04119777020941847,0.41835948944091794,79.4404296875,84.96409606933594,-5.11651611328125,89.79217529296875,-0.03343713548448351,0.2823333333333333,0.3107142857142857,0.015409595057508656,-2.2850881987304703,-0.9338098936767594,44.56023025512695,-0.061374070909288196,-0.11009657118055556
4880,0.07635402020941848,0.3585938262939453,84.6572265625,86.74394226074219,-5.464302062988281,89.30118560791016,-0.027754380967881943,0.28,0.31,0.01931576028645831,-2.3729769163818375,1.021697998046875,44.56023025512695,-0.02318572998046875,-0.10850541856553819
4881,0.03338527020941847,0.3785157012939453,86.08927917480469,86.1097412109375,-5.239265441894531,89.54668426513672,0.011797756618923612,0.2793333333333333,0.30857142857142855,0.014433032557508656,-1.9445234709472672,1.735788106918335,44.56023025512695,-0.00022735595703125,-0.10873277452256945
4882,0.009947770209418474,0.33867195129394534,82.71371459960938,83.06149291992188,-5.44384765625,89.46485137939453,-0.0059324900309244795,0.2773333333333333,0.3082142857142857,0.012296886859809003,-1.8566347532959,0.516342043876648,44.56023025512695,-0.0038642035590277777,-0.1100966559516059
4883,0.029479020209418474,0.3785157012939453,84.14576721191406,81.34302520751953,-5.484760284423828,90.569580078125,-0.028436321682400175,0.2753333333333333,0.30642857142857144,0.015440112635633656,-1.9115644865722672,-0.8898664885253922,44.56023025512695,0.031141577826605902,-0.12282600402832031
4884,0.06463527020941848,0.438281364440918,84.61630249023438,86.74394226074219,-5.873462677001953,90.30363464355469,-0.021616956922743055,0.2713333333333333,0.30607142857142855,0.01962093606770831,-2.6586119108886734,-0.7250772886962906,44.56023025512695,-0.02364044189453125,-0.12418997022840712
4885,0.07635402020941848,0.41835948944091794,79.33814239501953,84.45263671875,-6.016670227050781,90.42637634277344,-0.012979168362087673,0.269,0.3053571428571429,0.020597413796657964,-3.526507037231447,-0.5602861815185562,44.56023025512695,-0.05682771470811632,-0.12714496188693578
4886,0.08416652020941848,0.41835948944091794,84.49356079101562,84.67768096923828,-5.914379119873047,90.13996887207031,-0.01729808383517795,0.266,0.3053571428571429,0.021299318093532964,-3.943974154541017,-0.2746511870117203,44.56023025512695,-0.002045779758029514,-0.12282608879937065
4887,0.07244777020941848,0.39843757629394533,86.02790832519531,89.23981475830078,-5.484760284423828,88.85111236572266,0.0065695868598090275,0.262,0.3053571428571429,0.01925472513020831,-4.141722338745119,1.5709980726242065,44.56023025512695,-0.03568784925672743,-0.10373191833496094
4888,0.03338527020941847,0.3785157012939453,83.71615600585938,81.01570129394531,-5.1983489990234375,90.2218017578125,0.0056603749593098955,0.258,0.305,0.014707690760633656,-3.0980535917968766,-0.10986007983398594,44.56023025512695,0.030005052354600693,-0.11577945285373265
4889,0.04510402020941847,0.33867195129394534,81.85447692871094,87.13264465332031,-5.7507171630859375,89.26026916503906,-0.015252261691623263,0.25366666666666665,0.30607142857142855,0.015165454432508656,-3.262842791625978,-0.7470480375976578,44.56023025512695,-0.058646308051215276,-0.1112331814236111
4890,0.06072902020941847,0.3785157012939453,87.05081176757812,81.07707214355469,-4.789188385009766,88.93293762207031,-0.021844270494249134,0.249,0.3067857142857143,0.016965991541883656,-3.932987826416017,-0.6481748991699234,44.56023025512695,0.06637488471137153,-0.09691251118977864
4891,0.04901027020941847,0.33867195129394534,88.74882507324219,84.63676452636719,-4.66644287109375,89.50576782226562,0.0036145528157552082,0.24566666666666667,0.30892857142857144,0.014738208338758656,-3.90003074938965,0.4943700134754181,44.56023025512695,0.045689561631944445,-0.1019134521484375
4892,0.029479020209418474,0.3585938262939453,82.36592102050781,79.9518814086914,-5.484760284423828,89.54668426513672,-0.011842600504557292,0.24,0.30964285714285716,0.011991711078559003,-3.943974154541017,-0.9777552061767594,44.56023025512695,0.026822662353515624,-0.11146049499511719
4893,0.06463527020941848,0.41835948944091794,81.07707214355469,85.0050048828125,-5.300640106201172,90.1195068359375,-0.025935872395833334,0.23666666666666666,0.31035714285714283,0.016965991541883656,-3.570450442382814,-0.3295809202880875,44.56023025512695,-0.04364369710286458,-0.11577941046820747
4894,0.07635402020941848,0.41835948944091794,85.33233642578125,85.33233642578125,-6.037128448486328,90.24225616455078,-0.002068201700846354,0.232,0.31035714285714283,0.01833919778645831,-3.976933138916017,-0.03295769030761875,44.56023025512695,0.0,-0.12532649570041232
4895,0.07635402020941848,0.41835948944091794,85.80287170410156,87.62362670898438,-5.66888427734375,89.03523254394531,-0.01729808383517795,0.22766666666666666,0.3107142857142857,0.01867489114583331,-4.460316317626955,0.8678940534591675,44.56023025512695,-0.020230611165364582,-0.10782352023654514
4896,0.029479020209418474,0.41835948944091794,91.75614929199219,77.23097229003906,-5.648426055908203,89.05569458007812,0.012025070190429688,0.223,0.3117857142857143,0.013029308734809003,-4.559191363403322,0.45042601227760315,44.56023025512695,0.16139085557725694,-0.10782356262207031
4897,0.021666520209418474,0.478125114440918,78.19248962402344,85.23004150390625,-4.993770599365234,90.54912567138672,-0.01547957526312934,0.21866666666666668,0.31214285714285717,0.011594982562934003,-3.7791849547119156,-0.5383154326171891,44.56023025512695,-0.0781950208875868,-0.11714329189724393
4898,0.03338527020941847,0.438281364440918,84.90271759033203,84.67768096923828,-5.66888427734375,89.87400817871094,-0.02866363525390625,0.21633333333333332,0.3125,0.012693615375434003,-3.240870135375978,-1.3402925902099625,44.56023025512695,0.0025004069010416668,-0.11714324951171876
4899,0.03729152020941847,0.438281364440918,81.4453125,81.69081115722656,-5.8939208984375,89.91493225097656,-0.011615286933051215,0.21266666666666667,0.3117857142857143,0.011564464984809003,-3.0870672636718766,-1.9555078917236344,44.56023025512695,-0.002727762858072917,-0.12009836832682291
4900,0.04119777020941847,0.41835948944091794,83.53202819824219,83.47065734863281,-5.709800720214844,90.0172119140625,-0.011615286933051215,0.20966666666666667,0.31142857142857144,0.010313329052734351,-3.229883807250978,-1.8895918303222672,44.56023025512695,0.0006818983289930556,-0.11918902926974827
4901,0.04901027020941847,0.41835948944091794,81.5066909790039,79.72684478759766,-5.566593170166016,90.0172119140625,-0.013888380262586805,0.206,0.31035714285714283,0.009429677327473959,-3.174954073974611,-1.8236757689209,45.79069137573242,0.01977606879340278,-0.11759783426920573
4902,0.04119777020941847,0.41835948944091794,87.74638366699219,87.19401550292969,-5.627967834472656,89.87400817871094,-0.002522828843858507,0.20233333333333334,0.31,0.007324049207899305,-2.6256548338623062,0.29662200808525085,46.142250061035156,0.006137424045138889,-0.1166886223687066
4903,0.009947770209418474,0.438281364440918,81.46577453613281,82.93875122070312,-5.873462677001953,89.54668426513672,0.0008868323432074653,0.19866666666666666,0.30892857142857144,0.0033873664008246527,-2.4608656340332047,0.36253800988197327,46.58169937133789,-0.016366407606336807,-0.11577941046820747
4904,0.009947770209418474,0.41835948944091794,82.85691833496094,84.57539367675781,-5.832546234130859,90.05813598632812,-0.015934202406141493,0.19433333333333333,0.30857142857142855,0.0029906378851996527,-2.164242404052736,0.2197200059890747,47.109039306640625,-0.019094170464409723,-0.12100758022732205
4905,0.013854020209418474,0.438281364440918,84.32989501953125,80.58607482910156,-5.730258941650391,89.1170654296875,0.0049784342447916664,0.18966666666666668,0.30714285714285716,0.0036620246039496527,-2.493822711059572,0.4614120125770569,47.196929931640625,0.041598002115885414,-0.10941471523708768
4906,0.04119777020941847,0.5179688644409179,86.0074462890625,80.46333312988281,-5.464302062988281,90.73324584960938,-0.022526211208767362,0.185,0.30642857142857144,0.009521230061848959,-2.208185809204103,-0.01098694140625156,47.81216049194336,0.06160125732421875,-0.12441719902886285
4907,0.11151027020941848,0.49804698944091796,80.05416870117188,88.564697265625,-6.159877777099609,89.91493225097656,-0.03593758477105035,0.18333333333333332,0.3053571428571429,0.020200685281032964,-2.3729769163818375,-0.03295769030761875,47.987937927246094,-0.09456142849392361,-0.12305344475640191
4908,0.13885402020941848,0.45820323944091795,81.79310607910156,92.98362731933594,-5.382472991943359,89.19889831542969,-0.009342193603515625,0.17933333333333334,0.30464285714285716,0.024747719650607614,-1.8566347532959,2.977205991744995,47.987937927246094,-0.12433912489149306,-0.10645968119303385
4909,0.09197902020941848,0.41835948944091794,90.30363464355469,84.26852416992188,-5.11651611328125,90.13996887207031,0.012252383761935763,0.17566666666666667,0.30392857142857144,0.01910213723958331,-0.834936755249025,1.0546560287475586,49.8336296081543,0.06705678304036458,-0.11396094428168403
4910,0.08026027020941848,0.39843757629394533,82.24317932128906,84.94363403320312,-5.832546234130859,90.05813598632812,-0.01070603264702691,0.171,0.30392857142857144,0.016538745448133656,-1.164517062255861,-0.2746511870117203,50.09729766845703,-0.030005052354600693,-0.12100758022732205
4911,0.09979152020941848,0.29882820129394533,82.93875122070312,87.0098876953125,-5.218807220458984,88.95339965820312,-0.0018409305148654514,0.168,0.30464285714285716,0.015653735682508656,-1.9994532042236344,-0.16478981311035312,50.09729766845703,-0.04523484971788194,-0.10191340976291233
4912,0.09197902020941848,0.33867195129394534,80.77020263671875,80.64745330810547,-5.096061706542969,88.68744659423828,-0.011387973361545138,0.16266666666666665,0.30607142857142855,0.015867358729383656,-2.263117449829103,-0.845923083374025,50.09729766845703,0.0013638814290364584,-0.09759453667534722
4913,0.12713527020941848,0.438281364440918,79.70639038085938,90.1195068359375,-4.4209442138671875,88.97386169433594,-0.03593758477105035,0.157,0.3075,0.022611573952907964,-2.3400179320068375,-0.09887375170898594,50.976200103759766,-0.1157012939453125,-0.09327562120225695
4914,0.10760402020941848,0.39843757629394533,86.37569427490234,84.6572265625,-5.300640106201172,90.0785903930664,0.011570443047417535,0.15533333333333332,0.30857142857142855,0.01870540872395831,-1.9005781584472672,0.8788800239562988,51.151981353759766,0.019094085693359374,-0.11532478332519532
4915,0.06854152020941848,0.3785157012939453,88.87156677246094,87.13264465332031,-5.996212005615234,89.77172088623047,-0.002750142415364583,0.15366666666666667,0.30892857142857144,0.013822765766059003,-2.0433966093750016,0.9887400269508362,51.151981353759766,0.01932135687934028,-0.1196436987982856
4916,0.06854152020941848,0.3785157012939453,81.87493133544922,83.12287139892578,-6.078044891357422,89.50576782226562,-0.02320815192328559,0.149,0.31,0.014494067713758656,-2.6695982390136734,-0.7140909605712906,51.151981353759766,-0.013866000705295138,-0.11759791904025607
4917,0.07244777020941848,0.5378907394409179,82.9592056274414,83.0410385131836,-41.900001525878906,91.26515197753906,-0.006841744316948784,0.14566666666666667,0.31142857142857144,0.016843921229383656,-3.0211512022705094,-0.7909933500976578,51.151981353759766,-0.0009092542860243056,-0.5351683722601996
4918,0.11541652020941848,0.45820323944091795,82.81600189208984,87.72592163085938,-5.055145263671875,90.0172119140625,-0.030482101440429687,0.14266666666666666,0.31214285714285717,0.021116212624782964,-4.37242950732422,-0.2636648588867203,51.151981353759766,-0.0545546637641059,-0.11191507975260416
4919,0.10760402020941848,0.478125114440918,95.04988098144531,80.83157348632812,-41.900001525878906,90.89691162109375,-0.0075236850314670135,0.13966666666666666,0.31392857142857145,0.021207765359157964,-4.965672152587892,0.1538040041923523,50.62464141845703,0.15798119439019098,-0.5310768127441406
4920,0.12322902020941848,0.41835948944091794,84.30943298339844,94.33385467529297,-5.66888427734375,88.81019592285156,-0.020480431450737847,0.13733333333333334,0.31464285714285717,0.021940187234157964,-4.998631136962892,1.5160679817199707,47.72426986694336,-0.11138246324327257,-0.10532311333550347
4921,0.10369777020941848,0.438281364440918,93.31095886230469,83.02058410644531,-6.712242126464844,90.91737365722656,0.0049784342447916664,0.134,0.31464285714285717,0.021238282937282964,-3.92200340563965,1.494096040725708,47.72426986694336,0.1143374972873264,-0.14032906426323785
4922,0.08416652020941848,0.438281364440918,83.5115737915039,81.01570129394531,-6.037128448486328,90.32408142089844,-0.02616318596733941,0.129,0.3142857142857143,0.01931576028645831,-4.020876544067384,-0.4504267149658219,47.54848861694336,0.02773191663953993,-0.1262356652153863
4923,0.08416652020941848,0.3585938262939453,81.62944030761719,77.70149993896484,-41.900001525878906,90.05813598632812,-0.005250591701931423,0.12533333333333332,0.31357142857142856,0.016386157557508656,-4.086792605468752,-0.4174677305908219,47.54848861694336,0.04364378187391493,-0.521757083468967
4924,0.04901027020941847,0.45820323944091795,81.4453125,79.76776123046875,-5.8120880126953125,90.24225616455078,-0.007069057888454861,0.11966666666666667,0.31392857142857145,0.012937756000434003,-4.32848419482422,0.07690200209617615,47.54848861694336,0.018639458550347224,-0.12282604641384548
4925,0.029479020209418474,0.438281364440918,82.75462341308594,86.19157409667969,-5.136974334716797,89.28073120117188,0.0056603749593098955,0.11566666666666667,0.31357142857142856,0.010069188427734351,-4.229611056396486,1.8895920515060425,47.54848861694336,-0.038188340928819446,-0.10464117262098524
4926,0.025572770209418474,0.39843757629394533,76.59677124023438,85.90515899658203,-5.44384765625,89.50576782226562,-0.011615286933051215,0.109,0.3132142857142857,0.009795888264973959,-2.1312853270263687,0.9887400269508362,47.72426986694336,-0.10342653062608508,-0.11055128309461805
4927,0.06463527020941848,0.39843757629394533,81.77264404296875,84.75950622558594,-5.709800720214844,90.44683837890625,-0.0363922119140625,0.10666666666666667,0.31107142857142855,0.016233569666883656,-0.7470480375976578,0.41746801137924194,51.2398681640625,-0.03318735758463542,-0.12396265665690104
4928,0.08416652020941848,0.39843757629394533,82.48867797851562,90.71278381347656,-6.487205505371094,90.50820922851562,-0.022753524780273437,0.1,0.31107142857142855,0.01891903177083331,-1.0986010008544937,0.04394400119781494,51.4156494140625,-0.0913789537217882,-0.13328238593207464
4929,0.06072902020941847,0.438281364440918,75.24653625488281,84.73905181884766,-5.5870513916015625,90.1604232788086,-0.005705218844943577,0.09733333333333333,0.31142857142857144,0.015287524745008656,-2.219172137329103,0.7800060510635376,51.4156494140625,-0.10547239515516493,-0.11941638522677951
4930,0.04510402020941847,0.3785157012939453,81.62944030761719,85.98699188232422,-5.239265441894531,89.52622985839844,-0.007069057888454861,0.093,0.3117857142857143,0.013609142719184003,-2.493822711059572,1.340291976928711,51.4156494140625,-0.04841723971896701,-0.10850550333658854
4931,0.04510402020941847,0.33867195129394534,82.89783477783203,83.85935974121094,-5.157432556152344,88.68744659423828,-0.00775099860297309,0.08966666666666667,0.31214285714285717,0.014066906391059003,-2.0763555937500016,1.2853620052337646,51.4156494140625,-0.01068361070421007,-0.09827643500434027
4932,0.029479020209418474,0.33867195129394534,84.82088470458984,80.29966735839844,-5.218807220458984,88.74882507324219,-0.014570320977105035,0.086,0.3125,0.013181896625434003,-0.8678938322753922,-0.15380539233398594,54.403907775878906,0.050235748291015625,-0.0996403588189019
4933,0.029479020209418474,0.3785157012939453,81.67034912109375,81.52714538574219,-5.239265441894531,89.1170654296875,-0.015024948120117187,0.08166666666666667,0.31392857142857145,0.012266369281684003,-0.19774879748535312,-0.834936755249025,54.403907775878906,0.001591152615017361,-0.10395923190646701
4934,0.025572770209418474,0.39843757629394533,85.96653747558594,80.93386840820312,-6.712242126464844,89.30118560791016,-0.00297745598687066,0.078,0.315,0.011076268505859351,-1.3183199339599625,-0.3515516691894547,54.403907775878906,0.05591854519314236,-0.12237141927083334
4935,0.021666520209418474,0.438281364440918,81.30210876464844,83.0001220703125,-8.185218811035156,91.87889099121094,-0.01547957526312934,0.07466666666666667,0.31535714285714284,0.010587987255859351,-1.3732515745849625,-0.06591667468261875,54.403907775878906,-0.01886681450737847,-0.16737899780273438
4936,0.05291652020941847,0.39843757629394533,85.47554016113281,91.85843658447266,-6.241706848144531,89.91493225097656,-0.018889236450195312,0.07466666666666667,0.315,0.015470630213758656,-2.7574869566650406,0.6371880173683167,47.987937927246094,-0.0709210713704427,-0.12396265665690104
4937,0.08807277020941848,0.3785157012939453,77.29234313964844,87.84866333007812,-6.323539733886719,90.93782806396484,-0.026617813110351562,0.07166666666666667,0.31464285714285717,0.01928524270833331,-3.1090380125732437,-0.2416922026367203,47.987937927246094,-0.11729244656032986,-0.13623741997612848
4938,0.11151027020941848,0.3585938262939453,92.28805541992188,80.11553955078125,-3.9913291931152344,90.28317260742188,-0.023435465494791665,0.06766666666666667,0.31392857142857145,0.022062257546657964,-3.8011576109619156,-0.6701475554199234,47.987937927246094,0.13525017632378472,-0.10305002000596789
4939,0.10369777020941848,0.33867195129394534,78.90852355957031,92.90179443359375,-4.5846099853515625,88.36012268066406,0.0040691799587673615,0.06466666666666666,0.31392857142857145,0.01952938333333331,-3.9989038878173844,0.32958000898361206,47.987937927246094,-0.1554807874891493,-0.08827480740017361
4940,0.06463527020941848,0.45820323944091795,85.61874389648438,89.03523254394531,-5.648426055908203,89.93538665771484,-0.005705218844943577,0.06066666666666667,0.3142857142857143,0.01782039895833331,-3.0211512022705094,0.3954960107803345,47.987937927246094,-0.037960984971788195,-0.11759791904025607
4941,0.09197902020941848,0.45820323944091795,81.0361557006836,94.25202178955078,-6.078044891357422,90.34454345703125,-0.03389176262749566,0.057,0.3132142857142857,0.022245363015407964,-3.1090380125732437,0.5053560137748718,47.987937927246094,-0.14684295654296875,-0.12691764831542968
4942,0.12713527020941848,0.438281364440918,78.4789047241211,85.12775421142578,-5.546134948730469,89.95584106445312,-0.03616489834255642,0.05366666666666667,0.3125,0.02752473448893227,-3.3617159300537125,-0.20873512561035312,47.987937927246094,-0.07387610541449653,-0.1166886223687066
4943,0.11541652020941848,0.39843757629394533,90.75370788574219,83.32745361328125,-4.400489807128906,88.85111236572266,0.011797756618923612,0.051333333333333335,0.3117857142857143,0.024381508713107614,-3.6253801756591812,0.4723980128765106,47.987937927246094,0.08251393636067708,-0.09168446858723958
4944,0.09979152020941848,0.41835948944091794,81.32257080078125,85.06637573242188,-5.239265441894531,89.42393493652344,-0.0168434566921658,0.04766666666666667,0.3117857142857143,0.022306398171657964,-2.493822711059572,-1.2524038725585953,48.075828552246094,-0.04159783257378472,-0.10736889309353298
4945,0.11932277020941848,0.438281364440918,84.90271759033203,86.25294494628906,-6.425830841064453,89.99675750732422,-0.024799346923828125,0.045,0.3107142857142857,0.025083413009982614,-1.7248026304931656,-1.175503390380861,48.075828552246094,-0.015002526177300347,-0.12691764831542968
4946,0.14276027020941848,0.438281364440918,77.70149993896484,88.52378845214844,-6.425830841064453,90.75370788574219,-0.020480431450737847,0.042333333333333334,0.31,0.02630403136393227,-1.6698728972167984,-0.7250772886962906,48.251609802246094,-0.12024765014648438,-0.13532820807562934
4947,0.13494777020941848,0.45820323944091795,90.50820922851562,82.18180847167969,-5.034687042236328,90.77416229248047,-0.010251405504014757,0.03866666666666667,0.30857142857142855,0.02609040831705727,-2.7025572233886734,0.02197200059890747,48.251609802246094,0.09251556396484376,-0.12009832594129774
4948,0.14666652020941848,0.41835948944091794,87.25538635253906,79.74729919433594,-5.136974334716797,89.58760070800781,-0.023662779066297743,0.036333333333333336,0.30857142857142855,0.02627351378580727,-3.4605909758300797,0.04394400119781494,48.251609802246094,0.0834231906467014,-0.10805083380805122
4949,0.13885402020941848,0.438281364440918,92.90179443359375,89.30118560791016,-5.423389434814453,89.32164001464844,0.0049784342447916664,0.03233333333333333,0.30857142857142855,0.02734162902018227,-2.7794596129150406,1.8566340208053589,48.251609802246094,0.040006764729817706,-0.10827810499403212
4950,0.16229152020941848,0.41835948944091794,80.38150024414062,83.83889770507812,-5.300640106201172,89.68988800048828,-0.03661952548556858,0.03,0.3082142857142857,0.03017967901475692,-2.3400179320068375,0.373524010181427,48.251609802246094,-0.03841552734375,-0.11100586785210503
4951,0.15447902020941848,0.39843757629394533,90.61050415039062,85.63920593261719,-5.3620147705078125,89.58760070800781,0.009524663289388021,0.026333333333333334,0.3075,0.02938622198350692,-2.3510042601318375,1.2414180040359497,48.251609802246094,0.05523664686414931,-0.11055128309461805
4952,0.13494777020941848,0.3785157012939453,81.87493133544922,81.547607421875,-5.075603485107422,89.17843627929688,0.0008868323432074653,0.023333333333333334,0.3075,0.02654817198893227,-2.3949495726318375,0.6262019872665405,48.251609802246094,0.003636932373046875,-0.10282266404893663
4953,0.12322902020941848,0.41835948944091794,95.45904541015625,76.49447631835938,-6.405372619628906,91.04011535644531,-0.00047704908582899306,0.019,0.30642857142857144,0.02697541808268227,-1.7907186918945328,0.032958000898361206,48.251609802246094,0.21071743435329862,-0.13828319973415798
4954,0.14666652020941848,0.3187500762939453,80.34058380126953,81.32257080078125,-5.259723663330078,89.23981475830078,0.0008868323432074653,0.017333333333333333,0.3057142857142857,0.02572419737955727,-1.4501520567626969,0.05493000149726868,48.251609802246094,-0.01091096666124132,-0.10555042690700955
4955,0.13104152020941848,0.29882820129394533,81.24073791503906,93.69966125488281,-4.564151763916016,87.25538635253906,-0.022753524780273437,0.012666666666666666,0.30464285714285716,0.022855629806857614,-1.5709978514404312,0.05493000149726868,48.251609802246094,-0.13843248155381943,-0.07577264573838975
4956,0.09197902020941848,0.2789063262939453,79.4813461303711,90.48774719238281,-3.520793914794922,89.05569458007812,-0.0075236850314670135,0.009666666666666667,0.30428571428571427,0.01852230325520831,-0.4504267149658219,-0.6371885710449234,48.251609802246094,-0.12229334513346354,-0.0841832054985894
4957,0.08416652020941848,0.25898443222045897,73.18028259277344,90.50820922851562,-1.9250717163085938,86.37569427490234,-0.03593758477105035,0.006666666666666667,0.3028571428571429,0.015043384120008656,0.373524010181427,-0.3845106535644547,48.251609802246094,-0.19253251817491318,-0.036675177680121525
4958,0.03729152020941847,0.33867195129394534,81.91584777832031,89.6080551147461,-2.4569778442382812,88.78973388671875,-0.016388829549153647,0.0023333333333333335,0.30178571428571427,0.010587987255859351,1.8895920515060425,0.02197200059890747,46.58169937133789,-0.0854689704047309,-0.06940790812174479
4959,0.04119777020941847,0.2789063262939453,77.29234313964844,91.20378112792969,-0.4111785888671875,86.53935241699219,-0.09640231662326389,0.002,0.2985714285714286,0.008910878499348959,1.8456480503082275,0.06591600179672241,33.573978424072266,-0.154571533203125,-0.021672566731770832
4960,-0.04083345201280382,0.17929691314697266,88.03279113769531,82.75462341308594,1.2050056457519531,81.62944030761719,0.012025070190429688,-0.0006666666666666666,0.2957142857142857,0.001068115234375,1.9774800539016724,0.6701459884643555,29.706819534301758,0.058646308051215276,0.05083961486816406
4961,-0.04473970201280382,0.239062557220459,77.59921264648438,83.73661041259766,2.596149444580078,81.0975341796875,-0.012069914076063368,0.0,0.2907142857142857,-0.0,2.7355141639709473,0.373524010181427,29.267370223999023,-0.0681933085123698,0.0722068362765842
