,WD,WS,AIL_1,AIL_2,ELEV_1,ELEV_2,RUDD,ALT,GS,TH,PTCH,ROLL,PLA_1,AIL,ELEV
3721,-0.9032238708224826,0.49804698944091796,84.14576721191406,84.24806213378906,-2.9275131225585938,87.43951416015625,-0.012751854790581597,0.7543333333333333,0.5564285714285714,-0.01895085440741645,-2.219172137329103,-0.2966219359130875,32.25563049316406,-0.0011366102430555556,-0.059633636474609376
3722,-0.9071301208224826,0.49804698944091796,84.5140151977539,84.43218231201172,-41.900001525878906,87.43951416015625,-0.012297227647569445,0.7503333333333333,0.5564285714285714,-0.01888981925116645,-2.197201388427736,-0.2636648588867203,32.25563049316406,0.0009092542860243056,-0.4926612854003906
3723,-0.9071301208224826,0.49804698944091796,84.24806213378906,83.40928649902344,-3.0502586364746094,87.48042297363281,-0.010933346218532987,0.7426666666666667,0.5557142857142857,-0.01901188956366645,-2.1202989989013687,-0.3735243254394547,32.25563049316406,0.009319729275173612,-0.061452017890082464
3724,-0.9149426208224826,0.49804698944091796,83.552490234375,83.69569396972656,-3.2139244079589844,87.64408874511719,-0.011160659790039062,0.7383333333333333,0.555,-0.01809639400906033,-1.9664942198486344,0.08788800239562988,32.25563049316406,-0.001591152615017361,-0.06508903503417969
3725,-0.9188488708224826,0.478125114440918,84.1048583984375,84.47309875488281,-3.3162155151367188,87.78729248046875,-0.011387973361545138,0.7313333333333333,0.5532142857142858,-0.017363993326822917,-1.9664942198486344,0.6591600179672241,32.25563049316406,-0.004091559516059028,-0.06781675550672743
3726,-0.9188488708224826,0.45820323944091795,84.5958480834961,84.24806213378906,-3.4185028076171875,87.84866333007812,-0.012297227647569445,0.7266666666666667,0.5521428571428572,-0.016295909881591797,-2.0433966093750016,0.6921180486679077,32.25563049316406,0.003864288330078125,-0.0696351793077257
3727,-0.9227551208224826,0.438281364440918,84.32989501953125,83.36836242675781,-3.4389610290527344,87.93049621582031,-0.011615286933051215,0.7196666666666667,0.5496428571428571,-0.015044720967610677,-2.0873400145263687,0.5932440161705017,32.25563049316406,0.010683695475260416,-0.07077174716525608
3728,-0.9305676208224826,0.41835948944091794,83.36836242675781,84.02302551269531,-3.5412521362304688,87.93049621582031,-0.011160659790039062,0.7206666666666667,0.5478571428571428,-0.013488377465142145,-2.0983263426513687,1.0107120275497437,32.25563049316406,-0.007274034288194444,-0.07190831502278645
3729,-0.9344738708224826,0.39843757629394533,84.88226318359375,84.98455047607422,-3.6026268005371094,88.03279113769531,-0.011387973361545138,0.7086666666666667,0.545,-0.012115118238661024,-2.0324102812500016,1.1864880323410034,32.25563049316406,-0.0011365254720052083,-0.07372686598036024
3730,-0.9383801208224826,0.39843757629394533,85.14820861816406,84.77996826171875,-3.5617103576660156,88.05325317382812,-0.013661109076605903,0.7046666666666667,0.5432142857142858,-0.011047034793429904,-2.0104395323486344,0.4394400119781494,32.25563049316406,0.004091559516059028,-0.07349959479437934
3731,-0.9461926208224826,0.3785157012939453,84.0434799194336,83.5115737915039,-3.6230850219726562,88.09416198730469,-0.011615286933051215,0.6973333333333334,0.5396428571428571,-0.009887409210205079,-2.0214239531250016,-0.3405672484130875,32.25563049316406,0.0059100680881076385,-0.07463607788085938
3732,-0.9579113708224826,0.3585938262939453,83.552490234375,83.61386108398438,-3.745830535888672,88.17599487304688,-0.009796820746527778,0.6966666666666667,0.5375,-0.008941385481092665,-2.0104395323486344,-0.09887375170898594,32.25563049316406,-0.0006818983289930556,-0.07690917121039496
3733,-0.9657238708224826,0.33867195129394534,83.83889770507812,84.37080383300781,-3.684459686279297,88.19645690917969,-0.011387973361545138,0.6886666666666666,0.5339285714285714,-0.007781759897867838,-2.0653692656250016,0.4064820110797882,32.25563049316406,-0.0059100680881076385,-0.07645462883843315
3734,-0.9657238708224826,0.3187500762939453,84.57539367675781,84.39126586914062,-3.745830535888672,88.17599487304688,-0.011160659790039062,0.683,0.5317857142857143,-0.0072019365098741316,-2.0324102812500016,0.5493000149726868,32.25563049316406,0.002045864529079861,-0.07690917121039496
3735,-0.9657238708224826,0.29882820129394533,84.86180114746094,84.61630249023438,-3.7662887573242188,88.25782775878906,-0.010933346218532987,0.6736666666666666,0.5282142857142857,-0.006988324059380426,-1.9445234709472672,0.3185940086841583,32.25563049316406,0.002727762858072917,-0.07804573906792535
3736,-0.9696301208224826,0.2789063262939453,83.71615600585938,82.77508544921875,-3.704914093017578,88.21691131591797,-0.010251405504014757,0.667,0.5260714285714285,-0.006408500671386719,-2.0214239531250016,-0.04394401843261875,32.25563049316406,0.010456339518229166,-0.07690917121039496
3737,-0.9969738708224826,0.25898443222045897,83.36836242675781,84.30943298339844,-3.66400146484375,88.21691131591797,-0.013433795505099827,0.6653333333333333,0.5225,-0.004272333780924479,-2.0104395323486344,0.5053560137748718,32.25563049316406,-0.010456339518229166,-0.07645458645290798
3738,0.9991198791775174,0.219140682220459,85.41416931152344,85.29141998291016,-3.7867469787597656,88.19645690917969,-0.010478719075520834,0.6573333333333333,0.5203571428571429,-0.0035399436950683595,-1.9555078917236344,0.6481740474700928,32.25563049316406,0.0013638814290364584,-0.07759115431043836
3739,0.9991198791775174,0.219140682220459,84.554931640625,82.93875122070312,-3.684459686279297,88.31919860839844,-0.011160659790039062,0.654,0.5171428571428571,-0.0034483909606933595,-1.8895918303222672,-0.3735243254394547,32.25563049316406,0.017957560221354165,-0.07781842549641928
3740,0.9834948791775174,0.219140682220459,82.89783477783203,82.9592056274414,-3.6230850219726562,88.1555404663086,-0.0075236850314670135,0.65,0.5142857142857142,-0.0027770254347059464,-1.8895918303222672,-0.05493034655761875,32.25563049316406,-0.0006818983289930556,-0.07531806098090278
3741,0.9522448791775174,0.19921878814697266,83.20470428466797,84.22760009765625,-3.5617103576660156,88.1146240234375,-0.011842600504557292,0.642,0.5110714285714286,-0.0009765413072374132,-1.8236757689209,0.9338099956512451,32.25563049316406,-0.011365509033203125,-0.0741814931233724
3742,0.9483386291775174,0.19921878814697266,84.73905181884766,85.06637573242188,-3.520793914794922,88.05325317382812,-0.009114880032009548,0.639,0.5085714285714286,-0.0001220703125,-1.7467752867431656,1.5050820112228394,32.25563049316406,-0.003636932373046875,-0.07304496765136718
3743,0.9444323791775174,0.17929691314697266,85.20958709716797,84.14576721191406,-3.3775863647460938,88.03279113769531,-0.01252454121907552,0.6303333333333333,0.5053571428571428,0.0008239428202311198,-1.6808592253417984,1.1095860004425049,32.25563049316406,0.011820220947265625,-0.0712264166937934
3744,0.9288073791775174,0.17929691314697266,84.26852416992188,84.18669128417969,-3.4389610290527344,88.0123291015625,-0.011615286933051215,0.6253333333333333,0.5025,0.0020751317342122396,-1.538040774414064,0.9008520245552063,32.25563049316406,0.0009092542860243056,-0.07168100145128038
3745,0.9053698791775174,0.13945316314697265,84.37080383300781,84.43218231201172,-3.3980445861816406,88.0123291015625,-0.011160659790039062,0.622,0.4992857142857143,0.0028685569763183595,-1.4171949797363297,0.9447960257530212,32.25563049316406,-0.0006819831000434028,-0.07122637430826823
3746,0.8936511291775174,0.13945316314697265,84.5958480834961,85.02546691894531,-3.4185028076171875,88.0123291015625,-0.012751854790581597,0.6133333333333333,0.4967857142857143,0.0038145807054307725,-1.3402925902099625,0.9447960257530212,32.25563049316406,-0.004773542616102431,-0.07145368787977431
3747,0.9092761291775174,0.13945316314697265,85.1072998046875,84.71859741210938,-3.3775863647460938,88.03279113769531,-0.009114880032009548,0.61,0.4932142857142857,0.0035399330986870658,-1.2633902006835953,0.5602860450744629,32.25563049316406,0.0043189154730902775,-0.0712264166937934
3748,0.8819323791775174,0.1195312786102295,84.92317199707031,84.57539367675781,-3.2139244079589844,87.91004180908203,-0.014115693834092882,0.6053333333333333,0.49,0.004241816202799479,-1.2084604674072281,-0.04394401843261875,32.25563049316406,0.0038642035590277777,-0.0680440690782335
3749,0.8467761291775174,0.1195312786102295,84.75950622558594,85.35279846191406,-3.3162155151367188,87.82821655273438,-0.017070770263671875,0.5993333333333334,0.4857142857142857,0.005187829335530599,-1.3732515745849625,-0.3515516691894547,32.25563049316406,-0.006592135959201389,-0.06827146742078993
3750,0.8389636291775174,0.1195312786102295,85.53691101074219,84.30943298339844,-4.073158264160156,88.25782775878906,-0.011387973361545138,0.595,0.4825,0.004760593838161893,-1.4721247130126969,-0.856909411499025,32.25563049316406,0.013638644748263888,-0.08145540025499132
3751,0.8038074069552952,0.09960939407348633,84.16622924804688,83.16378784179688,-4.564151763916016,88.95339965820312,-0.0075236850314670135,0.5896666666666667,0.4782142857142857,0.0035704400804307725,-1.9555078917236344,-1.142544406005861,32.25563049316406,0.011138237847222222,-0.09463946024576823
3752,0.7764636569552952,0.09960939407348633,83.1024169921875,83.26608276367188,-4.993770599365234,89.36256408691406,-0.006841744316948784,0.587,0.475,0.0038145807054307725,-2.889319079467775,-0.6152159147949234,32.25563049316406,-0.001818508572048611,-0.10395927429199218
3753,0.7413074069552952,0.09960939407348633,84.20714569091797,85.41416931152344,-5.546134948730469,89.77172088623047,-0.013433795505099827,0.581,0.46964285714285714,0.005279382069905599,-3.6583391600341812,0.2746500074863434,32.25563049316406,-0.013411373562282987,-0.11464284261067709
3754,0.7530261569552952,0.09960939407348633,86.23248291015625,85.14820861816406,-6.118961334228516,90.26271057128906,-0.011160659790039062,0.5793333333333334,0.4664285714285714,0.004119745890299479,-4.3944002562255875,0.07690200209617615,32.25563049316406,0.012047492133246528,-0.12646302117241753
3755,0.7569324069552952,0.07968751907348633,84.41172790527344,82.83645629882812,-5.546134948730469,90.09904479980469,-0.007296371459960938,0.573,0.4614285714285714,0.0031432151794433595,-5.053560870239259,-0.7470480375976578,32.25563049316406,0.01750301784939236,-0.11827977498372395
3756,0.6631824069552952,0.07968751907348633,82.71371459960938,82.93875122070312,-5.259723663330078,89.81263732910156,-0.012297227647569445,0.567,0.45821428571428574,0.004608016543918186,-5.218350070068361,-0.4064833098144547,32.25563049316406,-0.0025004069010416668,-0.11191512213812935
3757,0.6827136569552952,0.09960939407348633,82.97966003417969,84.39126586914062,-5.1983489990234375,89.66943359375,-0.007296371459960938,0.5623333333333334,0.4546428571428571,0.005096276601155599,-4.987644808837892,0.747048020362854,32.25563049316406,-0.01568450927734375,-0.10964202880859375
3758,0.6905261569552952,0.07968751907348633,84.6572265625,84.24806213378906,-4.9733123779296875,89.52622985839844,-0.006841744316948784,0.5546666666666666,0.4517857142857143,0.004455428653293186,-4.943701403686525,1.2853620052337646,32.25563049316406,0.004546271430121528,-0.10555046929253473
3759,0.5616199069552952,0.05976563930511475,84.63676452636719,84.86180114746094,-4.8096466064453125,89.34210205078125,-0.015024948120117187,0.552,0.44785714285714284,0.005035241444905599,-4.954685824462892,1.2853620052337646,32.25563049316406,-0.0025004069010416668,-0.10168609619140626
3760,0.6163074069552952,0.05976563930511475,84.69813537597656,84.35034942626953,-4.8096466064453125,89.30118560791016,-0.00843293931749132,0.5473333333333333,0.44535714285714284,0.004516463809543186,-4.822855609008791,0.7690200209617615,32.25563049316406,0.003864288330078125,-0.1012314690483941
3761,0.4913074069552951,0.05976563930511475,83.53202819824219,83.81844329833984,-4.707359313964844,89.32164001464844,-0.01320648193359375,0.541,0.4417857142857143,0.005828677283393012,-4.691023486206056,0.14281800389289856,32.25563049316406,-0.0031823900010850693,-0.10032221476236979
3762,0.4834949069552951,0.07968751907348633,83.96165466308594,84.32989501953125,-4.686901092529297,89.23981475830078,-0.011615286933051215,0.5346666666666666,0.43964285714285717,0.0070188310411241316,-4.581162112304689,0.2526780068874359,32.25563049316406,-0.004091559516059028,-0.09918573167588976
3763,0.4795886569552951,0.07968751907348633,84.69813537597656,84.41172790527344,-4.605068206787109,89.17843627929688,-0.011842600504557292,0.5293333333333333,0.43607142857142855,0.0070493486192491316,-4.449329989501955,0.3185940086841583,32.25563049316406,0.003182305230034722,-0.09759449428982205
3764,0.4405261569552951,0.07968751907348633,84.12531280517578,83.77752685546875,-4.482318878173828,89.05569458007812,-0.01070603264702691,0.523,0.43357142857142855,0.0069883134629991316,-4.35045685107422,0.2526780068874359,32.25563049316406,0.003864288330078125,-0.09486681620279948
3765,0.3702136569552951,0.09960939407348633,83.96165466308594,84.16622924804688,-4.4209442138671875,88.97386169433594,-0.011160659790039062,0.5176666666666667,0.42964285714285716,0.007995361751980252,-4.174681323120119,0.5273280143737793,32.25563049316406,-0.0022730509440104167,-0.09327562120225695
3766,0.3194324069552951,0.1195312786102295,84.98455047607422,84.71859741210938,-4.4209442138671875,88.89202880859375,-0.012069914076063368,0.5126666666666667,0.42714285714285716,0.008636209699842665,-3.92200340563965,0.8788800239562988,32.25563049316406,0.0029550340440538192,-0.09236636691623264
3767,0.3194324069552951,0.09960939407348633,85.18913269042969,84.94363403320312,-4.441402435302734,88.95339965820312,-0.012297227647569445,0.5093333333333333,0.4232142857142857,0.008605692121717665,-3.7901712828369156,0.7580339908599854,32.25563049316406,0.002727762858072917,-0.09327557881673178
3768,0.3155261569552951,0.09960939407348633,84.24806213378906,84.32989501953125,-4.3595733642578125,88.89202880859375,-0.009342193603515625,0.504,0.4203571428571429,0.008544656965467665,-3.7132688933105484,0.3405660092830658,32.25563049316406,-0.0009092542860243056,-0.09168446858723958
3769,0.3038074069552951,0.09960939407348633,84.49356079101562,83.90027618408203,-4.257282257080078,88.81019592285156,-0.014570320977105035,0.49933333333333335,0.4164285714285714,0.009154997931586372,-3.537493365356447,0.13183200359344482,32.25563049316406,0.0065920511881510414,-0.0896386464436849
3770,0.2530261569552951,0.1195312786102295,84.77996826171875,84.73905181884766,-4.1959075927734375,88.70790100097656,-0.008887566460503472,0.49633333333333335,0.4139285714285714,0.009368610382080079,-3.4166475706787125,0.4723980128765106,32.25563049316406,0.0004546271430121528,-0.08782009548611111
3771,0.21786990695529515,0.13945316314697265,41.900001525878906,84.43218231201172,-4.236824035644531,88.70790100097656,-0.009569507175021702,0.49166666666666664,0.40964285714285714,0.009032927619086372,-3.3067861967773453,0.41746801137924194,32.25563049316406,-0.4725797865125868,-0.08827472262912327
3772,0.22177615695529515,0.15937503814697265,85.18913269042969,84.90271759033203,-4.380031585693359,88.87156677246094,-0.021162372165256075,0.48633333333333334,0.40714285714285714,0.010314623514811197,-3.240870135375978,0.3185940086841583,32.25563049316406,0.0031823900010850693,-0.09168442620171441
3773,0.20615115695529515,0.15937503814697265,41.900001525878906,85.08683776855469,-4.1959075927734375,88.83065795898438,-0.01070603264702691,0.4846666666666667,0.40285714285714286,0.010467211405436197,-3.2957998686523453,0.36253800988197327,32.25563049316406,-0.4798537360297309,-0.08918406168619791
3774,0.19052615695529515,0.15937503814697265,84.5140151977539,84.75950622558594,-4.134532928466797,88.68744659423828,-0.01002409193250868,0.4806666666666667,0.4,0.01025359895494249,-3.3946749144287125,0.09887400269508362,32.25563049316406,-0.0027276780870225696,-0.08691088358561198
3775,0.18661990695529515,0.17929691314697266,41.900001525878906,84.32989501953125,-4.032245635986328,88.6056137084961,-0.014115693834092882,0.476,0.3960714285714286,0.010924964480929904,-3.3617159300537125,-0.06591667468261875,32.25563049316406,-0.4714432610405816,-0.08486510382758247
3776,0.17880740695529515,0.19921878814697266,84.98455047607422,84.67768096923828,-4.052700042724609,88.6056137084961,-0.01320648193359375,0.4716666666666667,0.3939285714285714,0.01129116482204861,-3.3067861967773453,0.23070600628852844,32.25563049316406,0.003409661187065972,-0.08509237501356337
3777,0.15927615695529515,0.19921878814697266,84.90271759033203,84.84133911132812,-4.134532928466797,88.564697265625,-0.007296371459960938,0.4676666666666667,0.3896428571428571,0.01022308137681749,-3.3287588530273453,0.38451001048088074,32.25563049316406,0.0006819831000434028,-0.08554700215657553
3778,0.14365115695529515,0.19921878814697266,84.28897857666016,84.57539367675781,-4.686901092529297,89.03523254394531,-0.009569507175021702,0.464,0.3867857142857143,0.009399127960205079,-3.4276319914550797,0.10986000299453735,32.25563049316406,-0.0031823900010850693,-0.09691259596082899
3779,0.15146365695529515,0.19921878814697266,84.57539367675781,84.22760009765625,-5.382472991943359,89.68988800048828,-0.015934202406141493,0.458,0.3821428571428571,0.009887398613823786,-3.90003074938965,-0.14281906420898594,32.25563049316406,0.0038643731011284723,-0.11191512213812935
3780,0.15146365695529515,0.19921878814697266,84.18669128417969,84.49356079101562,-5.873462677001953,90.28317260742188,-0.010933346218532987,0.4543333333333333,0.37892857142857145,0.009795845879448786,-4.680037158081056,-0.05493034655761875,32.25563049316406,-0.003409661187065972,-0.12396261427137586
3781,0.15536990695529515,0.17929691314697266,83.63432312011719,83.65477752685547,-6.098503112792969,90.54912567138672,-0.011387973361545138,0.453,0.37285714285714283,0.009307575225830079,-5.613846438476564,-0.10986007983398594,32.25563049316406,-0.00022727118598090277,-0.12941809760199652
3782,0.15536990695529515,0.17929691314697266,84.82088470458984,84.32989501953125,-5.955295562744141,90.569580078125,-0.01320648193359375,0.452,0.3692857142857143,0.009338092803955079,-6.4707552366943375,0.2526780068874359,32.25563049316406,0.005455440945095486,-0.1280541737874349
3783,0.13583865695529515,0.15937503814697265,84.18669128417969,84.49356079101562,-5.689342498779297,90.40591430664062,-0.011387973361545138,0.44666666666666666,0.36357142857142855,0.007415548960367838,-7.129913943359377,0.32958000898361206,32.25563049316406,-0.003409661187065972,-0.12328063117133246
3784,0.13974490695529515,0.17929691314697266,84.30943298339844,84.0434799194336,-5.11651611328125,89.89447021484375,-0.013888380262586805,0.44333333333333336,0.35964285714285715,0.007812266879611545,-7.371607440063478,-0.09887375170898594,32.25563049316406,0.0029550340440538192,-0.1112331814236111
3785,0.15536990695529515,0.17929691314697266,84.71859741210938,84.5958480834961,-4.66644287109375,89.44439697265625,-0.014115693834092882,0.43766666666666665,0.3557142857142857,0.009277057647705079,-7.239775317260744,-0.2307058745117203,32.25563049316406,0.0013638814290364584,-0.10123155381944444
3786,0.14365115695529515,0.19921878814697266,84.20714569091797,84.39126586914062,-4.380031585693359,89.0147705078125,-0.011160659790039062,0.43233333333333335,0.35285714285714287,0.008636209699842665,-6.888222354003908,-0.2416922026367203,32.25563049316406,-0.002045779758029514,-0.09327557881673178
3787,0.11240115695529514,0.19921878814697266,82.79554748535156,83.49111938476562,-4.134532928466797,88.74882507324219,-0.008887566460503472,0.42833333333333334,0.3485714285714286,0.006011782752143012,-6.39385284716797,-0.4504267149658219,32.25563049316406,-0.00772857666015625,-0.08759286668565539
3788,0.10068240695529514,0.19921878814697266,83.02058410644531,82.61141967773438,-3.8890380859375,88.62606811523438,-0.01320648193359375,0.42333333333333334,0.3457142857142857,0.004699558681911893,-5.910469668457033,-0.4723993712158219,32.25563049316406,0.004546271430121528,-0.08350118001302083
3789,0.10458865695529514,0.19921878814697266,83.12287139892578,83.0001220703125,-3.909496307373047,88.50332641601562,-0.014115693834092882,0.41933333333333334,0.3414285714285714,0.004852146572536893,-5.547930377075197,-0.07690300280761875,32.25563049316406,0.0013638814290364584,-0.0823646969265408
3790,0.11240115695529514,0.19921878814697266,83.90027618408203,83.87982177734375,-3.9299545288085938,88.52378845214844,-0.009569507175021702,0.41433333333333333,0.3385714285714286,0.005401441786024305,-5.163420336791994,0.5383139848709106,32.25563049316406,0.00022727118598090277,-0.08281936645507812
3791,0.10068240695529514,0.19921878814697266,83.83889770507812,83.69569396972656,-3.5617103576660156,88.33966064453125,-0.013433795505099827,0.4106666666666667,0.3335714285714286,0.004852146572536893,-4.987644808837892,0.8569080233573914,32.25563049316406,0.001591152615017361,-0.07668190002441407
3792,0.08505740695529514,0.19921878814697266,84.5958480834961,83.98210144042969,-3.4185028076171875,88.1555404663086,-0.013661109076605903,0.4076666666666667,0.33071428571428574,0.004272323184543186,-4.866799014160158,0.9118380546569824,32.25563049316406,0.006819407145182292,-0.07304492526584201
3793,0.07724490695529514,0.219140682220459,85.0050048828125,85.16867065429688,-3.3775863647460938,87.88958740234375,-0.013888380262586805,0.4043333333333333,0.32607142857142857,0.004363875918918186,-4.647078173706056,1.0986000299453735,32.25563049316406,-0.001818508572048611,-0.06963526407877604
3794,0.07333865695529514,0.219140682220459,84.20714569091797,84.53446960449219,-3.11163330078125,87.74638366699219,-0.013661109076605903,0.40066666666666667,0.32285714285714284,0.004699558681911893,-4.4383455687255875,0.7800060510635376,32.25563049316406,-0.003636932373046875,-0.06508907741970486
3795,0.08115115695529514,0.219140682220459,83.12287139892578,83.30699157714844,-2.6206436157226562,87.50088500976562,-0.014343007405598959,0.39766666666666667,0.31892857142857145,0.005889712439643012,-4.273554461547853,0.3954960107803345,32.25563049316406,-0.002045779758029514,-0.056905873616536456
3796,0.09677615695529514,0.239062557220459,84.32989501953125,83.71615600585938,-2.4569778442382812,87.23492431640625,-0.014115693834092882,0.394,0.3157142857142857,0.007568126254611545,-3.976933138916017,0.6481740474700928,32.07984924316406,0.006819322374131944,-0.05213224622938368
3797,0.09286990695529514,0.239062557220459,85.61874389648438,85.33233642578125,-2.3751449584960938,87.03034973144531,-0.013661109076605903,0.39066666666666666,0.31142857142857144,0.007751231723361545,-3.581436770507814,1.252403974533081,32.07984924316406,0.003182305230034722,-0.048949940999348955
3798,0.06161990695529514,0.239062557220459,85.39370727539062,85.5164566040039,-2.272857666015625,86.90760040283203,-0.011615286933051215,0.388,0.30857142857142855,0.006103324890136719,-3.251856463500978,1.0876140594482422,32.25563049316406,-0.0013638814290364584,-0.046449534098307294
3799,0.04990115695529514,0.239062557220459,84.88226318359375,84.86180114746094,-1.2090415954589844,87.23492431640625,-0.013661109076605903,0.38533333333333336,0.30392857142857144,0.004974216885036893,-3.0321375303955094,0.13183200359344482,32.25563049316406,0.00022735595703125,-0.038266287909613714
3800,0.06161990695529514,0.239062557220459,82.0999755859375,83.20470428466797,-0.718048095703125,84.90271759033203,-0.023662779066297743,0.381,0.30142857142857143,0.006194877624511719,-2.7245279722900406,-0.834936755249025,41.13251876831055,-0.01227476331922743,-0.006897396511501736
3801,0.08505740695529514,0.25898443222045897,87.41905212402344,84.5958480834961,-1.7000312805175781,86.27340698242188,-0.018889236450195312,0.379,0.2978571428571429,0.007415548960367838,-1.4062086516113297,-0.2526785307617203,43.85710906982422,0.03136893378363715,-0.03303820292154948
3802,0.06943240695529514,0.25898443222045897,87.03034973144531,87.0712661743164,-1.6795730590820312,85.94607543945312,-0.0007043626573350694,0.37933333333333336,0.2960714285714286,0.006103324890136719,-0.9008528166503922,0.13183200359344482,47.196929931640625,-0.0004546271430121528,-0.02917387220594618
3803,0.06552615695529514,0.25898443222045897,83.92073059082031,85.49600219726562,-3.0502586364746094,87.91004180908203,-0.009114880032009548,0.37533333333333335,0.2960714285714286,0.005004723866780599,-0.5163427763671891,-0.9997259550781266,49.13050842285156,-0.01750301784939236,-0.0662255605061849
3804,0.08115115695529514,0.239062557220459,82.83645629882812,80.0337142944336,-3.4389610290527344,87.86912536621094,-0.021162372165256075,0.37266666666666665,0.29678571428571426,0.004821628994411893,-1.0766283446044937,-1.6149431639404312,49.13050842285156,0.031141577826605902,-0.07008984883626303
3805,0.08115115695529514,0.239062557220459,85.16867065429688,85.14820861816406,-3.6026268005371094,88.1146240234375,-0.0050232781304253475,0.37066666666666664,0.2975,0.0038756158616807725,-2.186215060302736,0.07690200209617615,49.13050842285156,0.00022735595703125,-0.07463612026638455
3806,0.06943240695529514,0.25898443222045897,84.1048583984375,85.16867065429688,-2.6615562438964844,86.78485107421875,-0.007069057888454861,0.369,0.2985714285714286,0.0029601097106933595,-3.163967745849611,0.45042601227760315,49.13050842285156,-0.011820136176215277,-0.04940452575683594
3807,0.06552615695529514,0.25898443222045897,82.01814270019531,81.8953857421875,-3.725372314453125,88.1146240234375,-0.014797634548611112,0.366,0.30107142857142855,0.0032347573174370658,-3.196926730224611,0.32958000898361206,45.79069137573242,0.0013639662000868055,-0.07599995930989584
3808,0.06943240695529514,0.25898443222045897,84.18669128417969,84.24806213378906,-3.132091522216797,88.23736572265625,-0.009569507175021702,0.3626666666666667,0.30178571428571427,0.0036619928148057725,-3.4715773039550797,1.2084600925445557,45.70280075073242,-0.0006818983289930556,-0.07077174716525608
3809,0.06161990695529514,0.25898443222045897,84.98455047607422,84.98455047607422,-1.6386566162109375,86.19157409667969,-0.002522828843858507,0.359,0.3025,0.003967157999674479,-3.9989038878173844,1.8786060810089111,45.70280075073242,0.0,-0.03144700792100694
3810,0.06161990695529514,0.25898443222045897,85.37325286865234,85.08683776855469,-3.3366737365722656,87.39859008789062,-0.014115693834092882,0.354,0.3032142857142857,0.005584547254774305,-3.207913058349611,1.9005780220031738,45.70280075073242,0.0031823900010850693,-0.06372515360514323
3811,0.05380740695529514,0.2789063262939453,86.23248291015625,86.45751953125,-3.0298004150390625,87.41905212402344,-0.01002409193250868,0.3506666666666667,0.30392857142857144,0.006744183434380426,-3.0870672636718766,1.538040041923523,45.52701950073242,-0.0025004069010416668,-0.06054280598958333
3812,0.05771365695529514,0.2789063262939453,85.0050048828125,86.25294494628906,-2.907054901123047,87.19401550292969,-0.014343007405598959,0.3473333333333333,0.30428571428571427,0.007964844173855252,-3.493548052856447,0.5053560137748718,44.56023025512695,-0.013866000705295138,-0.056678560045030385
3813,0.06943240695529514,0.2789063262939453,84.14576721191406,83.81844329833984,-3.0707168579101562,87.50088500976562,-0.01957117716471354,0.344,0.30428571428571427,0.009185515509711372,-3.3617159300537125,-0.4174677305908219,44.38444900512695,0.003636932373046875,-0.061906687418619794
3814,0.07724490695529514,0.2789063262939453,83.14332580566406,82.30455017089844,-3.704914093017578,88.21691131591797,-0.011842600504557292,0.3406666666666667,0.30357142857142855,0.009399127960205079,-3.4276319914550797,-0.4064833098144547,44.38444900512695,0.009319729275173612,-0.07690917121039496
3815,0.08505740695529514,0.25898443222045897,83.75706481933594,83.94119262695312,-2.722930908203125,87.15309143066406,-0.014570320977105035,0.33666666666666667,0.3028571428571429,0.009826363457573786,-3.9989038878173844,0.3185940086841583,44.38444900512695,-0.002045864529079861,-0.0541780259874132
3816,0.06943240695529514,0.29882820129394533,84.86180114746094,83.47065734863281,-2.334228515625,86.37569427490234,-0.00047704908582899306,0.33366666666666667,0.3028571428571429,0.008910857306586372,-3.856087344238283,1.0107120275497437,44.38444900512695,0.0154571533203125,-0.041221364339192705
3817,0.06161990695529514,0.2789063262939453,85.35279846191406,85.557373046875,-2.7843055725097656,87.27584838867188,-0.0034320831298828127,0.32966666666666666,0.3025,0.008575174543592665,-3.185940402099611,1.2304320335388184,44.38444900512695,-0.0022730509440104167,-0.05622393290201823
3818,0.06161990695529514,0.2789063262939453,85.23004150390625,84.92317199707031,-2.7638473510742188,87.23492431640625,-0.014343007405598959,0.3263333333333333,0.30178571428571427,0.009521198272705079,-3.0211512022705094,0.6921180486679077,44.38444900512695,0.003409661187065972,-0.055541907416449654
3819,0.07333865695529514,0.2789063262939453,85.37325286865234,85.39370727539062,-2.8047637939453125,87.29630279541016,-0.01775266859266493,0.323,0.30107142857142855,0.010894446902804904,-3.0211512022705094,0.38451001048088074,44.38444900512695,-0.00022727118598090277,-0.056678517659505205
3820,0.06943240695529514,0.29882820129394533,85.47554016113281,85.557373046875,-2.7843055725097656,87.27584838867188,-0.009114880032009548,0.32,0.3003571428571429,0.010955482059054904,-3.0431219511718766,-0.10986007983398594,44.38444900512695,-0.0009092542860243056,-0.05622393290201823
3821,0.06943240695529514,0.29882820129394533,84.61630249023438,84.69813537597656,-2.6820144653320312,87.23492431640625,-0.012979168362087673,0.317,0.29928571428571427,0.010711341434054904,-2.9991785460205094,-0.801977770874025,44.38444900512695,-0.0009092542860243056,-0.05463265313042535
3822,0.07333865695529514,0.29882820129394533,82.73416900634766,82.91828918457031,-2.6615562438964844,87.21446990966797,-0.015024948120117187,0.315,0.2985714285714286,0.01010101106431749,-2.823403018066408,-1.1095873289794937,44.38444900512695,-0.002045779758029514,-0.05417806837293837
3823,0.07333865695529514,0.29882820129394533,85.23004150390625,84.26852416992188,-2.702472686767578,87.23492431640625,-0.014797634548611112,0.30733333333333335,0.29714285714285715,0.009185515509711372,-2.6256548338623062,-0.7470480375976578,44.38444900512695,0.010683525933159722,-0.054859966701931426
3824,0.06552615695529514,0.2789063262939453,84.49356079101562,85.5982894897461,-2.7843055725097656,86.96897888183594,-0.003886710272894965,0.30766666666666664,0.29642857142857143,0.0070798661973741316,-2.570725100585939,-0.3405672484130875,44.38444900512695,-0.01227476331922743,-0.05281427171495226
3825,0.04599490695529514,0.2789063262939453,84.77996826171875,82.89783477783203,-2.9479713439941406,87.45996856689453,-0.005250591701931423,0.30433333333333334,0.2960714285714286,0.004302840762668186,-2.6695982390136734,-0.7690206938476578,44.38444900512695,0.020912594265407987,-0.06008822123209635
3826,0.04990115695529514,0.2789063262939453,81.87493133544922,83.12287139892578,-2.1705665588378906,86.64164733886719,-0.013888380262586805,0.3016666666666667,0.2953571428571429,0.004180781046549479,-2.922276156494142,-1.1095873289794937,44.38444900512695,-0.013866000705295138,-0.04235793219672309
3827,0.06161990695529514,0.2789063262939453,82.9592056274414,82.89783477783203,-2.354686737060547,86.82576751708984,-0.013433795505099827,0.298,0.29464285714285715,0.004119745890299479,-2.6366411619873062,-0.6152159147949234,44.38444900512695,0.0006818983289930556,-0.04644949171278212
3828,0.05771365695529514,0.2789063262939453,86.35523986816406,84.86180114746094,-2.5797271728515625,86.80531311035156,-0.010251405504014757,0.295,0.29392857142857143,0.0036314752366807725,-2.230158465454103,0.3076080083847046,44.38444900512695,0.016593763563368055,-0.04872266981336806
3829,0.04599490695529514,0.29882820129394533,85.96653747558594,86.23248291015625,-2.1910247802734375,86.78485107421875,-0.006159803602430555,0.292,0.29285714285714287,0.0027464972601996527,-2.142269747802736,0.35155200958251953,44.38444900512695,-0.0029549492730034724,-0.04417639838324653
3830,0.04599490695529514,0.2789063262939453,82.67279052734375,83.92073059082031,-2.334228515625,86.84622192382812,-0.01252454121907552,0.2886666666666667,0.2925,0.0023192617628309464,-2.0543829375000016,-0.4504267149658219,44.38444900512695,-0.013866000705295138,-0.04644944932725695
3831,0.04990115695529514,0.2789063262939453,83.90027618408203,85.23004150390625,-3.2139244079589844,87.6031723022461,-0.018661922878689237,0.28633333333333333,0.2910714285714286,0.0026244269476996527,-1.9005781584472672,-0.4723993712158219,44.38444900512695,-0.014775170220269097,-0.06463440789116753
3832,0.04990115695529514,0.2789063262939453,83.40928649902344,83.77752685546875,-2.497894287109375,86.80531311035156,-0.003204769558376736,0.2826666666666667,0.29035714285714287,0.0017394489712185329,-2.537766116210939,0.08788800239562988,44.38444900512695,-0.004091559516059028,-0.04781341552734375
3833,0.04599490695529514,0.2789063262939453,84.63676452636719,84.63676452636719,-2.497894287109375,86.78485107421875,-0.012751854790581597,0.2796666666666667,0.28964285714285715,0.0015868610805935329,-2.867346423217775,0.36253800988197327,44.38444900512695,0.0,-0.0475860595703125
3834,0.04599490695529514,0.25898443222045897,82.85691833496094,82.01814270019531,-2.0273590087890625,86.15065002441406,-0.01002409193250868,0.27666666666666667,0.2892857142857143,0.0014342731899685329,-2.6146685057373062,0.1538040041923523,44.38444900512695,0.009319729275173612,-0.03531121148003472
3835,0.05380740695529514,0.25898443222045897,85.23004150390625,85.86424255371094,-2.497894287109375,87.05081176757812,-0.017070770263671875,0.2733333333333333,0.2892857142857143,0.0021971914503309464,-2.142269747802736,0.6042300462722778,45.26335144042969,-0.007046678331163195,-0.05054117838541667
3836,0.03818240695529514,0.25898443222045897,84.20714569091797,85.0459213256836,-2.129650115966797,86.53935241699219,-0.008660252888997395,0.2693333333333333,0.2892857142857143,0.0010375658671061198,-2.241144793579103,0.9887400269508362,45.26335144042969,-0.009319729275173612,-0.04076669481065538
3837,0.010838656955295138,0.25898443222045897,80.58607482910156,83.79798889160156,-1.9250717163085938,86.559814453125,-0.0009316762288411458,0.26566666666666666,0.29035714285714287,-0.0012206713358561198,-2.2741018706054703,0.5602860450744629,45.26335144042969,-0.03568793402777778,-0.038720957438151044
3838,0.003026156955295139,0.239062557220459,83.85935974121094,83.90027618408203,-0.9226264953613281,85.27096557617188,-0.012751854790581597,0.2613333333333333,0.2914285714285714,-0.002075142330593533,-1.9005781584472672,0.7800060510635376,45.26335144042969,-0.0004546271430121528,-0.013262134128146702
3839,-0.03603634304470486,0.239062557220459,83.67523193359375,84.41172790527344,-1.9659843444824219,86.13019561767578,0.0049784342447916664,0.258,0.29285714285714287,-0.004882674747043186,-0.9118391447753922,1.812690019607544,46.142250061035156,-0.00818328857421875,-0.03440199957953559
3840,-0.04775509304470486,0.219140682220459,84.554931640625,83.75706481933594,-2.702472686767578,87.17355346679688,-0.010478719075520834,0.255,0.2932142857142857,-0.004272333780924479,-1.0436712675781266,1.6149420738220215,48.339500427246094,0.008865186903211806,-0.05417806837293837
3841,-0.0047863430447048615,0.219140682220459,84.63676452636719,84.63676452636719,-3.357128143310547,87.86912536621094,-0.030482101440429687,0.25266666666666665,0.295,0.0007629076639811198,-1.6698728972167984,1.2853620052337646,48.339500427246094,0.0,-0.06918059455023871
3842,0.01865115695529514,0.19921878814697266,82.38638305664062,84.47309875488281,-1.8432388305664062,87.62362670898438,-0.015934202406141493,0.25,0.2960714285714286,0.0032957924736870658,-2.7355143004150406,0.8569080233573914,48.075828552246094,-0.02318572998046875,-0.04963183932834202
3843,0.01865115695529514,0.219140682220459,84.37080383300781,84.12531280517578,-1.8636970520019531,86.23248291015625,-0.014343007405598959,0.24633333333333332,0.2982142857142857,0.004302840762668186,-3.1200243406982437,0.9447960257530212,48.075828552246094,0.0027276780870225696,-0.03440199957953559
3844,0.02255740695529514,0.19921878814697266,86.21202850341797,86.68256378173828,-2.6001853942871094,87.15309143066406,-0.009796820746527778,0.24366666666666667,0.29964285714285716,0.005004723866780599,-2.493822711059572,1.6149420738220215,47.81216049194336,-0.005228169759114583,-0.05281418694390191
3845,0.01865115695529514,0.239062557220459,87.23492431640625,85.1072998046875,-3.0298004150390625,86.86668395996094,-0.01661614312065972,0.24,0.3007142857142857,0.006286430358886719,-2.471850054809572,1.1645159721374512,47.54848861694336,0.023640272352430554,-0.05440538194444444
3846,0.03818240695529514,0.219140682220459,85.455078125,85.49600219726562,-3.6026268005371094,88.13508605957031,-0.01843460930718316,0.237,0.30142857142857143,0.008758280012342665,-2.526779788085939,0.16479000449180603,47.54848861694336,-0.0004547119140625,-0.0748634762234158
3847,0.05771365695529514,0.239062557220459,83.73661041259766,83.5934066772461,-2.907054901123047,87.50088500976562,-0.018889236450195312,0.233,0.30214285714285716,0.010558764139811197,-3.240870135375978,-0.2636648588867203,47.196929931640625,0.001591152615017361,-0.06008822123209635
3848,0.04990115695529514,0.19921878814697266,84.69813537597656,85.0050048828125,-3.132091522216797,87.62362670898438,-0.003659396701388889,0.22966666666666666,0.30357142857142855,0.009216033087836372,-3.504534380981447,0.4394400119781494,46.58169937133789,-0.003409661187065972,-0.06395242479112413
3849,0.02255740695529514,0.219140682220459,85.557373046875,85.78240966796875,-3.0093421936035156,87.48042297363281,-0.0013863033718532986,0.227,0.30428571428571427,0.007171408335367838,-3.6253801756591812,0.6811320185661316,46.58169937133789,-0.0025004069010416668,-0.060997390747070314
3850,0.0069324069552951385,0.219140682220459,85.65966796875,85.49600219726562,-2.9275131225585938,87.62362670898438,-0.010478719075520834,0.22433333333333333,0.305,0.006255912780761719,-3.6912962370605484,0.2197200059890747,46.58169937133789,0.001818508572048611,-0.06167933146158854
3851,0.03036990695529514,0.19921878814697266,87.66455078125,87.95095825195312,-3.132091522216797,87.68500518798828,-0.020480431450737847,0.21933333333333332,0.30607142857142855,0.007934326595730252,-3.493548052856447,-0.3845106535644547,46.58169937133789,-0.003182305230034722,-0.06463440789116753
3852,0.04208865695529514,0.219140682220459,86.78485107421875,87.19401550292969,-3.11163330078125,87.64408874511719,-0.017070770263671875,0.21466666666666667,0.30714285714285716,0.008605692121717665,-3.6583391600341812,-1.2414194517822281,46.58169937133789,-0.004546271430121528,-0.0639524671766493
3853,0.03818240695529514,0.219140682220459,83.96165466308594,84.75950622558594,-2.5797271728515625,86.92805480957031,-0.01252454121907552,0.21166666666666667,0.30857142857142855,0.006744183434380426,-4.075806277343752,-2.581711428710939,46.58169937133789,-0.00886501736111111,-0.05008646647135417
3854,0.04208865695529514,0.239062557220459,80.60653686523438,79.82913208007812,-3.3366737365722656,88.19645690917969,-0.01252454121907552,0.20766666666666667,0.30964285714285716,0.004608016543918186,-3.6912962370605484,-2.7245279722900406,46.58169937133789,0.008637830946180555,-0.07259034050835503
3855,0.05380740695529514,0.219140682220459,84.20714569091797,83.1024169921875,-3.275299072265625,87.45996856689453,-0.0168434566921658,0.20466666666666666,0.30964285714285716,0.0032652748955620658,-3.812142031738283,-1.2743765288085953,45.26335144042969,0.01227476331922743,-0.0637251959906684
3856,0.04599490695529514,0.239062557220459,88.0737075805664,85.65966796875,-2.907054901123047,87.17355346679688,0.0002048916286892361,0.20066666666666666,0.30964285714285716,0.0022277090284559464,-3.4605909758300797,0.3185940086841583,45.17546081542969,0.026822662353515624,-0.056451204087999134
3857,0.06552615695529514,0.19921878814697266,88.6056137084961,87.78729248046875,-3.1525497436523438,88.29874420166016,-0.01070603264702691,0.19666666666666666,0.31,0.004089228312174479,-3.229883807250978,0.8898659944534302,45.17546081542969,0.009092458089192708,-0.07168104383680556
3858,0.05771365695529514,0.19921878814697266,83.47065734863281,87.54179382324219,-2.3751449584960938,86.84622192382812,-0.013888380262586805,0.19233333333333333,0.30964285714285716,0.004516463809543186,-3.92200340563965,-0.5383154326171891,45.17546081542969,-0.04523484971788194,-0.0469040764702691
3859,0.04990115695529514,0.219140682220459,82.18180847167969,82.05905151367188,-2.6820144653320312,87.0098876953125,-0.014343007405598959,0.19033333333333333,0.31035714285714283,0.0025633917914496527,-3.8011576109619156,-2.3400179320068375,45.17546081542969,0.0013639662000868055,-0.05213224622938368
3860,0.06161990695529514,0.219140682220459,84.92317199707031,85.20958709716797,-3.684459686279297,88.0737075805664,-0.013661109076605903,0.185,0.3107142857142857,0.0013427310519748264,-3.0760809355468766,-2.153256075927736,45.17546081542969,-0.0031823900010850693,-0.0750907474093967
3861,0.06552615695529514,0.239062557220459,83.26608276367188,83.34790802001953,-2.6206436157226562,87.62362670898438,-0.012751854790581597,0.182,0.31035714285714283,6.1024559868706596e-05,-3.504534380981447,-1.549027102539064,45.17546081542969,-0.0009091695149739584,-0.05826967027452257
3862,0.04208865695529514,0.239062557220459,82.83645629882812,80.74974060058594,-4.093616485595703,87.66455078125,-0.004795964558919271,0.17833333333333334,0.30964285714285716,-0.0033263206481933595,-3.284815447875978,-0.9338098936767594,45.17546081542969,0.02318572998046875,-0.0750907474093967
3863,0.02255740695529514,0.25898443222045897,83.5115737915039,83.5934066772461,-3.5412521362304688,88.38057708740234,-0.001613616943359375,0.17566666666666667,0.30964285714285716,-0.005370934804280599,-3.3067861967773453,0.3405660092830658,44.99967956542969,-0.0009092542860243056,-0.07690921359592014
3864,0.014744906955295138,0.239062557220459,84.32989501953125,83.75706481933594,-3.5821685791015625,87.76683807373047,-0.00775099860297309,0.17366666666666666,0.30857142857142855,-0.005981275770399305,-3.87805809313965,1.021697998046875,44.99967956542969,0.006364780002170139,-0.07054451836480034
3865,0.010838656955295138,0.239062557220459,85.68012237548828,85.49600219726562,-3.357128143310547,87.39859008789062,-0.002522828843858507,0.16966666666666666,0.30857142857142855,-0.005706617567274305,-3.954960482666017,2.0873401165008545,44.99967956542969,0.002045779758029514,-0.06395242479112413
3866,0.01865115695529514,0.239062557220459,87.6031723022461,85.96653747558594,-3.1730079650878906,87.66455078125,-0.012297227647569445,0.167,0.30857142857142855,-0.0033263206481933595,-3.987919467041017,2.3400180339813232,44.99967956542969,0.01818483140733507,-0.06486176384819878
3867,0.014744906955295138,0.219140682220459,87.93049621582031,87.78729248046875,-2.4365196228027344,86.70301818847656,-0.006387117173936632,0.164,0.30857142857142855,-0.0015258365207248264,-4.031862872192384,2.7135419845581055,44.99967956542969,0.001591152615017361,-0.045994864569769964
3868,-0.008692593044704862,0.219140682220459,80.11553955078125,85.1072998046875,-3.0707168579101562,87.48042297363281,-0.0013863033718532986,0.16133333333333333,0.30892857142857144,-0.0015868716769748264,-3.3836885863037125,1.2963480949401855,44.99967956542969,-0.05546400282118055,-0.06167933146158854
3869,0.02646365695529514,0.219140682220459,85.5982894897461,82.65233612060547,-3.4594192504882812,87.70545959472656,-0.028209008110894097,0.15733333333333333,0.30857142857142855,0.0015868610805935329,-3.0650946074218766,-0.4064833098144547,45.26335144042969,0.03273281521267361,-0.06849865383572049
3870,0.06552615695529514,0.239062557220459,81.46577453613281,85.49600219726562,-3.4389610290527344,87.95095825195312,-0.014343007405598959,0.154,0.30857142857142855,0.004821628994411893,-3.0870672636718766,0.2197200059890747,45.43912887573242,-0.04478030734592014,-0.07099910312228733
3871,0.07724490695529514,0.239062557220459,84.26852416992188,84.0434799194336,-3.909496307373047,88.25782775878906,-0.00775099860297309,0.151,0.30857142857142855,0.005584547254774305,-3.3617159300537125,0.7140899896621704,45.43912887573242,0.002500491672092014,-0.07963693406846788
3872,0.07724490695529514,0.239062557220459,84.24806213378906,83.30699157714844,-3.6026268005371094,88.03279113769531,-0.009796820746527778,0.14733333333333334,0.30857142857142855,0.006622113121880426,-3.6803099089355484,1.219446063041687,45.43912887573242,0.010456339518229166,-0.07372686598036024
3873,0.07333865695529514,0.25898443222045897,84.0434799194336,84.30943298339844,-3.6026268005371094,87.99187469482422,-0.006159803602430555,0.144,0.3092857142857143,0.007690196567111545,-3.7022825651855484,1.9005780220031738,45.43912887573242,-0.0029550340440538192,-0.0732722388373481
3874,0.06943240695529514,0.219140682220459,88.6669921875,85.57783508300781,-3.5412521362304688,87.95095825195312,-0.013661109076605903,0.141,0.31,0.008208974202473959,-3.845101016113283,2.4938220977783203,45.43912887573242,0.034323967827690975,-0.07213567097981771
3875,0.03818240695529514,0.219140682220459,84.28897857666016,85.5164566040039,-3.1934661865234375,87.5213394165039,-0.00297745598687066,0.13766666666666666,0.31035714285714283,0.007354513804117838,-4.053835528442384,1.5050820112228394,45.43912887573242,-0.013638644748263888,-0.06349784003363715
3876,0.04990115695529514,0.219140682220459,83.22515869140625,83.30699157714844,-3.2139244079589844,87.82821655273438,-0.015934202406141493,0.134,0.31142857142857144,0.008483632405598959,-3.9989038878173844,-0.2526785307617203,45.43912887573242,-0.0009092542860243056,-0.06713489956325955
3877,0.07724490695529514,0.219140682220459,83.63432312011719,83.42974090576172,-2.8047637939453125,86.96897888183594,-0.01661614312065972,0.13033333333333333,0.3117857142857143,0.010406176249186197,-3.9989038878173844,-0.4284540587158219,45.43912887573242,0.002273135715060764,-0.05304158528645833
3878,0.08115115695529514,0.19921878814697266,81.77264404296875,81.73172760009766,-3.1934661865234375,87.39859008789062,-0.016388829549153647,0.127,0.3125,0.009856881035698786,-3.548477786132814,-0.9447962218017594,45.43912887573242,0.0004546271430121528,-0.06213395860460069
3879,0.06943240695529514,0.219140682220459,84.80043029785156,84.84133911132812,-3.5412521362304688,87.97142028808594,-0.007296371459960938,0.12333333333333334,0.31285714285714283,0.008392079671223959,-3.1419969969482437,-0.07690300280761875,45.43912887573242,-0.00045454237196180554,-0.07236302693684896
3880,0.05380740695529514,0.219140682220459,84.73905181884766,84.77996826171875,-3.0502586364746094,87.17355346679688,-0.0066144307454427086,0.11966666666666667,0.31285714285714283,0.007110373179117838,-3.570450442382814,0.16479000449180603,45.43912887573242,-0.0004546271430121528,-0.058042356703016496
3881,0.04599490695529514,0.19921878814697266,84.84133911132812,84.82088470458984,-3.6026268005371094,87.41905212402344,-0.0059324900309244795,0.11666666666666667,0.31285714285714283,0.005859194861518012,-3.3836885863037125,0.13183200359344482,45.52701950073242,0.00022727118598090277,-0.0669075436062283
3882,0.04208865695529514,0.19921878814697266,84.49356079101562,84.92317199707031,-3.8072052001953125,88.1146240234375,-0.009796820746527778,0.113,0.31285714285714283,0.005370924207899305,-3.251856463500978,-0.09887375170898594,45.52701950073242,-0.004773457845052083,-0.07690921359592014
3883,0.03818240695529514,0.19921878814697266,80.85203552246094,80.0950927734375,-3.0093421936035156,87.48042297363281,-0.011387973361545138,0.11033333333333334,0.3132142857142857,0.004638523525661893,-3.7572122984619156,-0.48338379199218906,45.43912887573242,0.008410474989149305,-0.060997390747070314
3884,0.04990115695529514,0.19921878814697266,85.0050048828125,84.75950622558594,-3.295757293701172,87.39859008789062,-0.0054779052734375,0.10733333333333334,0.3132142857142857,0.004852146572536893,-3.537493365356447,0.5602860450744629,45.43912887573242,0.002727762858072917,-0.06327052646213108
3885,0.05380740695529514,0.19921878814697266,85.96653747558594,86.04837036132812,-3.1730079650878906,88.05325317382812,-0.008205625745985243,0.104,0.31357142857142856,0.005859194861518012,-3.240870135375978,0.8788800239562988,45.43912887573242,-0.0009092542860243056,-0.06918067932128906
3886,0.05771365695529514,0.17929691314697266,86.62118530273438,86.88714599609375,-3.5617103576660156,87.48042297363281,-0.014343007405598959,0.10066666666666667,0.31357142857142856,0.006622113121880426,-3.4276319914550797,0.6701459884643555,45.52701950073242,-0.0029551188151041665,-0.0671348147922092
3887,0.04990115695529514,0.19921878814697266,83.69569396972656,85.39370727539062,-2.9275131225585938,87.78729248046875,-0.014797634548611112,0.09733333333333333,0.31357142857142856,0.006377983093261719,-3.6143938475341812,-0.4174677305908219,45.43912887573242,-0.01886681450737847,-0.06349784003363715
3888,0.04990115695529514,0.219140682220459,85.33233642578125,84.08439636230469,-3.8481216430664062,87.78729248046875,-0.010478719075520834,0.09466666666666666,0.31392857142857145,0.005523512098524305,-3.548477786132814,-0.7690206938476578,45.43912887573242,0.013866000705295138,-0.07372682359483507
3889,0.04208865695529514,0.19921878814697266,84.06393432617188,84.98455047607422,-3.5821685791015625,88.25782775878906,-0.005705218844943577,0.091,0.31392857142857145,0.003967157999674479,-3.603409426757814,-0.5932451658935562,45.43912887573242,-0.010229068332248265,-0.07599995930989584
3890,0.04208865695529514,0.17929691314697266,83.90027618408203,82.83645629882812,-3.3366737365722656,87.70545959472656,-0.018207295735677084,0.08766666666666667,0.31392857142857145,0.0029601097106933595,-3.932987826416017,-1.0986010008544937,45.43912887573242,0.011820220947265625,-0.0671348147922092
3891,0.02255740695529514,0.17929691314697266,85.33233642578125,85.57783508300781,-4.073158264160156,88.42149353027344,-0.0066144307454427086,0.084,0.3142857142857143,0.0008239428202311198,-3.92200340563965,-0.4723993712158219,45.43912887573242,-0.002727762858072917,-0.08327390882703993
3892,-0.01650509304470486,0.15937503814697265,83.26608276367188,84.06393432617188,-3.4185028076171875,87.37813568115234,-0.0002497355143229167,0.08033333333333334,0.315,-0.0025328848097059464,-4.240597384521486,-0.7800070219726578,45.43912887573242,-0.00886501736111111,-0.06440709431966146
3893,-0.01650509304470486,0.15937503814697265,83.5934066772461,84.0025634765625,-2.9479713439941406,87.76683807373047,-0.013433795505099827,0.07666666666666666,0.3157142857142857,-0.0036925209893120658,-4.262568133422853,-0.834936755249025,45.43912887573242,-0.00454618665907118,-0.06349788241916232
3894,-0.0047863430447048615,0.15937503814697265,84.0025634765625,84.37080383300781,-2.497894287109375,86.662109375,-0.01797998216417101,0.07266666666666667,0.3167857142857143,-0.0035704506768120658,-4.284540789672853,-0.6152159147949234,45.43912887573242,-0.004091559516059028,-0.04622226291232639
3895,0.003026156955295139,0.15937503814697265,84.20714569091797,84.20714569091797,-3.725372314453125,87.99187469482422,-0.012751854790581597,0.069,0.31785714285714284,-0.0037840737236870658,-3.4496046477050797,-0.15380539233398594,45.43912887573242,0.0,-0.07463607788085938
3896,-0.01650509304470486,0.15937503814697265,83.83889770507812,83.4501953125,-3.275299072265625,87.562255859375,-0.007069057888454861,0.06533333333333333,0.31857142857142856,-0.005279392666286893,-3.6143938475341812,0.17577600479125977,45.43912887573242,0.0043189154730902775,-0.0648617214626736
3897,-0.02431759304470486,0.15937503814697265,80.77020263671875,83.98210144042969,-3.254840850830078,87.27584838867188,-0.0059324900309244795,0.06233333333333333,0.31857142857142856,-0.006042300330268012,-3.8011576109619156,0.36253800988197327,45.43912887573242,-0.035687764485677086,-0.06145210266113281
3898,-0.008692593044704862,0.15937503814697265,84.82088470458984,85.08683776855469,-3.4594192504882812,87.86912536621094,-0.018889236450195312,0.058666666666666666,0.3192857142857143,-0.004913192325168186,-3.6253801756591812,1.032684087753296,45.43912887573242,-0.0029550340440538192,-0.0703171624077691
3899,-0.01650509304470486,0.15937503814697265,87.31675720214844,87.17355346679688,-3.3162155151367188,87.54179382324219,-0.011160659790039062,0.055,0.3192857142857143,-0.0041807916429307725,-3.7791849547119156,1.9335360527038574,45.43912887573242,0.001591152615017361,-0.06508899264865452
3900,-0.03603634304470486,0.13945316314697265,84.18669128417969,89.09660339355469,-3.3162155151367188,87.54179382324219,-0.006159803602430555,0.052333333333333336,0.3196428571428571,-0.0035704506768120658,-3.7462259703369156,1.6698720455169678,44.12078094482422,-0.054554578993055554,-0.06508899264865452
3901,-0.02431759304470486,0.13945316314697265,83.83889770507812,85.12775421142578,-3.3162155151367188,87.54179382324219,-0.01911655002170139,0.049,0.3192857142857143,-0.002075142330593533,-3.92200340563965,0.1538040041923523,44.12078094482422,-0.014320627848307291,-0.06508899264865452
3902,-0.01650509304470486,0.15937503814697265,83.08195495605469,82.36592102050781,-2.9275131225585938,87.50088500976562,-0.011387973361545138,0.046,0.31857142857142856,-0.001983589596218533,-4.35045685107422,-0.3515516691894547,44.12078094482422,0.0079559326171875,-0.06031553480360243
3903,-0.01650509304470486,0.19921878814697266,84.75950622558594,79.29722595214844,-3.8276634216308594,87.54179382324219,-0.0022955152723524307,0.042,0.31857142857142856,-0.0028380499945746527,-4.174681323120119,-0.2856375151367203,44.12078094482422,0.06069200303819444,-0.07077174716525608
3904,-0.02822384304470486,0.15937503814697265,83.28652954101562,80.66790771484375,-2.9684295654296875,87.17355346679688,-0.011387973361545138,0.03866666666666667,0.31785714285714284,-0.0033568382263183595,-4.141722338745119,0.05493000149726868,42.89031982421875,0.02909579806857639,-0.05713314480251736
3905,-0.02041134304470486,0.17929691314697266,79.09264373779297,80.32012939453125,-2.8047637939453125,87.25538635253906,-0.012979168362087673,0.035,0.3171428571428571,-0.0032042503356933595,-3.8011576109619156,-0.3735243254394547,42.71453857421875,-0.013638729519314236,-0.056223890516493055
3906,-0.02431759304470486,0.15937503814697265,86.35523986816406,85.88470458984375,-3.1525497436523438,87.19401550292969,0.0011141459147135417,0.03266666666666666,0.31607142857142856,-0.0039671685960557725,-3.603409426757814,1.2304320335388184,42.71453857421875,0.005228169759114583,-0.059406280517578125
3907,-0.02431759304470486,0.15937503814697265,86.96897888183594,87.0712661743164,-3.6026268005371094,87.58271789550781,-0.00775099860297309,0.028666666666666667,0.315,-0.0025328848097059464,-3.548477786132814,1.7577600479125977,42.71453857421875,-0.0011365254720052083,-0.0687260521782769
3908,0.0069324069552951385,0.15937503814697265,87.21446990966797,87.15309143066406,-4.400489807128906,88.40103149414062,-0.021162372165256075,0.025,0.31285714285714283,0.0010375658671061198,-3.3177725249023453,1.3183200359344482,42.71453857421875,0.0006819831000434028,-0.0866835700141059
3909,0.003026156955295139,0.13945316314697265,85.12775421142578,86.13019561767578,-4.154991149902344,88.81019592285156,-0.015024948120117187,0.022,0.31107142857142855,0.0017089313930935329,-3.4276319914550797,0.5602860450744629,42.62664794921875,-0.011138237847222222,-0.08850207858615451
3910,-0.0047863430447048615,0.13945316314697265,86.29386138916016,83.12287139892578,-2.7843055725097656,87.13264465332031,-0.010251405504014757,0.018666666666666668,0.30857142857142855,0.0013732486300998264,-3.4715773039550797,0.07690200209617615,42.71453857421875,0.035233222113715275,-0.054632780287000866
3911,-0.02431759304470486,0.1195312786102295,87.45996856689453,87.74638366699219,-3.0093421936035156,87.29630279541016,-0.0011589898003472221,0.015666666666666666,0.30714285714285716,0.0001830948723687066,-2.570725100585939,0.38451001048088074,42.62664794921875,-0.0031823900010850693,-0.058951610989040795
3912,-0.04775509304470486,0.13945316314697265,82.16134643554688,81.97721862792969,-1.495452880859375,86.27340698242188,-0.006159803602430555,0.012333333333333333,0.30428571428571427,-0.0015258365207248264,-1.9774805479736344,-0.823950427124025,42.71453857421875,0.002045864529079861,-0.030765109592013888
3913,-0.02431759304470486,0.13945316314697265,87.5213394165039,86.58027648925781,-1.2704124450683594,85.5982894897461,-0.01616151597764757,0.008333333333333333,0.3028571428571429,-0.0007629182603624132,-1.0656420164794937,-0.13183273608398594,41.22040939331055,0.010456254747178819,-0.020763354831271702
3914,-0.05556759304470486,0.1195312786102295,86.23248291015625,86.04837036132812,-1.3727035522460938,86.88714599609375,0.0015687730577256945,0.006333333333333333,0.29964285714285716,-0.0026244375440809464,-0.3515516691894547,0.24169200658798218,27.245899200439453,0.0020456949869791666,-0.036220550537109375
3915,-0.05947384304470486,0.1195312786102295,87.48042297363281,87.99187469482422,1.4300422668457031,83.06149291992188,-0.014570320977105035,0.0036666666666666666,0.2960714285714286,-0.0022582372029622396,-0.5053564482421891,-0.03295769030761875,27.158010482788086,-0.0056827969021267365,0.037428326076931424
3916,-0.03213009304470486,0.13945316314697265,85.557373046875,86.68256378173828,-0.20659637451171875,83.90027618408203,-0.009569507175021702,0.002,0.2907142857142857,-0.0017394595675998264,0.6262019872665405,-0.5712725096435562,27.158010482788086,-0.01250211927625868,0.009923638237847223
3917,-0.012598843044704862,0.13945316314697265,85.74149322509766,81.0975341796875,0.4276008605957031,84.69813537597656,-0.01616151597764757,0.001,0.2864285714285714,-0.0014953189425998264,0.9667680263519287,-0.9997259550781266,27.158010482788086,0.051599544949001735,0.008105172051323785
3918,0.003026156955295139,0.1195312786102295,85.14820861816406,83.1024169921875,4.048664093017578,81.56806182861328,-0.010933346218532987,0.0006666666666666666,0.28035714285714286,-0.0013122240702311198,0.7360620498657227,-0.17577614123535312,27.158010482788086,0.02273101806640625,0.08311780293782552
3919,0.003026156955295139,0.1195312786102295,83.96165466308594,80.87248992919922,2.207447052001953,82.32501220703125,-0.008660252888997395,0.0003333333333333333,0.2767857142857143,-0.0013732592264811198,1.768746018409729,0.19774800539016724,27.158010482788086,0.03432405259874132,0.054249276055230035
3920,0.01865115695529514,0.09960939407348633,85.16867065429688,85.5164566040039,5.889884948730469,79.0312728881836,-0.014570320977105035,0.0,0.2714285714285714,-0.0,1.9445220232009888,0.48338401317596436,27.158010482788086,-0.003864288330078125,0.1317623562282986
