,WD,WS,AIL_1,AIL_2,ELEV_1,ELEV_2,RUDD,ALT,GS,TH,PTCH,ROLL,PLA_1,AIL,ELEV
6703,-0.027466837565104166,0.3585938262939453,85.25050354003906,84.43218231201172,-0.9840011596679688,82.01814270019531,-0.3969076368543837,0.859,0.5657142857142857,0.1996997392361111,5.273280143737793,-2.0763555937500016,28.388469696044922,0.009092458089192708,0.022198401557074653
6704,-0.031373087565104166,0.3585938262939453,85.20958709716797,84.26852416992188,-1.331787109375,82.87738037109375,-0.3966803232828776,0.8576666666666667,0.5617857142857143,0.1986621415798611,4.833840370178223,-2.3180471831054703,28.300579071044922,0.010456254747178819,0.008787027994791667
6705,-0.031373087565104166,0.3585938262939453,85.1072998046875,84.24806213378906,-1.945526123046875,83.38882446289062,-0.3973622216118707,0.857,0.5589285714285714,0.19762462869466144,4.240596294403076,-2.6476274901123062,28.300579071044922,0.009547085232204862,-0.0037150065104166667
6706,-0.031373087565104166,0.3585938262939453,84.92317199707031,84.0434799194336,-2.354686737060547,83.73661041259766,-0.3966803232828776,0.8566666666666667,0.555,0.19637340799153644,3.768198013305664,-2.955235140869142,28.300579071044922,0.009774356418185763,-0.012125523885091145
6707,-0.031373087565104166,0.3585938262939453,84.86180114746094,83.87982177734375,-3.0093421936035156,84.14576721191406,-0.3966803232828776,0.8556666666666667,0.5525,0.19515270486653644,3.3617160320281982,-3.0101648741455094,28.300579071044922,0.010910881890190972,-0.023945660061306422
6708,-0.031373087565104166,0.33867195129394534,84.5958480834961,83.83889770507812,-3.3366737365722656,84.554931640625,-0.39645300971137154,0.855,0.5478571428571428,0.19377949862196178,2.8783321380615234,-2.922276156494142,28.300579071044922,0.008410559760199653,-0.03212894863552517
6709,-0.031373087565104166,0.33867195129394534,84.45263671875,83.14332580566406,-3.7662887573242188,84.84133911132812,-0.3966803232828776,0.8543333333333333,0.545,0.19243672518446178,2.4608640670776367,-2.6256548338623062,28.300579071044922,0.014547899034288195,-0.040084754096137154
6710,-0.031373087565104166,0.33867195129394534,84.77996826171875,83.75706481933594,-4.298198699951172,85.35279846191406,-0.39645300971137154,0.8536666666666667,0.5407142857142857,0.19124662440863713,2.186213970184326,-1.9884668760986344,28.300579071044922,0.011365593804253473,-0.05167774624294705
6711,-0.035279337565104166,0.33867195129394534,85.0050048828125,83.94119262695312,-4.318656921386719,85.41416931152344,-0.39622569613986547,0.853,0.5375,0.19030057948676213,1.7138160467147827,-1.7028299742431656,28.300579071044922,0.011820136176215277,-0.05258695814344618
6712,-0.035279337565104166,0.33867195129394534,85.14820861816406,84.12531280517578,-4.339115142822266,85.43462371826172,-0.3966803232828776,0.8523333333333334,0.5332142857142858,0.18953764003363713,1.4391660690307617,-1.6259294920654312,28.300579071044922,0.011365509033203125,-0.05304154290093316
6713,-0.039185587565104166,0.33867195129394534,85.31187438964844,84.39126586914062,-4.3595733642578125,85.43462371826172,-0.3966803232828776,0.851,0.5307142857142857,0.18868323261718747,1.1315580606460571,-1.7248026304931656,28.300579071044922,0.010228983561197917,-0.05326885647243924
6714,-0.039185587565104166,0.33867195129394534,85.25050354003906,84.35034942626953,-4.216365814208984,85.33233642578125,-0.3966803232828776,0.849,0.5275,0.18764563496093747,0.8129640221595764,-2.0763555937500016,26.982229232788086,0.010001712375217013,-0.05054113599989149
6715,-0.039185587565104166,0.33867195129394534,85.0459213256836,84.08439636230469,-4.154991149902344,85.20958709716797,-0.39758953518337675,0.846,0.5257142857142857,0.18654700214843747,0.6591600179672241,-2.504809039184572,26.71855926513672,0.01068361070421007,-0.048495313856336805
6716,-0.043091837565104166,0.33867195129394534,85.0050048828125,84.08439636230469,-4.339115142822266,85.27096557617188,-0.3969076368543837,0.843,0.5225,0.18511276074761282,0.6152160167694092,-2.7355143004150406,26.71855926513672,0.010228983561197917,-0.0512231190999349
6717,-0.043091837565104166,0.33867195129394534,85.37325286865234,84.37080383300781,-4.318656921386719,85.43462371826172,-0.3971349080403646,0.8396666666666667,0.5207142857142857,0.18361739941948782,0.373524010181427,-2.823403018066408,26.63067054748535,0.01113832261827257,-0.05281422932942708
6718,-0.046998087565104166,0.33867195129394534,84.92317199707031,84.1048583984375,-4.277740478515625,85.39370727539062,-0.39645300971137154,0.836,0.5185714285714286,0.18172539434678817,0.09887400269508362,-3.3287588530273453,26.63067054748535,0.00909237331814236,-0.05190497504340278
6719,-0.039185587565104166,0.33867195129394534,84.554931640625,83.552490234375,-4.339115142822266,85.455078125,-0.3971349080403646,0.8323333333333334,0.5167857142857143,0.1801385650553385,0.0,-3.7352415495605484,26.63067054748535,0.011138237847222222,-0.053268814086914064
6720,-0.039185587565104166,0.33867195129394534,84.61630249023438,83.552490234375,-4.3595733642578125,85.47554016113281,-0.3971349080403646,0.8283333333333334,0.5142857142857142,0.1786126861490885,-0.18676246936035312,-3.570450442382814,26.63067054748535,0.011820136176215277,-0.05372348361545139
6721,-0.039185587565104166,0.33867195129394534,84.71859741210938,83.67523193359375,-4.4209442138671875,85.47554016113281,-0.39645300971137154,0.8246666666666667,0.5128571428571429,0.17665964592013886,-0.2856375151367203,-3.196926730224611,26.63067054748535,0.011592949761284723,-0.05440538194444444
6722,-0.043091837565104166,0.33867195129394534,84.86180114746094,83.79798889160156,-4.911937713623047,85.90515899658203,-0.39622569613986547,0.8203333333333334,0.5103571428571428,0.1746150529568142,-0.2856375151367203,-2.9881922178955094,26.63067054748535,0.011820136176215277,-0.06463440789116753
6723,-0.043091837565104166,0.33867195129394534,84.96409606933594,83.98210144042969,-5.136974334716797,86.19157409667969,-0.3971349080403646,0.8176666666666667,0.5082142857142857,0.1732112443630642,-0.5163427763671891,-3.1419969969482437,26.63067054748535,0.010911051432291667,-0.07031720479329427
6724,-0.035279337565104166,0.3187500762939453,85.37325286865234,84.06393432617188,-5.5870513916015625,86.43707275390625,-0.3969076368543837,0.8153333333333334,0.5042857142857143,0.1722651994411892,-0.7580343657226578,-3.262842791625978,26.63067054748535,0.014547983805338541,-0.0780458238389757
6725,-0.035279337565104166,0.33867195129394534,85.31187438964844,84.41172790527344,-5.5870513916015625,86.84622192382812,-0.3966803232828776,0.8123333333333334,0.5010714285714286,0.17034267679036455,-0.9557825499267594,-3.4276319914550797,26.63067054748535,0.010001627604166667,-0.08259192572699653
6726,-0.043091837565104166,0.33867195129394534,85.27096557617188,84.30943298339844,-5.689342498779297,86.86668395996094,-0.39622569613986547,0.8073333333333333,0.4957142857142857,0.1676877322645399,-1.2304331236572281,-3.812142031738283,26.63067054748535,0.010683695475260416,-0.08395584954155816
6727,-0.046998087565104166,0.33867195129394534,84.24806213378906,84.06393432617188,-5.607509613037109,86.86668395996094,-0.3969076368543837,0.8043333333333333,0.49214285714285716,0.16494123500434024,-1.3402925902099625,-4.482288973876955,26.63067054748535,0.002045864529079861,-0.08304659525553386
6728,-0.043091837565104166,0.3187500762939453,84.26852416992188,83.34790802001953,-5.566593170166016,86.68256378173828,-0.3978168487548828,0.8006666666666666,0.48642857142857143,0.1629881947753906,-1.527054446289064,-4.745953219482423,26.63067054748535,0.010229068332248265,-0.08054618835449219
6729,-0.043091837565104166,0.3187500762939453,84.02302551269531,83.65477752685547,-5.218807220458984,86.45751953125,-0.39758953518337675,0.797,0.4828571428571429,0.16076049634331596,-1.6698728972167984,-4.174681323120119,26.63067054748535,0.004091644287109375,-0.07418140835232205
6730,-0.043091837565104166,0.3187500762939453,84.24806213378906,83.26608276367188,-5.177890777587891,86.21202850341797,-0.3969076368543837,0.7923333333333333,0.47785714285714287,0.15807494946831596,-1.6149431639404312,-3.834114687988283,26.63067054748535,0.010910881890190972,-0.07099910312228733
6731,-0.035279337565104166,0.3187500762939453,84.49356079101562,83.57295227050781,-5.157432556152344,86.19157409667969,-0.3978168487548828,0.788,0.47464285714285714,0.1569764014268663,-1.516068118164064,-3.1419969969482437,26.63067054748535,0.010228983561197917,-0.07054451836480034
6732,-0.035279337565104166,0.3187500762939453,84.554931640625,83.65477752685547,-5.11651611328125,86.08927917480469,-0.3971349080403646,0.7836666666666666,0.47,0.1554200049424913,-1.5929705076904312,-2.3949495726318375,26.63067054748535,0.010001712375217013,-0.06895328097873264
6733,-0.039185587565104166,0.3187500762939453,85.0459213256836,83.96165466308594,-5.136974334716797,86.08927917480469,-0.3966803232828776,0.779,0.46714285714285714,0.15380265807291665,-1.6149431639404312,-1.8566347532959,26.63067054748535,0.01204740736219618,-0.06918059455023871
6734,-0.035279337565104166,0.3187500762939453,85.23004150390625,84.39126586914062,-5.075603485107422,85.98699188232422,-0.39758953518337675,0.774,0.4632142857142857,0.15313127135416665,-1.6918455534667984,-1.8566347532959,26.63067054748535,0.009319729275173612,-0.06736217074924045
6735,-0.035279337565104166,0.3187500762939453,85.5164566040039,84.82088470458984,-5.034687042236328,85.74149322509766,-0.39827147589789497,0.7686666666666667,0.4607142857142857,0.15261247252604165,-1.7577597075195328,-1.9445234709472672,26.63067054748535,0.00772857666015625,-0.06417978074815538
6736,-0.019654337565104166,0.3187500762939453,84.92317199707031,84.24806213378906,-4.8914794921875,85.70057678222656,-0.39849878946940104,0.7633333333333333,0.4567857142857143,0.152002205734592,-1.7797323637695328,-2.493822711059572,26.63067054748535,0.007501220703125,-0.06213395860460069
6737,-0.011841837565104167,0.3187500762939453,85.06637573242188,84.06393432617188,-4.850563049316406,85.43462371826172,-0.3994080437554253,0.7576666666666667,0.4546428571428571,0.151574959640842,-1.5929705076904312,-2.559738772460939,26.63067054748535,0.011138237847222222,-0.058724297417534724
6738,-0.023560587565104166,0.3187500762939453,85.14820861816406,84.26852416992188,-4.8096466064453125,85.43462371826172,-0.39622569613986547,0.7526666666666667,0.4514285714285714,0.14919467331814235,-1.3183199339599625,-2.1312853270263687,28.65213966369629,0.009774271647135417,-0.05826967027452257
6739,-0.027466837565104166,0.3187500762939453,85.12775421142578,84.35034942626953,-4.768730163574219,85.43462371826172,-0.3971349080403646,0.7473333333333333,0.44857142857142857,0.14721103074001735,-1.2743765288085953,-2.142269747802736,47.987937927246094,0.008637830946180555,-0.05781504313151042
6740,-0.027466837565104166,0.3187500762939453,85.16867065429688,84.32989501953125,-4.830104827880859,85.5982894897461,-0.3973622216118707,0.7423333333333333,0.44571428571428573,0.1460819651204427,-1.2304331236572281,-2.230158465454103,53.52500915527344,0.009319729275173612,-0.06031549241807726
6741,-0.023560587565104166,0.3187500762939453,85.455078125,84.554931640625,-5.096061706542969,86.02790832519531,-0.3978168487548828,0.7373333333333333,0.4446428571428571,0.1455631662923177,-1.3183199339599625,-2.208185809204103,53.78868103027344,0.010001627604166667,-0.06804411146375867
6742,-0.015748087565104166,0.3187500762939453,85.47554016113281,84.71859741210938,-5.034687042236328,86.15065002441406,-0.39827147589789497,0.732,0.44821428571428573,0.1448917795735677,-1.549027102539064,-2.4388929777832047,53.78868103027344,0.008410474989149305,-0.06872596740722656
6743,-0.015748087565104166,0.3187500762939453,85.39370727539062,84.5958480834961,-5.157432556152344,86.13019561767578,-0.3973622216118707,0.726,0.45035714285714284,0.14321339754774304,-1.7467752867431656,-2.7794596129150406,53.96445846557617,0.008865102132161459,-0.06986253526475694
6744,-0.023560587565104166,0.3187500762939453,85.27096557617188,84.53446960449219,-5.1983489990234375,86.17111206054688,-0.3980441623263889,0.72,0.4539285714285714,0.14101613192274304,-1.8126913481445328,-3.1529833250732437,53.96445846557617,0.00818328857421875,-0.07077178955078126
6745,-0.019654337565104166,0.3187500762939453,84.61630249023438,83.71615600585938,-5.218807220458984,86.17111206054688,-0.3980441623263889,0.7143333333333334,0.45607142857142857,0.13887998622504338,-1.8676210814209,-3.559464114257814,53.2613410949707,0.010001627604166667,-0.07099910312228733
6746,-0.011841837565104167,0.3187500762939453,84.80043029785156,83.85935974121094,-5.464302062988281,86.45751953125,-0.3994080437554253,0.7083333333333334,0.4589285714285714,0.13762885029296873,-1.9005781584472672,-3.3727022581787125,52.8218879699707,0.010456339518229166,-0.07690912882486979
6747,-0.015748087565104166,0.3187500762939453,85.12775421142578,84.37080383300781,-5.402931213378906,86.37569427490234,-0.39758953518337675,0.7023333333333334,0.4607142857142857,0.13540106708984373,-2.1312853270263687,-3.185940402099611,52.030879974365234,0.008410559760199653,-0.07531806098090278
6748,-0.011841837565104167,0.3187500762939453,85.1072998046875,84.24806213378906,-5.341556549072266,86.29386138916016,-0.39849878946940104,0.696,0.4632142857142857,0.13393630811089408,-2.208185809204103,-3.3617159300537125,50.53675079345703,0.009547085232204862,-0.07372686598036024
6749,-0.011841837565104167,0.3187500762939453,85.08683776855469,84.22760009765625,-5.341556549072266,86.27340698242188,-0.39827147589789497,0.69,0.465,0.13213585577256942,-2.153256075927736,-3.4386183195800797,46.933258056640625,0.009547085232204862,-0.07349959479437934
6750,-0.011841837565104167,0.3187500762939453,85.08683776855469,84.20714569091797,-5.321098327636719,86.29386138916016,-0.3987261030409071,0.6836666666666666,0.4657142857142857,0.13024376592881942,-2.186215060302736,-3.3836885863037125,45.966468811035156,0.009774356418185763,-0.07349955240885417
6751,-0.015748087565104166,0.3187500762939453,85.0459213256836,84.16622924804688,-5.218807220458984,86.21202850341797,-0.39758953518337675,0.6776666666666666,0.4657142857142857,0.12783296202799477,-2.241144793579103,-3.4166475706787125,44.56023025512695,0.009774356418185763,-0.07145373026529948
6752,-0.011841837565104167,0.3187500762939453,85.06637573242188,84.20714569091797,-5.136974334716797,86.13019561767578,-0.3987261030409071,0.6716666666666666,0.46535714285714286,0.1261545800021701,-2.153256075927736,-3.4825636320800797,42.538761138916016,0.009547000461154514,-0.06963522169325087
6753,-0.015748087565104166,0.3187500762939453,85.0459213256836,84.0434799194336,-5.136974334716797,86.13019561767578,-0.3971349080403646,0.6656666666666666,0.465,0.12380481125759546,-2.0653692656250016,-3.4825636320800797,41.22040939331055,0.011138237847222222,-0.06963522169325087
6754,-0.011841837565104167,0.3187500762939453,85.12775421142578,84.28897857666016,-5.075603485107422,86.0688247680664,-0.39849878946940104,0.66,0.4632142857142857,0.12227893235134546,-2.0543829375000016,-3.4825636320800797,40.60517883300781,0.009319729275173612,-0.06827142503526476
6755,-0.011841837565104167,0.3187500762939453,85.12775421142578,84.30943298339844,-5.075603485107422,86.0688247680664,-0.39849878946940104,0.6543333333333333,0.4625,0.1205089975911458,-2.0543829375000016,-3.504534380981447,40.42940139770508,0.009092458089192708,-0.06827142503526476
6756,-0.011841837565104167,0.3187500762939453,85.0459213256836,84.22760009765625,-5.096061706542969,86.08927917480469,-0.3989534166124132,0.6483333333333333,0.4607142857142857,0.1186474253255208,-2.0653692656250016,-3.570450442382814,40.34151077270508,0.009092458089192708,-0.06872600979275173
6757,-0.011841837565104167,0.29882820129394533,84.77996826171875,83.81844329833984,-5.055145263671875,86.04837036132812,-0.3973622216118707,0.6426666666666667,0.45964285714285713,0.11666386751844615,-2.0433966093750016,-3.4056612425537125,40.34151077270508,0.01068361070421007,-0.06781684027777778
6758,-0.007935587565104167,0.3187500762939453,85.0459213256836,84.22760009765625,-5.034687042236328,86.04837036132812,-0.3973622216118707,0.637,0.45785714285714285,0.1148634151801215,-1.9994532042236344,-3.0541082792968766,40.34151077270508,0.009092458089192708,-0.0675895267062717
6759,-0.011841837565104167,0.3187500762939453,84.86180114746094,84.14576721191406,-5.034687042236328,85.98699188232422,-0.3971349080403646,0.6306666666666667,0.4567857142857143,0.1127271847113715,-1.9994532042236344,-2.944248812744142,39.726280212402344,0.0079559326171875,-0.0669075436062283
6760,-0.007935587565104167,0.3187500762939453,84.63676452636719,83.79798889160156,-4.9733123779296875,85.84378051757812,-0.3978168487548828,0.6246666666666667,0.45535714285714285,0.11123190815429686,-2.0543829375000016,-2.944248812744142,38.583709716796875,0.009319729275173612,-0.06463436550564236
6761,-0.004029337565104167,0.3187500762939453,84.71859741210938,83.87982177734375,-4.9733123779296875,85.78240966796875,-0.39827147589789497,0.619,0.4539285714285714,0.11007224018554686,-1.9664942198486344,-2.7574869566650406,38.320037841796875,0.009319729275173612,-0.0639524671766493
6762,-0.004029337565104167,0.3187500762939453,84.75950622558594,83.87982177734375,-4.952854156494141,85.78240966796875,-0.3978168487548828,0.613,0.4521428571428571,0.1083023054253472,-1.8676210814209,-2.482836382934572,38.14426040649414,0.009774271647135417,-0.06372515360514323
6763,-0.00012308756510416666,0.29882820129394533,84.98455047607422,84.06393432617188,-4.952854156494141,85.76194763183594,-0.39849878946940104,0.6073333333333333,0.45071428571428573,0.1073562605034722,-1.8456484251709,-1.9994532042236344,38.14426040649414,0.010229068332248265,-0.06349779764811198
6764,-0.00012308756510416666,0.3187500762939453,85.29141998291016,84.28897857666016,-4.9733123779296875,85.80287170410156,-0.39827147589789497,0.6013333333333334,0.44892857142857145,0.10634926519639755,-1.8786074095459,-1.6698728972167984,38.14426040649414,0.011138237847222222,-0.06417982313368055
6765,0.0037831624348958334,0.3187500762939453,85.74149322509766,84.92317199707031,-4.8914794921875,85.84378051757812,-0.39827147589789497,0.595,0.44785714285714284,0.10537270269639755,-1.9115644865722672,-1.5929705076904312,38.14426040649414,0.009092458089192708,-0.06372511121961806
6766,-0.00012308756510416666,0.3187500762939453,85.5164566040039,84.75950622558594,-4.932395935058594,85.63920593261719,-0.3978168487548828,0.589,0.44535714285714284,0.10399941168077255,-1.9774805479736344,-1.9445234709472672,38.14426040649414,0.008410559760199653,-0.061906687418619794
6767,-0.004029337565104167,0.3187500762939453,85.02546691894531,84.37080383300781,-4.911937713623047,85.63920593261719,-0.3980441623263889,0.5826666666666667,0.4446428571428571,0.1023820648111979,-1.9005781584472672,-2.515795367309572,38.05636978149414,0.007274034288194444,-0.061679373847113715
6768,-0.00012308756510416666,0.33867195129394534,84.53446960449219,83.57295227050781,-4.8914794921875,85.61874389648438,-0.39918073018391925,0.5766666666666667,0.44285714285714284,0.1013444671549479,-1.7907186918945328,-2.7794596129150406,38.14426040649414,0.010683525933159722,-0.06122470431857639
6769,0.007689412434895833,0.3187500762939453,84.57539367675781,83.98210144042969,-4.8914794921875,85.5982894897461,-0.3989534166124132,0.5703333333333334,0.4417857142857143,0.10024591911349824,-1.7687460356445328,-2.3290335112304703,38.14426040649414,0.006592135959201389,-0.06099743313259549
6770,0.0037831624348958334,0.3187500762939453,84.96409606933594,83.94119262695312,-4.8914794921875,85.557373046875,-0.3980441623263889,0.5643333333333334,0.44,0.09872004020724824,-1.8126913481445328,-2.164242404052736,38.14426040649414,0.011365593804253473,-0.06054280598958333
6771,0.007689412434895833,0.3187500762939453,85.5164566040039,84.49356079101562,-4.830104827880859,85.47554016113281,-0.39849878946940104,0.5583333333333333,0.43892857142857145,0.09786563279079859,-1.8017050200195328,-1.7907186918945328,38.14426040649414,0.011365509033203125,-0.058951610989040795
6772,0.007689412434895833,0.3187500762939453,85.61874389648438,84.82088470458984,-4.8096466064453125,85.37325286865234,-0.39827147589789497,0.5523333333333333,0.4375,0.09670596482204859,-1.7357889586181656,-1.8017050200195328,38.14426040649414,0.008865102132161459,-0.05758777194552951
6773,0.0037831624348958334,0.3187500762939453,85.57783508300781,84.88226318359375,-4.768730163574219,85.33233642578125,-0.39827147589789497,0.546,0.43642857142857144,0.09560733200954859,-1.6039568358154312,-2.1312853270263687,38.14426040649414,0.00772857666015625,-0.056678517659505205
6774,0.007689412434895833,0.3187500762939453,84.61630249023438,84.24806213378906,-4.768730163574219,85.33233642578125,-0.39918073018391925,0.54,0.435,0.09447826638997393,-1.516068118164064,-2.515795367309572,38.14426040649414,0.004091559516059028,-0.056678517659505205
6775,0.007689412434895833,0.3187500762939453,84.73905181884766,83.98210144042969,-4.7482757568359375,85.29141998291016,-0.39918073018391925,0.534,0.43392857142857144,0.09289135232747393,-1.516068118164064,-2.2960745268554703,38.14426040649414,0.008410559760199653,-0.05599661933051215
6776,-0.00012308756510416666,0.3187500762939453,84.49356079101562,83.67523193359375,-4.727817535400391,85.27096557617188,-0.3978168487548828,0.528,0.43214285714285716,0.09084675936414928,-1.4391657286376969,-2.1312853270263687,38.14426040649414,0.009092542860243056,-0.05554203457302517
6777,0.0037831624348958334,0.3187500762939453,84.82088470458984,83.71615600585938,-4.727817535400391,85.25050354003906,-0.3987261030409071,0.522,0.43142857142857144,0.08977864412977428,-1.4721247130126969,-1.8566347532959,38.14426040649414,0.01227476331922743,-0.05531467861599392
6778,0.0037831624348958334,0.3187500762939453,85.35279846191406,84.554931640625,-4.645984649658203,85.06637573242188,-0.39918073018391925,0.5156666666666667,0.43,0.08886320155707463,-1.4171949797363297,-1.538040774414064,38.14426040649414,0.008865186903211806,-0.05235955980088976
6779,-0.004029337565104167,0.3187500762939453,85.1072998046875,84.5140151977539,-4.645984649658203,84.98455047607422,-0.39827147589789497,0.51,0.42928571428571427,0.08748991054144963,-1.164517062255861,-1.6588865690917984,38.14426040649414,0.0065920511881510414,-0.0514503902859158
6780,-0.00012308756510416666,0.3187500762939453,85.37325286865234,84.28897857666016,-4.645984649658203,85.0050048828125,-0.39827147589789497,0.5043333333333333,0.4275,0.08672705585937497,-1.0546575957031266,-1.7907186918945328,38.14426040649414,0.012047492133246528,-0.0516776614718967
6781,-0.00012308756510416666,0.3187500762939453,85.74149322509766,84.75950622558594,-4.625526428222656,85.0050048828125,-0.3980441623263889,0.49833333333333335,0.42642857142857143,0.08578101093749997,-1.0326849394531266,-1.8566347532959,38.14426040649414,0.01091096666124132,-0.051450347900390624
6782,0.0037831624348958334,0.3187500762939453,85.5982894897461,85.23004150390625,-4.66644287109375,84.92317199707031,-0.3989534166124132,0.49333333333333335,0.42464285714285716,0.08468237812499997,-0.9118391447753922,-2.219172137329103,38.14426040649414,0.004091644287109375,-0.050995720757378474
6783,0.011595634657118126,0.3187500762939453,84.82088470458984,84.45263671875,-4.5846099853515625,85.0459213256836,-0.39918073018391925,0.488,0.4235714285714286,0.08379745313042532,-0.8898664885253922,-2.922276156494142,38.14426040649414,0.004091644287109375,-0.051450347900390624
6784,0.019408134657118124,0.3187500762939453,84.5958480834961,83.79798889160156,-4.605068206787109,85.0050048828125,-0.3994080437554253,0.48233333333333334,0.42178571428571426,0.08263778516167532,-0.8788801604003922,-2.889319079467775,38.14426040649414,0.008865102132161459,-0.051223034328884545
6785,0.011595634657118126,0.3187500762939453,84.80043029785156,83.92073059082031,-4.625526428222656,85.20958709716797,-0.3980441623263889,0.477,0.4207142857142857,0.08047112188585068,-0.823950427124025,-2.3729769163818375,38.14426040649414,0.009774441189236111,-0.05372348361545139
6786,0.011595634657118126,0.3187500762939453,85.16867065429688,83.98210144042969,-4.686901092529297,85.57783508300781,-0.3978168487548828,0.472,0.4185714285714286,0.07885369024522568,-0.823950427124025,-2.164242404052736,38.14426040649414,0.013184102376302083,-0.05849706861707899
6787,0.019408134657118124,0.29882820129394533,85.65966796875,84.71859741210938,-4.871021270751953,85.90515899658203,-0.3989534166124132,0.4686666666666667,0.4160714285714286,0.07845696172960068,-0.7580343657226578,-2.0763555937500016,38.14426040649414,0.010456339518229166,-0.06417978074815538
6788,0.019408134657118124,0.29882820129394533,85.31187438964844,84.47309875488281,-5.423389434814453,86.45751953125,-0.3987261030409071,0.4653333333333333,0.41214285714285714,0.07720582579752602,-0.7031046324462906,-2.504809039184572,38.14426040649414,0.009319729275173612,-0.07645454406738281
6789,0.031126884657118124,0.29882820129394533,85.16867065429688,84.35034942626953,-5.689342498779297,86.72348022460938,-0.3994080437554253,0.4633333333333333,0.4089285714285714,0.07650392150065102,-0.9338098936767594,-2.7025572233886734,38.14426040649414,0.009092458089192708,-0.0823646969265408
6790,0.035033134657118124,0.2789063262939453,85.16867065429688,84.35034942626953,-5.730258941650391,86.76439666748047,-0.3987261030409071,0.4623333333333333,0.4039285714285714,0.07497812736545137,-0.9228254729003922,-2.581711428710939,38.583709716796875,0.009092458089192708,-0.0832739512125651
6791,0.023314384657118124,0.2789063262939453,85.08683776855469,84.30943298339844,-5.934837341308594,86.94851684570312,-0.39827147589789497,0.46166666666666667,0.40035714285714286,0.07247577073025172,-0.7690206938476578,-2.537766116210939,40.69306945800781,0.008637830946180555,-0.08759282430013021
6792,0.023314384657118124,0.29882820129394533,84.37080383300781,83.552490234375,-5.914379119873047,86.98943328857422,-0.39918073018391925,0.4603333333333333,0.3960714285714286,0.07088885666775172,-0.8898664885253922,-2.6695982390136734,40.69306945800781,0.00909237331814236,-0.08782013787163628
6793,0.023314384657118124,0.2789063262939453,84.90271759033203,83.98210144042969,-6.057586669921875,86.94851684570312,-0.3989534166124132,0.4593333333333333,0.39357142857142857,0.06899685159505206,-1.0216986113281266,-1.9225508146972672,40.86885070800781,0.010229068332248265,-0.08895670572916667
6794,0.015501884657118126,0.29882820129394533,84.94363403320312,84.22760009765625,-5.9757537841796875,86.88714599609375,-0.39758953518337675,0.45766666666666667,0.3896428571428571,0.06707424417317706,-1.3073355131835953,-1.7467752867431656,40.86885070800781,0.0079559326171875,-0.0873655531141493
6795,0.011595634657118126,0.2789063262939453,84.96409606933594,84.22760009765625,-5.934837341308594,86.94851684570312,-0.3994080437554253,0.45566666666666666,0.3875,0.06597569613172741,-1.505081790039064,-1.7577597075195328,40.86885070800781,0.00818328857421875,-0.08759282430013021
6796,0.0037831624348958334,0.2789063262939453,84.53446960449219,83.85935974121094,-5.66888427734375,86.64164733886719,-0.3973622216118707,0.4533333333333333,0.3846428571428571,0.06414472621527775,-1.7797323637695328,-1.8456484251709,40.86885070800781,0.007501220703125,-0.08122812906901042
6797,0.007689412434895833,0.2789063262939453,84.63676452636719,83.85935974121094,-5.627967834472656,86.6007308959961,-0.39827147589789497,0.45,0.38285714285714284,0.06325971644965275,-2.0873400145263687,-1.9005781584472672,40.95674133300781,0.008637830946180555,-0.0803188747829861
6798,0.027220634657118124,0.2789063262939453,84.24806213378906,83.38882446289062,-5.546134948730469,86.559814453125,-0.4007719251844618,0.44666666666666666,0.38142857142857145,0.06368696254340275,-2.2850881987304703,-2.0324102812500016,40.86885070800781,0.009547085232204862,-0.07895499335394965
6799,0.027220634657118124,0.2789063262939453,83.73661041259766,83.40928649902344,-5.402931213378906,86.04837036132812,-0.39758953518337675,0.442,0.38035714285714284,0.06234418910590275,-2.537766116210939,-1.538040774414064,35.41967010498047,0.003636932373046875,-0.0716811286078559
6800,0.019408134657118124,0.2789063262939453,80.64745330810547,77.72195434570312,-5.382472991943359,86.23248291015625,-0.39849878946940104,0.43866666666666665,0.37892857142857145,0.0609404652832031,-2.4279066496582047,-0.4614130430908219,26.279109954833984,0.03250554402669271,-0.073499510023329
6801,0.011595634657118126,0.2789063262939453,83.81844329833984,82.52958679199219,-5.44384765625,86.41661071777344,-0.3925887213812934,0.43333333333333335,0.3775,0.0605742543457031,-2.493822711059572,3.9659461975097656,26.279109954833984,0.014320627848307291,-0.07622731526692708
6802,-0.00012308756510416666,0.29882820129394533,85.80287170410156,84.47309875488281,-5.382472991943359,86.45751953125,-0.394861814710829,0.42833333333333334,0.3742857142857143,0.06289350551215275,-2.922276156494142,5.998356342315674,26.279109954833984,0.014775254991319445,-0.07599991692437066
6803,-0.00012308756510416666,0.2789063262939453,86.559814453125,85.57783508300781,-5.382472991943359,86.08927917480469,-0.3973622216118707,0.4226666666666667,0.37285714285714283,0.06774563089192706,-3.3727022581787125,6.525684356689453,26.279109954833984,0.010910881890190972,-0.07190835740831163
6804,0.015501884657118126,0.29882820129394533,87.21446990966797,86.5188980102539,-5.259723663330078,85.98699188232422,-0.40054461161295574,0.417,0.3707142857142857,0.07375742424045137,-3.7022825651855484,5.745677947998047,26.279109954833984,0.00772857666015625,-0.06940795050726997
6805,0.027220634657118124,0.2789063262939453,86.74394226074219,86.62118530273438,-5.157432556152344,85.5982894897461,-0.40054461161295574,0.4103333333333333,0.3703571428571429,0.07867058477647568,-3.7462259703369156,4.592148303985596,26.279109954833984,0.0013639662000868055,-0.0639524671766493
6806,0.023314384657118124,0.29882820129394533,86.662109375,85.98699188232422,-5.136974334716797,85.61874389648438,-0.3994080437554253,0.4036666666666667,0.36857142857142855,0.08126449414605032,-3.548477786132814,3.47157621383667,26.279109954833984,0.007501305474175347,-0.06395242479112413
6807,0.019408134657118124,0.2789063262939453,86.96897888183594,86.13019561767578,-4.9733123779296875,85.43462371826172,-0.3998626708984375,0.3973333333333333,0.3675,0.08352279492730032,-3.6583391600341812,2.438892126083374,26.279109954833984,0.009319814046223958,-0.06008817884657118
6808,0.023314384657118124,0.2789063262939453,86.94851684570312,86.33477783203125,-4.830104827880859,85.14820861816406,-0.4000899844699436,0.3903333333333333,0.36678571428571427,0.08526221210937497,-3.6583391600341812,1.4281799793243408,26.279109954833984,0.006819322374131944,-0.055314593844943576
6809,0.023314384657118124,0.2789063262939453,86.82576751708984,86.17111206054688,-4.768730163574219,85.06637573242188,-0.40031729804144967,0.38366666666666666,0.36607142857142855,0.08648291523437497,-3.4605909758300797,0.3076080083847046,26.279109954833984,0.0072739495171440975,-0.05372339884440104
6810,0.031126884657118124,0.2789063262939453,86.72348022460938,86.04837036132812,-4.645984649658203,85.0050048828125,-0.4014538235134549,0.37666666666666665,0.36464285714285716,0.08724576991644963,-3.1090380125732437,-0.9338098936767594,26.279109954833984,0.007501220703125,-0.0516776614718967
6811,0.035033134657118124,0.2789063262939453,86.662109375,86.04837036132812,-4.543693542480469,84.92317199707031,-0.4007719251844618,0.37033333333333335,0.36392857142857143,0.08675757343749997,-2.933262484619142,-1.7907186918945328,26.279109954833984,0.006819322374131944,-0.04963183932834202
6812,0.027220634657118124,0.25898443222045897,85.31187438964844,84.49356079101562,-4.318656921386719,84.71859741210938,-0.4000899844699436,0.3636666666666667,0.3625,0.08492651874999997,-2.834389346191408,-2.6036821776123062,26.279109954833984,0.00909237331814236,-0.04485838148328993
6813,0.031126884657118124,0.25898443222045897,85.0459213256836,84.39126586914062,-4.277740478515625,84.67768096923828,-0.40099919637044273,0.35733333333333334,0.36178571428571427,0.08337020703667532,-2.7025572233886734,-2.9991785460205094,26.279109954833984,0.0072739495171440975,-0.043949127197265625
6814,0.035033134657118124,0.2789063262939453,85.31187438964844,84.24806213378906,-4.4209442138671875,84.86180114746094,-0.3998626708984375,0.3506666666666667,0.35964285714285715,0.08117302618272568,-2.581711428710939,-2.812416689941408,26.279109954833984,0.011820136176215277,-0.0475860595703125
6815,0.023314384657118124,0.25898443222045897,85.20958709716797,84.57539367675781,-4.4209442138671875,84.86180114746094,-0.3957710689968533,0.3443333333333333,0.3585714285714286,0.07809083556315102,-2.548752444335939,-3.0541082792968766,26.279109954833984,0.007046593560112847,-0.0475860595703125
6816,0.027220634657118124,0.25898443222045897,84.61630249023438,84.02302551269531,-4.502777099609375,84.94363403320312,-0.40122655232747395,0.3393333333333333,0.35535714285714287,0.07644288634440102,-2.4279066496582047,-2.9991785460205094,26.279109954833984,0.006591966417100695,-0.04940456814236111
6817,0.023314384657118124,0.239062557220459,84.554931640625,84.18669128417969,-4.8914794921875,85.43462371826172,-0.3987261030409071,0.33466666666666667,0.35285714285714287,0.07409311759982637,-2.3729769163818375,-2.3839632445068375,26.279109954833984,0.004091559516059028,-0.059178924560546874
6818,0.019408134657118124,0.239062557220459,84.61630249023438,83.81844329833984,-5.157432556152344,86.27340698242188,-0.3987261030409071,0.33066666666666666,0.3482142857142857,0.07214007737087672,-2.845373766967775,-2.0873400145263687,26.279109954833984,0.008865102132161459,-0.07145377265082466
6819,0.015501884657118126,0.239062557220459,84.71859741210938,84.0434799194336,-5.136974334716797,86.02790832519531,-0.3978168487548828,0.32766666666666666,0.345,0.07061419846462672,-3.6583391600341812,-1.7797323637695328,35.8591194152832,0.007501305474175347,-0.06849869622124566
6820,0.031126884657118124,0.239062557220459,85.27096557617188,84.5958480834961,-4.932395935058594,86.08927917480469,-0.40099919637044273,0.325,0.3392857142857143,0.07043109299587672,-3.932987826416017,-1.6588865690917984,39.11104965209961,0.007501305474175347,-0.06690750122070313
6821,0.023314384657118124,0.25898443222045897,85.25050354003906,84.53446960449219,-4.952854156494141,86.1097412109375,-0.39849878946940104,0.32233333333333336,0.3360714285714286,0.06817287698567706,-3.6693254881591812,-1.7138163023681656,39.19894027709961,0.0079559326171875,-0.06736217074924045
6822,0.007689412434895833,0.25898443222045897,83.96165466308594,84.49356079101562,-4.952854156494141,86.15065002441406,-0.3973622216118707,0.31833333333333336,0.33321428571428574,0.06521275667860241,-3.4605909758300797,-2.0983263426513687,39.19894027709961,-0.0059100680881076385,-0.06781671312120226
6823,0.011595634657118126,0.2789063262939453,83.83889770507812,83.1024169921875,-5.177890777587891,85.86424255371094,-0.3998626708984375,0.315,0.33107142857142857,0.06353437465277775,-3.6912962370605484,-2.5926958494873062,39.726280212402344,0.008183119032118056,-0.0671348147922092
6824,0.015501884657118126,0.2789063262939453,83.87982177734375,82.73416900634766,-5.1983489990234375,86.35523986816406,-0.3953164418538411,0.31166666666666665,0.32821428571428574,0.06197797816840275,-3.867073672363283,-2.0983263426513687,40.42940139770508,0.012729475233289931,-0.07281765407986111
6825,0.015501884657118126,0.2789063262939453,85.02546691894531,83.85935974121094,-5.014228820800781,86.08927917480469,-0.3946345011393229,0.30733333333333335,0.3264285714285714,0.0605437367675781,-4.185667651245119,-1.0986010008544937,40.42940139770508,0.012956746419270833,-0.06781675550672743
6826,0.0037831624348958334,0.239062557220459,86.21202850341797,86.1097412109375,-4.8914794921875,85.5982894897461,-0.3946345011393229,0.30333333333333334,0.3242857142857143,0.0596282094238281,-4.295527117797853,-0.6152159147949234,40.42940139770508,0.0011365254720052083,-0.06099743313259549
6827,0.015501884657118126,0.2789063262939453,83.81844329833984,84.69813537597656,-4.871021270751953,85.47554016113281,-0.3955437554253472,0.2976666666666667,0.32321428571428573,0.0595671742675781,-4.262568133422853,-1.4611383848876969,40.42940139770508,-0.009774356418185763,-0.05940623813205295
6828,0.035033134657118124,0.25898443222045897,83.96165466308594,83.14332580566406,-4.850563049316406,85.47554016113281,-0.39645300971137154,0.29333333333333333,0.3221428571428571,0.0598723500488281,-4.240597384521486,-1.9774805479736344,40.42940139770508,0.009092542860243056,-0.059178924560546874
6829,0.038939384657118124,0.25898443222045897,84.14576721191406,83.4501953125,-4.830104827880859,85.41416931152344,-0.3955437554253472,0.28833333333333333,0.32142857142857145,0.0588347523925781,-4.37242950732422,-1.8236757689209,40.42940139770508,0.00772857666015625,-0.05826971266004774
6830,0.035033134657118124,0.239062557220459,84.12531280517578,83.5115737915039,-4.768730163574219,85.41416931152344,-0.3953164418538411,0.2826666666666667,0.32107142857142856,0.057247923101128445,-4.559191363403322,-1.527054446289064,41.57196807861328,0.006819322374131944,-0.05758777194552951
6831,0.031126884657118124,0.25898443222045897,84.80043029785156,83.83889770507812,-4.686901092529297,85.0459213256836,-0.3953164418538411,0.277,0.32071428571428573,0.055691526616753445,-4.592148440429689,-1.0546575957031266,41.57196807861328,0.010683695475260416,-0.05258691575792101
6832,0.019408134657118124,0.25898443222045897,84.88226318359375,84.20714569091797,-4.66644287109375,85.08683776855469,-0.39417987399631077,0.27166666666666667,0.32107142857142856,0.0536469336534288,-4.37242950732422,-0.834936755249025,41.74774932861328,0.007501305474175347,-0.05281422932942708
6833,0.019408134657118124,0.25898443222045897,84.47309875488281,83.96165466308594,-4.686901092529297,85.0459213256836,-0.394861814710829,0.26566666666666666,0.32107142857142856,0.0531586524034288,-4.108765261718752,-1.120571749755861,41.74774932861328,0.005682712131076389,-0.05258691575792101
6834,0.023314384657118124,0.25898443222045897,84.37080383300781,83.79798889160156,-4.707359313964844,85.39370727539062,-0.394861814710829,0.26033333333333336,0.32071428571428573,0.052334762565104144,-3.823128359863283,-1.538040774414064,44.03289031982422,0.006364610460069444,-0.056678517659505205
6835,0.019408134657118124,0.239062557220459,84.47309875488281,83.69569396972656,-4.686901092529297,85.06637573242188,-0.3953164418538411,0.25466666666666665,0.32107142857142856,0.050778366080729144,-3.92200340563965,-1.4062086516113297,44.12078094482422,0.008637830946180555,-0.05281418694390191
6836,0.0037831624348958334,0.25898443222045897,85.29141998291016,84.6572265625,-4.707359313964844,85.14820861816406,-0.3946345011393229,0.24933333333333332,0.32107142857142856,0.04842859733615449,-4.031862872192384,-0.8788801604003922,44.29655838012695,0.007046593560112847,-0.05395075480143229
6837,-0.007935587565104167,0.239062557220459,85.37325286865234,84.67768096923828,-4.625526428222656,85.06637573242188,-0.394861814710829,0.24366666666666667,0.32142857142857145,0.046658662575954836,-4.042849200317384,-1.3512789183349625,44.29655838012695,0.00772857666015625,-0.05213224622938368
6838,0.007689412434895833,0.239062557220459,82.81600189208984,84.53446960449219,-4.523235321044922,85.0459213256836,-0.3959983825683594,0.23833333333333334,0.3221428571428571,0.046750215310329836,-3.856087344238283,-2.0983263426513687,44.29655838012695,-0.019094085693359374,-0.050768407185872395
6839,0.027220634657118124,0.239062557220459,84.20714569091797,83.38882446289062,-4.523235321044922,84.98455047607422,-0.3959983825683594,0.233,0.32285714285714284,0.046475557107204836,-3.6583391600341812,-1.9445234709472672,44.29655838012695,0.009092458089192708,-0.05008650885687934
6840,0.031126884657118124,0.239062557220459,85.86424255371094,84.06393432617188,-4.502777099609375,84.86180114746094,-0.3955437554253472,0.22833333333333333,0.32321428571428573,0.045590547341579836,-3.4386183195800797,-1.4281813078613297,44.29655838012695,0.020003424750434026,-0.048495313856336805
6841,0.035033134657118124,0.19921878814697266,85.02546691894531,84.90271759033203,-4.461860656738281,84.86180114746094,-0.39508912828233506,0.22366666666666668,0.32321428571428573,0.044766572732204836,-3.0760809355468766,-1.8236757689209,44.29655838012695,0.0013638814290364584,-0.048040686713324655
6842,0.046751884657118124,0.19921878814697266,83.69569396972656,83.57295227050781,-4.3595733642578125,84.80043029785156,-0.3955437554253472,0.219,0.32357142857142857,0.04391216531575518,-2.933262484619142,-2.471850054809572,45.26335144042969,0.0013637966579861111,-0.04622226291232639
6843,0.07018938465711813,0.219140682220459,83.87982177734375,83.20470428466797,-4.502777099609375,85.02546691894531,-0.3959983825683594,0.214,0.32357142857142857,0.04354595437825518,-2.9772058897705094,-2.504809039184572,45.52701950073242,0.007501305474175347,-0.05031382242838542
6844,0.058470634657118124,0.219140682220459,84.75950622558594,83.26608276367188,-4.502777099609375,85.1072998046875,-0.3946345011393229,0.20966666666666667,0.32392857142857145,0.040738421961805535,-2.9772058897705094,-1.7028299742431656,45.52701950073242,0.016593594021267363,-0.051223076714409725
6845,0.015501884657118126,0.19921878814697266,85.43462371826172,85.33233642578125,-4.564151763916016,85.1072998046875,-0.39440718756781684,0.20633333333333334,0.32392857142857145,0.03622190517035588,-2.889319079467775,-0.9997259550781266,45.52701950073242,0.0011365254720052083,-0.05190501742892795
6846,-0.00012308756510416666,0.219140682220459,85.16867065429688,84.47309875488281,-4.564151763916016,85.37325286865234,-0.394861814710829,0.20133333333333334,0.3242857142857143,0.03402472431640623,-2.9881922178955094,-1.6039568358154312,45.70280075073242,0.00772857666015625,-0.05486005147298177
6847,0.011595634657118126,0.219140682220459,83.14332580566406,81.73172760009766,-4.4209442138671875,84.75950622558594,-0.3994080437554253,0.19733333333333333,0.32392857142857145,0.03344489033203123,-3.163967745849611,-2.164242404052736,45.70280075073242,0.015684424506293402,-0.04644944932725695
6848,0.031126884657118124,0.219140682220459,84.12531280517578,83.47065734863281,-4.543693542480469,85.23004150390625,-0.39622569613986547,0.19333333333333333,0.3246428571428571,0.03332282001953123,-2.801430361816408,-1.4391657286376969,45.70280075073242,0.0072739495171440975,-0.053041500515407985
6849,0.027220634657118124,0.219140682220459,85.557373046875,84.12531280517578,-4.605068206787109,85.35279846191406,-0.3959983825683594,0.18933333333333333,0.3242857142857143,0.03210220166558157,-2.834389346191408,-0.6152159147949234,45.70280075073242,0.015911780463324653,-0.05508740743001302
6850,0.007689412434895833,0.19921878814697266,86.82576751708984,86.13019561767578,-4.543693542480469,85.33233642578125,-0.3971349080403646,0.185,0.3242857142857143,0.030454252446831573,-3.0101648741455094,-0.6701475554199234,45.70280075073242,0.00772857666015625,-0.054178110758463544
6851,0.019408134657118124,0.219140682220459,86.49844360351562,85.88470458984375,-4.543693542480469,85.41416931152344,-0.3989534166124132,0.181,0.3246428571428571,0.030637357915581573,-3.207913058349611,-1.7138163023681656,45.70280075073242,0.006819322374131944,-0.05508736504448785
6852,0.035033134657118124,0.219140682220459,86.39614868164062,85.82332611083984,-4.564151763916016,85.33233642578125,-0.3987261030409071,0.17733333333333334,0.325,0.030179594243706573,-3.0870672636718766,-2.7465006285400406,45.70280075073242,0.006364695231119792,-0.054405424329969615
6853,0.050658134657118124,0.219140682220459,84.86180114746094,82.73416900634766,-4.523235321044922,84.88226318359375,-0.3980441623263889,0.17333333333333334,0.3246428571428571,0.02877587042100692,-2.9772058897705094,-3.7022825651855484,45.70280075073242,0.023640357123480903,-0.048949983384874135
6854,0.058470634657118124,0.219140682220459,85.06637573242188,84.37080383300781,-4.564151763916016,85.35279846191406,-0.3973622216118707,0.16933333333333334,0.325,0.02642610167643227,-2.6256548338623062,-3.504534380981447,45.70280075073242,0.00772857666015625,-0.054632780287000866
6855,0.042845634657118124,0.19921878814697266,86.1097412109375,84.41172790527344,-4.523235321044922,85.31187438964844,-0.394861814710829,0.16566666666666666,0.3242857142857143,0.022245278244357614,-2.6586119108886734,-2.955235140869142,45.70280075073242,0.01886681450737847,-0.053723441229926214
6856,0.019408134657118124,0.219140682220459,84.35034942626953,85.80287170410156,-4.318656921386719,84.77996826171875,-0.39508912828233506,0.16166666666666665,0.3242857142857143,0.01824764505208331,-2.7574869566650406,-3.284815447875978,45.70280075073242,-0.0161391364203559,-0.04554027981228299
6857,0.027220634657118124,0.219140682220459,85.557373046875,83.5115737915039,-4.441402435302734,84.86180114746094,-0.3971349080403646,0.158,0.3242857142857143,0.01592830911458331,-2.3729769163818375,-3.6143938475341812,45.70280075073242,0.022731102837456597,-0.04781337314181858
6858,0.027220634657118124,0.239062557220459,85.0050048828125,85.86424255371094,-4.502777099609375,85.25050354003906,-0.3959983825683594,0.15466666666666667,0.32392857142857145,0.013303882166883656,-2.208185809204103,-3.3067861967773453,45.70280075073242,-0.009547085232204862,-0.05281422932942708
6859,0.046751884657118124,0.239062557220459,84.08439636230469,83.0410385131836,-4.564151763916016,85.72103881835938,-0.39827147589789497,0.15133333333333332,0.32285714285714284,0.012296886859809003,-2.230158465454103,-3.7132688933105484,45.70280075073242,0.011592864990234375,-0.0587243398030599
6860,0.054564384657118124,0.239062557220459,84.82088470458984,83.22515869140625,-4.543693542480469,85.49600219726562,-0.3969076368543837,0.14766666666666667,0.3221428571428571,0.01028408474392361,-2.515795367309572,-2.812416689941408,45.70280075073242,0.017730289035373263,-0.05599661933051215
6861,0.035033134657118124,0.239062557220459,83.83889770507812,83.06149291992188,-4.564151763916016,85.20958709716797,-0.3973622216118707,0.14466666666666667,0.3217857142857143,0.006591627332899305,-2.7025572233886734,-1.6918455534667984,45.70280075073242,0.008637830946180555,-0.05304154290093316
6862,0.023314384657118124,0.239062557220459,81.75218200683594,80.9543228149414,-4.5846099853515625,85.455078125,-0.3994080437554253,0.141,0.3217857142857143,0.004089270697699653,-2.7135435515136734,-1.4062086516113297,45.70280075073242,0.008865102132161459,-0.055996534559461804
6863,0.042845634657118124,0.219140682220459,85.29141998291016,84.49356079101562,-4.543693542480469,85.39370727539062,-0.4014538235134549,0.13766666666666666,0.32142857142857145,0.004974195692274305,-2.867346423217775,0.0,45.70280075073242,0.008865102132161459,-0.0548600090874566
6864,0.035033134657118124,0.219140682220459,84.5140151977539,86.39614868164062,-4.523235321044922,84.96409606933594,-0.3966803232828776,0.13366666666666666,0.32142857142857145,0.004882642957899305,-2.9772058897705094,0.6921180486679077,45.70280075073242,-0.020912594265407987,-0.049859237670898435
6865,0.042845634657118124,0.239062557220459,84.53446960449219,83.63432312011719,-4.482318878173828,84.92317199707031,-0.40054461161295574,0.12966666666666668,0.32142857142857145,0.005859205457899305,-2.7245279722900406,0.2746500074863434,45.70280075073242,0.010001627604166667,-0.04894989861382378
6866,0.050658134657118124,0.219140682220459,87.27584838867188,84.06393432617188,-4.523235321044922,85.41416931152344,-0.40122655232747395,0.126,0.32142857142857145,0.006835767957899305,-2.4498793059082047,0.6152160167694092,45.70280075073242,0.03568793402777778,-0.05486005147298177
6867,0.038939384657118124,0.19921878814697266,86.88714599609375,86.27340698242188,-4.502777099609375,85.25050354003906,-0.3966803232828776,0.12233333333333334,0.32107142857142856,0.006408521864149305,-2.5926958494873062,0.7800060510635376,45.70280075073242,0.006819322374131944,-0.05281422932942708
6868,0.042845634657118124,0.19921878814697266,84.82088470458984,84.39126586914062,-4.564151763916016,85.49600219726562,-0.40031729804144967,0.11833333333333333,0.32107142857142856,0.007140943739149305,-2.7465006285400406,-0.2526785307617203,45.70280075073242,0.004773542616102431,-0.05622393290201823
6869,0.042845634657118124,0.219140682220459,84.45263671875,84.12531280517578,-4.523235321044922,85.12775421142578,-0.44055133395724827,0.11433333333333333,0.32107142857142856,0.007140943739149305,-3.0760809355468766,-0.6481748991699234,45.70280075073242,0.003636932373046875,-0.0516776614718967
6870,0.042845634657118124,0.219140682220459,83.71615600585938,82.48867797851562,-4.5846099853515625,85.43462371826172,-0.42941309611002604,0.11033333333333334,0.32107142857142856,0.006408521864149305,-3.240870135375978,-0.6701475554199234,45.70280075073242,0.013638644748263888,-0.055769263373480905
6871,0.07018938465711813,0.17929691314697266,87.50088500976562,84.73905181884766,-4.543693542480469,85.47554016113281,-0.4303223503960503,0.10633333333333334,0.3217857142857143,0.0073239644368489586,-3.218899386474611,0.07690200209617615,45.70280075073242,0.030687035454644098,-0.055769263373480905
6872,0.062376884657118124,0.15937503814697265,84.22760009765625,84.28897857666016,-4.032245635986328,84.06393432617188,-0.43214085896809895,0.10133333333333333,0.32285714285714284,0.007018873426649305,-3.559464114257814,-0.15380539233398594,45.70280075073242,-0.0006819831000434028,-0.03440199957953559
6873,0.035033134657118124,0.17929691314697266,84.92317199707031,84.26852416992188,-4.216365814208984,85.02546691894531,-0.4303223503960503,0.09766666666666667,0.32357142857142857,0.005157301161024305,-3.0980535917968766,-0.5712725096435562,45.70280075073242,0.00727386474609375,-0.04713147481282552
6874,0.035033134657118124,0.17929691314697266,85.5164566040039,84.49356079101562,-4.216365814208984,84.63676452636719,-0.46237322489420574,0.093,0.3242857142857143,0.004669019911024305,-2.9881922178955094,-0.5273291044921891,45.70280075073242,0.011365509033203125,-0.04281255933973524
6875,0.031126884657118124,0.15937503814697265,84.20714569091797,85.06637573242188,-4.11407470703125,84.47309875488281,-0.46305516560872395,0.08866666666666667,0.3246428571428571,0.003997717963324653,-2.845373766967775,-0.856909411499025,45.70280075073242,-0.009547000461154514,-0.03985748291015625
6876,0.027220634657118124,0.19921878814697266,83.38882446289062,82.77508544921875,-4.216365814208984,84.80043029785156,-0.46305516560872395,0.08433333333333333,0.32535714285714284,0.0032652960883246527,-2.7025572233886734,-1.1974741392822281,45.70280075073242,0.006819322374131944,-0.04463106791178385
6877,0.038939384657118124,0.17929691314697266,86.72348022460938,85.72103881835938,-4.339115142822266,85.455078125,-0.4639643775092231,0.08,0.32535714285714284,0.0030516730414496527,-2.504809039184572,-0.6152159147949234,45.79069137573242,0.011138237847222222,-0.053268814086914064
6878,0.042845634657118124,0.15937503814697265,84.82088470458984,85.5164566040039,-4.257282257080078,84.61630249023438,-0.46419169108072916,0.076,0.32535714285714284,0.0025328742133246527,-2.823403018066408,-0.9557825499267594,45.79069137573242,-0.00772857666015625,-0.043039830525716145
6879,0.046751884657118124,0.17929691314697266,84.1048583984375,83.47065734863281,-4.277740478515625,85.0459213256836,-0.4646463182237413,0.07166666666666667,0.32571428571428573,0.0023497687445746527,-2.6695982390136734,-1.0766283446044937,45.79069137573242,0.007046678331163195,-0.048040686713324655
6880,0.046751884657118124,0.17929691314697266,87.39859008789062,86.13019561767578,-4.236824035644531,84.88226318359375,-0.4646463182237413,0.06833333333333333,0.32571428571428573,0.00152587890625,-2.6036821776123062,-0.5602861815185562,45.79069137573242,0.014093271891276042,-0.04576763576931424
6881,0.042845634657118124,0.17929691314697266,85.16867065429688,84.53446960449219,-4.257282257080078,84.84133911132812,-0.4648736317952474,0.06433333333333334,0.32571428571428573,0.000732421875,-2.482836382934572,-0.823950427124025,45.79069137573242,0.007046678331163195,-0.045540237426757814
6882,0.038939384657118124,0.15937503814697265,82.71371459960938,83.73661041259766,-4.257282257080078,84.92317199707031,-0.46510094536675345,0.06066666666666667,0.32607142857142857,-0.000457763671875,-2.3180471831054703,-0.9008528166503922,45.70280075073242,-0.011365509033203125,-0.04644949171278212
6883,0.031126884657118124,0.17929691314697266,83.87982177734375,81.85447692871094,-4.339115142822266,84.84133911132812,-0.46555557250976565,0.057,0.32571428571428573,-0.0013426886664496527,-2.0873400145263687,-0.2746511870117203,45.43912887573242,0.022503831651475695,-0.04644949171278212
6884,0.019408134657118124,0.15937503814697265,87.17355346679688,85.20958709716797,-4.277740478515625,84.98455047607422,-0.46555557250976565,0.05366666666666667,0.32535714285714284,-0.0021971808539496527,-2.0324102812500016,0.9997260570526123,45.43912887573242,0.02182184855143229,-0.0473587883843316
6885,0.007689412434895833,0.15937503814697265,85.39370727539062,84.77996826171875,-4.298198699951172,84.75950622558594,-0.46555557250976565,0.05,0.325,-0.0017699347601996527,-2.153256075927736,0.7031040191650391,45.43912887573242,0.006819322374131944,-0.04508561028374566
6886,0.038939384657118124,0.15937503814697265,84.71859741210938,84.6572265625,-4.277740478515625,85.14820861816406,-0.46555557250976565,0.047,0.325,0.00048828125,-2.1202989989013687,0.19774800539016724,45.43912887573242,0.0006818983289930556,-0.04917721218532986
6887,0.054564384657118124,0.13945316314697265,87.562255859375,83.98210144042969,-4.073158264160156,84.47309875488281,-0.46555557250976565,0.043333333333333335,0.3246428571428571,0.001556396484375,-2.0433966093750016,0.6921180486679077,44.99967956542969,0.03977949354383681,-0.0394028557671441
6888,0.038939384657118124,0.15937503814697265,86.04837036132812,87.66455078125,-4.175449371337891,84.96409606933594,-0.46555557250976565,0.04,0.3246428571428571,0.0015869140625,-1.7467752867431656,0.6371880173683167,44.91178894042969,-0.017957560221354165,-0.04599494934082031
6889,0.031126884657118124,0.13945316314697265,85.61874389648438,85.23004150390625,-4.298198699951172,85.27096557617188,-0.46555557250976565,0.03666666666666667,0.3242857142857143,0.001251220703125,-1.7467752867431656,-0.10986007983398594,44.82389831542969,0.0043189154730902775,-0.05076849195692274
6890,0.035033134657118124,0.1195312786102295,83.65477752685547,83.5934066772461,-3.3162155151367188,83.71615600585938,-0.46555557250976565,0.033,0.32392857142857145,0.001007080078125,-2.2960745268554703,-0.5163427763671891,44.64812088012695,0.0006818983289930556,-0.022581905788845485
6891,0.027220634657118124,0.1195312786102295,84.88226318359375,84.30943298339844,-3.520793914794922,83.71615600585938,-0.46555557250976565,0.03,0.32392857142857145,0.00030517578125,-1.6918455534667984,-0.2416922026367203,44.56023025512695,0.006364780002170139,-0.024854999118381075
6892,0.015501884657118126,0.1195312786102295,83.71615600585938,82.61141967773438,-3.704914093017578,84.63676452636719,-0.46555557250976565,0.026333333333333334,0.32392857142857145,-0.000457763671875,-1.2414194517822281,-0.2636648588867203,44.56023025512695,0.012274848090277778,-0.03712976243760851
6893,0.023314384657118124,0.1195312786102295,82.85691833496094,83.65477752685547,-3.704914093017578,84.49356079101562,-0.4007719251844618,0.02266666666666667,0.32321428571428573,-0.00030517578125,-1.560013430664064,0.05493000149726868,44.56023025512695,-0.008865102132161459,-0.03553860982259115
6894,0.023314384657118124,0.1195312786102295,87.48042297363281,85.90515899658203,-3.3775863647460938,84.02302551269531,-0.3994080437554253,0.019,0.3225,6.103515625e-05,-1.7028299742431656,0.9228240251541138,44.56023025512695,0.017502933078342015,-0.026673465304904515
6895,-0.011841837565104167,0.07968751907348633,86.23248291015625,85.72103881835938,-3.5821685791015625,84.57539367675781,-0.3957710689968533,0.016,0.3221428571428571,-0.00079345703125,-0.9997259550781266,0.5932440161705017,43.241878509521484,0.005682712131076389,-0.03508402506510417
6896,0.011595634657118126,0.09960939407348633,82.79554748535156,84.94363403320312,-3.725372314453125,84.94363403320312,-0.40168113708496095,0.012333333333333333,0.32107142857142856,0.000579833984375,-0.2307058745117203,-0.4284540587158219,42.89031982421875,-0.023867628309461805,-0.040766737196180555
6897,0.054564384657118124,0.07968751907348633,84.30943298339844,83.32745361328125,-2.8252220153808594,83.38882446289062,-0.40122655232747395,0.009,0.31892857142857145,0.001220703125,0.13183200359344482,0.010986000299453735,42.71453857421875,0.010910881890190972,-0.013489405314127604
6898,0.019408134657118124,0.07968751907348633,86.04837036132812,86.27340698242188,-1.5568275451660156,82.30455017089844,-0.3971349080403646,0.005333333333333333,0.31642857142857145,0.000213623046875,0.8898659944534302,0.7580339908599854,26.54277992248535,-0.0025004069010416668,0.012651358710394965
6899,0.011595634657118126,0.07968751907348633,84.32989501953125,85.29141998291016,0.059356689453125,80.4837875366211,-0.3994080437554253,0.0026666666666666666,0.31392857142857145,0.000518798828125,1.8566340208053589,0.13183200359344482,26.367000579833984,-0.01068361070421007,0.05083965725368923
6900,0.07018938465711813,0.05976563930511475,85.18913269042969,83.57295227050781,0.836761474609375,79.9518814086914,-0.4030450185139974,0.001,0.30892857142857144,0.0018614874945746527,2.834388017654419,0.02197200059890747,26.54277992248535,0.017957560221354165,0.06538755628797743
6901,0.06628313465711813,0.03984375953674316,84.80043029785156,85.18913269042969,2.064239501953125,79.17447662353516,-0.3987261030409071,0.0,0.3053571428571429,0.001220703125,3.317772150039673,0.17577600479125977,26.54277992248535,-0.0043189154730902775,0.08766403198242187
6902,0.019408134657118124,0.03984375953674316,83.40928649902344,82.91828918457031,3.209888458251953,77.06730651855469,-0.3987261030409071,0.0,0.29928571428571427,-0.0,3.3507301807403564,-0.17577614123535312,26.54277992248535,0.005455525716145834,0.12380646599663628
