,WD,WS,AIL_1,AIL_2,ELEV_1,ELEV_2,RUDD,ALT,GS,TH,PTCH,ROLL,PLA_1,AIL,ELEV
9116,-0.6439776698371039,0.5777345275878907,84.98455047607422,83.77752685546875,-5.3620147705078125,86.43707275390625,0.029073418511284723,0.951,0.5264285714285715,-0.04925390879313151,-2.241144793579103,0.4943700134754181,33.837650299072266,0.013411373562282987,-0.07554541693793403
9117,-0.6439776698371039,0.5777345275878907,85.37325286865234,84.22760009765625,-5.3620147705078125,86.33477783203125,0.029073418511284723,0.9446666666666667,0.5267857142857143,-0.04913183848063151,-2.252131121704103,0.516342043876648,33.486087799072266,0.012729475233289931,-0.07440880669487847
9118,-0.6439776698371039,0.5777345275878907,85.27096557617188,84.57539367675781,-5.3620147705078125,86.27340698242188,0.029073418511284723,0.9386666666666666,0.5267857142857143,-0.04904028574625651,-2.230158465454103,0.05493000149726868,33.22241973876953,0.00772857666015625,-0.07372690836588541
9119,-0.6439776698371039,0.5777345275878907,84.14576721191406,83.53202819824219,-5.382472991943359,86.31431579589844,0.029300732082790798,0.932,0.5271428571428571,-0.048765638139512804,-2.3290335112304703,-0.20873512561035312,33.22241973876953,0.006819322374131944,-0.0744087643093533
9120,-0.6400714198371039,0.5578126525878906,84.73905181884766,83.75706481933594,-5.3620147705078125,86.25294494628906,0.029300732082790798,0.9253333333333333,0.5271428571428571,-0.0484604729546441,-2.3839632445068375,0.12084600329399109,33.13452911376953,0.01091096666124132,-0.07349955240885417
9121,-0.6439776698371039,0.5777345275878907,85.35279846191406,83.79798889160156,-5.3620147705078125,86.27340698242188,0.029073418511284723,0.919,0.5271428571428571,-0.04827737808227539,-2.4279066496582047,0.38451001048088074,33.13452911376953,0.01727566189236111,-0.07372690836588541
9122,-0.6439776698371039,0.5777345275878907,85.14820861816406,84.49356079101562,-5.341556549072266,86.21202850341797,0.029073418511284723,0.912,0.5271428571428571,-0.04827737808227539,-2.482836382934572,0.12084600329399109,33.13452911376953,0.00727386474609375,-0.07281761169433594
9123,-0.6439776698371039,0.5578126525878906,84.53446960449219,83.4501953125,-5.341556549072266,86.13019561767578,0.029073418511284723,0.9053333333333333,0.5271428571428571,-0.047850142584906684,-2.3619905882568375,0.3405660092830658,33.13452911376953,0.012047492133246528,-0.07190835740831163
9124,-0.6478839198371039,0.5578126525878906,84.67768096923828,83.71615600585938,-5.341556549072266,86.08927917480469,0.029300732082790798,0.899,0.5275,-0.04739238950941298,-2.208185809204103,0.9008520245552063,33.13452911376953,0.01068361070421007,-0.07145373026529948
9125,-0.6478839198371039,0.5578126525878906,85.25050354003906,84.06393432617188,-5.321098327636719,86.04837036132812,0.028846104939778645,0.892,0.5278571428571428,-0.04687360127766927,-2.0983263426513687,1.1974740028381348,33.13452911376953,0.013184102376302083,-0.0707718743218316
9126,-0.6439776698371039,0.5578126525878906,85.43462371826172,84.53446960449219,-5.3620147705078125,86.04837036132812,0.029300732082790798,0.886,0.5278571428571428,-0.04626327090793186,-2.0104395323486344,0.8678940534591675,33.13452911376953,0.010001712375217013,-0.07122650146484374
9127,-0.6478839198371039,0.5578126525878906,85.37325286865234,84.22760009765625,-5.3620147705078125,86.15065002441406,0.029073418511284723,0.8796666666666667,0.5275,-0.04577501085069444,-1.9884668760986344,0.5602860450744629,33.13452911376953,0.012729475233289931,-0.07236294216579861
9128,-0.6439776698371039,0.5777345275878907,85.0050048828125,84.43218231201172,-5.321098327636719,86.08927917480469,0.029073418511284723,0.8733333333333333,0.5271428571428571,-0.04589707056681315,-1.9884668760986344,0.1867620050907135,32.95874786376953,0.006364695231119792,-0.0712264166937934
9129,-0.6439776698371039,0.5578126525878906,84.86180114746094,83.81844329833984,-5.3620147705078125,86.13019561767578,0.029073418511284723,0.8673333333333333,0.5267857142857143,-0.04556138780381944,-1.9884668760986344,0.0,32.95874786376953,0.011592864990234375,-0.07213567097981771
9130,-0.6439776698371039,0.5578126525878906,85.43462371826172,84.28897857666016,-5.3620147705078125,86.15065002441406,0.029073418511284723,0.861,0.5264285714285715,-0.04543931749131944,-2.0433966093750016,-0.01098694140625156,32.95874786376953,0.012729390462239584,-0.07236294216579861
9131,-0.6439776698371039,0.5777345275878907,85.35279846191406,84.35034942626953,-5.3620147705078125,86.21202850341797,0.029300732082790798,0.8553333333333333,0.5264285714285715,-0.04580551783243815,-2.0324102812500016,-0.3295809202880875,32.95874786376953,0.01113832261827257,-0.07304492526584201
9132,-0.6439776698371039,0.5578126525878906,85.0459213256836,84.39126586914062,-5.321098327636719,86.13019561767578,0.029300732082790798,0.8493333333333334,0.5260714285714285,-0.04604965845743815,-2.0214239531250016,-0.7250772886962906,32.95874786376953,0.0072739495171440975,-0.07168104383680556
9133,-0.6439776698371039,0.5578126525878906,84.18669128417969,83.5934066772461,-5.341556549072266,86.1097412109375,0.029300732082790798,0.8433333333333334,0.5253571428571429,-0.04623275332980686,-1.9335371428222672,-0.6481748991699234,32.95874786376953,0.0065920511881510414,-0.07168108622233073
9134,-0.6478839198371039,0.5578126525878906,84.45263671875,83.32745361328125,-5.341556549072266,86.02790832519531,0.029300732082790798,0.8373333333333334,0.5253571428571429,-0.04614121119181315,-1.8895918303222672,-0.01098694140625156,32.95874786376953,0.012502034505208334,-0.07077183193630643
9135,-0.6439776698371039,0.5578126525878906,85.16867065429688,83.96165466308594,-5.3620147705078125,86.13019561767578,0.029300732082790798,0.831,0.525,-0.04604965845743815,-1.9225508146972672,0.4394400119781494,32.95874786376953,0.013411288791232639,-0.07213567097981771
9136,-0.6478839198371039,0.5578126525878906,85.16867065429688,84.28897857666016,-5.341556549072266,86.1097412109375,0.029300732082790798,0.8256666666666667,0.525,-0.04583603541056315,-1.9774805479736344,0.4064820110797882,32.95874786376953,0.009774356418185763,-0.07168108622233073
9137,-0.6478839198371039,0.5578126525878906,85.47554016113281,84.26852416992188,-5.3620147705078125,86.1097412109375,0.029300732082790798,0.8196666666666667,0.525,-0.04586655298868815,-1.9664942198486344,0.032958000898361206,32.95874786376953,0.013411288791232639,-0.0719083997938368
9138,-0.6478839198371039,0.5777345275878907,85.33233642578125,84.45263671875,-5.3620147705078125,86.0688247680664,0.029073418511284723,0.8136666666666666,0.5246428571428572,-0.04617171817355686,-1.9225508146972672,-0.4394403868408219,32.95874786376953,0.009774441189236111,-0.07145377265082466
9139,-0.6478839198371039,0.5578126525878906,83.92073059082031,84.0025634765625,-5.341556549072266,86.08927917480469,0.029300732082790798,0.808,0.5242857142857142,-0.04626327090793186,-1.8895918303222672,-0.7690206938476578,32.95874786376953,-0.0009092542860243056,-0.07145373026529948
9140,-0.6556964198371039,0.5578126525878906,84.47309875488281,82.65233612060547,-5.321098327636719,86.04837036132812,0.0295280032687717,0.802,0.5242857142857142,-0.04601914087931315,-1.8676210814209,-0.16478981311035312,32.95874786376953,0.02023069593641493,-0.0707718743218316
9141,-0.6556964198371039,0.5578126525878906,85.25050354003906,83.81844329833984,-5.341556549072266,86.0688247680664,0.028846104939778645,0.7963333333333333,0.5242857142857142,-0.04571397569444444,-1.8456484251709,0.32958000898361206,32.95874786376953,0.015911780463324653,-0.07122645907931857
9142,-0.6556964198371039,0.5578126525878906,85.70057678222656,84.69813537597656,-5.382472991943359,86.08927917480469,0.0295280032687717,0.7906666666666666,0.5239285714285714,-0.04574449327256944,-1.8126913481445328,0.1867620050907135,32.95874786376953,0.011138237847222222,-0.07190835740831163
9143,-0.6517901698371039,0.5578126525878906,85.1072998046875,84.45263671875,-5.300640106201172,86.08927917480469,0.029300732082790798,0.7846666666666666,0.5239285714285714,-0.04611069361368815,-1.8346620970459,-0.4064833098144547,32.95874786376953,0.007274034288194444,-0.07099910312228733
9144,-0.6517901698371039,0.5578126525878906,84.30943298339844,83.98210144042969,-5.3620147705078125,86.0688247680664,0.029300732082790798,0.7786666666666666,0.5242857142857142,-0.04620223575168186,-1.8126913481445328,-0.7140909605712906,32.95874786376953,0.003637017144097222,-0.07145377265082466
9145,-0.6556964198371039,0.5578126525878906,85.25050354003906,83.24562072753906,-5.3620147705078125,86.08927917480469,0.029073418511284723,0.773,0.5242857142857142,-0.04586655298868815,-1.7797323637695328,-0.02197326953125156,32.95874786376953,0.022276475694444443,-0.07168104383680556
9146,-0.6556964198371039,0.5578126525878906,86.02790832519531,84.80043029785156,-5.341556549072266,86.08927917480469,0.0295280032687717,0.7673333333333333,0.5239285714285714,-0.04635482364230686,-1.7687460356445328,0.07690200209617615,33.13452911376953,0.013638644748263888,-0.07145373026529948
9147,-0.6556964198371039,0.5578126525878906,83.87982177734375,83.5934066772461,-5.3620147705078125,86.04837036132812,0.0295280032687717,0.7616666666666667,0.5239285714285714,-0.04687360127766927,-1.7467752867431656,-0.5822588377685562,33.22241973876953,0.0031823900010850693,-0.07122650146484374
9148,-0.6596026698371039,0.5578126525878906,84.77996826171875,83.57295227050781,-5.341556549072266,86.13019561767578,0.0295280032687717,0.7563333333333333,0.5239285714285714,-0.046537918514675564,-1.8126913481445328,-0.2856375151367203,33.22241973876953,0.013411288791232639,-0.07190835740831163
9149,-0.6596026698371039,0.5578126525878906,85.78240966796875,84.32989501953125,-5.341556549072266,86.08927917480469,0.0295280032687717,0.7506666666666667,0.5239285714285714,-0.046751541561550564,-1.8346620970459,-0.09887375170898594,33.22241973876953,0.016139051649305555,-0.07145373026529948
9150,-0.6556964198371039,0.5578126525878906,84.69813537597656,84.14576721191406,-5.341556549072266,86.0688247680664,0.0295280032687717,0.7446666666666667,0.5239285714285714,-0.04733135435316298,-1.8236757689209,-0.4723993712158219,33.22241973876953,0.006137424045138889,-0.07122645907931857
9151,-0.6596026698371039,0.5578126525878906,83.98210144042969,83.83889770507812,-5.341556549072266,86.08927917480469,0.0295280032687717,0.739,0.5239285714285714,-0.04742290708753798,-1.8456484251709,-0.4504267149658219,33.22241973876953,0.001591152615017361,-0.07145373026529948
9152,-0.6556964198371039,0.5578126525878906,85.23004150390625,83.61386108398438,-5.341556549072266,86.13019561767578,0.029073418511284723,0.7333333333333333,0.5242857142857142,-0.04730083677503798,-1.9225508146972672,0.1867620050907135,33.22241973876953,0.017957560221354165,-0.07190835740831163
9153,-0.6556964198371039,0.5578126525878906,85.90515899658203,84.94363403320312,-5.341556549072266,86.1097412109375,0.0295280032687717,0.7273333333333334,0.5242857142857142,-0.047697554694281684,-1.9225508146972672,-0.09887375170898594,33.22241973876953,0.01068361070421007,-0.07168108622233073
9154,-0.6556964198371039,0.5578126525878906,84.32989501953125,84.41172790527344,-5.3620147705078125,86.1097412109375,0.029300732082790798,0.7213333333333334,0.5242857142857142,-0.04821634292602539,-1.8786074095459,-0.8788801604003922,33.22241973876953,-0.0009092542860243056,-0.0719083997938368
9155,-0.6596026698371039,0.5578126525878906,84.18669128417969,83.26608276367188,-5.300640106201172,86.04837036132812,0.0295280032687717,0.7156666666666667,0.5242857142857142,-0.04821634292602539,-1.8126913481445328,-0.7140909605712906,33.22241973876953,0.010228983561197917,-0.07054456075032552
9156,-0.6596026698371039,0.5578126525878906,84.35034942626953,83.30699157714844,-5.300640106201172,85.94607543945312,0.029300732082790798,0.71,0.5242857142857142,-0.04800271987915039,-1.6698728972167984,-0.13183273608398594,33.22241973876953,0.011592864990234375,-0.06940795050726997
9157,-0.6635089198371039,0.5578126525878906,85.29141998291016,83.73661041259766,-5.300640106201172,85.94607543945312,0.029300732082790798,0.704,0.5242857142857142,-0.04797220230102539,-1.4940973692626969,0.373524010181427,33.22241973876953,0.01727566189236111,-0.06940795050726997
9158,-0.6674151698371039,0.5578126525878906,85.37325286865234,84.43218231201172,-5.280181884765625,85.98699188232422,0.0295280032687717,0.6986666666666667,0.5239285714285714,-0.04821634292602539,-1.4611383848876969,0.14281800389289856,33.22241973876953,0.010456339518229166,-0.06963526407877604
9159,-0.6635089198371039,0.5578126525878906,85.08683776855469,84.26852416992188,-5.300640106201172,86.08927917480469,0.0295280032687717,0.693,0.5235714285714286,-0.0483078850640191,-1.505081790039064,-0.21972145373535312,33.39820098876953,0.00909237331814236,-0.07099910312228733
9160,-0.6635089198371039,0.5578126525878906,84.41172790527344,84.0434799194336,-5.321098327636719,86.13019561767578,0.0295280032687717,0.6876666666666666,0.5235714285714286,-0.04821634292602539,-1.5819841795654312,-0.4614130430908219,33.39820098876953,0.004091644287109375,-0.07168104383680556
9161,-0.6674151698371039,0.5578126525878906,84.63676452636719,83.63432312011719,-5.3620147705078125,86.25294494628906,0.0295280032687717,0.6823333333333333,0.5235714285714286,-0.04797220230102539,-1.7028299742431656,-0.2307058745117203,33.39820098876953,0.011138237847222222,-0.07349955240885417
9162,-0.6713214198371039,0.5578126525878906,84.41172790527344,83.42974090576172,-5.300640106201172,86.31431579589844,0.0295280032687717,0.677,0.5235714285714286,-0.04797220230102539,-1.9225508146972672,0.07690200209617615,33.486087799072266,0.01091096666124132,-0.073499510023329
9163,-0.6674151698371039,0.5578126525878906,85.31187438964844,84.1048583984375,-5.321098327636719,86.27340698242188,0.0295280032687717,0.671,0.5235714285714286,-0.047911177741156684,-2.0653692656250016,0.3405660092830658,33.486087799072266,0.013411288791232639,-0.07327228122287327
9164,-0.6674151698371039,0.5578126525878906,84.39126586914062,84.30943298339844,-5.321098327636719,86.17111206054688,0.0295280032687717,0.665,0.5239285714285714,-0.04815530776977539,-2.0873400145263687,0.13183200359344482,33.486087799072266,0.0009092542860243056,-0.07213567097981771
9165,-0.6713214198371039,0.5578126525878906,84.18669128417969,83.1024169921875,-5.321098327636719,86.17111206054688,0.029300732082790798,0.6586666666666666,0.5246428571428572,-0.047636519538031684,-2.1093126707763687,0.4394400119781494,33.486087799072266,0.012047492133246528,-0.07213567097981771
9166,-0.6713214198371039,0.5578126525878906,85.455078125,84.18669128417969,-5.321098327636719,86.1097412109375,0.0295280032687717,0.6523333333333333,0.5246428571428572,-0.04696515401204427,-2.142269747802736,0.8129640221595764,33.486087799072266,0.014093187120225694,-0.07145377265082466
9167,-0.6713214198371039,0.5578126525878906,85.49600219726562,84.63676452636719,-5.341556549072266,86.0688247680664,0.0295280032687717,0.646,0.525,-0.04693463643391927,-2.1312853270263687,0.516342043876648,33.39820098876953,0.009547085232204862,-0.07122645907931857
9168,-0.6713214198371039,0.5578126525878906,84.80043029785156,84.35034942626953,-5.321098327636719,86.0688247680664,0.0295280032687717,0.6396666666666667,0.5257142857142857,-0.04693463643391927,-2.0763555937500016,0.08788800239562988,33.22241973876953,0.00500089857313368,-0.0709991455078125
9169,-0.6713214198371039,0.5578126525878906,85.29141998291016,84.1048583984375,-5.321098327636719,86.08927917480469,0.0295280032687717,0.633,0.5257142857142857,-0.046843094295925564,-2.1093126707763687,0.09887400269508362,33.13452911376953,0.013184017605251737,-0.0712264166937934
9170,-0.6713214198371039,0.5578126525878906,84.77996826171875,84.49356079101562,-5.321098327636719,86.04837036132812,0.029300732082790798,0.627,0.5257142857142857,-0.04723980161878798,-2.0763555937500016,-0.2307058745117203,32.95874786376953,0.003182305230034722,-0.0707718743218316
9171,-0.6713214198371039,0.5578126525878906,83.32745361328125,83.28652954101562,-5.300640106201172,86.02790832519531,0.02975531684027778,0.6206666666666667,0.5257142857142857,-0.04708722432454427,-1.9664942198486344,-0.08788933093261875,32.95874786376953,0.0004547119140625,-0.07031720479329427
9172,-0.6752276698371039,0.5578126525878906,84.26852416992188,82.5091323852539,-5.300640106201172,85.98699188232422,0.0295280032687717,0.6146666666666667,0.5260714285714285,-0.04626327090793186,-1.8676210814209,1.2414180040359497,32.95874786376953,0.019548797607421876,-0.06986257765028211
9173,-0.6791339198371039,0.5578126525878906,85.65966796875,84.30943298339844,-5.280181884765625,86.0074462890625,0.0295280032687717,0.6086666666666667,0.5260714285714285,-0.04553087022569444,-1.8126913481445328,1.8566340208053589,32.95874786376953,0.015002610948350694,-0.06986253526475694
9174,-0.6791339198371039,0.5777345275878907,85.70057678222656,84.96409606933594,-5.341556549072266,85.96653747558594,0.029300732082790798,0.6026666666666667,0.5264285714285715,-0.04528674019707574,-1.7797323637695328,1.1974740028381348,32.95874786376953,0.008183119032118056,-0.07008993360731337
9175,-0.6791339198371039,0.5777345275878907,84.67768096923828,83.98210144042969,-5.3620147705078125,86.0074462890625,0.0295280032687717,0.5966666666666667,0.5264285714285715,-0.04440175162421332,-1.7467752867431656,0.41746801137924194,32.95874786376953,0.007728661431206597,-0.07077178955078126
9176,-0.6830401698371039,0.5578126525878906,84.84133911132812,83.77752685546875,-5.321098327636719,86.0688247680664,0.0295280032687717,0.5913333333333334,0.5260714285714285,-0.0435167736477322,-1.8126913481445328,0.2526780068874359,32.95874786376953,0.011820136176215277,-0.0709991455078125
9177,-0.6830401698371039,0.5578126525878906,85.1072998046875,83.79798889160156,-5.321098327636719,86.1097412109375,0.0295280032687717,0.5856666666666667,0.5257142857142857,-0.043028502994113496,-1.9115644865722672,0.26366400718688965,32.95874786376953,0.014547899034288195,-0.07145377265082466
9178,-0.6830401698371039,0.5578126525878906,84.67768096923828,83.90027618408203,-5.341556549072266,86.1097412109375,0.0295280032687717,0.58,0.5253571428571429,-0.04290644327799479,-2.0104395323486344,0.13183200359344482,32.95874786376953,0.008637830946180555,-0.07168108622233073
9179,-0.6830401698371039,0.5578126525878906,85.88470458984375,84.82088470458984,-5.341556549072266,86.02790832519531,0.0295280032687717,0.574,0.525,-0.04278437296549479,-2.0433966093750016,-0.14281906420898594,32.95874786376953,0.011820220947265625,-0.07077183193630643
9180,-0.6791339198371039,0.5578126525878906,84.16622924804688,83.81844329833984,-5.341556549072266,86.0688247680664,0.02975531684027778,0.5686666666666667,0.5246428571428572,-0.042997985415988496,-1.9994532042236344,-0.5383154326171891,32.95874786376953,0.003864288330078125,-0.07122645907931857
9181,-0.6830401698371039,0.5578126525878906,85.0050048828125,84.06393432617188,-5.321098327636719,86.0688247680664,0.0295280032687717,0.563,0.5228571428571429,-0.043089538150363496,-1.9225508146972672,-0.2746511870117203,32.95874786376953,0.010456339518229166,-0.0709991455078125
9182,-0.6752276698371039,0.5578126525878906,85.5164566040039,84.45263671875,-5.341556549072266,86.15065002441406,0.02975531684027778,0.556,0.5217857142857143,-0.04382193883260091,-1.8676210814209,-0.2416922026367203,32.95874786376953,0.011820220947265625,-0.07213562859429254
9183,-0.6791339198371039,0.5578126525878906,84.45263671875,83.65477752685547,-5.607509613037109,86.39614868164062,0.0295280032687717,0.5496666666666666,0.5185714285714286,-0.044310209486219616,-1.8786074095459,-0.6811319761962906,32.95874786376953,0.008865102132161459,-0.07781842549641928
9184,-0.6830401698371039,0.5578126525878906,84.02302551269531,83.12287139892578,-6.425830841064453,87.25538635253906,0.02975531684027778,0.5443333333333333,0.5164285714285715,-0.04504261016845703,-2.263117449829103,-0.7250772886962906,32.95874786376953,0.010001712375217013,-0.09645796881781685
9185,-0.6908526698371039,0.5578126525878906,83.49111938476562,82.89783477783203,-6.916820526123047,87.80775451660156,0.0295280032687717,0.5403333333333333,0.5117857142857143,-0.044279691908094616,-3.0211512022705094,-0.4723993712158219,32.8708610534668,0.0065920511881510414,-0.10805083380805122
9186,-0.6947589198371039,0.5378907394409179,85.0459213256836,83.65477752685547,-7.428272247314453,88.23736572265625,0.02975531684027778,0.5366666666666666,0.5078571428571429,-0.043272643619113496,-3.7022825651855484,0.1538040041923523,32.8708610534668,0.0154571533203125,-0.11850708855523004
9187,-0.6947589198371039,0.5578126525878906,85.5164566040039,84.73905181884766,-8.021553039550781,88.6669921875,0.02975531684027778,0.5326666666666666,0.5035714285714286,-0.044188139173719616,-4.32848419482422,0.05493000149726868,32.8708610534668,0.008637830946180555,-0.1298727247450087
9188,-0.6986651698371039,0.5578126525878906,84.67768096923828,84.24806213378906,-8.144302368164062,89.09660339355469,0.02975531684027778,0.5286666666666666,0.5,-0.04437123404608832,-4.943701403686525,-0.4064833098144547,32.95874786376953,0.004773542616102431,-0.1360100640190972
9189,-0.6986651698371039,0.5378907394409179,83.75706481933594,83.0001220703125,-7.67376708984375,88.74882507324219,0.0295280032687717,0.5236666666666666,0.495,-0.0435167736477322,-5.229336398193361,-0.4174677305908219,32.95874786376953,0.008410474989149305,-0.12691769070095485
9190,-0.7064776698371039,0.5179688644409179,85.47554016113281,83.20470428466797,-7.612392425537109,88.52378845214844,0.02975531684027778,0.5183333333333333,0.4928571428571429,-0.04141112433539496,-5.097504275390627,0.07690200209617615,32.8708610534668,0.025231509738498265,-0.12373534308539497
9191,-0.7064776698371039,0.5378907394409179,86.25294494628906,85.33233642578125,-7.612392425537109,88.44195556640625,0.0295280032687717,0.5123333333333333,0.48928571428571427,-0.041929901970757376,-5.075533526489259,0.02197200059890747,32.8708610534668,0.010228983561197917,-0.12282608879937065
9192,-0.7025714198371039,0.5179688644409179,84.75950622558594,84.53446960449219,-7.612392425537109,88.54424285888672,0.02975531684027778,0.5063333333333333,0.48678571428571427,-0.04138060675726996,-5.251309054443361,-0.5273291044921891,32.8708610534668,0.0025004069010416668,-0.12396261427137586
9193,-0.7103839198371039,0.5179688644409179,85.02546691894531,84.14576721191406,-7.5919342041015625,88.564697265625,0.02975531684027778,0.5003333333333333,0.4835714285714286,-0.04135008917914496,-5.602860110351564,-0.4614130430908219,32.8708610534668,0.009774441189236111,-0.12396257188585069
9194,-0.7103839198371039,0.5378907394409179,84.88226318359375,84.12531280517578,-7.510105133056641,88.31919860839844,0.029300732082790798,0.49333333333333335,0.48142857142857143,-0.04244869020250108,-5.712721484252931,-0.4614130430908219,32.95874786376953,0.008410559760199653,-0.12032559712727865
9195,-0.7025714198371039,0.5179688644409179,84.1048583984375,83.71615600585938,-7.019111633300781,87.64408874511719,0.02975531684027778,0.486,0.47928571428571426,-0.042235077752007376,-5.328211443969728,-0.49437012011718906,32.95874786376953,0.0043189154730902775,-0.10736889309353298
9196,-0.7025714198371039,0.5179688644409179,85.18913269042969,84.22760009765625,-6.834991455078125,87.41905212402344,0.02975531684027778,0.47933333333333333,0.47785714285714287,-0.04122801886664496,-4.658064501831056,-0.17577614123535312,32.95874786376953,0.010683695475260416,-0.1028227064344618
9197,-0.7025714198371039,0.5179688644409179,86.33477783203125,84.92317199707031,-6.875904083251953,87.23492431640625,0.0295280032687717,0.47333333333333333,0.47535714285714287,-0.04177732467651367,-4.031862872192384,-0.3295809202880875,32.95874786376953,0.01568450927734375,-0.10123142666286893
9198,-0.7025714198371039,0.5179688644409179,85.20958709716797,85.1072998046875,-6.875904083251953,87.39859008789062,0.02975531684027778,0.4673333333333333,0.4732142857142857,-0.04272333780924479,-3.7132688933105484,-1.0656420164794937,32.95874786376953,0.0011365254720052083,-0.10304993523491754
9199,-0.7025714198371039,0.5179688644409179,83.63432312011719,83.42974090576172,-6.957736968994141,87.48042297363281,0.029982630411783853,0.4623333333333333,0.46964285714285714,-0.04272333780924479,-3.592423098632814,-1.3073355131835953,32.95874786376953,0.002273135715060764,-0.10486844380696615
9200,-0.7064776698371039,0.49804698944091796,85.08683776855469,83.94119262695312,-6.916820526123047,87.50088500976562,0.02975531684027778,0.45766666666666667,0.46714285714285714,-0.04232661989000108,-3.526507037231447,-0.801977770874025,32.95874786376953,0.012729390462239584,-0.10464117262098524
9201,-0.7025714198371039,0.49804698944091796,86.29386138916016,84.94363403320312,-6.937278747558594,87.70545959472656,0.02975531684027778,0.45266666666666666,0.4635714285714286,-0.0434252209133572,-3.603409426757814,-0.6591612272949234,32.95874786376953,0.015002526177300347,-0.10714153713650174
9202,-0.7025714198371039,0.49804698944091796,85.33233642578125,85.02546691894531,-6.9781951904296875,87.64408874511719,0.02975531684027778,0.4483333333333333,0.4614285714285714,-0.0433336681789822,-3.7132688933105484,-1.505081790039064,32.95874786376953,0.003409661187065972,-0.10691426595052084
9203,-0.7103839198371039,0.49804698944091796,85.455078125,84.63676452636719,-6.957736968994141,87.562255859375,0.02975531684027778,0.44333333333333336,0.45785714285714285,-0.04235713746812608,-3.812142031738283,-1.9005781584472672,26.982229232788086,0.00909237331814236,-0.10577769809299045
9204,-0.7221026698371039,0.478125114440918,85.74149322509766,84.67768096923828,-6.7531585693359375,87.27584838867188,0.0295280032687717,0.438,0.45607142857142857,-0.04244869020250108,-3.90003074938965,-1.7467752867431656,26.71855926513672,0.011820136176215277,-0.10032229953342015
9205,-0.7299151698371039,0.49804698944091796,85.0459213256836,84.61630249023438,-6.855449676513672,87.23492431640625,0.0295280032687717,0.43333333333333335,0.4525,-0.04391349156697591,-3.943974154541017,-1.7797323637695328,26.71855926513672,0.004773542616102431,-0.10100415547688803
9206,-0.7299151698371039,0.49804698944091796,84.554931640625,83.49111938476562,-7.039569854736328,87.93049621582031,0.029982630411783853,0.42833333333333334,0.45,-0.04470692740546332,-4.251581805297853,-1.4062086516113297,26.71855926513672,0.011820136176215277,-0.11077851189507379
9207,-0.7338214198371039,0.478125114440918,84.1048583984375,83.79798889160156,-7.44873046875,88.6056137084961,0.029982630411783853,0.42433333333333334,0.44535714285714284,-0.04400504430135091,-5.185392993041994,-0.823950427124025,26.63067054748535,0.003409661187065972,-0.12282604641384548
9208,-0.7338214198371039,0.49804698944091796,84.71859741210938,83.94119262695312,-7.5305633544921875,88.68744659423828,0.02975531684027778,0.4206666666666667,0.4425,-0.04498157501220703,-5.899483340332033,-0.3845106535644547,26.63067054748535,0.008637830946180555,-0.1246445549858941
9209,-0.7299151698371039,0.49804698944091796,84.86180114746094,83.81844329833984,-8.144302368164062,89.26026916503906,0.029982630411783853,0.41633333333333333,0.4375,-0.04635482364230686,-6.558642046997072,-0.5492998533935562,26.63067054748535,0.011592864990234375,-0.13782857259114584
9210,-0.7377276698371039,0.5179688644409179,83.552490234375,82.57050323486328,-8.001094818115234,89.32164001464844,0.029982630411783853,0.413,0.43464285714285716,-0.046659988827175564,-7.4485079222412125,-0.49437012011718906,26.63067054748535,0.01091096666124132,-0.13691927591959635
9211,-0.7416339198371039,0.5179688644409179,84.98455047607422,83.98210144042969,-7.5919342041015625,88.83065795898438,0.029982630411783853,0.4076666666666667,0.4303571428571429,-0.0483689202202691,-7.635271685668947,0.16479000449180603,26.63067054748535,0.01113832261827257,-0.12691769070095485
9212,-0.7299151698371039,0.5179688644409179,82.91828918457031,82.22271728515625,-7.182777404785156,88.33966064453125,0.03020994398328993,0.402,0.4275,-0.048979261186387804,-7.338648455688478,0.07690200209617615,26.63067054748535,0.00772857666015625,-0.11691597832573784
9213,-0.7260089198371039,0.49804698944091796,84.47309875488281,83.0410385131836,-7.039569854736328,87.64408874511719,0.02975531684027778,0.396,0.42392857142857143,-0.04714825948079427,-6.602587359497072,0.6921180486679077,26.63067054748535,0.015911780463324653,-0.10759620666503907
9214,-0.7260089198371039,0.5179688644409179,85.39370727539062,84.5958480834961,-7.080486297607422,87.78729248046875,0.029982630411783853,0.3903333333333333,0.42142857142857143,-0.04702618916829427,-6.119202273437502,0.8788800239562988,26.63067054748535,0.008865102132161459,-0.10964198642306858
9215,-0.7181964198371039,0.49804698944091796,85.37325286865234,84.45263671875,-6.875904083251953,87.45996856689453,0.02975531684027778,0.38466666666666666,0.41785714285714287,-0.04617171817355686,-6.042299883911134,0.1538040041923523,26.63067054748535,0.010229068332248265,-0.10373191833496094
9216,-0.7299151698371039,0.478125114440918,85.88470458984375,84.82088470458984,-6.834991455078125,41.900001525878906,0.02975531684027778,0.38033333333333336,0.415,-0.0433641857571072,-5.679762499877931,-0.4394403868408219,26.63067054748535,0.011820220947265625,0.40294452243381074
9217,-0.7221026698371039,0.45820323944091795,86.70301818847656,85.37325286865234,-6.507663726806641,87.1121826171875,0.02975531684027778,0.375,0.4107142857142857,-0.04278437296549479,-5.306238787719728,-0.845923083374025,26.63067054748535,0.014775170220269097,-0.09577607048882378
9218,-0.7221026698371039,0.478125114440918,85.90515899658203,84.90271759033203,-6.425830841064453,41.900001525878906,0.029982630411783853,0.37066666666666664,0.40785714285714286,-0.0435778088039822,-4.943701403686525,-1.4062086516113297,26.63067054748535,0.011138237847222222,0.40749075147840713
9219,-0.7103839198371039,0.478125114440918,84.82088470458984,84.73905181884766,-6.098503112792969,87.5213394165039,0.029982630411783853,0.36666666666666664,0.4035714285714286,-0.04620223575168186,-4.36144317919922,-1.527054446289064,26.63067054748535,0.0009092542860243056,-0.0957760281032986
9220,-0.7181964198371039,0.45820323944091795,82.67279052734375,82.42729949951172,-6.630409240722656,87.5213394165039,0.029982630411783853,0.359,0.4010714285714286,-0.046782059139675564,-5.679762499877931,-2.164242404052736,26.63067054748535,0.0027276780870225696,-0.10168609619140626
9221,-0.7221026698371039,0.3187500762939453,82.75462341308594,75.14425659179688,-6.5894927978515625,87.74638366699219,0.029982630411783853,0.3586666666666667,0.3975,-0.03561295403374566,-7.690201418945314,-0.48338379199218906,26.63067054748535,0.08455963134765625,-0.10373196072048611
9222,-0.8119464198371039,0.3187500762939453,88.70790100097656,85.43462371826172,-6.630409240722656,87.72592163085938,0.0295280032687717,0.356,0.39571428571428574,-0.026152790917290582,-7.668228762695314,3.087066173553467,26.63067054748535,0.03636974758572049,-0.10395923190646701
9223,-0.8002276698371039,0.3785157012939453,89.28073120117188,88.19645690917969,-4.011787414550781,85.14820861816406,0.029300732082790798,0.349,0.3939285714285714,-0.028441535101996526,-7.778088229248048,2.7355141639709473,26.63067054748535,0.012047492133246528,-0.04622217814127604
9224,-0.7299151698371039,0.45820323944091795,88.97386169433594,89.71034240722656,-4.073158264160156,87.78729248046875,0.0295280032687717,0.3446666666666667,0.39321428571428574,-0.04046511120266384,-5.174406664916994,-0.3954969816894547,26.63067054748535,-0.008183119032118056,-0.07622723049587674
9225,-0.7103839198371039,0.49804698944091796,78.02882385253906,82.0385971069336,-5.771175384521484,41.900001525878906,0.029982630411783853,0.33866666666666667,0.39035714285714285,-0.048948743608262804,-4.119751589843752,-2.911289828369142,26.63067054748535,-0.04455303615993923,0.41476470099555124
9226,-0.7103839198371039,0.5179688644409179,84.0025634765625,83.34790802001953,-4.4209442138671875,84.69813537597656,0.02975531684027778,0.33266666666666667,0.38785714285714284,-0.05334313710530599,-4.086792605468752,-1.4501520567626969,26.63067054748535,0.0072739495171440975,-0.04576755099826389
9227,-0.7181964198371039,0.5179688644409179,82.24317932128906,83.28652954101562,-3.8276634216308594,84.0434799194336,0.029982630411783853,0.32766666666666666,0.3846428571428571,-0.05560137430826823,-3.4605909758300797,-1.3732515745849625,26.63067054748535,-0.011592780219184027,-0.03190159267849392
9228,-0.7025714198371039,0.49804698944091796,83.75706481933594,84.41172790527344,-3.6230850219726562,85.68012237548828,0.029982630411783853,0.32366666666666666,0.3825,-0.05734082327948676,-2.2960745268554703,-1.7248026304931656,26.63067054748535,-0.007274034288194444,-0.04781341552734375
9229,-0.6986651698371039,0.478125114440918,77.4764633178711,80.46333312988281,-4.66644287109375,84.88226318359375,0.029982630411783853,0.321,0.3782142857142857,-0.056364287270439996,-1.5929705076904312,-1.8126913481445328,29.970489501953125,-0.03318744235568576,-0.05054117838541667
9230,-0.7260089198371039,0.478125114440918,85.70057678222656,79.542724609375,-3.8481216430664062,84.69813537597656,0.029982630411783853,0.31533333333333335,0.375,-0.055418274137708876,-1.4721247130126969,3.394674062728882,33.573978424072266,0.06842057969835069,-0.0394028557671441
9231,-0.6830401698371039,0.41835948944091794,87.88958740234375,83.94119262695312,-4.011787414550781,86.62118530273438,0.02975531684027778,0.31233333333333335,0.37285714285714283,-0.05029147466023763,-1.4940973692626969,2.614668130874634,34.980220794677734,0.04387105305989583,-0.06258858574761285
9232,-0.7650714198371039,0.33867195129394534,85.80287170410156,41.900001525878906,-5.177890777587891,85.78240966796875,0.029982630411783853,0.31333333333333335,0.37107142857142855,-0.03341575198703342,-2.4388929777832047,1.3622640371322632,36.65013122558594,0.4878096686469184,-0.0662255605061849
9233,-0.8275714198371039,0.219140682220459,88.95339965820312,86.53935241699219,-4.789188385009766,85.29141998291016,0.02975531684027778,0.311,0.36857142857142855,-0.016662110222710504,-3.229883807250978,0.6921180486679077,36.65013122558594,0.026822747124565973,-0.056451204087999134
9234,-0.8861651698371039,0.2789063262939453,84.49356079101562,88.62606811523438,-4.073158264160156,84.32989501953125,0.029982630411783853,0.30433333333333334,0.3675,-0.013305271996392145,-2.7245279722900406,-1.3842359953613297,36.65013122558594,-0.045916748046875,-0.03781170315212674
9235,-0.7924151698371039,0.29882820129394533,92.75859069824219,41.900001525878906,-3.8481216430664062,86.27340698242188,0.02975531684027778,0.3016666666666667,0.3657142857142857,-0.02282647026909722,-1.505081790039064,2.3290319442749023,37.17747116088867,0.5650954352484809,-0.056905873616536456
9236,-0.6947589198371039,0.39843757629394533,85.31187438964844,82.12042999267578,-6.016670227050781,86.04837036132812,0.029982630411783853,0.2996666666666667,0.3653571428571429,-0.041014406416151256,-1.7028299742431656,1.3732500076293945,38.84737777709961,0.03546049329969618,-0.07850045098198785
9237,-0.6869464198371039,0.45820323944091795,79.50180053710938,79.19493103027344,-5.709800720214844,85.86424255371094,0.029982630411783853,0.29233333333333333,0.36428571428571427,-0.0484604729546441,-3.7352415495605484,-1.6149431639404312,39.11104965209961,0.003409661187065972,-0.07304492526584201
9238,-0.7533526698371039,0.41835948944091794,80.27920532226562,85.18913269042969,-5.259723663330078,85.41416931152344,0.029982630411783853,0.291,0.36464285714285716,-0.04019045299953884,-4.548205035278322,-2.153256075927736,37.79269790649414,-0.05455474853515625,-0.06304325527615018
9239,-0.8080401698371039,0.33867195129394534,84.5140151977539,41.900001525878906,-4.727817535400391,84.6572265625,0.029982630411783853,0.287,0.365,-0.029479100969102646,-4.789896624633791,-2.7135435515136734,37.529029846191406,0.4734890407986111,-0.04872271219889323
9240,-0.8431964198371039,0.3785157012939453,82.16134643554688,88.91248321533203,-3.5821685791015625,83.49111938476562,0.029982630411783853,0.2793333333333333,0.36607142857142855,-0.02938755883110894,-4.669050829956056,-0.9447962218017594,37.441139221191406,-0.07501263088650173,-0.023036532931857638
9241,-0.7572589198371039,0.39843757629394533,88.48286437988281,86.33477783203125,-2.641101837158203,83.90027618408203,0.029982630411783853,0.27566666666666667,0.3675,-0.042113007439507376,-3.0650946074218766,1.8346620798110962,38.05636978149414,0.023867628309461805,-0.017126422458224825
9242,-0.7142901698371039,0.478125114440918,80.83157348632812,80.68836975097656,-2.9275131225585938,83.75706481933594,0.03020994398328993,0.26866666666666666,0.36857142857142855,-0.05267177157931858,-1.8895918303222672,0.4394400119781494,39.11104965209961,0.001591152615017361,-0.018717532687717014
9243,-0.7260089198371039,0.45820323944091795,86.72348022460938,84.63676452636719,-2.9684295654296875,85.27096557617188,0.03020994398328993,0.263,0.36964285714285716,-0.05016940434773763,-1.4281813078613297,0.14281800389289856,39.19894027709961,0.02318572998046875,-0.03599327935112847
9244,-0.7416339198371039,0.41835948944091794,84.14576721191406,82.05905151367188,-3.520793914794922,85.68012237548828,0.03020994398328993,0.25933333333333336,0.36892857142857144,-0.04376090367635091,-1.5819841795654312,-0.7690206938476578,39.19894027709961,0.02318572998046875,-0.046676847669813365
9245,-0.7611651698371039,0.3785157012939453,83.02058410644531,82.38638305664062,-3.704914093017578,84.20714569091797,0.029982630411783853,0.25433333333333336,0.36857142857142855,-0.04019045299953884,-2.153256075927736,-0.3735243254394547,39.19894027709961,0.007046678331163195,-0.03235621982150608
9246,-0.7181964198371039,0.3785157012939453,83.1024169921875,74.01905822753906,-3.5617103576660156,84.554931640625,0.03020994398328993,0.24866666666666667,0.36892857142857144,-0.04290644327799479,-1.8786074095459,-0.2636648588867203,39.19894027709961,0.10092620849609375,-0.03462935553656684
9247,-0.7416339198371039,0.33867195129394534,76.82180786132812,84.16622924804688,-3.520793914794922,85.74149322509766,0.029982630411783853,0.24566666666666667,0.36857142857142855,-0.039702192942301436,-1.505081790039064,-0.10986007983398594,40.34151077270508,-0.08160468207465278,-0.04735874599880642
9248,-0.7377276698371039,0.33867195129394534,87.19401550292969,86.0074462890625,-4.318656921386719,84.18669128417969,0.029982630411783853,0.242,0.3675,-0.03903082741631402,-1.505081790039064,3.1749541759490967,39.28683090209961,0.013184102376302083,-0.038948313395182295
9249,-0.7338214198371039,0.3785157012939453,85.08683776855469,83.22515869140625,-3.7867469787597656,85.5164566040039,0.03020994398328993,0.23833333333333334,0.36714285714285716,-0.03988528781467014,-1.8126913481445328,2.6476261615753174,39.19894027709961,0.020685323079427085,-0.04781337314181858
9250,-0.7260089198371039,0.3785157012939453,84.41172790527344,85.35279846191406,-3.9913291931152344,85.33233642578125,0.03020994398328993,0.23433333333333334,0.36678571428571427,-0.03698620266384549,-1.5709978514404312,2.4169201850891113,39.11104965209961,-0.010456339518229166,-0.04804072909884983
9251,-0.7299151698371039,0.33867195129394534,86.6007308959961,86.64164733886719,-3.9299545288085938,85.25050354003906,0.03020994398328993,0.23133333333333334,0.3657142857142857,-0.032195091247558594,-1.8346620970459,1.9555079936981201,39.11104965209961,-0.0004546271430121528,-0.046449534098307294
9252,-0.7377276698371039,0.3585938262939453,87.45996856689453,87.19401550292969,-4.400489807128906,85.41416931152344,0.02975531684027778,0.228,0.3657142857142857,-0.03042512469821506,-1.8017050200195328,1.8456480503082275,39.19894027709961,0.0029550340440538192,-0.05349621242947049
9253,-0.7455401698371039,0.3785157012939453,85.98699188232422,80.62699890136719,-4.032245635986328,84.32989501953125,0.03020994398328993,0.22333333333333333,0.36464285714285716,-0.03143217298719618,-1.9774805479736344,0.14281800389289856,39.28683090209961,0.05955547756618924,-0.03735711839463976
9254,-0.7533526698371039,0.33867195129394534,81.32257080078125,84.98455047607422,-2.9888877868652344,85.0050048828125,0.029982630411783853,0.22,0.36428571428571427,-0.02764810985989041,-1.9664942198486344,-0.7580343657226578,39.11104965209961,-0.04068866305881076,-0.033265474107530384
9255,-0.8002276698371039,0.33867195129394534,85.33233642578125,83.32745361328125,-3.725372314453125,85.12775421142578,0.029982630411783853,0.21733333333333332,0.36392857142857143,-0.02304009331597222,-0.8898664885253922,-0.4614130430908219,39.550498962402344,0.022276475694444443,-0.04281251695421007
9256,-0.7846026698371039,0.33867195129394534,84.75950622558594,85.65966796875,-4.1959075927734375,84.69813537597656,0.03020994398328993,0.21366666666666667,0.3632142857142857,-0.024596436818440755,-1.0326849394531266,0.6481740474700928,39.814170837402344,-0.01000179714626736,-0.043267144097222224
9257,-0.7338214198371039,0.33867195129394534,85.27096557617188,85.455078125,-4.011787414550781,84.57539367675781,0.03020994398328993,0.20966666666666667,0.3625,-0.02831947538587782,-1.7467752867431656,1.0107120275497437,40.60517883300781,-0.0020456949869791666,-0.039857567681206595
9258,-0.7377276698371039,0.33867195129394534,86.1097412109375,85.35279846191406,-4.011787414550781,85.35279846191406,0.02975531684027778,0.20666666666666667,0.3632142857142857,-0.028014310201009116,-1.5709978514404312,0.2856360077857971,41.22040939331055,0.008410474989149305,-0.04849539862738715
9259,-0.7416339198371039,0.3187500762939453,84.75950622558594,84.18669128417969,-4.011787414550781,85.98699188232422,0.03020994398328993,0.20233333333333334,0.3632142857142857,-0.026152790917290582,-1.527054446289064,-0.6371885710449234,41.22040939331055,0.006364610460069444,-0.0555419921875
9260,-0.7572589198371039,0.3187500762939453,85.16867065429688,85.12775421142578,-4.4209442138671875,84.77996826171875,0.03020994398328993,0.19866666666666666,0.3628571428571429,-0.02435230678982205,-2.142269747802736,-1.0107122832031266,40.25362014770508,0.0004546271430121528,-0.04667680528428819
9261,-0.7650714198371039,0.29882820129394533,85.70057678222656,86.08927917480469,-3.9299545288085938,85.5164566040039,0.03020994398328993,0.195,0.36214285714285716,-0.02307060029771593,-2.241144793579103,-0.9008528166503922,40.07783889770508,-0.0043189154730902775,-0.04940456814236111
9262,-0.7533526698371039,0.25898443222045897,87.37813568115234,79.91096496582031,-4.11407470703125,86.0074462890625,0.03020994398328993,0.191,0.36214285714285716,-0.022460269927978515,-1.9774805479736344,-1.3073355131835953,39.98994827270508,0.08296856350368924,-0.05690578884548611
9263,-0.8002276698371039,0.25898443222045897,82.40684509277344,88.91248321533203,-4.543693542480469,84.30943298339844,0.03020994398328993,0.18766666666666668,0.3610714285714286,-0.02004945543077257,-2.537766116210939,-1.4611383848876969,39.814170837402344,-0.07228486802842882,-0.04281251695421007
9264,-0.8314776698371039,0.2789063262939453,90.2218017578125,83.63432312011719,-3.7867469787597656,84.28897857666016,0.029982630411783853,0.18233333333333332,0.3607142857142857,-0.019408607482910158,-2.790444033691408,-0.5163427763671891,39.19894027709961,0.07319420708550348,-0.03417472839355469
9265,-0.8119464198371039,0.29882820129394533,82.550048828125,81.38394165039062,-3.9504127502441406,84.92317199707031,0.03020994398328993,0.17933333333333334,0.3607142857142857,-0.022673892974853515,-2.208185809204103,-1.2524038725585953,39.11104965209961,0.012956746419270833,-0.043039830525716145
9266,-0.7806964198371039,0.2789063262939453,80.46333312988281,84.39126586914062,-3.909496307373047,85.16867065429688,0.029982630411783853,0.17466666666666666,0.3607142857142857,-0.02554246054755317,-2.0214239531250016,-0.7909933500976578,39.28683090209961,-0.04364369710286458,-0.04531296624077691
9267,-0.7650714198371039,0.25898443222045897,85.82332611083984,84.84133911132812,-3.909496307373047,85.39370727539062,0.030437257554796007,0.17033333333333334,0.3607142857142857,-0.024565919240315755,-2.1202989989013687,0.24169200658798218,39.550498962402344,0.01091096666124132,-0.04781337314181858
9268,-0.8041339198371039,0.2789063262939453,85.80287170410156,78.25386810302734,-4.011787414550781,84.75950622558594,0.03020994398328993,0.16633333333333333,0.3607142857142857,-0.023711458841959635,-2.6146685057373062,-0.4174677305908219,39.550498962402344,0.08387781778971354,-0.04190326266818577
9269,-0.7846026698371039,0.239062557220459,84.53446960449219,86.64164733886719,-3.8072052001953125,85.18913269042969,0.03020994398328993,0.162,0.3607142857142857,-0.020964950985378688,-2.6146685057373062,1.494096040725708,39.28683090209961,-0.0234130859375,-0.044403754340277775
9270,-0.7572589198371039,0.239062557220459,93.18820190429688,84.63676452636719,-3.9299545288085938,86.43707275390625,0.029982630411783853,0.158,0.36,-0.02072082095675998,-2.230158465454103,2.8673460483551025,39.28683090209961,0.09501597086588541,-0.059633636474609376
9271,-0.7806964198371039,0.25898443222045897,84.98455047607422,82.97966003417969,-5.014228820800781,85.12775421142578,0.03020994398328993,0.155,0.3585714285714286,-0.019225502014160158,-2.0104395323486344,-0.834936755249025,38.14426040649414,0.022276560465494793,-0.05713314480251736
9272,-0.7767901698371039,0.19921878814697266,85.0459213256836,81.4453125,-4.3595733642578125,85.39370727539062,0.029982630411783853,0.15066666666666667,0.3578571428571429,-0.01596022711859809,-2.493822711059572,-1.2853628569335953,37.704811096191406,0.040006764729817706,-0.05281422932942708
9273,-0.8236651698371039,0.239062557220459,80.83157348632812,84.08439636230469,-4.3595733642578125,84.77996826171875,0.030437257554796007,0.147,0.35642857142857143,-0.017638640933566624,-2.6586119108886734,-1.153530734130861,37.704811096191406,-0.03614247639973958,-0.04599490695529514
9274,-0.7728839198371039,0.239062557220459,84.75950622558594,86.53935241699219,-4.134532928466797,84.18669128417969,0.03020994398328993,0.143,0.35642857142857143,-0.021300633748372395,-2.4169203215332047,0.6921180486679077,37.79269790649414,-0.01977606879340278,-0.0369024912516276
9275,-0.7455401698371039,0.25898443222045897,85.35279846191406,81.73172760009766,-3.868579864501953,85.37325286865234,0.030437257554796007,0.13866666666666666,0.3560714285714286,-0.024565919240315755,-2.1093126707763687,0.09887400269508362,38.14426040649414,0.04023412068684896,-0.04713147481282552
9276,-0.7650714198371039,0.2789063262939453,82.57050323486328,78.21295166015625,-4.073158264160156,84.80043029785156,0.030437257554796007,0.13466666666666666,0.3557142857142857,-0.024779542287190755,-1.8786074095459,-1.0876146727294937,38.583709716796875,0.04841723971896701,-0.04303987291124132
9277,-0.7572589198371039,0.219140682220459,84.5958480834961,85.65966796875,-4.011787414550781,85.84378051757812,0.030437257554796007,0.13133333333333333,0.35535714285714287,-0.0219109747144911,-2.2741018706054703,-0.5932451658935562,38.93526840209961,-0.011820220947265625,-0.05395075480143229
9278,-0.8353839198371039,0.239062557220459,86.94851684570312,85.80287170410156,-4.11407470703125,83.94119262695312,0.03020994398328993,0.12633333333333333,0.3557142857142857,-0.017425017886691624,-2.0324102812500016,-0.7140909605712906,39.11104965209961,0.012729390462239584,-0.03394741482204861
9279,-0.8392901698371039,0.239062557220459,87.13264465332031,85.16867065429688,-3.8890380859375,84.0434799194336,0.030437257554796007,0.12266666666666666,0.35464285714285715,-0.017486053042941624,-1.5929705076904312,0.10986000299453735,38.84737777709961,0.02182193332248264,-0.032583533393012155
9280,-0.7846026698371039,0.25898443222045897,82.61141967773438,84.57539367675781,-3.5617103576660156,84.37080383300781,0.030437257554796007,0.11866666666666667,0.35464285714285715,-0.02294854058159722,-1.2853628569335953,-0.05493034655761875,39.98994827270508,-0.02182193332248264,-0.03258349100748698
9281,-0.7494464198371039,0.25898443222045897,83.98210144042969,78.8880615234375,-3.684459686279297,85.12775421142578,0.030437257554796007,0.115,0.35464285714285715,-0.026030720604790582,-1.0436712675781266,-0.4064833098144547,40.86885070800781,0.05660044352213542,-0.04235793219672309
9282,-0.7885089198371039,0.25898443222045897,79.80867004394531,84.16622924804688,-3.909496307373047,85.37325286865234,0.030437257554796007,0.111,0.355,-0.024810059865315755,-1.2194467955322281,-0.3735243254394547,41.13251876831055,-0.04841732449001736,-0.04758610195583767
9283,-0.8314776698371039,0.239062557220459,85.14820861816406,84.35034942626953,-3.8072052001953125,85.39370727539062,0.03020994398328993,0.10766666666666666,0.355,-0.018584654066297744,-1.7907186918945328,0.07690200209617615,41.13251876831055,0.008865102132161459,-0.04667680528428819
9284,-0.8510089198371039,0.239062557220459,85.68012237548828,82.30455017089844,-3.868579864501953,85.08683776855469,0.030437257554796007,0.10333333333333333,0.355,-0.016173839569091797,-2.263117449829103,0.23070600628852844,40.25362014770508,0.037506357828776045,-0.04394908481174045
9285,-0.8275714198371039,0.239062557220459,83.18424987792969,82.46821594238281,-3.8481216430664062,85.455078125,0.030437257554796007,0.1,0.3557142857142857,-0.01895085440741645,-2.2960745268554703,0.20873400568962097,40.07783889770508,0.0079559326171875,-0.047813330756293404
9286,-0.8197589198371039,0.25898443222045897,83.40928649902344,86.72348022460938,-3.868579864501953,84.24806213378906,0.030437257554796007,0.09666666666666666,0.3557142857142857,-0.020354620615641274,-1.9335371428222672,1.0546560287475586,40.42940139770508,-0.03682437472873264,-0.03462935553656684
9287,-0.8041339198371039,0.2789063262939453,85.37325286865234,81.9567642211914,-3.745830535888672,85.72103881835938,0.030437257554796007,0.09266666666666666,0.35642857142857143,-0.0217583868238661,-1.4391657286376969,1.1205720901489258,40.60517883300781,0.037960984971788195,-0.04963188171386719
9288,-0.7963214198371039,0.25898443222045897,82.83645629882812,85.02546691894531,-4.093616485595703,84.71859741210938,0.030437257554796007,0.08833333333333333,0.35678571428571426,-0.020446173350016274,-1.3402925902099625,1.0546560287475586,40.95674133300781,-0.024322340223524305,-0.04235793219672309
9289,-0.7494464198371039,0.19921878814697266,85.27096557617188,83.26608276367188,-3.9708709716796875,86.39614868164062,0.030437257554796007,0.08433333333333333,0.35714285714285715,-0.01791328854031033,-1.7907186918945328,0.7690200209617615,41.22040939331055,0.022276475694444443,-0.05963355170355903
9290,-0.8236651698371039,0.239062557220459,81.34302520751953,78.4789047241211,-4.543693542480469,85.63920593261719,0.030437257554796007,0.081,0.35678571428571426,-0.015563509199354383,-2.537766116210939,-0.6811319761962906,40.42940139770508,0.03182356092664931,-0.05758777194552951
9291,-0.8158526698371039,0.219140682220459,79.4813461303711,84.5958480834961,-4.3595733642578125,84.37080383300781,0.030437257554796007,0.07733333333333334,0.35642857142857143,-0.016295909881591797,-2.6586119108886734,-1.0436712675781266,40.07783889770508,-0.05682779947916667,-0.04144863552517361
9292,-0.7963214198371039,0.219140682220459,85.20958709716797,85.47554016113281,-3.9913291931152344,85.18913269042969,0.030437257554796007,0.07333333333333333,0.3557142857142857,-0.017363993326822917,-2.3839632445068375,1.1095860004425049,39.98994827270508,-0.0029550340440538192,-0.046449576483832467
9293,-0.8158526698371039,0.239062557220459,86.29386138916016,84.08439636230469,-4.093616485595703,85.84378051757812,0.030437257554796007,0.06933333333333333,0.3560714285714286,-0.01574660407172309,-1.9335371428222672,0.3954960107803345,39.98994827270508,0.02454961140950521,-0.054859966701931426
9294,-0.8353839198371039,0.25898443222045897,83.49111938476562,82.65233612060547,-4.154991149902344,85.12775421142578,0.030437257554796007,0.066,0.3557142857142857,-0.016112804412841797,-1.9445234709472672,-0.08788933093261875,39.98994827270508,0.009319814046223958,-0.0475860595703125
9295,-0.8080401698371039,0.219140682220459,83.94119262695312,83.16378784179688,-4.216365814208984,85.31187438964844,0.030437257554796007,0.06,0.3557142857142857,-0.016265392303466797,-2.197201388427736,0.06591600179672241,39.98994827270508,0.008637830946180555,-0.050313780042860246
9296,-0.8471026698371039,0.219140682220459,85.76194763183594,86.43707275390625,-4.175449371337891,84.30943298339844,0.030437257554796007,0.056,0.3557142857142857,-0.012084600660536024,-2.6256548338623062,-0.01098694140625156,40.07783889770508,-0.007501390245225694,-0.03872091505262587
9297,-0.8119464198371039,0.219140682220459,85.96653747558594,84.57539367675781,-4.482318878173828,85.94607543945312,0.030664571126302085,0.05266666666666667,0.35642857142857143,-0.01467852062649197,-1.9884668760986344,0.5273280143737793,40.34151077270508,0.0154571533203125,-0.06031549241807726
9298,-0.7611651698371039,0.15937503814697265,83.85935974121094,86.0688247680664,-4.134532928466797,85.02546691894531,0.030664571126302085,0.047,0.3560714285714286,-0.013122166527642145,-2.867346423217775,-0.02197326953125156,39.814170837402344,-0.02454961140950521,-0.046222220526801215
9299,-0.8158526698371039,0.17929691314697266,87.23492431640625,82.32501220703125,-4.175449371337891,84.57539367675781,0.030664571126302085,0.043666666666666666,0.3560714285714286,-0.01052825715806749,-2.933262484619142,-0.5602861815185562,39.28683090209961,0.054554578993055554,-0.041676033867730035
9300,-0.8510089198371039,0.219140682220459,83.08195495605469,80.4837875366211,-4.175449371337891,85.5164566040039,0.030437257554796007,0.04,0.35535714285714287,-0.012084600660536024,-2.515795367309572,-1.4831110411376969,37.704811096191406,0.028868526882595485,-0.05213228861490885
9301,-0.8275714198371039,0.17929691314697266,81.56806182861328,85.80287170410156,-4.257282257080078,84.57539367675781,0.030664571126302085,0.036,0.3539285714285714,-0.012908554077148438,-2.482836382934572,-0.49437012011718906,37.529029846191406,-0.0470534430609809,-0.04258528815375434
9302,-0.8041339198371039,0.15937503814697265,86.49844360351562,83.5934066772461,-4.1959075927734375,85.96653747558594,0.030437257554796007,0.03166666666666667,0.3535714285714286,-0.012481318579779731,-2.2741018706054703,0.032958000898361206,37.704811096191406,0.032278188069661456,-0.05736050075954861
9303,-0.8236651698371039,0.15937503814697265,79.97233581542969,85.37325286865234,-4.236824035644531,85.31187438964844,0.030664571126302085,0.028,0.35214285714285715,-0.012145635816786024,-2.4388929777832047,-0.7360617094726578,37.704811096191406,-0.06001018948025173,-0.05054109361436632
9304,-0.8471026698371039,0.17929691314697266,86.35523986816406,82.20226287841797,-4.257282257080078,85.90515899658203,0.030664571126302085,0.024,0.3510714285714286,-0.01165737575954861,-2.3180471831054703,0.3076080083847046,37.704811096191406,0.046144188774956595,-0.05736045837402344
9305,-0.8705401698371039,0.17929691314697266,85.49600219726562,84.35034942626953,-4.461860656738281,85.92561340332031,0.030664571126302085,0.019666666666666666,0.34964285714285714,-0.01046722200181749,-1.9005781584472672,0.12084600329399109,37.704811096191406,0.012729475233289931,-0.05986082288953993
9306,-0.8978839198371039,0.19921878814697266,84.96409606933594,84.0434799194336,-4.277740478515625,85.23004150390625,0.030664571126302085,0.015333333333333332,0.3485714285714286,-0.008880350324842665,-1.505081790039064,-0.19774879748535312,34.013431549072266,0.010229068332248265,-0.05008646647135417
9307,-0.9017901698371039,0.15937503814697265,83.47065734863281,87.13264465332031,-3.704914093017578,83.28652954101562,0.030664571126302085,0.010333333333333333,0.3467857142857143,-0.0073240068223741316,-0.6152159147949234,0.14281800389289856,26.71855926513672,-0.04068874782986111,-0.022127151489257812
9308,-0.8978839198371039,0.17929691314697266,88.58515930175781,83.53202819824219,-2.8252220153808594,83.16378784179688,0.030664571126302085,0.007333333333333333,0.34464285714285714,-0.007720724741617838,0.9118380546569824,-0.09887375170898594,26.103330612182617,0.05614590115017361,-0.010988998413085937
9309,-0.9330401698371039,0.19921878814697266,89.77172088623047,84.47309875488281,-2.743389129638672,81.0361557006836,0.030664571126302085,0.004666666666666667,0.33964285714285714,-0.004546991984049479,1.494096040725708,-0.14281906420898594,26.015439987182617,0.05887357923719618,0.013560612996419271
9310,0.9927410801628961,0.17929691314697266,88.64653015136719,88.29874420166016,0.6526374816894531,81.60897827148438,0.030437257554796007,0.0006666666666666666,0.33535714285714285,0.0026854621039496527,1.252403974533081,-0.04394401843261875,25.83966064453125,0.003864288330078125,0.04492954678005642
9311,0.9927410801628961,0.17929691314697266,91.04011535644531,84.0025634765625,-0.042934417724609375,80.11553955078125,0.03020994398328993,-0.0003333333333333333,0.33035714285714285,0.0036619928148057725,2.032410144805908,0.08788800239562988,25.75177001953125,0.0781950208875868,0.05379473368326823
9312,-0.9681964198371039,0.13945316314697265,87.64408874511719,85.70057678222656,0.3866844177246094,80.87248992919922,0.030664571126302085,-0.002,0.3264285714285714,0.0016478962368435329,1.7028300762176514,-0.20873512561035312,25.575990676879883,0.021594577365451388,0.050157716539171004
9313,-0.9681964198371039,0.17929691314697266,86.02790832519531,92.574462890625,0.89813232421875,71.01173400878906,0.030664571126302085,-0.0003333333333333333,0.32035714285714284,0.0011596255832248264,0.9228240251541138,-0.04394401843261875,25.488100051879883,-0.07273949517144097,0.16540442572699654
9314,-0.9564776698371039,0.13945316314697265,93.27003479003906,91.59248352050781,7.506069183349609,73.79402160644531,0.030664571126302085,0.0,0.31464285714285717,0.0009460131327311198,1.0876140594482422,0.26366400718688965,25.488100051879883,0.018639458550347224,0.2079116397433811
9315,-0.9174151698371039,0.09960939407348633,92.1653060913086,91.18331909179688,7.158283233642578,75.77845001220703,0.030664571126302085,0.0,0.30642857142857144,-0.0,0.3954960107803345,0.6042300462722778,25.488100051879883,0.01091096666124132,0.1819981469048394
