,WD,WS,AIL_1,AIL_2,ELEV_1,ELEV_2,RUDD,ALT,GS,TH,PTCH,ROLL,PLA_1,AIL,ELEV
7366,-0.012491591354709185,0.25898443222045897,86.23248291015625,84.94363403320312,-7.694225311279297,89.48530578613281,-0.46555557250976565,0.7013333333333334,0.34214285714285714,0.010650338066948786,-3.7022825651855484,0.9447960257530212,37.704811096191406,0.014320543077256944,-0.135328123304579
7367,-0.03592909135470919,0.2789063262939453,85.08683776855469,84.94363403320312,-8.410255432128906,88.54424285888672,-0.46555557250976565,0.698,0.3385714285714286,0.008941396077473959,-4.174681323120119,0.5712720155715942,37.96847915649414,0.001591152615017361,-0.1328277587890625
7368,-0.03592909135470919,0.25898443222045897,85.455078125,84.39126586914062,-7.9806365966796875,88.27828979492188,-0.46555557250976565,0.6953333333333334,0.3360714285714286,0.008971913655598959,-4.734966891357423,0.6701459884643555,39.28683090209961,0.011820136176215277,-0.12509918212890625
7369,-0.020304091354709185,0.239062557220459,85.18913269042969,84.02302551269531,-7.878349304199219,88.78973388671875,-0.46555557250976565,0.6916666666666667,0.335,0.01098598904079861,-4.559191363403322,-0.08788933093261875,40.34151077270508,0.012956746419270833,-0.12964536878797744
7370,0.0031334086452908137,0.239062557220459,85.96653747558594,84.75950622558594,-7.9192657470703125,88.50332641601562,-0.46555557250976565,0.688,0.3342857142857143,0.012420272827148438,-4.273554461547853,0.0,40.42940139770508,0.013411458333333333,-0.12691769070095485
7371,-0.008585341354709185,0.25898443222045897,85.53691101074219,84.43218231201172,-7.939720153808594,88.46240997314453,-0.46555557250976565,0.6836666666666666,0.3339285714285714,0.01107754177517361,-4.185667651245119,-0.4614130430908219,40.42940139770508,0.01227476331922743,-0.1266903347439236
7372,-0.008585341354709185,0.2789063262939453,84.63676452636719,83.87982177734375,-7.9192657470703125,88.564697265625,-0.46555557250976565,0.679,0.33321428571428574,0.010345162285698786,-4.493275302001955,-0.7909933500976578,40.42940139770508,0.008410474989149305,-0.12759958902994792
7373,0.022664658645290815,0.2789063262939453,84.80043029785156,84.53446960449219,-7.939720153808594,88.564697265625,-0.46555557250976565,0.6756666666666666,0.33321428571428574,0.012481307983398438,-4.734966891357423,-0.5822588377685562,40.42940139770508,0.0029551188151041665,-0.12782686021592882
7374,0.05000840864529081,0.2789063262939453,85.78240966796875,86.47798156738281,-7.939720153808594,88.42149353027344,-0.46555557250976565,0.672,0.33285714285714285,0.015014224582248263,-4.669050829956056,0.19774800539016724,40.42940139770508,-0.00772857666015625,-0.12623570760091146
7375,0.03438340864529081,0.2789063262939453,87.1121826171875,85.76194763183594,-7.878349304199219,88.33966064453125,-0.46555557250976565,0.668,0.33214285714285713,0.013183212280273438,-4.35045685107422,0.373524010181427,40.42940139770508,0.015002610948350694,-0.1246445549858941
7376,0.014852158645290815,0.2789063262939453,86.45751953125,85.29141998291016,-7.857891082763672,88.25782775878906,-0.46555557250976565,0.6626666666666666,0.33107142857142857,0.01119961208767361,-4.152708666870119,-0.6152159147949234,40.42940139770508,0.012956661648220485,-0.12350798712836372
7377,0.030477158645290815,0.2789063262939453,86.08927917480469,85.35279846191406,-7.796516418457031,88.05325317382812,-0.46555557250976565,0.6583333333333333,0.33035714285714285,0.01199306911892361,-4.053835528442384,-1.0436712675781266,40.42940139770508,0.008183119032118056,-0.12055299546983507
7378,0.03828965864529081,0.2789063262939453,86.04837036132812,85.25050354003906,-7.632850646972656,88.38057708740234,-0.46555557250976565,0.6536666666666666,0.3292857142857143,0.01165737575954861,-3.87805809313965,-1.2633902006835953,40.42940139770508,0.008865186903211806,-0.12237141927083334
7379,0.026570908645290815,0.3187500762939453,84.43218231201172,81.93630981445312,-7.837432861328125,88.76927947998047,-0.46555557250976565,0.6483333333333333,0.3289285714285714,0.009399159749348959,-3.92200340563965,-2.0763555937500016,40.42940139770508,0.02773191663953993,-0.12896347045898438
7380,0.030477158645290815,0.25898443222045897,84.0434799194336,85.35279846191406,-7.857891082763672,88.19645690917969,-0.46555557250976565,0.6446666666666667,0.3275,0.0075681474473741316,-4.273554461547853,-1.8566347532959,40.42940139770508,-0.014547983805338541,-0.12282608879937065
7381,-0.004679091354709186,0.2789063262939453,86.1097412109375,84.90271759033203,-7.694225311279297,88.1146240234375,-0.46555557250976565,0.6393333333333333,0.3271428571428571,0.0022277408175998266,-4.3834139281005875,-1.3512789183349625,40.42940139770508,0.013411373562282987,-0.12009832594129774
7382,-0.004679091354709186,0.2789063262939453,86.23248291015625,85.35279846191406,-7.612392425537109,87.95095825195312,-0.46555557250976565,0.6333333333333333,0.3267857142857143,0.0012511783175998264,-4.273554461547853,-1.0326849394531266,40.42940139770508,0.009774271647135417,-0.11737056308322483
7383,0.007039658645290814,0.239062557220459,86.39614868164062,86.5188980102539,-7.5919342041015625,87.43951416015625,-0.46555557250976565,0.629,0.3264285714285714,0.0011901431613498264,-4.36144317919922,-0.6371885710449234,40.42940139770508,-0.0013638814290364584,-0.11146053738064236
7384,0.007039658645290814,0.19921878814697266,87.95095825195312,89.38301849365234,-6.916820526123047,87.31675720214844,-0.46555557250976565,0.624,0.3264285714285714,0.000732421875,-4.042849200317384,0.5602860450744629,40.42940139770508,-0.015911780463324653,-0.10259530809190538
7385,-0.024210341354709185,0.25898443222045897,90.0785903930664,88.21691131591797,-6.712242126464844,87.13264465332031,-0.46555557250976565,0.6183333333333333,0.3271428571428571,-0.0012511783175998264,-3.7022825651855484,0.1867620050907135,40.42940139770508,0.020685323079427085,-0.09827651977539062
7386,-0.06327284135470919,0.25898443222045897,83.57295227050781,82.38638305664062,-6.691783905029297,87.21446990966797,-0.46555557250976565,0.6126666666666667,0.3275,-0.0061643388536241316,-3.570450442382814,-2.471850054809572,40.42940139770508,0.013184102376302083,-0.0989583757188585
7387,-0.016397841354709185,0.25898443222045897,84.16622924804688,84.47309875488281,-6.5894927978515625,87.25538635253906,-0.46555557250976565,0.609,0.3271428571428571,-0.0039061228434244793,-3.0211512022705094,-2.537766116210939,40.42940139770508,-0.003409661187065972,-0.09827643500434027
7388,-0.004679091354709186,0.25898443222045897,85.25050354003906,84.53446960449219,-6.732700347900391,88.1146240234375,-0.46555557250976565,0.605,0.32571428571428573,-0.005035230848524305,-2.0324102812500016,-1.8566347532959,40.42940139770508,0.0079559326171875,-0.10941471523708768
7389,-0.016397841354709185,0.29882820129394533,84.98455047607422,84.45263671875,-7.305522918701172,88.36012268066406,-0.46555557250976565,0.6006666666666667,0.3242857142857143,-0.007995351155598959,-1.9005781584472672,-1.4831110411376969,40.42940139770508,0.005910152859157986,-0.11850717332628039
7390,-0.024210341354709185,0.29882820129394533,86.68256378173828,85.70057678222656,-7.203235626220703,87.84866333007812,-0.46555557250976565,0.597,0.32142857142857145,-0.009826363457573786,-2.548752444335939,-1.2963491850585953,40.42940139770508,0.01091096666124132,-0.11168776618109809
7391,-0.028116591354709185,0.2789063262939453,84.22760009765625,81.79310607910156,-7.121402740478516,87.78729248046875,-0.46555557250976565,0.5936666666666667,0.32071428571428573,-0.01159634060329861,-2.6146685057373062,-1.7687460356445328,40.42940139770508,0.02704993353949653,-0.11009661356608073
7392,-0.028116591354709185,0.2789063262939453,82.550048828125,81.81356048583984,-7.121402740478516,87.58271789550781,-0.46555557250976565,0.5896666666666667,0.31892857142857145,-0.013244205050998263,-2.3510042601318375,-0.9557825499267594,40.42940139770508,0.008183203803168403,-0.10782356262207031
7393,-0.020304091354709185,0.3187500762939453,82.59095764160156,82.0999755859375,-6.9781951904296875,87.54179382324219,-0.46555557250976565,0.5853333333333334,0.3175,-0.013366275363498263,-2.2741018706054703,0.0,40.42940139770508,0.005455356174045139,-0.10577765570746528
7394,-0.0007728413547091861,0.3187500762939453,82.87738037109375,83.47065734863281,-6.957736968994141,87.33721923828125,-0.46555557250976565,0.5823333333333334,0.3157142857142857,-0.01110805935329861,-2.0104395323486344,0.35155200958251953,40.42940139770508,-0.006591966417100695,-0.10327729119194878
7395,-0.0007728413547091861,0.3187500762939453,85.68012237548828,84.57539367675781,-6.834991455078125,87.80775451660156,-0.46555557250976565,0.579,0.3142857142857143,-0.01046719021267361,-1.4721247130126969,1.2853620052337646,40.42940139770508,0.01227476331922743,-0.10714162190755208
7396,-0.020304091354709185,0.29882820129394533,85.18913269042969,83.96165466308594,-6.998653411865234,87.5213394165039,-0.46555557250976565,0.5756666666666667,0.3125,-0.011870956420898438,-1.4721247130126969,1.4281799793243408,40.42940139770508,0.013638644748263888,-0.10577769809299045
7397,-0.03202284135470919,0.3187500762939453,84.30943298339844,83.57295227050781,-7.019111633300781,87.33721923828125,-0.46555557250976565,0.571,0.3107142857142857,-0.012450790405273438,-1.7467752867431656,1.2084600925445557,42.89031982421875,0.008183119032118056,-0.10395923190646701
7398,-0.024210341354709185,0.29882820129394533,83.98210144042969,83.26608276367188,-6.5894927978515625,87.62362670898438,-0.46555557250976565,0.5686666666666667,0.30892857142857144,-0.01061977810329861,-1.6369139128417984,1.1095860004425049,42.97821044921875,0.007955763075086806,-0.10236799452039931
7399,-0.020304091354709185,0.239062557220459,84.84133911132812,86.5188980102539,-6.875904083251953,87.91004180908203,-0.46555557250976565,0.5656666666666667,0.3092857142857143,-0.008636220296223959,-1.2743765288085953,2.680583953857422,42.97821044921875,-0.01863954332139757,-0.10873273213704428
7400,-0.08671034135470919,0.17929691314697266,87.05081176757812,83.552490234375,-6.937278747558594,87.19401550292969,-0.46555557250976565,0.5613333333333334,0.30857142857142855,-0.01156582302517361,-1.9335371428222672,2.4718501567840576,42.97821044921875,0.0388702392578125,-0.10145882500542534
7401,-0.06717909135470919,0.239062557220459,83.02058410644531,81.85447692871094,-5.996212005615234,86.19157409667969,-0.46555557250976565,0.5573333333333333,0.30892857142857144,-0.009765328301323786,-2.263117449829103,0.516342043876648,42.97821044921875,0.012956746419270833,-0.07986429002549914
7402,-0.024210341354709185,0.2789063262939453,79.70639038085938,81.28164672851562,-5.382472991943359,86.86668395996094,-0.46555557250976565,0.5516666666666666,0.30964285714285716,-0.0067746904161241316,-1.8676210814209,-0.5932451658935562,49.48207092285156,-0.017502848307291666,-0.08054618835449219
7403,-0.0007728413547091861,0.29882820129394533,83.38882446289062,83.38882446289062,-5.934837341308594,87.17355346679688,-0.46555557250976565,0.548,0.31035714285714283,-0.004028193155924479,-1.1974741392822281,1.9005780220031738,50.36096954345703,0.0,-0.09009323120117188
7404,-0.020304091354709185,0.29882820129394533,84.57539367675781,84.77996826171875,-6.159877777099609,88.36012268066406,-0.46555557250976565,0.543,0.31357142857142856,-0.004302851359049479,-0.801977770874025,2.9332621097564697,48.427391052246094,-0.0022730509440104167,-0.1057777828640408
7405,-0.024210341354709185,0.3187500762939453,84.43218231201172,83.67523193359375,-6.855449676513672,87.86912536621094,-0.46555557250976565,0.5396666666666666,0.31464285714285717,-0.0025023566351996527,-1.4391657286376969,2.658612012863159,45.26335144042969,0.008410559760199653,-0.10805083380805122
7406,-0.016397841354709185,0.29882820129394533,84.43218231201172,90.30363464355469,-6.855449676513672,87.6031723022461,-0.46555557250976565,0.5366666666666666,0.31464285714285717,0.000579833984375,-2.197201388427736,3.548478126525879,45.17546081542969,-0.06523835923936631,-0.1050957997639974
7407,-0.04764784135470919,0.239062557220459,91.49018859863281,83.79798889160156,-6.814533233642578,87.74638366699219,-0.46555557250976565,0.5333333333333333,0.31464285714285717,0.0012206607394748264,-2.164242404052736,2.515794038772583,45.17546081542969,0.08546888563368056,-0.10623241000705295
7408,-0.03983534135470919,0.239062557220459,84.47309875488281,83.71615600585938,-6.794075012207031,87.6031723022461,-0.46555557250976565,0.5296666666666666,0.3142857142857143,0.0027464972601996527,-1.9664942198486344,-0.3076082640380875,45.17546081542969,0.008410474989149305,-0.10441385904947917
7409,0.010945908645290815,0.29882820129394533,84.28897857666016,85.1072998046875,-6.773616790771484,87.39859008789062,-0.46555557250976565,0.526,0.31357142857142856,0.0068357255723741316,-2.186215060302736,-1.0876146727294937,45.17546081542969,-0.009092458089192708,-0.10191340976291233
7410,0.026570908645290815,0.2789063262939453,86.21202850341797,85.31187438964844,-6.67132568359375,87.31675720214844,-0.46555557250976565,0.5226666666666666,0.31357142857142856,0.0074155595567491316,-2.230158465454103,-0.5273291044921891,45.17546081542969,0.010001712375217013,-0.09986758761935764
7411,0.014852158645290815,0.2789063262939453,85.96653747558594,85.5164566040039,-6.691783905029297,87.562255859375,-0.46555557250976565,0.5186666666666667,0.31357142857142856,0.005554029676649305,-2.1202989989013687,-0.3405672484130875,45.17546081542969,0.00500089857313368,-0.10282266404893663
7412,-0.008585341354709185,0.25898443222045897,86.39614868164062,84.37080383300781,-6.712242126464844,87.39859008789062,-0.46555557250976565,0.5156666666666667,0.31392857142857145,0.0025939093695746527,-2.208185809204103,-0.3295809202880875,45.17546081542969,0.022503831651475695,-0.1012314690483941
7413,-0.016397841354709185,0.239062557220459,87.62362670898438,85.70057678222656,-6.712242126464844,87.0098876953125,-0.46555557250976565,0.512,0.31392857142857145,0.0015563540988498264,-2.3619905882568375,-0.3845106535644547,45.17546081542969,0.02136722140842014,-0.09691255357530382
7414,0.007039658645290814,0.25898443222045897,85.90515899658203,84.554931640625,-6.4462890625,87.33721923828125,-0.46555557250976565,0.5083333333333333,0.3142857142857143,0.0035094367133246527,-2.1312853270263687,-1.5709978514404312,45.17546081542969,0.015002526177300347,-0.09759453667534722
7415,0.04219590864529081,0.25898443222045897,86.0074462890625,86.0074462890625,-6.630409240722656,87.45996856689453,-0.46555557250976565,0.505,0.3142857142857143,0.004913202921549479,-1.8236757689209,-1.6918455534667984,45.17546081542969,0.0,-0.1010041978624132
7416,0.05391465864529081,0.25898443222045897,84.98455047607422,83.69569396972656,-6.630409240722656,87.43951416015625,-0.46555557250976565,0.502,0.31464285714285717,0.004546991984049479,-2.0214239531250016,-2.0433966093750016,45.17546081542969,0.014320627848307291,-0.10077692667643229
7417,0.05782090864529081,0.25898443222045897,83.24562072753906,78.35615539550781,-6.67132568359375,87.43951416015625,-0.46555557250976565,0.499,0.3142857142857143,0.0029296027289496527,-2.2741018706054703,-2.6366411619873062,45.17546081542969,0.054327392578125,-0.10123155381944444
7418,0.08125840864529081,0.239062557220459,80.83157348632812,84.77996826171875,-6.630409240722656,87.99187469482422,-0.46555557250976565,0.49633333333333335,0.315,0.0021361880832248266,-2.1093126707763687,-0.3185945921630875,45.17546081542969,-0.04387105305989583,-0.10691426595052084
7419,0.05782090864529081,0.239062557220459,85.5164566040039,85.5164566040039,-6.875904083251953,87.1121826171875,-0.46555557250976565,0.49233333333333335,0.315,0.00067138671875,-2.7135435515136734,1.3622640371322632,45.17546081542969,0.0,-0.09986763000488282
7420,0.03828965864529081,0.239062557220459,86.0688247680664,83.5115737915039,-6.466747283935547,86.92805480957031,-0.46555557250976565,0.489,0.31535714285714284,-0.0,-2.6695982390136734,1.6588860750198364,45.17546081542969,0.028413899739583335,-0.09327557881673178
7421,0.03828965864529081,0.239062557220459,87.0098876953125,86.17111206054688,-6.405372619628906,86.80531311035156,-0.46555557250976565,0.4846666666666667,0.3157142857142857,0.0013427310519748264,-1.8566347532959,2.0873401165008545,45.17546081542969,0.009319729275173612,-0.09122984144422742
7422,0.030477158645290815,0.219140682220459,83.16378784179688,81.91584777832031,-6.425830841064453,87.64408874511719,-0.46555557250976565,0.48133333333333334,0.3157142857142857,0.0018615298800998264,-0.9887415343017594,0.1867620050907135,45.17546081542969,0.013866000705295138,-0.10077688429090711
7423,0.05000840864529081,0.239062557220459,82.28408813476562,82.36592102050781,-6.5894927978515625,87.27584838867188,-0.46555557250976565,0.478,0.31607142857142856,0.0032652960883246527,-1.1864878111572281,-0.13183273608398594,45.17546081542969,-0.0009092542860243056,-0.09850379096137153
7424,0.04219590864529081,0.239062557220459,86.82576751708984,83.90027618408203,-6.528118133544922,87.0712661743164,-0.46555557250976565,0.47433333333333333,0.31535714285714284,0.0023192935519748266,-1.8786074095459,1.06564199924469,45.17546081542969,0.03250545925564236,-0.09554871453179253
7425,0.010945908645290815,0.219140682220459,83.32745361328125,82.91828918457031,-6.466747283935547,86.94851684570312,-0.46555557250976565,0.4713333333333333,0.31535714285714284,0.000579833984375,-1.7028299742431656,1.6369140148162842,45.17546081542969,0.004546271430121528,-0.09350293477376302
7426,-0.0007728413547091861,0.219140682220459,87.09172058105469,87.03034973144531,-6.507663726806641,87.13264465332031,-0.46555557250976565,0.468,0.315,0.000946044921875,-1.4391657286376969,2.3839621543884277,45.17546081542969,0.0006818983289930556,-0.09600342644585504
7427,-0.020304091354709185,0.219140682220459,87.54179382324219,83.73661041259766,-6.4462890625,86.98943328857422,-0.46555557250976565,0.464,0.315,0.0013732486300998264,-1.2743765288085953,1.9335360527038574,45.17546081542969,0.042279815673828124,-0.0937302483452691
7428,-0.012491591354709185,0.239062557220459,84.67768096923828,83.69569396972656,-6.425830841064453,87.1121826171875,-0.46555557250976565,0.46066666666666667,0.3142857142857143,0.0028075324164496527,-1.164517062255861,0.7580339908599854,45.17546081542969,0.01091096666124132,-0.09486681620279948
7429,0.0031334086452908137,0.239062557220459,86.04837036132812,85.23004150390625,-6.466747283935547,87.23492431640625,-0.46555557250976565,0.45766666666666667,0.31392857142857145,0.004760615030924479,-1.0436712675781266,1.3622640371322632,45.17546081542969,0.009092542860243056,-0.09668524000379775
7430,-0.03592909135470919,0.239062557220459,84.82088470458984,83.73661041259766,-6.487205505371094,88.1146240234375,-0.46555557250976565,0.45466666666666666,0.31357142857142856,0.0023498111300998266,-1.0326849394531266,1.4391660690307617,45.17546081542969,0.012047492133246528,-0.10668699476453992
7431,-0.03983534135470919,0.2789063262939453,84.35034942626953,83.92073059082031,-6.691783905029297,87.86912536621094,-0.46555557250976565,0.4513333333333333,0.3125,0.0020751529269748266,-1.3622652464599625,1.1095860004425049,45.17546081542969,0.004773542616102431,-0.10623232523600261
7432,-0.012491591354709185,0.25898443222045897,85.06637573242188,87.78729248046875,-6.691783905029297,87.31675720214844,-0.46555557250976565,0.448,0.31214285714285717,0.005737135145399305,-2.1312853270263687,1.0986000299453735,45.17546081542969,-0.030232408311631945,-0.10009490119086371
7433,0.03828965864529081,0.219140682220459,88.05325317382812,86.82576751708984,-6.609951019287109,87.31675720214844,-0.46555557250976565,0.44633333333333336,0.3125,0.01135219997829861,-2.2741018706054703,1.0546560287475586,45.17546081542969,0.013638729519314236,-0.09918564690483941
7434,0.04219590864529081,0.25898443222045897,87.03034973144531,85.98699188232422,-6.609951019287109,87.48042297363281,-0.46555557250976565,0.443,0.31285714285714283,0.013122177124023438,-2.241144793579103,1.0876140594482422,45.17546081542969,0.011592864990234375,-0.10100415547688803
7435,0.022664658645290815,0.219140682220459,87.70545959472656,83.5115737915039,-6.5894927978515625,87.31675720214844,-0.46555557250976565,0.44066666666666665,0.31285714285714283,0.01144375271267361,-2.493822711059572,0.516342043876648,45.17546081542969,0.046598731146918405,-0.09895833333333333
7436,0.010945908645290815,0.219140682220459,83.94119262695312,86.90760040283203,-6.609951019287109,87.0712661743164,-0.46555557250976565,0.437,0.31357142857142856,0.010711373223198786,-2.7355143004150406,0.010986000299453735,45.17546081542969,-0.03296008639865451,-0.09645796881781685
7437,0.007039658645290814,0.239062557220459,87.05081176757812,84.84133911132812,-5.9757537841796875,86.80531311035156,-0.46555557250976565,0.433,0.31392857142857145,0.009917916191948786,-2.3510042601318375,-0.3954969816894547,45.17546081542969,0.024549696180555556,-0.086456298828125
7438,0.022664658645290815,0.219140682220459,85.5982894897461,85.33233642578125,-6.303081512451172,87.19401550292969,-0.46555557250976565,0.429,0.315,0.010497750176323786,-1.8456484251709,-0.7580343657226578,45.17546081542969,0.0029550340440538192,-0.09441218905978732
7439,0.030477158645290815,0.239062557220459,85.86424255371094,85.1072998046875,-6.323539733886719,87.27584838867188,-0.46555557250976565,0.4256666666666667,0.315,0.010497750176323786,-1.7687460356445328,-1.3402925902099625,45.17546081542969,0.008410474989149305,-0.0955487569173177
7440,0.03828965864529081,0.239062557220459,85.76194763183594,83.53202819824219,-6.241706848144531,87.15309143066406,-0.46555557250976565,0.4216666666666667,0.31464285714285717,0.009856881035698786,-1.538040774414064,-1.9225508146972672,45.17546081542969,0.024776882595486112,-0.09327553643120659
7441,0.04219590864529081,0.219140682220459,83.08195495605469,82.44775390625,-6.466747283935547,87.562255859375,-0.46555557250976565,0.4176666666666667,0.3142857142857143,0.008117421468098959,-1.164517062255861,-1.7028299742431656,45.17546081542969,0.007046678331163195,-0.10032225714789497
7442,0.03828965864529081,0.239062557220459,83.06149291992188,84.98455047607422,-6.507663726806641,87.15309143066406,-0.46555557250976565,0.414,0.31392857142857145,0.006591627332899305,-1.2853628569335953,-0.3845106535644547,45.17546081542969,-0.021367306179470486,-0.09623061286078559
7443,0.022664658645290815,0.219140682220459,85.98699188232422,84.90271759033203,-6.4462890625,87.27584838867188,-0.46555557250976565,0.41,0.31357142857142856,0.005279371473524305,-1.538040774414064,0.9008520245552063,45.17546081542969,0.012047492133246528,-0.09691263834635416
7444,-0.0007728413547091861,0.219140682220459,86.74394226074219,86.13019561767578,-6.466747283935547,86.98943328857422,-0.46555557250976565,0.406,0.31357142857142856,0.004058710734049479,-1.6039568358154312,1.2304320335388184,45.17546081542969,0.006819407145182292,-0.09395756191677518
7445,-0.004679091354709186,0.219140682220459,88.17599487304688,86.47798156738281,-6.405372619628906,87.21446990966797,-0.46555557250976565,0.4023333333333333,0.31357142857142856,0.004577509562174479,-1.549027102539064,0.6701459884643555,45.17546081542969,0.01886681450737847,-0.0957760281032986
7446,-0.004679091354709186,0.219140682220459,85.33233642578125,84.20714569091797,-6.4462890625,87.1121826171875,-0.46555557250976565,0.398,0.31392857142857145,0.004363886515299479,-1.527054446289064,-0.7690206938476578,45.17546081542969,0.01250211927625868,-0.09509412977430555
7447,0.007039658645290814,0.219140682220459,84.28897857666016,83.1024169921875,-6.384914398193359,87.33721923828125,-0.46555557250976565,0.394,0.31357142857142856,0.004272333780924479,-1.4940973692626969,-1.2743765288085953,45.17546081542969,0.013184017605251737,-0.09691259596082899
7448,0.026570908645290815,0.19921878814697266,85.86424255371094,84.5958480834961,-6.425830841064453,87.33721923828125,-0.46555557250976565,0.39066666666666666,0.31357142857142856,0.004821650187174479,-1.3622652464599625,-1.1864878111572281,45.17546081542969,0.014093271891276042,-0.09736722310384115
7449,0.03438340864529081,0.219140682220459,83.61386108398438,83.12287139892578,-6.425830841064453,87.27584838867188,-0.46555557250976565,0.38666666666666666,0.31357142857142856,0.004089228312174479,-1.4501520567626969,-1.1864878111572281,45.17546081542969,0.005455440945095486,-0.09668532477484809
7450,0.03438340864529081,0.219140682220459,85.39370727539062,84.37080383300781,-6.4462890625,87.43951416015625,-0.46555557250976565,0.382,0.31357142857142856,0.0033263312445746527,-1.7028299742431656,-0.2746511870117203,45.17546081542969,0.011365593804253473,-0.09873114691840278
7451,0.030477158645290815,0.219140682220459,85.37325286865234,85.5164566040039,-6.4462890625,87.33721923828125,-0.46555557250976565,0.378,0.3132142857142857,0.0027770148383246527,-1.9555078917236344,0.5602860450744629,45.17546081542969,-0.001591152615017361,-0.09759453667534722
7452,-0.004679091354709186,0.239062557220459,86.0688247680664,85.27096557617188,-6.405372619628906,87.91004180908203,-0.46555557250976565,0.374,0.31392857142857145,0.000213623046875,-2.164242404052736,0.45042601227760315,45.17546081542969,0.008865102132161459,-0.10350460476345485
7453,-0.028116591354709185,0.239062557220459,86.27340698242188,85.16867065429688,-6.650867462158203,87.43951416015625,-0.46555557250976565,0.36966666666666664,0.3142857142857143,-0.0015868716769748264,-2.537766116210939,-0.05493034655761875,45.17546081542969,0.012274848090277778,-0.10100424024793837
7454,-0.028116591354709185,0.239062557220459,85.57783508300781,84.5140151977539,-6.569034576416016,87.29630279541016,-0.46555557250976565,0.365,0.31464285714285717,-0.0021056281195746527,-2.878332751342775,-1.0216986113281266,45.17546081542969,0.011820220947265625,-0.09850374857584636
7455,-0.004679091354709186,0.239062557220459,85.06637573242188,84.30943298339844,-6.528118133544922,87.41905212402344,-0.46555557250976565,0.361,0.31535714285714284,-0.0013427310519748264,-2.845373766967775,-1.6588865690917984,45.17546081542969,0.008410474989149305,-0.09941300286187066
7456,-0.0007728413547091861,0.219140682220459,84.69813537597656,83.96165466308594,-6.528118133544922,87.33721923828125,-0.46555557250976565,0.357,0.31607142857142856,-0.0025328742133246527,-2.581711428710939,-1.4831110411376969,45.17546081542969,0.008183119032118056,-0.09850374857584636
7457,-0.024210341354709185,0.219140682220459,84.0025634765625,82.48867797851562,-6.548576354980469,87.31675720214844,-0.46555557250976565,0.352,0.3167857142857143,-0.005920240614149305,-2.537766116210939,-1.0546575957031266,45.17546081542969,0.01682094997829861,-0.09850370619032119
7458,-0.012491591354709185,0.219140682220459,83.12287139892578,82.69325256347656,-6.528118133544922,87.15309143066406,-0.46555557250976565,0.3476666666666667,0.3175,-0.005767652723524305,-2.6805845671386734,-0.4504267149658219,45.17546081542969,0.004773542616102431,-0.09645788404676649
7459,-0.004679091354709186,0.219140682220459,83.28652954101562,82.69325256347656,-6.466747283935547,87.03034973144531,-0.46555557250976565,0.344,0.3182142857142857,-0.005676099989149305,-2.7245279722900406,0.3405660092830658,45.17546081542969,0.006591966417100695,-0.09441218905978732
7460,-0.028116591354709185,0.219140682220459,83.38882446289062,82.71371459960938,-6.405372619628906,87.05081176757812,-0.46555557250976565,0.3396666666666667,0.31892857142857145,-0.0072934892442491316,-2.4059339934082047,0.8459219932556152,45.17546081542969,0.007501220703125,-0.09395760430230035
7461,-0.03202284135470919,0.25898443222045897,83.32745361328125,82.67279052734375,-6.487205505371094,87.27584838867188,-0.46555557250976565,0.33566666666666667,0.3196428571428571,-0.0075071122911241316,-2.175228732177736,1.0986000299453735,45.17546081542969,0.007274034288194444,-0.09736726548936632
7462,-0.020304091354709185,0.29882820129394533,83.38882446289062,86.35523986816406,-6.4462890625,87.58271789550781,-0.46555557250976565,0.3323333333333333,0.3196428571428571,-0.005523512098524305,-1.9994532042236344,1.8456480503082275,45.17546081542969,-0.03296017116970486,-0.10032229953342015
7463,-0.024210341354709185,0.2789063262939453,88.50332641601562,83.0410385131836,-6.528118133544922,88.0737075805664,-0.46555557250976565,0.32966666666666666,0.31892857142857145,-0.004180781046549479,-1.9005781584472672,1.494096040725708,45.17546081542969,0.060692087809244795,-0.10668695237901475
7464,-0.008585341354709185,0.29882820129394533,84.26852416992188,84.26852416992188,-6.7531585693359375,88.17599487304688,-0.46555557250976565,0.3273333333333333,0.31785714285714284,-0.0021361456976996527,-2.164242404052736,0.2197200059890747,45.17546081542969,0.0,-0.1103239271375868
7465,0.010945908645290815,0.2789063262939453,82.30455017089844,79.41996765136719,-6.691783905029297,87.66455078125,-0.46555557250976565,0.3253333333333333,0.3167857142857143,-0.0005797915988498264,-2.197201388427736,-1.3512789183349625,43.505550384521484,0.03205091688368056,-0.10395927429199218
7466,0.022664658645290815,0.2789063262939453,84.5140151977539,84.57539367675781,-6.67132568359375,87.80775451660156,-0.46555557250976565,0.32233333333333336,0.31535714285714284,-0.0004882388644748264,-1.9994532042236344,0.7800060510635376,42.89031982421875,-0.0006819831000434028,-0.10532311333550347
7467,0.010945908645290815,0.25898443222045897,86.559814453125,88.25782775878906,-6.732700347900391,87.74638366699219,-0.46555557250976565,0.32033333333333336,0.3142857142857143,-0.0007628970675998264,-1.8126913481445328,2.8673460483551025,42.71453857421875,-0.01886681450737847,-0.10532315572102864
7468,-0.016397841354709185,0.25898443222045897,89.0761489868164,88.91248321533203,-6.937278747558594,88.0123291015625,-0.46555557250976565,0.31633333333333336,0.31285714285714283,-0.0006713443332248264,-2.186215060302736,2.988192081451416,42.71453857421875,0.001818508572048611,-0.1105511983235677
7469,-0.024210341354709185,0.25898443222045897,83.61386108398438,84.5140151977539,-6.7531585693359375,87.19401550292969,-0.46555557250976565,0.31233333333333335,0.3117857142857143,0.000274658203125,-2.790444033691408,0.7800060510635376,42.71453857421875,-0.010001712375217013,-0.09941304524739583
7470,-0.012491591354709185,0.2789063262939453,87.70545959472656,85.96653747558594,-6.425830841064453,87.19401550292969,-0.46555557250976565,0.309,0.31142857142857144,0.0018920474582248264,-2.6586119108886734,0.6042300462722778,42.71453857421875,0.01932135687934028,-0.09577607048882378
7471,-0.020304091354709185,0.29882820129394533,87.86912536621094,84.80043029785156,-6.548576354980469,87.50088500976562,-0.46555557250976565,0.30533333333333335,0.31107142857142855,0.0009765625,-2.252131121704103,0.010986000299453735,42.71453857421875,0.034096611870659724,-0.10054957071940104
7472,-0.020304091354709185,0.2789063262939453,85.455078125,85.31187438964844,-6.5894927978515625,87.58271789550781,-0.46555557250976565,0.3016666666666667,0.31035714285714283,0.000946044921875,-2.0543829375000016,-0.6811319761962906,42.71453857421875,0.001591152615017361,-0.1019134521484375
7473,-0.004679091354709186,0.25898443222045897,85.0459213256836,87.58271789550781,-6.609951019287109,87.97142028808594,-0.46555557250976565,0.2986666666666667,0.31,0.0015868716769748264,-2.0653692656250016,-0.3954969816894547,42.71453857421875,-0.02818662855360243,-0.10645968119303385
7474,-0.024210341354709185,0.239062557220459,84.88226318359375,86.25294494628906,-6.650867462158203,87.43951416015625,-0.46555557250976565,0.295,0.3092857142857143,-0.000244140625,-2.6695982390136734,0.23070600628852844,42.71453857421875,-0.01522979736328125,-0.10100424024793837
7475,-0.04374159135470919,0.239062557220459,84.67768096923828,82.97966003417969,-6.609951019287109,87.72592163085938,-0.46555557250976565,0.2916666666666667,0.3092857142857143,-0.0023802863226996527,-2.834389346191408,-0.3405672484130875,42.89031982421875,0.01886689927842882,-0.10373191833496094
7476,-0.03592909135470919,0.25898443222045897,85.20958709716797,83.96165466308594,-6.650867462158203,87.29630279541016,-0.46555557250976565,0.287,0.30964285714285716,-0.0025328742133246527,-3.207913058349611,0.08788800239562988,43.417659759521484,0.013865915934244792,-0.09941300286187066
7477,-0.03983534135470919,0.2789063262939453,85.06637573242188,83.67523193359375,-6.548576354980469,87.17355346679688,-0.46555557250976565,0.283,0.31035714285714283,-0.0027770148383246527,-3.1419969969482437,0.7580339908599854,43.417659759521484,0.0154571533203125,-0.09691255357530382
7478,-0.05936659135470919,0.25898443222045897,84.77996826171875,82.87738037109375,-6.5894927978515625,87.19401550292969,-0.46555557250976565,0.278,0.31107142857142855,-0.004241816202799479,-2.878332751342775,0.24169200658798218,43.505550384521484,0.02113986545138889,-0.09759453667534722
7479,-0.05546034135470919,0.2789063262939453,83.34790802001953,87.80775451660156,-6.5894927978515625,87.50088500976562,-0.46555557250976565,0.2743333333333333,0.31142857142857144,-0.0038756052652994793,-2.4388929777832047,0.8788800239562988,43.505550384521484,-0.04955384996202257,-0.1010041978624132
7480,-0.06717909135470919,0.239062557220459,87.95095825195312,86.58027648925781,-6.569034576416016,87.37813568115234,-0.46555557250976565,0.26966666666666667,0.31214285714285717,-0.0035093943277994793,-2.471850054809572,1.307334065437317,43.505550384521484,0.01522979736328125,-0.09941300286187066
7481,-0.05546034135470919,0.239062557220459,85.49600219726562,84.90271759033203,-6.5894927978515625,87.43951416015625,-0.46555557250976565,0.2653333333333333,0.3125,-0.0019530402289496527,-2.6146685057373062,-0.03295769030761875,43.505550384521484,0.0065920511881510414,-0.10032229953342015
7482,-0.03592909135470919,0.2789063262939453,85.1072998046875,82.59095764160156,-6.5894927978515625,87.62362670898438,-0.46555557250976565,0.2613333333333333,0.31285714285714283,-0.0010375552707248264,-2.7574869566650406,-1.3512789183349625,43.505550384521484,0.027959357367621528,-0.10236799452039931
7483,-0.016397841354709185,0.239062557220459,83.26608276367188,82.59095764160156,-6.569034576416016,87.31675720214844,-0.46555557250976565,0.25833333333333336,0.3132142857142857,-0.0004882388644748264,-2.790444033691408,-1.6149431639404312,43.505550384521484,0.007501390245225694,-0.09873101976182726
7484,-0.020304091354709185,0.219140682220459,82.89783477783203,81.05661010742188,-6.569034576416016,86.98943328857422,-0.46555557250976565,0.25433333333333336,0.31357142857142856,-0.0020140753851996527,-2.7355143004150406,-1.7028299742431656,43.505550384521484,0.02045805189344618,-0.09509408738878038
7485,-0.03202284135470919,0.219140682220459,81.75218200683594,81.34302520751953,-6.405372619628906,87.31675720214844,-0.46555557250976565,0.251,0.3142857142857143,-0.004333368937174479,-2.3949495726318375,-0.4174677305908219,43.505550384521484,0.00454618665907118,-0.09691255357530382
7486,-0.04764784135470919,0.19921878814697266,83.83889770507812,87.25538635253906,-6.548576354980469,87.72592163085938,-0.46555557250976565,0.24666666666666667,0.31535714285714284,-0.005645582411024305,-2.3290335112304703,1.9445220232009888,43.505550384521484,-0.037960984971788195,-0.10304997762044271
7487,-0.06327284135470919,0.25898443222045897,84.53446960449219,81.62944030761719,-6.650867462158203,86.86668395996094,-0.46555557250976565,0.24133333333333334,0.3157142857142857,-0.0066831376817491316,-3.3617159300537125,1.1095860004425049,43.505550384521484,0.03227810329861111,-0.09463946024576823
7488,-0.0007728413547091861,0.219140682220459,87.70545959472656,87.5213394165039,-6.507663726806641,87.72592163085938,-0.46555557250976565,0.24066666666666667,0.3171428571428571,0.000579833984375,-3.4715773039550797,1.1205720901489258,43.505550384521484,0.002045779758029514,-0.10259539286295573
7489,0.030477158645290815,0.239062557220459,88.31919860839844,83.30699157714844,-6.548576354980469,87.1121826171875,-0.46555557250976565,0.237,0.31785714285714284,0.004363886515299479,-3.4605909758300797,0.5932440161705017,43.505550384521484,0.05569118923611111,-0.09623065524631076
7490,-0.020304091354709185,0.219140682220459,85.33233642578125,79.33814239501953,-6.487205505371094,87.09172058105469,-0.46555557250976565,0.234,0.3182142857142857,-3.0517578125e-05,-2.5926958494873062,-0.08788933093261875,43.505550384521484,0.06660215589735242,-0.09532140096028646
7491,-0.03202284135470919,0.17929691314697266,79.46089172363281,84.45263671875,-6.507663726806641,87.41905212402344,-0.46555557250976565,0.23,0.31892857142857145,-0.0015258365207248264,-1.8676210814209,0.35155200958251953,43.505550384521484,-0.05546383327907986,-0.09918573167588976
7492,-0.008585341354709185,0.17929691314697266,85.57783508300781,86.25294494628906,-6.569034576416016,87.72592163085938,-0.46555557250976565,0.22766666666666666,0.31857142857142856,0.000579833984375,-1.6918455534667984,1.4391660690307617,43.505550384521484,-0.007501220703125,-0.10327729119194878
7493,-0.03592909135470919,0.239062557220459,88.0123291015625,85.31187438964844,-6.630409240722656,87.64408874511719,-0.46555557250976565,0.22233333333333333,0.31892857142857145,-0.0006103091769748264,-2.4608656340332047,1.7577600479125977,43.505550384521484,0.030005052354600693,-0.10304997762044271
7494,-0.028116591354709185,0.19921878814697266,85.53691101074219,88.29874420166016,-6.569034576416016,87.72592163085938,-0.46555557250976565,0.22033333333333333,0.31892857142857145,0.0014037662082248264,-3.0321375303955094,1.450152039527893,43.505550384521484,-0.030687035454644098,-0.10327729119194878
7495,-0.020304091354709185,0.17929691314697266,88.50332641601562,84.63676452636719,-6.609951019287109,87.82821655273438,-0.46555557250976565,0.217,0.3192857142857143,0.0032652960883246527,-2.9772058897705094,-0.2856375151367203,43.505550384521484,0.042961798773871525,-0.1048685285780165
7496,-0.03202284135470919,0.17929691314697266,85.96653747558594,84.14576721191406,-6.5894927978515625,87.35768127441406,-0.46555557250976565,0.21333333333333335,0.32,0.0013122134738498264,-2.801430361816408,-0.8898664885253922,43.505550384521484,0.020230780707465278,-0.09941304524739583
7497,-0.05546034135470919,0.239062557220459,83.75706481933594,80.15646362304688,-6.5894927978515625,87.23492431640625,-0.46555557250976565,0.20933333333333334,0.32035714285714284,-0.0025939093695746527,-2.7684732847900406,-2.0983263426513687,43.505550384521484,0.04000667995876736,-0.09804907904730903
7498,-0.04764784135470919,0.219140682220459,82.9592056274414,84.35034942626953,-6.5894927978515625,87.66455078125,-0.46555557250976565,0.20633333333333334,0.32107142857142856,-0.0034788767496744793,-2.515795367309572,-0.6921183043212906,43.505550384521484,-0.0154571533203125,-0.1028227064344618
7499,-0.05155409135470919,0.19921878814697266,85.61874389648438,85.49600219726562,-6.630409240722656,87.84866333007812,-0.46555557250976565,0.20266666666666666,0.32107142857142856,-0.0039061228434244793,-2.5926958494873062,0.790992021560669,43.505550384521484,0.0013637966579861111,-0.10532302856445312
7500,-0.05546034135470919,0.15937503814697265,86.1097412109375,84.67768096923828,-6.630409240722656,87.84866333007812,-0.46555557250976565,0.19966666666666666,0.32142857142857145,-0.0024413214789496527,-2.6036821776123062,0.10986000299453735,43.505550384521484,0.015911780463324653,-0.10532302856445312
7501,-0.008585341354709185,0.17929691314697266,84.75950622558594,83.77752685546875,-6.630409240722656,87.37813568115234,-0.46555557250976565,0.19566666666666666,0.3217857142857143,-0.000244140625,-3.196926730224611,-0.14281906420898594,43.505550384521484,0.010910881890190972,-0.10009494357638889
7502,-0.004679091354709186,0.2789063262939453,85.74149322509766,85.37325286865234,-6.569034576416016,87.80775451660156,-0.46555557250976565,0.19166666666666668,0.3221428571428571,0.000213623046875,-3.284815447875978,0.8678940534591675,43.505550384521484,0.004091559516059028,-0.1041865454779731
7503,-0.03592909135470919,0.25898443222045897,87.0712661743164,86.70301818847656,-6.630409240722656,87.54179382324219,-0.46555557250976565,0.18833333333333332,0.3217857142857143,-0.0021361456976996527,-2.845373766967775,1.7797319889068604,43.505550384521484,0.004091644287109375,-0.10191336737738715
7504,-0.09061659135470919,0.219140682220459,87.25538635253906,82.30455017089844,-6.67132568359375,87.5213394165039,-0.46555557250976565,0.185,0.3217857142857143,-0.004943678114149305,-2.0873400145263687,0.7031040191650391,43.505550384521484,0.05500929090711806,-0.1021407233344184
7505,-0.04764784135470919,0.239062557220459,83.14332580566406,82.14088439941406,-6.650867462158203,87.93049621582031,-0.46555557250976565,0.18333333333333332,0.3217857142857143,-0.0014342837863498264,-1.9774805479736344,-1.131558077880861,43.505550384521484,0.011138237847222222,-0.10645959642198351
7506,-0.020304091354709185,0.239062557220459,83.0001220703125,85.33233642578125,-6.630409240722656,87.72592163085938,-0.46555557250976565,0.18,0.3217857142857143,-0.000396728515625,-2.867346423217775,-0.17577614123535312,43.505550384521484,-0.025913492838541666,-0.10395923190646701
7507,-0.04374159135470919,0.239062557220459,85.80287170410156,86.78485107421875,-6.609951019287109,87.45996856689453,-0.46555557250976565,0.17766666666666667,0.32107142857142856,-0.0025023566351996527,-2.790444033691408,0.7580339908599854,43.505550384521484,-0.010910881890190972,-0.10077688429090711
7508,-0.06327284135470919,0.239062557220459,87.03034973144531,83.18424987792969,-6.5894927978515625,87.37813568115234,-0.46555557250976565,0.174,0.32071428571428573,-0.0037840525309244793,-2.0763555937500016,0.516342043876648,43.505550384521484,0.04273444281684028,-0.09964031643337673
7509,-0.07499159135470919,0.25898443222045897,83.08195495605469,86.25294494628906,-6.5894927978515625,87.78729248046875,-0.46555557250976565,0.17066666666666666,0.32,-0.004760572645399305,-1.560013430664064,0.5273280143737793,43.505550384521484,-0.035233222113715275,-0.10418650309244791
7510,-0.08671034135470919,0.239062557220459,84.82088470458984,85.61874389648438,-6.548576354980469,87.6031723022461,-0.46555557250976565,0.168,0.31857142857142856,-0.005370924207899305,-1.2414194517822281,0.6262019872665405,43.505550384521484,-0.008865102132161459,-0.10168609619140626
7511,-0.08280409135470919,0.25898443222045897,85.74149322509766,87.78729248046875,-6.5894927978515625,88.23736572265625,-0.46555557250976565,0.165,0.31785714285714284,-0.005126783582899305,-0.9887415343017594,0.7031040191650391,43.505550384521484,-0.022731102837456597,-0.10918731689453125
7512,-0.08671034135470919,0.25898443222045897,87.45996856689453,84.61630249023438,-6.916820526123047,87.562255859375,-0.46555557250976565,0.162,0.31642857142857145,-0.005035230848524305,-1.4501520567626969,-0.3954969816894547,43.505550384521484,0.0315962897406684,-0.1053230709499783
7513,-0.08280409135470919,0.25898443222045897,83.67523193359375,82.26363372802734,-6.732700347900391,87.5213394165039,-0.46555557250976565,0.15966666666666668,0.31535714285714284,-0.005706617567274305,-1.8346620970459,-1.142544406005861,43.505550384521484,0.015684424506293402,-0.10282266404893663
7514,-0.08671034135470919,0.239062557220459,82.83645629882812,82.42729949951172,-6.712242126464844,87.09172058105469,-0.46555557250976565,0.157,0.315,-0.0069272783067491316,-1.9005781584472672,-1.120571749755861,43.505550384521484,0.00454618665907118,-0.09782180786132813
7515,-0.08671034135470919,0.219140682220459,83.22515869140625,85.41416931152344,-6.609951019287109,87.562255859375,-0.46555557250976565,0.15366666666666667,0.3142857142857143,-0.0077206929524739586,-1.5819841795654312,-0.14281906420898594,43.505550384521484,-0.024322340223524305,-0.10191340976291233
7516,-0.09061659135470919,0.19921878814697266,86.33477783203125,84.41172790527344,-6.691783905029297,87.31675720214844,-0.46555557250976565,0.15066666666666667,0.31392857142857145,-0.0074765947129991316,-1.6588865690917984,0.41746801137924194,43.505550384521484,0.02136722140842014,-0.10009490119086371
7517,-0.08671034135470919,0.219140682220459,85.47554016113281,85.29141998291016,-6.67132568359375,87.562255859375,-0.46555557250976565,0.148,0.31357142857142856,-0.0069883134629991316,-1.7907186918945328,1.2304320335388184,43.505550384521484,0.002045779758029514,-0.10259535047743056
7518,-0.09842909135470919,0.25898443222045897,88.91248321533203,88.38057708740234,-6.712242126464844,87.27584838867188,-0.46555557250976565,0.14433333333333334,0.31357142857142856,-0.0075986226399739586,-2.482836382934572,1.7028300762176514,43.505550384521484,0.0059100680881076385,-0.09986767239040799
7519,-0.12186659135470919,0.25898443222045897,86.15065002441406,85.39370727539062,-6.650867462158203,87.21446990966797,-0.46555557250976565,0.141,0.31392857142857145,-0.009490670098198786,-2.581711428710939,-0.17577614123535312,43.505550384521484,0.008410474989149305,-0.09850374857584636
7520,-0.12186659135470919,0.25898443222045897,84.6572265625,81.75218200683594,-6.67132568359375,87.43951416015625,-0.46555557250976565,0.13766666666666666,0.31357142857142856,-0.010284127129448786,-2.0324102812500016,-1.9555078917236344,43.505550384521484,0.0322782728407118,-0.10123155381944444
7521,-0.08280409135470919,0.239062557220459,83.69569396972656,85.82332611083984,-6.732700347900391,87.97142028808594,-0.46555557250976565,0.134,0.31357142857142856,-0.007842763264973959,-2.175228732177736,-1.9555078917236344,43.505550384521484,-0.023640357123480903,-0.10782356262207031
7522,-0.10624159135470919,0.219140682220459,85.90515899658203,84.77996826171875,-6.691783905029297,88.97386169433594,-0.46555557250976565,0.13166666666666665,0.3142857142857143,-0.01083340115017361,-2.7245279722900406,-0.9447962218017594,43.505550384521484,0.01250211927625868,-0.11850717332628039
7523,-0.09842909135470919,0.19921878814697266,85.33233642578125,84.96409606933594,-8.246593475341797,88.46240997314453,-0.46555557250976565,0.12833333333333333,0.315,-0.01040615505642361,-3.976933138916017,-0.2307058745117203,43.505550384521484,0.004091559516059028,-0.13010003831651476
7524,-0.10624159135470919,0.219140682220459,85.49600219726562,84.12531280517578,-7.510105133056641,87.0712661743164,-0.46555557250976565,0.12533333333333332,0.31607142857142856,-0.011931991577148438,-4.800882952758791,0.35155200958251953,43.505550384521484,0.015229882134331598,-0.10645968119303385
7525,-0.12186659135470919,0.219140682220459,84.73905181884766,82.79554748535156,-6.650867462158203,86.88714599609375,-0.46555557250976565,0.12066666666666667,0.3175,-0.012511825561523438,-4.482288973876955,0.516342043876648,43.153987884521484,0.021594492594401042,-0.09486681620279948
7526,-0.12186659135470919,0.219140682220459,82.38638305664062,82.61141967773438,-6.650867462158203,87.05081176757812,-0.46555557250976565,0.116,0.31857142857142856,-0.012542343139648438,-3.6583391600341812,0.790992021560669,43.153987884521484,-0.0025004069010416668,-0.09668532477484809
7527,-0.11405409135470919,0.19921878814697266,85.455078125,85.35279846191406,-6.569034576416016,86.94851684570312,-0.46555557250976565,0.111,0.3192857142857143,-0.01058926052517361,-2.944248812744142,1.7577600479125977,43.153987884521484,0.001136440700954861,-0.09463946024576823
7528,-0.09452284135470919,0.219140682220459,87.25538635253906,86.04837036132812,-6.262165069580078,86.68256378173828,-0.46555557250976565,0.10666666666666667,0.3196428571428571,-0.0077817281087239586,-2.219172137329103,1.7028300762176514,43.153987884521484,0.013411288791232639,-0.08827476501464844
7529,-0.07889784135470919,0.19921878814697266,86.33477783203125,84.43218231201172,-6.2007904052734375,87.0712661743164,-0.46555557250976565,0.103,0.3192857142857143,-0.005065748426649305,-1.527054446289064,0.9338099956512451,42.97821044921875,0.021139950222439235,-0.09191173977322048
7530,-0.07889784135470919,0.19921878814697266,85.02546691894531,87.0712661743164,-6.4462890625,87.0712661743164,-0.46555557250976565,0.09933333333333333,0.31857142857142856,-0.004577509562174479,-1.3512789183349625,0.7580339908599854,42.97821044921875,-0.022731102837456597,-0.0946395026312934
7531,-0.08671034135470919,0.219140682220459,86.33477783203125,85.18913269042969,-6.4462890625,87.03034973144531,-0.46555557250976565,0.09566666666666666,0.3182142857142857,-0.005218336317274305,-1.505081790039064,0.13183200359344482,42.97821044921875,0.012729390462239584,-0.09418487548828125
7532,-0.10233534135470919,0.219140682220459,85.31187438964844,85.20958709716797,-6.487205505371094,87.09172058105469,-0.46555557250976565,0.093,0.3171428571428571,-0.0068967607286241316,-1.5819841795654312,0.2526780068874359,42.97821044921875,0.0011365254720052083,-0.09532140096028646
7533,-0.11405409135470919,0.239062557220459,85.92561340332031,84.53446960449219,-6.466747283935547,87.19401550292969,-0.46555557250976565,0.08966666666666667,0.3157142857142857,-0.008605702718098959,-1.2084604674072281,0.36253800988197327,42.97821044921875,0.0154571533203125,-0.09623069763183593
7534,-0.11014784135470919,0.25898443222045897,85.86424255371094,88.1146240234375,-6.487205505371094,88.05325317382812,-0.46555557250976565,0.08666666666666667,0.31392857142857145,-0.008636220296223959,-0.6921183043212906,0.2526780068874359,42.97821044921875,-0.02500423855251736,-0.10600509643554687
7535,-0.08280409135470919,0.19921878814697266,85.80287170410156,83.552490234375,-7.223690032958984,88.81019592285156,-0.46555557250976565,0.08366666666666667,0.31285714285714283,-0.005065748426649305,-0.8788801604003922,-1.2743765288085953,42.97821044921875,0.02500423855251736,-0.12259873284233941
7536,-0.008585341354709185,0.1195312786102295,88.58515930175781,83.49111938476562,-7.44873046875,86.72348022460938,-0.46555557250976565,0.082,0.3107142857142857,0.00030517578125,-2.933262484619142,-0.823950427124025,42.97821044921875,0.05660044352213542,-0.1019134521484375
7537,-0.024210341354709185,0.1195312786102295,82.42729949951172,84.28897857666016,-6.548576354980469,86.17111206054688,-0.46555557250976565,0.07866666666666666,0.3107142857142857,-0.0015563540988498264,-3.4166475706787125,-0.5383154326171891,42.97821044921875,-0.020685323079427085,-0.0857743157280816
7538,-0.08280409135470919,0.15937503814697265,82.75462341308594,83.32745361328125,-6.159877777099609,86.23248291015625,-0.46555557250976565,0.07333333333333333,0.31214285714285717,-0.0061033036973741316,-2.900305407592775,0.7580339908599854,42.97821044921875,-0.006364780002170139,-0.08213734096950955
7539,-0.07499159135470919,0.2789063262939453,87.76683807373047,86.49844360351562,-5.9757537841796875,86.74394226074219,-0.46555557250976565,0.06833333333333333,0.3132142857142857,-0.0075986226399739586,-3.0321375303955094,1.4831100702285767,42.97821044921875,0.014093271891276042,-0.08577440049913194
7540,-0.05936659135470919,0.219140682220459,85.1072998046875,83.81844329833984,-5.9757537841796875,86.64164733886719,-0.46555557250976565,0.065,0.31357142857142856,-0.0038756052652994793,-2.6586119108886734,0.7360620498657227,42.97821044921875,0.014320627848307291,-0.08463779025607639
7541,-0.04374159135470919,0.19921878814697266,88.31919860839844,92.18576049804688,-6.2007904052734375,86.45751953125,-0.46555557250976565,0.060333333333333336,0.3142857142857143,-0.0018309699164496527,-2.0763555937500016,0.8788800239562988,42.97821044921875,-0.042961798773871525,-0.0850923326280382
7542,-0.07499159135470919,0.239062557220459,90.03767395019531,82.61141967773438,-6.1394195556640625,86.86668395996094,-0.46555557250976565,0.057,0.31392857142857145,-0.005248853895399305,-1.6479002409667984,-1.8236757689209,42.97821044921875,0.08251393636067708,-0.08895670572916667
7543,-0.07108534135470919,0.19921878814697266,78.00836944580078,83.18424987792969,-6.118961334228516,86.76439666748047,-0.46555557250976565,0.05366666666666667,0.3132142857142857,-0.0061033036973741316,-1.2084604674072281,-1.5709978514404312,42.97821044921875,-0.05750978257921007,-0.08759286668565539
7544,-0.07889784135470919,0.19921878814697266,87.86912536621094,83.02058410644531,-6.118961334228516,86.80531311035156,-0.46555557250976565,0.050333333333333334,0.31214285714285717,-0.0077817281087239586,-0.8788801604003922,-0.3735243254394547,42.97821044921875,0.0538726806640625,-0.08804749382866753
7545,-0.11014784135470919,0.19921878814697266,83.28652954101562,83.4501953125,-6.1394195556640625,86.76439666748047,-0.46555557250976565,0.04733333333333333,0.31142857142857144,-0.01061977810329861,-0.801977770874025,-0.2416922026367203,42.97821044921875,-0.001818508572048611,-0.08782018025716146
7546,-0.15311659135470918,0.15937503814697265,88.58515930175781,88.42149353027344,-6.1394195556640625,86.662109375,-0.46555557250976565,0.044,0.31035714285714283,-0.012084579467773438,-0.8898664885253922,1.2853620052337646,42.97821044921875,0.001818508572048611,-0.08668365478515624
7547,-0.15702284135470918,0.15937503814697265,89.54668426513672,85.61874389648438,-6.118961334228516,86.78485107421875,-0.46555557250976565,0.04033333333333333,0.31,-0.01113857693142361,-0.7690206938476578,0.4284540116786957,45.966468811035156,0.04364378187391493,-0.08782013787163628
7548,-0.13749159135470918,0.1195312786102295,84.49356079101562,79.97233581542969,-6.118961334228516,85.98699188232422,-0.46555557250976565,0.03866666666666667,0.3107142857142857,-0.008086903889973959,-0.7690206938476578,-1.164517062255861,46.054359436035156,0.05023583306206597,-0.07895503573947482
7549,-0.07108534135470919,0.13945316314697265,81.19981384277344,83.16378784179688,-5.709800720214844,86.37569427490234,-0.46555557250976565,0.035333333333333335,0.31214285714285717,-0.0066831376817491316,-0.7140909605712906,-0.3735243254394547,46.054359436035156,-0.02182193332248264,-0.07872772216796875
7550,-0.11796034135470919,0.17929691314697266,84.80043029785156,87.68500518798828,-5.914379119873047,86.88714599609375,-0.46555557250976565,0.03266666666666666,0.31464285714285717,-0.01052822536892361,-0.5602861815185562,1.7907180786132812,46.054359436035156,-0.032050832112630205,-0.08668361239963107
7551,-0.18046034135470918,0.19921878814697266,81.56806182861328,87.27584838867188,-6.221248626708984,86.88714599609375,-0.46555557250976565,0.029666666666666668,0.31535714285714284,-0.01547194586859809,-0.9118391447753922,0.5273280143737793,45.966468811035156,-0.06341985066731771,-0.09009327358669705
7552,-0.21561659135470918,0.17929691314697266,84.98455047607422,75.79890441894531,-6.1394195556640625,87.562255859375,-0.46555557250976565,0.027,0.3167857142857143,-0.01589919196234809,-1.164517062255861,-1.8895918303222672,44.99967956542969,0.10206273396809896,-0.09668528238932292
7553,-0.14921034135470918,0.13945316314697265,83.16378784179688,85.02546691894531,-6.2007904052734375,86.86668395996094,-0.46555557250976565,0.024,0.3171428571428571,-0.01129116482204861,-1.6479002409667984,0.29662200808525085,43.68132781982422,-0.020685323079427085,-0.08963860405815972
7554,-0.07889784135470919,0.15937503814697265,88.46240997314453,87.62362670898438,-7.776058197021484,86.82576751708984,-0.46555557250976565,0.021333333333333333,0.3175,-0.0070493486192491316,-1.9115644865722672,1.340291976928711,43.68132781982422,0.009319814046223958,-0.10668695237901475
7555,-0.04374159135470919,0.1195312786102295,88.27828979492188,87.88958740234375,-5.914379119873047,86.23248291015625,-0.46555557250976565,0.017333333333333333,0.3171428571428571,-0.0024413214789496527,-2.3619905882568375,1.1645159721374512,41.74774932861328,0.0043189154730902775,-0.07940957811143663
7556,0.014852158645290815,0.1195312786102295,86.33477783203125,83.61386108398438,-5.791633605957031,87.15309143066406,-0.46555557250976565,0.014666666666666666,0.31642857142857145,0.0014953189425998264,-0.9777552061767594,0.14281800389289856,41.57196807861328,0.030232408311631945,-0.08827472262912327
7557,0.06563340864529081,0.13945316314697265,83.20470428466797,86.47798156738281,-6.2007904052734375,86.49844360351562,-0.46555557250976565,0.010333333333333333,0.31535714285714284,0.004333368937174479,-0.15380539233398594,0.3954960107803345,31.728290557861328,-0.03636974758572049,-0.0855470445421007
7558,0.030477158645290815,0.1195312786102295,89.0147705078125,85.14820861816406,-6.303081512451172,84.22760009765625,-0.46555557250976565,0.007333333333333333,0.31107142857142855,0.0030211554633246527,-0.2636648588867203,0.4394400119781494,26.54277992248535,0.042961798773871525,-0.061452017890082464
7559,-0.0007728413547091861,0.13945316314697265,80.01325988769531,76.4740219116211,-2.8252220153808594,84.82088470458984,-0.46555557250976565,0.0036666666666666666,0.30857142857142855,0.0016784244113498264,1.175502061843872,-0.823950427124025,26.279109954833984,0.03932486640082465,-0.02940118577745226
7560,0.08907090864529081,0.1195312786102295,79.68592834472656,91.55156707763672,-3.479877471923828,84.16622924804688,-0.46555557250976565,0.0026666666666666666,0.3025,0.005431959364149305,2.1532559394836426,1.1425440311431885,26.279109954833984,-0.1318404303656684,-0.02940118577745226
7561,0.09688340864529081,0.07968751907348633,91.59248352050781,82.18180847167969,-2.0069007873535156,80.29966735839844,-0.46555557250976565,0.0006666666666666666,0.2982142857142857,0.005523512098524305,2.0873401165008545,0.08788800239562988,26.279109954833984,0.10456305609809027,0.029927020602756076
7562,0.08125840864529081,0.09960939407348633,82.83645629882812,84.43218231201172,-0.7794227600097656,82.46821594238281,-0.46555557250976565,0.0006666666666666666,0.2925,0.004974238077799479,3.372702121734619,0.09887400269508362,26.279109954833984,-0.017730289035373263,0.01947068108452691
7563,0.018758408645290815,0.09960939407348633,84.96409606933594,84.08439636230469,-1.3522453308105469,79.8905029296875,-0.46555557250976565,0.0,0.28785714285714287,0.0020141177707248266,2.8563599586486816,0.4614120125770569,26.279109954833984,0.009774441189236111,0.0417472415500217
7564,-0.028116591354709185,0.13945316314697265,81.9976806640625,81.28164672851562,1.0004234313964844,79.58363342285156,-0.46555557250976565,-0.0006666666666666666,0.2825,-0.0008239322238498264,2.9332621097564697,0.20873400568962097,26.103330612182617,0.0079559326171875,0.07129766676161024
7565,0.0031334086452908137,0.07968751907348633,81.87493133544922,78.27432250976562,1.4709587097167969,78.23341369628906,-0.46555557250976565,0.0,0.2782142857142857,-0.0,2.8124160766601562,0.9557820558547974,26.103330612182617,0.040006764729817706,0.09152827792697482
