,WD,WS,AIL_1,AIL_2,ELEV_1,ELEV_2,RUDD,ALT,GS,TH,PTCH,ROLL,PLA_1,AIL,ELEV
3593,-0.10912579918619782,0.7371095275878906,84.32989501953125,83.96165466308594,-7.080486297607422,87.50088500976562,-0.46555557250976565,0.7276666666666667,0.4432142857142857,-0.01269497341579861,-1.538040774414064,0.0,36.56224060058594,0.004091559516059028,-0.10645968119303385
3594,-0.10521954918619782,0.7371095275878906,85.35279846191406,83.71615600585938,-7.080486297607422,87.58271789550781,-0.46555557250976565,0.7236666666666667,0.4432142857142857,-0.01202358669704861,-1.6588865690917984,0.06591600179672241,36.56224060058594,0.018184916178385416,-0.10736893547905815
3595,-0.10521954918619782,0.7371095275878906,84.88226318359375,84.37080383300781,-7.080486297607422,87.58271789550781,-0.46555557250976565,0.7193333333333334,0.44357142857142856,-0.01211513943142361,-1.6918455534667984,0.09887400269508362,36.56224060058594,0.005682881673177083,-0.10736893547905815
3596,-0.10521954918619782,0.7371095275878906,85.88470458984375,84.96409606933594,-7.080486297607422,87.6031723022461,-0.46555557250976565,0.7146666666666667,0.44357142857142856,-0.01266445583767361,-1.7907186918945328,-0.06591667468261875,36.65013122558594,0.010228983561197917,-0.10759620666503907
3597,-0.10912579918619782,0.7371095275878906,84.30943298339844,84.22760009765625,-7.080486297607422,87.58271789550781,-0.46555557250976565,0.71,0.44392857142857145,-0.013427310519748263,-1.8895918303222672,-0.7690206938476578,36.65013122558594,0.0009092542860243056,-0.10736893547905815
3598,-0.10521954918619782,0.7171876525878906,84.73905181884766,83.73661041259766,-7.080486297607422,87.58271789550781,-0.46555557250976565,0.7053333333333334,0.44392857142857145,-0.013579898410373263,-1.9664942198486344,-0.801977770874025,36.38645935058594,0.011138237847222222,-0.10736893547905815
3599,-0.10521954918619782,0.7371095275878906,84.88226318359375,84.1048583984375,-7.080486297607422,87.54179382324219,-0.46555557250976565,0.7003333333333334,0.4442857142857143,-0.014098697238498263,-2.0104395323486344,-0.4064833098144547,36.29856872558594,0.008637830946180555,-0.10691422356499566
3600,-0.10521954918619782,0.7371095275878906,84.90271759033203,83.98210144042969,-7.080486297607422,87.45996856689453,-0.46555557250976565,0.6953333333333334,0.4442857142857143,-0.014586978488498263,-1.9335371428222672,-0.17577614123535312,36.1227912902832,0.010229068332248265,-0.1060050540500217
3601,-0.10521954918619782,0.7371095275878906,85.37325286865234,84.16622924804688,-7.080486297607422,87.45996856689453,-0.46555557250976565,0.6903333333333334,0.4442857142857143,-0.014586978488498263,-1.8456484251709,0.2197200059890747,36.1227912902832,0.013411373562282987,-0.1060050540500217
3602,-0.10912579918619782,0.7171876525878906,85.76194763183594,84.71859741210938,-7.080486297607422,87.48042297363281,-0.46555557250976565,0.6846666666666666,0.4442857142857143,-0.014983707004123263,-1.8017050200195328,0.41746801137924194,36.1227912902832,0.011592780219184027,-0.10623232523600261
3603,-0.11303204918619782,0.7171876525878906,85.29141998291016,84.84133911132812,-7.080486297607422,87.48042297363281,-0.46555557250976565,0.6796666666666666,0.4442857142857143,-0.015655093722873263,-1.8126913481445328,-0.09887375170898594,36.1227912902832,0.00500089857313368,-0.10623232523600261
3604,-0.11303204918619782,0.7171876525878906,85.16867065429688,84.06393432617188,-7.060028076171875,87.45996856689453,-0.46555557250976565,0.6746666666666666,0.4442857142857143,-0.015960269504123263,-1.8786074095459,-0.2307058745117203,36.1227912902832,0.012274848090277778,-0.10577774047851562
3605,-0.11303204918619782,0.6972657775878907,85.25050354003906,84.41172790527344,-7.060028076171875,87.39859008789062,-0.46555557250976565,0.6696666666666666,0.4442857142857143,-0.015990787082248263,-1.8236757689209,-0.14281906420898594,36.1227912902832,0.009319729275173612,-0.10509575737847222
3606,-0.11303204918619782,0.6972657775878907,83.94119262695312,83.22515869140625,-7.060028076171875,87.37813568115234,-0.46555557250976565,0.6646666666666666,0.445,-0.015929751925998263,-1.7577597075195328,-0.16478981311035312,36.1227912902832,0.0079559326171875,-0.10486848619249133
3607,-0.10521954918619782,0.6972657775878907,83.18424987792969,82.14088439941406,-7.060028076171875,87.35768127441406,-0.46555557250976565,0.66,0.445,-0.014861636691623263,-1.6698728972167984,0.5273280143737793,36.1227912902832,0.011592949761284723,-0.10464121500651041
3608,-0.09740704918619782,0.6972657775878907,85.0050048828125,83.5934066772461,-7.080486297607422,87.35768127441406,-0.46555557250976565,0.6546666666666666,0.44535714285714284,-0.013549380832248263,-1.538040774414064,1.9884660243988037,36.1227912902832,0.015684424506293402,-0.1048685285780165
3609,-0.10521954918619782,0.6375001525878906,85.1072998046875,84.22760009765625,-7.080486297607422,87.43951416015625,-0.46555557250976565,0.6503333333333333,0.44571428571428573,-0.01278652615017361,-1.3512789183349625,2.13128399848938,36.38645935058594,0.009774441189236111,-0.1057777828640408
3610,-0.09350079918619782,0.6773439025878907,86.35523986816406,84.77996826171875,-7.080486297607422,87.68500518798828,-0.46555557250976565,0.6463333333333333,0.44571428571428573,-0.01107754177517361,-1.5929705076904312,1.6149420738220215,36.56224060058594,0.01750301784939236,-0.10850546095106336
3611,-0.09740704918619782,0.6773439025878907,86.15065002441406,85.29141998291016,-7.080486297607422,87.6031723022461,-0.46555557250976565,0.6416666666666667,0.44642857142857145,-0.01052822536892361,-1.7467752867431656,0.9447960257530212,36.91379928588867,0.009547000461154514,-0.10759620666503907
3612,-0.09350079918619782,0.6972657775878907,85.16867065429688,85.0459213256836,-7.080486297607422,87.43951416015625,-0.46555557250976565,0.636,0.4471428571428571,-0.01083340115017361,-1.8456484251709,0.2197200059890747,37.529029846191406,0.0013638814290364584,-0.1057777828640408
3613,-0.09350079918619782,0.6574220275878906,82.550048828125,82.65233612060547,-7.080486297607422,87.37813568115234,-0.46555557250976565,0.6313333333333333,0.4475,-0.01071133083767361,-1.5929705076904312,-0.6152159147949234,37.704811096191406,-0.0011365254720052083,-0.1050957997639974
3614,-0.07396954918619782,0.6574220275878906,84.49356079101562,82.40684509277344,-7.100944519042969,87.58271789550781,-0.46555557250976565,0.6283333333333333,0.44785714285714284,-0.008147939046223959,-1.4721247130126969,0.2526780068874359,37.17747116088867,0.02318572998046875,-0.10759624905056424
3615,-0.07396954918619782,0.6574220275878906,86.35523986816406,85.20958709716797,-7.080486297607422,87.58271789550781,-0.46555557250976565,0.6236666666666667,0.44821428571428573,-0.007537672254774305,-1.7687460356445328,1.538040041923523,36.91379928588867,0.012729475233289931,-0.10736893547905815
3616,-0.08568829918619782,0.6574220275878906,85.82332611083984,85.49600219726562,-7.060028076171875,87.48042297363281,-0.46555557250976565,0.6183333333333333,0.44857142857142857,-0.008636220296223959,-1.8017050200195328,1.175502061843872,36.91379928588867,0.003636932373046875,-0.10600501166449652
3617,-0.08568829918619782,0.6375001525878906,84.02302551269531,83.36836242675781,-7.060028076171875,87.39859008789062,-0.46555557250976565,0.6136666666666667,0.44892857142857145,-0.008575185139973959,-1.6259294920654312,0.17577600479125977,36.82590866088867,0.007274034288194444,-0.10509575737847222
3618,-0.07396954918619782,0.6574220275878906,84.80043029785156,83.61386108398438,-7.039569854736328,87.39859008789062,-0.46555557250976565,0.6093333333333333,0.44892857142857145,-0.006713697645399305,-1.4721247130126969,0.3405660092830658,36.82590866088867,0.013184102376302083,-0.10486844380696615
3619,-0.07006329918619782,0.6375001525878906,86.02790832519531,85.1072998046875,-7.060028076171875,87.41905212402344,-0.46555557250976565,0.605,0.44892857142857145,-0.005798170301649305,-1.2853628569335953,0.790992021560669,36.65013122558594,0.010228983561197917,-0.10532311333550347
3620,-0.07396954918619782,0.6375001525878906,85.0050048828125,84.84133911132812,-7.060028076171875,87.43951416015625,-0.46555557250976565,0.6003333333333334,0.4492857142857143,-0.006103346082899305,-1.2743765288085953,0.17577600479125977,36.65013122558594,0.001818508572048611,-0.10555046929253473
3621,-0.07396954918619782,0.6175782775878906,84.63676452636719,83.90027618408203,-7.100944519042969,87.562255859375,-0.46555557250976565,0.5963333333333334,0.4492857142857143,-0.006072828504774305,-1.3512789183349625,-0.01098694140625156,36.65013122558594,0.008183203803168403,-0.10736889309353298
3622,-0.06615704918619782,0.6175782775878906,85.06637573242188,83.96165466308594,-7.080486297607422,87.6031723022461,-0.46555557250976565,0.5923333333333334,0.4492857142857143,-0.005523512098524305,-1.4611383848876969,0.4723980128765106,37.00168991088867,0.012274678548177083,-0.10759620666503907
3623,-0.06615704918619782,0.6175782775878906,84.61630249023438,84.18669128417969,-7.080486297607422,87.5213394165039,-0.46555557250976565,0.588,0.4496428571428571,-0.004943678114149305,-1.4501520567626969,1.0986000299453735,37.441139221191406,0.004773457845052083,-0.10668695237901475
3624,-0.07006329918619782,0.5976564025878907,85.76194763183594,84.28897857666016,-7.080486297607422,87.50088500976562,-0.46555557250976565,0.5833333333333334,0.45035714285714284,-0.004730055067274305,-1.4611383848876969,1.768746018409729,37.441139221191406,0.016366322835286457,-0.10645968119303385
3625,-0.08568829918619782,0.5578126525878906,83.57295227050781,83.47065734863281,-7.080486297607422,87.54179382324219,-0.46555557250976565,0.5796666666666667,0.45071428571428573,-0.005554029676649305,-1.3512789183349625,0.5932440161705017,37.704811096191406,0.0011366102430555556,-0.10691422356499566
3626,-0.10131329918619782,0.5378907394409179,86.08927917480469,84.63676452636719,-7.1418609619140625,87.62362670898438,-0.46555557250976565,0.5753333333333334,0.4521428571428571,-0.007110426161024305,-1.5819841795654312,0.7690200209617615,38.407928466796875,0.016139051649305555,-0.10850541856553819
3627,-0.10131329918619782,0.5777345275878907,84.47309875488281,84.45263671875,-7.080486297607422,87.62362670898438,-0.46555557250976565,0.5696666666666667,0.45285714285714285,-0.007903798421223959,-2.0214239531250016,0.3954960107803345,39.28683090209961,0.00022735595703125,-0.10782347785101996
3628,-0.09350079918619782,0.5378907394409179,83.38882446289062,83.5934066772461,-7.100944519042969,87.6031723022461,-0.46555557250976565,0.5646666666666667,0.45535714285714285,-0.006286451551649305,-1.9335371428222672,-0.2636648588867203,40.34151077270508,-0.002273135715060764,-0.10782352023654514
3629,-0.07396954918619782,0.5578126525878906,84.32989501953125,83.28652954101562,-7.080486297607422,87.5213394165039,-0.46555557250976565,0.5596666666666666,0.4564285714285714,-0.004241858588324653,-2.1202989989013687,-0.03295769030761875,40.42940139770508,0.011592949761284723,-0.10668695237901475
3630,-0.062250799186197824,0.5578126525878906,85.84378051757812,83.98210144042969,-7.100944519042969,87.41905212402344,-0.46555557250976565,0.5543333333333333,0.4589285714285714,-0.0029601203070746527,-2.0214239531250016,0.6811320185661316,40.42940139770508,0.020685323079427085,-0.10577774047851562
3631,-0.06615704918619782,0.5179688644409179,85.5982894897461,85.14820861816406,-7.080486297607422,87.62362670898438,-0.46555557250976565,0.5506666666666666,0.46,-0.0025633917914496527,-1.8895918303222672,0.6371880173683167,40.42940139770508,0.00500089857313368,-0.10782347785101996
3632,-0.06615704918619782,0.5378907394409179,84.77996826171875,84.554931640625,-7.080486297607422,87.48042297363281,-0.46555557250976565,0.5446666666666666,0.4614285714285714,-0.0029296027289496527,-2.0983263426513687,0.16479000449180603,39.19894027709961,0.0025004069010416668,-0.10623232523600261
3633,-0.06615704918619782,0.5378907394409179,85.88470458984375,84.57539367675781,-7.080486297607422,87.45996856689453,-0.46555557250976565,0.54,0.4625,-0.0028075324164496527,-1.9884668760986344,0.3405660092830658,38.84737777709961,0.014547899034288195,-0.1060050540500217
3634,-0.07006329918619782,0.5578126525878906,87.19401550292969,85.20958709716797,-7.060028076171875,87.66455078125,-0.46555557250976565,0.5353333333333333,0.4639285714285714,-0.0035094367133246527,-1.8017050200195328,0.24169200658798218,37.704811096191406,0.02204920450846354,-0.1080508761935764
3635,-0.10131329918619782,0.49804698944091796,89.0761489868164,86.88714599609375,-7.060028076171875,87.54179382324219,-0.46555557250976565,0.5306666666666666,0.4635714285714286,-0.006042310926649305,-1.9005781584472672,0.26366400718688965,31.991960525512695,0.02432225545247396,-0.10668690999348958
3636,-0.10912579918619782,0.49804698944091796,83.552490234375,83.57295227050781,-7.060028076171875,87.35768127441406,-0.46555557250976565,0.5263333333333333,0.4625,-0.007903798421223959,-1.9115644865722672,-1.1974741392822281,29.267370223999023,-0.00022735595703125,-0.10464121500651041
3637,-0.10131329918619782,0.5378907394409179,82.18180847167969,82.18180847167969,-7.080486297607422,87.41905212402344,-0.46555557250976565,0.5196666666666667,0.4607142857142857,-0.009063466389973959,-2.0433966093750016,-1.3183199339599625,29.003700256347656,0.0,-0.10555042690700955
3638,-0.07396954918619782,0.5179688644409179,86.92805480957031,82.32501220703125,-7.510105133056641,87.99187469482422,-0.46555557250976565,0.515,0.4567857142857143,-0.005340406629774305,-1.4831110411376969,0.36253800988197327,28.915809631347656,0.051144917805989586,-0.11668866475423177
3639,-0.08959454918619782,0.5179688644409179,84.43218231201172,86.6007308959961,-8.103385925292969,88.58515930175781,-0.46555557250976565,0.5113333333333333,0.4539285714285714,-0.006500074598524305,-1.9225508146972672,0.8129640221595764,28.915809631347656,-0.024094984266493057,-0.1298727247450087
3640,-0.10131329918619782,0.5179688644409179,83.552490234375,83.30699157714844,-8.369338989257812,88.70790100097656,-0.46555557250976565,0.508,0.44785714285714284,-0.008971913655598959,-2.790444033691408,-0.3405672484130875,28.827919006347656,0.002727762858072917,-0.1341915554470486
3641,-0.08178204918619782,0.438281364440918,80.8929443359375,78.72439575195312,-9.45361328125,89.58760070800781,-0.46555557250976565,0.5053333333333333,0.44392857142857145,-0.005706617567274305,-2.900305407592775,-0.6591612272949234,28.827919006347656,0.024094984266493057,-0.15601348876953125
3642,-0.038813299186197824,0.3785157012939453,85.68012237548828,84.94363403320312,-9.576362609863281,89.52622985839844,-0.46555557250976565,0.5026666666666667,0.43785714285714283,6.103515625e-05,-3.9989038878173844,1.5929700136184692,28.827919006347656,0.008183203803168403,-0.15669547186957467
3643,-0.054438299186197824,0.41835948944091794,86.19157409667969,87.23492431640625,-9.94460678100586,90.28317260742188,-0.46555557250976565,0.503,0.43392857142857144,-0.0010986328125,-5.009617465087892,1.647900104522705,28.827919006347656,-0.011592780219184027,-0.16919754876030815
3644,-0.08959454918619782,0.478125114440918,83.0410385131836,82.91828918457031,-9.45361328125,89.66943359375,-0.46555557250976565,0.49766666666666665,0.4282142857142857,-0.006286451551649305,-4.998631136962892,-0.3185945921630875,28.827919006347656,0.0013638814290364584,-0.15692274305555556
3645,-0.058344549186197824,0.5179688644409179,84.1048583984375,82.9592056274414,-9.433155059814453,89.71034240722656,-0.46555557250976565,0.493,0.42464285714285716,-0.0030821906195746527,-4.625107424804689,-0.5602861815185562,28.827919006347656,0.012729475233289931,-0.1571499718560113
3646,-0.058344549186197824,0.49804698944091796,85.455078125,84.45263671875,-9.474071502685547,89.79217529296875,-0.46555557250976565,0.48933333333333334,0.41964285714285715,-0.0032652960883246527,-4.833840029785158,0.8239500522613525,28.827919006347656,0.011138237847222222,-0.15851385328504775
3647,-0.08178204918619782,0.49804698944091796,85.18913269042969,85.12775421142578,-9.412696838378906,89.54668426513672,-0.46555557250976565,0.48433333333333334,0.4164285714285714,-0.006286451551649305,-4.998631136962892,1.1095860004425049,28.827919006347656,0.0006819831000434028,-0.15510423448350694
3648,-0.07396954918619782,0.5378907394409179,84.41172790527344,83.90027618408203,-9.310409545898438,89.36256408691406,-0.46555557250976565,0.47933333333333333,0.4117857142857143,-0.005126783582899305,-4.965672152587892,0.2526780068874359,28.827919006347656,0.0056827969021267365,-0.15192192925347223
3649,-0.06615704918619782,0.49804698944091796,85.37325286865234,83.5115737915039,-9.760482788085938,89.91493225097656,-0.46555557250976565,0.47433333333333333,0.4085714285714286,-0.0033568488226996527,-4.778910296508791,0.4614120125770569,28.827919006347656,0.020685323079427085,-0.16306016710069443
3650,-0.07396954918619782,0.49804698944091796,87.95095825195312,85.94607543945312,-9.39223861694336,89.66943359375,-0.46555557250976565,0.469,0.4042857142857143,-0.004516516791449653,-5.624832766601564,1.3183200359344482,28.827919006347656,0.022276475694444443,-0.15624080234103732
3651,-0.10131329918619782,0.5179688644409179,86.13019561767578,86.19157409667969,-9.28995132446289,89.26026916503906,-0.46555557250976565,0.4633333333333333,0.40214285714285714,-0.007873280843098959,-5.723705905029298,0.4064820110797882,28.827919006347656,-0.0006819831000434028,-0.1505580054389106
3652,-0.10131329918619782,0.5378907394409179,83.42974090576172,83.49111938476562,-8.717124938964844,89.09660339355469,-0.46555557250976565,0.456,0.3989285714285714,-0.008178456624348959,-5.284266131469728,-1.3293062620849625,28.827919006347656,-0.0006819831000434028,-0.142374759250217
3653,-0.08178204918619782,0.5179688644409179,84.90271759033203,82.69325256347656,-8.451171875,88.6669921875,-0.46555557250976565,0.44966666666666666,0.39714285714285713,-0.006957838270399305,-4.4163729124755875,-1.0876146727294937,28.827919006347656,0.02454961140950521,-0.1346462673611111
3654,-0.08568829918619782,0.49804698944091796,88.62606811523438,87.78729248046875,-8.67620849609375,88.74882507324219,-0.46555557250976565,0.443,0.39357142857142857,-0.007446119520399305,-4.262568133422853,1.219446063041687,28.827919006347656,0.009319729275173612,-0.13805592854817708
3655,-0.09350079918619782,0.49804698944091796,84.16622924804688,83.36836242675781,-8.880790710449219,89.32164001464844,-0.46555557250976565,0.439,0.39035714285714285,-0.0075681050618489586,-3.7132688933105484,-0.2526785307617203,28.827919006347656,0.008865186903211806,-0.1466936747233073
3656,-0.07787579918619782,0.438281364440918,88.64653015136719,85.33233642578125,-9.576362609863281,90.59004211425781,-0.46555557250976565,0.43466666666666665,0.3846428571428571,-0.004363928900824653,-4.042849200317384,0.1867620050907135,28.827919006347656,0.03682437472873264,-0.16851560804578994
3657,-0.12865704918619783,0.45820323944091795,88.21691131591797,89.87400817871094,-10.005979537963867,90.05813598632812,-0.46555557250976565,0.43466666666666665,0.38107142857142856,-0.01119961208767361,-5.4160982542724625,0.26366400718688965,28.827919006347656,-0.01841218736436632,-0.16737906138102213
3658,-0.13646954918619783,0.45820323944091795,82.550048828125,81.97721862792969,-10.681093215942383,91.30607604980469,-0.46555557250976565,0.432,0.3742857142857143,-0.01266445583767361,-6.042299883911134,-2.0214239531250016,28.827919006347656,0.006364780002170139,-0.18874632517496745
3659,-0.09740704918619782,0.438281364440918,82.52958679199219,82.42729949951172,-10.128726959228516,90.44683837890625,-0.46555557250976565,0.42966666666666664,0.3703571428571429,-0.008453114827473959,-6.668503420898439,-1.6808592253417984,28.827919006347656,0.0011365254720052083,-0.17306183709038628
3660,-0.08178204918619782,0.49804698944091796,85.1072998046875,83.4501953125,-9.658195495605469,89.567138671875,-0.46555557250976565,0.4256666666666667,0.36464285714285716,-0.008910878499348959,-6.130188601562502,-0.3295809202880875,28.827919006347656,0.018412272135416668,-0.15805926852756078
3661,-0.10912579918619782,0.45820323944091795,85.14820861816406,91.81752014160156,-9.94460678100586,90.34454345703125,-0.46555557250976565,0.42033333333333334,0.36142857142857143,-0.01144375271267361,-5.196379321166994,1.5600121021270752,28.827919006347656,-0.07410346137152778,-0.16987944708930122
3662,-0.13646954918619783,0.49804698944091796,80.70883178710938,87.50088500976562,-9.842315673828125,90.13996887207031,-0.46555557250976565,0.41533333333333333,0.3557142857142857,-0.016387430826822917,-5.635819094726564,-0.05493034655761875,28.827919006347656,-0.07546725802951389,-0.1664698282877604
3663,-0.13256329918619783,0.478125114440918,79.15402221679688,80.17691802978516,-9.351322174072266,89.83309936523438,-0.46555557250976565,0.413,0.3514285714285714,-0.015868716769748263,-6.229063647338869,-1.9225508146972672,28.827919006347656,-0.011365509033203125,-0.15760468377007378
3664,-0.09740704918619782,0.478125114440918,83.96165466308594,82.93875122070312,-8.921707153320312,89.38301849365234,-0.46555557250976565,0.4096666666666667,0.3457142857142857,-0.01205410427517361,-6.075258868286134,-0.18676246936035312,28.827919006347656,0.011365593804253473,-0.14783028496636286
3665,-0.09740704918619782,0.49804698944091796,87.562255859375,85.23004150390625,-9.249034881591797,89.40347290039062,-0.46555557250976565,0.4053333333333333,0.3417857142857143,-0.01318325466579861,-5.174406664916994,0.9887400269508362,28.827919006347656,0.025913492838541666,-0.1516945309109158
3666,-0.11693829918619782,0.5179688644409179,86.0688247680664,85.57783508300781,-9.249034881591797,89.46485137939453,-0.46555557250976565,0.4013333333333333,0.3360714285714286,-0.017211405436197917,-4.789896624633791,0.2197200059890747,28.827919006347656,0.005455440945095486,-0.1523765140109592
3667,-0.11693829918619782,0.5179688644409179,82.85691833496094,82.44775390625,-9.269493103027344,89.68988800048828,-0.46555557250976565,0.3973333333333333,0.33214285714285713,-0.016784159342447917,-4.515246050903322,-1.4721247130126969,28.827919006347656,0.004546271430121528,-0.15510423448350694
3668,-0.09740704918619782,0.5179688644409179,83.96165466308594,82.07951354980469,-8.839874267578125,89.28073120117188,-0.46555557250976565,0.3953333333333333,0.32607142857142857,-0.015655093722873263,-4.943701403686525,-1.153530734130861,29.44314956665039,0.020912679036458333,-0.14578450520833333
3669,-0.10131329918619782,0.5179688644409179,88.78973388671875,86.15065002441406,-8.921707153320312,88.99431610107422,-0.46555557250976565,0.39166666666666666,0.32285714285714284,-0.016631571451822917,-4.33947052294922,0.9338099956512451,32.6950798034668,0.029323154025607638,-0.14351136949327256
3670,-0.13646954918619783,0.49804698944091796,87.03034973144531,85.25050354003906,-9.064910888671875,89.05569458007812,-0.46555557250976565,0.387,0.32,-0.02142274644639757,-4.504261630126955,0.8129640221595764,35.15599822998047,0.01977606879340278,-0.14578450520833333
3671,-0.14428204918619783,0.478125114440918,83.28652954101562,82.42729949951172,-8.533004760742188,88.78973388671875,-0.46555557250976565,0.38466666666666666,0.31785714285714284,-0.02255181206597222,-4.614121096679689,-0.856909411499025,36.91379928588867,0.009547000461154514,-0.13691931830512152
3672,-0.11693829918619782,0.5179688644409179,81.93630981445312,81.71127319335938,-8.655750274658203,88.89202880859375,-0.46555557250976565,0.38166666666666665,0.31607142857142856,-0.02093446519639757,-4.3944002562255875,-0.7250772886962906,39.550498962402344,0.0025004069010416668,-0.13941976759168836
3673,-0.11303204918619782,0.49804698944091796,83.5934066772461,80.07463073730469,-8.921707153320312,89.03523254394531,-0.46555557250976565,0.37933333333333336,0.3157142857142857,-0.02032411363389757,-4.4383455687255875,0.41746801137924194,40.95674133300781,0.0390975104437934,-0.14396599663628473
3674,-0.12865704918619783,0.49804698944091796,82.44775390625,83.53202819824219,-8.492088317871094,88.6669921875,-0.46555557250976565,0.375,0.315,-0.02273491753472222,-4.515246050903322,1.1315580606460571,40.95674133300781,-0.012047492133246528,-0.13510089450412327
3675,-0.11303204918619782,0.5578126525878906,84.12531280517578,83.4501953125,-8.594379425048828,88.6056137084961,-0.46555557250976565,0.37266666666666665,0.3142857142857143,-0.02206353081597222,-4.273554461547853,1.0107120275497437,40.95674133300781,0.007501305474175347,-0.13555547926161024
3676,-0.11303204918619782,0.5378907394409179,88.85111236572266,86.96897888183594,-8.717124938964844,89.34210205078125,-0.46555557250976565,0.36933333333333335,0.31392857142857145,-0.02011049058702257,-4.218624728271486,2.285088062286377,40.95674133300781,0.020912594265407987,-0.14510252210828994
3677,-0.14037579918619783,0.49804698944091796,86.02790832519531,87.33721923828125,-8.205677032470703,88.44195556640625,-0.46555557250976565,0.36633333333333334,0.31285714285714283,-0.02300957573784722,-4.3944002562255875,1.6039559841156006,40.95674133300781,-0.014547899034288195,-0.1294181399875217
3678,-0.14037579918619783,0.5378907394409179,81.67034912109375,81.79310607910156,-8.246593475341797,88.46240997314453,-0.46555557250976565,0.3616666666666667,0.31214285714285717,-0.02447441948784722,-3.932987826416017,-0.4064833098144547,40.95674133300781,-0.0013639662000868055,-0.13010003831651476
3679,-0.12475079918619782,0.49804698944091796,81.69081115722656,81.19981384277344,-8.451171875,88.78973388671875,-0.46555557250976565,0.3596666666666667,0.31142857142857144,-0.02120912339952257,-3.7791849547119156,-0.3185945921630875,40.95674133300781,0.005455525716145834,-0.1360100640190972
3680,-0.11693829918619782,0.45820323944091795,82.79554748535156,82.30455017089844,-8.246593475341797,88.33966064453125,-0.46555557250976565,0.35633333333333334,0.31142857142857144,-0.01946962144639757,-3.6583391600341812,0.45042601227760315,41.83563995361328,0.005455525716145834,-0.1287361568874783
3681,-0.10912579918619782,0.438281364440918,84.5958480834961,83.40928649902344,-8.573921203613281,88.19645690917969,-0.46555557250976565,0.353,0.31142857142857144,-0.017913309733072917,-3.262842791625978,0.9118380546569824,43.153987884521484,0.013184017605251737,-0.13078197903103297
3682,-0.07396954918619782,0.49804698944091796,85.1072998046875,84.02302551269531,-8.267051696777344,88.25782775878906,-0.46555557250976565,0.35,0.3117857142857143,-0.013305240207248263,-2.878332751342775,0.9338099956512451,44.56023025512695,0.012047492133246528,-0.12805421617296006
3683,-0.062250799186197824,0.478125114440918,87.33721923828125,87.0712661743164,-8.553462982177734,88.564697265625,-0.46555557250976565,0.347,0.3117857142857143,-0.009795888264973959,-2.6146685057373062,1.538040041923523,51.767208099365234,0.0029550340440538192,-0.13464622497558593
3684,-0.07006329918619782,0.45820323944091795,87.09172058105469,86.74394226074219,-8.22613525390625,88.87156677246094,-0.46555557250976565,0.3436666666666667,0.31285714285714283,-0.009246571858723959,-2.471850054809572,1.1315580606460571,51.855098724365234,0.0038642035590277777,-0.13441891140407985
3685,-0.050532049186197824,0.438281364440918,84.63676452636719,86.27340698242188,-8.492088317871094,88.25782775878906,-0.46555557250976565,0.341,0.3142857142857143,-0.005157301161024305,-2.3180471831054703,0.1538040041923523,51.855098724365234,-0.018184916178385416,-0.13055462307400173
3686,-0.031000799186197824,0.478125114440918,88.564697265625,88.0123291015625,-8.594379425048828,88.40103149414062,-0.46555557250976565,0.33766666666666667,0.31642857142857145,-0.0028990851508246527,-2.2741018706054703,0.8788800239562988,51.855098724365234,0.006137424045138889,-0.13328234354654947
3687,-0.042719549186197824,0.438281364440918,86.90760040283203,88.38057708740234,-8.717124938964844,89.1170654296875,-0.46555557250976565,0.3353333333333333,0.3175,-0.0034484015570746527,-2.4388929777832047,0.17577600479125977,51.855098724365234,-0.016366407606336807,-0.14260211520724828
3688,-0.054438299186197824,0.438281364440918,87.25538635253906,82.77508544921875,-9.51498794555664,90.0172119140625,-0.46555557250976565,0.33366666666666667,0.31857142857142856,-0.005462476942274305,-2.856360095092775,-0.06591667468261875,51.855098724365234,0.049781121148003475,-0.16146888732910156
3689,-0.07396954918619782,0.3785157012939453,84.1048583984375,86.23248291015625,-9.28995132446289,89.79217529296875,-0.46555557250976565,0.33166666666666667,0.31857142857142856,-0.006530592176649305,-3.92200340563965,-0.14281906420898594,49.7457389831543,-0.023640272352430554,-0.15646807352701822
3690,-0.08178204918619782,0.41835948944091794,85.72103881835938,85.1072998046875,-8.246593475341797,87.95095825195312,-0.46555557250976565,0.328,0.32035714285714284,-0.009399159749348959,-4.636091845581056,0.35155200958251953,49.5699577331543,0.006819322374131944,-0.12441724141438802
3691,-0.09740704918619782,0.45820323944091795,84.57539367675781,84.53446960449219,-9.16720199584961,88.91248321533203,-0.46555557250976565,0.32466666666666666,0.32107142857142856,-0.01214565700954861,-4.141722338745119,0.5822579860687256,49.5699577331543,0.0004547119140625,-0.14532983567979602
3692,-0.10131329918619782,0.438281364440918,86.41661071777344,86.47798156738281,-8.860332489013672,88.68744659423828,-0.46555557250976565,0.32133333333333336,0.3225,-0.01162685818142361,-4.767923968383791,0.5712720155715942,49.5699577331543,-0.0006818983289930556,-0.13941976759168836
3693,-0.11693829918619782,0.478125114440918,83.98210144042969,83.16378784179688,-9.28995132446289,88.87156677246094,-0.46555557250976565,0.31866666666666665,0.32357142857142857,-0.015563540988498263,-4.833840029785158,0.07690200209617615,48.60316848754883,0.00909237331814236,-0.1462390899658203
3694,-0.1520945214084201,0.438281364440918,83.92073059082031,82.40684509277344,-8.901248931884766,89.48530578613281,-0.46555557250976565,0.31566666666666665,0.3246428571428571,-0.018889872233072917,-5.536944048950197,0.02197200059890747,47.987937927246094,0.01682094997829861,-0.14873949686686197
3695,-0.12865704918619783,0.41835948944091794,83.16378784179688,81.9567642211914,-8.696666717529297,88.46240997314453,-0.46555557250976565,0.312,0.32535714285714284,-0.015594058566623263,-5.580889361450197,0.5493000149726868,47.46059799194336,0.013411373562282987,-0.1351008521185981
3696,-0.12084454918619782,0.438281364440918,85.78240966796875,83.77752685546875,-8.553462982177734,89.40347290039062,-0.46555557250976565,0.309,0.3264285714285714,-0.014861636691623263,-5.569903033325197,1.1315580606460571,47.46059799194336,0.022276475694444443,-0.14396595425075956
3697,-0.10131329918619782,0.478125114440918,88.31919860839844,84.35034942626953,-8.144302368164062,87.66455078125,-0.46555557250976565,0.303,0.3275,-0.01238979763454861,-5.4270845823974625,1.6149420738220215,47.46059799194336,0.04409832424587674,-0.12009836832682291
3698,-0.10131329918619782,0.41835948944091794,85.557373046875,86.53935241699219,-9.371780395507812,88.97386169433594,-0.46555557250976565,0.2986666666666667,0.32857142857142857,-0.009490712483723959,-4.295527117797853,0.4064820110797882,47.46059799194336,-0.010910881890190972,-0.148284912109375
3699,-0.07006329918619782,0.438281364440918,80.85203552246094,82.44775390625,-8.430713653564453,89.19889831542969,-0.46555557250976565,0.295,0.32785714285714285,-0.006133863661024305,-4.603134768554689,-1.3402925902099625,47.284820556640625,-0.017730204264322917,-0.14032902187771268
3700,-0.054438299186197824,0.39843757629394533,87.23492431640625,87.88958740234375,-8.22613525390625,88.03279113769531,-0.46555557250976565,0.29133333333333333,0.32785714285714285,-0.003997717963324653,-4.537218707153322,-0.6481748991699234,47.284820556640625,-0.007274034288194444,-0.12509918212890625
3701,-0.06615704918619782,0.3785157012939453,83.71615600585938,84.47309875488281,-8.717124938964844,89.28073120117188,-0.46555557250976565,0.288,0.32857142857142857,-0.006133863661024305,-4.163694994995119,0.13183200359344482,47.284820556640625,-0.008410474989149305,-0.14442062377929688
3702,-0.10912579918619782,0.41835948944091794,86.02790832519531,85.96653747558594,-8.246593475341797,88.0123291015625,-0.46555557250976565,0.284,0.3289285714285714,-0.01187099880642361,-4.570175784179689,1.5270540714263916,47.284820556640625,0.0006818983289930556,-0.12509913974338108
3703,-0.12475079918619782,0.39843757629394533,85.557373046875,84.90271759033203,-8.819416046142578,88.50332641601562,-0.46555557250976565,0.281,0.3292857142857143,-0.01235928005642361,-4.086792605468752,0.9228240251541138,47.284820556640625,0.0072739495171440975,-0.1369193606906467
3704,-0.10131329918619782,0.3785157012939453,84.5958480834961,84.80043029785156,-8.962623596191406,89.567138671875,-0.46555557250976565,0.277,0.33,-0.008819325764973959,-4.460316317626955,-0.4504267149658219,47.284820556640625,-0.002273135715060764,-0.15033069186740453
3705,-0.062250799186197824,0.438281364440918,84.28897857666016,83.552490234375,-8.594379425048828,88.48286437988281,-0.46555557250976565,0.27366666666666667,0.33035714285714285,-0.005309889051649305,-4.712994235107423,-0.7470480375976578,47.284820556640625,0.008183203803168403,-0.13419159783257378
3706,-0.07006329918619782,0.3785157012939453,85.43462371826172,83.85935974121094,-8.94216537475586,89.36256408691406,-0.46555557250976565,0.2713333333333333,0.3314285714285714,-0.005950758192274305,-3.845101016113283,-0.18676246936035312,47.284820556640625,0.017502933078342015,-0.14783032735188803
3707,-0.046625799186197824,0.438281364440918,81.32257080078125,79.27676391601562,-8.67620849609375,89.52622985839844,-0.46555557250976565,0.26666666666666666,0.33071428571428574,-0.005431959364149305,-4.229611056396486,-1.9994532042236344,47.284820556640625,0.022731187608506946,-0.14669375949435765
3708,0.008061700813802178,0.3785157012939453,85.96653747558594,85.90515899658203,-7.182777404785156,87.43951416015625,-0.46555557250976565,0.263,0.33,0.0023802863226996527,-3.6583391600341812,0.1867620050907135,47.284820556640625,0.0006819831000434028,-0.10691435072157118
3709,-0.042719549186197824,0.3187500762939453,76.80134582519531,82.24317932128906,-8.901248931884766,89.1170654296875,-0.46555557250976565,0.261,0.33,-0.003936682807074653,-2.504809039184572,-0.6591612272949234,47.284820556640625,-0.06046481662326389,-0.14464793735080295
3710,-0.058344549186197824,0.3187500762939453,86.98943328857422,79.82913208007812,-8.51254653930664,88.6669921875,-0.46555557250976565,0.25833333333333336,0.3296428571428571,-0.007018873426649305,-4.031862872192384,1.0986000299453735,47.284820556640625,0.07955890231662327,-0.13532820807562934
3711,-0.050532049186197824,0.3585938262939453,87.23492431640625,85.35279846191406,-8.185218811035156,88.1146240234375,-0.46555557250976565,0.25566666666666665,0.33,-0.005370924207899305,-4.833840029785158,2.1642420291900635,47.284820556640625,0.020912509494357637,-0.1255538092719184
3712,-0.058344549186197824,0.3585938262939453,86.13019561767578,87.03034973144531,-9.658195495605469,90.42637634277344,-0.46555557250976565,0.25233333333333335,0.33107142857142857,-0.004516516791449653,-4.888771670410158,1.8346620798110962,47.284820556640625,-0.010001712375217013,-0.16760635375976562
3713,-0.038813299186197824,0.39843757629394533,83.20470428466797,81.9976806640625,-8.614837646484375,88.33966064453125,-0.46555557250976565,0.24833333333333332,0.33214285714285713,-0.0021361456976996527,-6.097231524536134,0.5602860450744629,47.284820556640625,0.013411373562282987,-0.1328277587890625
3714,-0.019282049186197824,0.41835948944091794,86.41661071777344,82.97966003417969,-8.635292053222656,88.95339965820312,-0.46555557250976565,0.247,0.3339285714285714,0.0011595831976996527,-5.9214540892334,1.3732500076293945,47.284820556640625,0.038188340928819446,-0.13987435234917533
3715,-0.034907049186197824,0.41835948944091794,94.94759368896484,88.03279113769531,-8.696666717529297,88.97386169433594,-0.46555557250976565,0.24433333333333335,0.3342857142857143,0.000823974609375,-5.47102798754883,3.8231282234191895,47.284820556640625,0.07683113945855034,-0.14078364902072482
3716,-0.07006329918619782,0.45820323944091795,83.87982177734375,85.14820861816406,-8.778499603271484,89.0761489868164,-0.46555557250976565,0.24033333333333334,0.3342857142857143,-0.0032347785101996527,-4.899756091186525,0.6152160167694092,47.284820556640625,-0.014093187120225694,-0.14282942877875435
3717,-0.054438299186197824,0.438281364440918,84.5140151977539,83.08195495605469,-9.576362609863281,90.20133972167969,-0.46555557250976565,0.236,0.3339285714285714,-0.001312255859375,-5.075533526489259,-0.4614130430908219,47.284820556640625,0.015911780463324653,-0.16419669257269964
3718,-0.027094549186197824,0.41835948944091794,85.455078125,84.30943298339844,-9.208118438720703,89.6080551147461,-0.46555557250976565,0.23433333333333334,0.33321428571428574,0.0032042609320746527,-6.119202273437502,-0.4174677305908219,47.196929931640625,0.012729390462239584,-0.1535130394829644
3719,-0.046625799186197824,0.41835948944091794,84.73905181884766,84.14576721191406,-9.22857666015625,89.42393493652344,-0.46555557250976565,0.23033333333333333,0.3335714285714286,-0.00018310546875,-6.40483917529297,-0.49437012011718906,45.79069137573242,0.0065920511881510414,-0.15169457329644098
3720,-0.07787579918619782,0.438281364440918,81.75218200683594,82.9592056274414,-9.044452667236328,88.76927947998047,-0.46555557250976565,0.22566666666666665,0.3335714285714286,-0.005492994520399305,-5.789621966430666,-1.4171949797363297,45.79069137573242,-0.013411373562282987,-0.14237480163574218
3721,-0.07787579918619782,0.39843757629394533,83.90027618408203,82.73416900634766,-8.205677032470703,88.564697265625,-0.46555557250976565,0.22066666666666668,0.3335714285714286,-0.006225416395399305,-5.361168520996095,-1.2084604674072281,45.70280075073242,0.012956746419270833,-0.1307819366455078
3722,-0.07787579918619782,0.41835948944091794,84.18669128417969,83.4501953125,-8.553462982177734,88.93293762207031,-0.46555557250976565,0.21566666666666667,0.3335714285714286,-0.0077817281087239586,-4.702007906982423,-0.09887375170898594,45.70280075073242,0.00818328857421875,-0.13873778449164498
3723,-0.08178204918619782,0.478125114440918,85.25050354003906,85.72103881835938,-8.492088317871094,88.6056137084961,-0.46555557250976565,0.21133333333333335,0.33321428571428574,-0.009612782796223959,-4.559191363403322,-0.2636648588867203,45.70280075073242,-0.005228169759114583,-0.13441891140407985
3724,-0.07396954918619782,0.478125114440918,85.5982894897461,84.6572265625,-9.126285552978516,89.03523254394531,-0.46555557250976565,0.208,0.3325,-0.009093983968098959,-4.4163729124755875,-0.6042314940185562,45.70280075073242,0.010456254747178819,-0.1462390899658203
3725,-0.07006329918619782,0.45820323944091795,85.08683776855469,84.57539367675781,-9.126285552978516,89.91493225097656,-0.46555557250976565,0.206,0.3314285714285714,-0.008422597249348959,-4.998631136962892,-1.0986010008544937,45.70280075073242,0.005682712131076389,-0.15601353115505642
3726,-0.054438299186197824,0.478125114440918,84.26852416992188,84.08439636230469,-8.901248931884766,89.58760070800781,-0.46555557250976565,0.20333333333333334,0.33071428571428574,-0.008117421468098959,-5.800608294555666,-1.505081790039064,45.70280075073242,0.002045864529079861,-0.14987610710991753
3727,-0.046625799186197824,0.478125114440918,81.28164672851562,83.49111938476562,-8.553462982177734,88.89202880859375,-0.46555557250976565,0.202,0.33,-0.0075681050618489586,-5.866524355957033,-0.9118391447753922,45.70280075073242,-0.024549696180555556,-0.13828324211968315
3728,-0.062250799186197824,0.49804698944091796,86.559814453125,86.0688247680664,-8.962623596191406,89.36256408691406,-0.46555557250976565,0.19733333333333333,0.3289285714285714,-0.01095547146267361,-4.723980563232423,1.1095860004425049,45.70280075073242,0.005455440945095486,-0.1480576409233941
3729,-0.062250799186197824,0.5179688644409179,85.63920593261719,85.0050048828125,-8.921707153320312,89.71034240722656,-0.46555557250976565,0.19366666666666665,0.3271428571428571,-0.01071133083767361,-4.778910296508791,0.14281800389289856,45.70280075073242,0.007046678331163195,-0.1514672173394097
3730,-0.058344549186197824,0.5378907394409179,84.75950622558594,81.67034912109375,-8.717124938964844,88.99431610107422,-0.46555557250976565,0.191,0.32607142857142857,-0.01049770779079861,-4.987644808837892,0.8569080233573914,44.56023025512695,0.034323967827690975,-0.14123823377821182
3731,-0.09350079918619782,0.478125114440918,85.94607543945312,85.49600219726562,-9.98552131652832,89.66943359375,-0.46555557250976565,0.18966666666666668,0.3246428571428571,-0.013671451144748263,-4.449329989501955,2.065368175506592,42.89031982421875,0.0050008138020833336,-0.1628328323364258
3732,-0.11303204918619782,0.49804698944091796,81.83401489257812,83.0001220703125,-9.596820831298828,90.42637634277344,-0.46555557250976565,0.18566666666666667,0.32285714285714284,-0.016662089029947917,-5.306238787719728,0.6042300462722778,42.89031982421875,-0.012956746419270833,-0.16692441304524738
3733,-0.08178204918619782,0.5179688644409179,84.88226318359375,83.57295227050781,-9.16720199584961,89.26026916503906,-0.46555557250976565,0.183,0.32107142857142856,-0.01196255154079861,-6.185118334838869,1.2414180040359497,42.89031982421875,0.014547899034288195,-0.14919412400987414
3734,-0.06615704918619782,0.5179688644409179,86.39614868164062,85.25050354003906,-9.126285552978516,89.23981475830078,-0.46555557250976565,0.18,0.32,-0.008727773030598959,-5.756664889404298,1.735788106918335,42.71453857421875,0.012729390462239584,-0.14851222568088107
3735,-0.07396954918619782,0.5378907394409179,86.17111206054688,85.35279846191406,-8.839874267578125,89.0147705078125,-0.46555557250976565,0.176,0.3182142857142857,-0.008849843343098959,-5.130463259765627,2.0104379653930664,42.71453857421875,0.00909237331814236,-0.14282938639322917
3736,-0.06615704918619782,0.5976564025878907,84.90271759033203,83.75706481933594,-9.044452667236328,89.13752746582031,-0.46555557250976565,0.17133333333333334,0.3171428571428571,-0.007385084364149305,-4.723980563232423,0.8349360227584839,42.71453857421875,0.012729475233289931,-0.14646644592285157
3737,-0.062250799186197824,0.6375001525878906,86.47798156738281,86.47798156738281,-9.105827331542969,89.40347290039062,-0.46555557250976565,0.16733333333333333,0.31607142857142856,-0.007201978895399305,-4.658064501831056,1.0546560287475586,42.71453857421875,0.0,-0.15010333591037325
3738,-0.07006329918619782,0.6175782775878906,86.76439666748047,85.63920593261719,-9.126285552978516,89.54668426513672,-0.46555557250976565,0.165,0.3142857142857143,-0.007842763264973959,-4.800882952758791,1.0986000299453735,42.71453857421875,0.01250211927625868,-0.15192188686794705
3739,-0.07396954918619782,0.6574220275878906,84.37080383300781,85.57783508300781,-9.126285552978516,89.40347290039062,-0.46555557250976565,0.16166666666666665,0.3107142857142857,-0.008178456624348959,-4.855812686035158,0.2526780068874359,39.726280212402344,-0.013411458333333333,-0.15033064948187935
3740,-0.07396954918619782,0.5976564025878907,85.43462371826172,85.5164566040039,-9.494529724121094,90.2218017578125,-0.46555557250976565,0.15833333333333333,0.30857142857142855,-0.0078122456868489586,-4.702007906982423,-0.4614130430908219,39.462608337402344,-0.0009092542860243056,-0.1635147942437066
3741,-0.07396954918619782,0.5578126525878906,85.53691101074219,87.91004180908203,-8.901248931884766,88.93293762207031,-0.46555557250976565,0.156,0.3057142857142857,-0.007110426161024305,-5.229336398193361,-0.9777552061767594,39.462608337402344,-0.02636811998155382,-0.1426020728217231
3742,-0.06615704918619782,0.5777345275878907,84.90271759033203,81.8953857421875,-8.880790710449219,88.83065795898438,-0.46555557250976565,0.15133333333333332,0.30392857142857144,-0.007476637098524305,-4.932715075561525,-1.2743765288085953,39.462608337402344,0.033414798312717015,-0.14123831854926217
3743,-0.062250799186197824,0.5777345275878907,84.61630249023438,84.37080383300781,-8.839874267578125,88.76927947998047,-0.46555557250976565,0.14766666666666667,0.30178571428571427,-0.007903798421223959,-4.691023486206056,-1.0436712675781266,39.462608337402344,0.002727762858072917,-0.1401017083062066
3744,-0.06615704918619782,0.5777345275878907,84.73905181884766,84.20714569091797,-8.635292053222656,88.27828979492188,-0.46555557250976565,0.144,0.3,-0.008880360921223959,-4.581162112304689,-0.6701475554199234,40.69306945800781,0.0059100680881076385,-0.13237313164605036
3745,-0.06615704918619782,0.5777345275878907,83.65477752685547,83.75706481933594,-8.410255432128906,88.25782775878906,-0.46555557250976565,0.14,0.29892857142857143,-0.009612782796223959,-4.251581805297853,-0.823950427124025,40.69306945800781,-0.0011365254720052083,-0.12964536878797744
3746,-0.062250799186197824,0.5179688644409179,84.35034942626953,82.93875122070312,-8.062469482421875,88.50332641601562,-0.46555557250976565,0.13566666666666666,0.2985714285714286,-0.008453114827473959,-3.8011576109619156,-0.10986007983398594,41.39619064331055,0.015684424506293402,-0.12850884331597223
3747,-0.07396954918619782,0.5378907394409179,84.5140151977539,86.1097412109375,-7.960178375244141,87.88958740234375,-0.46555557250976565,0.13266666666666665,0.2978571428571429,-0.01080288357204861,-3.2957998686523453,1.8786060810089111,43.85710906982422,-0.017730289035373263,-0.1205529530843099
3748,-0.08959454918619782,0.5578126525878906,88.81019592285156,88.50332641601562,-8.16476058959961,88.54424285888672,-0.46555557250976565,0.129,0.29928571428571427,-0.01235928005642361,-3.1200243406982437,2.186213970184326,44.03289031982422,0.003409661187065972,-0.13010003831651476
3749,-0.10131329918619782,0.49804698944091796,87.43951416015625,89.54668426513672,-8.103385925292969,88.17599487304688,-0.46555557250976565,0.126,0.3003571428571429,-0.01171841091579861,-3.251856463500978,-0.5163427763671891,44.03289031982422,-0.023413001166449652,-0.12532645331488715
3750,-0.07396954918619782,0.5378907394409179,87.48042297363281,84.14576721191406,-8.819416046142578,89.91493225097656,-0.46555557250976565,0.12233333333333334,0.3,-0.008331044514973959,-3.1310106688232437,-1.9115644865722672,44.03289031982422,0.03705173068576389,-0.15260386996799044
3751,-0.08568829918619782,0.5777345275878907,82.71371459960938,84.45263671875,-7.612392425537109,88.0737075805664,-0.46555557250976565,0.11766666666666667,0.29892857142857143,-0.01275600857204861,-3.7572122984619156,-2.7245279722900406,44.91178894042969,-0.01932135687934028,-0.11873444451226128
3752,-0.10521954918619782,0.5777345275878907,87.35768127441406,87.43951416015625,-7.44873046875,87.31675720214844,-0.46555557250976565,0.11466666666666667,0.3,-0.01898134019639757,-2.7684732847900406,-0.812964098999025,44.99967956542969,-0.0009092542860243056,-0.10850541856553819
3753,-0.12084454918619782,0.5777345275878907,86.21202850341797,85.455078125,-8.430713653564453,88.564697265625,-0.46555557250976565,0.111,0.3,-0.02291802300347222,-2.3510042601318375,-1.0766283446044937,44.99967956542969,0.008410559760199653,-0.13328234354654947
3754,-0.11303204918619782,0.5578126525878906,82.52958679199219,85.08683776855469,-8.901248931884766,89.71034240722656,-0.46555557250976565,0.108,0.29964285714285716,-0.02276543511284722,-3.0870672636718766,-1.9774805479736344,45.17546081542969,-0.028413899739583335,-0.15123990376790364
3755,-0.09350079918619782,0.5378907394409179,81.4453125,83.24562072753906,-7.060028076171875,86.98943328857422,-0.46555557250976565,0.106,0.3,-0.01980531480577257,-2.933262484619142,-2.1202989989013687,45.17546081542969,-0.020003424750434026,-0.10054957071940104
3756,-0.08568829918619782,0.5578126525878906,88.42149353027344,80.83157348632812,-7.571479797363281,88.05325317382812,-0.46555557250976565,0.103,0.3003571428571429,-0.02020204332139757,-1.6479002409667984,-0.18676246936035312,45.17546081542969,0.0843324449327257,-0.1180525885687934
3757,-0.11693829918619782,0.49804698944091796,85.33233642578125,85.84378051757812,-8.94216537475586,89.30118560791016,-0.46555557250976565,0.099,0.3007142857142857,-0.024657440185546876,-1.6149431639404312,0.45042601227760315,45.17546081542969,-0.005682712131076389,-0.14714834425184461
3758,-0.08959454918619782,0.5179688644409179,82.81600189208984,82.20226287841797,-8.492088317871094,88.58515930175781,-0.46555557250976565,0.09866666666666667,0.29964285714285716,-0.02090394761827257,-2.526779788085939,-0.3295809202880875,45.17546081542969,0.006819322374131944,-0.13419164021809896
3759,-0.08568829918619782,0.49804698944091796,89.26026916503906,87.39859008789062,-8.614837646484375,88.64653015136719,-0.46555557250976565,0.09666666666666666,0.3,-0.01916444566514757,-2.493822711059572,1.8456480503082275,45.26335144042969,0.020685323079427085,-0.13623741997612848
3760,-0.10521954918619782,0.5179688644409179,76.67860412597656,77.9879150390625,-8.246593475341797,88.54424285888672,-0.46555557250976565,0.09333333333333334,0.3003571428571429,-0.02279595269097222,-2.7355143004150406,0.36253800988197327,45.26335144042969,-0.014547899034288195,-0.13100929260253907
3761,-0.07787579918619782,0.5378907394409179,89.52622985839844,90.0785903930664,-8.614837646484375,88.564697265625,-0.46555557250976565,0.091,0.30107142857142855,-0.016845194498697917,-2.186215060302736,2.746500015258789,45.26335144042969,-0.006137339274088541,-0.13532816569010417
3762,-0.07396954918619782,0.438281364440918,91.79705810546875,87.25538635253906,-8.553462982177734,88.78973388671875,-0.46555557250976565,0.08733333333333333,0.30107142857142855,-0.01184048122829861,-2.559738772460939,3.2738280296325684,45.26335144042969,0.05046301947699653,-0.1371466318766276
3763,-0.10131329918619782,0.438281364440918,86.08927917480469,81.97721862792969,-8.16476058959961,88.74882507324219,-0.46555557250976565,0.08533333333333333,0.3032142857142857,-0.014525943332248263,-3.812142031738283,2.823402166366577,46.054359436035156,0.045689561631944445,-0.13237317403157553
3764,-0.10131329918619782,0.45820323944091795,86.90760040283203,83.92073059082031,-7.019111633300781,86.33477783203125,-0.46555557250976565,0.08333333333333333,0.305,-0.01312221950954861,-3.7462259703369156,1.6808580160140991,47.54848861694336,0.03318744235568576,-0.0928209940592448
3765,-0.07787579918619782,0.5378907394409179,86.90760040283203,86.5188980102539,-9.719566345214844,89.93538665771484,-0.46555557250976565,0.079,0.3067857142857143,-0.009399159749348959,-2.7684732847900406,1.3732500076293945,47.72426986694336,0.0043189154730902775,-0.1628328111436632
3766,-0.10912579918619782,0.45820323944091795,85.23004150390625,84.69813537597656,-8.38979721069336,89.17843627929688,-0.46555557250976565,0.07566666666666666,0.30714285714285716,-0.01281704372829861,-3.845101016113283,0.5712720155715942,47.72426986694336,0.0059100680881076385,-0.13964703877766926
3767,-0.10912579918619782,0.438281364440918,84.47309875488281,83.69569396972656,-8.082927703857422,87.19401550292969,-0.46555557250976565,0.07233333333333333,0.3075,-0.01238979763454861,-3.4276319914550797,-0.6152159147949234,47.72426986694336,0.008637830946180555,-0.1141882578531901
3768,-0.08178204918619782,0.478125114440918,84.6572265625,83.83889770507812,-7.489646911621094,87.72592163085938,-0.46555557250976565,0.069,0.3082142857142857,-0.009887440999348959,-3.3067861967773453,-1.0436712675781266,47.72426986694336,0.009092542860243056,-0.11350631713867188
3769,-0.07396954918619782,0.438281364440918,85.82332611083984,85.65966796875,-9.126285552978516,88.78973388671875,-0.46555557250976565,0.06566666666666666,0.30857142857142855,-0.008056386311848959,-2.3290335112304703,-0.4614130430908219,47.72426986694336,0.0018184238009982638,-0.1435113271077474
3770,-0.058344549186197824,0.41835948944091794,84.71859741210938,85.14820861816406,-8.16476058959961,88.62606811523438,-0.46555557250976565,0.062,0.30857142857142855,-0.006133863661024305,-3.2957998686523453,-0.8898664885253922,47.72426986694336,-0.004773457845052083,-0.13100920783148873
3771,-0.038813299186197824,0.41835948944091794,82.89783477783203,81.8953857421875,-6.875904083251953,87.39859008789062,-0.46555557250976565,0.060333333333333336,0.3107142857142857,-0.004272376166449653,-3.6583391600341812,-0.9557825499267594,47.72426986694336,0.01113832261827257,-0.10304993523491754
3772,-0.062250799186197824,0.41835948944091794,90.09904479980469,87.80775451660156,-8.553462982177734,88.52378845214844,-0.46555557250976565,0.057666666666666665,0.31214285714285717,-0.007934315999348959,-2.515795367309572,0.5053560137748718,47.72426986694336,0.025458780924479167,-0.13419168260362413
3773,-0.11693829918619782,0.3585938262939453,82.61141967773438,86.68256378173828,-8.614837646484375,89.09660339355469,-0.46555557250976565,0.05433333333333333,0.31357142857142856,-0.013824039035373263,-2.7574869566650406,-0.5492998533935562,47.72426986694336,-0.045234934488932295,-0.14123823377821182
3774,-0.13256329918619783,0.3785157012939453,85.0050048828125,83.73661041259766,-8.287506103515625,88.17599487304688,-0.46555557250976565,0.050333333333333334,0.31535714285714284,-0.017516581217447917,-3.262842791625978,0.48338401317596436,47.72426986694336,0.014093271891276042,-0.12737223307291667
3775,-0.11303204918619782,0.33867195129394534,85.20958709716797,89.28073120117188,-8.287506103515625,88.54424285888672,-0.46555557250976565,0.04833333333333333,0.3182142857142857,-0.01266445583767361,-3.4276319914550797,0.010986000299453735,47.72426986694336,-0.045234934488932295,-0.13146387736002604
3776,-0.06615704918619782,0.3585938262939453,84.43218231201172,83.69569396972656,-8.758041381835938,89.32164001464844,-0.46555557250976565,0.045,0.32,-0.007354566786024305,-3.8011576109619156,0.29662200808525085,47.72426986694336,0.008183203803168403,-0.14532979329427084
3777,-0.06615704918619782,0.29882820129394533,88.91248321533203,87.03034973144531,-8.614837646484375,88.64653015136719,-0.46555557250976565,0.042333333333333334,0.3217857142857143,-0.005981275770399305,-4.218624728271486,1.2743760347366333,47.72426986694336,0.020912594265407987,-0.13623741997612848
3778,-0.07396954918619782,0.41835948944091794,83.18424987792969,84.08439636230469,-7.878349304199219,87.43951416015625,-0.46555557250976565,0.037,0.32285714285714284,-0.008117421468098959,-4.844826357910158,0.24169200658798218,47.72426986694336,-0.010001627604166667,-0.11464292738172743
3779,-0.09740704918619782,0.3785157012939453,82.9592056274414,81.67034912109375,-8.492088317871094,88.95339965820312,-0.46555557250976565,0.035,0.3242857142857143,-0.01116909450954861,-4.4163729124755875,-1.2743765288085953,47.72426986694336,0.014320627848307291,-0.13828319973415798
3780,-0.09740704918619782,0.41835948944091794,90.671875,77.80378723144531,-8.001094818115234,87.99187469482422,-0.46555557250976565,0.030666666666666665,0.32392857142857145,-0.013732486300998263,-4.042849200317384,1.6918439865112305,47.81216049194336,0.14297875298394097,-0.12214410569932725
3781,-0.13256329918619783,0.41835948944091794,84.73905181884766,84.14576721191406,-8.38979721069336,88.81019592285156,-0.46555557250976565,0.025666666666666667,0.3246428571428571,-0.016723124186197917,-3.559464114257814,1.263390064239502,47.81216049194336,0.0065920511881510414,-0.13555547926161024
3782,-0.09350079918619782,0.41835948944091794,89.23981475830078,76.63768005371094,-8.38979721069336,87.39859008789062,-0.46555557250976565,0.023333333333333334,0.3246428571428571,-0.01141323513454861,-3.559464114257814,1.2853620052337646,47.81216049194336,0.14002371893988716,-0.1198709699842665
3783,-0.09350079918619782,0.39843757629394533,90.38545989990234,83.61386108398438,-9.45361328125,89.93538665771484,-0.46555557250976565,0.019333333333333334,0.32392857142857145,-0.009521230061848959,-3.548477786132814,1.8456480503082275,47.81216049194336,0.07523998684353299,-0.15987777709960938
3784,-0.08959454918619782,0.41835948944091794,86.90760040283203,85.14820861816406,-9.146743774414062,90.1195068359375,-0.46555557250976565,0.017666666666666667,0.32285714285714284,-0.008483632405598959,-3.6583391600341812,0.6042300462722778,47.81216049194336,0.019548797607421876,-0.15851389567057292
3785,-0.08178204918619782,0.41835948944091794,84.554931640625,84.77996826171875,-9.064910888671875,89.68988800048828,-0.46555557250976565,0.013,0.32142857142857145,-0.0076291402180989586,-3.174954073974611,-0.3295809202880875,47.81216049194336,-0.0025004069010416668,-0.1528310987684462
3786,-0.10521954918619782,0.2789063262939453,88.6056137084961,90.44683837890625,-7.735141754150391,88.91248321533203,-0.46555557250976565,0.010666666666666666,0.32071428571428573,-0.006774732801649305,-2.3839632445068375,-0.6811319761962906,46.318031311035156,-0.02045805189344618,-0.12941805521647134
3787,-0.08959454918619782,0.3585938262939453,85.84378051757812,80.01325988769531,-7.960178375244141,88.1146240234375,-0.46555557250976565,0.005,0.3192857142857143,-0.008453114827473959,-1.7028299742431656,-0.8898664885253922,27.861129760742188,0.06478356255425347,-0.12305335998535157
3788,-0.10131329918619782,0.3187500762939453,85.65966796875,85.53691101074219,-7.469188690185547,87.68500518798828,-0.46555557250976565,0.0036666666666666666,0.3157142857142857,-0.008941396077473959,-1.3732515745849625,-0.9557825499267594,27.245899200439453,0.0013639662000868055,-0.11282437642415365
3789,-0.07396954918619782,0.3187500762939453,85.5982894897461,82.01814270019531,-9.330867767333984,88.74882507324219,-0.46555557250976565,0.0006666666666666666,0.30964285714285716,-0.006530592176649305,-0.2746511870117203,-0.812964098999025,27.158010482788086,0.039779408772786455,-0.14532992045084636
3790,-0.058344549186197824,0.29882820129394533,87.37813568115234,87.562255859375,-5.853004455566406,85.68012237548828,-0.46555557250976565,0.0016666666666666668,0.30357142857142855,-0.004211341010199653,-1.2304331236572281,-0.9447962218017594,26.982229232788086,-0.002045779758029514,-0.07259029812282985
3791,-0.015375799186197822,0.3785157012939453,87.37813568115234,85.41416931152344,-6.609951019287109,86.84622192382812,-0.46555557250976565,-0.001,0.29678571428571426,0.0003662109375,-0.6371885710449234,-0.7360617094726578,26.982229232788086,0.02182184855143229,-0.09395747714572483
3792,-0.023188299186197824,0.3187500762939453,87.64408874511719,87.43951416015625,-4.564151763916016,84.5958480834961,-0.46555557250976565,0.0,0.2925,-0.0,0.3954960107803345,-2.0324102812500016,26.982229232788086,0.0022730509440104167,-0.046222220526801215
