,WD,WS,AIL_1,AIL_2,ELEV_1,ELEV_2,RUDD,ALT,GS,TH,PTCH,ROLL,PLA_1,AIL,ELEV
5764,-0.46889818638102215,0.17929691314697266,86.27340698242188,85.43462371826172,-6.528118133544922,87.31675720214844,-0.4050908406575521,0.7526666666666667,0.5546428571428571,-0.004485956827799479,-2.6805845671386734,0.4284540116786957,32.34352111816406,0.009319814046223958,-0.0982763926188151
5765,-0.47280443638102215,0.19921878814697266,85.41416931152344,85.27096557617188,-6.7531585693359375,87.43951416015625,-0.405318111843533,0.7473333333333333,0.5525,-0.004913192325168186,-2.6036821776123062,-0.7140909605712906,32.34352111816406,0.001591152615017361,-0.10214080810546874
5766,-0.46889818638102215,0.17929691314697266,84.0434799194336,83.5115737915039,-6.875904083251953,87.64408874511719,-0.40463621351453993,0.742,0.5507142857142857,-0.004882674747043186,-2.823403018066408,-0.9447962218017594,32.34352111816406,0.0059100680881076385,-0.10577769809299045
5767,-0.47280443638102215,0.15937503814697265,84.1048583984375,83.26608276367188,-6.773616790771484,87.54179382324219,-0.4041815863715278,0.7363333333333333,0.5478571428571428,-0.004241816202799479,-2.966221468994142,0.0,32.34352111816406,0.009319729275173612,-0.10350456237792968
5768,-0.47280443638102215,0.15937503814697265,85.76194763183594,84.08439636230469,-6.650867462158203,87.41905212402344,-0.40463621351453993,0.7306666666666667,0.5467857142857143,-0.0035399330986870658,-2.922276156494142,0.8898659944534302,32.34352111816406,0.018639458550347224,-0.10077688429090711
5769,-0.47280443638102215,0.15937503814697265,85.80287170410156,84.71859741210938,-6.5894927978515625,87.37813568115234,-0.4050908406575521,0.725,0.5442857142857143,-0.0031737327575683595,-2.845373766967775,0.7690200209617615,32.34352111816406,0.012047492133246528,-0.09964031643337673
5770,-0.47280443638102215,0.15937503814697265,85.57783508300781,84.96409606933594,-6.507663726806641,87.31675720214844,-0.40486348470052086,0.7193333333333334,0.5428571428571428,-0.0028380499945746527,-2.834389346191408,0.17577600479125977,32.34352111816406,0.006819322374131944,-0.0980491214328342
5771,-0.46108568638102215,0.15937503814697265,84.32989501953125,83.67523193359375,-6.343997955322266,87.13264465332031,-0.40440889994303386,0.713,0.5421428571428571,-0.0028990851508246527,-2.867346423217775,0.05493000149726868,32.34352111816406,0.007274034288194444,-0.09418491787380642
5772,-0.46108568638102215,0.15937503814697265,84.90271759033203,83.98210144042969,-6.262165069580078,87.05081176757812,-0.4039542728000217,0.7073333333333334,0.5410714285714285,-0.0027770254347059464,-2.812416689941408,0.4064820110797882,32.34352111816406,0.010229068332248265,-0.09236640930175781
5773,-0.45717943638102215,0.15937503814697265,85.557373046875,84.69813537597656,-6.2007904052734375,86.98943328857422,-0.40463621351453993,0.7016666666666667,0.5410714285714285,-0.0028685675726996527,-2.7245279722900406,0.20873400568962097,32.34352111816406,0.009547085232204862,-0.09100248548719618
5774,-0.45327318638102215,0.15937503814697265,84.57539367675781,84.32989501953125,-6.262165069580078,87.1121826171875,-0.40440889994303386,0.696,0.54,-0.0029601203070746527,-2.7025572233886734,-0.3076082640380875,32.34352111816406,0.002727762858072917,-0.09304830763075086
5775,-0.44155443638102215,0.15937503814697265,84.47309875488281,83.12287139892578,-6.282623291015625,87.15309143066406,-0.40440889994303386,0.6906666666666667,0.5392857142857143,-0.0024413426717122396,-2.7794596129150406,0.09887400269508362,32.34352111816406,0.015002526177300347,-0.09373016357421875
5776,-0.45327318638102215,0.15937503814697265,86.04837036132812,85.08683776855469,-6.282623291015625,87.17355346679688,-0.40486348470052086,0.685,0.5385714285714286,-0.0023192723592122396,-2.823403018066408,0.4284540116786957,32.34352111816406,0.010683695475260416,-0.09395751953125
5777,-0.46499193638102215,0.15937503814697265,85.70057678222656,84.92317199707031,-6.262165069580078,87.13264465332031,-0.4039542728000217,0.6786666666666666,0.5382142857142858,-0.0032652854919433595,-2.878332751342775,-0.2307058745117203,32.34352111816406,0.008637830946180555,-0.09327566358778212
5778,-0.46499193638102215,0.15937503814697265,85.0459213256836,84.37080383300781,-6.159877777099609,86.98943328857422,-0.40486348470052086,0.6733333333333333,0.5375,-0.0035094261169433595,-2.801430361816408,-0.845923083374025,32.34352111816406,0.007501305474175347,-0.0905479007297092
5779,-0.47280443638102215,0.15937503814697265,84.22760009765625,83.63432312011719,-6.098503112792969,86.88714599609375,-0.4039542728000217,0.6673333333333333,0.5371428571428571,-0.0038145913018120658,-2.548752444335939,-0.7250772886962906,32.34352111816406,0.006591966417100695,-0.08872943454318577
5780,-0.48061693638102215,0.15937503814697265,85.20958709716797,83.94119262695312,-6.098503112792969,86.84622192382812,-0.40440889994303386,0.6613333333333333,0.5360714285714285,-0.0039671685960557725,-2.3070608549804703,-0.2416922026367203,32.34352111816406,0.014093271891276042,-0.08827472262912327
5781,-0.47671068638102215,0.15937503814697265,85.5164566040039,84.77996826171875,-6.098503112792969,86.84622192382812,-0.40440889994303386,0.6556666666666666,0.535,-0.004455439249674479,-2.1312853270263687,-0.5163427763671891,32.34352111816406,0.008183203803168403,-0.08827472262912327
5782,-0.46889818638102215,0.15937503814697265,84.98455047607422,84.39126586914062,-6.159877777099609,87.03034973144531,-0.4050908406575521,0.6503333333333333,0.5339285714285714,-0.004424921671549479,-2.197201388427736,-1.1864878111572281,32.34352111816406,0.0065920511881510414,-0.09100252787272135
5783,-0.45327318638102215,0.13945316314697265,83.5934066772461,83.16378784179688,-6.2007904052734375,87.17355346679688,-0.40463621351453993,0.646,0.5328571428571428,-0.004241816202799479,-2.4169203215332047,-0.9777552061767594,32.34352111816406,0.004773542616102431,-0.09304826524522569
5784,-0.46108568638102215,0.13945316314697265,85.29141998291016,83.5115737915039,-6.221248626708984,87.21446990966797,-0.4039542728000217,0.642,0.5314285714285715,-0.004394404093424479,-2.570725100585939,0.19774800539016724,32.34352111816406,0.01977606879340278,-0.09373020595974392
5785,-0.44936693638102215,0.13945316314697265,84.82088470458984,84.5958480834961,-6.241706848144531,87.19401550292969,-0.40440889994303386,0.6363333333333333,0.53,-0.005004734463161893,-2.6805845671386734,0.0,32.34352111816406,0.0025004069010416668,-0.0937302483452691
5786,-0.44546068638102215,0.13945316314697265,84.71859741210938,84.0434799194336,-6.384914398193359,87.33721923828125,-0.40372695922851565,0.6303333333333333,0.5267857142857143,-0.005309899648030599,-2.7465006285400406,-0.07690300280761875,32.34352111816406,0.007501305474175347,-0.09691259596082899
5787,-0.43374193638102215,0.13945316314697265,84.06393432617188,83.4501953125,-7.244148254394531,87.72592163085938,-0.4034996456570096,0.625,0.5242857142857142,-0.005126804775661893,-2.856360095092775,0.08788800239562988,32.34352111816406,0.006819322374131944,-0.11077855428059896
5788,-0.40639818638102215,0.1195312786102295,83.98210144042969,83.0001220703125,-7.898807525634766,88.42149353027344,-0.4039542728000217,0.6206666666666667,0.5189285714285714,-0.0037230385674370658,-3.4496046477050797,0.7800060510635376,32.34352111816406,0.010910881890190972,-0.1257811228434245
5789,-0.39077318638102215,0.1195312786102295,84.88226318359375,83.94119262695312,-8.696666717529297,88.95339965820312,-0.4055454254150391,0.617,0.5153571428571428,-0.0025634023878309464,-4.130736010620119,1.4171940088272095,32.34352111816406,0.010456339518229166,-0.14055629306369358
5790,-0.40639818638102215,0.1195312786102295,85.80287170410156,84.84133911132812,-9.330867767333984,89.40347290039062,-0.4039542728000217,0.6136666666666667,0.5089285714285714,-0.0019530720180935329,-4.954685824462892,1.4171940088272095,32.34352111816406,0.010683695475260416,-0.1526037851969401
5791,-0.41421068638102215,0.1195312786102295,84.61630249023438,84.30943298339844,-9.924148559570312,90.03767395019531,-0.40259039137098523,0.6106666666666667,0.505,-0.0021056493123372396,-5.756664889404298,1.1095860004425049,32.34352111816406,0.003409661187065972,-0.16624247233072917
5792,-0.44155443638102215,0.1195312786102295,83.75706481933594,83.63432312011719,-9.28995132446289,89.62850952148438,-0.4030450185139974,0.6056666666666667,0.49892857142857144,-0.001983589596218533,-6.218077319213869,1.0876140594482422,32.34352111816406,0.0013637966579861111,-0.15464956495496962
5793,-0.43764818638102215,0.09960939407348633,84.45263671875,82.85691833496094,-9.126285552978516,89.40347290039062,-0.40440889994303386,0.6003333333333334,0.49607142857142855,-0.0,-6.009342806884767,1.6369140148162842,32.34352111816406,0.017730204264322917,-0.15033064948187935
5794,-0.41811693638102215,0.1195312786102295,86.17111206054688,85.78240966796875,-9.085369110107422,89.40347290039062,-0.401908450656467,0.5933333333333334,0.49142857142857144,-0.0007629182603624132,-5.9214540892334,1.7028300762176514,32.25563049316406,0.0043189154730902775,-0.14987602233886718
5795,-0.41421068638102215,0.09960939407348633,85.31187438964844,84.49356079101562,-8.983078002929688,89.13752746582031,-0.4071366204155816,0.588,0.48857142857142855,0.0018615086873372396,-5.855538027832033,0.790992021560669,32.25563049316406,0.00909237331814236,-0.14578450520833333
5796,-0.36342943638102215,0.1195312786102295,85.5982894897461,84.5958480834961,-8.921707153320312,89.0147705078125,-0.4041815863715278,0.5816666666666667,0.48428571428571426,0.0023497793409559464,-5.646805422851564,0.4394400119781494,32.25563049316406,0.011138237847222222,-0.14373864067925346
5797,-0.33217943638102215,0.09960939407348633,84.84133911132812,84.73905181884766,-8.860332489013672,88.87156677246094,-0.4039542728000217,0.576,0.48142857142857143,0.0029601097106933595,-5.350182192871095,-0.14281906420898594,32.25563049316406,0.0011365254720052083,-0.1414655473497179
5798,-0.28139818638102215,0.09960939407348633,85.84378051757812,84.82088470458984,-8.860332489013672,88.95339965820312,-0.40577273898654515,0.5703333333333334,0.47714285714285715,0.004791111416286893,-5.119476931640627,-0.15380539233398594,32.25563049316406,0.011365509033203125,-0.14237480163574218
5799,-0.26186693638102215,0.07968751907348633,85.86424255371094,84.92317199707031,-8.860332489013672,89.05569458007812,-0.40645467970106336,0.5653333333333334,0.4742857142857143,0.005218346913655599,-5.163420336791994,-0.18676246936035312,32.25563049316406,0.010456339518229166,-0.14351141187879773
5800,-0.25796068638102215,0.09960939407348633,84.20714569091797,84.69813537597656,-8.839874267578125,88.91248321533203,-0.4021357642279731,0.56,0.47,0.0036619928148057725,-5.130463259765627,-0.48338379199218906,32.25563049316406,-0.005455440945095486,-0.14169286092122396
5801,-0.23061693638102215,0.07968751907348633,84.35034942626953,83.1024169921875,-8.778499603271484,88.91248321533203,-0.4060000525580512,0.555,0.46714285714285714,0.005035241444905599,-4.987644808837892,-0.3405672484130875,32.25563049316406,0.013865915934244792,-0.14101092020670572
5802,-0.22671068638102215,0.09960939407348633,86.15065002441406,85.16867065429688,-8.635292053222656,88.81019592285156,-0.40440889994303386,0.5493333333333333,0.4625,0.005065759023030599,-4.943701403686525,0.3076080083847046,32.25563049316406,0.010910881890190972,-0.13828319973415798
5803,-0.21889818638102215,0.09960939407348633,85.80287170410156,85.5164566040039,-8.430713653564453,88.58515930175781,-0.40372695922851565,0.544,0.45964285714285713,0.004119745890299479,-4.712994235107423,-0.10986007983398594,32.25563049316406,0.0031823900010850693,-0.13350969950358074
5804,-0.17592943638102215,0.09960939407348633,84.63676452636719,84.06393432617188,-8.369338989257812,88.564697265625,-0.4062273661295573,0.5393333333333333,0.45607142857142857,0.005340417226155599,-4.4163729124755875,-0.3954969816894547,32.25563049316406,0.006364780002170139,-0.13260040283203126
5805,-0.14858565860324435,0.09960939407348633,84.86180114746094,84.1048583984375,-8.267051696777344,88.54424285888672,-0.40440889994303386,0.5343333333333333,0.45321428571428574,0.006255912780761719,-4.218624728271486,-0.03295769030761875,32.25563049316406,0.008410474989149305,-0.13123660617404515
5806,-0.14858565860324435,0.09960939407348633,85.94607543945312,85.0050048828125,-8.185218811035156,88.46240997314453,-0.4050908406575521,0.5296666666666666,0.44892857142857145,0.005950747595893012,-4.097778933593752,0.3954960107803345,32.25563049316406,0.010456339518229166,-0.12941809760199652
5807,-0.14858565860324435,0.1195312786102295,85.72103881835938,85.47554016113281,-8.185218811035156,88.38057708740234,-0.40463621351453993,0.525,0.44571428571428573,0.005645582411024305,-3.954960482666017,0.06591600179672241,32.25563049316406,0.002727762858072917,-0.12850884331597223
5808,-0.09389815860324435,0.1195312786102295,84.37080383300781,84.12531280517578,-8.103385925292969,88.36012268066406,-0.40577273898654515,0.521,0.4417857142857143,0.007446066538492838,-3.823128359863283,-0.3185945921630875,32.25563049316406,0.0027276780870225696,-0.12737231784396702
5809,-0.05092940860324436,0.09960939407348633,86.02790832519531,84.61630249023438,-8.103385925292969,88.33966064453125,-0.40668199327256943,0.5166666666666667,0.43857142857142856,0.009307575225830079,-3.7132688933105484,0.35155200958251953,32.25563049316406,0.01568450927734375,-0.12714496188693578
5810,-0.07046065860324435,0.1195312786102295,86.78485107421875,86.15065002441406,-8.062469482421875,88.31919860839844,-0.4041815863715278,0.5126666666666667,0.4342857142857143,0.008788797590467665,-3.7242552214355484,0.5932440161705017,32.25563049316406,0.007046678331163195,-0.12646297878689236
5811,-0.11733565860324435,0.1195312786102295,86.02790832519531,85.76194763183594,-8.001094818115234,88.19645690917969,-0.40259039137098523,0.5086666666666667,0.4317857142857143,0.007385031382242838,-3.7572122984619156,-0.3515516691894547,32.25563049316406,0.0029551188151041665,-0.12441724141438802
5812,-0.05874190860324436,0.1195312786102295,85.92561340332031,85.06637573242188,-7.735141754150391,88.0737075805664,-0.40850050184461806,0.5043333333333333,0.4282142857142857,0.008880350324842665,-3.603409426757814,-1.0656420164794937,32.25563049316406,0.009547085232204862,-0.12009832594129774
5813,-0.07046065860324435,0.1195312786102295,85.33233642578125,85.06637573242188,-7.7555999755859375,87.97142028808594,-0.4039542728000217,0.5003333333333333,0.4253571428571429,0.007629161410861545,-3.4386183195800797,-1.1974741392822281,32.25563049316406,0.0029551188151041665,-0.11918911404079861
5814,-0.09389815860324435,0.13945316314697265,84.92317199707031,84.75950622558594,-7.653308868408203,87.91004180908203,-0.4028177049424913,0.49566666666666664,0.42142857142857143,0.005431959364149305,-3.4276319914550797,-1.2853628569335953,32.25563049316406,0.001818508572048611,-0.11737056308322483
5815,-0.06655440860324435,0.13945316314697265,83.32745361328125,83.28652954101562,-7.5919342041015625,87.76683807373047,-0.40463621351453993,0.49166666666666664,0.41928571428571426,0.005981265174018012,-3.3287588530273453,-1.142544406005861,32.25563049316406,0.0004547119140625,-0.11509746975368923
5816,-0.007960658603244358,0.13945316314697265,84.96409606933594,83.63432312011719,-7.5305633544921875,87.80775451660156,-0.40759124755859377,0.48733333333333334,0.41535714285714287,0.008025879330105252,-3.174954073974611,0.04394400119781494,32.25563049316406,0.014775254991319445,-0.11487019856770833
5817,-0.04311690860324436,0.13945316314697265,85.53691101074219,85.12775421142578,-7.5305633544921875,87.68500518798828,-0.40236307779947916,0.4836666666666667,0.4125,0.006683148278130426,-3.1419969969482437,0.6152160167694092,32.25563049316406,0.00454618665907118,-0.11350631713867188
5818,-0.04311690860324436,0.15937503814697265,85.1072998046875,84.98455047607422,-7.305522918701172,87.43951416015625,-0.40486348470052086,0.47933333333333333,0.4089285714285714,0.0068662431504991316,-3.0870672636718766,0.5273280143737793,32.25563049316406,0.0013638814290364584,-0.10827818976508247
5819,-0.03530440860324436,0.15937503814697265,85.27096557617188,84.554931640625,-7.264606475830078,87.35768127441406,-0.40577273898654515,0.4746666666666667,0.4067857142857143,0.007568126254611545,-2.911289828369142,0.4394400119781494,32.25563049316406,0.0079559326171875,-0.10691430833604601
5820,-0.03139815860324436,0.15937503814697265,84.77996826171875,84.30943298339844,-7.162319183349609,87.25538635253906,-0.40463621351453993,0.4706666666666667,0.4032142857142857,0.008056396908230252,-2.7794596129150406,0.373524010181427,32.25563049316406,0.005228169759114583,-0.10464117262098524
5821,-0.004054408603244358,0.13945316314697265,85.80287170410156,84.6572265625,-7.285064697265625,87.25538635253906,-0.4071366204155816,0.4663333333333333,0.40035714285714286,0.009765328301323786,-2.834389346191408,0.6152160167694092,32.25563049316406,0.012729390462239584,-0.10600501166449652
5822,-0.004054408603244358,0.13945316314697265,86.76439666748047,86.33477783203125,-7.612392425537109,87.86912536621094,-0.405318111843533,0.463,0.3960714285714286,0.01007049348619249,-3.185940402099611,0.38451001048088074,32.25563049316406,0.004773542616102431,-0.11646130879720053
5823,-0.011866908603244358,0.13945316314697265,84.84133911132812,85.0459213256836,-8.103385925292969,88.6056137084961,-0.405318111843533,0.46066666666666667,0.39285714285714285,0.009826363457573786,-3.90003074938965,-0.4284540587158219,32.25563049316406,-0.002273135715060764,-0.1300999959309896
5824,-0.004054408603244358,0.1195312786102295,84.82088470458984,84.37080383300781,-8.696666717529297,89.40347290039062,-0.4050908406575521,0.4583333333333333,0.3871428571428571,0.009887398613823786,-5.020601885864259,-0.5163427763671891,32.25563049316406,0.00500089857313368,-0.14555710686577691
5825,-0.019679408603244356,0.1195312786102295,85.18913269042969,84.63676452636719,-8.73758316040039,89.50576782226562,-0.4028177049424913,0.456,0.38321428571428573,0.008910857306586372,-6.097231524536134,-0.10986007983398594,32.25563049316406,0.006137424045138889,-0.14714834425184461
5826,-0.06655440860324435,0.09960939407348633,85.49600219726562,84.0434799194336,-8.778499603271484,89.42393493652344,-0.40168113708496095,0.45266666666666666,0.3782142857142857,0.0069883134629991316,-6.833292620727541,0.04394400119781494,32.25563049316406,0.0161391364203559,-0.14669371710883247
5827,-0.07436690860324435,0.1195312786102295,84.77996826171875,84.37080383300781,-8.267051696777344,89.1579818725586,-0.40486348470052086,0.448,0.375,0.006255912780761719,-7.371607440063478,-0.16478981311035312,32.25563049316406,0.004546271430121528,-0.13805592854817708
5828,-0.03530440860324436,0.1195312786102295,83.36836242675781,81.85447692871094,-7.878349304199219,88.50332641601562,-0.40668199327256943,0.44333333333333336,0.37107142857142855,0.007842773861355252,-7.107943194458009,-0.3515516691894547,32.25563049316406,0.01682094997829861,-0.1264630635579427
5829,-0.027491908603244356,0.09960939407348633,84.39126586914062,83.34790802001953,-7.489646911621094,87.84866333007812,-0.40259039137098523,0.43766666666666665,0.3692857142857143,0.007903809017605252,-6.38286651904297,0.48338401317596436,32.25563049316406,0.011592864990234375,-0.11487011379665799
5830,-0.06655440860324435,0.09960939407348633,85.86424255371094,85.02546691894531,-7.3668975830078125,87.66455078125,-0.4034996456570096,0.43233333333333335,0.3657142857142857,0.006622113121880426,-5.712721484252931,0.6262019872665405,32.25563049316406,0.009319729275173612,-0.11146053738064236
5831,-0.10561690860324435,0.1195312786102295,84.96409606933594,85.12775421142578,-7.223690032958984,87.5213394165039,-0.405318111843533,0.42733333333333334,0.3628571428571429,0.004608016543918186,-5.350182192871095,-0.10986007983398594,32.25563049316406,-0.0018184238009982638,-0.10827810499403212
5832,-0.08217940860324435,0.1195312786102295,82.77508544921875,82.63188171386719,-6.855449676513672,87.31675720214844,-0.4069093068440755,0.4226666666666667,0.35892857142857143,0.005492994520399305,-4.998631136962892,-0.49437012011718906,32.25563049316406,0.001591152615017361,-0.10191340976291233
5833,-0.06264815860324435,0.13945316314697265,84.77996826171875,83.61386108398438,-6.569034576416016,86.96897888183594,-0.4055454254150391,0.41833333333333333,0.35678571428571426,0.005828677283393012,-4.37242950732422,0.7140899896621704,32.25563049316406,0.012956746419270833,-0.09486681620279948
5834,-0.10171065860324435,0.13945316314697265,86.5188980102539,85.08683776855469,-6.691783905029297,86.98943328857422,-0.4050908406575521,0.41433333333333333,0.3517857142857143,0.0038756158616807725,-3.965946810791017,1.2963480949401855,32.25563049316406,0.015911780463324653,-0.09645796881781685
5835,-0.14467940860324435,0.13945316314697265,84.37080383300781,85.18913269042969,-6.8963623046875,87.21446990966797,-0.4050908406575521,0.4106666666666667,0.3489285714285714,0.0024718496534559464,-3.8011576109619156,0.10986000299453735,32.25563049316406,-0.009092542860243056,-0.1012314690483941
5836,-0.08217940860324435,0.13945316314697265,82.69325256347656,82.71371459960938,-6.3644561767578125,86.94851684570312,-0.40986434088812934,0.4076666666666667,0.34464285714285714,0.005370924207899305,-3.856087344238283,-0.4174677305908219,32.25563049316406,-0.00022735595703125,-0.09236636691623264
5837,-0.007960658603244358,0.13945316314697265,83.57295227050781,82.69325256347656,-6.507663726806641,86.92805480957031,-0.4091824001736111,0.4043333333333333,0.3417857142857143,0.008605692121717665,-3.6803099089355484,0.4723980128765106,32.25563049316406,0.009774441189236111,-0.09373020595974392
5838,0.0037580913967556425,0.15937503814697265,85.70057678222656,84.47309875488281,-6.221248626708984,86.80531311035156,-0.40668199327256943,0.4013333333333333,0.3367857142857143,0.009826363457573786,-3.7352415495605484,1.2853620052337646,32.25563049316406,0.013638644748263888,-0.08918401930067274
5839,-0.007960658603244358,0.15937503814697265,86.29386138916016,85.86424255371094,-5.914379119873047,86.37569427490234,-0.4060000525580512,0.398,0.3342857142857143,0.009948433770073786,-3.515520709106447,1.021697998046875,32.25563049316406,0.004773542616102431,-0.08100081549750435
5840,-0.011866908603244358,0.15937503814697265,85.557373046875,85.12775421142578,-5.8939208984375,86.02790832519531,-0.40668199327256943,0.39466666666666667,0.33071428571428574,0.010528246561686197,-3.0541082792968766,0.5493000149726868,32.25563049316406,0.004773542616102431,-0.07690921359592014
5841,-0.004054408603244358,0.15937503814697265,85.49600219726562,84.98455047607422,-5.423389434814453,41.900001525878906,-0.4060000525580512,0.391,0.32785714285714285,0.01107754177517361,-2.7355143004150406,0.35155200958251953,32.25563049316406,0.0056827969021267365,0.41862898932562936
5842,-0.011866908603244358,0.15937503814697265,84.26852416992188,84.57539367675781,-5.157432556152344,85.557373046875,-0.40577273898654515,0.388,0.3242857142857143,0.010711341434054904,-2.2741018706054703,0.2526780068874359,32.25563049316406,-0.003409661187065972,-0.06349784003363715
5843,-0.011866908603244358,0.15937503814697265,85.63920593261719,84.0434799194336,-5.11651611328125,41.900001525878906,-0.40577273898654515,0.385,0.32285714285714284,0.010802894168429904,-1.7577597075195328,0.4723980128765106,33.573978424072266,0.017730289035373263,0.4220386928982205
5844,-0.019679408603244356,0.15937503814697265,86.41661071777344,85.63920593261719,-4.952854156494141,85.25050354003906,-0.40577273898654515,0.382,0.32071428571428573,0.010589281717936197,-1.4391657286376969,0.1867620050907135,35.24388885498047,0.008637830946180555,-0.05781508551703559
5845,-0.015773158603244356,0.17929691314697266,85.31187438964844,85.63920593261719,-4.7482757568359375,85.31187438964844,-0.40577273898654515,0.37866666666666665,0.3192857142857143,0.010406176249186197,-1.0876146727294937,-0.5273291044921891,36.65013122558594,-0.003637017144097222,-0.056223890516493055
5846,-0.004054408603244358,0.17929691314697266,84.69813537597656,83.98210144042969,-5.014228820800781,85.80287170410156,-0.4062273661295573,0.37633333333333335,0.3171428571428571,0.010528246561686197,-0.6481748991699234,-0.8898664885253922,37.79269790649414,0.0079559326171875,-0.0646344502766927
5847,0.0037580913967556425,0.15937503814697265,84.0025634765625,83.57295227050781,-5.321098327636719,85.61874389648438,-0.4060000525580512,0.37366666666666665,0.31607142857142856,0.010528246561686197,-0.5932451658935562,-0.3625379973144547,37.96847915649414,0.004773457845052083,-0.06599824693467882
5848,-0.04702315860324436,0.15937503814697265,86.27340698242188,85.63920593261719,-5.157432556152344,85.33233642578125,-0.4050908406575521,0.371,0.31464285714285717,0.007629161410861545,-0.9667688780517594,0.4943700134754181,39.28683090209961,0.007046678331163195,-0.06099743313259549
5849,-0.12124190860324435,0.17929691314697266,86.02790832519531,85.76194763183594,-4.9733123779296875,85.37325286865234,-0.4034996456570096,0.36833333333333335,0.31464285714285717,0.0019225438435872396,-1.1095873289794937,-0.07690300280761875,40.34151077270508,0.0029551188151041665,-0.059406280517578125
5850,-0.13686690860324435,0.15937503814697265,82.75462341308594,82.87738037109375,-5.096061706542969,41.900001525878906,-0.40645467970106336,0.365,0.3142857142857143,9.15421379937066e-05,-0.8898664885253922,-1.1864878111572281,40.95674133300781,-0.0013639662000868055,0.42226596408420136
5851,-0.06655440860324435,0.17929691314697266,83.75706481933594,78.62211608886719,-4.830104827880859,85.88470458984375,-0.4125920613606771,0.36333333333333334,0.31392857142857145,0.0032347573174370658,-0.5273291044921891,-0.3076082640380875,40.95674133300781,0.05705498589409722,-0.06349788241916232
5852,-0.05483565860324436,0.17929691314697266,85.84378051757812,84.30943298339844,-5.3620147705078125,41.900001525878906,-0.4062273661295573,0.3596666666666667,0.31357142857142856,0.004028193155924479,-0.4614130430908219,1.4281799793243408,41.74774932861328,0.017048305935329862,0.4193109300401476
5853,-0.08608565860324435,0.17929691314697266,87.95095825195312,86.29386138916016,-5.44384765625,85.86424255371094,-0.40645467970106336,0.3566666666666667,0.31357142857142856,0.0029906272888183595,-0.801977770874025,1.6369140148162842,42.01142120361328,0.01841218736436632,-0.0700898912217882
5854,-0.12905440860324435,0.15937503814697265,86.64164733886719,83.47065734863281,-5.382472991943359,41.900001525878906,-0.40645467970106336,0.35333333333333333,0.31392857142857145,0.0019225438435872396,-1.175503390380861,0.24169200658798218,42.099308013916016,0.035233222113715275,0.4190836164686415
5855,-0.08608565860324435,0.15937503814697265,82.87738037109375,82.46821594238281,-4.830104827880859,85.68012237548828,-0.40986434088812934,0.351,0.31357142857142856,0.004028193155924479,-1.0986010008544937,-0.9008528166503922,42.099308013916016,0.004546271430121528,-0.061224746704101565
5856,-0.03921065860324436,0.17929691314697266,84.0434799194336,84.30943298339844,-5.177890777587891,86.0074462890625,-0.4091824001736111,0.34833333333333333,0.31464285714285717,0.006347465515136719,-0.812964098999025,-0.01098694140625156,42.099308013916016,-0.0029550340440538192,-0.06872596740722656
5857,-0.08999190860324435,0.13945316314697265,84.71859741210938,41.900001525878906,-5.546134948730469,86.0074462890625,-0.4055454254150391,0.3446666666666667,0.315,0.0037230279710557725,-1.131558077880861,0.35155200958251953,42.71453857421875,0.47576217651367186,-0.07281756930881077
5858,-0.10561690860324435,0.13945316314697265,84.39126586914062,84.1048583984375,-5.321098327636719,85.27096557617188,-0.40668199327256943,0.341,0.3157142857142857,0.0028380499945746527,-1.8236757689209,0.07690200209617615,42.71453857421875,0.003182305230034722,-0.062134043375651045
5859,-0.09389815860324435,0.13945316314697265,83.67523193359375,85.47554016113281,-4.8096466064453125,85.5982894897461,-0.40850050184461806,0.3383333333333333,0.31607142857142856,0.0037230279710557725,-1.7138163023681656,0.16479000449180603,42.71453857421875,-0.020003424750434026,-0.06008817884657118
5860,-0.08999190860324435,0.13945316314697265,86.49844360351562,85.68012237548828,-5.177890777587891,85.76194763183594,-0.40759124755859377,0.33466666666666667,0.31785714285714284,0.0039061334398057725,-1.3952223234863297,1.1205720901489258,42.71453857421875,0.009092458089192708,-0.06599820454915364
5861,-0.11733565860324435,0.1195312786102295,86.04837036132812,85.25050354003906,-5.300640106201172,41.900001525878906,-0.4073639339870877,0.331,0.3182142857142857,0.0037535455491807725,-1.4062086516113297,0.9447960257530212,42.71453857421875,0.008865186903211806,0.4199928707546658
5862,-0.08999190860324435,0.1195312786102295,85.43462371826172,85.20958709716797,-4.952854156494141,85.455078125,-0.4094097137451172,0.328,0.3192857142857143,0.005554029676649305,-1.2633902006835953,0.4064820110797882,42.97821044921875,0.0025004069010416668,-0.06008813646104601
5863,-0.06655440860324435,0.09960939407348633,85.41416931152344,41.900001525878906,-5.157432556152344,85.33233642578125,-0.4094097137451172,0.32466666666666666,0.32035714285714284,0.007751231723361545,-1.0986010008544937,0.24169200658798218,43.76921844482422,0.4834907531738281,-0.06099743313259549
5864,-0.04311690860324436,0.1195312786102295,84.45263671875,84.88226318359375,-4.8914794921875,85.68012237548828,-0.40781856113009984,0.321,0.3221428571428571,0.008270009358723959,-1.0546575957031266,0.2526780068874359,44.03289031982422,-0.004773627387152778,-0.061906687418619794
5865,-0.08217940860324435,0.1195312786102295,85.94607543945312,84.98455047607422,-5.300640106201172,85.82332611083984,-0.40577273898654515,0.318,0.32321428571428573,0.006316947937011719,-0.9118391447753922,0.6921180486679077,44.38444900512695,0.01068361070421007,-0.0680440690782335
5866,-0.13686690860324435,0.09960939407348633,84.86180114746094,83.73661041259766,-5.382472991943359,85.98699188232422,-0.4062273661295573,0.315,0.32392857142857145,0.004913181728786893,-0.6811319761962906,0.2856360077857971,44.38444900512695,0.01250211927625868,-0.07077183193630643
5867,-0.10561690860324435,0.1195312786102295,83.81844329833984,83.38882446289062,-5.546134948730469,85.98699188232422,-0.408273188273112,0.312,0.3246428571428571,0.005828677283393012,-0.6811319761962906,0.0,44.38444900512695,0.004773542616102431,-0.07259029812282985
5868,-0.08217940860324435,0.1195312786102295,83.73661041259766,83.4501953125,-5.505218505859375,86.39614868164062,-0.4073639339870877,0.30866666666666664,0.32607142857142857,0.005981265174018012,-0.9338098936767594,0.07690200209617615,44.38444900512695,0.0031823900010850693,-0.07668185763888889
5869,-0.07827315860324435,0.09960939407348633,84.28897857666016,84.0025634765625,-5.627967834472656,86.47798156738281,-0.4060000525580512,0.30666666666666664,0.3267857142857143,0.0070798661973741316,-1.2633902006835953,0.24169200658798218,44.82389831542969,0.0031823900010850693,-0.07895499335394965
5870,-0.05874190860324436,0.1195312786102295,85.1072998046875,41.900001525878906,-5.648426055908203,86.45751953125,-0.405318111843533,0.304,0.3275,0.008208974202473959,-1.516068118164064,0.9118380546569824,44.82389831542969,0.48008109198676213,-0.07895495096842448
5871,-0.13296065860324435,0.07968751907348633,85.02546691894531,84.6572265625,-5.66888427734375,86.45751953125,-0.40168113708496095,0.30133333333333334,0.32821428571428574,0.007140890757242838,-1.8676210814209,1.4062080383300781,44.29655838012695,0.004091559516059028,-0.07918226453993056
5872,-0.11733565860324435,0.13945316314697265,86.29386138916016,85.82332611083984,-5.648426055908203,85.88470458984375,-0.401908450656467,0.297,0.3296428571428571,0.006072807312011719,-2.4279066496582047,1.4611380100250244,44.29655838012695,0.005228169759114583,-0.07259034050835503
5873,-0.12124190860324435,0.13945316314697265,86.25294494628906,85.78240966796875,-5.607509613037109,86.02790832519531,-0.4039542728000217,0.2936666666666667,0.33035714285714285,0.006530560387505426,-2.834389346191408,0.9008520245552063,47.46059799194336,0.005228169759114583,-0.07372686598036024
5874,-0.08217940860324435,0.1195312786102295,86.0074462890625,84.90271759033203,-5.648426055908203,87.33721923828125,-0.40781856113009984,0.291,0.3325,0.009795845879448786,-2.263117449829103,-0.6262022429199234,47.54848861694336,0.01227476331922743,-0.0887293921576606
5875,-0.03530440860324436,0.1195312786102295,85.39370727539062,89.46485137939453,-6.323539733886719,86.84622192382812,-0.4060000525580512,0.2876666666666667,0.3335714285714286,0.01110805935329861,-2.142269747802736,0.032958000898361206,47.54848861694336,-0.045234934488932295,-0.09077512953016494
5876,-0.10561690860324435,0.09960939407348633,88.76927947998047,87.74638366699219,-5.996212005615234,86.23248291015625,-0.40122655232747395,0.2836666666666667,0.3360714285714286,0.009429645538330079,-2.7794596129150406,0.7360620498657227,47.72426986694336,0.011365509033203125,-0.08031883239746093
5877,-0.17202318638102215,0.09960939407348633,86.62118530273438,82.52958679199219,-5.914379119873047,86.58027648925781,-0.40122655232747395,0.281,0.3382142857142857,0.007140890757242838,-3.0760809355468766,-1.0216986113281266,47.72426986694336,0.04546220567491319,-0.0832739512125651
5878,-0.09780440860324435,0.09960939407348633,83.36836242675781,82.85691833496094,-5.996212005615234,86.88714599609375,-0.40850050184461806,0.27666666666666667,0.3410714285714286,0.008697244856092665,-2.878332751342775,-2.230158465454103,47.72426986694336,0.005682712131076389,-0.08759286668565539
5879,0.011570591396755642,0.1195312786102295,83.73661041259766,85.18913269042969,-6.016670227050781,86.74394226074219,-0.408727773030599,0.2733333333333333,0.34285714285714286,0.010802894168429904,-3.0211512022705094,-1.527054446289064,47.72426986694336,-0.0161391364203559,-0.0862290276421441
5880,0.011570591396755642,0.09960939407348633,85.68012237548828,85.18913269042969,-5.996212005615234,86.68256378173828,-0.40440889994303386,0.2703333333333333,0.345,0.009765328301323786,-2.856360095092775,-0.7360617094726578,47.72426986694336,0.005455440945095486,-0.08531973097059461
5881,-0.023585658603244356,0.1195312786102295,85.72103881835938,85.02546691894531,-6.016670227050781,88.0737075805664,-0.40440889994303386,0.26766666666666666,0.3457142857142857,0.007873291439480252,-2.3839632445068375,-0.3625379973144547,46.142250061035156,0.00772857666015625,-0.1010041978624132
5882,-0.03530440860324436,0.09960939407348633,85.557373046875,85.0459213256836,-7.019111633300781,87.05081176757812,-0.4062273661295573,0.265,0.3464285714285714,0.007293478647867838,-2.493822711059572,-0.3515516691894547,46.054359436035156,0.0056827969021267365,-0.10077692667643229
5883,-0.019679408603244356,0.07968751907348633,85.57783508300781,86.29386138916016,-6.528118133544922,86.90760040283203,-0.408727773030599,0.26166666666666666,0.3460714285714286,0.007842773861355252,-3.0101648741455094,0.02197200059890747,46.054359436035156,-0.007955847846137152,-0.09373020595974392
5884,-0.10171065860324435,0.09960939407348633,85.78240966796875,83.42974090576172,-6.507663726806641,86.96897888183594,-0.40054461161295574,0.259,0.3467857142857143,0.004241816202799479,-2.6695982390136734,-0.3845106535644547,46.054359436035156,0.02614076402452257,-0.09418491787380642
5885,-0.12514815860324435,0.13945316314697265,83.26608276367188,82.44775390625,-6.528118133544922,87.03034973144531,-0.40372695922851565,0.25566666666666665,0.3464285714285714,0.0011901431613498264,-2.6695982390136734,-1.4611383848876969,45.79069137573242,0.009092542860243056,-0.09509408738878038
5886,-0.07436690860324435,0.13945316314697265,83.5115737915039,83.83889770507812,-6.487205505371094,87.1121826171875,-0.4094097137451172,0.25333333333333335,0.3464285714285714,0.0020446141560872396,-2.7245279722900406,-1.1974741392822281,44.99967956542969,-0.003636932373046875,-0.0955487569173177
5887,-0.10171065860324435,0.09960939407348633,86.29386138916016,85.27096557617188,-6.548576354980469,88.31919860839844,-0.4041815863715278,0.251,0.3460714285714286,0.0011291080050998264,-2.504809039184572,-0.18676246936035312,44.99967956542969,0.011365509033203125,-0.1096419440375434
5888,-0.12905440860324435,0.09960939407348633,83.34790802001953,83.63432312011719,-7.305522918701172,87.15309143066406,-0.40645467970106336,0.248,0.34535714285714286,0.0001830948723687066,-3.3617159300537125,-0.3625379973144547,44.91178894042969,-0.0031823900010850693,-0.10509571499294705
5889,-0.10561690860324435,0.1195312786102295,84.02302551269531,83.92073059082031,-6.67132568359375,86.45751953125,-0.40645467970106336,0.24533333333333332,0.34535714285714286,0.0003967073228624132,-4.284540789672853,0.8019779920578003,44.91178894042969,0.0011366102430555556,-0.09032050238715278
5890,-0.12514815860324435,0.1195312786102295,84.5958480834961,84.88226318359375,-6.548576354980469,87.84866333007812,-0.40327233208550345,0.24233333333333335,0.3457142857142857,0.0001830948723687066,-3.6473528319091812,2.04339599609375,44.91178894042969,-0.0031823900010850693,-0.10441377427842882
5891,-0.14467940860324435,0.13945316314697265,85.37325286865234,84.67768096923828,-6.998653411865234,88.0123291015625,-0.40236307779947916,0.23766666666666666,0.3457142857142857,-3.0517578125e-05,-3.4496046477050797,2.186213970184326,44.91178894042969,0.00772857666015625,-0.11123313903808593
5892,-0.14858565860324435,0.1195312786102295,85.16867065429688,83.98210144042969,-6.937278747558594,87.05081176757812,-0.4073639339870877,0.234,0.3457142857142857,0.0016173786587185329,-4.4383455687255875,1.5050820112228394,44.91178894042969,0.013184102376302083,-0.09986767239040799
5893,-0.15639818638102215,0.07968751907348633,84.80043029785156,84.37080383300781,-6.650867462158203,86.90760040283203,-0.4107735951741536,0.23033333333333333,0.3460714285714286,0.004577498965793186,-4.866799014160158,2.032410144805908,44.91178894042969,0.004773627387152778,-0.09509408738878038
5894,-0.14467940860324435,0.1195312786102295,86.33477783203125,86.0074462890625,-6.67132568359375,86.80531311035156,-0.4041815863715278,0.22533333333333333,0.3475,0.005035241444905599,-4.471302645751955,2.515794038772583,44.91178894042969,0.003637017144097222,-0.09418487548828125
5895,-0.14858565860324435,0.1195312786102295,86.53935241699219,85.61874389648438,-6.650867462158203,86.82576751708984,-0.4060000525580512,0.221,0.34785714285714286,0.006713665856255426,-4.174681323120119,1.9994521141052246,44.56023025512695,0.010228983561197917,-0.09418483310275608
5896,-0.12905440860324435,0.1195312786102295,87.82821655273438,85.72103881835938,-6.630409240722656,86.84622192382812,-0.40440889994303386,0.21666666666666667,0.3485714285714286,0.008697244856092665,-3.976933138916017,1.450152039527893,44.38444900512695,0.0234130859375,-0.0941847907172309
5897,-0.10171065860324435,0.1195312786102295,85.94607543945312,85.43462371826172,-6.691783905029297,87.33721923828125,-0.408273188273112,0.212,0.3489285714285714,0.010558764139811197,-3.7901712828369156,0.7250760197639465,44.29655838012695,0.0056827969021267365,-0.10032225714789497
5898,-0.12514815860324435,0.09960939407348633,85.92561340332031,85.37325286865234,-6.712242126464844,87.15309143066406,-0.4069093068440755,0.20833333333333334,0.3482142857142857,0.010589281717936197,-3.6473528319091812,-0.04394401843261875,44.29655838012695,0.006137339274088541,-0.09850370619032119
5899,-0.14858565860324435,0.09960939407348633,85.35279846191406,83.24562072753906,-6.67132568359375,87.39859008789062,-0.4041815863715278,0.20433333333333334,0.3482142857142857,0.009429645538330079,-3.570450442382814,-0.5383154326171891,44.29655838012695,0.0234130859375,-0.10077684190538194
5900,-0.16421068638102215,0.09960939407348633,83.94119262695312,83.83889770507812,-6.732700347900391,87.23492431640625,-0.4055454254150391,0.19966666666666666,0.34785714285714286,0.007995361751980252,-3.812142031738283,-0.04394401843261875,42.275089263916016,0.0011366102430555556,-0.09964027404785156
5901,-0.13296065860324435,0.13945316314697265,89.95584106445312,87.99187469482422,-6.221248626708984,86.43707275390625,-0.40759124755859377,0.19566666666666666,0.3475,0.007842773861355252,-4.31749786669922,0.3076080083847046,42.099308013916016,0.02182184855143229,-0.08509245978461372
5902,-0.16030443638102215,0.1195312786102295,85.455078125,84.86180114746094,-6.303081512451172,87.66455078125,-0.4069093068440755,0.19166666666666668,0.34714285714285714,0.006744183434380426,-3.834114687988283,-1.0326849394531266,42.099308013916016,0.006591966417100695,-0.0996403588189019
5903,-0.12905440860324435,0.13945316314697265,85.39370727539062,84.5140151977539,-6.67132568359375,87.1121826171875,-0.4080458747016059,0.188,0.3464285714285714,0.006011782752143012,-3.6803099089355484,-1.7138163023681656,42.099308013916016,0.009774356418185763,-0.09759453667534722
5904,-0.10952315860324435,0.13945316314697265,85.20958709716797,84.73905181884766,-6.323539733886719,86.90760040283203,-0.40577273898654515,0.18433333333333332,0.3457142857142857,0.005340417226155599,-3.92200340563965,-1.7248026304931656,42.099308013916016,0.005228169759114583,-0.09145711263020834
5905,-0.09780440860324435,0.13945316314697265,85.25050354003906,84.63676452636719,-6.528118133544922,86.98943328857422,-0.40781856113009984,0.18066666666666667,0.34464285714285714,0.004638534122043186,-3.3507315092773453,-1.7577597075195328,42.099308013916016,0.006819322374131944,-0.09463946024576823
5906,-0.07436690860324435,0.13945316314697265,84.22760009765625,82.65233612060547,-6.548576354980469,87.03034973144531,-0.40759124755859377,0.177,0.3435714285714286,0.004272333780924479,-3.0980535917968766,-2.0873400145263687,42.01142120361328,0.017502933078342015,-0.09532140096028646
5907,-0.03921065860324436,0.1195312786102295,83.42974090576172,82.87738037109375,-6.569034576416016,87.0098876953125,-0.40986434088812934,0.174,0.3417857142857143,0.004608016543918186,-3.1419969969482437,-2.0104395323486344,42.01142120361328,0.006137339274088541,-0.09532135857476129
5908,-0.04311690860324436,0.13945316314697265,83.5934066772461,84.39126586914062,-6.5894927978515625,86.88714599609375,-0.4055454254150391,0.16933333333333334,0.3407142857142857,0.0025328742133246527,-3.2957998686523453,-0.9777552061767594,42.01142120361328,-0.008865102132161459,-0.09418487548828125
5909,-0.08217940860324435,0.13945316314697265,84.98455047607422,84.53446960449219,-6.569034576416016,86.86668395996094,-0.3998626708984375,0.166,0.34,-6.103515625e-05,-3.537493365356447,-0.2416922026367203,42.01142120361328,0.00500089857313368,-0.09373020595974392
5910,-0.08217940860324435,0.09960939407348633,84.96409606933594,84.45263671875,-6.548576354980469,86.88714599609375,-0.408273188273112,0.16233333333333333,0.3389285714285714,0.0004272249009874132,-3.3397451811523453,-0.2307058745117203,42.01142120361328,0.005682881673177083,-0.0937302483452691
5911,-0.08217940860324435,0.1195312786102295,84.96409606933594,84.82088470458984,-6.159877777099609,85.74149322509766,-0.4060000525580512,0.15866666666666668,0.33785714285714286,-9.1552734375e-05,-3.3067861967773453,0.14281800389289856,42.01142120361328,0.0015912373860677083,-0.07668190002441407
5912,-0.12124190860324435,0.09960939407348633,85.37325286865234,84.94363403320312,-5.280181884765625,85.43462371826172,-0.40486348470052086,0.15466666666666667,0.33785714285714286,-0.0010986010233561198,-2.812416689941408,0.36253800988197327,42.01142120361328,0.004773542616102431,-0.06349784003363715
5913,-0.14467940860324435,0.09960939407348633,85.5164566040039,85.02546691894531,-5.484760284423828,85.76194763183594,-0.405318111843533,0.15066666666666667,0.3375,-0.0019530720180935329,-1.9445234709472672,0.7140899896621704,42.01142120361328,0.005455440945095486,-0.06940786573621961
5914,-0.11733565860324435,0.15937503814697265,85.61874389648438,90.50820922851562,-5.709800720214844,86.37569427490234,-0.40645467970106336,0.14733333333333334,0.3364285714285714,-0.0025939199659559464,-1.5819841795654312,1.3952220678329468,43.76921844482422,-0.054327392578125,-0.07872772216796875
5915,-0.15639818638102215,0.15937503814697265,84.554931640625,82.48867797851562,-6.794075012207031,87.82821655273438,-0.40168113708496095,0.144,0.33464285714285713,-0.0028990851508246527,-1.5819841795654312,0.032958000898361206,43.76921844482422,0.0229583740234375,-0.10691435072157118
5916,-0.08999190860324435,0.1195312786102295,82.91828918457031,85.33233642578125,-6.487205505371094,87.562255859375,-0.4135013156467014,0.142,0.3335714285714286,0.0010375658671061198,-2.6146685057373062,-0.3954969816894547,43.85710906982422,-0.026822747124565973,-0.10054957071940104
5917,-0.09389815860324435,0.09960939407348633,85.557373046875,87.0098876953125,-6.609951019287109,86.17111206054688,-0.4060000525580512,0.13833333333333334,0.3335714285714286,0.0018920262654622396,-3.4496046477050797,2.7904441356658936,43.85710906982422,-0.016139051649305555,-0.08645625644259983
5918,-0.16811693638102215,0.13945316314697265,87.27584838867188,86.68256378173828,-6.037128448486328,85.80287170410156,-0.3978168487548828,0.13533333333333333,0.3342857142857143,-0.0008849885728624132,-3.856087344238283,3.922002077102661,43.85710906982422,0.0065920511881510414,-0.07600000169542101
5919,-0.19155443638102215,0.13945316314697265,86.74394226074219,85.0050048828125,-5.934837341308594,86.559814453125,-0.4050908406575521,0.13133333333333333,0.33535714285714285,0.0007934252421061198,-2.7135435515136734,1.9994521141052246,43.85710906982422,0.01932152642144097,-0.08327390882703993
5920,-0.12124190860324435,0.15937503814697265,85.98699188232422,86.04837036132812,-6.016670227050781,86.45751953125,-0.4089551289876302,0.12766666666666668,0.3357142857142857,0.004608016543918186,-2.219172137329103,1.7797319889068604,43.85710906982422,-0.0006819831000434028,-0.08304655287000869
5921,-0.16421068638102215,0.1195312786102295,88.0123291015625,85.65966796875,-5.9757537841796875,86.58027648925781,-0.4071366204155816,0.12433333333333334,0.33535714285714285,0.005645582411024305,-2.0324102812500016,1.307334065437317,43.85710906982422,0.026140679253472222,-0.08395589192708333
5922,-0.14077315860324435,0.15937503814697265,86.25294494628906,85.86424255371094,-6.057586669921875,85.5164566040039,-0.4039542728000217,0.12033333333333333,0.33535714285714285,0.005737124549018012,-2.153256075927736,0.9887400269508362,43.85710906982422,0.0043189154730902775,-0.07304492526584201
5923,-0.16421068638102215,0.15937503814697265,86.27340698242188,85.74149322509766,-4.380031585693359,86.86668395996094,-0.4039542728000217,0.118,0.33535714285714285,0.005645582411024305,-1.9005781584472672,0.4723980128765106,43.85710906982422,0.005910152859157986,-0.06940795050726997
5924,-0.17592943638102215,0.1195312786102295,83.38882446289062,83.53202819824219,-5.853004455566406,86.96897888183594,-0.4071366204155816,0.115,0.335,0.006439007653130426,-0.9008528166503922,-1.1864878111572281,43.85710906982422,-0.001591152615017361,-0.08691092597113716
5925,-0.14858565860324435,0.09960939407348633,85.455078125,85.0459213256836,-6.507663726806641,87.39859008789062,-0.4089551289876302,0.11233333333333333,0.3342857142857143,0.007842773861355252,-1.549027102539064,-0.9228254729003922,43.85710906982422,0.00454618665907118,-0.0989583757188585
5926,-0.17202318638102215,0.1195312786102295,85.455078125,85.63920593261719,-6.282623291015625,86.41661071777344,-0.4014538235134549,0.11033333333333334,0.3339285714285714,0.004546981387668186,-3.0650946074218766,-0.3845106535644547,43.85710906982422,-0.002045864529079861,-0.0855470445421007
5927,-0.19936693638102215,0.1195312786102295,85.84378051757812,85.06637573242188,-5.914379119873047,86.37569427490234,-0.4034996456570096,0.10766666666666666,0.3342857142857143,0.0029906272888183595,-3.4825636320800797,-1.0216986113281266,43.85710906982422,0.008637830946180555,-0.08100081549750435
5928,-0.24233568638102215,0.07968751907348633,84.80043029785156,82.97966003417969,-5.873462677001953,86.41661071777344,-0.40850050184461806,0.10533333333333333,0.335,0.003967157999674479,-2.9772058897705094,-1.516068118164064,43.85710906982422,0.020230780707465278,-0.08100081549750435
5929,-0.14858565860324435,0.1195312786102295,83.552490234375,83.69569396972656,-5.853004455566406,85.98699188232422,-0.4055454254150391,0.10166666666666667,0.3357142857142857,0.0029295921325683595,-2.823403018066408,-0.9777552061767594,44.03289031982422,-0.001591152615017361,-0.07599995930989584
5930,-0.10952315860324435,0.13945316314697265,84.5140151977539,85.18913269042969,-5.730258941650391,86.662109375,-0.405318111843533,0.09766666666666667,0.3364285714285714,0.0032042503356933595,-2.856360095092775,-0.5273291044921891,44.03289031982422,-0.007501305474175347,-0.08213742574055989
5931,-0.14077315860324435,0.13945316314697265,85.61874389648438,85.06637573242188,-6.548576354980469,87.62362670898438,-0.4055454254150391,0.09533333333333334,0.3367857142857143,0.0015868610805935329,-2.834389346191408,-0.4284540587158219,44.03289031982422,0.006137424045138889,-0.10191336737738715
5932,-0.19936693638102215,0.1195312786102295,85.47554016113281,81.77264404296875,-6.7531585693359375,87.91004180908203,-0.40440889994303386,0.09233333333333334,0.33714285714285713,-0.0010986010233561198,-3.7462259703369156,-0.9228254729003922,44.03289031982422,0.04114329020182292,-0.10736889309353298
5933,-0.31655443638102215,0.07968751907348633,82.32501220703125,82.12042999267578,-7.325981140136719,86.39614868164062,-0.40645467970106336,0.089,0.33785714285714286,-0.0016784244113498264,-4.888771670410158,-0.5383154326171891,44.03289031982422,0.002273135715060764,-0.09691255357530382
5934,-0.17202318638102215,0.07968751907348633,84.39126586914062,84.26852416992188,-5.873462677001953,86.17111206054688,-0.41168284946017797,0.08433333333333333,0.34,0.0013732486300998264,-5.086517947265627,0.9667680263519287,44.03289031982422,0.0013637966579861111,-0.07827305263943142
5935,-0.05874190860324436,0.09960939407348633,87.93049621582031,87.66455078125,-6.016670227050781,86.45751953125,-0.4144105699327257,0.08,0.3417857142857143,0.005920230017768012,-4.174681323120119,1.6149420738220215,44.03289031982422,0.0029549492730034724,-0.08304655287000869
5936,-0.08999190860324435,0.13945316314697265,87.0712661743164,84.41172790527344,-6.159877777099609,86.88714599609375,-0.4028177049424913,0.076,0.3432142857142857,0.004638534122043186,-3.812142031738283,1.4721240997314453,43.85710906982422,0.02955042521158854,-0.089411375257704
5937,-0.12124190860324435,0.13945316314697265,84.90271759033203,84.35034942626953,-6.282623291015625,86.96897888183594,-0.40372695922851565,0.07233333333333333,0.3432142857142857,0.0037535455491807725,-3.6253801756591812,1.0107120275497437,43.85710906982422,0.006137424045138889,-0.09168446858723958
5938,-0.12124190860324435,0.13945316314697265,84.96409606933594,83.67523193359375,-6.282623291015625,85.90515899658203,-0.40486348470052086,0.068,0.3432142857142857,0.004821628994411893,-3.6253801756591812,0.8349360227584839,42.01142120361328,0.01432071261935764,-0.07986424763997396
5939,-0.13686690860324435,0.13945316314697265,84.06393432617188,83.47065734863281,-5.873462677001953,87.72592163085938,-0.40440889994303386,0.065,0.34214285714285714,0.004028193155924479,-3.3946749144287125,0.032958000898361206,41.83563995361328,0.006591966417100695,-0.09554871453179253
5940,-0.14467940860324435,0.1195312786102295,83.92073059082031,83.42974090576172,-6.405372619628906,87.39859008789062,-0.40759124755859377,0.062,0.3407142857142857,0.004455428653293186,-3.856087344238283,-0.3954969816894547,41.83563995361328,0.005455440945095486,-0.09782180786132813
5941,-0.12905440860324435,0.13945316314697265,84.0025634765625,84.92317199707031,-6.323539733886719,86.94851684570312,-0.40668199327256943,0.058,0.34,0.004424911075168186,-4.130736010620119,-0.19774879748535312,41.83563995361328,-0.010228983561197917,-0.09191173977322048
5942,-0.15639818638102215,0.1195312786102295,82.61141967773438,80.15646362304688,-6.343997955322266,86.74394226074219,-0.4000899844699436,0.05466666666666667,0.3389285714285714,0.0030211448669433595,-4.119751589843752,-1.4501520567626969,41.39619064331055,0.027277289496527777,-0.08986600240071614
5943,-0.06264815860324435,0.13945316314697265,79.41996765136719,84.96409606933594,-6.323539733886719,85.90515899658203,-0.41304668850368925,0.051,0.3385714285714286,0.005187829335530599,-4.163694994995119,-0.7580343657226578,40.69306945800781,-0.06160142686631945,-0.0803188747829861
5944,-0.05092940860324436,0.13945316314697265,86.43707275390625,86.15065002441406,-5.525676727294922,86.0074462890625,-0.4062273661295573,0.047,0.33714285714285713,0.006011782752143012,-3.6803099089355484,1.6918439865112305,40.69306945800781,0.0031824747721354166,-0.07259025573730468
5945,-0.11342940860324435,0.13945316314697265,86.70301818847656,86.39614868164062,-5.177890777587891,87.21446990966797,-0.3989534166124132,0.043666666666666666,0.3357142857142857,0.004150263468424479,-2.5926958494873062,2.2521300315856934,40.69306945800781,0.003409661187065972,-0.08213734096950955
5946,-0.12124190860324435,0.1195312786102295,87.43951416015625,87.09172058105469,-5.607509613037109,86.64164733886719,-0.40645467970106336,0.04066666666666666,0.3339285714285714,0.006225395202636719,-1.4831110411376969,1.4611380100250244,40.69306945800781,0.0038643731011284723,-0.08054618835449219
5947,-0.09780440860324435,0.1195312786102295,87.58271789550781,87.0712661743164,-5.607509613037109,86.80531311035156,-0.40986434088812934,0.038,0.33214285714285713,0.008666727277967665,-1.7248026304931656,0.41746801137924194,40.69306945800781,0.0056827969021267365,-0.0823646969265408
5948,-0.08608565860324435,0.1195312786102295,85.94607543945312,82.07951354980469,-5.66888427734375,87.09172058105469,-0.40759124755859377,0.034666666666666665,0.3296428571428571,0.009154997931586372,-2.4279066496582047,-1.175503390380861,40.69306945800781,0.042961798773871525,-0.08622894287109376
5949,-0.04311690860324436,0.09960939407348633,81.9567642211914,84.82088470458984,-5.3620147705078125,85.16867065429688,-0.41191016303168404,0.031,0.32821428571428574,0.010406176249186197,-3.3067861967773453,-1.131558077880861,40.69306945800781,-0.03182356092664931,-0.06145206027560764
5950,-0.03921065860324436,0.09960939407348633,85.5982894897461,85.37325286865234,-4.911937713623047,85.31187438964844,-0.40259039137098523,0.028666666666666667,0.3271428571428571,0.009765328301323786,-3.0431219511718766,0.02197200059890747,40.69306945800781,0.0025004069010416668,-0.058042356703016496
5951,-0.03921065860324436,0.1195312786102295,85.84378051757812,84.84133911132812,-4.871021270751953,85.90515899658203,-0.4069093068440755,0.024333333333333332,0.3264285714285714,0.009490680694580079,-2.0214239531250016,-0.2307058745117203,40.69306945800781,0.011138237847222222,-0.06417978074815538
5952,-0.04311690860324436,0.1195312786102295,85.16867065429688,82.46821594238281,-5.218807220458984,85.92561340332031,-0.40781856113009984,0.020666666666666667,0.3246428571428571,0.008910857306586372,-1.7028299742431656,-0.3735243254394547,40.69306945800781,0.030005052354600693,-0.06827134026421441
5953,-0.05874190860324436,0.1195312786102295,84.37080383300781,86.49844360351562,-5.218807220458984,86.68256378173828,-0.405318111843533,0.017666666666666667,0.32285714285714284,0.008239491780598959,-1.3293062620849625,0.8129640221595764,40.69306945800781,-0.02364044189453125,-0.07668190002441407
5954,-0.06655440860324435,0.1195312786102295,87.48042297363281,86.02790832519531,-5.44384765625,86.27340698242188,-0.4055454254150391,0.014333333333333333,0.3196428571428571,0.008636209699842665,-1.120571749755861,0.9338099956512451,40.69306945800781,0.016139051649305555,-0.07463616265190973
5955,-0.05874190860324436,0.15937503814697265,87.99187469482422,86.1097412109375,-5.8120880126953125,86.47798156738281,-0.405318111843533,0.011,0.3175,0.008636209699842665,-1.0546575957031266,0.4943700134754181,40.69306945800781,0.020912594265407987,-0.08100077311197916
5956,-0.06264815860324435,0.15937503814697265,83.92073059082031,83.92073059082031,-5.566593170166016,85.41416931152344,-0.408273188273112,0.008666666666666666,0.31357142857142856,0.008483632405598959,-1.0107122832031266,-0.5932451658935562,38.14426040649414,0.0,-0.06645291646321615
5957,-0.08217940860324435,0.1195312786102295,84.69813537597656,87.19401550292969,-4.441402435302734,82.5091323852539,-0.408273188273112,0.005333333333333333,0.31107142857142855,0.007690196567111545,-0.6921183043212906,-0.01098694140625156,36.82590866088867,-0.027732001410590276,-0.02167260911729601
5958,-0.14077315860324435,0.1195312786102295,85.90515899658203,83.32745361328125,-2.6001853942871094,82.12042999267578,-0.40259039137098523,0.003,0.3075,0.005370924207899305,1.1864880323410034,-0.4614130430908219,31.991960525512695,0.028641170925564237,0.003104273478190104
5959,-0.12514815860324435,0.1195312786102295,83.69569396972656,84.18669128417969,-0.7589645385742188,81.48623657226562,-0.4062273661295573,0.0006666666666666666,0.30392857142857144,0.004760593838161893,2.13128399848938,-0.4394403868408219,26.71855926513672,-0.005455525716145834,0.03060887654622396
5960,-0.10561690860324435,0.13945316314697265,88.93293762207031,85.25050354003906,-1.1681251525878906,82.38638305664062,-0.4073639339870877,-0.0006666666666666666,0.2982142857142857,0.005035241444905599,2.603682041168213,-0.04394401843261875,26.63067054748535,0.04091593424479167,0.016061019897460938
5961,-0.17202318638102215,0.09960939407348633,84.02302551269531,84.08439636230469,-1.4340782165527344,79.17447662353516,-0.40781856113009984,-0.0006666666666666666,0.29428571428571426,0.0036314752366807725,2.2521300315856934,-0.49437012011718906,26.63067054748535,-0.0006818983289930556,0.04879383511013455
5962,-0.26967943638102215,0.07968751907348633,84.35034942626953,83.69569396972656,1.1231727600097656,76.12623596191406,-0.40440889994303386,-0.0006666666666666666,0.2885714285714286,0.0009765307108561198,2.4828360080718994,-0.2416922026367203,26.63067054748535,0.0072739495171440975,0.1110770755343967
5963,-0.23842943638102215,0.09960939407348633,83.79798889160156,86.70301818847656,3.598590850830078,76.02394104003906,-0.4050908406575521,0.0,0.285,-0.0,3.779184103012085,0.516342043876648,26.63067054748535,-0.03227810329861111,0.1397183312310113
